017510/20130128/90000/4835/12487/10/
017510/20130128/90001/4875/200/20/
017510/20130128/90005/4870/100/20/
017510/20130128/90015/4870/100/20/
017510/20130128/90027/4870/120/20/
017510/20130128/90045/4850/500/10/
017510/20130128/90056/4865/500/20/
017510/20130128/90056/4870/500/20/
017510/20130128/90059/4870/100/20/
017510/20130128/90228/4850/544/10/
017510/20130128/90235/4845/208/10/
017510/20130128/90238/4845/864/10/
017510/20130128/90238/4845/480/10/
017510/20130128/90238/4845/1451/10/
017510/20130128/90259/4845/269/20/
017510/20130128/90300/4840/100/10/
017510/20130128/90306/4850/996/20/
017510/20130128/90312/4850/500/10/
017510/20130128/90313/4850/297/10/
017510/20130128/90324/4845/201/10/
017510/20130128/90324/4840/731/10/
017510/20130128/90337/4835/1556/10/
017510/20130128/90341/4835/180/10/
017510/20130128/90355/4830/101/10/
017510/20130128/90403/4835/85/20/
017510/20130128/90417/4835/172/10/
017510/20130128/90516/4840/229/20/
017510/20130128/90529/4840/200/10/
017510/20130128/90542/4840/192/10/
017510/20130128/90603/4835/835/10/
017510/20130128/90611/4835/5381/10/
017510/20130128/90613/4830/621/10/
017510/20130128/90720/4835/300/20/
017510/20130128/90723/4835/303/20/
017510/20130128/90733/4830/1115/10/
017510/20130128/90738/4835/500/20/
017510/20130128/90820/4835/519/10/
017510/20130128/90823/4835/189/10/
017510/20130128/90842/4840/500/20/
017510/20130128/90915/4840/250/20/
017510/20130128/90923/4840/115/20/
017510/20130128/91003/4840/250/10/
017510/20130128/91110/4845/994/20/
017510/20130128/91223/4850/965/20/
017510/20130128/91227/4850/201/20/
017510/20130128/91247/4845/550/10/
017510/20130128/91412/4850/91/20/
017510/20130128/91425/4850/1148/20/
017510/20130128/91432/4845/2387/10/
017510/20130128/91440/4845/113/20/
017510/20130128/91442/4845/87/10/
017510/20130128/91449/4845/113/20/
017510/20130128/91458/4850/100/20/
017510/20130128/91537/4845/129/10/
017510/20130128/91557/4840/82/10/
017510/20130128/91613/4840/500/10/
017510/20130128/91616/4840/500/10/
017510/20130128/91617/4840/121/10/
017510/20130128/91617/4835/424/10/
017510/20130128/91638/4835/600/10/
017510/20130128/91643/4835/696/10/
017510/20130128/91648/4835/304/20/
017510/20130128/91659/4835/400/10/
017510/20130128/91708/4835/500/10/
017510/20130128/91721/4835/187/10/
017510/20130128/91803/4830/603/10/
017510/20130128/91806/4830/100/10/
017510/20130128/91812/4830/110/10/
017510/20130128/91825/4830/996/10/
017510/20130128/91845/4830/500/10/
017510/20130128/91845/4830/599/10/
017510/20130128/91848/4830/964/10/
017510/20130128/91848/4830/700/10/
017510/20130128/91848/4830/200/10/
017510/20130128/91850/4830/1000/10/
017510/20130128/91852/4830/86/10/
017510/20130128/91853/4830/500/10/
017510/20130128/91856/4830/300/10/
017510/20130128/91858/4830/818/10/
017510/20130128/91904/4825/125/10/
017510/20130128/91914/4825/141/10/
017510/20130128/91926/4820/358/10/
017510/20130128/91931/4815/107/10/
017510/20130128/91940/4810/359/10/
017510/20130128/91940/4805/827/10/
017510/20130128/91940/4800/1164/10/
017510/20130128/92011/4805/89/10/
017510/20130128/92014/4805/671/10/
017510/20130128/92014/4800/325/10/
017510/20130128/92043/4810/119/20/
017510/20130128/92043/4810/81/10/
017510/20130128/92043/4800/119/10/
017510/20130128/92111/4805/400/10/
017510/20130128/92111/4805/792/10/
017510/20130128/92125/4805/1002/10/
017510/20130128/92128/4805/584/10/
017510/20130128/92143/4800/3262/10/
017510/20130128/92210/4800/164/10/
017510/20130128/92216/4800/300/20/
017510/20130128/92232/4810/86/20/
017510/20130128/92232/4800/89/10/
017510/20130128/92310/4800/300/10/
017510/20130128/92328/4795/1479/10/
017510/20130128/92329/4800/100/20/
017510/20130128/92341/4790/160/10/
017510/20130128/92344/4790/300/10/
017510/20130128/92353/4790/163/10/
017510/20130128/92423/4790/657/10/
017510/20130128/92437/4785/2927/10/
017510/20130128/92439/4780/248/10/
017510/20130128/92505/4780/189/10/
017510/20130128/92523/4780/409/10/
017510/20130128/92537/4775/171/10/
017510/20130128/92537/4770/157/10/
017510/20130128/92537/4765/999/10/
017510/20130128/92537/4760/1162/10/
017510/20130128/92537/4755/533/10/
017510/20130128/92537/4755/200/10/
017510/20130128/92540/4755/927/10/
017510/20130128/92540/4750/273/10/
017510/20130128/92618/4760/411/10/
017510/20130128/92622/4760/300/20/
017510/20130128/92628/4760/739/20/
017510/20130128/92643/4760/654/10/
017510/20130128/92645/4760/200/20/
017510/20130128/92648/4760/266/20/
017510/20130128/92658/4760/276/10/
017510/20130128/92735/4760/500/10/
017510/20130128/92738/4760/549/10/
017510/20130128/92743/4760/200/20/
017510/20130128/92757/4760/201/20/
017510/20130128/92819/4770/135/20/
017510/20130128/92844/4770/555/10/
017510/20130128/92844/4760/674/10/
017510/20130128/92939/4765/205/10/
017510/20130128/92939/4760/800/10/
017510/20130128/92954/4770/220/10/
017510/20130128/92955/4770/100/10/
017510/20130128/93017/4775/100/20/
017510/20130128/93028/4770/200/10/
017510/20130128/93039/4770/485/10/
017510/20130128/93122/4770/605/20/
017510/20130128/93208/4775/100/20/
017510/20130128/93209/4770/600/10/
017510/20130128/93238/4770/243/20/
017510/20130128/93244/4770/2757/20/
017510/20130128/93247/4770/243/10/
017510/20130128/93324/4770/202/20/
017510/20130128/93412/4770/83/20/
017510/20130128/93419/4770/1000/20/
017510/20130128/93437/4770/203/20/
017510/20130128/93438/4770/300/20/
017510/20130128/93438/4770/100/20/
017510/20130128/93441/4770/1776/20/
017510/20130128/93449/4775/282/20/
017510/20130128/93509/4790/627/20/
017510/20130128/93712/4780/326/10/
017510/20130128/93726/4780/1950/10/
017510/20130128/93726/4775/1130/10/
017510/20130128/93726/4770/637/10/
017510/20130128/93726/4765/289/10/
017510/20130128/93738/4790/500/20/
017510/20130128/93849/4780/100/10/
017510/20130128/94023/4785/85/10/
017510/20130128/94255/4780/193/20/
017510/20130128/94444/4775/120/10/
017510/20130128/94457/4775/500/10/
017510/20130128/94513/4780/257/20/
017510/20130128/94605/4785/95/20/
017510/20130128/94632/4780/289/10/
017510/20130128/94632/4775/180/10/
017510/20130128/94647/4775/352/10/
017510/20130128/94854/4780/497/10/
017510/20130128/94854/4775/506/10/
017510/20130128/95001/4790/2425/20/
017510/20130128/95001/4800/3619/20/
017510/20130128/95013/4800/300/20/
017510/20130128/95135/4800/500/20/
017510/20130128/95156/4800/450/20/
017510/20130128/95157/4800/200/20/
017510/20130128/95205/4800/500/20/
017510/20130128/95207/4800/200/20/
017510/20130128/95210/4800/100/20/
017510/20130128/95221/4800/100/20/
017510/20130128/95223/4800/500/20/
017510/20130128/95304/4800/500/20/
017510/20130128/95405/4790/352/20/
017510/20130128/95516/4790/201/10/
017510/20130128/95536/4790/186/10/
017510/20130128/95734/4795/108/20/
017510/20130128/95742/4790/300/10/
017510/20130128/95752/4790/421/10/
017510/20130128/95820/4790/480/20/
017510/20130128/95921/4795/4030/20/
017510/20130128/95921/4795/800/20/
017510/20130128/95921/4800/99/20/
017510/20130128/100030/4800/200/20/
017510/20130128/100030/4800/725/20/
017510/20130128/100122/4830/127/20/
017510/20130128/101528/4815/1552/20/
017510/20130128/101537/4815/200/10/
017510/20130128/101623/4815/312/20/
017510/20130128/101624/4815/100/20/
017510/20130128/101641/4815/90/20/
017510/20130128/101642/4810/1133/10/
017510/20130128/101642/4805/367/10/
017510/20130128/101804/4815/167/20/
017510/20130128/101804/4820/102/20/
017510/20130128/101825/4810/100/10/
017510/20130128/101825/4805/400/10/
017510/20130128/101912/4820/148/20/
017510/20130128/101930/4820/724/10/
017510/20130128/102340/4810/421/10/
017510/20130128/102418/4805/1254/10/
017510/20130128/102431/4805/1045/10/
017510/20130128/102431/4800/1957/10/
017510/20130128/102552/4800/560/10/
017510/20130128/103044/4815/116/20/
017510/20130128/103343/4815/380/10/
017510/20130128/103818/4820/115/20/
017510/20130128/103945/4820/853/20/
017510/20130128/104043/4820/151/10/
017510/20130128/104152/4820/113/20/
017510/20130128/104258/4820/110/20/
017510/20130128/104303/4815/1000/10/
017510/20130128/104339/4815/97/10/
017510/20130128/104343/4815/500/10/
017510/20130128/104841/4815/102/10/
017510/20130128/104946/4815/200/10/
017510/20130128/105118/4815/173/10/
017510/20130128/105511/4820/865/20/
017510/20130128/105530/4820/140/20/
017510/20130128/105900/4815/391/10/
017510/20130128/110232/4815/446/10/
017510/20130128/110238/4815/84/20/
017510/20130128/110807/4810/131/10/
017510/20130128/111225/4810/158/10/
017510/20130128/111357/4810/200/10/
017510/20130128/111420/4810/500/10/
017510/20130128/111737/4810/195/10/
017510/20130128/111854/4810/81/10/
017510/20130128/111954/4810/509/10/
017510/20130128/112105/4805/1049/10/
017510/20130128/112215/4805/1185/10/
017510/20130128/112306/4805/99/20/
017510/20130128/112609/4805/245/20/
017510/20130128/112711/4805/110/20/
017510/20130128/112734/4805/202/20/
017510/20130128/112912/4805/96/20/
017510/20130128/112934/4805/472/20/
017510/20130128/113311/4805/220/20/
017510/20130128/113311/4805/333/10/
017510/20130128/113434/4800/1300/10/
017510/20130128/113530/4800/200/10/
017510/20130128/113546/4800/3517/10/
017510/20130128/113546/4795/2118/10/
017510/20130128/113546/4790/2903/10/
017510/20130128/113559/4785/500/10/
017510/20130128/113612/4785/1000/10/
017510/20130128/113638/4785/1439/10/
017510/20130128/113756/4785/218/20/
017510/20130128/113818/4790/412/20/
017510/20130128/114607/4800/133/20/
017510/20130128/115121/4800/230/10/
017510/20130128/115646/4795/300/10/
017510/20130128/115706/4795/856/10/
017510/20130128/115715/4795/867/10/
017510/20130128/115832/4795/144/20/
017510/20130128/120401/4790/622/10/
017510/20130128/120421/4790/2000/10/
017510/20130128/120439/4790/114/10/
017510/20130128/120628/4790/485/20/
017510/20130128/120650/4800/1378/20/
017510/20130128/120837/4805/1301/20/
017510/20130128/121233/4800/300/10/
017510/20130128/121952/4795/1520/10/
017510/20130128/122353/4795/113/10/
017510/20130128/122426/4790/526/10/
017510/20130128/122456/4790/349/20/
017510/20130128/122552/4785/2017/10/
017510/20130128/122602/4790/164/20/
017510/20130128/122643/4785/917/10/
017510/20130128/122922/4790/85/20/
017510/20130128/122946/4790/210/20/
017510/20130128/123027/4790/405/20/
017510/20130128/123508/4800/375/20/
017510/20130128/123813/4790/452/10/
017510/20130128/124100/4800/1020/20/
017510/20130128/124102/4800/84/20/
017510/20130128/124615/4790/1278/10/
017510/20130128/124615/4785/2722/10/
017510/20130128/125037/4790/912/10/
017510/20130128/125122/4790/353/20/
017510/20130128/125204/4790/155/20/
017510/20130128/125256/4790/107/20/
017510/20130128/125640/4790/208/10/
017510/20130128/130156/4800/171/20/
017510/20130128/130330/4795/494/10/
017510/20130128/130405/4795/117/10/
017510/20130128/131022/4800/475/20/
017510/20130128/131555/4795/103/10/
017510/20130128/131856/4800/641/20/
017510/20130128/131927/4795/667/10/
017510/20130128/132147/4800/131/20/
017510/20130128/132830/4800/134/10/
017510/20130128/133140/4800/102/10/
017510/20130128/133140/4795/104/10/
017510/20130128/133140/4790/864/10/
017510/20130128/133216/4800/1000/10/
017510/20130128/134301/4800/400/10/
017510/20130128/134337/4805/200/20/
017510/20130128/134422/4805/219/20/
017510/20130128/134638/4805/115/20/
017510/20130128/134803/4800/1011/10/
017510/20130128/134912/4800/148/10/
017510/20130128/135023/4800/500/10/
017510/20130128/135305/4800/5832/10/
017510/20130128/135444/4800/4534/10/
017510/20130128/135723/4805/534/20/
017510/20130128/135806/4805/290/10/
017510/20130128/140529/4810/204/20/
017510/20130128/141110/4800/210/10/
017510/20130128/141458/4800/122/10/
017510/20130128/141556/4805/164/10/
017510/20130128/141645/4805/150/10/
017510/20130128/141645/4800/3575/10/
017510/20130128/141740/4795/176/10/
017510/20130128/141805/4800/634/20/
017510/20130128/141843/4800/200/20/
017510/20130128/141848/4800/100/20/
017510/20130128/142004/4800/766/20/
017510/20130128/142129/4800/101/10/
017510/20130128/142159/4800/1787/10/
017510/20130128/142247/4800/215/20/
017510/20130128/142510/4795/1268/10/
017510/20130128/142615/4790/3523/10/
017510/20130128/142615/4785/227/10/
017510/20130128/142841/4790/142/10/
017510/20130128/143024/4800/117/10/
017510/20130128/143136/4800/136/10/
017510/20130128/143136/4795/870/10/
017510/20130128/143137/4795/811/10/
017510/20130128/143231/4795/162/20/
017510/20130128/143308/4795/300/10/
017510/20130128/143435/4795/1607/20/
017510/20130128/143435/4800/100/20/
017510/20130128/143437/4800/4303/10/
017510/20130128/143437/4790/697/10/
017510/20130128/143453/4790/1001/10/
017510/20130128/143512/4790/3000/10/
017510/20130128/143625/4795/502/10/
017510/20130128/143626/4795/500/10/
017510/20130128/143734/4790/597/10/
017510/20130128/143734/4785/3047/10/
017510/20130128/143809/4780/2688/10/
017510/20130128/143813/4780/1000/10/
017510/20130128/143836/4795/500/20/
017510/20130128/143837/4780/1000/10/
017510/20130128/143931/4780/2894/10/
017510/20130128/144049/4785/153/10/
017510/20130128/144200/4790/275/20/
017510/20130128/144223/4785/2010/10/
017510/20130128/144304/4785/658/20/
017510/20130128/144315/4785/1001/20/
017510/20130128/144353/4785/331/20/
017510/20130128/144417/4785/100/10/
017510/20130128/144441/4785/1000/10/
017510/20130128/144507/4785/106/10/
017510/20130128/144507/4785/100/20/
017510/20130128/144517/4785/89/20/
017510/20130128/144546/4785/205/20/
017510/20130128/144715/4795/81/20/
017510/20130128/144816/4800/525/20/
017510/20130128/144856/4810/833/20/
017510/20130128/144856/4815/801/20/
017510/20130128/144856/4820/559/20/
017510/20130128/144930/4820/84/20/
017510/20130128/144944/4810/303/10/
017510/20130128/144948/4815/307/20/
017510/20130128/144948/4820/870/20/
017510/20130128/150000/4800/5540/20/
