017510/20121115/90000/4580/14063/10/
017510/20121115/90003/4530/118/10/
017510/20121115/90003/4525/109/10/
017510/20121115/90003/4520/675/10/
017510/20121115/90018/4525/150/10/
017510/20121115/90018/4525/100/20/
017510/20121115/90018/4525/214/20/
017510/20121115/90028/4520/1000/10/
017510/20121115/90032/4525/101/20/
017510/20121115/90032/4520/101/10/
017510/20121115/90042/4525/215/10/
017510/20121115/90042/4520/796/10/
017510/20121115/90046/4520/611/10/
017510/20121115/90051/4520/1285/20/
017510/20121115/90059/4565/200/20/
017510/20121115/90157/4525/230/10/
017510/20121115/90213/4530/200/10/
017510/20121115/90240/4560/460/20/
017510/20121115/90240/4565/798/20/
017510/20121115/90244/4580/230/20/
017510/20121115/90244/4595/400/20/
017510/20121115/90244/4600/2560/20/
017510/20121115/90245/4600/100/10/
017510/20121115/90304/4605/234/10/
017510/20121115/90316/4605/278/10/
017510/20121115/90328/4600/500/20/
017510/20121115/90355/4595/574/20/
017510/20121115/90357/4595/894/10/
017510/20121115/90357/4570/301/10/
017510/20121115/90357/4565/509/10/
017510/20121115/90357/4560/303/10/
017510/20121115/90357/4550/1493/10/
017510/20121115/90408/4550/3675/10/
017510/20121115/90410/4530/82/10/
017510/20121115/90501/4540/302/10/
017510/20121115/90501/4535/998/10/
017510/20121115/90556/4540/1053/10/
017510/20121115/90639/4545/201/10/
017510/20121115/90655/4540/700/10/
017510/20121115/90656/4545/300/20/
017510/20121115/90656/4540/4092/10/
017510/20121115/90656/4535/2183/10/
017510/20121115/90656/4530/774/10/
017510/20121115/90712/4585/265/20/
017510/20121115/90802/4575/200/20/
017510/20121115/90844/4575/492/20/
017510/20121115/90850/4575/508/10/
017510/20121115/90851/4575/500/20/
017510/20121115/90901/4575/89/20/
017510/20121115/90902/4575/218/20/
017510/20121115/90925/4560/500/10/
017510/20121115/90925/4555/3801/10/
017510/20121115/90925/4550/1511/10/
017510/20121115/90925/4545/871/10/
017510/20121115/90940/4550/1000/10/
017510/20121115/90940/4545/2388/10/
017510/20121115/90940/4535/512/10/
017510/20121115/90940/4530/914/10/
017510/20121115/90940/4525/1531/10/
017510/20121115/90951/4525/155/20/
017510/20121115/90957/4525/867/10/
017510/20121115/91000/4525/133/20/
017510/20121115/91011/4540/200/20/
017510/20121115/91022/4530/264/10/
017510/20121115/91025/4530/95/10/
017510/20121115/91030/4530/405/20/
017510/20121115/91034/4530/500/10/
017510/20121115/91035/4530/95/10/
017510/20121115/91036/4530/82/20/
017510/20121115/91038/4530/323/20/
017510/20121115/91041/4530/177/10/
017510/20121115/91044/4530/323/20/
017510/20121115/91044/4540/300/20/
017510/20121115/91056/4540/193/10/
017510/20121115/91057/4540/607/10/
017510/20121115/91057/4525/893/10/
017510/20121115/91119/4540/400/20/
017510/20121115/91131/4530/3059/10/
017510/20121115/91131/4525/941/10/
017510/20121115/91135/4560/170/20/
017510/20121115/91214/4560/200/20/
017510/20121115/91237/4560/161/20/
017510/20121115/91256/4560/200/20/
017510/20121115/91336/4560/201/20/
017510/20121115/91345/4575/286/20/
017510/20121115/91345/4575/468/20/
017510/20121115/91354/4580/500/20/
017510/20121115/91445/4560/666/10/
017510/20121115/91601/4555/1985/10/
017510/20121115/91618/4550/130/10/
017510/20121115/91618/4540/254/10/
017510/20121115/91620/4540/206/10/
017510/20121115/91637/4545/145/10/
017510/20121115/91704/4545/1000/10/
017510/20121115/91704/4540/1580/10/
017510/20121115/91720/4540/234/10/
017510/20121115/91720/4535/1670/10/
017510/20121115/91720/4530/1600/10/
017510/20121115/91758/4525/3043/10/
017510/20121115/91758/4520/980/10/
017510/20121115/91852/4525/3042/10/
017510/20121115/91852/4520/1115/10/
017510/20121115/91852/4515/1273/10/
017510/20121115/91852/4510/1052/10/
017510/20121115/91856/4510/230/10/
017510/20121115/91858/4510/1080/10/
017510/20121115/91858/4510/120/10/
017510/20121115/91904/4510/1340/10/
017510/20121115/91904/4510/1000/10/
017510/20121115/91910/4510/406/10/
017510/20121115/91910/4505/229/10/
017510/20121115/91910/4500/2772/10/
017510/20121115/91912/4500/560/10/
017510/20121115/91913/4500/2069/10/
017510/20121115/91929/4500/931/20/
017510/20121115/92009/4505/101/10/
017510/20121115/92024/4510/101/10/
017510/20121115/92024/4505/305/10/
017510/20121115/92039/4515/271/10/
017510/20121115/92039/4505/118/10/
017510/20121115/92110/4525/202/20/
017510/20121115/92110/4530/247/20/
017510/20121115/92150/4545/1040/20/
017510/20121115/92206/4545/600/10/
017510/20121115/92220/4545/400/10/
017510/20121115/92247/4550/300/20/
017510/20121115/92345/4560/353/20/
017510/20121115/92345/4560/222/20/
017510/20121115/92351/4565/674/20/
017510/20121115/92359/4570/500/20/
017510/20121115/92359/4570/1150/20/
017510/20121115/92402/4560/190/10/
017510/20121115/92427/4570/510/20/
017510/20121115/92427/4575/1150/20/
017510/20121115/92427/4580/3879/20/
017510/20121115/92427/4585/531/20/
017510/20121115/92454/4585/654/20/
017510/20121115/92512/4590/503/20/
017510/20121115/92512/4595/304/20/
017510/20121115/92512/4600/505/20/
017510/20121115/92513/4590/288/10/
017510/20121115/92536/4570/438/10/
017510/20121115/92608/4570/90/10/
017510/20121115/92608/4560/364/10/
017510/20121115/92628/4560/500/10/
017510/20121115/92646/4575/100/20/
017510/20121115/92650/4580/18000/20/
017510/20121115/92714/4600/112/20/
017510/20121115/92720/4610/400/20/
017510/20121115/92724/4610/113/20/
017510/20121115/92724/4615/502/20/
017510/20121115/92730/4620/189/20/
017510/20121115/92802/4645/88/20/
017510/20121115/92809/4610/623/20/
017510/20121115/93012/4635/132/20/
017510/20121115/93015/4635/308/10/
017510/20121115/93031/4635/581/10/
017510/20121115/93031/4580/239/10/
017510/20121115/93031/4575/471/10/
017510/20121115/93031/4560/153/10/
017510/20121115/93215/4630/501/20/
017510/20121115/93709/4600/1147/10/
017510/20121115/93947/4585/86/10/
017510/20121115/94055/4580/102/10/
017510/20121115/94124/4580/500/10/
017510/20121115/94146/4575/359/10/
017510/20121115/94146/4570/321/10/
017510/20121115/94146/4565/504/10/
017510/20121115/94146/4560/102/10/
017510/20121115/94146/4555/501/10/
017510/20121115/94146/4550/213/10/
017510/20121115/94159/4550/600/10/
017510/20121115/94223/4555/500/10/
017510/20121115/94223/4550/1030/10/
017510/20121115/94257/4540/1070/10/
017510/20121115/94257/4535/500/10/
017510/20121115/94257/4530/2700/10/
017510/20121115/94302/4530/100/20/
017510/20121115/94316/4530/411/10/
017510/20121115/94323/4530/1599/10/
017510/20121115/94323/4520/1486/10/
017510/20121115/94323/4515/551/10/
017510/20121115/94323/4510/1764/10/
017510/20121115/94351/4530/201/10/
017510/20121115/94538/4540/386/10/
017510/20121115/94538/4535/1323/10/
017510/20121115/94538/4530/899/10/
017510/20121115/94538/4525/1395/10/
017510/20121115/94609/4530/138/10/
017510/20121115/94629/4530/562/10/
017510/20121115/94633/4530/299/10/
017510/20121115/94633/4525/201/10/
017510/20121115/94722/4565/98/20/
017510/20121115/94722/4570/500/20/
017510/20121115/94730/4570/402/10/
017510/20121115/94800/4535/209/10/
017510/20121115/94825/4535/112/10/
017510/20121115/94825/4530/208/10/
017510/20121115/95053/4545/103/10/
017510/20121115/95101/4545/400/10/
017510/20121115/95130/4560/200/20/
017510/20121115/95135/4545/119/20/
017510/20121115/95200/4545/181/20/
017510/20121115/95258/4545/857/10/
017510/20121115/95311/4540/1000/10/
017510/20121115/95337/4535/1760/10/
017510/20121115/95337/4530/1168/10/
017510/20121115/95337/4525/960/10/
017510/20121115/95345/4525/150/10/
017510/20121115/95353/4525/909/10/
017510/20121115/95501/4530/600/10/
017510/20121115/95608/4530/350/10/
017510/20121115/95612/4530/950/10/
017510/20121115/95635/4530/645/20/
017510/20121115/95654/4530/355/10/
017510/20121115/95658/4525/98/10/
017510/20121115/95709/4530/645/20/
017510/20121115/95741/4530/300/10/
017510/20121115/95805/4540/300/20/
017510/20121115/95816/4530/1401/10/
017510/20121115/95842/4540/300/20/
017510/20121115/95851/4540/89/20/
017510/20121115/100028/4530/536/10/
017510/20121115/100028/4525/474/10/
017510/20121115/100032/4525/100/10/
017510/20121115/100034/4525/1090/10/
017510/20121115/100034/4525/1640/10/
017510/20121115/100118/4520/400/10/
017510/20121115/100118/4520/353/10/
017510/20121115/100200/4520/880/10/
017510/20121115/100200/4515/120/10/
017510/20121115/100205/4515/2000/10/
017510/20121115/100211/4515/655/10/
017510/20121115/100211/4510/2345/10/
017510/20121115/100224/4510/1973/10/
017510/20121115/100244/4505/1253/10/
017510/20121115/100244/4500/747/10/
017510/20121115/100305/4500/1000/10/
017510/20121115/100315/4500/1330/10/
017510/20121115/100317/4500/1990/10/
017510/20121115/100317/4495/876/10/
017510/20121115/100342/4495/161/20/
017510/20121115/100402/4500/100/10/
017510/20121115/100402/4500/350/20/
017510/20121115/100418/4500/670/10/
017510/20121115/100418/4495/269/10/
017510/20121115/100418/4490/231/10/
017510/20121115/100418/4485/1365/10/
017510/20121115/100418/4480/1299/10/
017510/20121115/100420/4480/300/20/
017510/20121115/100424/4480/1866/20/
017510/20121115/100456/4485/1001/10/
017510/20121115/100739/4500/241/10/
017510/20121115/100802/4500/400/10/
017510/20121115/100808/4500/272/10/
017510/20121115/100819/4500/500/20/
017510/20121115/100829/4490/400/10/
017510/20121115/100859/4485/214/10/
017510/20121115/100921/4490/509/10/
017510/20121115/100927/4485/893/10/
017510/20121115/100927/4480/107/10/
017510/20121115/100942/4485/400/10/
017510/20121115/100942/4480/4600/10/
017510/20121115/100946/4485/880/10/
017510/20121115/100949/4480/1104/10/
017510/20121115/100951/4470/1649/10/
017510/20121115/100952/4465/554/10/
017510/20121115/101002/4460/1776/10/
017510/20121115/101006/4455/91/10/
017510/20121115/101051/4470/100/10/
017510/20121115/101124/4475/120/10/
017510/20121115/101131/4475/400/10/
017510/20121115/101235/4490/100/20/
017510/20121115/101241/4490/100/20/
017510/20121115/101248/4490/100/20/
017510/20121115/101313/4490/410/20/
017510/20121115/101313/4490/600/10/
017510/20121115/101447/4475/604/10/
017510/20121115/101505/4470/936/10/
017510/20121115/101507/4465/1200/10/
017510/20121115/101549/4460/112/10/
017510/20121115/101549/4455/388/10/
017510/20121115/101605/4460/1843/10/
017510/20121115/101615/4460/157/10/
017510/20121115/101615/4455/1000/10/
017510/20121115/101622/4455/400/10/
017510/20121115/101803/4455/273/10/
017510/20121115/101924/4470/205/20/
017510/20121115/101938/4475/500/20/
017510/20121115/101938/4490/500/20/
017510/20121115/101946/4490/300/20/
017510/20121115/101946/4500/700/20/
017510/20121115/102041/4475/791/10/
017510/20121115/102106/4475/100/20/
017510/20121115/102114/4470/1000/10/
017510/20121115/102116/4470/91/10/
017510/20121115/102150/4460/534/10/
017510/20121115/102155/4460/682/10/
017510/20121115/102217/4455/754/10/
017510/20121115/102255/4450/738/10/
017510/20121115/102255/4445/816/10/
017510/20121115/102255/4440/192/10/
017510/20121115/102255/4435/416/10/
017510/20121115/102255/4425/371/10/
017510/20121115/102255/4420/394/10/
017510/20121115/102255/4415/1047/10/
017510/20121115/102255/4410/6027/10/
017510/20121115/102303/4410/948/10/
017510/20121115/102303/4405/341/10/
017510/20121115/102303/4400/341/10/
017510/20121115/102308/4400/346/10/
017510/20121115/102417/4410/83/10/
017510/20121115/102417/4405/311/10/
017510/20121115/102417/4400/5567/10/
017510/20121115/102434/4400/112/10/
017510/20121115/102437/4400/771/10/
017510/20121115/102440/4400/266/10/
017510/20121115/102443/4400/314/20/
017510/20121115/102449/4400/1000/10/
017510/20121115/102450/4400/246/10/
017510/20121115/102452/4400/114/20/
017510/20121115/102507/4390/257/20/
017510/20121115/102509/4385/1001/10/
017510/20121115/102515/4390/422/20/
017510/20121115/102520/4390/217/20/
017510/20121115/102520/4395/204/20/
017510/20121115/102520/4400/119/20/
017510/20121115/102534/4400/280/10/
017510/20121115/102537/4400/500/10/
017510/20121115/102735/4435/272/20/
017510/20121115/102741/4435/500/20/
017510/20121115/103029/4435/154/20/
017510/20121115/103033/4415/249/10/
017510/20121115/103040/4410/302/10/
017510/20121115/103040/4405/253/10/
017510/20121115/103047/4405/964/10/
017510/20121115/103052/4405/215/10/
017510/20121115/103058/4405/85/20/
017510/20121115/103120/4400/830/10/
017510/20121115/103120/4395/104/10/
017510/20121115/103125/4390/105/10/
017510/20121115/103156/4385/323/10/
017510/20121115/103202/4385/390/20/
017510/20121115/103203/4385/625/10/
017510/20121115/103206/4385/198/10/
017510/20121115/103206/4380/302/10/
017510/20121115/103212/4380/500/10/
017510/20121115/103219/4385/456/10/
017510/20121115/103225/4385/2000/10/
017510/20121115/103236/4385/2079/10/
017510/20121115/103244/4385/477/10/
017510/20121115/103244/4380/2314/10/
017510/20121115/103244/4375/483/10/
017510/20121115/103308/4375/1000/10/
017510/20121115/103314/4375/400/10/
017510/20121115/103343/4380/336/10/
017510/20121115/103343/4375/664/10/
017510/20121115/103428/4380/550/10/
017510/20121115/103500/4380/300/10/
017510/20121115/103505/4380/220/10/
017510/20121115/103607/4385/202/10/
017510/20121115/103648/4390/1724/10/
017510/20121115/103659/4390/122/20/
017510/20121115/103719/4390/204/20/
017510/20121115/103732/4390/630/10/
017510/20121115/103745/4390/500/10/
017510/20121115/103801/4390/2868/10/
017510/20121115/103810/4390/132/20/
017510/20121115/103831/4390/568/10/
017510/20121115/103903/4390/1432/20/
017510/20121115/103908/4390/568/10/
017510/20121115/103927/4390/100/20/
017510/20121115/103949/4390/730/20/
017510/20121115/103952/4390/855/20/
017510/20121115/103952/4420/445/20/
017510/20121115/104017/4400/529/10/
017510/20121115/104017/4390/101/10/
017510/20121115/104023/4390/999/20/
017510/20121115/104023/4420/704/20/
017510/20121115/104030/4420/2000/10/
017510/20121115/104030/4420/693/10/
017510/20121115/104042/4420/1104/10/
017510/20121115/104055/4415/100/20/
017510/20121115/104102/4390/500/10/
017510/20121115/104106/4420/946/20/
017510/20121115/104107/4420/1000/10/
017510/20121115/104121/4425/100/20/
017510/20121115/104127/4420/500/10/
017510/20121115/104129/4425/100/20/
017510/20121115/104143/4425/110/20/
017510/20121115/104144/4420/99/10/
017510/20121115/104154/4425/200/20/
017510/20121115/104216/4420/94/10/
017510/20121115/104220/4420/341/10/
017510/20121115/104227/4420/118/10/
017510/20121115/104232/4420/801/10/
017510/20121115/104518/4420/202/20/
017510/20121115/104518/4430/798/20/
017510/20121115/104809/4430/279/20/
017510/20121115/104825/4430/342/20/
017510/20121115/104825/4435/3658/20/
017510/20121115/104831/4435/189/20/
017510/20121115/105239/4455/153/20/
017510/20121115/105249/4470/300/20/
017510/20121115/105258/4470/220/20/
017510/20121115/105539/4480/228/20/
017510/20121115/105554/4480/200/10/
017510/20121115/105633/4480/100/10/
017510/20121115/105650/4480/100/10/
017510/20121115/105756/4485/100/20/
017510/20121115/105759/4485/200/20/
017510/20121115/105911/4490/147/20/
017510/20121115/105950/4495/95/20/
017510/20121115/110042/4490/211/10/
017510/20121115/110043/4490/100/20/
017510/20121115/110054/4490/193/20/
017510/20121115/110108/4490/98/20/
017510/20121115/110201/4485/231/10/
017510/20121115/110253/4480/200/10/
017510/20121115/110319/4480/300/10/
017510/20121115/110328/4490/758/20/
017510/20121115/110402/4500/256/20/
017510/20121115/110412/4505/500/20/
017510/20121115/110611/4505/103/20/
017510/20121115/110705/4505/431/20/
017510/20121115/110711/4505/560/10/
017510/20121115/110718/4510/400/20/
017510/20121115/110808/4495/229/10/
017510/20121115/110808/4490/580/10/
017510/20121115/110840/4490/522/10/
017510/20121115/110840/4480/478/10/
017510/20121115/110905/4480/500/10/
017510/20121115/110909/4480/100/10/
017510/20121115/110915/4480/100/20/
017510/20121115/110952/4480/120/10/
017510/20121115/110958/4470/201/10/
017510/20121115/110958/4460/1301/10/
017510/20121115/111112/4460/118/10/
017510/20121115/111119/4460/182/10/
017510/20121115/111119/4445/218/10/
017510/20121115/111415/4455/110/10/
017510/20121115/111415/4450/101/10/
017510/20121115/111415/4445/153/10/
017510/20121115/111415/4440/354/10/
017510/20121115/111533/4450/675/10/
017510/20121115/111533/4445/100/10/
017510/20121115/111533/4440/225/10/
017510/20121115/111851/4490/556/20/
017510/20121115/111851/4495/607/20/
017510/20121115/111851/4500/712/20/
017510/20121115/111857/4500/1000/10/
017510/20121115/111911/4500/990/10/
017510/20121115/111914/4500/100/10/
017510/20121115/111930/4500/354/10/
017510/20121115/111935/4500/200/10/
017510/20121115/111940/4500/455/10/
017510/20121115/111954/4500/93/10/
017510/20121115/112426/4500/100/20/
017510/20121115/112810/4505/463/20/
017510/20121115/112830/4505/575/10/
017510/20121115/113221/4500/122/10/
017510/20121115/113228/4500/332/20/
017510/20121115/113228/4505/188/20/
017510/20121115/114422/4500/86/20/
017510/20121115/114459/4500/473/20/
017510/20121115/114517/4500/500/10/
017510/20121115/114537/4500/2119/10/
017510/20121115/115029/4485/128/10/
017510/20121115/115029/4480/744/10/
017510/20121115/115029/4470/132/10/
017510/20121115/115050/4470/214/10/
017510/20121115/115050/4465/118/10/
017510/20121115/115050/4460/102/10/
017510/20121115/115245/4495/100/20/
017510/20121115/115339/4475/446/10/
017510/20121115/115442/4470/143/10/
017510/20121115/115540/4470/485/10/
017510/20121115/115825/4480/250/20/
017510/20121115/115834/4480/950/10/
017510/20121115/115834/4470/533/10/
017510/20121115/115834/4465/401/10/
017510/20121115/115834/4460/116/10/
017510/20121115/115837/4485/250/20/
017510/20121115/120200/4485/200/20/
017510/20121115/120332/4465/440/10/
017510/20121115/120508/4490/100/20/
017510/20121115/120720/4490/421/20/
017510/20121115/120754/4495/407/20/
017510/20121115/120813/4495/95/20/
017510/20121115/120953/4500/3351/20/
017510/20121115/120953/4505/1003/20/
017510/20121115/121010/4515/281/20/
017510/20121115/121011/4515/296/20/
017510/20121115/121015/4520/222/20/
017510/20121115/121023/4520/111/20/
017510/20121115/121045/4510/185/10/
017510/20121115/121045/4505/146/10/
017510/20121115/121045/4505/2169/20/
017510/20121115/121357/4500/501/20/
017510/20121115/121400/4495/99/10/
017510/20121115/121517/4490/1621/10/
017510/20121115/121911/4480/179/10/
017510/20121115/121911/4475/163/10/
017510/20121115/121911/4470/636/10/
017510/20121115/122227/4490/100/10/
017510/20121115/122227/4465/174/10/
017510/20121115/122237/4465/146/10/
017510/20121115/122243/4460/104/10/
017510/20121115/122339/4460/300/10/
017510/20121115/123200/4460/82/10/
017510/20121115/123221/4460/465/10/
017510/20121115/123752/4470/1003/10/
017510/20121115/124331/4470/134/10/
017510/20121115/124739/4465/114/10/
017510/20121115/124743/4465/222/20/
017510/20121115/124817/4460/367/10/
017510/20121115/124954/4455/596/10/
017510/20121115/125053/4450/2500/10/
017510/20121115/125053/4450/2000/10/
017510/20121115/125053/4450/2458/10/
017510/20121115/125107/4450/145/10/
017510/20121115/125149/4450/238/10/
017510/20121115/125341/4450/420/20/
017510/20121115/125915/4485/86/20/
017510/20121115/130142/4485/249/20/
017510/20121115/130428/4490/100/20/
017510/20121115/130516/4490/564/20/
017510/20121115/130516/4495/436/20/
017510/20121115/130739/4495/451/20/
017510/20121115/131658/4480/91/10/
017510/20121115/132121/4485/125/10/
017510/20121115/132144/4485/898/10/
017510/20121115/132335/4485/100/20/
017510/20121115/132439/4485/224/10/
017510/20121115/132836/4490/272/20/
017510/20121115/133119/4485/228/10/
017510/20121115/133255/4480/86/10/
017510/20121115/133255/4475/214/10/
017510/20121115/133633/4480/104/20/
017510/20121115/133649/4480/1500/10/
017510/20121115/133920/4480/221/10/
017510/20121115/133920/4475/299/10/
017510/20121115/134047/4475/492/10/
017510/20121115/134533/4475/369/10/
017510/20121115/134623/4475/1000/10/
017510/20121115/134649/4475/352/10/
017510/20121115/134649/4470/286/10/
017510/20121115/135057/4470/1060/10/
017510/20121115/135102/4470/500/10/
017510/20121115/135156/4470/730/10/
017510/20121115/135357/4465/833/10/
017510/20121115/135417/4460/2512/10/
017510/20121115/135704/4465/411/20/
017510/20121115/135704/4470/2590/20/
017510/20121115/135707/4460/563/10/
017510/20121115/135729/4460/100/10/
017510/20121115/135857/4470/114/20/
017510/20121115/140002/4480/500/20/
017510/20121115/140052/4475/519/10/
017510/20121115/140144/4470/705/10/
017510/20121115/140151/4470/500/10/
017510/20121115/140216/4475/476/20/
017510/20121115/140216/4480/300/20/
017510/20121115/140216/4485/1000/20/
017510/20121115/140216/4490/681/20/
017510/20121115/140216/4500/743/20/
017510/20121115/140735/4490/940/20/
017510/20121115/140948/4495/1561/20/
017510/20121115/141016/4500/100/20/
017510/20121115/141038/4500/2226/20/
017510/20121115/141038/4510/2518/20/
017510/20121115/141042/4515/156/20/
017510/20121115/141101/4515/442/20/
017510/20121115/141323/4510/84/10/
017510/20121115/141401/4500/481/10/
017510/20121115/141415/4495/500/10/
017510/20121115/141426/4490/702/10/
017510/20121115/141428/4490/89/10/
017510/20121115/141436/4500/1359/20/
017510/20121115/141452/4500/925/20/
017510/20121115/141517/4500/815/10/
017510/20121115/141523/4500/250/10/
017510/20121115/141542/4500/510/10/
017510/20121115/141936/4490/382/10/
017510/20121115/141936/4485/150/10/
017510/20121115/142105/4480/300/10/
017510/20121115/142105/4475/700/10/
017510/20121115/142211/4475/555/10/
017510/20121115/142221/4470/125/10/
017510/20121115/142221/4470/1000/10/
017510/20121115/142224/4470/1100/10/
017510/20121115/142409/4475/592/10/
017510/20121115/142409/4470/158/10/
017510/20121115/142427/4475/199/10/
017510/20121115/142434/4470/300/10/
017510/20121115/142652/4470/121/10/
017510/20121115/142820/4475/570/20/
017510/20121115/142929/4475/112/20/
017510/20121115/143043/4475/183/20/
017510/20121115/143117/4470/2040/10/
017510/20121115/143120/4470/320/10/
017510/20121115/143205/4470/465/10/
017510/20121115/143251/4470/1370/10/
017510/20121115/143325/4470/114/10/
017510/20121115/143359/4470/111/10/
017510/20121115/143359/4465/1489/10/
017510/20121115/143446/4465/100/10/
017510/20121115/143519/4465/100/10/
017510/20121115/143523/4465/472/10/
017510/20121115/143612/4465/137/10/
017510/20121115/143710/4465/870/10/
017510/20121115/143710/4460/1615/10/
017510/20121115/143717/4460/1648/10/
017510/20121115/143717/4450/4310/10/
017510/20121115/143725/4450/170/20/
017510/20121115/143726/4450/200/20/
017510/20121115/143745/4450/116/20/
017510/20121115/143752/4450/375/10/
017510/20121115/143810/4450/661/10/
017510/20121115/143918/4450/1071/10/
017510/20121115/143923/4450/207/10/
017510/20121115/143923/4445/1093/10/
017510/20121115/143946/4445/264/10/
017510/20121115/144001/4450/200/20/
017510/20121115/144009/4450/120/20/
017510/20121115/144010/4445/1400/10/
017510/20121115/144011/4450/130/20/
017510/20121115/144114/4450/124/20/
017510/20121115/144124/4450/100/20/
017510/20121115/144153/4465/164/20/
017510/20121115/144202/4450/4000/10/
017510/20121115/144229/4450/1056/10/
017510/20121115/144229/4445/3081/10/
017510/20121115/144257/4445/1048/10/
017510/20121115/144258/4440/1865/10/
017510/20121115/144258/4435/493/10/
017510/20121115/144324/4440/113/20/
017510/20121115/144324/4445/388/20/
017510/20121115/144330/4435/1996/10/
017510/20121115/144330/4430/415/10/
017510/20121115/144346/4430/300/10/
017510/20121115/144356/4430/677/10/
017510/20121115/144411/4430/100/20/
017510/20121115/144414/4430/223/20/
017510/20121115/144442/4435/2100/10/
017510/20121115/144511/4435/159/10/
017510/20121115/144511/4430/891/10/
017510/20121115/144525/4430/3500/10/
017510/20121115/144530/4430/466/10/
017510/20121115/144552/4425/472/10/
017510/20121115/144609/4430/121/20/
017510/20121115/144620/4425/110/10/
017510/20121115/144633/4425/1000/10/
017510/20121115/144635/4425/276/10/
017510/20121115/144659/4425/224/10/
017510/20121115/144703/4430/200/20/
017510/20121115/144727/4425/1097/10/
017510/20121115/144727/4420/689/10/
017510/20121115/144732/4430/120/20/
017510/20121115/144732/4420/199/10/
017510/20121115/144738/4430/107/20/
017510/20121115/144741/4425/110/20/
017510/20121115/144749/4420/284/10/
017510/20121115/144752/4420/520/10/
017510/20121115/144821/4420/188/10/
017510/20121115/144826/4420/436/10/
017510/20121115/144826/4415/1281/10/
017510/20121115/144826/4410/594/10/
017510/20121115/144834/4410/400/10/
017510/20121115/144842/4410/4693/10/
017510/20121115/144856/4405/170/10/
017510/20121115/144902/4405/103/10/
017510/20121115/144904/4405/536/10/
017510/20121115/144904/4405/150/10/
017510/20121115/144920/4405/547/10/
017510/20121115/144920/4400/248/10/
017510/20121115/144936/4405/102/10/
017510/20121115/144936/4400/1431/10/
017510/20121115/144940/4405/235/10/
017510/20121115/144951/4405/1379/10/
017510/20121115/144955/4405/100/20/
017510/20121115/150000/4405/14586/10/
