017510/20121214/91047/4860/853/20/
017510/20121214/91212/4860/147/10/
017510/20121214/91212/4855/921/10/
017510/20121214/91224/4870/190/20/
017510/20121214/91310/4855/100/10/
017510/20121214/91310/4850/336/10/
017510/20121214/91652/4855/254/10/
017510/20121214/91706/4855/315/10/
017510/20121214/91706/4850/996/10/
017510/20121214/91706/4845/302/10/
017510/20121214/91706/4840/154/10/
017510/20121214/91725/4840/470/10/
017510/20121214/91816/4840/301/20/
017510/20121214/91848/4835/1580/10/
017510/20121214/91849/4835/420/20/
017510/20121214/91900/4830/480/10/
017510/20121214/91908/4830/122/10/
017510/20121214/91910/4830/200/20/
017510/20121214/91912/4830/1336/20/
017510/20121214/91944/4825/227/10/
017510/20121214/91944/4820/1928/10/
017510/20121214/91948/4820/200/20/
017510/20121214/91948/4820/100/20/
017510/20121214/91958/4820/489/20/
017510/20121214/92000/4815/500/10/
017510/20121214/92016/4815/224/10/
017510/20121214/92039/4825/115/20/
017510/20121214/92041/4820/480/10/
017510/20121214/92059/4825/154/20/
017510/20121214/92139/4825/330/10/
017510/20121214/92248/4820/1100/10/
017510/20121214/92248/4815/2800/10/
017510/20121214/92309/4815/704/10/
017510/20121214/92446/4840/815/20/
017510/20121214/92446/4845/219/20/
017510/20121214/92510/4850/547/20/
017510/20121214/92542/4865/170/20/
017510/20121214/92556/4865/100/20/
017510/20121214/92610/4865/200/20/
017510/20121214/92921/4860/110/20/
017510/20121214/92921/4860/539/10/
017510/20121214/92958/4845/141/10/
017510/20121214/93526/4840/537/10/
017510/20121214/93929/4830/969/10/
017510/20121214/93942/4830/1401/10/
017510/20121214/93942/4825/100/10/
017510/20121214/93942/4820/1919/10/
017510/20121214/93942/4815/1714/10/
017510/20121214/93942/4810/2829/10/
017510/20121214/94223/4830/237/20/
017510/20121214/94309/4815/109/10/
017510/20121214/94323/4815/535/10/
017510/20121214/94353/4815/500/20/
017510/20121214/94355/4815/87/20/
017510/20121214/94418/4820/140/20/
017510/20121214/94418/4830/763/20/
017510/20121214/94512/4815/224/10/
017510/20121214/94526/4815/90/20/
017510/20121214/94631/4815/502/10/
017510/20121214/94644/4815/682/10/
017510/20121214/94644/4810/518/10/
017510/20121214/94941/4820/307/10/
017510/20121214/94941/4815/403/10/
017510/20121214/94941/4810/96/10/
017510/20121214/95003/4810/331/10/
017510/20121214/95155/4810/4002/10/
017510/20121214/95155/4810/217/10/
017510/20121214/95324/4805/271/10/
017510/20121214/95324/4800/432/10/
017510/20121214/95324/4795/280/10/
017510/20121214/95324/4790/359/10/
017510/20121214/95406/4790/345/10/
017510/20121214/95407/4790/632/10/
017510/20121214/95415/4790/103/10/
017510/20121214/95512/4790/232/10/
017510/20121214/95552/4790/203/10/
017510/20121214/95558/4790/100/10/
017510/20121214/95627/4785/200/10/
017510/20121214/95728/4795/550/10/
017510/20121214/95801/4800/418/20/
017510/20121214/95805/4800/1092/20/
017510/20121214/95909/4805/112/20/
017510/20121214/95910/4805/729/20/
017510/20121214/95928/4835/500/20/
017510/20121214/95942/4835/81/20/
017510/20121214/100040/4805/81/10/
017510/20121214/100053/4810/100/20/
017510/20121214/100121/4810/402/20/
017510/20121214/100133/4810/120/10/
017510/20121214/100138/4810/970/20/
017510/20121214/100206/4810/415/10/
017510/20121214/100359/4820/95/10/
017510/20121214/100443/4815/206/10/
017510/20121214/100452/4815/529/10/
017510/20121214/100641/4815/931/10/
017510/20121214/100649/4815/120/20/
017510/20121214/100850/4820/1419/20/
017510/20121214/100902/4820/100/20/
017510/20121214/100904/4820/88/20/
017510/20121214/100909/4820/500/20/
017510/20121214/100912/4820/405/20/
017510/20121214/100941/4825/398/20/
017510/20121214/101026/4830/169/20/
017510/20121214/101340/4830/311/20/
017510/20121214/101415/4830/431/10/
017510/20121214/101434/4835/400/20/
017510/20121214/101539/4830/400/10/
017510/20121214/101656/4835/502/20/
017510/20121214/101713/4835/100/20/
017510/20121214/101901/4835/210/20/
017510/20121214/101915/4835/150/20/
017510/20121214/102121/4830/300/10/
017510/20121214/102213/4835/200/20/
017510/20121214/102214/4830/522/10/
017510/20121214/102240/4830/110/10/
017510/20121214/102618/4830/653/10/
017510/20121214/102904/4820/396/10/
017510/20121214/103011/4820/400/10/
017510/20121214/103031/4820/500/10/
017510/20121214/103101/4820/85/10/
017510/20121214/103133/4820/233/10/
017510/20121214/103150/4815/1063/10/
017510/20121214/103250/4810/1000/10/
017510/20121214/103250/4805/2524/10/
017510/20121214/103518/4805/98/10/
017510/20121214/103540/4805/1137/10/
017510/20121214/103629/4815/951/20/
017510/20121214/104211/4820/151/10/
017510/20121214/104256/4815/411/10/
017510/20121214/104256/4810/612/10/
017510/20121214/104300/4810/363/10/
017510/20121214/104300/4805/522/10/
017510/20121214/105310/4815/417/10/
017510/20121214/110238/4815/774/10/
017510/20121214/110418/4815/400/10/
017510/20121214/110715/4815/215/10/
017510/20121214/111115/4820/444/10/
017510/20121214/111356/4830/321/20/
017510/20121214/111708/4830/240/20/
017510/20121214/111848/4840/502/20/
017510/20121214/111931/4840/300/20/
017510/20121214/112607/4830/100/10/
017510/20121214/112649/4830/200/20/
017510/20121214/112929/4835/513/20/
017510/20121214/113150/4830/236/10/
017510/20121214/113222/4825/157/10/
017510/20121214/113645/4835/100/20/
017510/20121214/114601/4825/149/10/
017510/20121214/114610/4825/476/10/
017510/20121214/114610/4820/491/10/
017510/20121214/114634/4820/225/10/
017510/20121214/114649/4820/174/20/
017510/20121214/114754/4820/180/20/
017510/20121214/114944/4840/514/20/
017510/20121214/114944/4845/869/20/
017510/20121214/114944/4850/163/20/
017510/20121214/115302/4850/1200/20/
017510/20121214/115600/4850/104/20/
017510/20121214/115612/4855/616/20/
017510/20121214/115612/4860/1852/20/
017510/20121214/115638/4860/106/20/
017510/20121214/115745/4860/204/20/
017510/20121214/115800/4865/601/20/
017510/20121214/115901/4840/363/10/
017510/20121214/115901/4835/700/10/
017510/20121214/115901/4830/508/10/
017510/20121214/120027/4835/478/10/
017510/20121214/120027/4830/438/10/
017510/20121214/120027/4825/1452/10/
017510/20121214/120148/4855/251/20/
017510/20121214/120148/4860/500/20/
017510/20121214/120148/4865/751/20/
017510/20121214/120203/4865/542/20/
017510/20121214/120203/4870/1365/20/
017510/20121214/120217/4870/121/20/
017510/20121214/120323/4835/121/10/
017510/20121214/120323/4830/940/10/
017510/20121214/120323/4825/956/10/
017510/20121214/120339/4825/1369/10/
017510/20121214/120339/4820/589/10/
017510/20121214/120427/4860/178/20/
017510/20121214/120435/4865/218/20/
017510/20121214/120435/4870/1335/20/
017510/20121214/120446/4870/1000/20/
017510/20121214/120507/4870/609/20/
017510/20121214/120514/4865/300/20/
017510/20121214/120514/4870/700/20/
017510/20121214/120529/4870/378/20/
017510/20121214/120602/4835/281/10/
017510/20121214/120813/4835/925/10/
017510/20121214/120813/4830/308/10/
017510/20121214/120828/4830/1800/10/
017510/20121214/120846/4830/476/10/
017510/20121214/120846/4825/1725/10/
017510/20121214/121001/4830/147/10/
017510/20121214/121001/4825/232/10/
017510/20121214/122827/4830/1448/10/
017510/20121214/122953/4825/125/10/
017510/20121214/123014/4825/1176/10/
017510/20121214/123014/4820/1032/10/
017510/20121214/123125/4840/153/20/
017510/20121214/123125/4845/1548/20/
017510/20121214/123141/4845/453/20/
017510/20121214/123141/4855/547/20/
017510/20121214/123153/4855/560/20/
017510/20121214/123153/4860/440/20/
017510/20121214/123205/4855/1000/20/
017510/20121214/123205/4860/233/20/
017510/20121214/123205/4865/578/20/
017510/20121214/123634/4830/940/10/
017510/20121214/123634/4825/1647/10/
017510/20121214/123705/4825/128/10/
017510/20121214/123705/4820/973/10/
017510/20121214/123718/4825/100/10/
017510/20121214/123718/4820/1800/10/
017510/20121214/123747/4850/144/20/
017510/20121214/123747/4855/357/20/
017510/20121214/123801/4855/750/20/
017510/20121214/123831/4855/375/20/
017510/20121214/123831/4860/178/20/
017510/20121214/123921/4860/567/20/
017510/20121214/123921/4865/1249/20/
017510/20121214/124133/4865/500/20/
017510/20121214/124150/4860/1499/20/
017510/20121214/124212/4835/242/10/
017510/20121214/124212/4830/920/10/
017510/20121214/124212/4825/838/10/
017510/20121214/124604/4855/165/20/
017510/20121214/124604/4860/838/20/
017510/20121214/124620/4860/764/20/
017510/20121214/124620/4865/250/20/
017510/20121214/124640/4830/1141/10/
017510/20121214/124640/4825/1063/10/
017510/20121214/124725/4865/1142/20/
017510/20121214/124725/4870/953/20/
017510/20121214/124851/4870/1321/20/
017510/20121214/124928/4870/501/10/
017510/20121214/124928/4870/400/10/
017510/20121214/124932/4870/1128/10/
017510/20121214/124933/4870/803/10/
017510/20121214/125802/4860/92/20/
017510/20121214/130815/4840/141/10/
017510/20121214/131203/4845/551/10/
017510/20121214/131203/4840/1500/10/
017510/20121214/132322/4850/210/10/
017510/20121214/132351/4850/84/10/
017510/20121214/132446/4850/152/20/
017510/20121214/132637/4845/986/10/
017510/20121214/132902/4845/113/20/
017510/20121214/133437/4845/174/20/
017510/20121214/133441/4840/1096/10/
017510/20121214/133441/4835/4747/10/
017510/20121214/133441/4830/657/10/
017510/20121214/133701/4835/790/10/
017510/20121214/133737/4835/1191/10/
017510/20121214/133737/4835/1158/20/
017510/20121214/133856/4830/274/10/
017510/20121214/134042/4835/527/10/
017510/20121214/134118/4835/391/10/
017510/20121214/134618/4840/991/10/
017510/20121214/135003/4840/362/10/
017510/20121214/135215/4845/202/20/
017510/20121214/135229/4845/490/20/
017510/20121214/135229/4840/139/10/
017510/20121214/135229/4835/719/10/
017510/20121214/135349/4850/100/20/
017510/20121214/135415/4855/3206/20/
017510/20121214/135506/4860/1900/20/
017510/20121214/135544/4860/90/20/
017510/20121214/135626/4860/200/20/
017510/20121214/140137/4855/150/20/
017510/20121214/140307/4855/141/20/
017510/20121214/140308/4855/100/20/
017510/20121214/140448/4855/200/20/
017510/20121214/140455/4850/1100/10/
017510/20121214/140640/4860/857/20/
017510/20121214/140717/4865/1836/20/
017510/20121214/140805/4865/101/10/
017510/20121214/140846/4865/311/10/
017510/20121214/141105/4860/210/10/
017510/20121214/141319/4855/170/10/
017510/20121214/141653/4850/255/10/
017510/20121214/141653/4850/1243/10/
017510/20121214/141653/4840/2000/10/
017510/20121214/141653/4840/257/10/
017510/20121214/141743/4845/350/10/
017510/20121214/141817/4845/320/10/
017510/20121214/142302/4845/1500/10/
017510/20121214/142407/4845/213/10/
017510/20121214/142424/4845/210/10/
017510/20121214/142448/4845/1200/10/
017510/20121214/142506/4845/755/10/
017510/20121214/142506/4840/1645/10/
017510/20121214/142529/4845/101/20/
017510/20121214/142531/4845/200/10/
017510/20121214/142531/4840/1200/10/
017510/20121214/142626/4845/300/10/
017510/20121214/142626/4840/2700/10/
017510/20121214/142653/4840/561/10/
017510/20121214/142653/4835/2102/10/
017510/20121214/142706/4840/302/10/
017510/20121214/142706/4835/3225/10/
017510/20121214/142929/4840/439/10/
017510/20121214/142935/4840/243/20/
017510/20121214/143126/4845/901/20/
017510/20121214/143140/4845/90/20/
017510/20121214/143155/4845/255/20/
017510/20121214/143207/4845/520/20/
017510/20121214/143214/4845/279/20/
017510/20121214/143258/4850/301/20/
017510/20121214/143301/4850/1010/20/
017510/20121214/143310/4850/120/20/
017510/20121214/143312/4850/510/20/
017510/20121214/143317/4850/151/20/
017510/20121214/143317/4860/913/20/
017510/20121214/143323/4860/1547/10/
017510/20121214/143543/4860/541/20/
017510/20121214/143719/4850/576/10/
017510/20121214/143740/4850/140/20/
017510/20121214/143748/4845/120/10/
017510/20121214/143806/4850/631/20/
017510/20121214/143807/4850/366/20/
017510/20121214/143812/4850/132/20/
017510/20121214/143814/4850/510/20/
017510/20121214/143916/4855/568/20/
017510/20121214/144004/4860/2020/20/
017510/20121214/144025/4850/101/10/
017510/20121214/144244/4855/341/10/
017510/20121214/144244/4850/1042/10/
017510/20121214/144244/4845/1218/10/
017510/20121214/144253/4845/600/10/
017510/20121214/144253/4840/2677/10/
017510/20121214/144253/4835/4860/10/
017510/20121214/144350/4860/903/20/
017510/20121214/144350/4865/1199/20/
017510/20121214/144350/4870/1710/20/
017510/20121214/144350/4875/1918/20/
017510/20121214/144350/4880/833/20/
017510/20121214/144350/4885/1381/20/
017510/20121214/144350/4890/3516/20/
017510/20121214/144350/4895/4630/20/
017510/20121214/144420/4855/137/20/
017510/20121214/144458/4890/1001/20/
017510/20121214/144554/4885/891/20/
017510/20121214/144554/4890/568/20/
017510/20121214/144557/4890/2744/20/
017510/20121214/144557/4890/256/10/
017510/20121214/144603/4890/256/10/
017510/20121214/144605/4890/100/10/
017510/20121214/144609/4890/510/10/
017510/20121214/144613/4890/135/10/
017510/20121214/144755/4880/83/20/
017510/20121214/144814/4870/100/10/
017510/20121214/144823/4880/501/20/
017510/20121214/144832/4885/1006/20/
017510/20121214/144850/4880/507/10/
017510/20121214/144920/4885/514/20/
017510/20121214/144931/4885/100/10/
017510/20121214/144936/4885/402/20/
017510/20121214/144951/4885/599/10/
017510/20121214/150000/4885/10487/10/
