017510/20121030/90000/5000/12565/20/
017510/20121030/90003/4980/1035/10/
017510/20121030/90006/4980/130/20/
017510/20121030/90011/4980/159/20/
017510/20121030/90011/5000/345/20/
017510/20121030/90015/5000/500/20/
017510/20121030/90016/5000/501/20/
017510/20121030/90019/5000/1085/20/
017510/20121030/90037/5000/660/10/
017510/20121030/90103/5010/300/10/
017510/20121030/90127/5040/375/20/
017510/20121030/90136/5060/101/20/
017510/20121030/90140/5060/188/20/
017510/20121030/90154/5040/316/10/
017510/20121030/90247/5040/1994/10/
017510/20121030/90254/5020/436/10/
017510/20121030/90302/5030/171/10/
017510/20121030/90309/5030/400/10/
017510/20121030/90337/5030/280/20/
017510/20121030/90338/5030/100/20/
017510/20121030/90343/5020/1000/10/
017510/20121030/90353/5030/100/10/
017510/20121030/90353/5010/337/10/
017510/20121030/90420/5010/103/10/
017510/20121030/90433/5050/101/20/
017510/20121030/90448/5010/1000/10/
017510/20121030/90500/5010/146/10/
017510/20121030/90504/5010/81/20/
017510/20121030/90513/5010/645/20/
017510/20121030/90517/5010/128/20/
017510/20121030/90538/5020/402/10/
017510/20121030/90552/5020/100/20/
017510/20121030/90612/5020/167/10/
017510/20121030/90616/5020/102/10/
017510/20121030/90625/5020/332/10/
017510/20121030/90625/5010/961/10/
017510/20121030/90641/5020/175/10/
017510/20121030/90649/5020/412/20/
017510/20121030/90654/5020/500/10/
017510/20121030/90717/5020/349/10/
017510/20121030/90717/5010/653/10/
017510/20121030/90725/5010/632/10/
017510/20121030/90725/5000/893/10/
017510/20121030/90728/5000/1001/10/
017510/20121030/90732/5000/1000/10/
017510/20121030/90753/5010/300/10/
017510/20121030/90821/5010/122/10/
017510/20121030/90834/5010/350/20/
017510/20121030/90852/5020/102/20/
017510/20121030/90901/5030/102/20/
017510/20121030/90903/5030/100/20/
017510/20121030/90909/5030/90/20/
017510/20121030/90913/5030/500/20/
017510/20121030/90922/5030/300/20/
017510/20121030/90927/5030/428/20/
017510/20121030/90938/5030/402/10/
017510/20121030/90942/5030/173/10/
017510/20121030/90942/5010/100/10/
017510/20121030/91003/5010/733/10/
017510/20121030/91015/5010/91/10/
017510/20121030/91040/5000/303/10/
017510/20121030/91048/4990/150/10/
017510/20121030/91054/4990/223/10/
017510/20121030/91104/4990/500/10/
017510/20121030/91107/4990/100/10/
017510/20121030/91109/4990/1000/10/
017510/20121030/91110/4990/299/10/
017510/20121030/91114/4985/157/10/
017510/20121030/91119/4985/536/10/
017510/20121030/91124/4985/1000/10/
017510/20121030/91125/4985/159/10/
017510/20121030/91147/4980/168/10/
017510/20121030/91147/4975/97/10/
017510/20121030/91147/4970/232/10/
017510/20121030/91147/4965/82/10/
017510/20121030/91147/4965/238/10/
017510/20121030/91151/4965/1141/10/
017510/20121030/91151/4960/442/10/
017510/20121030/91153/4980/436/20/
017510/20121030/91153/4985/264/20/
017510/20121030/91202/4965/300/10/
017510/20121030/91206/4965/871/10/
017510/20121030/91221/4965/134/10/
017510/20121030/91224/4965/2000/10/
017510/20121030/91226/4965/162/10/
017510/20121030/91235/4960/146/10/
017510/20121030/91304/4965/369/10/
017510/20121030/91304/4960/699/10/
017510/20121030/91309/4960/312/10/
017510/20121030/91313/4955/850/10/
017510/20121030/91317/4950/301/10/
017510/20121030/91318/4950/100/10/
017510/20121030/91319/4950/184/10/
017510/20121030/91319/4945/116/10/
017510/20121030/91319/4945/1832/10/
017510/20121030/91321/4945/100/20/
017510/20121030/91327/4950/954/10/
017510/20121030/91328/4940/200/10/
017510/20121030/91334/4945/770/10/
017510/20121030/91336/4945/232/10/
017510/20121030/91336/4940/328/10/
017510/20121030/91336/4935/1005/10/
017510/20121030/91340/4930/300/10/
017510/20121030/91344/4930/173/10/
017510/20121030/91347/4930/81/10/
017510/20121030/91350/4930/101/20/
017510/20121030/91351/4925/253/10/
017510/20121030/91351/4920/394/10/
017510/20121030/91351/4915/726/10/
017510/20121030/91351/4910/1907/10/
017510/20121030/91351/4905/4051/10/
017510/20121030/91355/4910/103/10/
017510/20121030/91357/4910/260/10/
017510/20121030/91357/4905/110/10/
017510/20121030/91358/4905/100/10/
017510/20121030/91404/4910/101/10/
017510/20121030/91404/4915/113/20/
017510/20121030/91405/4915/88/10/
017510/20121030/91405/4910/312/10/
017510/20121030/91412/4915/313/10/
017510/20121030/91412/4930/512/20/
017510/20121030/91413/4930/143/10/
017510/20121030/91413/4920/402/10/
017510/20121030/91413/4915/455/10/
017510/20121030/91416/4920/502/10/
017510/20121030/91418/4915/100/10/
017510/20121030/91419/4915/3336/10/
017510/20121030/91420/4915/500/20/
017510/20121030/91421/4915/164/20/
017510/20121030/91427/4920/430/20/
017510/20121030/91433/4920/676/10/
017510/20121030/91446/4920/100/10/
017510/20121030/91447/4915/260/10/
017510/20121030/91447/4910/1608/10/
017510/20121030/91448/4905/273/10/
017510/20121030/91449/4905/550/10/
017510/20121030/91454/4905/198/10/
017510/20121030/91456/4905/100/20/
017510/20121030/91456/4905/112/20/
017510/20121030/91456/4920/100/20/
017510/20121030/91459/4900/242/10/
017510/20121030/91508/4905/502/10/
017510/20121030/91508/4900/2281/10/
017510/20121030/91510/4900/200/10/
017510/20121030/91512/4900/500/10/
017510/20121030/91515/4900/2100/10/
017510/20121030/91516/4900/90/20/
017510/20121030/91516/4900/1000/20/
017510/20121030/91518/4900/420/20/
017510/20121030/91518/4920/1001/20/
017510/20121030/91518/4920/104/10/
017510/20121030/91524/4920/396/20/
017510/20121030/91524/4935/106/20/
017510/20121030/91526/4950/183/20/
017510/20121030/91536/4935/200/20/
017510/20121030/91541/4950/102/20/
017510/20121030/91546/4935/302/10/
017510/20121030/91556/4950/1419/20/
017510/20121030/91605/4955/353/20/
017510/20121030/91610/4960/140/20/
017510/20121030/91615/4965/150/20/
017510/20121030/91617/4970/222/20/
017510/20121030/91620/4970/200/20/
017510/20121030/91620/4970/89/20/
017510/20121030/91627/4970/423/10/
017510/20121030/91629/4970/393/10/
017510/20121030/91642/4965/1218/10/
017510/20121030/91646/4960/202/10/
017510/20121030/91653/4960/100/10/
017510/20121030/91659/4960/117/10/
017510/20121030/91700/4960/367/10/
017510/20121030/91704/4960/210/10/
017510/20121030/91705/4960/214/10/
017510/20121030/91707/4950/3981/10/
017510/20121030/91710/4935/300/10/
017510/20121030/91723/4935/511/10/
017510/20121030/91724/4950/200/20/
017510/20121030/91818/4955/1490/10/
017510/20121030/91827/4955/195/20/
017510/20121030/91838/4955/201/20/
017510/20121030/91846/4950/200/10/
017510/20121030/91848/4950/200/10/
017510/20121030/91853/4950/248/10/
017510/20121030/91902/4950/100/10/
017510/20121030/91904/4950/1940/10/
017510/20121030/92002/4925/440/10/
017510/20121030/92036/4935/314/10/
017510/20121030/92100/4945/263/20/
017510/20121030/92101/4945/195/20/
017510/20121030/92101/4950/195/20/
017510/20121030/92111/4950/740/20/
017510/20121030/92119/4945/305/10/
017510/20121030/92142/4945/450/20/
017510/20121030/92200/4950/375/20/
017510/20121030/92222/4950/219/10/
017510/20121030/92301/4945/988/10/
017510/20121030/92306/4945/570/10/
017510/20121030/92313/4945/300/10/
017510/20121030/92313/4945/300/10/
017510/20121030/92324/4945/103/10/
017510/20121030/92331/4940/1184/10/
017510/20121030/92334/4940/500/20/
017510/20121030/92403/4935/649/10/
017510/20121030/92403/4925/139/10/
017510/20121030/92403/4920/996/10/
017510/20121030/92436/4940/379/20/
017510/20121030/92442/4945/194/20/
017510/20121030/92452/4950/91/20/
017510/20121030/92511/4940/1139/10/
017510/20121030/92541/4940/867/20/
017510/20121030/92556/4940/134/10/
017510/20121030/92557/4940/100/20/
017510/20121030/92601/4940/667/20/
017510/20121030/92601/4940/139/10/
017510/20121030/92615/4950/102/20/
017510/20121030/92700/4955/633/20/
017510/20121030/92700/4955/385/10/
017510/20121030/92700/4950/115/10/
017510/20121030/92729/4955/101/10/
017510/20121030/92744/4960/91/20/
017510/20121030/92748/4955/100/10/
017510/20121030/92748/4955/100/10/
017510/20121030/92749/4955/100/10/
017510/20121030/92750/4955/100/10/
017510/20121030/92754/4955/150/20/
017510/20121030/92805/4955/523/20/
017510/20121030/92814/4960/1455/20/
017510/20121030/92816/4965/200/20/
017510/20121030/92826/4970/101/20/
017510/20121030/92845/4970/112/20/
017510/20121030/92852/4970/333/20/
017510/20121030/92903/4975/961/20/
017510/20121030/92903/4975/500/20/
017510/20121030/92904/4975/108/20/
017510/20121030/92907/4975/180/20/
017510/20121030/92909/4975/100/20/
017510/20121030/92913/4975/148/20/
017510/20121030/92916/4975/195/20/
017510/20121030/92919/4975/639/20/
017510/20121030/92938/4980/86/20/
017510/20121030/92940/4980/372/20/
017510/20121030/92948/4980/851/20/
017510/20121030/92950/4980/450/20/
017510/20121030/92954/4980/667/20/
017510/20121030/92958/4980/110/20/
017510/20121030/93008/4980/540/20/
017510/20121030/93037/4985/551/20/
017510/20121030/93041/4980/2105/10/
017510/20121030/93041/4975/627/10/
017510/20121030/93043/4985/400/20/
017510/20121030/93047/4985/849/20/
017510/20121030/93105/4975/560/10/
017510/20121030/93122/4975/461/10/
017510/20121030/93131/4980/110/10/
017510/20121030/93135/4980/92/20/
017510/20121030/93137/4980/100/10/
017510/20121030/93139/4980/291/10/
017510/20121030/93154/4980/250/20/
017510/20121030/93159/4985/1421/20/
017510/20121030/93245/4985/160/10/
017510/20121030/93314/4995/103/20/
017510/20121030/93324/4995/100/20/
017510/20121030/93356/4995/480/20/
017510/20121030/93358/4995/229/20/
017510/20121030/93406/4990/622/10/
017510/20121030/93406/4990/100/20/
017510/20121030/93406/4990/279/20/
017510/20121030/93406/5000/2099/20/
017510/20121030/93502/5000/136/10/
017510/20121030/93505/5000/300/10/
017510/20121030/93508/5000/257/20/
017510/20121030/93513/5010/600/20/
017510/20121030/93535/5010/1607/20/
017510/20121030/93537/5010/393/10/
017510/20121030/93604/5010/1670/20/
017510/20121030/93604/5020/101/20/
017510/20121030/93612/5010/100/20/
017510/20121030/93624/5010/101/10/
017510/20121030/93627/5020/101/20/
017510/20121030/93636/5010/299/10/
017510/20121030/93639/5010/551/20/
017510/20121030/93700/5020/2784/20/
017510/20121030/93703/5020/130/20/
017510/20121030/93703/5030/820/20/
017510/20121030/93703/5030/130/20/
017510/20121030/93704/5030/500/20/
017510/20121030/93710/5030/786/20/
017510/20121030/93714/5030/300/20/
017510/20121030/93731/5030/523/20/
017510/20121030/93733/5030/210/20/
017510/20121030/93736/5030/510/20/
017510/20121030/93736/5020/190/10/
017510/20121030/93741/5020/150/20/
017510/20121030/93746/5030/297/20/
017510/20121030/93752/5030/993/10/
017510/20121030/93752/5020/831/10/
017510/20121030/93752/5010/1676/10/
017510/20121030/93839/5020/111/20/
017510/20121030/93848/5020/300/10/
017510/20121030/93906/5020/500/10/
017510/20121030/93913/5020/101/10/
017510/20121030/93947/5020/1000/10/
017510/20121030/93949/5020/200/10/
017510/20121030/93949/5020/449/10/
017510/20121030/94001/5020/605/20/
017510/20121030/94003/5020/246/20/
017510/20121030/94004/5020/254/10/
017510/20121030/94027/5010/2066/10/
017510/20121030/94034/5010/217/10/
017510/20121030/94036/5010/259/10/
017510/20121030/94041/5010/250/20/
017510/20121030/94056/5010/675/20/
017510/20121030/94058/5010/216/20/
017510/20121030/94121/5010/100/10/
017510/20121030/94125/5010/500/10/
017510/20121030/94128/5010/480/10/
017510/20121030/94154/5010/421/20/
017510/20121030/94217/5000/200/10/
017510/20121030/94221/5000/100/10/
017510/20121030/94237/5000/320/10/
017510/20121030/94240/5000/108/10/
017510/20121030/94247/5000/300/10/
017510/20121030/94314/5000/500/10/
017510/20121030/94339/5000/515/10/
017510/20121030/94433/5000/154/10/
017510/20121030/94436/4995/1621/10/
017510/20121030/94454/4995/200/20/
017510/20121030/94457/4995/179/20/
017510/20121030/94629/4995/1191/10/
017510/20121030/94635/4995/576/10/
017510/20121030/94646/4990/1938/10/
017510/20121030/94703/4995/112/20/
017510/20121030/94711/4995/110/20/
017510/20121030/94711/4990/1000/10/
017510/20121030/94726/4990/866/10/
017510/20121030/94731/4990/90/20/
017510/20121030/94740/4995/256/20/
017510/20121030/94744/4995/550/20/
017510/20121030/94745/4995/312/20/
017510/20121030/94816/5020/1543/20/
017510/20121030/94816/5030/808/20/
017510/20121030/94827/5030/101/20/
017510/20121030/94831/5030/140/20/
017510/20121030/94902/5030/101/20/
017510/20121030/95023/5020/796/10/
017510/20121030/95031/5010/94/10/
017510/20121030/95044/5020/101/20/
017510/20121030/95107/5010/3023/10/
017510/20121030/95119/5010/100/20/
017510/20121030/95220/5000/1296/10/
017510/20121030/95246/5000/1754/20/
017510/20121030/95248/5000/500/20/
017510/20121030/95248/5000/450/20/
017510/20121030/95349/5010/612/20/
017510/20121030/95404/5010/1035/20/
017510/20121030/95501/5020/100/20/
017510/20121030/95606/5020/848/20/
017510/20121030/95610/5010/1000/10/
017510/20121030/95909/5030/738/20/
017510/20121030/95921/5030/121/20/
017510/20121030/100143/5020/238/10/
017510/20121030/100145/5020/484/10/
017510/20121030/100336/5020/216/10/
017510/20121030/100351/5020/856/20/
017510/20121030/100415/5030/2938/20/
017510/20121030/100504/5040/1325/20/
017510/20121030/100504/5050/2686/20/
017510/20121030/100508/5060/159/20/
017510/20121030/100537/5060/349/20/
017510/20121030/100544/5060/400/10/
017510/20121030/100545/5060/200/10/
017510/20121030/100546/5060/200/10/
017510/20121030/100557/5060/163/20/
017510/20121030/100611/5060/137/20/
017510/20121030/100625/5060/200/10/
017510/20121030/100636/5060/210/20/
017510/20121030/100655/5060/197/20/
017510/20121030/100718/5060/210/20/
017510/20121030/100718/5070/1694/20/
017510/20121030/100718/5080/96/20/
017510/20121030/100800/5070/306/20/
017510/20121030/100800/5080/194/20/
017510/20121030/100807/5070/100/20/
017510/20121030/100830/5070/130/20/
017510/20121030/100854/5070/100/20/
017510/20121030/100900/5070/90/20/
017510/20121030/100916/5070/106/20/
017510/20121030/100923/5070/1852/20/
017510/20121030/100929/5070/160/20/
017510/20121030/101002/5060/151/10/
017510/20121030/101007/5060/197/10/
017510/20121030/101018/5060/600/10/
017510/20121030/101154/5060/609/20/
017510/20121030/101231/5060/2149/10/
017510/20121030/101236/5050/1500/10/
017510/20121030/101303/5050/2710/10/
017510/20121030/101308/5050/203/10/
017510/20121030/101321/5050/374/10/
017510/20121030/101345/5050/456/10/
017510/20121030/101347/5050/100/10/
017510/20121030/101356/5050/100/10/
017510/20121030/101426/5050/899/10/
017510/20121030/101442/5060/250/20/
017510/20121030/101449/5070/200/20/
017510/20121030/101527/5070/205/20/
017510/20121030/101545/5070/229/20/
017510/20121030/101614/5070/150/20/
017510/20121030/101614/5070/166/20/
017510/20121030/101635/5070/564/20/
017510/20121030/101827/5060/949/10/
017510/20121030/101922/5060/631/10/
017510/20121030/101923/5070/197/20/
017510/20121030/102002/5060/920/10/
017510/20121030/102215/5040/1587/10/
017510/20121030/102255/5040/99/20/
017510/20121030/102350/5040/213/10/
017510/20121030/102400/5040/198/10/
017510/20121030/102551/5030/225/10/
017510/20121030/102604/5030/1000/10/
017510/20121030/102605/5030/339/10/
017510/20121030/102635/5020/269/10/
017510/20121030/102648/5020/100/10/
017510/20121030/102720/5020/100/10/
017510/20121030/102744/5020/471/10/
017510/20121030/102747/5010/1000/10/
017510/20121030/102752/5010/277/10/
017510/20121030/102810/5010/1723/10/
017510/20121030/102810/5000/277/10/
017510/20121030/102852/5020/101/20/
017510/20121030/102929/5020/550/20/
017510/20121030/103119/5040/121/20/
017510/20121030/103301/5040/500/20/
017510/20121030/103309/5040/233/20/
017510/20121030/103317/5040/200/10/
017510/20121030/103512/5040/100/10/
017510/20121030/103552/5040/531/10/
017510/20121030/103709/5030/100/10/
017510/20121030/103714/5030/100/20/
017510/20121030/103722/5020/1442/10/
017510/20121030/103722/5020/572/20/
017510/20121030/103722/5030/317/20/
017510/20121030/103730/5030/104/10/
017510/20121030/103755/5010/1427/10/
017510/20121030/103755/5000/1573/10/
017510/20121030/103814/5000/126/10/
017510/20121030/103816/5000/963/10/
017510/20121030/103833/5000/1000/20/
017510/20121030/103855/5030/390/20/
017510/20121030/103940/5000/851/10/
017510/20121030/103940/4995/1361/10/
017510/20121030/103940/4990/2832/10/
017510/20121030/103950/5000/100/10/
017510/20121030/104046/4995/111/10/
017510/20121030/104046/4990/400/10/
017510/20121030/104050/4990/100/10/
017510/20121030/104057/4995/100/10/
017510/20121030/104057/4990/519/10/
017510/20121030/104057/4985/241/10/
017510/20121030/104057/4980/140/10/
017510/20121030/104134/5000/111/20/
017510/20121030/104146/5000/500/20/
017510/20121030/104154/4990/1000/10/
017510/20121030/104208/5000/217/20/
017510/20121030/104213/5000/1022/20/
017510/20121030/104226/4990/1500/10/
017510/20121030/104413/4995/401/10/
017510/20121030/104459/5000/1104/10/
017510/20121030/104505/5000/150/10/
017510/20121030/104520/5000/249/10/
017510/20121030/104637/4990/1080/10/
017510/20121030/104710/4995/209/10/
017510/20121030/104713/5000/200/20/
017510/20121030/104818/4990/897/10/
017510/20121030/104822/4990/108/20/
017510/20121030/104941/4990/509/10/
017510/20121030/105011/5000/501/20/
017510/20121030/105136/5000/574/20/
017510/20121030/105233/5000/401/20/
017510/20121030/105234/5000/100/10/
017510/20121030/105234/4995/440/10/
017510/20121030/105333/4990/495/10/
017510/20121030/105427/4985/416/10/
017510/20121030/105537/4985/151/10/
017510/20121030/105552/4980/1812/10/
017510/20121030/105607/4980/215/20/
017510/20121030/105714/4980/818/10/
017510/20121030/105805/4980/200/20/
017510/20121030/105807/4980/100/20/
017510/20121030/105838/4980/219/20/
017510/20121030/105927/4990/501/20/
017510/20121030/105932/4990/399/20/
017510/20121030/105941/4980/1314/10/
017510/20121030/110008/4975/230/10/
017510/20121030/110057/4980/722/10/
017510/20121030/110111/4980/501/20/
017510/20121030/110113/4980/102/20/
017510/20121030/110117/4980/713/20/
017510/20121030/110221/4985/136/10/
017510/20121030/110221/4980/776/10/
017510/20121030/110248/4975/303/10/
017510/20121030/110255/4975/725/10/
017510/20121030/110255/4970/1080/10/
017510/20121030/110255/4965/1041/10/
017510/20121030/110255/4960/1990/10/
017510/20121030/110255/4955/1639/10/
017510/20121030/110255/4950/1026/10/
017510/20121030/110355/4980/134/20/
017510/20121030/110411/4955/397/10/
017510/20121030/110609/4960/196/10/
017510/20121030/110625/4960/865/10/
017510/20121030/110625/4955/1290/10/
017510/20121030/110625/4950/3860/10/
017510/20121030/110656/4950/400/10/
017510/20121030/110713/4950/1200/10/
017510/20121030/110828/4950/152/10/
017510/20121030/110854/4950/101/10/
017510/20121030/110935/4980/111/20/
017510/20121030/110935/4955/230/10/
017510/20121030/111139/4960/1004/10/
017510/20121030/111139/4955/882/10/
017510/20121030/111139/4950/498/10/
017510/20121030/111226/4950/150/10/
017510/20121030/111255/4960/555/20/
017510/20121030/111304/4950/540/10/
017510/20121030/111306/4950/100/10/
017510/20121030/111318/4950/251/10/
017510/20121030/111326/4950/300/10/
017510/20121030/111403/4960/351/20/
017510/20121030/111408/4950/100/10/
017510/20121030/111436/4970/201/20/
017510/20121030/111437/4970/500/20/
017510/20121030/111440/4960/200/10/
017510/20121030/111517/4960/940/10/
017510/20121030/111517/4950/155/10/
017510/20121030/111518/4950/300/20/
017510/20121030/111527/4950/211/20/
017510/20121030/111531/4950/100/20/
017510/20121030/111535/4950/295/20/
017510/20121030/111945/4975/210/20/
017510/20121030/111955/4960/120/10/
017510/20121030/112039/4955/1442/10/
017510/20121030/112039/4950/1886/10/
017510/20121030/112151/4980/250/20/
017510/20121030/112216/4980/211/20/
017510/20121030/112239/4980/311/20/
017510/20121030/112246/4980/289/20/
017510/20121030/112300/4980/120/10/
017510/20121030/112325/4985/131/20/
017510/20121030/112401/4985/701/20/
017510/20121030/112520/4980/346/10/
017510/20121030/112600/4985/311/20/
017510/20121030/112655/4985/107/10/
017510/20121030/112655/4980/233/10/
017510/20121030/112745/4970/534/10/
017510/20121030/112802/4970/201/10/
017510/20121030/112809/4970/100/10/
017510/20121030/112830/4970/271/10/
017510/20121030/112836/4970/173/20/
017510/20121030/112937/4980/250/20/
017510/20121030/112938/4970/150/10/
017510/20121030/113007/4970/500/10/
017510/20121030/113026/4970/700/10/
017510/20121030/113029/4970/680/10/
017510/20121030/113054/4970/503/20/
017510/20121030/113108/4970/109/10/
017510/20121030/113122/4980/81/20/
017510/20121030/113200/4970/235/10/
017510/20121030/113208/4970/96/10/
017510/20121030/113305/4970/904/20/
017510/20121030/113454/4980/114/20/
017510/20121030/113626/4980/1073/20/
017510/20121030/113636/4980/865/20/
017510/20121030/113715/4990/120/20/
017510/20121030/113756/4990/305/20/
017510/20121030/113811/4990/240/20/
017510/20121030/113942/4990/130/20/
017510/20121030/114257/4985/605/20/
017510/20121030/114519/4985/99/20/
017510/20121030/114522/4980/1369/10/
017510/20121030/114522/4970/2221/10/
017510/20121030/114522/4965/1398/10/
017510/20121030/114522/4960/1012/10/
017510/20121030/114636/4965/352/10/
017510/20121030/114636/4960/206/10/
017510/20121030/115420/4975/131/10/
017510/20121030/115443/4975/493/10/
017510/20121030/115511/4975/100/10/
017510/20121030/115513/4975/151/10/
017510/20121030/115651/4970/123/10/
017510/20121030/115651/4965/81/10/
017510/20121030/115708/4965/299/10/
017510/20121030/115753/4960/1601/10/
017510/20121030/115923/4975/106/20/
017510/20121030/115933/4975/100/20/
017510/20121030/115943/4975/100/20/
017510/20121030/120055/4975/832/10/
017510/20121030/120106/4960/540/10/
017510/20121030/120253/4960/207/10/
017510/20121030/120333/4960/205/10/
017510/20121030/120341/4960/945/10/
017510/20121030/120411/4960/355/10/
017510/20121030/120913/4970/82/20/
017510/20121030/120925/4970/100/20/
017510/20121030/121015/4970/463/20/
017510/20121030/121129/4970/200/20/
017510/20121030/121136/4970/89/10/
017510/20121030/121148/4970/91/20/
017510/20121030/121242/4970/723/20/
017510/20121030/121242/4975/1285/20/
017510/20121030/121344/4970/522/10/
017510/20121030/121510/4975/85/20/
017510/20121030/121624/4975/403/20/
017510/20121030/121713/4975/1050/20/
017510/20121030/121714/4980/280/20/
017510/20121030/121714/4985/320/20/
017510/20121030/121736/4980/100/20/
017510/20121030/121737/4985/173/20/
017510/20121030/121844/4985/1614/10/
017510/20121030/121937/4990/90/20/
017510/20121030/122054/4995/586/20/
017510/20121030/122209/4995/529/20/
017510/20121030/122221/4995/600/10/
017510/20121030/122229/4995/500/10/
017510/20121030/122239/4995/378/10/
017510/20121030/122322/4990/89/10/
017510/20121030/122610/4990/911/20/
017510/20121030/122610/4995/89/20/
017510/20121030/122725/4975/600/10/
017510/20121030/122725/4970/400/10/
017510/20121030/123046/4980/312/10/
017510/20121030/123057/4980/517/10/
017510/20121030/123239/4980/88/10/
017510/20121030/123528/4990/1670/10/
017510/20121030/123726/4980/81/10/
017510/20121030/123735/4980/100/10/
017510/20121030/123736/4980/400/10/
017510/20121030/124023/4980/1002/10/
017510/20121030/124051/4980/117/10/
017510/20121030/124051/4975/2001/10/
017510/20121030/124131/4970/700/10/
017510/20121030/124140/4970/600/10/
017510/20121030/124141/4970/300/10/
017510/20121030/124145/4970/255/10/
017510/20121030/124346/4965/145/10/
017510/20121030/124411/4965/630/10/
017510/20121030/124437/4960/1500/10/
017510/20121030/124445/4960/421/10/
017510/20121030/124445/4955/1579/10/
017510/20121030/124452/4955/1004/10/
017510/20121030/124506/4955/267/10/
017510/20121030/124506/4950/615/10/
017510/20121030/124512/4950/2999/10/
017510/20121030/124513/4950/2733/10/
017510/20121030/124619/4945/1001/10/
017510/20121030/124619/4945/385/10/
017510/20121030/124619/4940/1992/10/
017510/20121030/124643/4935/429/10/
017510/20121030/124645/4935/343/10/
017510/20121030/124645/4930/865/10/
017510/20121030/124645/4925/83/10/
017510/20121030/124645/4920/709/10/
017510/20121030/124718/4935/102/20/
017510/20121030/124729/4935/224/20/
017510/20121030/124832/4950/203/20/
017510/20121030/124951/4950/161/20/
017510/20121030/125014/4950/285/20/
017510/20121030/125055/4945/82/10/
017510/20121030/125055/4940/178/10/
017510/20121030/125213/4935/104/10/
017510/20121030/125213/4930/1107/10/
017510/20121030/125213/4925/300/10/
017510/20121030/125219/4925/1862/10/
017510/20121030/125221/4925/140/20/
017510/20121030/125225/4925/150/10/
017510/20121030/125419/4950/518/20/
017510/20121030/125455/4950/291/10/
017510/20121030/125620/4950/101/10/
017510/20121030/125644/4950/235/10/
017510/20121030/125720/4940/192/10/
017510/20121030/125720/4935/160/10/
017510/20121030/125729/4935/250/10/
017510/20121030/125729/4930/178/10/
017510/20121030/125729/4925/310/10/
017510/20121030/125729/4920/1899/10/
017510/20121030/130037/4930/261/10/
017510/20121030/130056/4925/133/10/
017510/20121030/130056/4920/1061/10/
017510/20121030/130106/4920/98/10/
017510/20121030/130131/4930/1116/20/
017510/20121030/130221/4930/99/10/
017510/20121030/130221/4920/989/10/
017510/20121030/130221/4915/416/10/
017510/20121030/130239/4925/1200/10/
017510/20121030/130249/4925/300/20/
017510/20121030/130358/4930/130/10/
017510/20121030/130409/4925/92/10/
017510/20121030/130409/4920/748/10/
017510/20121030/130435/4925/100/10/
017510/20121030/130527/4945/101/20/
017510/20121030/130538/4930/148/10/
017510/20121030/130624/4930/310/10/
017510/20121030/130633/4930/163/20/
017510/20121030/130655/4945/116/20/
017510/20121030/130736/4945/100/20/
017510/20121030/131034/4945/300/20/
017510/20121030/131041/4945/500/20/
017510/20121030/131052/4945/500/20/
017510/20121030/131104/4945/380/20/
017510/20121030/131156/4945/90/20/
017510/20121030/131205/4940/200/10/
017510/20121030/131326/4935/91/10/
017510/20121030/131401/4935/411/10/
017510/20121030/131401/4930/801/10/
017510/20121030/131536/4925/310/10/
017510/20121030/131536/4920/697/10/
017510/20121030/131546/4920/253/10/
017510/20121030/131554/4915/800/10/
017510/20121030/131606/4915/200/10/
017510/20121030/131635/4920/1150/10/
017510/20121030/131724/4920/250/10/
017510/20121030/131731/4920/200/20/
017510/20121030/131742/4920/93/20/
017510/20121030/132159/4930/129/20/
017510/20121030/132330/4930/180/20/
017510/20121030/132351/4920/200/10/
017510/20121030/132444/4930/501/20/
017510/20121030/132732/4925/107/10/
017510/20121030/132849/4925/100/20/
017510/20121030/133044/4940/421/20/
017510/20121030/133046/4940/81/20/
017510/20121030/133247/4935/207/10/
017510/20121030/133247/4925/449/10/
017510/20121030/133247/4920/211/10/
017510/20121030/133247/4915/321/10/
017510/20121030/133305/4915/345/10/
017510/20121030/133628/4920/682/10/
017510/20121030/133705/4915/910/10/
017510/20121030/133718/4915/92/20/
017510/20121030/133751/4920/201/20/
017510/20121030/133827/4920/1000/20/
017510/20121030/133832/4920/100/20/
017510/20121030/134220/4930/235/10/
017510/20121030/134233/4930/151/10/
017510/20121030/134305/4925/375/10/
017510/20121030/134305/4920/199/10/
017510/20121030/134321/4930/169/20/
017510/20121030/134322/4920/200/10/
017510/20121030/134428/4920/158/10/
017510/20121030/134432/4930/450/20/
017510/20121030/134455/4930/111/10/
017510/20121030/134508/4930/500/10/
017510/20121030/134904/4925/1031/10/
017510/20121030/135005/4920/161/10/
017510/20121030/135008/4920/500/10/
017510/20121030/135011/4920/500/10/
017510/20121030/135013/4920/147/10/
017510/20121030/135013/4915/1105/10/
017510/20121030/135046/4915/126/20/
017510/20121030/135053/4910/2508/10/
017510/20121030/135105/4910/510/10/
017510/20121030/135110/4910/367/10/
017510/20121030/135141/4910/162/10/
017510/20121030/135155/4910/301/10/
017510/20121030/135228/4910/195/10/
017510/20121030/135228/4905/3091/10/
017510/20121030/135228/4900/8190/10/
017510/20121030/135229/4895/237/10/
017510/20121030/135239/4895/163/10/
017510/20121030/135245/4895/98/10/
017510/20121030/135246/4895/250/10/
017510/20121030/135253/4895/200/10/
017510/20121030/135256/4895/89/10/
017510/20121030/135300/4895/216/10/
017510/20121030/135304/4890/112/10/
017510/20121030/135316/4895/303/20/
017510/20121030/135322/4890/150/10/
017510/20121030/135332/4890/200/10/
017510/20121030/135349/4890/1200/10/
017510/20121030/135403/4895/167/20/
017510/20121030/135413/4895/248/10/
017510/20121030/135426/4895/107/20/
017510/20121030/135431/4890/501/10/
017510/20121030/135448/4890/96/10/
017510/20121030/135527/4900/556/20/
017510/20121030/135533/4890/195/10/
017510/20121030/135533/4900/500/20/
017510/20121030/135551/4900/272/20/
017510/20121030/135555/4900/1000/20/
017510/20121030/135555/4900/500/20/
017510/20121030/135556/4900/228/20/
017510/20121030/135610/4910/200/20/
017510/20121030/135610/4915/300/20/
017510/20121030/135611/4900/179/10/
017510/20121030/135726/4915/211/20/
017510/20121030/135744/4925/87/20/
017510/20121030/135744/4930/250/20/
017510/20121030/135744/4935/200/20/
017510/20121030/135744/4940/1463/20/
017510/20121030/135945/4935/125/20/
017510/20121030/140024/4935/178/20/
017510/20121030/140038/4935/201/20/
017510/20121030/140157/4925/119/10/
017510/20121030/140340/4935/300/20/
017510/20121030/140608/4935/204/20/
017510/20121030/140634/4930/129/10/
017510/20121030/140643/4930/100/20/
017510/20121030/140716/4925/300/10/
017510/20121030/140841/4925/1002/20/
017510/20121030/140933/4930/101/20/
017510/20121030/140938/4920/520/10/
017510/20121030/140945/4915/121/10/
017510/20121030/140945/4910/379/10/
017510/20121030/141018/4905/738/10/
017510/20121030/141051/4905/657/10/
017510/20121030/141056/4905/300/10/
017510/20121030/141111/4905/500/10/
017510/20121030/141205/4930/300/20/
017510/20121030/141241/4930/300/20/
017510/20121030/141245/4915/500/10/
017510/20121030/141322/4915/100/10/
017510/20121030/141324/4910/110/10/
017510/20121030/141324/4905/390/10/
017510/20121030/141328/4905/600/10/
017510/20121030/141333/4905/1259/10/
017510/20121030/141344/4900/321/10/
017510/20121030/141346/4900/629/10/
017510/20121030/141346/4895/702/10/
017510/20121030/141346/4890/169/10/
017510/20121030/141355/4900/220/10/
017510/20121030/141355/4890/96/10/
017510/20121030/141407/4890/328/10/
017510/20121030/141413/4900/90/20/
017510/20121030/141414/4900/300/20/
017510/20121030/141421/4900/198/20/
017510/20121030/141505/4905/141/10/
017510/20121030/141505/4900/646/10/
017510/20121030/141528/4900/150/10/
017510/20121030/141554/4930/201/20/
017510/20121030/141922/4910/445/10/
017510/20121030/142425/4915/163/10/
017510/20121030/142452/4915/218/10/
017510/20121030/142507/4915/1043/20/
017510/20121030/142715/4915/719/10/
017510/20121030/142912/4925/506/10/
017510/20121030/142954/4925/195/10/
017510/20121030/142954/4920/805/10/
017510/20121030/143033/4925/1806/10/
017510/20121030/143033/4920/1866/10/
017510/20121030/143033/4910/711/10/
017510/20121030/143129/4910/1079/10/
017510/20121030/143318/4910/460/10/
017510/20121030/143402/4910/1125/10/
017510/20121030/143402/4905/988/10/
017510/20121030/143435/4905/542/10/
017510/20121030/143435/4900/1680/10/
017510/20121030/143435/4895/778/10/
017510/20121030/143453/4895/139/10/
017510/20121030/143609/4895/1438/10/
017510/20121030/143609/4890/1571/10/
017510/20121030/143626/4895/529/10/
017510/20121030/143626/4890/488/10/
017510/20121030/143626/4885/3305/10/
017510/20121030/143626/4880/5278/10/
017510/20121030/143644/4890/213/10/
017510/20121030/143704/4885/230/10/
017510/20121030/143704/4880/280/10/
017510/20121030/143711/4895/529/10/
017510/20121030/143711/4880/1729/10/
017510/20121030/143711/4875/2742/10/
017510/20121030/143753/4895/106/20/
017510/20121030/143806/4895/120/20/
017510/20121030/143819/4880/200/10/
017510/20121030/143847/4885/373/10/
017510/20121030/143847/4880/128/10/
017510/20121030/143849/4895/400/20/
017510/20121030/143944/4895/155/10/
017510/20121030/144045/4895/100/10/
017510/20121030/144053/4905/100/20/
017510/20121030/144147/4895/500/10/
017510/20121030/144147/4890/589/10/
017510/20121030/144152/4905/100/20/
017510/20121030/144301/4905/100/20/
017510/20121030/144318/4895/231/10/
017510/20121030/144343/4895/263/10/
017510/20121030/144345/4890/404/10/
017510/20121030/144345/4885/1596/10/
017510/20121030/144345/4885/121/10/
017510/20121030/144352/4880/777/10/
017510/20121030/144359/4880/1349/10/
017510/20121030/144359/4875/663/10/
017510/20121030/144359/4875/2384/10/
017510/20121030/144409/4875/1971/10/
017510/20121030/144417/4880/318/10/
017510/20121030/144417/4880/468/20/
017510/20121030/144417/4885/305/20/
017510/20121030/144425/4880/103/10/
017510/20121030/144428/4880/500/10/
017510/20121030/144433/4880/259/10/
017510/20121030/144437/4880/101/20/
017510/20121030/144441/4875/700/10/
017510/20121030/144501/4885/153/20/
017510/20121030/144503/4885/600/20/
017510/20121030/144553/4890/266/10/
017510/20121030/144553/4885/490/10/
017510/20121030/144601/4885/336/10/
017510/20121030/144601/4880/254/10/
017510/20121030/144602/4905/270/20/
017510/20121030/144653/4890/1002/10/
017510/20121030/144657/4905/91/20/
017510/20121030/144657/4920/909/20/
017510/20121030/144718/4915/168/20/
017510/20121030/144718/4920/382/20/
017510/20121030/144720/4900/200/10/
017510/20121030/144728/4920/500/20/
017510/20121030/144737/4900/375/10/
017510/20121030/144737/4895/738/10/
017510/20121030/144737/4890/230/10/
017510/20121030/144737/4885/157/10/
017510/20121030/144746/4920/100/20/
017510/20121030/144747/4885/250/10/
017510/20121030/144750/4885/1000/10/
017510/20121030/144755/4885/1500/10/
017510/20121030/144802/4915/100/20/
017510/20121030/144811/4900/800/20/
017510/20121030/144814/4900/100/10/
017510/20121030/144815/4900/87/10/
017510/20121030/144817/4910/100/20/
017510/20121030/144825/4885/400/10/
017510/20121030/144848/4890/260/10/
017510/20121030/144850/4890/1033/10/
017510/20121030/144852/4890/467/20/
017510/20121030/144932/4900/511/20/
017510/20121030/144936/4895/143/20/
017510/20121030/150000/4865/34945/10/
