017510/20130207/90000/4655/471/10/
017510/20130207/90112/4660/250/10/
017510/20130207/90337/4655/247/10/
017510/20130207/90501/4660/550/10/
017510/20130207/90501/4655/159/10/
017510/20130207/90510/4655/500/10/
017510/20130207/90617/4660/150/10/
017510/20130207/90618/4675/140/20/
017510/20130207/90624/4655/300/10/
017510/20130207/90625/4655/300/10/
017510/20130207/90625/4655/300/10/
017510/20130207/90626/4655/276/10/
017510/20130207/90642/4655/324/20/
017510/20130207/90708/4655/300/10/
017510/20130207/90709/4655/300/10/
017510/20130207/90709/4655/300/10/
017510/20130207/90709/4655/300/10/
017510/20130207/90712/4655/300/10/
017510/20130207/90810/4660/540/20/
017510/20130207/91008/4660/1580/20/
017510/20130207/91155/4660/430/10/
017510/20130207/91248/4665/82/10/
017510/20130207/91249/4660/500/10/
017510/20130207/91313/4660/200/10/
017510/20130207/91338/4660/200/10/
017510/20130207/91349/4660/83/10/
017510/20130207/91411/4660/200/20/
017510/20130207/91555/4660/225/20/
017510/20130207/91641/4655/275/10/
017510/20130207/91712/4655/641/10/
017510/20130207/91842/4655/1523/10/
017510/20130207/91850/4655/916/10/
017510/20130207/92648/4675/638/20/
017510/20130207/92848/4675/150/20/
017510/20130207/92905/4675/100/20/
017510/20130207/92905/4680/102/20/
017510/20130207/92905/4685/100/20/
017510/20130207/92905/4690/173/20/
017510/20130207/93147/4685/150/20/
017510/20130207/93149/4685/200/20/
017510/20130207/93204/4685/168/20/
017510/20130207/93237/4685/208/20/
017510/20130207/93237/4690/324/20/
017510/20130207/93249/4690/100/20/
017510/20130207/93308/4690/150/20/
017510/20130207/93317/4690/100/20/
017510/20130207/93320/4690/95/20/
017510/20130207/93750/4685/105/20/
017510/20130207/93801/4685/195/20/
017510/20130207/93829/4685/200/10/
017510/20130207/93925/4680/342/10/
017510/20130207/93933/4680/658/10/
017510/20130207/94005/4680/288/20/
017510/20130207/94109/4680/156/20/
017510/20130207/94412/4680/128/20/
017510/20130207/94643/4675/1033/10/
017510/20130207/94809/4675/150/10/
017510/20130207/94954/4680/1000/20/
017510/20130207/95024/4680/91/20/
017510/20130207/95228/4680/101/20/
017510/20130207/95323/4685/555/20/
017510/20130207/95413/4675/102/10/
017510/20130207/95526/4675/200/10/
017510/20130207/95929/4680/218/20/
017510/20130207/100133/4680/106/20/
017510/20130207/100325/4680/131/20/
017510/20130207/100520/4685/180/20/
017510/20130207/100531/4680/202/10/
017510/20130207/100845/4680/302/10/
017510/20130207/101258/4680/700/10/
017510/20130207/101454/4675/170/10/
017510/20130207/102147/4675/179/20/
017510/20130207/102233/4675/171/20/
017510/20130207/102330/4680/224/20/
017510/20130207/102457/4685/896/20/
017510/20130207/102731/4690/139/20/
017510/20130207/102800/4690/203/20/
017510/20130207/103121/4690/139/20/
017510/20130207/103242/4685/340/10/
017510/20130207/104026/4685/1045/10/
017510/20130207/104026/4685/746/10/
017510/20130207/104312/4690/2262/20/
017510/20130207/104404/4695/1828/20/
017510/20130207/104411/4690/99/10/
017510/20130207/104608/4690/500/20/
017510/20130207/104608/4695/2550/20/
017510/20130207/104728/4695/500/20/
017510/20130207/104911/4695/826/20/
017510/20130207/105044/4690/100/10/
017510/20130207/105154/4695/1000/20/
017510/20130207/105254/4695/170/20/
017510/20130207/105307/4700/1438/20/
017510/20130207/105416/4700/180/10/
017510/20130207/105425/4700/150/10/
017510/20130207/105441/4700/180/10/
017510/20130207/105446/4705/1000/20/
017510/20130207/105608/4700/1450/10/
017510/20130207/105608/4700/359/10/
017510/20130207/110044/4705/162/20/
017510/20130207/110301/4705/500/20/
017510/20130207/110917/4705/1225/20/
017510/20130207/110936/4705/516/20/
017510/20130207/110945/4705/171/20/
017510/20130207/110956/4705/429/20/
017510/20130207/111013/4710/1000/20/
017510/20130207/111027/4710/151/20/
017510/20130207/111052/4715/161/20/
017510/20130207/111140/4715/1024/20/
017510/20130207/111248/4715/355/20/
017510/20130207/111314/4720/85/20/
017510/20130207/111333/4720/1000/20/
017510/20130207/111336/4715/100/10/
017510/20130207/111500/4715/547/10/
017510/20130207/111630/4700/312/10/
017510/20130207/111905/4690/200/10/
017510/20130207/112107/4710/501/20/
017510/20130207/112200/4715/517/20/
017510/20130207/112210/4715/500/20/
017510/20130207/112412/4710/1012/10/
017510/20130207/112732/4700/507/10/
017510/20130207/112732/4690/496/10/
017510/20130207/112843/4710/1000/20/
017510/20130207/112851/4710/100/20/
017510/20130207/113029/4710/660/20/
017510/20130207/113031/4710/400/20/
017510/20130207/113033/4710/141/20/
017510/20130207/113041/4715/500/20/
017510/20130207/113041/4715/540/20/
017510/20130207/113050/4720/500/20/
017510/20130207/113058/4720/500/20/
017510/20130207/113250/4720/623/20/
017510/20130207/113318/4725/120/20/
017510/20130207/113321/4725/100/20/
017510/20130207/113539/4725/549/20/
017510/20130207/113623/4725/168/20/
017510/20130207/113823/4725/282/20/
017510/20130207/113836/4725/139/10/
017510/20130207/113905/4725/635/20/
017510/20130207/114106/4725/412/10/
017510/20130207/114126/4725/130/20/
017510/20130207/114130/4725/370/10/
017510/20130207/114204/4725/130/20/
017510/20130207/114206/4725/420/10/
017510/20130207/114244/4720/320/10/
017510/20130207/114244/4720/133/20/
017510/20130207/114314/4725/87/10/
017510/20130207/114317/4730/1060/20/
017510/20130207/114329/4730/195/20/
017510/20130207/114342/4735/97/20/
017510/20130207/114347/4740/581/20/
017510/20130207/114354/4745/351/20/
017510/20130207/114359/4745/96/20/
017510/20130207/114414/4745/608/20/
017510/20130207/114414/4745/110/10/
017510/20130207/114415/4740/300/10/
017510/20130207/114430/4740/110/10/
017510/20130207/114452/4745/516/20/
017510/20130207/114521/4745/89/20/
017510/20130207/114522/4745/200/20/
017510/20130207/114557/4740/215/10/
017510/20130207/114600/4745/100/20/
017510/20130207/114645/4740/134/10/
017510/20130207/114836/4730/305/10/
017510/20130207/115055/4725/518/10/
017510/20130207/115448/4725/408/10/
017510/20130207/115448/4720/1485/10/
017510/20130207/115448/4715/1601/10/
017510/20130207/115448/4710/1575/10/
017510/20130207/115518/4710/1928/20/
017510/20130207/115528/4710/94/20/
017510/20130207/115750/4710/719/10/
017510/20130207/115911/4710/344/10/
017510/20130207/120617/4730/105/10/
017510/20130207/121327/4705/101/10/
017510/20130207/122237/4705/106/10/
017510/20130207/122828/4720/549/20/
017510/20130207/123221/4710/599/10/
017510/20130207/123235/4710/500/20/
017510/20130207/123235/4710/818/20/
017510/20130207/123431/4710/87/20/
017510/20130207/123752/4705/280/10/
017510/20130207/123752/4700/720/10/
017510/20130207/124100/4700/100/10/
017510/20130207/124234/4715/91/20/
017510/20130207/124414/4730/126/20/
017510/20130207/124454/4730/925/20/
017510/20130207/124557/4730/303/20/
017510/20130207/124640/4730/450/20/
017510/20130207/124714/4735/300/20/
017510/20130207/124833/4735/201/20/
017510/20130207/125032/4740/620/20/
017510/20130207/125138/4740/494/20/
017510/20130207/125138/4745/106/20/
017510/20130207/125153/4735/200/20/
017510/20130207/125201/4745/115/20/
017510/20130207/125222/4750/234/20/
017510/20130207/125255/4750/93/20/
017510/20130207/125301/4750/122/20/
017510/20130207/125304/4750/100/20/
017510/20130207/125328/4745/357/10/
017510/20130207/125448/4750/115/20/
017510/20130207/125737/4745/531/10/
017510/20130207/125741/4745/312/10/
017510/20130207/125839/4745/101/10/
017510/20130207/125906/4745/203/10/
017510/20130207/125913/4745/245/10/
017510/20130207/125932/4750/571/20/
017510/20130207/125941/4750/400/10/
017510/20130207/125945/4750/1062/10/
017510/20130207/130111/4750/207/20/
017510/20130207/130134/4750/214/20/
017510/20130207/130314/4750/200/20/
017510/20130207/130618/4750/267/20/
017510/20130207/130737/4750/1050/10/
017510/20130207/130852/4750/83/10/
017510/20130207/131453/4745/1209/10/
017510/20130207/131727/4745/126/20/
017510/20130207/131731/4745/148/20/
017510/20130207/131753/4745/452/10/
017510/20130207/131753/4740/1453/10/
017510/20130207/132501/4745/307/10/
017510/20130207/132721/4740/116/10/
017510/20130207/132748/4740/200/10/
017510/20130207/133102/4740/200/10/
017510/20130207/133226/4745/100/20/
017510/20130207/133504/4740/505/10/
017510/20130207/133541/4740/105/10/
017510/20130207/133549/4740/400/10/
017510/20130207/133600/4740/146/20/
017510/20130207/134255/4735/982/10/
017510/20130207/134411/4735/94/10/
017510/20130207/134429/4735/122/10/
017510/20130207/134726/4735/378/20/
017510/20130207/134735/4735/197/10/
017510/20130207/134735/4730/1295/10/
017510/20130207/134735/4725/106/10/
017510/20130207/134735/4720/387/10/
017510/20130207/134735/4715/1001/10/
017510/20130207/134735/4710/179/10/
017510/20130207/134735/4700/1835/10/
017510/20130207/135144/4710/1657/10/
017510/20130207/135144/4705/601/10/
017510/20130207/135144/4700/2744/10/
017510/20130207/135603/4740/3188/20/
017510/20130207/135617/4745/83/20/
017510/20130207/140422/4740/150/10/
017510/20130207/140645/4745/118/20/
017510/20130207/140645/4750/1030/20/
017510/20130207/140908/4750/246/10/
017510/20130207/140914/4750/2135/10/
017510/20130207/140939/4750/473/10/
017510/20130207/141312/4745/1017/10/
017510/20130207/142034/4750/210/20/
017510/20130207/142729/4750/1077/10/
017510/20130207/142938/4755/500/20/
017510/20130207/142959/4755/102/20/
017510/20130207/143054/4755/312/20/
017510/20130207/143102/4750/212/10/
017510/20130207/143154/4750/1000/10/
017510/20130207/143158/4755/106/20/
017510/20130207/143631/4755/92/20/
017510/20130207/143635/4755/200/10/
017510/20130207/143642/4755/2500/10/
017510/20130207/143805/4760/213/20/
017510/20130207/144146/4760/200/20/
017510/20130207/144416/4755/195/10/
017510/20130207/144457/4750/547/10/
017510/20130207/144611/4750/158/10/
017510/20130207/144659/4750/176/20/
017510/20130207/144755/4750/95/20/
017510/20130207/144857/4750/181/20/
017510/20130207/144915/4750/148/20/
017510/20130207/150000/4750/2031/10/
