017510/20130401/90150/4670/333/20/
017510/20130401/90226/4665/250/20/
017510/20130401/90713/4650/193/10/
017510/20130401/90851/4650/252/10/
017510/20130401/91739/4645/116/10/
017510/20130401/91739/4640/1052/10/
017510/20130401/91753/4640/200/10/
017510/20130401/91814/4635/741/10/
017510/20130401/91847/4630/830/10/
017510/20130401/91900/4630/188/20/
017510/20130401/92208/4655/192/10/
017510/20130401/92618/4655/1051/20/
017510/20130401/93035/4655/500/20/
017510/20130401/93346/4655/501/20/
017510/20130401/93346/4655/501/10/
017510/20130401/93530/4635/264/10/
017510/20130401/94402/4650/503/20/
017510/20130401/94659/4635/156/10/
017510/20130401/100220/4635/504/10/
017510/20130401/100249/4635/733/10/
017510/20130401/100347/4630/101/10/
017510/20130401/100431/4630/511/10/
017510/20130401/100558/4630/84/10/
017510/20130401/100912/4630/503/20/
017510/20130401/101016/4630/301/20/
017510/20130401/101018/4630/150/20/
017510/20130401/101230/4630/100/20/
017510/20130401/101236/4630/100/20/
017510/20130401/101320/4630/169/20/
017510/20130401/101337/4630/118/20/
017510/20130401/101339/4630/500/20/
017510/20130401/101344/4630/100/20/
017510/20130401/101348/4630/118/20/
017510/20130401/101349/4630/100/20/
017510/20130401/101448/4630/92/20/
017510/20130401/101455/4630/200/10/
017510/20130401/101455/4630/282/10/
017510/20130401/101802/4640/2019/20/
017510/20130401/102127/4640/1000/20/
017510/20130401/102517/4640/100/20/
017510/20130401/102533/4640/100/20/
017510/20130401/102809/4640/100/20/
017510/20130401/103221/4640/105/20/
017510/20130401/103327/4640/215/20/
017510/20130401/103341/4635/1807/10/
017510/20130401/103341/4630/293/10/
017510/20130401/103615/4630/919/10/
017510/20130401/103731/4640/134/20/
017510/20130401/103815/4640/100/20/
017510/20130401/103917/4640/615/20/
017510/20130401/103917/4645/1700/20/
017510/20130401/103917/4650/185/20/
017510/20130401/104533/4650/1113/20/
017510/20130401/105047/4635/125/10/
017510/20130401/105828/4635/521/10/
017510/20130401/105958/4640/334/20/
017510/20130401/105958/4645/2396/20/
017510/20130401/110523/4645/292/20/
017510/20130401/111008/4645/1422/20/
017510/20130401/111008/4645/2049/10/
017510/20130401/112852/4650/110/20/
017510/20130401/112858/4650/430/20/
017510/20130401/112900/4650/100/20/
017510/20130401/113444/4650/500/20/
017510/20130401/113459/4650/272/20/
017510/20130401/114410/4650/130/20/
017510/20130401/114904/4650/213/20/
017510/20130401/114915/4650/200/20/
017510/20130401/114937/4650/200/20/
017510/20130401/114951/4650/200/20/
017510/20130401/115036/4650/700/20/
017510/20130401/120650/4650/896/20/
017510/20130401/120712/4650/158/10/
017510/20130401/120753/4645/653/10/
017510/20130401/120753/4640/348/10/
017510/20130401/121635/4640/100/10/
017510/20130401/122045/4645/1030/10/
017510/20130401/124137/4645/123/20/
017510/20130401/124138/4645/82/20/
017510/20130401/124317/4640/1406/10/
017510/20130401/130032/4645/194/10/
017510/20130401/130313/4640/500/10/
017510/20130401/130557/4645/187/20/
017510/20130401/130731/4640/2028/10/
017510/20130401/132813/4640/1502/10/
017510/20130401/132908/4640/163/10/
017510/20130401/132908/4635/248/10/
017510/20130401/133801/4645/101/20/
017510/20130401/133936/4645/90/20/
017510/20130401/135652/4640/140/20/
017510/20130401/140258/4640/102/20/
017510/20130401/140417/4640/98/20/
017510/20130401/141028/4640/114/20/
017510/20130401/141116/4645/2314/20/
017510/20130401/141518/4645/302/10/
017510/20130401/142210/4645/390/10/
017510/20130401/142222/4650/228/20/
017510/20130401/142354/4650/100/20/
017510/20130401/142457/4645/100/20/
017510/20130401/142521/4645/100/20/
017510/20130401/142538/4645/100/20/
017510/20130401/142746/4645/773/10/
017510/20130401/142824/4645/218/10/
017510/20130401/143033/4645/3318/10/
017510/20130401/143045/4640/200/10/
017510/20130401/143051/4640/808/10/
017510/20130401/143129/4640/120/20/
017510/20130401/143204/4635/172/10/
017510/20130401/143343/4635/101/10/
017510/20130401/143516/4640/197/20/
017510/20130401/144150/4645/2001/20/
017510/20130401/144153/4645/859/20/
017510/20130401/144407/4645/957/20/
017510/20130401/144432/4645/200/20/
017510/20130401/144441/4640/3980/10/
017510/20130401/144630/4645/1213/20/
017510/20130401/144648/4645/290/20/
017510/20130401/144745/4640/245/10/
017510/20130401/144802/4640/799/10/
017510/20130401/144817/4640/101/20/
017510/20130401/144840/4640/100/20/
017510/20130401/144910/4635/1020/10/
017510/20130401/144911/4640/980/20/
017510/20130401/150000/4640/1051/10/
