017510/20121106/90000/5200/2140/10/
017510/20121106/90003/5200/469/10/
017510/20121106/90003/5190/211/10/
017510/20121106/90003/5180/426/10/
017510/20121106/90012/5180/1700/10/
017510/20121106/90045/5210/84/20/
017510/20121106/90051/5200/250/10/
017510/20121106/90051/5190/550/10/
017510/20121106/90106/5210/151/20/
017510/20121106/90111/5190/221/10/
017510/20121106/90118/5220/501/20/
017510/20121106/90122/5220/342/20/
017510/20121106/90140/5230/504/20/
017510/20121106/90146/5230/84/20/
017510/20121106/90155/5230/247/10/
017510/20121106/90220/5240/202/20/
017510/20121106/90221/5240/392/10/
017510/20121106/90225/5230/120/10/
017510/20121106/90225/5220/205/10/
017510/20121106/90314/5200/270/10/
017510/20121106/90335/5200/130/20/
017510/20121106/90338/5200/161/10/
017510/20121106/90413/5200/1080/10/
017510/20121106/90423/5200/246/10/
017510/20121106/90442/5190/129/10/
017510/20121106/90443/5190/800/10/
017510/20121106/90512/5220/201/20/
017510/20121106/90616/5200/111/10/
017510/20121106/90621/5200/131/10/
017510/20121106/90650/5200/149/20/
017510/20121106/90650/5220/767/20/
017510/20121106/90650/5230/3820/20/
017510/20121106/90728/5240/110/20/
017510/20121106/90805/5230/604/10/
017510/20121106/90807/5230/100/10/
017510/20121106/90817/5230/101/10/
017510/20121106/90824/5230/180/10/
017510/20121106/90829/5230/748/10/
017510/20121106/90831/5240/500/20/
017510/20121106/90836/5240/200/20/
017510/20121106/90839/5240/229/20/
017510/20121106/90911/5250/161/20/
017510/20121106/90917/5250/110/20/
017510/20121106/90927/5250/81/20/
017510/20121106/90935/5250/100/20/
017510/20121106/90936/5250/400/20/
017510/20121106/90948/5250/144/20/
017510/20121106/91002/5250/421/20/
017510/20121106/91004/5250/628/20/
017510/20121106/91011/5250/397/20/
017510/20121106/91029/5250/1000/20/
017510/20121106/91033/5250/100/20/
017510/20121106/91044/5240/90/10/
017510/20121106/91055/5250/100/20/
017510/20121106/91113/5240/1000/10/
017510/20121106/91114/5240/500/10/
017510/20121106/91121/5240/500/10/
017510/20121106/91127/5240/932/10/
017510/20121106/91137/5230/100/10/
017510/20121106/91159/5230/901/10/
017510/20121106/91203/5240/2000/20/
017510/20121106/91214/5230/21212/10/
017510/20121106/91223/5230/100/20/
017510/20121106/91237/5200/489/10/
017510/20121106/91256/5200/200/10/
017510/20121106/91341/5220/101/20/
017510/20121106/91614/5200/146/10/
017510/20121106/91614/5190/875/10/
017510/20121106/91619/5190/3243/10/
017510/20121106/91621/5190/283/10/
017510/20121106/91629/5180/410/10/
017510/20121106/91634/5180/502/10/
017510/20121106/91641/5170/1442/10/
017510/20121106/91643/5170/625/20/
017510/20121106/91647/5170/100/10/
017510/20121106/91647/5160/543/10/
017510/20121106/91657/5170/356/10/
017510/20121106/91657/5150/153/10/
017510/20121106/91709/5160/85/10/
017510/20121106/91710/5170/100/20/
017510/20121106/91732/5170/140/20/
017510/20121106/91740/5180/100/20/
017510/20121106/91745/5180/1020/20/
017510/20121106/91745/5180/1885/20/
017510/20121106/91809/5180/1090/10/
017510/20121106/91828/5180/370/10/
017510/20121106/91852/5190/350/20/
017510/20121106/91918/5190/100/10/
017510/20121106/91927/5190/110/10/
017510/20121106/91936/5200/540/20/
017510/20121106/91943/5200/600/20/
017510/20121106/91943/5210/95/20/
017510/20121106/92203/5190/100/10/
017510/20121106/92220/5190/500/10/
017510/20121106/92227/5190/300/10/
017510/20121106/92237/5190/349/10/
017510/20121106/92317/5190/82/20/
017510/20121106/92323/5190/421/20/
017510/20121106/92352/5190/89/20/
017510/20121106/92426/5180/1750/10/
017510/20121106/92429/5180/1450/10/
017510/20121106/92432/5180/500/10/
017510/20121106/92433/5190/1078/20/
017510/20121106/92512/5180/1070/10/
017510/20121106/92519/5180/553/10/
017510/20121106/92548/5180/944/10/
017510/20121106/92702/5180/258/10/
017510/20121106/92826/5180/510/10/
017510/20121106/92826/5170/1216/10/
017510/20121106/92826/5160/1465/10/
017510/20121106/92826/5150/1639/10/
017510/20121106/92903/5150/1085/10/
017510/20121106/92903/5140/2598/10/
017510/20121106/92903/5130/367/10/
017510/20121106/92925/5140/535/10/
017510/20121106/92925/5130/803/10/
017510/20121106/92955/5140/206/10/
017510/20121106/93029/5150/109/20/
017510/20121106/93100/5150/200/20/
017510/20121106/93417/5160/99/10/
017510/20121106/93417/5150/866/10/
017510/20121106/93524/5150/1871/10/
017510/20121106/93537/5150/106/20/
017510/20121106/93551/5150/457/20/
017510/20121106/93831/5170/177/20/
017510/20121106/93847/5170/96/10/
017510/20121106/93950/5150/320/10/
017510/20121106/93951/5180/2087/20/
017510/20121106/93955/5180/483/10/
017510/20121106/94341/5160/198/10/
017510/20121106/94426/5160/100/10/
017510/20121106/94458/5160/452/10/
017510/20121106/94526/5170/898/20/
017510/20121106/94605/5170/157/10/
017510/20121106/94605/5150/11701/10/
017510/20121106/94605/5140/3109/10/
017510/20121106/94605/5130/1614/10/
017510/20121106/94605/5120/1450/10/
017510/20121106/94605/5110/3669/10/
017510/20121106/94945/5130/1561/10/
017510/20121106/95007/5120/741/10/
017510/20121106/95028/5120/1636/10/
017510/20121106/95028/5120/365/20/
017510/20121106/95152/5120/733/10/
017510/20121106/95206/5120/520/20/
017510/20121106/95206/5120/288/20/
017510/20121106/95659/5130/1495/10/
017510/20121106/95811/5120/91/10/
017510/20121106/95825/5120/250/10/
017510/20121106/95846/5120/1001/10/
017510/20121106/95850/5120/1000/10/
017510/20121106/95907/5120/102/10/
017510/20121106/95937/5130/780/10/
017510/20121106/100019/5120/500/10/
017510/20121106/100127/5120/85/10/
017510/20121106/100129/5120/581/10/
017510/20121106/100151/5110/1110/10/
017510/20121106/100204/5120/419/20/
017510/20121106/100215/5120/151/10/
017510/20121106/100227/5120/200/10/
017510/20121106/100232/5120/218/10/
017510/20121106/100355/5120/270/10/
017510/20121106/100409/5120/179/20/
017510/20121106/100413/5120/500/20/
017510/20121106/100501/5120/230/20/
017510/20121106/100732/5130/162/20/
017510/20121106/100748/5130/154/20/
017510/20121106/100813/5140/150/20/
017510/20121106/100852/5150/150/20/
017510/20121106/100902/5150/1841/10/
017510/20121106/100902/5160/2159/20/
017510/20121106/100916/5160/150/20/
017510/20121106/100926/5160/100/20/
017510/20121106/100946/5150/500/20/
017510/20121106/100946/5160/216/20/
017510/20121106/100946/5170/274/20/
017510/20121106/101003/5170/331/20/
017510/20121106/101003/5180/169/20/
017510/20121106/101123/5180/250/20/
017510/20121106/101130/5180/894/20/
017510/20121106/101134/5180/106/10/
017510/20121106/101209/5160/391/10/
017510/20121106/101209/5140/609/10/
017510/20121106/101303/5140/201/10/
017510/20121106/101632/5150/111/10/
017510/20121106/101727/5160/101/20/
017510/20121106/101739/5150/200/10/
017510/20121106/101830/5160/118/20/
017510/20121106/101847/5160/796/20/
017510/20121106/101847/5180/1594/20/
017510/20121106/101858/5160/89/20/
017510/20121106/101946/5160/141/20/
017510/20121106/102059/5180/1798/20/
017510/20121106/102102/5180/203/10/
017510/20121106/102208/5180/297/20/
017510/20121106/102249/5180/369/20/
017510/20121106/102250/5180/100/20/
017510/20121106/102333/5190/251/20/
017510/20121106/102524/5180/318/20/
017510/20121106/102544/5190/159/20/
017510/20121106/102645/5180/500/10/
017510/20121106/102647/5180/219/10/
017510/20121106/102931/5170/170/10/
017510/20121106/103142/5180/234/20/
017510/20121106/103232/5170/163/10/
017510/20121106/103322/5160/200/10/
017510/20121106/103402/5150/402/10/
017510/20121106/103402/5150/598/20/
017510/20121106/103501/5150/230/10/
017510/20121106/103548/5150/170/10/
017510/20121106/103617/5150/393/20/
017510/20121106/103622/5140/396/10/
017510/20121106/103736/5150/410/10/
017510/20121106/103742/5150/464/20/
017510/20121106/103843/5150/105/10/
017510/20121106/103902/5150/293/10/
017510/20121106/104122/5170/101/20/
017510/20121106/104244/5160/120/10/
017510/20121106/104244/5150/380/10/
017510/20121106/104602/5170/480/20/
017510/20121106/104639/5150/500/10/
017510/20121106/105003/5160/115/20/
017510/20121106/105206/5150/150/10/
017510/20121106/105239/5150/250/10/
017510/20121106/105414/5150/100/10/
017510/20121106/105419/5150/1319/10/
017510/20121106/105439/5140/300/10/
017510/20121106/105716/5140/2391/10/
017510/20121106/105856/5140/1024/10/
017510/20121106/105900/5140/100/10/
017510/20121106/105931/5170/445/20/
017510/20121106/105931/5190/555/20/
017510/20121106/105934/5190/328/20/
017510/20121106/105934/5200/516/20/
017510/20121106/105934/5210/156/20/
017510/20121106/105935/5210/242/20/
017510/20121106/105935/5220/758/20/
017510/20121106/105940/5220/377/10/
017510/20121106/105940/5230/623/20/
017510/20121106/110140/5200/99/20/
017510/20121106/110155/5200/88/10/
017510/20121106/110157/5200/347/10/
017510/20121106/110313/5180/129/10/
017510/20121106/110325/5180/100/20/
017510/20121106/110336/5180/150/20/
017510/20121106/110339/5180/100/20/
017510/20121106/110421/5180/601/20/
017510/20121106/110430/5180/565/20/
017510/20121106/110431/5170/500/10/
017510/20121106/110459/5180/200/20/
017510/20121106/110558/5170/287/10/
017510/20121106/110558/5160/1262/10/
017510/20121106/110615/5150/841/10/
017510/20121106/110615/5140/97/10/
017510/20121106/110700/5130/462/10/
017510/20121106/110746/5130/350/10/
017510/20121106/110839/5150/1291/20/
017510/20121106/110936/5140/567/10/
017510/20121106/111026/5160/113/20/
017510/20121106/111119/5160/509/20/
017510/20121106/111119/5160/851/20/
017510/20121106/111345/5150/419/10/
017510/20121106/111432/5150/81/20/
017510/20121106/111432/5170/300/20/
017510/20121106/111448/5180/119/10/
017510/20121106/112240/5170/133/10/
017510/20121106/112335/5160/1187/10/
017510/20121106/112351/5150/230/10/
017510/20121106/112351/5140/2772/10/
017510/20121106/112427/5140/926/10/
017510/20121106/112442/5140/100/20/
017510/20121106/112530/5140/158/20/
017510/20121106/112537/5140/100/20/
017510/20121106/112613/5140/136/20/
017510/20121106/112639/5130/2173/10/
017510/20121106/112639/5120/2497/10/
017510/20121106/112950/5140/1077/20/
017510/20121106/113045/5140/155/20/
017510/20121106/113759/5140/250/10/
017510/20121106/114105/5150/401/10/
017510/20121106/114414/5150/211/10/
017510/20121106/114825/5150/1024/10/
017510/20121106/114900/5160/100/10/
017510/20121106/115002/5140/438/10/
017510/20121106/115241/5140/470/10/
017510/20121106/115603/5150/251/20/
017510/20121106/115739/5140/500/10/
017510/20121106/115801/5140/200/10/
017510/20121106/120025/5140/500/10/
017510/20121106/120522/5140/203/10/
017510/20121106/121254/5160/179/20/
017510/20121106/121254/5180/159/20/
017510/20121106/122224/5180/523/20/
017510/20121106/122224/5190/391/20/
017510/20121106/122237/5200/169/20/
017510/20121106/122248/5200/101/20/
017510/20121106/122259/5200/100/20/
017510/20121106/122306/5200/100/20/
017510/20121106/122319/5200/100/20/
017510/20121106/122324/5200/101/20/
017510/20121106/122330/5200/100/20/
017510/20121106/122331/5200/100/20/
017510/20121106/122335/5200/100/20/
017510/20121106/122341/5200/100/20/
017510/20121106/122345/5200/100/20/
017510/20121106/122351/5200/101/20/
017510/20121106/122356/5200/101/20/
017510/20121106/122405/5200/82/20/
017510/20121106/122409/5200/81/20/
017510/20121106/122412/5200/82/20/
017510/20121106/122417/5200/82/20/
017510/20121106/122436/5200/85/20/
017510/20121106/122509/5200/114/20/
017510/20121106/122723/5190/700/20/
017510/20121106/123012/5160/360/10/
017510/20121106/123012/5150/1590/10/
017510/20121106/123814/5160/601/10/
017510/20121106/123902/5160/135/10/
017510/20121106/123939/5160/265/10/
017510/20121106/123939/5150/603/10/
017510/20121106/124600/5170/351/20/
017510/20121106/124834/5170/316/20/
017510/20121106/124904/5160/101/10/
017510/20121106/124904/5150/291/10/
017510/20121106/125047/5150/1981/10/
017510/20121106/125153/5150/159/10/
017510/20121106/125254/5150/830/10/
017510/20121106/125334/5150/103/20/
017510/20121106/125358/5140/1000/10/
017510/20121106/125405/5140/519/10/
017510/20121106/125452/5140/1419/10/
017510/20121106/125747/5140/203/10/
017510/20121106/125813/5140/397/10/
017510/20121106/125814/5140/219/10/
017510/20121106/125858/5140/249/10/
017510/20121106/130011/5140/100/10/
017510/20121106/130143/5140/504/20/
017510/20121106/130605/5170/569/20/
017510/20121106/130710/5170/83/20/
017510/20121106/131118/5160/203/10/
017510/20121106/131118/5150/2062/10/
017510/20121106/131225/5150/238/20/
017510/20121106/131455/5180/2214/20/
017510/20121106/132337/5170/131/20/
017510/20121106/132406/5170/500/20/
017510/20121106/132442/5170/124/20/
017510/20121106/132513/5170/200/20/
017510/20121106/132530/5180/440/20/
017510/20121106/132806/5160/100/10/
017510/20121106/132945/5160/1600/10/
017510/20121106/133517/5160/255/10/
017510/20121106/133517/5150/942/10/
017510/20121106/133549/5170/1170/20/
017510/20121106/133601/5150/105/10/
017510/20121106/133601/5150/195/20/
017510/20121106/133623/5180/84/20/
017510/20121106/133645/5180/1197/20/
017510/20121106/133645/5190/2001/20/
017510/20121106/133645/5200/1815/20/
017510/20121106/133738/5200/120/20/
017510/20121106/133824/5200/301/20/
017510/20121106/134033/5190/110/20/
017510/20121106/134052/5200/99/20/
017510/20121106/134053/5200/1038/20/
017510/20121106/134053/5210/872/20/
017510/20121106/134202/5210/651/20/
017510/20121106/134223/5210/137/20/
017510/20121106/134229/5210/120/20/
017510/20121106/134304/5210/126/20/
017510/20121106/134453/5190/104/10/
017510/20121106/134504/5190/200/10/
017510/20121106/134753/5200/1008/20/
017510/20121106/134817/5200/100/20/
017510/20121106/134818/5200/1000/20/
017510/20121106/134826/5200/100/20/
017510/20121106/134841/5210/1500/20/
017510/20121106/134845/5210/427/20/
017510/20121106/134902/5210/1054/20/
017510/20121106/134932/5210/106/20/
017510/20121106/135000/5210/804/20/
017510/20121106/135022/5210/200/20/
017510/20121106/135025/5210/200/20/
017510/20121106/135033/5210/500/20/
017510/20121106/135034/5210/264/20/
017510/20121106/135039/5220/1000/20/
017510/20121106/135117/5220/1000/20/
017510/20121106/135120/5220/956/20/
017510/20121106/135125/5220/500/10/
017510/20121106/135157/5230/411/20/
017510/20121106/135236/5220/500/20/
017510/20121106/135236/5230/4500/20/
017510/20121106/135246/5210/1066/10/
017510/20121106/135252/5230/1233/20/
017510/20121106/135310/5230/100/20/
017510/20121106/135359/5230/1551/20/
017510/20121106/135403/5230/500/10/
017510/20121106/135411/5230/330/10/
017510/20121106/135417/5230/719/10/
017510/20121106/135444/5230/731/20/
017510/20121106/135444/5240/1269/20/
017510/20121106/135505/5240/500/20/
017510/20121106/135534/5230/801/20/
017510/20121106/135540/5230/199/20/
017510/20121106/135543/5230/500/10/
017510/20121106/135600/5240/1000/20/
017510/20121106/135623/5230/302/10/
017510/20121106/135635/5220/183/10/
017510/20121106/135646/5220/500/10/
017510/20121106/135729/5220/120/10/
017510/20121106/135814/5220/131/10/
017510/20121106/135827/5230/200/20/
017510/20121106/140032/5210/263/10/
017510/20121106/140058/5210/488/10/
017510/20121106/140102/5210/2000/10/
017510/20121106/140105/5210/100/10/
017510/20121106/140119/5210/100/10/
017510/20121106/140122/5210/681/10/
017510/20121106/140145/5200/115/10/
017510/20121106/140208/5210/201/20/
017510/20121106/140306/5210/110/10/
017510/20121106/140327/5200/1573/10/
017510/20121106/140331/5200/193/10/
017510/20121106/140352/5200/111/10/
017510/20121106/140359/5200/100/10/
017510/20121106/140406/5190/100/10/
017510/20121106/140407/5190/120/10/
017510/20121106/140409/5190/100/10/
017510/20121106/140409/5190/100/10/
017510/20121106/140410/5190/100/10/
017510/20121106/140411/5190/100/10/
017510/20121106/140411/5190/100/10/
017510/20121106/140412/5190/100/10/
017510/20121106/140413/5190/100/10/
017510/20121106/140413/5190/100/10/
017510/20121106/140414/5190/100/10/
017510/20121106/140415/5190/100/10/
017510/20121106/140415/5190/100/10/
017510/20121106/140416/5190/100/10/
017510/20121106/140416/5180/100/10/
017510/20121106/140417/5180/100/10/
017510/20121106/140418/5180/100/10/
017510/20121106/140419/5180/100/10/
017510/20121106/140419/5180/100/10/
017510/20121106/140420/5180/100/10/
017510/20121106/140420/5180/100/10/
017510/20121106/140421/5180/100/10/
017510/20121106/140422/5180/100/10/
017510/20121106/140422/5180/100/10/
017510/20121106/140423/5180/100/10/
017510/20121106/140424/5180/100/10/
017510/20121106/140424/5180/100/10/
017510/20121106/140425/5180/100/10/
017510/20121106/140425/5180/100/10/
017510/20121106/140426/5180/100/10/
017510/20121106/140427/5180/100/10/
017510/20121106/140427/5180/100/10/
017510/20121106/140428/5180/100/10/
017510/20121106/140428/5180/100/10/
017510/20121106/140429/5180/100/10/
017510/20121106/140430/5180/100/10/
017510/20121106/140430/5180/100/10/
017510/20121106/140431/5180/100/10/
017510/20121106/140432/5180/100/10/
017510/20121106/140432/5180/100/10/
017510/20121106/140434/5180/100/10/
017510/20121106/140435/5180/100/10/
017510/20121106/140436/5180/84/10/
017510/20121106/140527/5190/157/20/
017510/20121106/140627/5200/159/20/
017510/20121106/140704/5200/100/20/
017510/20121106/140804/5200/1014/10/
017510/20121106/141048/5200/621/10/
017510/20121106/141057/5190/300/10/
017510/20121106/141249/5190/251/10/
017510/20121106/141256/5190/138/10/
017510/20121106/141256/5180/162/10/
017510/20121106/141510/5180/368/10/
017510/20121106/141739/5190/143/10/
017510/20121106/142004/5190/288/10/
017510/20121106/142306/5180/610/10/
017510/20121106/142310/5180/500/10/
017510/20121106/142327/5180/688/10/
017510/20121106/142452/5180/236/20/
017510/20121106/142609/5180/224/10/
017510/20121106/142619/5180/300/10/
017510/20121106/142633/5180/97/10/
017510/20121106/142735/5180/100/10/
017510/20121106/142800/5180/243/10/
017510/20121106/142857/5180/98/20/
017510/20121106/142934/5170/400/10/
017510/20121106/143048/5170/360/10/
017510/20121106/143209/5170/90/10/
017510/20121106/143231/5170/1036/10/
017510/20121106/143338/5170/144/10/
017510/20121106/143346/5170/474/10/
017510/20121106/143346/5160/426/10/
017510/20121106/143405/5170/150/20/
017510/20121106/143527/5160/400/10/
017510/20121106/143534/5160/1700/10/
017510/20121106/143552/5160/167/10/
017510/20121106/143614/5160/901/10/
017510/20121106/143614/5150/433/10/
017510/20121106/143637/5150/500/10/
017510/20121106/143717/5150/350/10/
017510/20121106/143739/5150/3499/10/
017510/20121106/143745/5150/109/20/
017510/20121106/143832/5150/405/20/
017510/20121106/143945/5160/505/10/
017510/20121106/143945/5150/500/10/
017510/20121106/144053/5160/1863/20/
017510/20121106/144150/5160/1638/10/
017510/20121106/144230/5160/512/20/
017510/20121106/144245/5150/1533/10/
017510/20121106/144245/5140/467/10/
017510/20121106/144314/5150/100/20/
017510/20121106/144416/5150/124/10/
017510/20121106/144418/5150/100/10/
017510/20121106/144444/5160/231/20/
017510/20121106/144504/5160/308/20/
017510/20121106/144507/5160/544/20/
017510/20121106/144520/5160/110/20/
017510/20121106/144528/5160/100/20/
017510/20121106/144539/5160/830/20/
017510/20121106/144738/5160/120/10/
017510/20121106/144801/5170/100/10/
017510/20121106/144801/5160/822/10/
017510/20121106/144842/5160/90/20/
017510/20121106/144900/5170/200/20/
017510/20121106/144913/5180/200/20/
017510/20121106/144919/5160/1000/10/
017510/20121106/144923/5180/880/20/
017510/20121106/144935/5160/1602/10/
017510/20121106/144935/5150/2545/10/
017510/20121106/150000/5180/10461/10/
