017510/20130304/90000/4810/500/10/
017510/20130304/90016/4810/546/10/
017510/20130304/90016/4805/502/10/
017510/20130304/90016/4800/2422/10/
017510/20130304/90039/4800/313/20/
017510/20130304/90049/4800/130/20/
017510/20130304/90102/4800/100/20/
017510/20130304/90103/4800/100/20/
017510/20130304/90109/4800/750/20/
017510/20130304/90111/4800/138/20/
017510/20130304/90601/4810/187/20/
017510/20130304/90739/4800/585/10/
017510/20130304/90739/4795/348/10/
017510/20130304/91138/4800/1000/10/
017510/20130304/91603/4820/113/20/
017510/20130304/92032/4820/282/20/
017510/20130304/92108/4810/125/10/
017510/20130304/92133/4805/1130/10/
017510/20130304/92133/4805/500/20/
017510/20130304/92151/4805/370/20/
017510/20130304/92300/4805/630/10/
017510/20130304/92643/4815/110/20/
017510/20130304/92726/4805/1660/10/
017510/20130304/93307/4805/270/10/
017510/20130304/93700/4805/2481/10/
017510/20130304/93802/4800/2023/10/
017510/20130304/93802/4795/2977/10/
017510/20130304/94128/4810/523/20/
017510/20130304/94136/4805/95/10/
017510/20130304/94217/4800/597/10/
017510/20130304/94227/4810/1000/20/
017510/20130304/94401/4800/101/10/
017510/20130304/94507/4800/302/10/
017510/20130304/94727/4800/308/20/
017510/20130304/94921/4800/274/20/
017510/20130304/95034/4800/754/10/
017510/20130304/95157/4800/606/10/
017510/20130304/95411/4800/324/10/
017510/20130304/95447/4795/270/10/
017510/20130304/95457/4795/347/10/
017510/20130304/95522/4800/200/10/
017510/20130304/95644/4800/101/10/
017510/20130304/95657/4800/400/10/
017510/20130304/95759/4800/100/10/
017510/20130304/95925/4800/101/10/
017510/20130304/100023/4810/2198/20/
017510/20130304/100209/4810/501/10/
017510/20130304/100218/4810/358/10/
017510/20130304/100231/4810/530/20/
017510/20130304/100236/4810/112/20/
017510/20130304/100254/4810/388/10/
017510/20130304/100309/4805/500/10/
017510/20130304/100316/4805/1000/10/
017510/20130304/100322/4805/250/10/
017510/20130304/100327/4810/162/20/
017510/20130304/100518/4810/1000/20/
017510/20130304/100542/4810/1000/10/
017510/20130304/100631/4810/250/10/
017510/20130304/100638/4810/433/10/
017510/20130304/100638/4805/567/10/
017510/20130304/100838/4805/301/10/
017510/20130304/100848/4805/233/10/
017510/20130304/100914/4805/267/20/
017510/20130304/101016/4805/184/10/
017510/20130304/101016/4800/2436/10/
017510/20130304/101521/4805/405/10/
017510/20130304/101525/4805/145/20/
017510/20130304/101600/4805/1000/10/
017510/20130304/101832/4805/726/20/
017510/20130304/101838/4805/500/20/
017510/20130304/102101/4810/92/20/
017510/20130304/102221/4815/1000/20/
017510/20130304/102258/4815/250/20/
017510/20130304/102405/4815/398/20/
017510/20130304/102411/4815/482/20/
017510/20130304/102448/4815/210/10/
017510/20130304/102600/4815/101/10/
017510/20130304/103032/4815/101/10/
017510/20130304/103149/4815/146/10/
017510/20130304/103253/4815/131/10/
017510/20130304/103552/4815/370/20/
017510/20130304/103734/4815/130/10/
017510/20130304/103939/4815/1101/20/
017510/20130304/104418/4810/200/10/
017510/20130304/104612/4815/269/20/
017510/20130304/104911/4810/431/10/
017510/20130304/104917/4810/1299/10/
017510/20130304/104934/4810/498/10/
017510/20130304/105042/4805/1193/10/
017510/20130304/105536/4810/1002/20/
017510/20130304/105900/4810/207/10/
017510/20130304/110038/4810/142/10/
017510/20130304/111125/4805/1038/10/
017510/20130304/111232/4805/974/10/
017510/20130304/111750/4800/200/10/
017510/20130304/111855/4805/107/20/
017510/20130304/112100/4800/262/10/
017510/20130304/112100/4800/1540/10/
017510/20130304/112200/4800/100/10/
017510/20130304/112529/4800/100/20/
017510/20130304/112708/4795/800/10/
017510/20130304/113831/4795/322/10/
017510/20130304/114615/4795/256/10/
017510/20130304/121006/4800/506/10/
017510/20130304/121310/4805/89/20/
017510/20130304/121424/4805/1000/20/
017510/20130304/121441/4805/1024/20/
017510/20130304/121554/4800/84/10/
017510/20130304/121632/4800/731/10/
017510/20130304/121745/4800/100/20/
017510/20130304/121902/4795/351/10/
017510/20130304/121958/4795/274/10/
017510/20130304/122517/4800/276/20/
017510/20130304/122529/4795/3000/10/
017510/20130304/122652/4800/90/20/
017510/20130304/122811/4795/127/10/
017510/20130304/122854/4795/1054/10/
017510/20130304/123130/4800/487/20/
017510/20130304/123258/4800/100/20/
017510/20130304/123327/4800/282/20/
017510/20130304/123535/4800/1172/10/
017510/20130304/123617/4800/172/10/
017510/20130304/123734/4800/83/10/
017510/20130304/124010/4800/1500/10/
017510/20130304/124112/4805/2055/20/
017510/20130304/124130/4805/185/20/
017510/20130304/124140/4810/1000/20/
017510/20130304/124210/4810/693/20/
017510/20130304/124305/4815/2668/20/
017510/20130304/124341/4820/5779/20/
017510/20130304/124403/4820/500/20/
017510/20130304/124407/4820/100/20/
017510/20130304/124450/4820/500/20/
017510/20130304/124455/4820/470/20/
017510/20130304/124555/4825/500/20/
017510/20130304/124558/4825/271/20/
017510/20130304/124558/4830/1116/20/
017510/20130304/124623/4830/865/20/
017510/20130304/124643/4830/200/20/
017510/20130304/124735/4830/690/20/
017510/20130304/125151/4825/207/20/
017510/20130304/125209/4825/803/10/
017510/20130304/125631/4820/101/10/
017510/20130304/130116/4820/330/10/
017510/20130304/130149/4820/110/10/
017510/20130304/130214/4820/130/10/
017510/20130304/130226/4820/101/10/
017510/20130304/130241/4820/260/10/
017510/20130304/130823/4815/135/10/
017510/20130304/131100/4815/1279/10/
017510/20130304/131645/4815/500/20/
017510/20130304/132216/4815/261/20/
017510/20130304/132238/4820/432/20/
017510/20130304/132311/4820/568/10/
017510/20130304/132338/4820/200/20/
017510/20130304/132447/4820/432/20/
017510/20130304/132538/4820/568/10/
017510/20130304/132610/4815/150/10/
017510/20130304/132825/4815/589/10/
017510/20130304/132825/4810/411/10/
017510/20130304/133041/4805/734/10/
017510/20130304/133518/4805/111/10/
017510/20130304/134343/4805/1500/10/
017510/20130304/134602/4810/170/10/
017510/20130304/134731/4810/302/10/
017510/20130304/135914/4805/1206/10/
017510/20130304/135914/4800/4846/10/
017510/20130304/140218/4800/103/10/
017510/20130304/140238/4800/100/10/
017510/20130304/140546/4800/100/10/
017510/20130304/140705/4800/118/10/
017510/20130304/141332/4805/126/20/
017510/20130304/141518/4800/430/10/
017510/20130304/141645/4800/1499/10/
017510/20130304/142327/4805/501/10/
017510/20130304/142327/4800/501/10/
017510/20130304/142707/4800/1000/10/
017510/20130304/143501/4805/220/10/
017510/20130304/143506/4805/330/20/
017510/20130304/143532/4805/100/10/
017510/20130304/143559/4805/100/10/
017510/20130304/143827/4805/161/20/
017510/20130304/144501/4800/90/10/
017510/20130304/144558/4800/1010/10/
017510/20130304/144606/4800/581/10/
017510/20130304/144746/4800/3000/10/
017510/20130304/144924/4800/152/10/
017510/20130304/150000/4790/4171/10/
