017510/20121114/90000/4970/4888/10/
017510/20121114/90000/4980/250/20/
017510/20121114/90006/4980/250/20/
017510/20121114/90035/4980/1002/10/
017510/20121114/90045/4970/482/10/
017510/20121114/90045/4965/581/10/
017510/20121114/90045/4960/938/10/
017510/20121114/90059/4960/726/10/
017510/20121114/90220/4970/375/10/
017510/20121114/90255/4995/202/20/
017510/20121114/90339/4995/100/20/
017510/20121114/90351/4995/200/20/
017510/20121114/90352/4995/200/20/
017510/20121114/90353/4995/200/20/
017510/20121114/90356/4995/99/20/
017510/20121114/90419/5000/200/20/
017510/20121114/90453/5000/105/20/
017510/20121114/90502/4995/200/10/
017510/20121114/90549/5000/739/20/
017510/20121114/90553/5000/200/20/
017510/20121114/90601/4995/200/10/
017510/20121114/90602/4995/1000/20/
017510/20121114/90602/4995/222/20/
017510/20121114/90617/5000/212/10/
017510/20121114/90821/5020/212/20/
017510/20121114/90826/5020/100/20/
017510/20121114/90833/5020/894/20/
017510/20121114/90847/5020/206/10/
017510/20121114/90856/5020/94/20/
017510/20121114/90928/5000/1080/10/
017510/20121114/91009/5000/277/20/
017510/20121114/91054/5000/146/10/
017510/20121114/91138/4990/695/10/
017510/20121114/91311/4990/105/10/
017510/20121114/91328/4990/86/10/
017510/20121114/91407/4990/100/20/
017510/20121114/91448/4990/469/10/
017510/20121114/91450/4990/200/20/
017510/20121114/91533/4985/1000/10/
017510/20121114/91537/4990/100/20/
017510/20121114/91559/4985/646/10/
017510/20121114/91612/4985/200/20/
017510/20121114/91614/4980/800/10/
017510/20121114/91652/4980/144/10/
017510/20121114/91847/4975/134/10/
017510/20121114/91908/4970/189/10/
017510/20121114/91908/4965/110/10/
017510/20121114/91950/4970/500/10/
017510/20121114/91950/4965/492/10/
017510/20121114/91950/4960/1000/10/
017510/20121114/91958/4960/1023/10/
017510/20121114/92007/4955/200/10/
017510/20121114/92015/4955/216/10/
017510/20121114/92020/4950/900/10/
017510/20121114/92026/4950/500/10/
017510/20121114/92027/4950/466/10/
017510/20121114/92037/4950/98/20/
017510/20121114/92100/4955/152/10/
017510/20121114/92110/4950/100/10/
017510/20121114/92113/4950/731/10/
017510/20121114/92113/4945/769/10/
017510/20121114/92116/4950/100/20/
017510/20121114/92147/4940/2022/10/
017510/20121114/92240/4940/171/20/
017510/20121114/92302/4940/130/20/
017510/20121114/92308/4940/444/20/
017510/20121114/92312/4945/500/20/
017510/20121114/92326/4940/228/10/
017510/20121114/92340/4940/444/10/
017510/20121114/92341/4940/374/10/
017510/20121114/92351/4940/574/10/
017510/20121114/92401/4935/150/10/
017510/20121114/92406/4935/276/10/
017510/20121114/92413/4935/102/10/
017510/20121114/92449/4935/100/20/
017510/20121114/92453/4935/100/20/
017510/20121114/92504/4930/410/10/
017510/20121114/92524/4930/101/20/
017510/20121114/92550/4930/491/20/
017510/20121114/92624/4930/210/10/
017510/20121114/92624/4925/226/10/
017510/20121114/92624/4920/118/10/
017510/20121114/92634/4920/887/10/
017510/20121114/92634/4915/3113/10/
017510/20121114/92638/4915/601/10/
017510/20121114/92646/4915/154/10/
017510/20121114/92708/4915/504/20/
017510/20121114/92724/4915/103/20/
017510/20121114/92750/4915/97/10/
017510/20121114/92826/4910/333/10/
017510/20121114/92826/4905/1083/10/
017510/20121114/92826/4900/1334/10/
017510/20121114/92831/4900/501/20/
017510/20121114/92840/4900/144/20/
017510/20121114/92846/4895/341/10/
017510/20121114/92858/4900/301/20/
017510/20121114/92938/4895/1407/10/
017510/20121114/92947/4895/500/20/
017510/20121114/92948/4890/1000/10/
017510/20121114/92956/4890/157/10/
017510/20121114/93002/4885/937/10/
017510/20121114/93009/4890/623/20/
017510/20121114/93011/4890/270/20/
017510/20121114/93011/4885/1500/10/
017510/20121114/93012/4890/500/20/
017510/20121114/93013/4890/100/20/
017510/20121114/93021/4890/102/10/
017510/20121114/93059/4890/435/10/
017510/20121114/93110/4890/626/10/
017510/20121114/93110/4885/1874/10/
017510/20121114/93113/4885/500/10/
017510/20121114/93116/4885/1000/10/
017510/20121114/93120/4885/1004/10/
017510/20121114/93123/4885/118/10/
017510/20121114/93127/4880/1092/10/
017510/20121114/93127/4875/804/10/
017510/20121114/93150/4875/505/10/
017510/20121114/93156/4875/2316/10/
017510/20121114/93156/4870/3167/10/
017510/20121114/93156/4865/149/10/
017510/20121114/93204/4865/1092/10/
017510/20121114/93204/4860/1178/10/
017510/20121114/93204/4855/366/10/
017510/20121114/93204/4850/1807/10/
017510/20121114/93204/4845/557/10/
017510/20121114/93212/4845/206/10/
017510/20121114/93218/4845/1389/10/
017510/20121114/93226/4840/510/10/
017510/20121114/93227/4840/101/20/
017510/20121114/93228/4840/700/20/
017510/20121114/93245/4840/300/20/
017510/20121114/93246/4840/711/10/
017510/20121114/93253/4840/501/20/
017510/20121114/93257/4840/88/20/
017510/20121114/93307/4845/500/20/
017510/20121114/93323/4865/100/20/
017510/20121114/93359/4870/130/20/
017510/20121114/93407/4870/100/20/
017510/20121114/93409/4860/500/10/
017510/20121114/93413/4860/1000/20/
017510/20121114/93418/4860/500/20/
017510/20121114/93429/4855/90/10/
017510/20121114/93445/4860/400/20/
017510/20121114/93448/4860/100/10/
017510/20121114/93451/4855/440/10/
017510/20121114/93508/4850/600/10/
017510/20121114/93511/4850/402/20/
017510/20121114/93513/4850/100/10/
017510/20121114/93521/4850/498/10/
017510/20121114/93529/4850/152/20/
017510/20121114/93541/4850/110/20/
017510/20121114/93609/4850/500/20/
017510/20121114/93627/4850/160/20/
017510/20121114/93630/4845/281/10/
017510/20121114/93631/4845/500/10/
017510/20121114/93636/4850/500/20/
017510/20121114/93638/4845/456/10/
017510/20121114/93651/4840/420/10/
017510/20121114/93653/4850/100/20/
017510/20121114/93706/4855/155/20/
017510/20121114/93715/4855/400/20/
017510/20121114/93720/4850/570/10/
017510/20121114/93721/4855/150/20/
017510/20121114/93728/4855/150/20/
017510/20121114/93730/4855/200/20/
017510/20121114/93742/4860/444/10/
017510/20121114/93751/4860/250/20/
017510/20121114/93814/4860/118/20/
017510/20121114/93820/4860/189/20/
017510/20121114/93844/4865/145/10/
017510/20121114/93844/4860/856/10/
017510/20121114/93850/4860/501/10/
017510/20121114/93856/4860/1455/10/
017510/20121114/93859/4860/340/20/
017510/20121114/93918/4860/100/20/
017510/20121114/93927/4860/190/20/
017510/20121114/93930/4860/500/20/
017510/20121114/93935/4860/199/20/
017510/20121114/93937/4860/100/20/
017510/20121114/93952/4860/100/20/
017510/20121114/94043/4855/108/10/
017510/20121114/94048/4855/193/10/
017510/20121114/94054/4850/855/10/
017510/20121114/94054/4845/1710/10/
017510/20121114/94054/4840/894/10/
017510/20121114/94059/4840/1000/10/
017510/20121114/94101/4855/500/20/
017510/20121114/94119/4855/140/10/
017510/20121114/94125/4855/118/10/
017510/20121114/94135/4855/350/10/
017510/20121114/94152/4855/95/10/
017510/20121114/94203/4840/100/10/
017510/20121114/94216/4840/863/10/
017510/20121114/94216/4835/1165/10/
017510/20121114/94221/4835/1238/10/
017510/20121114/94241/4840/255/10/
017510/20121114/94244/4840/245/10/
017510/20121114/94244/4835/1147/10/
017510/20121114/94244/4830/1142/10/
017510/20121114/94249/4830/450/20/
017510/20121114/94302/4825/100/10/
017510/20121114/94304/4830/515/20/
017510/20121114/94324/4830/200/20/
017510/20121114/94326/4825/300/10/
017510/20121114/94329/4825/398/10/
017510/20121114/94331/4820/1892/10/
017510/20121114/94350/4820/108/20/
017510/20121114/94409/4820/581/10/
017510/20121114/94409/4815/1137/10/
017510/20121114/94415/4815/162/10/
017510/20121114/94423/4815/194/10/
017510/20121114/94443/4815/386/10/
017510/20121114/94443/4810/614/10/
017510/20121114/94445/4810/879/10/
017510/20121114/94450/4810/1121/20/
017510/20121114/94459/4810/102/10/
017510/20121114/94504/4810/580/10/
017510/20121114/94505/4815/88/20/
017510/20121114/94521/4820/621/20/
017510/20121114/94521/4825/841/20/
017510/20121114/94523/4815/332/10/
017510/20121114/94523/4810/219/10/
017510/20121114/94530/4815/700/10/
017510/20121114/94535/4815/131/10/
017510/20121114/94535/4810/154/10/
017510/20121114/94543/4815/200/10/
017510/20121114/94543/4810/1800/10/
017510/20121114/94546/4815/200/10/
017510/20121114/94551/4815/500/10/
017510/20121114/94601/4815/152/10/
017510/20121114/94602/4820/1165/20/
017510/20121114/94602/4825/837/20/
017510/20121114/94609/4825/224/20/
017510/20121114/94624/4850/505/20/
017510/20121114/94633/4850/145/20/
017510/20121114/94650/4850/150/20/
017510/20121114/94652/4835/100/10/
017510/20121114/94713/4845/248/20/
017510/20121114/94719/4845/300/20/
017510/20121114/94725/4845/303/20/
017510/20121114/94744/4845/96/20/
017510/20121114/94754/4850/1301/20/
017510/20121114/94754/4860/1210/20/
017510/20121114/94757/4860/1345/10/
017510/20121114/94812/4845/567/10/
017510/20121114/94820/4845/695/10/
017510/20121114/94851/4850/500/10/
017510/20121114/94941/4855/1000/20/
017510/20121114/95000/4865/1035/20/
017510/20121114/95003/4855/121/10/
017510/20121114/95036/4865/265/20/
017510/20121114/95206/4865/123/10/
017510/20121114/95206/4860/1500/10/
017510/20121114/95206/4855/1402/10/
017510/20121114/95218/4855/195/10/
017510/20121114/95223/4850/305/10/
017510/20121114/95229/4850/264/10/
017510/20121114/95236/4870/200/20/
017510/20121114/95351/4860/132/20/
017510/20121114/95417/4855/122/20/
017510/20121114/95443/4855/214/20/
017510/20121114/95508/4855/292/10/
017510/20121114/95512/4855/100/20/
017510/20121114/95528/4850/429/20/
017510/20121114/95643/4850/300/20/
017510/20121114/95645/4850/100/20/
017510/20121114/95659/4845/951/10/
017510/20121114/95659/4840/1260/10/
017510/20121114/95659/4835/384/10/
017510/20121114/95659/4830/2052/10/
017510/20121114/95659/4825/1753/10/
017510/20121114/95706/4825/1343/10/
017510/20121114/95724/4825/100/10/
017510/20121114/95804/4845/201/20/
017510/20121114/95826/4835/101/10/
017510/20121114/100015/4845/511/20/
017510/20121114/100020/4845/126/20/
017510/20121114/100035/4845/436/10/
017510/20121114/100100/4845/200/20/
017510/20121114/100210/4845/106/10/
017510/20121114/100210/4830/215/10/
017510/20121114/100210/4825/133/10/
017510/20121114/100222/4825/199/10/
017510/20121114/100331/4840/170/20/
017510/20121114/100507/4850/1327/20/
017510/20121114/100557/4845/100/20/
017510/20121114/100557/4850/155/20/
017510/20121114/100855/4835/378/10/
017510/20121114/100859/4835/232/10/
017510/20121114/100908/4835/268/20/
017510/20121114/100928/4850/317/20/
017510/20121114/101014/4865/144/20/
017510/20121114/101021/4865/94/20/
017510/20121114/101028/4850/230/10/
017510/20121114/101312/4850/301/10/
017510/20121114/101657/4840/552/10/
017510/20121114/101708/4845/130/10/
017510/20121114/101745/4850/1003/20/
017510/20121114/101816/4850/550/20/
017510/20121114/101921/4845/143/10/
017510/20121114/102007/4840/100/10/
017510/20121114/102021/4835/1918/10/
017510/20121114/102040/4835/82/20/
017510/20121114/102055/4835/400/10/
017510/20121114/102111/4845/129/20/
017510/20121114/102208/4845/210/20/
017510/20121114/102327/4845/190/20/
017510/20121114/102338/4845/426/10/
017510/20121114/102338/4840/574/10/
017510/20121114/102348/4850/175/20/
017510/20121114/102400/4850/815/20/
017510/20121114/102538/4850/599/10/
017510/20121114/102918/4855/418/20/
017510/20121114/102918/4860/462/20/
017510/20121114/102936/4850/683/10/
017510/20121114/102936/4845/870/10/
017510/20121114/102936/4840/447/10/
017510/20121114/103002/4840/1500/10/
017510/20121114/103010/4840/526/10/
017510/20121114/103142/4860/687/20/
017510/20121114/103326/4860/116/20/
017510/20121114/103337/4860/84/20/
017510/20121114/103905/4850/429/10/
017510/20121114/104127/4860/157/20/
017510/20121114/104148/4860/1224/20/
017510/20121114/104214/4860/101/20/
017510/20121114/104243/4860/89/20/
017510/20121114/104251/4865/990/20/
017510/20121114/104323/4870/100/20/
017510/20121114/104422/4870/189/20/
017510/20121114/104452/4870/400/20/
017510/20121114/104500/4870/343/20/
017510/20121114/105003/4875/370/20/
017510/20121114/105105/4870/87/10/
017510/20121114/105113/4860/100/10/
017510/20121114/105122/4855/200/10/
017510/20121114/105135/4850/1000/10/
017510/20121114/105148/4850/200/10/
017510/20121114/105159/4870/220/20/
017510/20121114/105333/4850/513/10/
017510/20121114/105333/4845/2009/10/
017510/20121114/105426/4850/1203/10/
017510/20121114/105426/4845/592/10/
017510/20121114/105426/4840/1208/10/
017510/20121114/105524/4845/172/10/
017510/20121114/105530/4845/140/20/
017510/20121114/105533/4845/860/10/
017510/20121114/105533/4840/212/10/
017510/20121114/105541/4840/1001/10/
017510/20121114/105606/4845/296/10/
017510/20121114/105606/4840/241/10/
017510/20121114/105606/4835/307/10/
017510/20121114/105638/4870/721/20/
017510/20121114/105837/4845/1701/10/
017510/20121114/105837/4840/601/10/
017510/20121114/105837/4835/1849/10/
017510/20121114/105837/4830/1449/10/
017510/20121114/105910/4840/310/10/
017510/20121114/105910/4835/200/10/
017510/20121114/105910/4830/657/10/
017510/20121114/105910/4825/474/10/
017510/20121114/110051/4850/302/10/
017510/20121114/110051/4835/765/10/
017510/20121114/110051/4830/1550/10/
017510/20121114/110051/4825/1605/10/
017510/20121114/110051/4820/3101/10/
017510/20121114/110051/4815/679/10/
017510/20121114/110356/4830/275/10/
017510/20121114/110652/4860/303/10/
017510/20121114/110653/4860/136/20/
017510/20121114/110702/4860/164/10/
017510/20121114/110821/4850/200/10/
017510/20121114/110835/4860/500/20/
017510/20121114/111105/4860/452/20/
017510/20121114/111137/4850/235/10/
017510/20121114/111137/4845/465/10/
017510/20121114/111559/4850/271/10/
017510/20121114/111559/4845/1283/10/
017510/20121114/111559/4845/447/20/
017510/20121114/111800/4860/160/20/
017510/20121114/111937/4860/773/20/
017510/20121114/112104/4860/200/10/
017510/20121114/112104/4860/1000/20/
017510/20121114/112110/4855/552/10/
017510/20121114/112110/4855/448/20/
017510/20121114/112159/4855/200/10/
017510/20121114/112159/4850/1800/10/
017510/20121114/112855/4855/212/10/
017510/20121114/112946/4855/266/10/
017510/20121114/113013/4855/223/10/
017510/20121114/113013/4850/250/10/
017510/20121114/113013/4845/940/10/
017510/20121114/113014/4845/587/20/
017510/20121114/113126/4845/295/10/
017510/20121114/113126/4845/210/20/
017510/20121114/113330/4845/202/10/
017510/20121114/113339/4840/1000/10/
017510/20121114/113927/4850/339/10/
017510/20121114/113927/4845/458/10/
017510/20121114/114302/4850/242/10/
017510/20121114/114306/4850/100/10/
017510/20121114/114400/4850/200/20/
017510/20121114/114445/4855/200/20/
017510/20121114/114545/4855/92/20/
017510/20121114/114802/4855/408/10/
017510/20121114/114925/4855/200/10/
017510/20121114/114928/4855/502/10/
017510/20121114/114959/4855/441/10/
017510/20121114/115050/4845/500/10/
017510/20121114/115626/4845/110/10/
017510/20121114/115629/4840/223/10/
017510/20121114/115634/4835/1600/10/
017510/20121114/115635/4830/126/10/
017510/20121114/115724/4830/383/10/
017510/20121114/115847/4840/100/10/
017510/20121114/120014/4840/102/10/
017510/20121114/120218/4840/198/10/
017510/20121114/120239/4835/267/10/
017510/20121114/120254/4835/204/10/
017510/20121114/120538/4850/145/20/
017510/20121114/120928/4850/500/20/
017510/20121114/121028/4850/200/20/
017510/20121114/121459/4840/130/10/
017510/20121114/121854/4840/163/10/
017510/20121114/122341/4840/851/10/
017510/20121114/122402/4840/600/10/
017510/20121114/122403/4840/200/20/
017510/20121114/122639/4840/630/10/
017510/20121114/123043/4840/720/10/
017510/20121114/123049/4840/191/20/
017510/20121114/124005/4845/156/20/
017510/20121114/124113/4850/500/20/
017510/20121114/124220/4840/736/10/
017510/20121114/124313/4840/1052/10/
017510/20121114/124522/4840/133/10/
017510/20121114/124604/4835/367/10/
017510/20121114/125108/4840/271/20/
017510/20121114/125310/4840/106/10/
017510/20121114/125450/4840/5074/10/
017510/20121114/125502/4840/2000/10/
017510/20121114/125518/4840/924/10/
017510/20121114/125536/4835/500/10/
017510/20121114/125655/4840/598/20/
017510/20121114/130158/4840/420/10/
017510/20121114/130314/4840/999/10/
017510/20121114/130350/4835/310/10/
017510/20121114/130441/4840/450/10/
017510/20121114/130526/4840/100/20/
017510/20121114/130532/4840/401/10/
017510/20121114/130650/4840/319/10/
017510/20121114/130710/4840/83/10/
017510/20121114/130713/4845/300/20/
017510/20121114/130747/4840/200/10/
017510/20121114/130753/4840/300/10/
017510/20121114/130753/4835/200/10/
017510/20121114/130803/4835/1000/10/
017510/20121114/130912/4840/350/10/
017510/20121114/130912/4835/200/10/
017510/20121114/131331/4840/215/20/
017510/20121114/131424/4840/300/10/
017510/20121114/131602/4835/1796/10/
017510/20121114/131602/4830/1234/10/
017510/20121114/131621/4830/1252/10/
017510/20121114/131621/4825/748/10/
017510/20121114/131652/4825/1377/10/
017510/20121114/131652/4820/2126/10/
017510/20121114/131721/4825/1212/10/
017510/20121114/131721/4820/800/10/
017510/20121114/131911/4840/458/10/
017510/20121114/131911/4845/1133/10/
017510/20121114/131923/4845/419/10/
017510/20121114/132329/4845/100/20/
017510/20121114/132604/4835/252/10/
017510/20121114/132604/4830/709/10/
017510/20121114/132604/4825/1050/10/
017510/20121114/132633/4830/828/10/
017510/20121114/132633/4825/1750/10/
017510/20121114/132810/4830/203/10/
017510/20121114/132827/4830/91/10/
017510/20121114/132836/4830/109/20/
017510/20121114/133010/4840/110/20/
017510/20121114/133134/4840/700/20/
017510/20121114/133312/4845/208/20/
017510/20121114/133312/4850/1002/20/
017510/20121114/133333/4850/106/20/
017510/20121114/133412/4850/500/10/
017510/20121114/133431/4860/4000/20/
017510/20121114/133446/4860/162/20/
017510/20121114/133502/4865/402/20/
017510/20121114/133503/4865/1108/20/
017510/20121114/133517/4865/792/10/
017510/20121114/133527/4865/120/20/
017510/20121114/133534/4865/100/20/
017510/20121114/133535/4865/116/20/
017510/20121114/133537/4865/200/10/
017510/20121114/133537/4860/868/10/
017510/20121114/133543/4860/370/20/
017510/20121114/133658/4865/2030/20/
017510/20121114/133749/4880/633/20/
017510/20121114/133800/4880/100/20/
017510/20121114/133825/4880/200/20/
017510/20121114/133829/4880/200/20/
017510/20121114/133852/4880/200/20/
017510/20121114/133853/4880/90/20/
017510/20121114/133919/4880/150/20/
017510/20121114/134156/4880/150/20/
017510/20121114/134209/4880/1041/20/
017510/20121114/134224/4880/92/10/
017510/20121114/134315/4865/153/10/
017510/20121114/134404/4860/200/20/
017510/20121114/134526/4860/3651/10/
017510/20121114/134528/4860/500/10/
017510/20121114/134543/4860/303/10/
017510/20121114/134608/4860/897/20/
017510/20121114/134632/4860/103/10/
017510/20121114/134632/4855/100/10/
017510/20121114/134642/4840/135/10/
017510/20121114/134733/4840/500/10/
017510/20121114/135119/4840/104/10/
017510/20121114/135432/4840/661/10/
017510/20121114/135432/4835/1051/10/
017510/20121114/135432/4835/288/20/
017510/20121114/135723/4855/98/20/
017510/20121114/135807/4860/176/20/
017510/20121114/135807/4865/320/20/
017510/20121114/135815/4865/500/20/
017510/20121114/140042/4865/800/20/
017510/20121114/140048/4865/500/20/
017510/20121114/140108/4865/260/20/
017510/20121114/140229/4865/300/10/
017510/20121114/140305/4865/200/20/
017510/20121114/140756/4860/524/20/
017510/20121114/140800/4855/300/10/
017510/20121114/140952/4860/599/20/
017510/20121114/141114/4860/792/10/
017510/20121114/141123/4855/2000/10/
017510/20121114/141428/4855/87/10/
017510/20121114/141428/4850/703/10/
017510/20121114/141752/4840/103/10/
017510/20121114/141752/4835/161/10/
017510/20121114/141848/4835/143/10/
017510/20121114/141848/4830/107/10/
017510/20121114/141852/4830/250/10/
017510/20121114/141904/4830/487/10/
017510/20121114/141918/4830/603/10/
017510/20121114/141918/4825/1607/10/
017510/20121114/141932/4825/1090/10/
017510/20121114/141932/4820/2581/10/
017510/20121114/142034/4830/107/20/
017510/20121114/142206/4830/250/20/
017510/20121114/142335/4835/103/10/
017510/20121114/142335/4830/580/10/
017510/20121114/142335/4820/1793/10/
017510/20121114/142335/4815/1027/10/
017510/20121114/142411/4815/4297/10/
017510/20121114/142411/4810/2540/10/
017510/20121114/142411/4805/3039/10/
017510/20121114/142411/4800/5124/10/
017510/20121114/142411/4800/600/10/
017510/20121114/142411/4795/2008/10/
017510/20121114/142411/4790/792/10/
017510/20121114/142415/4790/1702/10/
017510/20121114/142433/4790/154/10/
017510/20121114/142433/4785/666/10/
017510/20121114/142449/4785/102/10/
017510/20121114/142449/4780/949/10/
017510/20121114/142515/4805/165/20/
017510/20121114/142553/4805/112/20/
017510/20121114/142641/4790/800/10/
017510/20121114/142641/4790/322/10/
017510/20121114/142700/4785/1801/10/
017510/20121114/142700/4785/700/10/
017510/20121114/142700/4780/1689/10/
017510/20121114/142704/4785/200/20/
017510/20121114/142711/4780/500/20/
017510/20121114/142722/4780/3000/20/
017510/20121114/142726/4780/169/20/
017510/20121114/142726/4785/469/20/
017510/20121114/142732/4775/400/10/
017510/20121114/142732/4775/308/10/
017510/20121114/142738/4770/1855/10/
017510/20121114/142738/4770/1726/10/
017510/20121114/142745/4765/640/10/
017510/20121114/142747/4765/233/10/
017510/20121114/142755/4765/560/10/
017510/20121114/142755/4760/302/10/
017510/20121114/142759/4760/1505/10/
017510/20121114/142801/4760/467/10/
017510/20121114/142820/4750/301/10/
017510/20121114/142832/4750/200/10/
017510/20121114/142836/4750/90/10/
017510/20121114/142841/4750/460/10/
017510/20121114/142841/4745/1030/10/
017510/20121114/142850/4750/200/10/
017510/20121114/142854/4750/340/10/
017510/20121114/142854/4745/161/10/
017510/20121114/142854/4745/250/10/
017510/20121114/142854/4740/150/10/
017510/20121114/142856/4740/1500/10/
017510/20121114/142906/4745/339/10/
017510/20121114/142911/4745/1151/10/
017510/20121114/142915/4745/103/20/
017510/20121114/142915/4740/320/10/
017510/20121114/142921/4745/678/20/
017510/20121114/142925/4745/291/10/
017510/20121114/142932/4760/251/20/
017510/20121114/142933/4760/336/20/
017510/20121114/143002/4770/231/20/
017510/20121114/143004/4770/169/20/
017510/20121114/143204/4770/501/20/
017510/20121114/143348/4775/83/10/
017510/20121114/143348/4770/1026/10/
017510/20121114/143353/4770/200/20/
017510/20121114/143403/4770/320/10/
017510/20121114/143413/4765/1050/10/
017510/20121114/143456/4765/203/10/
017510/20121114/143504/4760/1400/10/
017510/20121114/143517/4760/123/10/
017510/20121114/143518/4755/1183/10/
017510/20121114/143518/4750/3893/10/
017510/20121114/143529/4750/150/20/
017510/20121114/143530/4750/719/20/
017510/20121114/143606/4750/501/10/
017510/20121114/143612/4750/100/10/
017510/20121114/143656/4755/1050/10/
017510/20121114/143656/4750/2469/10/
017510/20121114/143717/4760/92/20/
017510/20121114/143721/4750/650/10/
017510/20121114/143733/4750/102/20/
017510/20121114/143742/4745/1095/10/
017510/20121114/143742/4740/1067/10/
017510/20121114/143754/4745/101/20/
017510/20121114/143837/4745/103/20/
017510/20121114/143839/4745/479/20/
017510/20121114/143845/4745/98/20/
017510/20121114/143858/4750/100/20/
017510/20121114/143916/4745/300/10/
017510/20121114/144056/4750/110/20/
017510/20121114/144105/4750/293/20/
017510/20121114/144147/4750/259/20/
017510/20121114/144152/4745/601/10/
017510/20121114/144154/4745/2432/10/
017510/20121114/144154/4740/3457/10/
017510/20121114/144154/4735/789/10/
017510/20121114/144202/4735/270/10/
017510/20121114/144206/4735/1250/10/
017510/20121114/144206/4730/1131/10/
017510/20121114/144206/4725/2060/10/
017510/20121114/144207/4725/200/20/
017510/20121114/144212/4720/302/10/
017510/20121114/144328/4725/2676/10/
017510/20121114/144328/4720/2236/10/
017510/20121114/144340/4715/1109/10/
017510/20121114/144345/4710/891/10/
017510/20121114/144355/4715/364/10/
017510/20121114/144355/4710/1210/10/
017510/20121114/144406/4710/167/10/
017510/20121114/144412/4710/536/20/
017510/20121114/144417/4710/467/10/
017510/20121114/144417/4705/862/10/
017510/20121114/144417/4700/1671/10/
017510/20121114/144417/4700/631/10/
017510/20121114/144417/4700/119/20/
017510/20121114/144420/4710/600/10/
017510/20121114/144422/4710/100/10/
017510/20121114/144441/4710/234/10/
017510/20121114/144441/4700/2500/10/
017510/20121114/144442/4700/269/20/
017510/20121114/144445/4720/100/20/
017510/20121114/144455/4710/153/10/
017510/20121114/144508/4700/355/10/
017510/20121114/144519/4700/292/20/
017510/20121114/144533/4710/99/20/
017510/20121114/144533/4720/1924/20/
017510/20121114/144547/4720/449/20/
017510/20121114/144609/4740/255/20/
017510/20121114/144622/4720/258/10/
017510/20121114/144622/4710/202/10/
017510/20121114/144622/4700/543/10/
017510/20121114/144700/4730/307/20/
017510/20121114/144703/4705/582/10/
017510/20121114/144706/4730/100/20/
017510/20121114/144729/4710/506/10/
017510/20121114/144834/4715/353/10/
017510/20121114/144908/4725/379/10/
017510/20121114/144920/4725/171/20/
017510/20121114/144926/4725/283/10/
017510/20121114/144937/4730/121/20/
017510/20121114/144939/4730/153/10/
017510/20121114/144939/4725/99/10/
017510/20121114/144939/4720/768/10/
017510/20121114/150000/4700/18394/10/
