017510/20121129/90000/4590/9513/10/
017510/20121129/90136/4600/152/10/
017510/20121129/90417/4630/103/20/
017510/20121129/90417/4630/100/20/
017510/20121129/90457/4605/2400/10/
017510/20121129/90500/4600/919/10/
017510/20121129/90504/4630/500/20/
017510/20121129/90512/4600/3693/10/
017510/20121129/90515/4595/640/10/
017510/20121129/90515/4590/757/10/
017510/20121129/90515/4590/178/10/
017510/20121129/90556/4600/125/10/
017510/20121129/90949/4590/265/10/
017510/20121129/91034/4590/308/20/
017510/20121129/91045/4590/88/20/
017510/20121129/91107/4600/532/20/
017510/20121129/91246/4600/100/10/
017510/20121129/91324/4620/237/20/
017510/20121129/91338/4620/233/20/
017510/20121129/91342/4620/700/20/
017510/20121129/91342/4620/217/20/
017510/20121129/91342/4620/183/20/
017510/20121129/91349/4610/262/10/
017510/20121129/91354/4610/1032/10/
017510/20121129/91354/4605/411/10/
017510/20121129/91429/4605/302/10/
017510/20121129/91616/4615/96/20/
017510/20121129/91709/4610/274/10/
017510/20121129/91710/4610/195/10/
017510/20121129/91725/4605/529/10/
017510/20121129/91727/4605/95/10/
017510/20121129/91911/4610/84/20/
017510/20121129/91955/4610/120/20/
017510/20121129/92031/4610/492/20/
017510/20121129/92041/4600/558/10/
017510/20121129/92041/4600/89/10/
017510/20121129/92105/4595/96/10/
017510/20121129/92105/4590/530/10/
017510/20121129/92108/4585/188/10/
017510/20121129/92136/4585/304/10/
017510/20121129/92155/4585/1100/10/
017510/20121129/92155/4585/109/10/
017510/20121129/92155/4580/359/10/
017510/20121129/92156/4580/120/10/
017510/20121129/92259/4590/1220/20/
017510/20121129/92324/4590/800/10/
017510/20121129/92325/4590/94/10/
017510/20121129/92440/4580/108/10/
017510/20121129/92527/4580/1002/10/
017510/20121129/92530/4575/112/10/
017510/20121129/92530/4575/172/10/
017510/20121129/92608/4580/587/10/
017510/20121129/92608/4575/117/10/
017510/20121129/92608/4570/365/10/
017510/20121129/92628/4570/211/10/
017510/20121129/92651/4570/760/10/
017510/20121129/92651/4565/241/10/
017510/20121129/92708/4565/101/10/
017510/20121129/92751/4600/502/20/
017510/20121129/92759/4600/368/20/
017510/20121129/92808/4590/1083/10/
017510/20121129/92814/4590/100/20/
017510/20121129/92820/4590/100/20/
017510/20121129/92827/4590/100/20/
017510/20121129/92834/4590/100/20/
017510/20121129/92849/4600/100/20/
017510/20121129/92910/4600/100/20/
017510/20121129/92934/4595/100/20/
017510/20121129/92942/4595/100/20/
017510/20121129/92948/4595/100/20/
017510/20121129/92957/4595/100/20/
017510/20121129/93000/4595/114/20/
017510/20121129/93005/4600/100/20/
017510/20121129/93035/4600/229/20/
017510/20121129/93146/4595/1086/10/
017510/20121129/93157/4595/114/20/
017510/20121129/93157/4600/638/20/
017510/20121129/93201/4600/348/10/
017510/20121129/93237/4600/200/20/
017510/20121129/93248/4600/500/20/
017510/20121129/93315/4600/100/10/
017510/20121129/93339/4595/700/10/
017510/20121129/93339/4590/1000/10/
017510/20121129/93345/4590/500/20/
017510/20121129/93348/4590/800/20/
017510/20121129/93454/4595/102/10/
017510/20121129/93510/4595/672/20/
017510/20121129/93517/4595/170/20/
017510/20121129/93532/4595/258/20/
017510/20121129/93630/4590/507/10/
017510/20121129/93630/4585/429/10/
017510/20121129/93703/4580/1000/10/
017510/20121129/93728/4580/109/10/
017510/20121129/93918/4580/1847/10/
017510/20121129/93941/4580/156/20/
017510/20121129/94026/4585/200/10/
017510/20121129/94132/4590/408/10/
017510/20121129/94150/4600/1340/20/
017510/20121129/94159/4600/155/10/
017510/20121129/94200/4600/129/10/
017510/20121129/94340/4605/678/20/
017510/20121129/94409/4610/275/20/
017510/20121129/94419/4610/1293/20/
017510/20121129/94430/4610/504/10/
017510/20121129/94537/4610/1561/10/
017510/20121129/94559/4600/530/10/
017510/20121129/94755/4610/502/20/
017510/20121129/94809/4600/289/10/
017510/20121129/94814/4600/462/20/
017510/20121129/94901/4600/1020/20/
017510/20121129/94910/4610/97/20/
017510/20121129/94928/4620/1319/20/
017510/20121129/94931/4620/174/20/
017510/20121129/95004/4625/108/20/
017510/20121129/95007/4620/199/10/
017510/20121129/95010/4620/300/20/
017510/20121129/95016/4620/201/20/
017510/20121129/95029/4620/325/10/
017510/20121129/95030/4615/100/10/
017510/20121129/95030/4605/250/10/
017510/20121129/95030/4600/766/10/
017510/20121129/95420/4620/776/20/
017510/20121129/95427/4620/279/10/
017510/20121129/95653/4620/1011/10/
017510/20121129/95701/4620/480/10/
017510/20121129/95702/4620/520/20/
017510/20121129/95807/4625/158/20/
017510/20121129/95811/4630/100/20/
017510/20121129/95812/4630/101/20/
017510/20121129/95924/4635/325/20/
017510/20121129/95931/4635/384/10/
017510/20121129/95950/4635/173/20/
017510/20121129/100006/4635/790/10/
017510/20121129/100019/4635/101/10/
017510/20121129/100019/4635/280/20/
017510/20121129/100019/4635/120/20/
017510/20121129/100305/4630/1613/10/
017510/20121129/100307/4630/310/20/
017510/20121129/100309/4630/97/20/
017510/20121129/100403/4630/93/20/
017510/20121129/100418/4630/100/10/
017510/20121129/100426/4625/1132/10/
017510/20121129/100428/4620/453/10/
017510/20121129/100520/4630/108/20/
017510/20121129/100520/4640/1242/20/
017510/20121129/100523/4640/654/10/
017510/20121129/100702/4635/376/10/
017510/20121129/100948/4620/111/10/
017510/20121129/101332/4625/168/10/
017510/20121129/101347/4625/369/10/
017510/20121129/101437/4620/1031/10/
017510/20121129/101438/4620/791/10/
017510/20121129/101453/4610/1128/10/
017510/20121129/101500/4610/200/10/
017510/20121129/101502/4610/1001/10/
017510/20121129/101502/4610/499/20/
017510/20121129/101752/4635/88/20/
017510/20121129/101851/4630/200/10/
017510/20121129/101857/4630/240/10/
017510/20121129/102015/4630/317/20/
017510/20121129/102033/4615/898/10/
017510/20121129/102033/4610/102/10/
017510/20121129/102206/4615/278/10/
017510/20121129/102313/4630/181/20/
017510/20121129/102923/4630/164/20/
017510/20121129/103124/4630/151/20/
017510/20121129/103358/4620/100/10/
017510/20121129/103358/4630/159/20/
017510/20121129/103558/4630/220/20/
017510/20121129/103804/4620/200/10/
017510/20121129/104003/4620/500/10/
017510/20121129/104332/4635/230/20/
017510/20121129/104933/4630/114/20/
017510/20121129/104934/4630/186/20/
017510/20121129/105130/4635/114/20/
017510/20121129/105138/4635/100/20/
017510/20121129/105144/4635/100/20/
017510/20121129/105153/4630/100/20/
017510/20121129/105156/4635/146/20/
017510/20121129/105225/4640/603/20/
017510/20121129/105317/4635/201/10/
017510/20121129/105403/4635/1653/10/
017510/20121129/105446/4635/347/20/
017510/20121129/105446/4640/153/20/
017510/20121129/105514/4640/300/20/
017510/20121129/105514/4640/247/20/
017510/20121129/110025/4640/151/20/
017510/20121129/110028/4645/659/20/
017510/20121129/110028/4650/748/20/
017510/20121129/110042/4655/202/10/
017510/20121129/110042/4660/98/20/
017510/20121129/110114/4660/251/20/
017510/20121129/110211/4660/250/20/
017510/20121129/110251/4650/110/10/
017510/20121129/110251/4635/100/10/
017510/20121129/110251/4630/789/10/
017510/20121129/110251/4625/492/10/
017510/20121129/110251/4620/1210/10/
017510/20121129/110251/4615/1448/10/
017510/20121129/110251/4610/1219/10/
017510/20121129/110653/4655/101/20/
017510/20121129/110702/4655/166/20/
017510/20121129/112044/4645/349/20/
017510/20121129/112138/4650/203/20/
017510/20121129/112153/4650/100/20/
017510/20121129/112258/4650/100/20/
017510/20121129/112312/4650/1000/20/
017510/20121129/112312/4650/501/20/
017510/20121129/112638/4640/568/10/
017510/20121129/112644/4645/500/10/
017510/20121129/112701/4645/100/10/
017510/20121129/112803/4650/635/20/
017510/20121129/112855/4625/100/10/
017510/20121129/113249/4650/82/20/
017510/20121129/113357/4630/500/10/
017510/20121129/113432/4630/400/10/
017510/20121129/115241/4630/86/10/
017510/20121129/115411/4650/929/20/
017510/20121129/115411/4655/397/20/
017510/20121129/115420/4660/220/20/
017510/20121129/115420/4665/206/20/
017510/20121129/115420/4670/277/20/
017510/20121129/115434/4665/150/20/
017510/20121129/115434/4670/157/20/
017510/20121129/120257/4660/206/20/
017510/20121129/120257/4665/597/20/
017510/20121129/120304/4665/207/10/
017510/20121129/120428/4665/120/20/
017510/20121129/120650/4655/200/20/
017510/20121129/120852/4660/100/20/
017510/20121129/120907/4655/136/10/
017510/20121129/120915/4655/150/10/
017510/20121129/120916/4655/500/10/
017510/20121129/120917/4655/234/10/
017510/20121129/121106/4655/90/10/
017510/20121129/121304/4655/311/10/
017510/20121129/121504/4660/165/20/
017510/20121129/121539/4660/200/20/
017510/20121129/121701/4660/201/10/
017510/20121129/121704/4660/350/10/
017510/20121129/122036/4660/100/20/
017510/20121129/122131/4655/221/20/
017510/20121129/122734/4655/150/10/
017510/20121129/122742/4655/100/10/
017510/20121129/123032/4650/808/10/
017510/20121129/123334/4650/193/20/
017510/20121129/123401/4650/100/20/
017510/20121129/123540/4650/393/20/
017510/20121129/124434/4650/115/20/
017510/20121129/124530/4650/145/20/
017510/20121129/125017/4650/360/20/
017510/20121129/125145/4650/300/20/
017510/20121129/125253/4655/410/20/
017510/20121129/125509/4660/104/20/
017510/20121129/125539/4660/100/20/
017510/20121129/125602/4660/100/20/
017510/20121129/130011/4655/1074/10/
017510/20121129/130207/4655/172/10/
017510/20121129/130245/4650/182/10/
017510/20121129/130245/4640/925/10/
017510/20121129/130245/4635/293/10/
017510/20121129/130533/4655/500/20/
017510/20121129/130754/4640/700/10/
017510/20121129/130933/4640/1303/10/
017510/20121129/131002/4645/202/20/
017510/20121129/131157/4640/1296/10/
017510/20121129/131157/4640/705/20/
017510/20121129/131355/4640/417/10/
017510/20121129/131355/4635/2583/10/
017510/20121129/131453/4635/450/10/
017510/20121129/131721/4635/400/10/
017510/20121129/131908/4635/406/10/
017510/20121129/131908/4630/196/10/
017510/20121129/132122/4630/100/10/
017510/20121129/132148/4630/300/10/
017510/20121129/132438/4630/171/10/
017510/20121129/132509/4630/200/10/
017510/20121129/132628/4630/110/10/
017510/20121129/132704/4630/150/10/
017510/20121129/132843/4630/200/10/
017510/20121129/132946/4630/440/10/
017510/20121129/133258/4630/120/10/
017510/20121129/133420/4640/90/20/
017510/20121129/133455/4640/569/20/
017510/20121129/133557/4640/96/20/
017510/20121129/133742/4640/196/20/
017510/20121129/133809/4635/334/10/
017510/20121129/133921/4635/1881/10/
017510/20121129/133921/4630/400/10/
017510/20121129/134014/4630/126/10/
017510/20121129/134325/4640/198/20/
017510/20121129/134419/4640/1338/10/
017510/20121129/134520/4630/563/10/
017510/20121129/135118/4640/200/20/
017510/20121129/135229/4640/500/20/
017510/20121129/135512/4640/400/10/
017510/20121129/135535/4630/500/10/
017510/20121129/135557/4630/100/10/
017510/20121129/135611/4630/99/10/
017510/20121129/135621/4630/400/10/
017510/20121129/135623/4630/1208/10/
017510/20121129/135623/4625/1373/10/
017510/20121129/135654/4625/419/20/
017510/20121129/135727/4625/581/10/
017510/20121129/135727/4620/1808/10/
017510/20121129/135804/4620/600/10/
017510/20121129/135806/4620/500/10/
017510/20121129/135820/4620/397/10/
017510/20121129/135820/4615/2003/10/
017510/20121129/135923/4615/300/10/
017510/20121129/135925/4620/500/20/
017510/20121129/140005/4615/250/10/
017510/20121129/140035/4620/400/20/
017510/20121129/140113/4640/101/20/
017510/20121129/140237/4640/100/20/
017510/20121129/140245/4640/100/20/
017510/20121129/140251/4640/100/20/
017510/20121129/140334/4645/200/20/
017510/20121129/140512/4635/169/10/
017510/20121129/140747/4630/115/10/
017510/20121129/140814/4640/500/10/
017510/20121129/140954/4640/252/20/
017510/20121129/141149/4645/206/20/
017510/20121129/141313/4640/100/10/
017510/20121129/141421/4640/101/10/
017510/20121129/141448/4640/128/20/
017510/20121129/141824/4635/121/10/
017510/20121129/142048/4635/180/20/
017510/20121129/142118/4635/613/10/
017510/20121129/142142/4635/100/20/
017510/20121129/142243/4635/128/20/
017510/20121129/142255/4635/102/20/
017510/20121129/142302/4630/500/10/
017510/20121129/142431/4635/204/20/
017510/20121129/142437/4635/798/10/
017510/20121129/142846/4630/1746/10/
017510/20121129/142915/4630/300/20/
017510/20121129/142931/4630/100/20/
017510/20121129/142937/4625/380/10/
017510/20121129/142942/4625/500/10/
017510/20121129/142944/4630/250/20/
017510/20121129/142957/4625/458/10/
017510/20121129/143231/4635/578/20/
017510/20121129/143247/4635/434/10/
017510/20121129/143325/4635/616/10/
017510/20121129/143353/4630/200/10/
017510/20121129/143425/4630/284/10/
017510/20121129/143425/4625/343/10/
017510/20121129/143603/4630/230/10/
017510/20121129/143635/4630/100/10/
017510/20121129/143648/4630/700/10/
017510/20121129/143728/4625/100/10/
017510/20121129/143951/4635/1054/20/
017510/20121129/144023/4640/896/20/
017510/20121129/144123/4640/500/10/
017510/20121129/144146/4640/288/10/
017510/20121129/144148/4640/500/10/
017510/20121129/144314/4640/150/10/
017510/20121129/144339/4640/167/10/
017510/20121129/144339/4635/780/10/
017510/20121129/144358/4635/204/10/
017510/20121129/144420/4630/942/10/
017510/20121129/144435/4630/389/10/
017510/20121129/144445/4630/146/10/
017510/20121129/144555/4640/451/20/
017510/20121129/144606/4640/100/20/
017510/20121129/144615/4640/403/10/
017510/20121129/144758/4645/158/20/
017510/20121129/144845/4645/106/10/
017510/20121129/144856/4650/195/20/
017510/20121129/144909/4655/265/20/
017510/20121129/144910/4660/210/20/
017510/20121129/144910/4660/150/10/
017510/20121129/144910/4655/338/10/
017510/20121129/144910/4645/122/10/
017510/20121129/144913/4665/215/20/
017510/20121129/144934/4665/121/20/
017510/20121129/144946/4665/85/20/
017510/20121129/150000/4660/5751/20/
