017510/20121116/90000/4330/26535/10/
017510/20121116/90001/4360/202/20/
017510/20121116/90001/4405/398/20/
017510/20121116/90040/4405/1105/20/
017510/20121116/90041/4405/500/10/
017510/20121116/90047/4445/300/20/
017510/20121116/90047/4450/149/20/
017510/20121116/90253/4405/3001/10/
017510/20121116/90355/4410/200/10/
017510/20121116/90405/4405/601/10/
017510/20121116/90433/4410/223/20/
017510/20121116/90433/4415/200/20/
017510/20121116/90433/4420/98/20/
017510/20121116/90444/4405/500/10/
017510/20121116/90512/4420/403/20/
017510/20121116/90514/4425/84/20/
017510/20121116/90556/4425/414/20/
017510/20121116/90557/4435/300/20/
017510/20121116/90616/4435/212/20/
017510/20121116/90620/4445/508/20/
017510/20121116/90620/4450/892/20/
017510/20121116/90622/4450/300/20/
017510/20121116/90631/4450/500/20/
017510/20121116/90645/4450/550/10/
017510/20121116/90651/4450/500/20/
017510/20121116/90717/4425/501/10/
017510/20121116/90751/4430/260/20/
017510/20121116/90927/4430/83/10/
017510/20121116/91017/4430/108/10/
017510/20121116/91037/4445/599/20/
017510/20121116/91037/4450/1031/20/
017510/20121116/91041/4450/370/10/
017510/20121116/91058/4450/130/20/
017510/20121116/91058/4455/339/20/
017510/20121116/91058/4460/81/20/
017510/20121116/91238/4460/111/20/
017510/20121116/91303/4450/510/10/
017510/20121116/91333/4440/175/10/
017510/20121116/91345/4435/131/10/
017510/20121116/91351/4430/335/10/
017510/20121116/91356/4430/202/10/
017510/20121116/91433/4430/101/10/
017510/20121116/91510/4430/4565/10/
017510/20121116/91519/4425/1010/10/
017510/20121116/91532/4420/96/10/
017510/20121116/91534/4420/904/10/
017510/20121116/91546/4410/90/10/
017510/20121116/91557/4420/300/20/
017510/20121116/91604/4420/786/20/
017510/20121116/91730/4420/100/10/
017510/20121116/91757/4420/300/10/
017510/20121116/91820/4420/117/10/
017510/20121116/91824/4435/99/20/
017510/20121116/91824/4440/205/20/
017510/20121116/91824/4450/196/20/
017510/20121116/91843/4450/500/20/
017510/20121116/91937/4445/100/20/
017510/20121116/91951/4445/200/10/
017510/20121116/92121/4445/358/20/
017510/20121116/92133/4445/301/10/
017510/20121116/92134/4450/272/20/
017510/20121116/92151/4445/172/20/
017510/20121116/92153/4445/127/20/
017510/20121116/92153/4450/373/20/
017510/20121116/92214/4450/500/20/
017510/20121116/92218/4450/445/20/
017510/20121116/92221/4450/213/20/
017510/20121116/92232/4450/287/10/
017510/20121116/92242/4445/100/20/
017510/20121116/92242/4450/400/20/
017510/20121116/92306/4440/1010/10/
017510/20121116/92322/4430/1000/10/
017510/20121116/92335/4430/350/10/
017510/20121116/92354/4430/100/10/
017510/20121116/92420/4430/125/10/
017510/20121116/92543/4440/545/20/
017510/20121116/92556/4440/1000/20/
017510/20121116/92656/4440/150/20/
017510/20121116/92656/4450/400/20/
017510/20121116/92841/4440/225/20/
017510/20121116/92851/4440/100/20/
017510/20121116/92912/4425/575/10/
017510/20121116/92912/4420/998/10/
017510/20121116/92922/4410/3000/10/
017510/20121116/92926/4410/330/10/
017510/20121116/92933/4410/126/20/
017510/20121116/92935/4405/1000/10/
017510/20121116/92936/4405/1000/10/
017510/20121116/92952/4405/585/10/
017510/20121116/93045/4400/970/10/
017510/20121116/93707/4420/89/20/
017510/20121116/93848/4415/600/20/
017510/20121116/93855/4415/500/10/
017510/20121116/94136/4395/176/10/
017510/20121116/94144/4390/101/10/
017510/20121116/94151/4385/111/10/
017510/20121116/94159/4375/621/10/
017510/20121116/94206/4370/750/10/
017510/20121116/94213/4360/1152/10/
017510/20121116/94213/4350/2028/10/
017510/20121116/94340/4350/169/10/
017510/20121116/94443/4350/126/10/
017510/20121116/94443/4340/105/10/
017510/20121116/94456/4345/426/10/
017510/20121116/94456/4335/2220/10/
017510/20121116/94456/4330/388/10/
017510/20121116/94516/4320/213/10/
017510/20121116/94517/4320/387/20/
017510/20121116/94534/4315/626/10/
017510/20121116/94534/4310/1144/10/
017510/20121116/94534/4305/107/10/
017510/20121116/94534/4300/1538/10/
017510/20121116/94535/4300/3000/10/
017510/20121116/94605/4300/1026/10/
017510/20121116/94633/4320/231/20/
017510/20121116/94655/4300/963/10/
017510/20121116/94816/4295/2754/10/
017510/20121116/94829/4300/671/20/
017510/20121116/94829/4315/84/20/
017510/20121116/94925/4295/510/20/
017510/20121116/94938/4290/200/10/
017510/20121116/94958/4315/2000/20/
017510/20121116/95048/4300/381/10/
017510/20121116/95048/4295/1001/10/
017510/20121116/95048/4290/1374/10/
017510/20121116/95051/4290/137/20/
017510/20121116/95051/4315/163/20/
017510/20121116/95130/4290/101/10/
017510/20121116/95144/4290/100/10/
017510/20121116/95153/4290/423/10/
017510/20121116/95203/4315/162/20/
017510/20121116/95315/4315/524/20/
017510/20121116/95330/4300/508/10/
017510/20121116/95334/4300/493/20/
017510/20121116/95338/4300/148/10/
017510/20121116/95344/4300/364/10/
017510/20121116/95346/4300/500/20/
017510/20121116/95404/4300/137/20/
017510/20121116/95414/4300/163/10/
017510/20121116/95420/4300/364/20/
017510/20121116/95516/4300/1000/10/
017510/20121116/95519/4300/288/20/
017510/20121116/95617/4310/508/20/
017510/20121116/95717/4320/429/20/
017510/20121116/95849/4320/228/10/
017510/20121116/95947/4340/460/10/
017510/20121116/95947/4335/510/10/
017510/20121116/95947/4330/230/10/
017510/20121116/95957/4330/231/10/
017510/20121116/100323/4355/403/20/
017510/20121116/100336/4340/429/10/
017510/20121116/100433/4365/103/20/
017510/20121116/100557/4340/145/10/
017510/20121116/100832/4360/392/20/
017510/20121116/100927/4340/401/10/
017510/20121116/100956/4360/500/20/
017510/20121116/101012/4360/505/10/
017510/20121116/101230/4360/495/20/
017510/20121116/101331/4365/234/20/
017510/20121116/101426/4370/300/20/
017510/20121116/101531/4370/171/20/
017510/20121116/101630/4375/500/20/
017510/20121116/101855/4375/1009/10/
017510/20121116/101931/4380/150/20/
017510/20121116/101939/4380/102/20/
017510/20121116/101948/4375/500/10/
017510/20121116/102012/4375/461/10/
017510/20121116/102045/4380/500/20/
017510/20121116/102118/4370/500/10/
017510/20121116/102629/4365/99/10/
017510/20121116/102939/4360/250/10/
017510/20121116/102944/4360/490/10/
017510/20121116/103004/4360/130/10/
017510/20121116/103008/4360/125/20/
017510/20121116/103238/4360/270/10/
017510/20121116/103238/4355/955/10/
017510/20121116/103238/4350/1110/10/
017510/20121116/103238/4345/1050/10/
017510/20121116/103238/4340/1148/10/
017510/20121116/103650/4355/110/20/
017510/20121116/103738/4355/390/20/
017510/20121116/103802/4350/148/10/
017510/20121116/103825/4355/100/20/
017510/20121116/104031/4350/1607/10/
017510/20121116/104040/4350/699/20/
017510/20121116/104040/4360/301/20/
017510/20121116/104216/4360/150/20/
017510/20121116/104251/4360/100/20/
017510/20121116/104721/4375/169/20/
017510/20121116/104903/4375/148/20/
017510/20121116/104935/4375/90/20/
017510/20121116/105155/4365/84/10/
017510/20121116/105335/4375/100/20/
017510/20121116/105338/4375/192/20/
017510/20121116/105350/4380/420/20/
017510/20121116/105429/4385/94/20/
017510/20121116/105600/4385/200/20/
017510/20121116/105603/4385/505/20/
017510/20121116/105603/4395/495/20/
017510/20121116/105713/4400/360/20/
017510/20121116/105738/4400/179/20/
017510/20121116/105950/4400/85/20/
017510/20121116/110205/4400/577/20/
017510/20121116/110242/4415/100/20/
017510/20121116/110358/4400/135/10/
017510/20121116/110537/4400/121/10/
017510/20121116/111027/4410/97/20/
017510/20121116/111050/4405/87/10/
017510/20121116/111052/4410/100/20/
017510/20121116/111157/4405/100/10/
017510/20121116/111231/4405/400/10/
017510/20121116/111357/4405/413/10/
017510/20121116/111534/4405/137/20/
017510/20121116/111554/4405/300/10/
017510/20121116/111809/4405/83/20/
017510/20121116/111934/4405/176/20/
017510/20121116/111957/4410/400/20/
017510/20121116/112117/4400/1166/10/
017510/20121116/112141/4400/641/10/
017510/20121116/112144/4400/100/20/
017510/20121116/112326/4400/93/20/
017510/20121116/112512/4395/463/10/
017510/20121116/112645/4405/496/20/
017510/20121116/112746/4410/300/20/
017510/20121116/112746/4410/441/20/
017510/20121116/112950/4405/500/20/
017510/20121116/113027/4400/1000/10/
017510/20121116/113558/4400/2210/10/
017510/20121116/113635/4400/1079/10/
017510/20121116/113704/4395/230/10/
017510/20121116/113805/4395/3011/20/
017510/20121116/114122/4400/112/20/
017510/20121116/114135/4395/1005/10/
017510/20121116/114301/4395/4000/20/
017510/20121116/114917/4400/130/20/
017510/20121116/115037/4395/700/20/
017510/20121116/115053/4395/1800/20/
017510/20121116/115053/4400/709/20/
017510/20121116/115551/4395/219/10/
017510/20121116/115624/4395/100/10/
017510/20121116/115713/4400/280/20/
017510/20121116/115803/4400/151/20/
017510/20121116/115813/4405/129/20/
017510/20121116/120247/4405/1300/20/
017510/20121116/120248/4405/242/20/
017510/20121116/120323/4410/700/20/
017510/20121116/120505/4410/485/20/
017510/20121116/120549/4410/115/10/
017510/20121116/120646/4410/454/10/
017510/20121116/120703/4410/100/10/
017510/20121116/120719/4415/250/20/
017510/20121116/120719/4415/524/20/
017510/20121116/120911/4420/263/20/
017510/20121116/120934/4420/169/20/
017510/20121116/121030/4420/303/20/
017510/20121116/121205/4420/117/20/
017510/20121116/121244/4420/345/20/
017510/20121116/121252/4420/345/10/
017510/20121116/121358/4415/90/10/
017510/20121116/121411/4415/310/10/
017510/20121116/121451/4410/301/10/
017510/20121116/121505/4410/699/20/
017510/20121116/122005/4405/120/10/
017510/20121116/122050/4405/90/20/
017510/20121116/122352/4405/510/10/
017510/20121116/122628/4410/100/20/
017510/20121116/122713/4410/226/10/
017510/20121116/122723/4410/241/20/
017510/20121116/122923/4410/127/20/
017510/20121116/123037/4405/152/10/
017510/20121116/123151/4405/500/10/
017510/20121116/123614/4400/761/10/
017510/20121116/123700/4395/960/10/
017510/20121116/123700/4390/1250/10/
017510/20121116/123700/4385/1290/10/
017510/20121116/123743/4380/443/10/
017510/20121116/123752/4380/138/10/
017510/20121116/123818/4385/349/20/
017510/20121116/123834/4380/482/10/
017510/20121116/123834/4375/280/10/
017510/20121116/123834/4370/1428/10/
017510/20121116/123834/4365/1140/10/
017510/20121116/123834/4360/1203/10/
017510/20121116/123834/4355/250/10/
017510/20121116/123834/4345/218/10/
017510/20121116/123900/4350/1010/10/
017510/20121116/123900/4345/590/10/
017510/20121116/124115/4360/250/10/
017510/20121116/124115/4355/300/10/
017510/20121116/124115/4350/150/10/
017510/20121116/125130/4380/219/20/
017510/20121116/125231/4385/98/20/
017510/20121116/130116/4385/500/10/
017510/20121116/130352/4370/851/10/
017510/20121116/130437/4365/1051/10/
017510/20121116/130437/4360/1000/10/
017510/20121116/130438/4370/449/20/
017510/20121116/131006/4380/161/20/
017510/20121116/131037/4380/85/10/
017510/20121116/131045/4380/370/10/
017510/20121116/131047/4385/278/20/
017510/20121116/131103/4385/150/20/
017510/20121116/131116/4385/191/10/
017510/20121116/131128/4390/143/20/
017510/20121116/131146/4390/500/20/
017510/20121116/131214/4390/357/10/
017510/20121116/131222/4390/83/20/
017510/20121116/131559/4390/228/10/
017510/20121116/131703/4390/289/10/
017510/20121116/131748/4385/657/10/
017510/20121116/132201/4385/83/20/
017510/20121116/132229/4355/1061/10/
017510/20121116/132239/4355/130/10/
017510/20121116/132252/4355/339/20/
017510/20121116/132328/4350/100/10/
017510/20121116/132350/4345/746/10/
017510/20121116/132350/4340/254/10/
017510/20121116/132412/4340/183/10/
017510/20121116/132412/4335/617/10/
017510/20121116/132415/4330/210/10/
017510/20121116/132443/4330/220/10/
017510/20121116/132456/4330/497/10/
017510/20121116/132456/4325/503/10/
017510/20121116/132459/4325/309/10/
017510/20121116/132600/4315/241/10/
017510/20121116/132603/4315/430/10/
017510/20121116/132607/4310/1728/10/
017510/20121116/132617/4310/547/10/
017510/20121116/132641/4305/730/10/
017510/20121116/132644/4310/1000/20/
017510/20121116/132658/4305/418/10/
017510/20121116/132706/4305/1217/10/
017510/20121116/132716/4345/587/20/
017510/20121116/132821/4340/100/20/
017510/20121116/132923/4320/1000/10/
017510/20121116/132923/4310/3312/10/
017510/20121116/132923/4305/1956/10/
017510/20121116/132923/4300/8092/10/
017510/20121116/132939/4300/400/20/
017510/20121116/132947/4300/240/20/
017510/20121116/133343/4330/212/20/
017510/20121116/133445/4330/797/20/
017510/20121116/133552/4320/1533/10/
017510/20121116/133800/4320/126/10/
017510/20121116/133814/4320/398/10/
017510/20121116/133848/4315/160/10/
017510/20121116/133856/4320/110/20/
017510/20121116/133857/4320/993/20/
017510/20121116/134030/4325/458/10/
017510/20121116/134042/4320/296/10/
017510/20121116/134408/4320/300/10/
017510/20121116/134801/4315/126/10/
017510/20121116/134920/4310/686/10/
017510/20121116/134920/4305/1122/10/
017510/20121116/134920/4300/1560/10/
017510/20121116/134920/4295/1655/10/
017510/20121116/134946/4295/538/10/
017510/20121116/134946/4290/1462/10/
017510/20121116/135021/4290/100/10/
017510/20121116/135335/4305/700/10/
017510/20121116/135432/4305/250/20/
017510/20121116/135522/4305/90/20/
017510/20121116/135543/4305/90/20/
017510/20121116/135903/4305/92/10/
017510/20121116/135906/4300/427/10/
017510/20121116/135929/4300/1443/10/
017510/20121116/135929/4290/2031/10/
017510/20121116/135940/4285/716/10/
017510/20121116/140031/4285/249/10/
017510/20121116/140132/4285/97/10/
017510/20121116/140133/4285/144/10/
017510/20121116/140133/4280/1303/10/
017510/20121116/140139/4280/525/10/
017510/20121116/140139/4275/1587/10/
017510/20121116/140139/4270/185/10/
017510/20121116/140139/4265/703/10/
017510/20121116/140139/4265/500/10/
017510/20121116/140144/4265/514/10/
017510/20121116/140144/4260/283/10/
017510/20121116/140144/4255/307/10/
017510/20121116/140149/4255/1192/20/
017510/20121116/140155/4255/1289/10/
017510/20121116/140155/4250/1205/10/
017510/20121116/140155/4245/598/10/
017510/20121116/140159/4245/990/10/
017510/20121116/140301/4280/870/10/
017510/20121116/140403/4280/400/10/
017510/20121116/140426/4255/100/10/
017510/20121116/140613/4260/475/10/
017510/20121116/140613/4255/901/10/
017510/20121116/140613/4250/1411/10/
017510/20121116/140613/4245/863/10/
017510/20121116/140622/4265/242/10/
017510/20121116/140626/4240/1527/10/
017510/20121116/140626/4235/446/10/
017510/20121116/140626/4230/5962/10/
017510/20121116/140844/4255/310/20/
017510/20121116/140959/4260/235/20/
017510/20121116/141321/4260/395/10/
017510/20121116/141321/4245/115/10/
017510/20121116/141503/4270/308/10/
017510/20121116/141604/4270/400/20/
017510/20121116/141626/4280/300/20/
017510/20121116/141705/4255/127/10/
017510/20121116/141705/4250/373/10/
017510/20121116/141750/4250/818/10/
017510/20121116/141750/4245/229/10/
017510/20121116/141750/4240/953/10/
017510/20121116/141802/4250/490/10/
017510/20121116/141802/4240/298/10/
017510/20121116/141803/4240/1212/20/
017510/20121116/141813/4240/377/10/
017510/20121116/141843/4240/200/20/
017510/20121116/141848/4240/345/20/
017510/20121116/141856/4240/100/20/
017510/20121116/141900/4240/978/20/
017510/20121116/142047/4250/502/10/
017510/20121116/142149/4250/323/10/
017510/20121116/142208/4250/1000/20/
017510/20121116/142216/4250/501/20/
017510/20121116/142218/4250/464/20/
017510/20121116/142325/4265/545/10/
017510/20121116/142325/4260/478/10/
017510/20121116/142325/4255/200/10/
017510/20121116/142325/4250/115/10/
017510/20121116/142339/4280/100/10/
017510/20121116/142339/4250/2808/10/
017510/20121116/142558/4255/1796/10/
017510/20121116/142558/4250/1204/10/
017510/20121116/142601/4250/2001/10/
017510/20121116/142747/4255/996/10/
017510/20121116/142820/4270/1001/10/
017510/20121116/142853/4270/138/10/
017510/20121116/142853/4260/153/10/
017510/20121116/142853/4255/240/10/
017510/20121116/143050/4275/521/20/
017510/20121116/143100/4275/100/20/
017510/20121116/143104/4280/181/20/
017510/20121116/143104/4285/90/20/
017510/20121116/143104/4290/502/20/
017510/20121116/143104/4305/227/20/
017510/20121116/143209/4280/202/10/
017510/20121116/143220/4285/100/20/
017510/20121116/143220/4290/98/20/
017510/20121116/143453/4280/240/20/
017510/20121116/143617/4280/150/20/
017510/20121116/143647/4270/100/10/
017510/20121116/143736/4270/262/10/
017510/20121116/143759/4270/837/20/
017510/20121116/143806/4280/500/20/
017510/20121116/143814/4270/2167/10/
017510/20121116/143814/4265/4833/10/
017510/20121116/143818/4275/246/10/
017510/20121116/143822/4275/129/10/
017510/20121116/143906/4265/824/10/
017510/20121116/143911/4275/2000/20/
017510/20121116/143922/4260/1659/10/
017510/20121116/143922/4255/701/10/
017510/20121116/144014/4265/335/20/
017510/20121116/144024/4265/2165/20/
017510/20121116/144024/4270/377/20/
017510/20121116/144024/4275/192/20/
017510/20121116/144024/4280/266/20/
017510/20121116/144046/4280/1000/20/
017510/20121116/144129/4285/150/20/
017510/20121116/144139/4260/255/10/
017510/20121116/144147/4260/100/10/
017510/20121116/144155/4260/100/10/
017510/20121116/144215/4275/100/20/
017510/20121116/144218/4275/150/20/
017510/20121116/144224/4275/2249/20/
017510/20121116/144224/4280/1751/20/
017510/20121116/144242/4280/120/20/
017510/20121116/144247/4280/100/20/
017510/20121116/144421/4285/82/20/
017510/20121116/144436/4285/1000/20/
017510/20121116/144505/4275/180/10/
017510/20121116/144505/4270/1439/10/
017510/20121116/144505/4265/990/10/
017510/20121116/144505/4260/391/10/
017510/20121116/144544/4285/1370/20/
017510/20121116/144612/4290/81/20/
017510/20121116/144640/4290/131/20/
017510/20121116/144641/4285/118/10/
017510/20121116/144642/4290/421/20/
017510/20121116/144658/4290/788/20/
017510/20121116/144658/4295/2213/20/
017510/20121116/144712/4290/130/10/
017510/20121116/144712/4285/154/10/
017510/20121116/144717/4295/295/20/
017510/20121116/144720/4290/100/10/
017510/20121116/144730/4295/722/20/
017510/20121116/144730/4300/956/20/
017510/20121116/144730/4305/1500/20/
017510/20121116/144806/4305/302/20/
017510/20121116/144817/4305/110/20/
017510/20121116/144818/4305/90/20/
017510/20121116/144901/4310/501/20/
017510/20121116/144902/4315/488/20/
017510/20121116/144918/4305/542/10/
017510/20121116/144918/4300/159/10/
017510/20121116/144938/4320/1001/20/
017510/20121116/144949/4340/582/20/
017510/20121116/144957/4340/1000/20/
017510/20121116/150000/4350/14430/20/
