017510/20130131/90000/4825/5701/10/
017510/20130131/90103/4825/511/10/
017510/20130131/90104/4825/519/20/
017510/20130131/90123/4825/310/20/
017510/20130131/90235/4820/159/10/
017510/20130131/90400/4825/112/10/
017510/20130131/90518/4850/1112/20/
017510/20130131/90628/4870/215/20/
017510/20130131/90629/4870/500/20/
017510/20130131/90639/4870/600/20/
017510/20130131/90639/4870/138/20/
017510/20130131/90642/4870/605/20/
017510/20130131/90745/4865/91/20/
017510/20130131/90801/4865/840/10/
017510/20130131/90802/4870/300/20/
017510/20130131/90807/4870/100/20/
017510/20130131/90817/4865/100/10/
017510/20130131/90825/4870/1069/20/
017510/20130131/90828/4870/529/20/
017510/20130131/90837/4870/100/20/
017510/20130131/90845/4870/88/20/
017510/20130131/90852/4870/82/10/
017510/20130131/90853/4875/112/20/
017510/20130131/90910/4880/308/20/
017510/20130131/90918/4880/697/20/
017510/20130131/90920/4880/618/10/
017510/20130131/90930/4885/153/20/
017510/20130131/90943/4890/115/20/
017510/20130131/90951/4890/665/20/
017510/20130131/90952/4890/894/20/
017510/20130131/90956/4890/317/10/
017510/20130131/91005/4890/1000/20/
017510/20130131/91005/4880/771/10/
017510/20130131/91016/4875/210/10/
017510/20130131/91034/4875/316/20/
017510/20130131/91041/4880/626/20/
017510/20130131/91059/4880/144/20/
017510/20130131/91106/4890/500/20/
017510/20130131/91114/4890/204/20/
017510/20130131/91115/4890/200/20/
017510/20130131/91115/4890/500/20/
017510/20130131/91115/4890/204/20/
017510/20130131/91116/4890/204/20/
017510/20130131/91116/4890/574/20/
017510/20130131/91142/4895/204/20/
017510/20130131/91143/4895/493/20/
017510/20130131/91155/4895/311/10/
017510/20130131/91208/4900/85/20/
017510/20130131/91214/4900/1001/20/
017510/20130131/91220/4895/683/10/
017510/20130131/91228/4880/1000/10/
017510/20130131/91248/4900/2000/20/
017510/20130131/91301/4900/588/20/
017510/20130131/91332/4905/525/20/
017510/20130131/91343/4910/250/20/
017510/20130131/91346/4910/396/20/
017510/20130131/91348/4910/960/10/
017510/20130131/91356/4905/110/10/
017510/20130131/91400/4910/1000/20/
017510/20130131/91402/4910/194/20/
017510/20130131/91405/4910/507/10/
017510/20130131/91412/4905/503/10/
017510/20130131/91414/4910/200/20/
017510/20130131/91416/4905/89/10/
017510/20130131/91418/4905/500/10/
017510/20130131/91420/4910/211/20/
017510/20130131/91429/4910/700/20/
017510/20130131/91431/4905/166/10/
017510/20130131/91451/4900/500/10/
017510/20130131/91455/4905/230/20/
017510/20130131/91458/4905/270/10/
017510/20130131/91510/4905/100/20/
017510/20130131/91513/4905/130/20/
017510/20130131/91515/4905/170/10/
017510/20130131/91516/4905/200/20/
017510/20130131/91519/4905/1078/20/
017510/20130131/91530/4905/279/20/
017510/20130131/91532/4905/273/20/
017510/20130131/91546/4910/356/20/
017510/20130131/91556/4910/418/20/
017510/20130131/91608/4910/130/20/
017510/20130131/91614/4905/900/10/
017510/20130131/91619/4905/300/10/
017510/20130131/91622/4905/438/10/
017510/20130131/91625/4905/200/10/
017510/20130131/91637/4905/170/10/
017510/20130131/91652/4905/500/20/
017510/20130131/91711/4905/286/20/
017510/20130131/91727/4900/600/10/
017510/20130131/91727/4900/4000/10/
017510/20130131/91828/4885/322/10/
017510/20130131/91828/4880/119/10/
017510/20130131/91828/4875/181/10/
017510/20130131/91833/4895/100/20/
017510/20130131/91912/4890/356/10/
017510/20130131/91913/4890/600/10/
017510/20130131/91914/4895/200/20/
017510/20130131/91916/4890/651/10/
017510/20130131/91934/4890/393/10/
017510/20130131/92018/4880/137/10/
017510/20130131/92018/4875/173/10/
017510/20130131/92046/4875/232/10/
017510/20130131/92046/4870/768/10/
017510/20130131/92051/4870/578/10/
017510/20130131/92505/4875/102/10/
017510/20130131/92746/4870/102/10/
017510/20130131/92820/4865/648/10/
017510/20130131/92820/4860/430/10/
017510/20130131/92825/4860/291/10/
017510/20130131/92931/4875/500/20/
017510/20130131/93129/4865/341/10/
017510/20130131/93129/4860/1254/10/
017510/20130131/93133/4860/83/20/
017510/20130131/93137/4860/200/20/
017510/20130131/93150/4860/152/20/
017510/20130131/93408/4860/1070/10/
017510/20130131/93439/4870/1000/20/
017510/20130131/93800/4865/148/10/
017510/20130131/93854/4875/677/20/
017510/20130131/94136/4875/320/20/
017510/20130131/94209/4880/320/20/
017510/20130131/94602/4885/145/20/
017510/20130131/94632/4885/153/20/
017510/20130131/94643/4885/100/20/
017510/20130131/94647/4880/100/10/
017510/20130131/94708/4880/501/10/
017510/20130131/94720/4880/201/10/
017510/20130131/94754/4875/119/10/
017510/20130131/94929/4875/200/10/
017510/20130131/95516/4875/423/20/
017510/20130131/95633/4875/299/20/
017510/20130131/95824/4875/207/20/
017510/20130131/100529/4870/1062/10/
017510/20130131/100641/4870/200/10/
017510/20130131/100830/4870/1272/10/
017510/20130131/101004/4865/177/10/
017510/20130131/101247/4865/1039/10/
017510/20130131/101352/4865/1493/10/
017510/20130131/102131/4870/1121/20/
017510/20130131/102418/4870/150/20/
017510/20130131/103302/4870/1001/20/
017510/20130131/103502/4870/597/10/
017510/20130131/103517/4870/250/20/
017510/20130131/104004/4865/182/10/
017510/20130131/104113/4865/150/20/
017510/20130131/104115/4865/333/20/
017510/20130131/104136/4860/4000/10/
017510/20130131/104149/4860/145/10/
017510/20130131/104257/4855/2474/10/
017510/20130131/104313/4855/633/10/
017510/20130131/104414/4855/489/20/
017510/20130131/104453/4860/112/10/
017510/20130131/104513/4860/88/10/
017510/20130131/104541/4855/121/10/
017510/20130131/104544/4850/2500/10/
017510/20130131/104653/4855/259/20/
017510/20130131/104818/4855/202/10/
017510/20130131/105041/4860/303/10/
017510/20130131/105147/4860/213/10/
017510/20130131/105147/4855/887/10/
017510/20130131/105401/4855/100/10/
017510/20130131/105555/4855/100/20/
017510/20130131/105636/4860/100/20/
017510/20130131/105724/4860/4200/10/
017510/20130131/110402/4860/211/20/
017510/20130131/110554/4860/254/10/
017510/20130131/110629/4865/1160/20/
017510/20130131/110724/4870/151/20/
017510/20130131/110734/4870/199/20/
017510/20130131/110734/4875/1301/20/
017510/20130131/110832/4875/200/20/
017510/20130131/110911/4875/100/20/
017510/20130131/110939/4875/130/20/
017510/20130131/111025/4875/1037/20/
017510/20130131/111051/4875/363/10/
017510/20130131/111122/4865/1900/10/
017510/20130131/111128/4865/183/10/
017510/20130131/111149/4865/374/20/
017510/20130131/111739/4880/403/20/
017510/20130131/111801/4880/1335/20/
017510/20130131/111906/4880/523/20/
017510/20130131/112003/4880/220/20/
017510/20130131/112643/4875/361/10/
017510/20130131/112643/4870/3078/10/
017510/20130131/112754/4870/257/10/
017510/20130131/112839/4870/106/10/
017510/20130131/113007/4870/194/20/
017510/20130131/113347/4860/529/10/
017510/20130131/113845/4865/350/10/
017510/20130131/113925/4865/1668/20/
017510/20130131/113937/4865/232/10/
017510/20130131/114525/4865/96/20/
017510/20130131/114556/4860/501/10/
017510/20130131/114740/4860/355/10/
017510/20130131/114844/4860/312/10/
017510/20130131/115243/4855/504/10/
017510/20130131/115943/4865/110/20/
017510/20130131/120439/4860/200/10/
017510/20130131/120553/4865/501/20/
017510/20130131/120757/4865/354/20/
017510/20130131/121126/4860/94/20/
017510/20130131/121447/4860/186/10/
017510/20130131/122040/4855/192/10/
017510/20130131/122142/4855/303/10/
017510/20130131/122245/4855/98/10/
017510/20130131/122346/4855/123/10/
017510/20130131/122451/4855/212/10/
017510/20130131/122451/4855/106/10/
017510/20130131/122516/4850/100/10/
017510/20130131/122559/4850/2000/10/
017510/20130131/122706/4845/678/10/
017510/20130131/122801/4845/200/20/
017510/20130131/122917/4845/116/20/
017510/20130131/123508/4850/137/10/
017510/20130131/123519/4840/145/10/
017510/20130131/123616/4840/93/10/
017510/20130131/124505/4855/201/10/
017510/20130131/125358/4850/311/10/
017510/20130131/131130/4850/614/10/
017510/20130131/131147/4850/96/10/
017510/20130131/131349/4850/84/10/
017510/20130131/131849/4850/211/10/
017510/20130131/131923/4850/107/10/
017510/20130131/132148/4850/223/10/
017510/20130131/132148/4850/157/10/
017510/20130131/132248/4850/559/10/
017510/20130131/132303/4850/107/10/
017510/20130131/132343/4845/705/10/
017510/20130131/132343/4845/1242/10/
017510/20130131/132442/4840/141/10/
017510/20130131/132759/4840/1925/10/
017510/20130131/132802/4840/233/10/
017510/20130131/132812/4835/709/10/
017510/20130131/132812/4830/1791/10/
017510/20130131/132858/4830/481/10/
017510/20130131/132858/4825/293/10/
017510/20130131/133030/4830/99/10/
017510/20130131/133032/4830/158/10/
017510/20130131/133037/4830/123/10/
017510/20130131/133228/4830/101/20/
017510/20130131/133927/4830/221/10/
017510/20130131/134530/4825/370/10/
017510/20130131/134558/4825/703/10/
017510/20130131/134608/4825/110/10/
017510/20130131/135252/4830/1011/10/
017510/20130131/135317/4830/437/10/
017510/20130131/135448/4830/1000/10/
017510/20130131/135602/4830/579/10/
017510/20130131/135640/4825/210/10/
017510/20130131/140045/4830/205/20/
017510/20130131/140101/4830/300/20/
017510/20130131/140428/4825/545/10/
017510/20130131/140506/4825/554/10/
017510/20130131/140738/4830/200/20/
017510/20130131/140841/4830/285/20/
017510/20130131/140941/4830/500/10/
017510/20130131/141118/4830/346/20/
017510/20130131/141151/4830/574/20/
017510/20130131/141431/4840/163/20/
017510/20130131/141648/4835/700/10/
017510/20130131/141806/4835/806/10/
017510/20130131/141806/4830/1694/10/
017510/20130131/141809/4830/1200/10/
017510/20130131/141815/4830/1400/10/
017510/20130131/141949/4830/1873/10/
017510/20130131/141949/4825/168/10/
017510/20130131/142100/4825/722/10/
017510/20130131/142100/4820/778/10/
017510/20130131/142204/4825/501/10/
017510/20130131/142204/4820/1000/10/
017510/20130131/142336/4825/301/10/
017510/20130131/142629/4825/470/10/
017510/20130131/142640/4825/530/10/
017510/20130131/142744/4825/389/10/
017510/20130131/142948/4825/99/10/
017510/20130131/142952/4830/1370/20/
017510/20130131/143041/4830/203/10/
017510/20130131/143131/4840/210/20/
017510/20130131/143449/4845/1047/20/
017510/20130131/143626/4845/733/20/
017510/20130131/143741/4845/270/10/
017510/20130131/143840/4845/420/20/
017510/20130131/143953/4845/502/10/
017510/20130131/144002/4845/81/10/
017510/20130131/144002/4840/919/10/
017510/20130131/144115/4840/103/10/
017510/20130131/144133/4840/305/10/
017510/20130131/144530/4830/200/10/
017510/20130131/144558/4830/419/10/
017510/20130131/144632/4830/122/10/
017510/20130131/144654/4830/100/10/
017510/20130131/144757/4830/292/10/
017510/20130131/144800/4830/624/10/
017510/20130131/144803/4830/100/10/
017510/20130131/144804/4830/100/10/
017510/20130131/144810/4835/148/20/
017510/20130131/144927/4840/161/20/
017510/20130131/150000/4860/5030/20/
