017510/20130321/90000/4600/1000/10/
017510/20130321/90403/4605/381/10/
017510/20130321/91208/4605/504/20/
017510/20130321/91414/4605/355/10/
017510/20130321/91443/4605/100/10/
017510/20130321/91455/4605/100/10/
017510/20130321/91512/4605/100/10/
017510/20130321/91725/4605/715/10/
017510/20130321/91725/4600/2347/10/
017510/20130321/91906/4600/194/10/
017510/20130321/92051/4600/1367/10/
017510/20130321/92051/4595/1186/10/
017510/20130321/93253/4615/212/20/
017510/20130321/93512/4605/1336/10/
017510/20130321/93512/4600/1264/10/
017510/20130321/93629/4605/200/10/
017510/20130321/93820/4615/124/20/
017510/20130321/93820/4620/383/20/
017510/20130321/93845/4620/1000/10/
017510/20130321/93852/4620/263/10/
017510/20130321/93909/4620/297/10/
017510/20130321/94011/4605/121/10/
017510/20130321/94039/4600/698/10/
017510/20130321/95035/4605/1075/10/
017510/20130321/95102/4605/471/10/
017510/20130321/95102/4600/2242/10/
017510/20130321/95248/4600/109/20/
017510/20130321/95259/4600/151/20/
017510/20130321/95437/4605/111/20/
017510/20130321/100050/4605/399/20/
017510/20130321/100334/4615/100/20/
017510/20130321/100629/4610/81/20/
017510/20130321/100646/4610/120/10/
017510/20130321/100700/4610/378/10/
017510/20130321/101118/4610/129/20/
017510/20130321/101219/4610/132/20/
017510/20130321/101424/4610/121/20/
017510/20130321/101951/4605/237/10/
017510/20130321/102246/4610/101/20/
017510/20130321/102300/4600/2931/10/
017510/20130321/102318/4600/115/20/
017510/20130321/102939/4595/426/10/
017510/20130321/103005/4595/1802/10/
017510/20130321/103028/4595/500/10/
017510/20130321/103118/4595/293/10/
017510/20130321/103129/4595/759/20/
017510/20130321/103129/4600/341/20/
017510/20130321/103247/4595/300/10/
017510/20130321/104013/4595/567/20/
017510/20130321/104301/4595/216/20/
017510/20130321/104322/4595/500/20/
017510/20130321/104345/4595/500/20/
017510/20130321/104358/4595/500/20/
017510/20130321/104410/4595/250/20/
017510/20130321/104419/4595/300/20/
017510/20130321/104422/4595/205/20/
017510/20130321/104521/4595/545/10/
017510/20130321/104632/4595/257/20/
017510/20130321/105042/4600/500/20/
017510/20130321/105051/4595/2000/10/
017510/20130321/110627/4600/582/20/
017510/20130321/111314/4600/311/20/
017510/20130321/111427/4600/1000/20/
017510/20130321/111532/4600/286/20/
017510/20130321/111701/4605/153/20/
017510/20130321/112211/4605/500/10/
017510/20130321/112600/4605/2185/10/
017510/20130321/112900/4605/1008/10/
017510/20130321/112902/4605/455/10/
017510/20130321/113100/4600/300/10/
017510/20130321/113802/4600/2000/10/
017510/20130321/113947/4600/1313/10/
017510/20130321/114209/4600/769/20/
017510/20130321/114546/4600/242/10/
017510/20130321/114908/4600/100/20/
017510/20130321/114925/4600/112/20/
017510/20130321/114943/4595/150/10/
017510/20130321/115057/4595/500/10/
017510/20130321/115201/4595/1500/10/
017510/20130321/115235/4595/174/10/
017510/20130321/115235/4590/4098/10/
017510/20130321/115304/4585/500/10/
017510/20130321/115442/4590/90/20/
017510/20130321/115822/4590/250/20/
017510/20130321/120515/4590/154/20/
017510/20130321/120644/4590/122/20/
017510/20130321/121033/4585/2014/10/
017510/20130321/122418/4585/323/10/
017510/20130321/122839/4590/200/20/
017510/20130321/123833/4585/1754/10/
017510/20130321/123833/4580/2694/10/
017510/20130321/124138/4580/400/20/
017510/20130321/124150/4580/600/20/
017510/20130321/130718/4580/192/10/
017510/20130321/130931/4580/88/20/
017510/20130321/131035/4580/102/10/
017510/20130321/131124/4575/420/10/
017510/20130321/131334/4575/561/10/
017510/20130321/131345/4575/300/10/
017510/20130321/132729/4575/200/10/
017510/20130321/132850/4580/188/20/
017510/20130321/132854/4575/200/10/
017510/20130321/133304/4585/191/20/
017510/20130321/133304/4595/200/20/
017510/20130321/133304/4600/1609/20/
017510/20130321/134809/4580/103/10/
017510/20130321/135513/4575/83/10/
017510/20130321/141810/4585/132/20/
017510/20130321/141921/4585/159/20/
017510/20130321/142643/4585/115/20/
017510/20130321/142753/4585/267/10/
017510/20130321/142810/4585/101/10/
017510/20130321/142828/4585/132/10/
017510/20130321/142828/4580/82/10/
017510/20130321/142828/4575/86/10/
017510/20130321/143624/4580/340/20/
017510/20130321/143748/4580/100/20/
017510/20130321/144039/4580/110/20/
017510/20130321/144125/4580/125/20/
017510/20130321/144211/4580/500/10/
017510/20130321/144225/4580/389/10/
017510/20130321/144231/4580/101/10/
017510/20130321/144333/4575/1804/10/
017510/20130321/144352/4575/600/10/
017510/20130321/144405/4575/238/10/
017510/20130321/144449/4580/172/20/
017510/20130321/144449/4575/439/10/
017510/20130321/144519/4570/130/10/
017510/20130321/144548/4575/400/20/
017510/20130321/144552/4575/170/20/
017510/20130321/150000/4565/6053/10/
