008970/20130226/90000/1820/116680/10/
008970/20130226/90000/1825/6830/10/
008970/20130226/90001/1825/100/10/
008970/20130226/90001/1825/1000/10/
008970/20130226/90001/1825/1500/10/
008970/20130226/90002/1825/1000/10/
008970/20130226/90002/1835/100/20/
008970/20130226/90002/1840/1900/20/
008970/20130226/90002/1825/1090/10/
008970/20130226/90003/1825/5000/10/
008970/20130226/90004/1825/520/10/
008970/20130226/90004/1825/100/10/
008970/20130226/90006/1830/10040/20/
008970/20130226/90010/1840/200/20/
008970/20130226/90014/1830/600/10/
008970/20130226/90014/1825/400/10/
008970/20130226/90015/1835/1200/20/
008970/20130226/90020/1830/500/20/
008970/20130226/90034/1835/160/20/
008970/20130226/90037/1830/1000/10/
008970/20130226/90040/1830/2030/10/
008970/20130226/90041/1830/7000/10/
008970/20130226/90041/1830/2310/10/
008970/20130226/90041/1830/400/10/
008970/20130226/90042/1830/4090/20/
008970/20130226/90044/1830/870/20/
008970/20130226/90046/1830/200/20/
008970/20130226/90049/1830/2000/20/
008970/20130226/90050/1830/840/20/
008970/20130226/90052/1830/2000/20/
008970/20130226/90054/1825/4000/10/
008970/20130226/90100/1825/650/10/
008970/20130226/90104/1825/35000/10/
008970/20130226/90107/1825/400/10/
008970/20130226/90107/1825/910/10/
008970/20130226/90107/1825/8070/10/
008970/20130226/90107/1825/3840/10/
008970/20130226/90110/1820/30070/10/
008970/20130226/90112/1820/5000/10/
008970/20130226/90113/1820/5000/10/
008970/20130226/90114/1820/350/10/
008970/20130226/90115/1820/6560/10/
008970/20130226/90119/1815/2740/10/
008970/20130226/90120/1820/570/20/
008970/20130226/90122/1815/8000/10/
008970/20130226/90124/1820/300/20/
008970/20130226/90124/1815/2740/10/
008970/20130226/90126/1815/500/10/
008970/20130226/90126/1815/2500/10/
008970/20130226/90126/1815/5000/10/
008970/20130226/90128/1815/600/10/
008970/20130226/90129/1815/2500/10/
008970/20130226/90129/1815/400/10/
008970/20130226/90130/1815/2240/10/
008970/20130226/90131/1815/7560/10/
008970/20130226/90133/1815/850/10/
008970/20130226/90134/1815/540/10/
008970/20130226/90135/1815/1640/10/
008970/20130226/90138/1820/500/20/
008970/20130226/90139/1820/200/20/
008970/20130226/90139/1825/300/20/
008970/20130226/90140/1825/100/20/
008970/20130226/90147/1820/5620/10/
008970/20130226/90152/1820/3000/20/
008970/20130226/90155/1815/110/10/
008970/20130226/90156/1815/1300/10/
008970/20130226/90159/1815/560/10/
008970/20130226/90202/1820/2060/20/
008970/20130226/90207/1820/3020/10/
008970/20130226/90208/1825/1830/20/
008970/20130226/90208/1830/1260/20/
008970/20130226/90217/1825/5530/20/
008970/20130226/90219/1825/1850/20/
008970/20130226/90221/1825/2010/20/
008970/20130226/90223/1825/1070/20/
008970/20130226/90224/1825/1000/20/
008970/20130226/90227/1825/1010/20/
008970/20130226/90232/1825/2060/20/
008970/20130226/90233/1825/1010/20/
008970/20130226/90233/1825/1140/20/
008970/20130226/90234/1825/410/20/
008970/20130226/90235/1825/1090/10/
008970/20130226/90238/1825/210/20/
008970/20130226/90240/1825/1020/20/
008970/20130226/90243/1825/11620/20/
008970/20130226/90249/1825/570/10/
008970/20130226/90300/1830/1030/20/
008970/20130226/90303/1825/7590/10/
008970/20130226/90304/1825/200/20/
008970/20130226/90304/1825/2220/20/
008970/20130226/90311/1825/3660/10/
008970/20130226/90311/1820/1370/10/
008970/20130226/90319/1830/320/20/
008970/20130226/90324/1825/1330/10/
008970/20130226/90325/1825/2390/10/
008970/20130226/90331/1830/120/20/
008970/20130226/90338/1830/520/20/
008970/20130226/90341/1830/200/20/
008970/20130226/90343/1830/1020/20/
008970/20130226/90345/1830/1490/10/
008970/20130226/90348/1830/210/20/
008970/20130226/90353/1825/650/10/
008970/20130226/90353/1830/1000/20/
008970/20130226/90359/1825/5040/10/
008970/20130226/90402/1825/5110/10/
008970/20130226/90408/1825/210/20/
008970/20130226/90409/1825/3850/20/
008970/20130226/90413/1825/860/20/
008970/20130226/90422/1825/370/10/
008970/20130226/90442/1830/1670/20/
008970/20130226/90443/1825/510/10/
008970/20130226/90444/1825/5040/10/
008970/20130226/90447/1825/140/10/
008970/20130226/90450/1825/1000/20/
008970/20130226/90451/1825/510/20/
008970/20130226/90452/1825/2360/20/
008970/20130226/90506/1825/280/10/
008970/20130226/90520/1830/90/20/
008970/20130226/90524/1830/1000/20/
008970/20130226/90546/1825/520/10/
008970/20130226/90547/1830/1090/20/
008970/20130226/90553/1825/14950/10/
008970/20130226/90553/1820/4050/10/
008970/20130226/90609/1825/1020/10/
008970/20130226/90623/1825/510/10/
008970/20130226/90628/1825/200/20/
008970/20130226/90631/1825/950/20/
008970/20130226/90703/1830/90/20/
008970/20130226/90717/1825/7870/10/
008970/20130226/90742/1830/1620/20/
008970/20130226/90742/1825/770/10/
008970/20130226/90744/1830/3000/20/
008970/20130226/90745/1830/1070/20/
008970/20130226/90747/1830/500/20/
008970/20130226/90748/1830/200/20/
008970/20130226/90748/1830/3600/20/
008970/20130226/90753/1830/2080/20/
008970/20130226/90756/1825/540/10/
008970/20130226/90756/1830/100/20/
008970/20130226/90757/1830/1180/20/
008970/20130226/90800/1830/5000/10/
008970/20130226/90810/1835/1010/20/
008970/20130226/90812/1835/920/20/
008970/20130226/90822/1835/1070/20/
008970/20130226/90826/1835/810/20/
008970/20130226/90829/1835/3210/20/
008970/20130226/90832/1835/110/20/
008970/20130226/90832/1835/230/20/
008970/20130226/90835/1835/2000/20/
008970/20130226/90835/1835/100/20/
008970/20130226/90841/1835/160/20/
008970/20130226/90843/1835/2000/20/
008970/20130226/90847/1835/100/20/
008970/20130226/90859/1830/120/10/
008970/20130226/90900/1830/23670/10/
008970/20130226/90907/1830/110/20/
008970/20130226/90925/1830/130/20/
008970/20130226/90928/1830/100/20/
008970/20130226/90939/1830/2000/20/
008970/20130226/90940/1825/4080/10/
008970/20130226/90943/1825/10000/10/
008970/20130226/90943/1825/1300/10/
008970/20130226/90951/1825/2250/10/
008970/20130226/90954/1825/4560/10/
008970/20130226/90954/1825/90/20/
008970/20130226/91007/1825/410/20/
008970/20130226/91017/1825/3010/20/
008970/20130226/91018/1825/500/20/
008970/20130226/91018/1825/1000/20/
008970/20130226/91018/1825/3000/20/
008970/20130226/91020/1825/2440/20/
008970/20130226/91029/1825/5290/10/
008970/20130226/91029/1825/250/20/
008970/20130226/91030/1825/510/20/
008970/20130226/91031/1825/1000/20/
008970/20130226/91032/1825/590/20/
008970/20130226/91032/1830/8000/20/
008970/20130226/91040/1830/500/20/
008970/20130226/91045/1830/1000/20/
008970/20130226/91051/1830/100/20/
008970/20130226/91057/1830/2300/20/
008970/20130226/91058/1830/1000/10/
008970/20130226/91059/1830/330/10/
008970/20130226/91104/1830/110/20/
008970/20130226/91113/1830/330/20/
008970/20130226/91151/1825/10040/10/
008970/20130226/91154/1825/6680/10/
008970/20130226/91205/1825/2010/20/
008970/20130226/91205/1825/1000/20/
008970/20130226/91207/1825/2600/20/
008970/20130226/91208/1820/200/10/
008970/20130226/91213/1825/3040/20/
008970/20130226/91219/1825/4700/10/
008970/20130226/91222/1825/300/20/
008970/20130226/91310/1825/660/10/
008970/20130226/91317/1825/1010/10/
008970/20130226/91329/1825/1040/10/
008970/20130226/91346/1825/1040/10/
008970/20130226/91352/1830/3000/20/
008970/20130226/91355/1825/100/10/
008970/20130226/91358/1825/300/10/
008970/20130226/91419/1830/3630/20/
008970/20130226/91420/1830/100/20/
008970/20130226/91421/1830/430/20/
008970/20130226/91437/1830/270/20/
008970/20130226/91442/1825/12500/10/
008970/20130226/91453/1825/5220/10/
008970/20130226/91456/1830/300/20/
008970/20130226/91526/1830/130/20/
008970/20130226/91539/1825/5000/10/
008970/20130226/91547/1830/200/20/
008970/20130226/91551/1830/120/20/
008970/20130226/91551/1830/300/20/
008970/20130226/91554/1830/1300/20/
008970/20130226/91628/1830/550/20/
008970/20130226/91711/1830/15000/20/
008970/20130226/91713/1830/400/20/
008970/20130226/91715/1830/300/20/
008970/20130226/91717/1830/200/20/
008970/20130226/91722/1830/2000/20/
008970/20130226/91727/1830/240/20/
008970/20130226/91802/1835/1010/20/
008970/20130226/91839/1835/390/20/
008970/20130226/91844/1835/1150/20/
008970/20130226/91850/1835/4700/20/
008970/20130226/91857/1835/530/20/
008970/20130226/91910/1835/2060/20/
008970/20130226/91915/1835/2940/20/
008970/20130226/91919/1835/1070/10/
008970/20130226/92000/1830/300/10/
008970/20130226/92011/1830/120/10/
008970/20130226/92012/1830/5000/10/
008970/20130226/92014/1830/360/10/
008970/20130226/92020/1830/250/10/
008970/20130226/92021/1830/1500/10/
008970/20130226/92023/1830/3010/10/
008970/20130226/92024/1830/500/10/
008970/20130226/92025/1830/100/10/
008970/20130226/92026/1830/300/10/
008970/20130226/92026/1825/700/10/
008970/20130226/92126/1830/1030/10/
008970/20130226/92127/1830/850/20/
008970/20130226/92129/1830/1150/10/
008970/20130226/92136/1825/1380/10/
008970/20130226/92211/1830/1000/20/
008970/20130226/92219/1830/1070/20/
008970/20130226/92231/1830/270/20/
008970/20130226/92237/1830/1000/20/
008970/20130226/92245/1830/2000/20/
008970/20130226/92308/1830/250/20/
008970/20130226/92321/1830/90/20/
008970/20130226/92324/1830/190/20/
008970/20130226/92325/1830/100/20/
008970/20130226/92338/1830/90/20/
008970/20130226/92347/1830/3010/20/
008970/20130226/92350/1830/100/20/
008970/20130226/92409/1830/110/20/
008970/20130226/92418/1830/90/20/
008970/20130226/92427/1830/1500/20/
008970/20130226/92512/1830/1020/20/
008970/20130226/92518/1825/500/10/
008970/20130226/92534/1825/300/10/
008970/20130226/92628/1830/1070/20/
008970/20130226/92639/1830/1000/20/
008970/20130226/92644/1830/700/20/
008970/20130226/92731/1830/2030/20/
008970/20130226/92739/1830/1000/20/
008970/20130226/92806/1830/2000/20/
008970/20130226/92808/1830/2000/20/
008970/20130226/92810/1830/1690/20/
008970/20130226/92811/1830/1010/20/
008970/20130226/92822/1830/140/20/
008970/20130226/92829/1830/610/20/
008970/20130226/92830/1830/150/20/
008970/20130226/92833/1830/500/20/
008970/20130226/92837/1830/90/20/
008970/20130226/92846/1825/1850/10/
008970/20130226/92846/1830/2000/20/
008970/20130226/92848/1830/760/20/
008970/20130226/92854/1830/2040/10/
008970/20130226/92912/1830/270/20/
008970/20130226/92917/1830/110/10/
008970/20130226/92932/1830/1000/20/
008970/20130226/92951/1830/400/20/
008970/20130226/92957/1825/1000/10/
008970/20130226/92959/1830/1000/20/
008970/20130226/93006/1830/400/20/
008970/20130226/93039/1830/500/20/
008970/20130226/93100/1825/5050/10/
008970/20130226/93112/1825/18940/10/
008970/20130226/93118/1825/1000/10/
008970/20130226/93126/1825/1070/10/
008970/20130226/93126/1825/10190/10/
008970/20130226/93137/1825/2840/10/
008970/20130226/93143/1825/370/20/
008970/20130226/93144/1825/1000/20/
008970/20130226/93159/1825/830/20/
008970/20130226/93244/1830/1070/20/
008970/20130226/93256/1825/500/10/
008970/20130226/93300/1830/1000/20/
008970/20130226/93308/1825/3410/10/
008970/20130226/93315/1825/1590/10/
008970/20130226/93315/1825/3480/10/
008970/20130226/93317/1825/1000/20/
008970/20130226/93319/1825/2520/20/
008970/20130226/93326/1825/100/10/
008970/20130226/93328/1825/250/10/
008970/20130226/93330/1825/90/10/
008970/20130226/93331/1825/2050/10/
008970/20130226/93426/1825/9290/10/
008970/20130226/93434/1825/400/10/
008970/20130226/93437/1830/300/20/
008970/20130226/93444/1825/300/10/
008970/20130226/93446/1825/1370/10/
008970/20130226/93459/1825/200/20/
008970/20130226/93518/1825/3060/20/
008970/20130226/93530/1825/140/20/
008970/20130226/93531/1825/500/20/
008970/20130226/93533/1825/1010/20/
008970/20130226/93542/1825/150/20/
008970/20130226/93543/1825/190/20/
008970/20130226/93549/1825/200/20/
008970/20130226/93551/1825/3180/20/
008970/20130226/93556/1825/2320/10/
008970/20130226/93601/1825/2680/20/
008970/20130226/93606/1825/7830/10/
008970/20130226/93611/1825/200/20/
008970/20130226/93617/1825/1000/20/
008970/20130226/93619/1825/100/20/
008970/20130226/93620/1825/2310/20/
008970/20130226/93652/1825/3000/10/
008970/20130226/93838/1830/90/20/
008970/20130226/93843/1830/200/20/
008970/20130226/93953/1825/8400/10/
008970/20130226/94030/1825/2000/10/
008970/20130226/94034/1825/2110/10/
008970/20130226/94240/1825/1570/10/
008970/20130226/94256/1825/300/10/
008970/20130226/94321/1825/210/10/
008970/20130226/94326/1825/180/10/
008970/20130226/94330/1825/180/10/
008970/20130226/94335/1825/180/10/
008970/20130226/94339/1825/180/10/
008970/20130226/94343/1825/180/10/
008970/20130226/94344/1825/200/10/
008970/20130226/94432/1825/3080/10/
008970/20130226/94528/1830/2000/20/
008970/20130226/94554/1825/20030/10/
008970/20130226/94601/1825/1000/10/
008970/20130226/94654/1830/1010/20/
008970/20130226/94656/1825/130/10/
008970/20130226/94722/1825/200/20/
008970/20130226/94729/1825/170/20/
008970/20130226/94813/1825/1020/10/
008970/20130226/94841/1825/1500/10/
008970/20130226/94901/1825/3000/10/
008970/20130226/94947/1825/810/10/
008970/20130226/95039/1830/580/20/
008970/20130226/95122/1830/210/20/
008970/20130226/95136/1825/5500/10/
008970/20130226/95159/1825/100/10/
008970/20130226/95202/1830/5000/20/
008970/20130226/95202/1825/1000/10/
008970/20130226/95215/1830/3370/20/
008970/20130226/95238/1825/940/10/
008970/20130226/95537/1825/420/10/
008970/20130226/95550/1825/2290/10/
008970/20130226/95552/1825/2280/10/
008970/20130226/95556/1825/6010/10/
008970/20130226/95715/1830/1140/20/
008970/20130226/95717/1830/170/20/
008970/20130226/95724/1830/660/20/
008970/20130226/95733/1830/2900/20/
008970/20130226/95754/1830/500/20/
008970/20130226/95825/1830/1500/20/
008970/20130226/95851/1825/5000/10/
008970/20130226/95851/1830/130/20/
008970/20130226/95904/1825/2900/10/
008970/20130226/95905/1830/1000/20/
008970/20130226/95908/1825/30040/10/
008970/20130226/95909/1825/1460/20/
008970/20130226/95917/1825/1000/20/
008970/20130226/95931/1825/1010/20/
008970/20130226/95933/1825/4090/20/
008970/20130226/100117/1825/1410/10/
008970/20130226/100119/1830/2590/20/
008970/20130226/100131/1830/3430/20/
008970/20130226/100138/1830/880/10/
008970/20130226/100251/1830/10950/10/
008970/20130226/100258/1830/500/20/
008970/20130226/100303/1830/500/20/
008970/20130226/100326/1830/500/20/
008970/20130226/100404/1825/170/10/
008970/20130226/100407/1830/500/20/
008970/20130226/100414/1830/250/20/
008970/20130226/100427/1830/500/20/
008970/20130226/100449/1830/320/20/
008970/20130226/100451/1830/3320/20/
008970/20130226/100459/1830/380/10/
008970/20130226/100502/1830/4170/10/
008970/20130226/100546/1830/90/20/
008970/20130226/100602/1830/500/20/
008970/20130226/100608/1830/360/20/
008970/20130226/100615/1825/1000/10/
008970/20130226/100636/1830/330/20/
008970/20130226/100637/1830/200/20/
008970/20130226/100717/1830/210/20/
008970/20130226/100741/1830/100/20/
008970/20130226/100756/1830/200/20/
008970/20130226/100802/1830/1000/20/
008970/20130226/100827/1830/220/20/
008970/20130226/100903/1830/180/20/
008970/20130226/100954/1825/3900/10/
008970/20130226/101115/1830/1510/20/
008970/20130226/101118/1830/660/20/
008970/20130226/101227/1830/150/20/
008970/20130226/101247/1830/580/20/
008970/20130226/101327/1830/1210/20/
008970/20130226/101332/1830/140/20/
008970/20130226/101344/1830/500/20/
008970/20130226/101416/1830/1000/20/
008970/20130226/101429/1830/1480/20/
008970/20130226/101431/1830/3000/20/
008970/20130226/101440/1830/1750/20/
008970/20130226/101442/1825/400/10/
008970/20130226/101514/1830/2070/20/
008970/20130226/101519/1830/1140/20/
008970/20130226/101603/1830/1560/20/
008970/20130226/101608/1830/1000/20/
008970/20130226/101659/1830/130/20/
008970/20130226/101703/1825/12080/10/
008970/20130226/101832/1830/1000/20/
008970/20130226/101901/1830/1000/20/
008970/20130226/101935/1830/140/20/
008970/20130226/101956/1830/100/20/
008970/20130226/102002/1830/100/20/
008970/20130226/102025/1825/110/10/
008970/20130226/102110/1825/720/10/
008970/20130226/102146/1825/100/10/
008970/20130226/102206/1825/1400/10/
008970/20130226/102214/1825/500/10/
008970/20130226/102331/1825/10000/10/
008970/20130226/102345/1825/3300/10/
008970/20130226/102401/1825/3550/10/
008970/20130226/102409/1825/500/10/
008970/20130226/102439/1825/250/10/
008970/20130226/102504/1825/5000/10/
008970/20130226/102511/1825/400/10/
008970/20130226/102609/1825/1400/10/
008970/20130226/102635/1825/2940/10/
008970/20130226/102723/1825/100/10/
008970/20130226/102745/1825/1000/10/
008970/20130226/102814/1825/280/10/
008970/20130226/102930/1825/500/10/
008970/20130226/102946/1825/120/10/
008970/20130226/103023/1830/1010/20/
008970/20130226/103028/1830/5000/20/
008970/20130226/103041/1830/250/20/
008970/20130226/103117/1830/510/20/
008970/20130226/103122/1830/210/20/
008970/20130226/103213/1830/120/20/
008970/20130226/103301/1830/1010/20/
008970/20130226/103305/1830/240/20/
008970/20130226/103401/1830/720/20/
008970/20130226/103406/1830/720/20/
008970/20130226/103450/1830/2530/20/
008970/20130226/103457/1830/470/20/
008970/20130226/103458/1830/2000/20/
008970/20130226/103516/1830/1070/20/
008970/20130226/103517/1830/460/20/
008970/20130226/103517/1830/780/20/
008970/20130226/103518/1830/170/20/
008970/20130226/103531/1830/3010/20/
008970/20130226/103537/1830/500/20/
008970/20130226/103541/1830/1030/20/
008970/20130226/103558/1830/90/20/
008970/20130226/103616/1830/200/20/
008970/20130226/103730/1830/1290/20/
008970/20130226/103820/1830/120/20/
008970/20130226/104007/1830/100/20/
008970/20130226/104012/1830/610/20/
008970/20130226/104024/1830/300/20/
008970/20130226/104130/1830/100/20/
008970/20130226/104130/1825/300/10/
008970/20130226/104156/1825/200/10/
008970/20130226/104240/1830/2100/20/
008970/20130226/104358/1830/250/20/
008970/20130226/104512/1830/920/20/
008970/20130226/104532/1830/9500/20/
008970/20130226/104537/1830/200/20/
008970/20130226/104545/1830/3910/20/
008970/20130226/104712/1830/190/10/
008970/20130226/104715/1830/300/10/
008970/20130226/104829/1835/410/20/
008970/20130226/104834/1835/540/20/
008970/20130226/104955/1835/11000/20/
008970/20130226/104957/1835/560/20/
008970/20130226/105026/1835/520/20/
008970/20130226/105042/1835/5050/20/
008970/20130226/105117/1835/200/20/
008970/20130226/105129/1835/290/20/
008970/20130226/105133/1835/1000/20/
008970/20130226/105156/1835/100/20/
008970/20130226/105201/1835/100/20/
008970/20130226/105203/1835/300/20/
008970/20130226/105203/1835/730/20/
008970/20130226/105213/1835/130/20/
008970/20130226/105328/1835/440/20/
008970/20130226/105517/1835/1010/20/
008970/20130226/105534/1835/1100/20/
008970/20130226/105626/1835/380/20/
008970/20130226/105649/1835/3000/20/
008970/20130226/105703/1830/210/10/
008970/20130226/105747/1830/1100/10/
008970/20130226/105810/1830/30000/10/
008970/20130226/105817/1830/1100/10/
008970/20130226/105825/1830/8200/10/
008970/20130226/110237/1835/290/20/
008970/20130226/110541/1830/1000/10/
008970/20130226/110703/1830/1580/10/
008970/20130226/110751/1830/300/20/
008970/20130226/110852/1830/4140/20/
008970/20130226/110852/1830/1730/10/
008970/20130226/110909/1830/300/10/
008970/20130226/110913/1830/260/10/
008970/20130226/110913/1825/29750/10/
008970/20130226/110922/1825/1000/10/
008970/20130226/110929/1825/27780/10/
008970/20130226/110929/1820/5010/10/
008970/20130226/110952/1830/160/20/
008970/20130226/111047/1830/300/20/
008970/20130226/111056/1830/500/20/
008970/20130226/111105/1830/2000/20/
008970/20130226/111212/1830/260/20/
008970/20130226/111306/1830/780/20/
008970/20130226/111348/1830/1000/20/
008970/20130226/111428/1825/2060/10/
008970/20130226/111442/1825/1000/10/
008970/20130226/111531/1830/1000/20/
008970/20130226/111533/1825/3170/10/
008970/20130226/111533/1820/6830/10/
008970/20130226/111630/1820/20000/10/
008970/20130226/111710/1820/2000/10/
008970/20130226/111719/1825/1510/20/
008970/20130226/111723/1825/1200/10/
008970/20130226/111727/1825/100/10/
008970/20130226/111728/1825/2350/20/
008970/20130226/111732/1825/500/20/
008970/20130226/111829/1825/1100/20/
008970/20130226/111841/1825/300/10/
008970/20130226/111841/1825/700/20/
008970/20130226/111859/1825/150/20/
008970/20130226/111912/1825/860/20/
008970/20130226/111917/1825/500/10/
008970/20130226/111924/1825/2640/10/
008970/20130226/111931/1825/360/20/
008970/20130226/112115/1825/110/10/
008970/20130226/112220/1825/90/20/
008970/20130226/112258/1825/260/20/
008970/20130226/112329/1825/1000/20/
008970/20130226/112334/1825/5000/20/
008970/20130226/112356/1825/200/20/
008970/20130226/112403/1825/590/20/
008970/20130226/112427/1825/4320/10/
008970/20130226/112448/1825/690/20/
008970/20130226/112554/1825/610/10/
008970/20130226/112605/1825/300/10/
008970/20130226/112606/1825/160/10/
008970/20130226/112619/1825/500/20/
008970/20130226/112623/1825/440/20/
008970/20130226/112635/1825/1000/20/
008970/20130226/112641/1825/510/20/
008970/20130226/112727/1825/110/20/
008970/20130226/112730/1825/200/20/
008970/20130226/112735/1825/3000/20/
008970/20130226/112736/1825/2100/20/
008970/20130226/112807/1825/2000/10/
008970/20130226/112831/1825/1070/20/
008970/20130226/112901/1825/3030/20/
008970/20130226/112924/1825/200/20/
008970/20130226/112932/1825/1000/20/
008970/20130226/113125/1825/660/10/
008970/20130226/113141/1825/1000/10/
008970/20130226/113148/1825/610/10/
008970/20130226/113457/1825/5430/10/
008970/20130226/113545/1825/990/10/
008970/20130226/113552/1825/1090/10/
008970/20130226/113608/1825/100/10/
008970/20130226/113701/1825/360/10/
008970/20130226/113718/1825/280/10/
008970/20130226/113732/1825/200/10/
008970/20130226/113807/1825/800/10/
008970/20130226/113841/1825/500/10/
008970/20130226/113917/1825/500/10/
008970/20130226/113922/1825/740/10/
008970/20130226/113959/1825/500/10/
008970/20130226/114035/1825/1300/10/
008970/20130226/114042/1825/200/10/
008970/20130226/114124/1825/120/10/
008970/20130226/114125/1825/1230/10/
008970/20130226/114140/1825/490/10/
008970/20130226/114336/1825/1740/10/
008970/20130226/114338/1825/700/10/
008970/20130226/114640/1825/10000/10/
008970/20130226/114747/1825/100/10/
008970/20130226/114835/1825/150/10/
008970/20130226/114954/1830/170/20/
008970/20130226/115208/1830/1260/20/
008970/20130226/115437/1830/170/20/
008970/20130226/115520/1830/210/20/
008970/20130226/115537/1830/100/20/
008970/20130226/115604/1825/1000/10/
008970/20130226/115609/1830/10190/20/
008970/20130226/115714/1835/110/20/
008970/20130226/115733/1835/1990/20/
008970/20130226/115815/1830/1100/10/
008970/20130226/120341/1835/210/20/
008970/20130226/120414/1835/240/20/
008970/20130226/120443/1835/8000/20/
008970/20130226/120555/1835/1000/20/
008970/20130226/120607/1835/180/20/
008970/20130226/120643/1835/1900/20/
008970/20130226/120647/1835/5860/20/
008970/20130226/120714/1835/4140/10/
008970/20130226/120758/1835/4740/20/
008970/20130226/120758/1835/1760/10/
008970/20130226/120948/1840/1710/20/
008970/20130226/121027/1835/1240/10/
008970/20130226/121045/1835/200/10/
008970/20130226/121224/1835/470/10/
008970/20130226/121321/1835/210/10/
008970/20130226/121422/1835/260/10/
008970/20130226/121448/1835/430/10/
008970/20130226/121613/1835/510/10/
008970/20130226/121708/1835/5000/10/
008970/20130226/121711/1835/3810/10/
008970/20130226/121712/1835/500/10/
008970/20130226/121720/1835/200/10/
008970/20130226/121730/1835/400/10/
008970/20130226/121737/1835/800/10/
008970/20130226/121739/1835/3000/10/
008970/20130226/121741/1835/3240/10/
008970/20130226/121742/1835/1000/10/
008970/20130226/121747/1835/360/10/
008970/20130226/121750/1835/200/10/
008970/20130226/121756/1835/240/10/
008970/20130226/121802/1835/610/20/
008970/20130226/121808/1830/1130/10/
008970/20130226/121853/1830/2000/10/
008970/20130226/122222/1835/3650/20/
008970/20130226/122234/1830/700/10/
008970/20130226/122237/1830/7510/10/
008970/20130226/122409/1830/3910/10/
008970/20130226/122438/1830/180/10/
008970/20130226/122519/1830/460/10/
008970/20130226/122628/1835/300/20/
008970/20130226/122633/1835/100/20/
008970/20130226/122653/1835/250/20/
008970/20130226/122739/1835/100/20/
008970/20130226/122806/1830/4740/10/
008970/20130226/122846/1830/3000/10/
008970/20130226/122848/1830/1000/10/
008970/20130226/123035/1830/300/10/
008970/20130226/123146/1830/270/10/
008970/20130226/123516/1830/100/10/
008970/20130226/123552/1830/660/10/
008970/20130226/123559/1830/830/10/
008970/20130226/123633/1825/1700/10/
008970/20130226/123731/1825/910/10/
008970/20130226/123817/1825/600/10/
008970/20130226/123836/1825/560/10/
008970/20130226/123842/1825/220/10/
008970/20130226/124311/1825/400/10/
008970/20130226/124436/1830/100/20/
008970/20130226/125242/1830/630/20/
008970/20130226/125328/1825/500/10/
008970/20130226/125347/1825/410/10/
008970/20130226/125420/1825/1300/10/
008970/20130226/125516/1830/980/20/
008970/20130226/125552/1830/1070/20/
008970/20130226/125620/1825/500/10/
008970/20130226/125834/1830/4760/20/
008970/20130226/125920/1830/1000/20/
008970/20130226/125930/1830/300/20/
008970/20130226/125955/1830/200/20/
008970/20130226/130226/1830/3080/20/
008970/20130226/130244/1830/1200/20/
008970/20130226/130248/1830/1000/20/
008970/20130226/130358/1825/620/10/
008970/20130226/130407/1830/240/20/
008970/20130226/130432/1830/700/20/
008970/20130226/130503/1830/260/20/
008970/20130226/130631/1830/120/20/
008970/20130226/130631/1825/250/10/
008970/20130226/130642/1825/4150/10/
008970/20130226/130703/1825/220/10/
008970/20130226/130716/1825/3000/10/
008970/20130226/130718/1825/19860/10/
008970/20130226/130722/1825/5000/10/
008970/20130226/130734/1825/400/10/
008970/20130226/130742/1825/500/10/
008970/20130226/130846/1830/1100/20/
008970/20130226/130951/1825/250/10/
008970/20130226/131040/1825/18320/10/
008970/20130226/131148/1825/840/20/
008970/20130226/131233/1825/210/20/
008970/20130226/131248/1825/100/20/
008970/20130226/131250/1825/690/20/
008970/20130226/131321/1825/450/10/
008970/20130226/131417/1825/500/20/
008970/20130226/131527/1825/1500/20/
008970/20130226/131550/1825/200/20/
008970/20130226/131608/1825/200/20/
008970/20130226/131631/1825/100/20/
008970/20130226/131638/1825/200/20/
008970/20130226/131646/1820/500/10/
008970/20130226/131748/1825/210/20/
008970/20130226/131840/1820/2000/10/
008970/20130226/131858/1825/500/20/
008970/20130226/132012/1820/360/10/
008970/20130226/132105/1825/7020/20/
008970/20130226/132203/1825/2640/20/
008970/20130226/132206/1825/4000/20/
008970/20130226/132210/1825/1000/20/
008970/20130226/132211/1825/100/20/
008970/20130226/132356/1825/130/20/
008970/20130226/132426/1825/210/20/
008970/20130226/132440/1825/770/20/
008970/20130226/132442/1825/1030/20/
008970/20130226/132444/1825/240/20/
008970/20130226/132448/1825/1000/20/
008970/20130226/132514/1825/200/20/
008970/20130226/132552/1825/300/10/
008970/20130226/132553/1825/300/20/
008970/20130226/132603/1825/200/20/
008970/20130226/132628/1825/300/20/
008970/20130226/132655/1820/1000/10/
008970/20130226/132831/1820/1740/10/
008970/20130226/132929/1820/10000/10/
008970/20130226/132935/1820/9990/10/
008970/20130226/132943/1820/3000/10/
008970/20130226/132950/1820/700/10/
008970/20130226/133111/1825/100/20/
008970/20130226/133254/1825/90/20/
008970/20130226/133435/1820/1390/10/
008970/20130226/133525/1825/1100/20/
008970/20130226/133635/1820/300/10/
008970/20130226/133725/1820/450/10/
008970/20130226/133729/1820/1000/10/
008970/20130226/133734/1820/710/10/
008970/20130226/133837/1820/500/10/
008970/20130226/133905/1825/400/20/
008970/20130226/134016/1825/5010/20/
008970/20130226/134117/1820/700/10/
008970/20130226/134124/1820/3000/10/
008970/20130226/134126/1825/12660/20/
008970/20130226/134129/1825/370/20/
008970/20130226/134140/1825/630/10/
008970/20130226/134223/1825/1000/20/
008970/20130226/134223/1825/190/20/
008970/20130226/134228/1825/3880/20/
008970/20130226/134240/1825/1380/10/
008970/20130226/134241/1825/490/20/
008970/20130226/134257/1825/500/20/
008970/20130226/134303/1825/690/20/
008970/20130226/134433/1825/4830/10/
008970/20130226/134506/1825/550/20/
008970/20130226/134713/1830/5420/20/
008970/20130226/134754/1830/550/20/
008970/20130226/134955/1825/1010/10/
008970/20130226/134959/1825/360/10/
008970/20130226/135004/1825/2680/10/
008970/20130226/135120/1825/310/10/
008970/20130226/135159/1830/110/20/
008970/20130226/135229/1825/4200/10/
008970/20130226/135251/1825/700/10/
008970/20130226/135549/1830/780/20/
008970/20130226/135732/1830/500/20/
008970/20130226/135752/1830/5000/20/
008970/20130226/135850/1825/350/10/
008970/20130226/140014/1825/720/10/
008970/20130226/140507/1830/8170/20/
008970/20130226/140510/1830/500/20/
008970/20130226/140535/1830/1500/20/
008970/20130226/140538/1830/100/20/
008970/20130226/140703/1830/100/20/
008970/20130226/140742/1830/1700/20/
008970/20130226/141022/1830/110/10/
008970/20130226/141033/1835/1000/20/
008970/20130226/141051/1835/8210/20/
008970/20130226/141137/1835/100/20/
008970/20130226/141425/1830/430/10/
008970/20130226/141659/1830/530/10/
008970/20130226/141704/1830/2600/10/
008970/20130226/141921/1830/2350/10/
008970/20130226/141923/1830/530/10/
008970/20130226/141937/1830/300/10/
008970/20130226/142218/1830/140/10/
008970/20130226/142300/1830/1850/10/
008970/20130226/142331/1830/190/10/
008970/20130226/142336/1830/970/10/
008970/20130226/142340/1830/7940/10/
008970/20130226/142402/1830/220/20/
008970/20130226/142442/1830/600/20/
008970/20130226/142543/1830/110/20/
008970/20130226/142802/1830/5630/20/
008970/20130226/142951/1825/120/10/
008970/20130226/143031/1825/150/10/
008970/20130226/143104/1825/500/10/
008970/20130226/143105/1830/550/20/
008970/20130226/143140/1825/1950/10/
008970/20130226/143149/1825/90/10/
008970/20130226/143158/1825/1400/10/
008970/20130226/143303/1825/450/10/
008970/20130226/143325/1825/480/10/
008970/20130226/143355/1830/500/20/
008970/20130226/143412/1830/14600/20/
008970/20130226/143453/1830/1010/10/
008970/20130226/143710/1835/510/20/
008970/20130226/143717/1835/9290/20/
008970/20130226/143828/1840/410/20/
008970/20130226/143852/1840/500/20/
008970/20130226/143905/1840/2000/20/
008970/20130226/143932/1835/280/10/
008970/20130226/144036/1840/1020/20/
008970/20130226/144047/1840/500/20/
008970/20130226/144133/1840/480/20/
008970/20130226/144223/1835/150/10/
008970/20130226/144349/1840/100/20/
008970/20130226/144419/1835/410/10/
008970/20130226/144432/1835/190/10/
008970/20130226/144442/1835/20280/10/
008970/20130226/144506/1835/330/20/
008970/20130226/144509/1835/3910/20/
008970/20130226/144534/1835/210/10/
008970/20130226/144605/1835/3010/10/
008970/20130226/144605/1835/400/10/
008970/20130226/144615/1835/550/10/
008970/20130226/144621/1830/500/10/
008970/20130226/144715/1830/450/10/
008970/20130226/144753/1830/1000/10/
008970/20130226/144754/1830/320/10/
008970/20130226/144754/1830/720/10/
008970/20130226/144806/1830/1960/10/
008970/20130226/144831/1835/2830/20/
008970/20130226/144846/1830/200/10/
008970/20130226/144847/1835/260/20/
008970/20130226/144906/1830/2700/10/
008970/20130226/144910/1830/300/10/
008970/20130226/144931/1830/250/10/
008970/20130226/144954/1830/500/10/
008970/20130226/144957/1830/3000/10/
008970/20130226/150000/1825/109820/10/
