008970/20130130/90000/1750/7310/10/
008970/20130130/90040/1750/9310/10/
008970/20130130/90125/1750/200/20/
008970/20130130/90132/1750/1000/20/
008970/20130130/90135/1745/2250/10/
008970/20130130/90149/1745/2030/10/
008970/20130130/90246/1745/830/10/
008970/20130130/90253/1750/6490/20/
008970/20130130/90301/1750/2400/10/
008970/20130130/90309/1755/1840/20/
008970/20130130/90352/1755/830/20/
008970/20130130/90407/1755/840/20/
008970/20130130/90409/1750/3080/10/
008970/20130130/90431/1750/10130/10/
008970/20130130/90431/1750/9870/20/
008970/20130130/90509/1745/10000/10/
008970/20130130/90516/1745/2000/10/
008970/20130130/90528/1745/5000/10/
008970/20130130/90530/1750/500/20/
008970/20130130/90633/1745/8680/10/
008970/20130130/90645/1745/1030/20/
008970/20130130/90657/1745/1420/20/
008970/20130130/90736/1750/890/20/
008970/20130130/90742/1750/13910/20/
008970/20130130/90827/1755/13120/20/
008970/20130130/90839/1755/170/10/
008970/20130130/90840/1760/100/20/
008970/20130130/90926/1755/1000/10/
008970/20130130/91001/1755/5940/10/
008970/20130130/91028/1750/800/10/
008970/20130130/91034/1750/350/10/
008970/20130130/91049/1750/48010/10/
008970/20130130/91121/1745/340/10/
008970/20130130/91149/1745/5000/10/
008970/20130130/91155/1745/3810/10/
008970/20130130/91204/1745/100/10/
008970/20130130/91253/1750/10050/20/
008970/20130130/91253/1750/2050/20/
008970/20130130/91313/1750/980/20/
008970/20130130/91442/1750/500/10/
008970/20130130/91726/1750/5000/10/
008970/20130130/91729/1750/1530/10/
008970/20130130/91848/1745/560/10/
008970/20130130/91857/1745/2130/10/
008970/20130130/91923/1750/1080/20/
008970/20130130/91926/1750/1500/20/
008970/20130130/91954/1745/480/10/
008970/20130130/91957/1750/4440/20/
008970/20130130/92011/1750/560/10/
008970/20130130/92021/1750/2210/20/
008970/20130130/92104/1755/560/20/
008970/20130130/92107/1750/180/10/
008970/20130130/92120/1755/500/20/
008970/20130130/92138/1755/110/20/
008970/20130130/92300/1755/500/20/
008970/20130130/92318/1750/200/10/
008970/20130130/92450/1755/240/20/
008970/20130130/92524/1755/2600/20/
008970/20130130/92540/1755/1370/20/
008970/20130130/92541/1755/100/20/
008970/20130130/92602/1750/210/10/
008970/20130130/92718/1755/1370/20/
008970/20130130/92746/1760/540/20/
008970/20130130/92816/1755/290/10/
008970/20130130/92818/1760/100/20/
008970/20130130/92844/1760/530/20/
008970/20130130/92902/1755/100/10/
008970/20130130/92905/1755/990/10/
008970/20130130/93034/1760/100/20/
008970/20130130/93132/1760/300/20/
008970/20130130/93224/1760/5700/20/
008970/20130130/93234/1760/200/10/
008970/20130130/93236/1760/1800/10/
008970/20130130/93349/1760/770/20/
008970/20130130/93436/1760/340/10/
008970/20130130/93449/1760/580/10/
008970/20130130/93455/1760/420/20/
008970/20130130/93529/1760/350/20/
008970/20130130/93537/1760/200/20/
008970/20130130/93557/1755/100/10/
008970/20130130/93604/1755/1000/10/
008970/20130130/93648/1760/460/20/
008970/20130130/93730/1760/490/20/
008970/20130130/93734/1760/900/20/
008970/20130130/93745/1760/500/20/
008970/20130130/93816/1760/300/20/
008970/20130130/93820/1755/670/10/
008970/20130130/93917/1760/120/10/
008970/20130130/93920/1760/90/10/
008970/20130130/93928/1760/640/20/
008970/20130130/93948/1755/13000/10/
008970/20130130/94008/1755/200/10/
008970/20130130/94008/1750/10880/10/
008970/20130130/94011/1755/1000/10/
008970/20130130/94016/1755/1000/10/
008970/20130130/94035/1755/230/20/
008970/20130130/94043/1755/430/20/
008970/20130130/94057/1755/170/20/
008970/20130130/94140/1755/1000/20/
008970/20130130/94228/1750/110/10/
008970/20130130/94232/1755/1080/20/
008970/20130130/94304/1750/1400/10/
008970/20130130/94323/1750/1080/10/
008970/20130130/94326/1750/300/10/
008970/20130130/94334/1750/5000/10/
008970/20130130/94336/1755/590/20/
008970/20130130/94337/1755/810/10/
008970/20130130/94341/1750/100/10/
008970/20130130/94440/1755/100/20/
008970/20130130/94605/1755/2570/20/
008970/20130130/94625/1755/2580/10/
008970/20130130/94734/1755/100/20/
008970/20130130/94857/1755/250/20/
008970/20130130/95136/1750/1470/10/
008970/20130130/95155/1750/360/10/
008970/20130130/95251/1750/1050/10/
008970/20130130/95320/1750/600/10/
008970/20130130/95351/1755/1010/20/
008970/20130130/95359/1755/12100/20/
008970/20130130/95416/1750/260/10/
008970/20130130/95423/1755/670/20/
008970/20130130/95542/1755/5000/10/
008970/20130130/95603/1755/2250/10/
008970/20130130/95608/1755/6630/10/
008970/20130130/95650/1750/200/10/
008970/20130130/95825/1755/4000/20/
008970/20130130/95958/1750/100/10/
008970/20130130/100127/1750/380/10/
008970/20130130/100524/1750/360/10/
008970/20130130/100609/1750/2000/10/
008970/20130130/100633/1755/4010/20/
008970/20130130/100750/1755/180/20/
008970/20130130/100848/1750/5000/10/
008970/20130130/100948/1750/560/10/
008970/20130130/101001/1750/8800/10/
008970/20130130/101004/1755/100/20/
008970/20130130/101005/1750/3000/10/
008970/20130130/101027/1755/1000/20/
008970/20130130/101033/1750/1500/10/
008970/20130130/101041/1750/500/10/
008970/20130130/101053/1750/7000/10/
008970/20130130/101053/1750/990/10/
008970/20130130/101128/1750/900/10/
008970/20130130/101135/1750/100/10/
008970/20130130/101212/1750/1020/10/
008970/20130130/101220/1750/290/10/
008970/20130130/101235/1750/90/20/
008970/20130130/101257/1745/4000/10/
008970/20130130/101501/1745/1000/10/
008970/20130130/101512/1750/1000/20/
008970/20130130/101631/1750/830/20/
008970/20130130/101704/1750/100/20/
008970/20130130/101733/1750/110/20/
008970/20130130/101735/1750/1790/20/
008970/20130130/101738/1750/1000/20/
008970/20130130/101739/1750/210/20/
008970/20130130/101801/1750/200/10/
008970/20130130/101824/1750/760/10/
008970/20130130/101913/1750/6490/10/
008970/20130130/101933/1750/1000/20/
008970/20130130/102142/1745/560/10/
008970/20130130/102226/1745/820/10/
008970/20130130/102245/1745/1000/10/
008970/20130130/102604/1745/190/10/
008970/20130130/102648/1745/1650/10/
008970/20130130/102825/1745/1000/10/
008970/20130130/103223/1745/3040/10/
008970/20130130/103245/1745/350/10/
008970/20130130/103429/1745/270/10/
008970/20130130/103449/1750/90/20/
008970/20130130/103458/1750/1000/20/
008970/20130130/103535/1750/2000/20/
008970/20130130/103642/1750/120/20/
008970/20130130/103653/1750/7460/20/
008970/20130130/103734/1750/500/10/
008970/20130130/104017/1750/90/10/
008970/20130130/104111/1750/1000/10/
008970/20130130/104249/1750/2010/10/
008970/20130130/104423/1750/1070/10/
008970/20130130/104439/1750/100/20/
008970/20130130/104621/1755/100/20/
008970/20130130/104709/1750/2000/10/
008970/20130130/104711/1755/3480/20/
008970/20130130/104939/1755/160/20/
008970/20130130/105001/1755/660/20/
008970/20130130/105250/1755/1000/20/
008970/20130130/105308/1755/100/20/
008970/20130130/105346/1755/1130/20/
008970/20130130/105348/1750/2000/10/
008970/20130130/105646/1750/5920/10/
008970/20130130/105720/1750/3180/10/
008970/20130130/105818/1750/100/10/
008970/20130130/105818/1755/10000/20/
008970/20130130/105847/1755/340/20/
008970/20130130/105859/1755/300/10/
008970/20130130/105959/1755/1000/10/
008970/20130130/110054/1755/2010/10/
008970/20130130/110101/1755/110/10/
008970/20130130/110110/1755/200/10/
008970/20130130/110315/1760/260/20/
008970/20130130/110722/1760/100/20/
008970/20130130/110724/1760/250/20/
008970/20130130/110850/1755/2000/10/
008970/20130130/111012/1755/220/10/
008970/20130130/111031/1755/5000/10/
008970/20130130/111053/1755/110/10/
008970/20130130/111055/1755/100/10/
008970/20130130/111105/1755/440/10/
008970/20130130/111156/1755/200/20/
008970/20130130/111617/1755/1400/20/
008970/20130130/111628/1755/1000/20/
008970/20130130/111634/1755/3820/20/
008970/20130130/111710/1755/1000/10/
008970/20130130/111854/1755/510/10/
008970/20130130/111914/1760/2450/20/
008970/20130130/111940/1755/250/10/
008970/20130130/112429/1755/1500/10/
008970/20130130/112513/1755/5000/10/
008970/20130130/112649/1760/2000/20/
008970/20130130/112656/1760/3000/20/
008970/20130130/112724/1760/2000/20/
008970/20130130/112754/1760/1000/20/
008970/20130130/112754/1760/100/20/
008970/20130130/112756/1760/100/20/
008970/20130130/112756/1760/310/20/
008970/20130130/112829/1765/110/20/
008970/20130130/112856/1760/1790/10/
008970/20130130/113037/1760/700/20/
008970/20130130/113149/1760/160/20/
008970/20130130/113328/1755/10000/10/
008970/20130130/113357/1755/2600/10/
008970/20130130/113357/1750/14080/10/
008970/20130130/113756/1755/90/10/
008970/20130130/114053/1755/2010/10/
008970/20130130/114223/1755/150/10/
008970/20130130/114303/1760/2000/20/
008970/20130130/114313/1760/2060/20/
008970/20130130/114319/1760/2000/20/
008970/20130130/114325/1760/2000/20/
008970/20130130/114353/1760/180/20/
008970/20130130/114429/1760/500/10/
008970/20130130/114537/1755/2000/10/
008970/20130130/114709/1755/560/10/
008970/20130130/115507/1760/530/20/
008970/20130130/115632/1760/500/20/
008970/20130130/115700/1755/310/10/
008970/20130130/115717/1760/3000/20/
008970/20130130/120017/1760/6110/20/
008970/20130130/120035/1760/890/10/
008970/20130130/120035/1755/750/10/
008970/20130130/120100/1765/570/20/
008970/20130130/120115/1765/550/20/
008970/20130130/120306/1765/530/20/
008970/20130130/120343/1765/1500/20/
008970/20130130/120422/1765/870/20/
008970/20130130/120452/1760/190/20/
008970/20130130/120538/1760/100/10/
008970/20130130/120540/1760/210/10/
008970/20130130/120721/1760/90/20/
008970/20130130/120806/1760/1000/10/
008970/20130130/120930/1760/1110/20/
008970/20130130/121014/1760/420/10/
008970/20130130/121210/1755/5040/10/
008970/20130130/121216/1755/5000/10/
008970/20130130/121858/1755/5070/10/
008970/20130130/122246/1755/2270/10/
008970/20130130/122250/1755/100/10/
008970/20130130/122516/1755/110/10/
008970/20130130/122620/1755/110/10/
008970/20130130/122645/1755/960/10/
008970/20130130/122719/1750/500/10/
008970/20130130/122908/1750/12290/10/
008970/20130130/123203/1750/280/10/
008970/20130130/123207/1750/2000/10/
008970/20130130/123216/1755/100/20/
008970/20130130/123328/1755/280/20/
008970/20130130/123418/1755/710/20/
008970/20130130/123801/1755/2120/20/
008970/20130130/123816/1755/880/10/
008970/20130130/123823/1755/500/20/
008970/20130130/123823/1760/500/20/
008970/20130130/123859/1760/1000/20/
008970/20130130/124138/1750/1050/10/
008970/20130130/124351/1755/1390/20/
008970/20130130/124416/1755/890/10/
008970/20130130/124416/1750/11580/10/
008970/20130130/124655/1755/610/20/
008970/20130130/124703/1755/500/10/
008970/20130130/124704/1755/90/10/
008970/20130130/124708/1755/2810/10/
008970/20130130/124747/1755/100/20/
008970/20130130/124821/1755/2090/20/
008970/20130130/124833/1755/120/10/
008970/20130130/125130/1750/10000/10/
008970/20130130/125607/1755/510/20/
008970/20130130/125721/1755/2000/20/
008970/20130130/125731/1755/500/20/
008970/20130130/125738/1755/1000/20/
008970/20130130/125814/1755/330/20/
008970/20130130/125828/1755/1970/20/
008970/20130130/130042/1750/2530/10/
008970/20130130/130207/1750/90/10/
008970/20130130/130352/1750/430/10/
008970/20130130/130515/1750/3090/10/
008970/20130130/130638/1750/170/20/
008970/20130130/130641/1750/100/20/
008970/20130130/130649/1750/150/20/
008970/20130130/130650/1750/1760/20/
008970/20130130/130702/1750/2000/10/
008970/20130130/130823/1750/500/10/
008970/20130130/131200/1755/550/20/
008970/20130130/131205/1755/130/20/
008970/20130130/131222/1755/130/20/
008970/20130130/131225/1755/130/20/
008970/20130130/131249/1755/100/20/
008970/20130130/131314/1755/130/20/
008970/20130130/131316/1755/130/20/
008970/20130130/131320/1755/100/20/
008970/20130130/131428/1755/1880/10/
008970/20130130/131432/1755/6000/10/
008970/20130130/131501/1755/980/10/
008970/20130130/131620/1760/10000/20/
008970/20130130/131833/1755/1690/10/
008970/20130130/132043/1755/500/10/
008970/20130130/132255/1755/3000/10/
008970/20130130/132259/1755/16270/10/
008970/20130130/132318/1750/150/10/
008970/20130130/132457/1755/1050/20/
008970/20130130/132543/1755/1390/20/
008970/20130130/132631/1755/110/20/
008970/20130130/132634/1755/1000/20/
008970/20130130/132634/1750/500/10/
008970/20130130/132737/1755/490/20/
008970/20130130/132743/1755/780/10/
008970/20130130/132744/1760/1000/20/
008970/20130130/132757/1755/8730/10/
008970/20130130/132759/1755/1270/20/
008970/20130130/132802/1755/1730/10/
008970/20130130/133022/1750/1000/10/
008970/20130130/133104/1750/4000/10/
008970/20130130/133359/1755/310/20/
008970/20130130/133443/1755/300/20/
008970/20130130/133443/1755/1000/20/
008970/20130130/133531/1755/500/20/
008970/20130130/133541/1755/1040/20/
008970/20130130/133547/1755/4890/20/
008970/20130130/133557/1755/300/20/
008970/20130130/133602/1755/210/20/
008970/20130130/133614/1755/310/20/
008970/20130130/133838/1755/300/10/
008970/20130130/134044/1750/6570/10/
008970/20130130/134351/1750/1410/10/
008970/20130130/134429/1750/100/10/
008970/20130130/134522/1750/200/10/
008970/20130130/134558/1750/1000/10/
008970/20130130/134625/1750/1000/10/
008970/20130130/134708/1750/920/10/
008970/20130130/134726/1750/23730/10/
008970/20130130/134731/1750/90/10/
008970/20130130/134739/1750/120/10/
008970/20130130/134746/1750/100/10/
008970/20130130/134841/1750/520/10/
008970/20130130/135026/1750/210/10/
008970/20130130/135146/1750/7000/10/
008970/20130130/135146/1750/100/10/
008970/20130130/135153/1750/300/10/
008970/20130130/135328/1745/13010/10/
008970/20130130/135348/1745/800/10/
008970/20130130/135422/1745/90/10/
008970/20130130/135512/1745/1000/10/
008970/20130130/135604/1750/3320/20/
008970/20130130/135720/1750/890/20/
008970/20130130/135852/1750/1010/20/
008970/20130130/135931/1750/350/20/
008970/20130130/135950/1750/330/20/
008970/20130130/140003/1750/120/20/
008970/20130130/140030/1750/1000/20/
008970/20130130/140047/1750/200/20/
008970/20130130/140049/1750/100/20/
008970/20130130/140127/1750/1200/20/
008970/20130130/140204/1750/620/20/
008970/20130130/140215/1750/200/20/
008970/20130130/140230/1750/1000/10/
008970/20130130/140259/1750/300/20/
008970/20130130/140305/1745/550/10/
008970/20130130/140459/1745/2000/10/
008970/20130130/140524/1750/3000/20/
008970/20130130/140551/1745/230/10/
008970/20130130/140626/1750/6860/20/
008970/20130130/140748/1750/550/10/
008970/20130130/140748/1745/53970/10/
008970/20130130/140816/1745/490/10/
008970/20130130/140928/1745/2000/10/
008970/20130130/140943/1745/150/10/
008970/20130130/140944/1745/500/10/
008970/20130130/141106/1745/1010/10/
008970/20130130/141123/1745/3550/10/
008970/20130130/141124/1745/410/20/
008970/20130130/141139/1740/200/10/
008970/20130130/141154/1740/100/10/
008970/20130130/141211/1740/810/10/
008970/20130130/141313/1740/7500/10/
008970/20130130/141415/1740/2000/10/
008970/20130130/141423/1745/170/20/
008970/20130130/141527/1740/9480/10/
008970/20130130/141607/1740/90/10/
008970/20130130/141746/1745/360/20/
008970/20130130/141809/1745/190/10/
008970/20130130/141828/1745/920/20/
008970/20130130/141900/1745/1240/10/
008970/20130130/141908/1745/970/20/
008970/20130130/141939/1745/130/20/
008970/20130130/141943/1745/100/20/
008970/20130130/141956/1745/5010/20/
008970/20130130/142005/1745/90/20/
008970/20130130/142028/1745/100/20/
008970/20130130/142033/1745/110/20/
008970/20130130/142039/1745/130/20/
008970/20130130/142058/1745/100/20/
008970/20130130/142113/1740/3770/10/
008970/20130130/142117/1740/500/10/
008970/20130130/142122/1740/10320/10/
008970/20130130/142203/1740/2160/10/
008970/20130130/142221/1740/100/20/
008970/20130130/142238/1740/3870/20/
008970/20130130/142253/1740/500/10/
008970/20130130/142419/1740/830/10/
008970/20130130/142433/1740/800/10/
008970/20130130/142436/1745/200/20/
008970/20130130/142452/1745/1450/20/
008970/20130130/142634/1745/750/20/
008970/20130130/142936/1745/1090/10/
008970/20130130/142948/1745/230/10/
008970/20130130/142954/1745/500/10/
008970/20130130/143002/1745/230/10/
008970/20130130/143146/1740/310/10/
008970/20130130/143408/1740/7950/10/
008970/20130130/143413/1740/2000/10/
008970/20130130/143420/1740/100/10/
008970/20130130/143435/1740/610/10/
008970/20130130/143438/1740/1100/20/
008970/20130130/143453/1740/1400/10/
008970/20130130/143454/1740/1000/10/
008970/20130130/143639/1740/910/10/
008970/20130130/143701/1740/900/10/
008970/20130130/143711/1740/150/10/
008970/20130130/143736/1740/2000/10/
008970/20130130/143750/1740/350/10/
008970/20130130/143819/1740/330/20/
008970/20130130/143933/1740/540/10/
008970/20130130/143937/1740/1150/10/
008970/20130130/144048/1740/300/10/
008970/20130130/144053/1745/490/20/
008970/20130130/144105/1745/1760/20/
008970/20130130/144141/1745/100/20/
008970/20130130/144159/1745/1480/20/
008970/20130130/144207/1740/1020/10/
008970/20130130/144220/1740/1000/10/
008970/20130130/144308/1740/500/10/
008970/20130130/144332/1745/1000/20/
008970/20130130/144335/1745/1870/20/
008970/20130130/144435/1745/300/20/
008970/20130130/144449/1745/210/20/
008970/20130130/144529/1740/4920/10/
008970/20130130/144533/1740/2000/10/
008970/20130130/144535/1740/1000/10/
008970/20130130/144634/1740/1350/10/
008970/20130130/144642/1740/300/10/
008970/20130130/144654/1740/100/10/
008970/20130130/144709/1740/1680/10/
008970/20130130/144710/1740/300/10/
008970/20130130/144735/1740/430/10/
008970/20130130/144813/1745/5300/20/
008970/20130130/144829/1745/1000/10/
008970/20130130/144833/1745/2000/10/
008970/20130130/144843/1745/500/10/
008970/20130130/144908/1745/2000/20/
008970/20130130/144923/1745/520/10/
008970/20130130/144927/1745/200/10/
008970/20130130/144938/1745/110/10/
008970/20130130/144952/1745/200/10/
008970/20130130/150000/1745/18460/20/
