008970/20121109/90000/1715/64330/10/
008970/20121109/90001/1720/500/20/
008970/20121109/90002/1730/500/20/
008970/20121109/90021/1720/550/10/
008970/20121109/90106/1720/410/10/
008970/20121109/90229/1725/90/20/
008970/20121109/90333/1720/1110/10/
008970/20121109/90353/1715/4000/10/
008970/20121109/90359/1715/120/10/
008970/20121109/90414/1710/6050/10/
008970/20121109/90414/1705/1710/10/
008970/20121109/90427/1705/1000/10/
008970/20121109/90444/1715/110/20/
008970/20121109/90524/1710/510/10/
008970/20121109/90524/1710/500/10/
008970/20121109/90525/1710/500/10/
008970/20121109/90525/1710/500/10/
008970/20121109/90542/1710/2410/10/
008970/20121109/90552/1710/1000/20/
008970/20121109/90619/1705/1550/10/
008970/20121109/90622/1705/1000/10/
008970/20121109/90629/1705/10010/10/
008970/20121109/90633/1705/760/10/
008970/20121109/90637/1705/400/10/
008970/20121109/90642/1705/420/10/
008970/20121109/90702/1705/2690/10/
008970/20121109/90712/1700/1000/10/
008970/20121109/90723/1705/7310/20/
008970/20121109/90724/1700/100/10/
008970/20121109/90732/1700/310/10/
008970/20121109/90801/1705/120/10/
008970/20121109/90827/1705/120/10/
008970/20121109/90837/1705/300/20/
008970/20121109/90847/1705/100/20/
008970/20121109/90935/1705/220/10/
008970/20121109/90944/1705/960/20/
008970/20121109/90955/1705/1600/10/
008970/20121109/91007/1705/130/20/
008970/20121109/91013/1705/200/20/
008970/20121109/91028/1700/1000/10/
008970/20121109/91030/1705/300/20/
008970/20121109/91039/1700/200/10/
008970/20121109/91050/1705/700/20/
008970/20121109/91102/1700/4030/10/
008970/20121109/91124/1705/150/20/
008970/20121109/91129/1700/2000/10/
008970/20121109/91208/1700/1030/10/
008970/20121109/91213/1700/240/10/
008970/20121109/91244/1700/1510/10/
008970/20121109/91300/1700/1000/10/
008970/20121109/91315/1700/1020/10/
008970/20121109/91338/1700/2000/10/
008970/20121109/91342/1700/210/10/
008970/20121109/91426/1700/2810/10/
008970/20121109/91433/1700/1000/10/
008970/20121109/91436/1700/190/10/
008970/20121109/91438/1700/1100/10/
008970/20121109/91443/1700/270/10/
008970/20121109/91447/1700/2000/10/
008970/20121109/91455/1700/550/10/
008970/20121109/91600/1700/3000/10/
008970/20121109/91625/1700/14000/10/
008970/20121109/91634/1700/2000/10/
008970/20121109/91638/1700/940/10/
008970/20121109/91654/1700/760/10/
008970/20121109/91751/1700/430/10/
008970/20121109/91858/1700/300/10/
008970/20121109/91902/1700/120/10/
008970/20121109/91920/1700/2370/10/
008970/20121109/91931/1705/210/20/
008970/20121109/92020/1705/550/20/
008970/20121109/92056/1705/600/20/
008970/20121109/92100/1705/150/20/
008970/20121109/92111/1705/1060/20/
008970/20121109/92118/1705/100/20/
008970/20121109/92118/1705/1000/20/
008970/20121109/92122/1705/1230/20/
008970/20121109/92136/1705/370/20/
008970/20121109/92206/1705/700/10/
008970/20121109/92310/1710/2290/20/
008970/20121109/92313/1710/180/10/
008970/20121109/92322/1710/450/10/
008970/20121109/92332/1710/100/20/
008970/20121109/92512/1705/500/10/
008970/20121109/92522/1705/570/10/
008970/20121109/92538/1705/130/20/
008970/20121109/92549/1705/500/20/
008970/20121109/92706/1705/440/10/
008970/20121109/92711/1705/3310/10/
008970/20121109/92711/1705/690/20/
008970/20121109/92732/1710/1790/20/
008970/20121109/92835/1710/1510/20/
008970/20121109/92848/1710/1000/20/
008970/20121109/92945/1710/1510/20/
008970/20121109/92947/1705/5200/10/
008970/20121109/93024/1705/570/10/
008970/20121109/93043/1705/3970/10/
008970/20121109/93044/1705/1040/20/
008970/20121109/93045/1705/1940/10/
008970/20121109/93105/1705/1560/10/
008970/20121109/93105/1705/310/20/
008970/20121109/93123/1705/1040/10/
008970/20121109/93133/1705/100/20/
008970/20121109/93134/1705/1940/10/
008970/20121109/93142/1705/460/20/
008970/20121109/93147/1705/510/20/
008970/20121109/93152/1705/100/20/
008970/20121109/93202/1705/300/20/
008970/20121109/93219/1705/110/20/
008970/20121109/93301/1700/3060/10/
008970/20121109/93331/1705/5010/20/
008970/20121109/93332/1705/670/20/
008970/20121109/93332/1705/4500/10/
008970/20121109/93332/1700/500/10/
008970/20121109/93340/1700/20000/10/
008970/20121109/93431/1700/120/10/
008970/20121109/93443/1705/550/20/
008970/20121109/93454/1700/500/10/
008970/20121109/93507/1700/100/10/
008970/20121109/93521/1700/780/10/
008970/20121109/93723/1700/1760/10/
008970/20121109/93725/1700/280/10/
008970/20121109/93731/1700/270/10/
008970/20121109/93737/1700/1040/10/
008970/20121109/93758/1705/1010/20/
008970/20121109/93919/1700/3000/10/
008970/20121109/94036/1705/180/20/
008970/20121109/94047/1705/210/20/
008970/20121109/94056/1705/100/20/
008970/20121109/94059/1700/100/10/
008970/20121109/94109/1705/100/20/
008970/20121109/94116/1705/200/20/
008970/20121109/94121/1705/200/20/
008970/20121109/94154/1705/160/20/
008970/20121109/94156/1705/200/20/
008970/20121109/94202/1700/1000/10/
008970/20121109/94356/1700/120/10/
008970/20121109/94432/1700/3010/10/
008970/20121109/94604/1700/210/10/
008970/20121109/94629/1700/1010/10/
008970/20121109/94659/1700/10010/10/
008970/20121109/94753/1705/1140/20/
008970/20121109/94757/1700/400/10/
008970/20121109/94814/1700/3000/10/
008970/20121109/94815/1700/700/10/
008970/20121109/94824/1700/6200/10/
008970/20121109/94829/1700/5010/10/
008970/20121109/94831/1700/2000/10/
008970/20121109/94832/1700/2000/10/
008970/20121109/94832/1700/3730/10/
008970/20121109/94914/1695/1520/10/
008970/20121109/94922/1695/200/10/
008970/20121109/94930/1700/5810/20/
008970/20121109/94942/1700/210/10/
008970/20121109/95019/1700/800/20/
008970/20121109/95134/1700/970/10/
008970/20121109/95208/1705/910/20/
008970/20121109/95237/1700/7700/10/
008970/20121109/95251/1700/3000/10/
008970/20121109/95254/1700/540/10/
008970/20121109/95259/1700/200/10/
008970/20121109/95325/1700/1480/10/
008970/20121109/95412/1695/17500/10/
008970/20121109/95415/1690/100/10/
008970/20121109/95424/1695/120/20/
008970/20121109/95455/1695/380/20/
008970/20121109/95459/1695/500/10/
008970/20121109/95533/1700/1010/20/
008970/20121109/95610/1700/500/20/
008970/20121109/95735/1700/500/20/
008970/20121109/95745/1700/1000/20/
008970/20121109/95751/1700/910/20/
008970/20121109/95751/1700/1090/10/
008970/20121109/100440/1705/2050/20/
008970/20121109/100451/1705/5000/20/
008970/20121109/100503/1705/3210/20/
008970/20121109/100522/1705/100/10/
008970/20121109/100535/1705/1000/10/
008970/20121109/100611/1710/140/20/
008970/20121109/100731/1705/240/10/
008970/20121109/100941/1705/420/10/
008970/20121109/101030/1710/1370/20/
008970/20121109/101049/1710/100/20/
008970/20121109/101105/1710/830/20/
008970/20121109/101107/1710/170/10/
008970/20121109/101345/1710/200/20/
008970/20121109/101842/1705/500/10/
008970/20121109/101952/1710/90/20/
008970/20121109/102034/1705/120/10/
008970/20121109/102042/1710/100/20/
008970/20121109/102044/1705/300/10/
008970/20121109/102104/1710/190/20/
008970/20121109/102143/1705/960/10/
008970/20121109/102400/1700/1050/10/
008970/20121109/102418/1705/100/20/
008970/20121109/102801/1705/270/20/
008970/20121109/102814/1705/230/20/
008970/20121109/102815/1705/150/20/
008970/20121109/102816/1700/2370/10/
008970/20121109/102841/1700/160/10/
008970/20121109/102851/1700/600/10/
008970/20121109/103024/1700/2610/10/
008970/20121109/103134/1705/830/20/
008970/20121109/103206/1705/520/10/
008970/20121109/103404/1705/820/10/
008970/20121109/103404/1700/3730/10/
008970/20121109/103852/1705/510/10/
008970/20121109/103937/1705/300/10/
008970/20121109/103945/1705/200/10/
008970/20121109/104034/1705/1010/10/
008970/20121109/104230/1710/1010/20/
008970/20121109/104235/1710/1000/20/
008970/20121109/104259/1705/100/10/
008970/20121109/104330/1705/210/10/
008970/20121109/104334/1705/3010/10/
008970/20121109/104403/1705/1840/20/
008970/20121109/104501/1705/350/20/
008970/20121109/104723/1705/160/20/
008970/20121109/104729/1705/850/20/
008970/20121109/104731/1710/200/20/
008970/20121109/104846/1705/760/10/
008970/20121109/104948/1705/2240/20/
008970/20121109/105340/1710/1110/20/
008970/20121109/105429/1705/1000/10/
008970/20121109/105626/1705/2000/10/
008970/20121109/105632/1705/4270/10/
008970/20121109/105853/1710/310/20/
008970/20121109/110023/1710/500/20/
008970/20121109/110134/1710/400/20/
008970/20121109/110135/1710/4000/20/
008970/20121109/110144/1705/1060/10/
008970/20121109/110321/1710/520/20/
008970/20121109/110328/1710/100/20/
008970/20121109/110419/1710/200/20/
008970/20121109/110525/1710/600/20/
008970/20121109/110718/1710/1410/20/
008970/20121109/110739/1715/10200/20/
008970/20121109/110841/1710/390/10/
008970/20121109/110841/1705/910/10/
008970/20121109/111122/1710/110/20/
008970/20121109/111303/1705/340/10/
008970/20121109/111515/1710/1150/20/
008970/20121109/111607/1710/1870/10/
008970/20121109/111833/1705/3840/10/
008970/20121109/112150/1705/270/10/
008970/20121109/112302/1710/510/20/
008970/20121109/112529/1710/100/20/
008970/20121109/112650/1705/1000/10/
008970/20121109/112752/1710/110/20/
008970/20121109/112813/1710/100/20/
008970/20121109/112820/1710/100/20/
008970/20121109/112821/1710/4880/20/
008970/20121109/113112/1710/2410/10/
008970/20121109/113117/1715/200/20/
008970/20121109/113232/1710/490/20/
008970/20121109/113242/1710/1530/10/
008970/20121109/113303/1705/520/10/
008970/20121109/113524/1705/510/10/
008970/20121109/113604/1710/110/20/
008970/20121109/113628/1710/140/20/
008970/20121109/113636/1710/100/20/
008970/20121109/113641/1710/100/20/
008970/20121109/113642/1710/1310/20/
008970/20121109/113650/1715/100/20/
008970/20121109/113654/1715/100/20/
008970/20121109/113657/1715/100/20/
008970/20121109/113700/1715/100/20/
008970/20121109/113703/1715/100/20/
008970/20121109/113705/1715/100/20/
008970/20121109/113727/1715/1000/20/
008970/20121109/113747/1715/1010/20/
008970/20121109/113818/1715/900/20/
008970/20121109/113858/1710/220/10/
008970/20121109/114231/1710/530/10/
008970/20121109/114240/1715/90/20/
008970/20121109/114517/1710/320/10/
008970/20121109/114634/1710/510/10/
008970/20121109/114810/1715/100/20/
008970/20121109/115005/1715/100/20/
008970/20121109/115240/1715/90/20/
008970/20121109/115321/1715/3500/20/
008970/20121109/115322/1715/430/20/
008970/20121109/115436/1715/100/20/
008970/20121109/115941/1715/90/20/
008970/20121109/115942/1715/220/20/
008970/20121109/115944/1715/4540/20/
008970/20121109/115951/1715/470/10/
008970/20121109/120049/1715/90/10/
008970/20121109/120114/1715/610/10/
008970/20121109/120300/1720/190/20/
008970/20121109/120348/1715/100/10/
008970/20121109/120504/1720/210/20/
008970/20121109/120651/1720/500/20/
008970/20121109/120700/1715/500/10/
008970/20121109/120713/1715/100/10/
008970/20121109/120717/1715/200/20/
008970/20121109/120741/1715/410/20/
008970/20121109/120834/1720/3010/20/
008970/20121109/120849/1720/100/20/
008970/20121109/120902/1720/1000/20/
008970/20121109/120929/1715/250/10/
008970/20121109/121204/1715/910/10/
008970/20121109/121221/1715/250/10/
008970/20121109/121835/1715/210/10/
008970/20121109/121836/1720/470/20/
008970/20121109/122040/1720/90/20/
008970/20121109/122058/1720/1000/20/
008970/20121109/122148/1720/3050/20/
008970/20121109/122211/1720/5560/20/
008970/20121109/122216/1720/1440/10/
008970/20121109/122223/1720/560/20/
008970/20121109/122534/1720/90/10/
008970/20121109/122535/1725/500/20/
008970/20121109/123140/1725/490/20/
008970/20121109/123151/1720/2000/10/
008970/20121109/123230/1720/500/10/
008970/20121109/123235/1720/100/20/
008970/20121109/123256/1720/200/20/
008970/20121109/123303/1725/6070/20/
008970/20121109/123521/1720/850/10/
008970/20121109/123538/1730/210/20/
008970/20121109/123604/1730/600/20/
008970/20121109/123805/1730/6220/20/
008970/20121109/123847/1730/7060/10/
008970/20121109/123902/1730/110/10/
008970/20121109/123902/1730/890/10/
008970/20121109/123918/1730/200/10/
008970/20121109/123918/1730/250/10/
008970/20121109/124041/1725/1020/10/
008970/20121109/124113/1730/110/20/
008970/20121109/124314/1725/180/10/
008970/20121109/124333/1725/440/10/
008970/20121109/124359/1725/2710/10/
008970/20121109/124640/1725/240/10/
008970/20121109/124837/1730/1870/20/
008970/20121109/124837/1730/3060/20/
008970/20121109/125012/1730/1000/20/
008970/20121109/125012/1730/970/20/
008970/20121109/125021/1730/100/20/
008970/20121109/125026/1730/100/10/
008970/20121109/125045/1730/530/10/
008970/20121109/125415/1725/500/10/
008970/20121109/125516/1725/160/10/
008970/20121109/125541/1730/1470/20/
008970/20121109/125610/1735/510/20/
008970/20121109/125638/1730/100/10/
008970/20121109/125647/1730/150/10/
008970/20121109/125701/1735/230/20/
008970/20121109/125706/1735/500/20/
008970/20121109/125710/1735/3040/20/
008970/20121109/125900/1740/170/20/
008970/20121109/125901/1740/2800/20/
008970/20121109/125946/1740/120/20/
008970/20121109/125949/1740/880/10/
008970/20121109/130010/1740/480/20/
008970/20121109/130010/1740/850/20/
008970/20121109/130016/1740/1270/20/
008970/20121109/130016/1745/5000/20/
008970/20121109/130016/1740/1260/20/
008970/20121109/130044/1740/100/20/
008970/20121109/130127/1745/1850/20/
008970/20121109/130127/1745/1280/20/
008970/20121109/130146/1745/100/20/
008970/20121109/130241/1740/110/10/
008970/20121109/130246/1740/450/10/
008970/20121109/130400/1745/620/20/
008970/20121109/130400/1745/3030/20/
008970/20121109/130401/1745/1250/20/
008970/20121109/130418/1745/220/20/
008970/20121109/130418/1745/1570/20/
008970/20121109/130453/1745/550/20/
008970/20121109/130503/1745/100/20/
008970/20121109/130625/1745/1050/20/
008970/20121109/130625/1745/9950/20/
008970/20121109/130626/1745/1250/20/
008970/20121109/130628/1750/4350/20/
008970/20121109/130636/1750/100/20/
008970/20121109/130639/1750/770/20/
008970/20121109/130641/1750/1480/20/
008970/20121109/130643/1750/110/20/
008970/20121109/130644/1750/560/20/
008970/20121109/130659/1750/150/10/
008970/20121109/130709/1750/4500/20/
008970/20121109/130710/1750/1250/10/
008970/20121109/130714/1750/5000/10/
008970/20121109/130717/1750/250/10/
008970/20121109/130722/1750/100/20/
008970/20121109/130732/1755/1010/20/
008970/20121109/130737/1750/990/10/
008970/20121109/130748/1750/1010/20/
008970/20121109/130754/1750/100/10/
008970/20121109/130825/1750/120/10/
008970/20121109/130830/1750/500/10/
008970/20121109/130905/1750/500/10/
008970/20121109/130909/1750/2620/10/
008970/20121109/131029/1745/150/10/
008970/20121109/131246/1745/820/10/
008970/20121109/131255/1750/1880/20/
008970/20121109/131430/1745/200/20/
008970/20121109/131444/1745/100/10/
008970/20121109/131455/1750/1000/20/
008970/20121109/131519/1740/230/10/
008970/20121109/131748/1740/1930/10/
008970/20121109/131748/1735/5150/10/
008970/20121109/131931/1740/90/10/
008970/20121109/132040/1740/190/10/
008970/20121109/132103/1735/1230/10/
008970/20121109/132220/1735/820/10/
008970/20121109/132313/1730/10590/10/
008970/20121109/132339/1725/200/10/
008970/20121109/132424/1725/5950/10/
008970/20121109/132431/1725/1000/20/
008970/20121109/132445/1725/250/20/
008970/20121109/132446/1725/410/20/
008970/20121109/132447/1725/500/20/
008970/20121109/132447/1725/500/20/
008970/20121109/132449/1725/440/20/
008970/20121109/132451/1720/11560/10/
008970/20121109/132452/1725/370/20/
008970/20121109/132658/1730/110/20/
008970/20121109/132658/1735/670/20/
008970/20121109/132745/1735/1830/10/
008970/20121109/132958/1735/520/20/
008970/20121109/133026/1735/200/10/
008970/20121109/133209/1735/3000/20/
008970/20121109/133335/1735/2300/20/
008970/20121109/133518/1740/510/20/
008970/20121109/133524/1740/200/20/
008970/20121109/133605/1735/2000/10/
008970/20121109/133811/1735/2760/10/
008970/20121109/133853/1740/300/20/
008970/20121109/134110/1740/580/20/
008970/20121109/134134/1735/2500/10/
008970/20121109/134144/1735/410/10/
008970/20121109/134149/1735/340/10/
008970/20121109/134440/1740/550/20/
008970/20121109/134513/1735/720/10/
008970/20121109/134628/1735/160/10/
008970/20121109/134700/1740/1010/20/
008970/20121109/134750/1740/240/20/
008970/20121109/134806/1740/760/20/
008970/20121109/134841/1740/1010/10/
008970/20121109/135048/1740/1020/20/
008970/20121109/135455/1745/3070/20/
008970/20121109/135710/1745/650/20/
008970/20121109/135747/1740/1000/20/
008970/20121109/135747/1745/4780/20/
008970/20121109/135810/1740/100/20/
008970/20121109/140017/1740/90/20/
008970/20121109/140040/1740/530/20/
008970/20121109/140124/1740/440/20/
008970/20121109/140227/1740/2250/20/
008970/20121109/140244/1740/500/10/
008970/20121109/140440/1745/370/20/
008970/20121109/140706/1740/1000/10/
008970/20121109/140739/1740/960/10/
008970/20121109/140739/1735/4550/10/
008970/20121109/140846/1735/5010/10/
008970/20121109/140900/1735/400/10/
008970/20121109/141131/1740/250/20/
008970/20121109/141150/1735/170/10/
008970/20121109/141247/1730/3000/10/
008970/20121109/141526/1735/310/20/
008970/20121109/141540/1735/200/10/
008970/20121109/141540/1730/490/10/
008970/20121109/141615/1730/1500/10/
008970/20121109/141725/1730/1000/10/
008970/20121109/141730/1730/200/10/
008970/20121109/142032/1730/7010/10/
008970/20121109/142100/1730/2060/10/
008970/20121109/142101/1730/950/20/
008970/20121109/142119/1735/460/20/
008970/20121109/142123/1730/240/10/
008970/20121109/142223/1735/160/20/
008970/20121109/142230/1730/100/10/
008970/20121109/142316/1730/2010/10/
008970/20121109/142502/1730/1870/10/
008970/20121109/142556/1730/2010/10/
008970/20121109/142756/1730/2010/10/
008970/20121109/142804/1730/8010/10/
008970/20121109/142829/1735/510/20/
008970/20121109/142833/1735/300/20/
008970/20121109/142955/1735/100/20/
008970/20121109/143032/1735/390/20/
008970/20121109/143112/1735/500/20/
008970/20121109/143133/1735/1510/20/
008970/20121109/143136/1735/1500/20/
008970/20121109/143240/1740/630/20/
008970/20121109/143300/1740/2680/20/
008970/20121109/143324/1740/10570/10/
008970/20121109/143352/1735/1310/10/
008970/20121109/143409/1735/1000/10/
008970/20121109/143420/1735/2000/10/
008970/20121109/143424/1735/9940/10/
008970/20121109/143457/1735/260/20/
008970/20121109/143704/1740/14550/20/
008970/20121109/143712/1735/500/10/
008970/20121109/143847/1735/3010/10/
008970/20121109/144026/1740/12010/20/
008970/20121109/144032/1740/6410/20/
008970/20121109/144041/1740/5000/20/
008970/20121109/144046/1740/2000/20/
008970/20121109/144046/1740/5000/20/
008970/20121109/144047/1740/140/20/
008970/20121109/144048/1740/3000/20/
008970/20121109/144050/1740/500/20/
008970/20121109/144053/1740/2000/20/
008970/20121109/144110/1740/400/20/
008970/20121109/144138/1745/1510/20/
008970/20121109/144226/1745/370/20/
008970/20121109/144240/1745/320/20/
008970/20121109/144333/1745/800/20/
008970/20121109/144349/1745/1250/20/
008970/20121109/144410/1745/310/20/
008970/20121109/144416/1745/1000/20/
008970/20121109/144417/1745/590/10/
008970/20121109/144540/1745/440/20/
008970/20121109/144647/1745/100/20/
008970/20121109/144705/1745/4710/20/
008970/20121109/144710/1750/100/20/
008970/20121109/144710/1750/650/20/
008970/20121109/144802/1750/4250/20/
008970/20121109/144808/1750/4270/20/
008970/20121109/144808/1750/1000/10/
008970/20121109/144811/1750/200/10/
008970/20121109/144811/1750/120/10/
008970/20121109/144911/1750/220/20/
008970/20121109/144912/1745/4000/10/
008970/20121109/144914/1750/1960/20/
008970/20121109/144915/1750/2000/10/
008970/20121109/144916/1750/410/10/
008970/20121109/144936/1745/1000/10/
008970/20121109/144951/1745/200/10/
008970/20121109/150000/1760/20730/20/
