008970/20130108/90000/1810/8810/10/
008970/20130108/90003/1810/6010/10/
008970/20130108/90003/1805/7230/10/
008970/20130108/90031/1805/140/10/
008970/20130108/90058/1810/1670/20/
008970/20130108/90133/1810/100/10/
008970/20130108/90134/1810/2400/20/
008970/20130108/90152/1810/550/10/
008970/20130108/90200/1810/450/20/
008970/20130108/90225/1810/250/10/
008970/20130108/90237/1810/100/10/
008970/20130108/90237/1805/1800/10/
008970/20130108/90258/1805/140/10/
008970/20130108/90333/1810/2420/20/
008970/20130108/90334/1805/400/10/
008970/20130108/90352/1810/300/20/
008970/20130108/90405/1805/3050/10/
008970/20130108/90421/1810/1500/20/
008970/20130108/90424/1810/100/20/
008970/20130108/90504/1810/130/20/
008970/20130108/90515/1810/5500/20/
008970/20130108/90517/1810/2500/20/
008970/20130108/90527/1810/1340/20/
008970/20130108/90530/1815/800/20/
008970/20130108/90552/1810/2000/10/
008970/20130108/90554/1810/1910/10/
008970/20130108/90621/1810/1560/10/
008970/20130108/90742/1810/1010/10/
008970/20130108/90915/1815/150/20/
008970/20130108/90925/1815/3000/20/
008970/20130108/90928/1815/870/20/
008970/20130108/90948/1820/1000/20/
008970/20130108/90949/1820/130/20/
008970/20130108/90957/1820/300/10/
008970/20130108/91000/1820/110/10/
008970/20130108/91002/1820/200/10/
008970/20130108/91004/1825/1000/20/
008970/20130108/91012/1825/550/20/
008970/20130108/91016/1825/500/20/
008970/20130108/91030/1825/390/20/
008970/20130108/91037/1825/200/20/
008970/20130108/91045/1820/2000/10/
008970/20130108/91055/1820/1000/10/
008970/20130108/91058/1820/1000/10/
008970/20130108/91118/1820/1210/10/
008970/20130108/91137/1820/2300/20/
008970/20130108/91143/1820/3000/20/
008970/20130108/91250/1815/1500/10/
008970/20130108/91255/1815/1000/10/
008970/20130108/91303/1820/300/20/
008970/20130108/91335/1815/200/10/
008970/20130108/91342/1820/1200/20/
008970/20130108/91358/1820/290/20/
008970/20130108/91417/1815/550/10/
008970/20130108/91420/1820/930/20/
008970/20130108/91511/1815/2390/10/
008970/20130108/91523/1815/1000/10/
008970/20130108/91531/1815/380/10/
008970/20130108/91539/1815/200/10/
008970/20130108/91547/1820/1000/20/
008970/20130108/91557/1815/1000/10/
008970/20130108/91602/1815/3380/10/
008970/20130108/91611/1815/2000/20/
008970/20130108/91634/1815/2000/20/
008970/20130108/91726/1815/110/20/
008970/20130108/91746/1810/300/10/
008970/20130108/91755/1815/1000/20/
008970/20130108/91756/1815/1000/20/
008970/20130108/91817/1815/1000/20/
008970/20130108/91835/1815/3600/20/
008970/20130108/91853/1815/210/20/
008970/20130108/91854/1810/180/10/
008970/20130108/91937/1810/4550/10/
008970/20130108/92010/1810/4000/10/
008970/20130108/92023/1810/310/10/
008970/20130108/92023/1810/1500/10/
008970/20130108/92029/1810/2000/10/
008970/20130108/92054/1815/240/20/
008970/20130108/92207/1810/1390/10/
008970/20130108/92236/1810/5410/10/
008970/20130108/92237/1810/200/10/
008970/20130108/92237/1810/120/10/
008970/20130108/92239/1810/1500/10/
008970/20130108/92247/1810/330/10/
008970/20130108/92252/1810/2500/10/
008970/20130108/92305/1810/5040/10/
008970/20130108/92310/1810/430/10/
008970/20130108/92320/1810/530/10/
008970/20130108/92340/1810/1000/20/
008970/20130108/92346/1810/1220/20/
008970/20130108/92359/1810/780/10/
008970/20130108/92403/1810/2000/20/
008970/20130108/92506/1805/520/10/
008970/20130108/92519/1810/5300/20/
008970/20130108/92520/1810/220/20/
008970/20130108/92533/1810/500/10/
008970/20130108/92543/1810/2800/10/
008970/20130108/92632/1810/1860/10/
008970/20130108/92632/1805/410/10/
008970/20130108/92652/1810/450/10/
008970/20130108/92727/1810/930/10/
008970/20130108/92841/1810/500/20/
008970/20130108/92848/1810/160/20/
008970/20130108/92855/1810/1000/20/
008970/20130108/92913/1810/1000/20/
008970/20130108/92925/1805/500/10/
008970/20130108/92928/1810/200/20/
008970/20130108/92948/1810/780/20/
008970/20130108/93155/1805/180/10/
008970/20130108/93206/1805/5000/10/
008970/20130108/93251/1805/100/10/
008970/20130108/93254/1805/3000/10/
008970/20130108/93338/1805/1000/10/
008970/20130108/93340/1805/2000/10/
008970/20130108/93411/1810/1010/20/
008970/20130108/93435/1805/4410/10/
008970/20130108/93521/1805/360/10/
008970/20130108/93558/1810/250/20/
008970/20130108/93700/1810/3000/20/
008970/20130108/93703/1810/300/20/
008970/20130108/93714/1810/500/20/
008970/20130108/93722/1805/450/10/
008970/20130108/93809/1810/5030/20/
008970/20130108/93815/1810/500/20/
008970/20130108/93821/1810/500/20/
008970/20130108/93828/1810/90/20/
008970/20130108/93841/1815/100/20/
008970/20130108/93848/1810/620/10/
008970/20130108/93906/1810/300/20/
008970/20130108/93916/1810/100/20/
008970/20130108/93921/1810/150/20/
008970/20130108/94005/1810/170/10/
008970/20130108/94027/1805/8740/10/
008970/20130108/94058/1805/330/10/
008970/20130108/94059/1810/2000/20/
008970/20130108/94101/1810/100/20/
008970/20130108/94108/1810/1100/20/
008970/20130108/94110/1810/700/20/
008970/20130108/94158/1805/5030/10/
008970/20130108/94319/1805/500/10/
008970/20130108/94342/1805/2770/10/
008970/20130108/94346/1805/720/10/
008970/20130108/94348/1805/900/10/
008970/20130108/94349/1805/800/10/
008970/20130108/94415/1805/500/10/
008970/20130108/94427/1805/1500/20/
008970/20130108/94521/1805/1330/10/
008970/20130108/94533/1805/1200/10/
008970/20130108/94602/1805/870/20/
008970/20130108/94606/1805/800/10/
008970/20130108/94607/1805/350/10/
008970/20130108/94615/1805/500/20/
008970/20130108/94616/1800/1000/10/
008970/20130108/94627/1800/520/10/
008970/20130108/94636/1805/150/20/
008970/20130108/94636/1800/3000/10/
008970/20130108/94706/1805/1940/20/
008970/20130108/94754/1805/5140/10/
008970/20130108/94815/1805/180/20/
008970/20130108/94820/1805/4490/20/
008970/20130108/94831/1805/3000/10/
008970/20130108/94840/1805/150/10/
008970/20130108/95037/1805/3330/10/
008970/20130108/95109/1805/1060/10/
008970/20130108/95142/1805/2550/10/
008970/20130108/95205/1805/500/20/
008970/20130108/95254/1805/120/20/
008970/20130108/95258/1805/1270/20/
008970/20130108/95304/1805/4490/20/
008970/20130108/95311/1810/1000/20/
008970/20130108/95338/1810/2000/20/
008970/20130108/95523/1810/220/20/
008970/20130108/95553/1810/100/20/
008970/20130108/95600/1810/10420/20/
008970/20130108/95605/1810/2000/20/
008970/20130108/95607/1810/3560/20/
008970/20130108/95614/1810/500/20/
008970/20130108/95702/1810/320/10/
008970/20130108/95717/1810/610/10/
008970/20130108/95858/1815/24970/10/
008970/20130108/95903/1815/1040/10/
008970/20130108/95940/1815/1810/20/
008970/20130108/100010/1815/120/10/
008970/20130108/100114/1815/1150/10/
008970/20130108/100255/1810/340/10/
008970/20130108/100255/1815/2000/20/
008970/20130108/100302/1815/500/20/
008970/20130108/100317/1815/100/20/
008970/20130108/100326/1815/400/20/
008970/20130108/100432/1815/1200/20/
008970/20130108/100616/1815/1000/20/
008970/20130108/100629/1810/700/10/
008970/20130108/100647/1815/1000/20/
008970/20130108/100709/1810/4740/10/
008970/20130108/100811/1810/3700/10/
008970/20130108/100949/1815/1870/20/
008970/20130108/100950/1815/2200/20/
008970/20130108/100951/1815/280/20/
008970/20130108/100952/1815/1050/20/
008970/20130108/101025/1815/600/10/
008970/20130108/101100/1820/3000/20/
008970/20130108/101118/1815/500/10/
008970/20130108/101121/1815/2850/10/
008970/20130108/101133/1815/1000/20/
008970/20130108/101136/1815/1150/20/
008970/20130108/101214/1815/1000/10/
008970/20130108/101437/1815/130/10/
008970/20130108/101437/1810/1110/10/
008970/20130108/101520/1815/110/20/
008970/20130108/101600/1810/5000/10/
008970/20130108/101606/1820/100/20/
008970/20130108/101618/1820/500/20/
008970/20130108/101654/1815/350/20/
008970/20130108/101706/1815/100/20/
008970/20130108/101730/1815/500/20/
008970/20130108/101830/1815/830/20/
008970/20130108/101845/1815/240/20/
008970/20130108/102029/1815/520/20/
008970/20130108/102031/1815/2250/20/
008970/20130108/102043/1815/100/20/
008970/20130108/102055/1815/150/20/
008970/20130108/102130/1810/32720/10/
008970/20130108/102144/1810/230/10/
008970/20130108/102220/1810/2160/10/
008970/20130108/102238/1810/2010/10/
008970/20130108/102438/1815/130/20/
008970/20130108/102702/1810/870/10/
008970/20130108/102756/1810/180/20/
008970/20130108/102824/1810/100/20/
008970/20130108/102933/1810/90/20/
008970/20130108/102947/1805/310/10/
008970/20130108/103023/1805/300/10/
008970/20130108/103107/1810/2010/20/
008970/20130108/103221/1810/700/20/
008970/20130108/103230/1805/1020/10/
008970/20130108/103447/1805/4590/10/
008970/20130108/103626/1810/1020/20/
008970/20130108/103646/1805/800/10/
008970/20130108/103655/1805/160/10/
008970/20130108/103800/1805/9000/10/
008970/20130108/103809/1810/3220/20/
008970/20130108/103829/1810/6000/20/
008970/20130108/103921/1810/7630/20/
008970/20130108/104102/1810/90/20/
008970/20130108/104118/1810/300/20/
008970/20130108/104130/1810/130/20/
008970/20130108/104144/1810/500/20/
008970/20130108/104212/1810/120/20/
008970/20130108/104222/1810/2020/20/
008970/20130108/104235/1810/1540/20/
008970/20130108/104311/1810/100/10/
008970/20130108/104352/1810/1120/10/
008970/20130108/104358/1810/450/10/
008970/20130108/104519/1810/2200/10/
008970/20130108/104717/1815/90/20/
008970/20130108/104734/1815/110/20/
008970/20130108/104737/1815/1000/20/
008970/20130108/104809/1815/100/20/
008970/20130108/104813/1815/1070/20/
008970/20130108/104919/1815/200/20/
008970/20130108/104954/1810/2040/10/
008970/20130108/104957/1815/16500/20/
008970/20130108/105055/1815/500/20/
008970/20130108/105156/1810/1570/10/
008970/20130108/105240/1810/7300/10/
008970/20130108/105253/1810/130/10/
008970/20130108/105257/1810/1300/10/
008970/20130108/105416/1815/7140/20/
008970/20130108/105428/1815/30000/20/
008970/20130108/105506/1815/1000/20/
008970/20130108/105706/1815/15620/10/
008970/20130108/105733/1815/4020/10/
008970/20130108/105808/1815/1500/10/
008970/20130108/105816/1815/550/10/
008970/20130108/105821/1815/580/10/
008970/20130108/105858/1815/100/20/
008970/20130108/105905/1815/500/20/
008970/20130108/105917/1815/300/20/
008970/20130108/105925/1815/200/20/
008970/20130108/105933/1815/200/20/
008970/20130108/110102/1815/560/10/
008970/20130108/110139/1815/200/10/
008970/20130108/110205/1815/1010/10/
008970/20130108/110302/1815/150/10/
008970/20130108/110310/1815/190/10/
008970/20130108/110356/1815/570/10/
008970/20130108/110412/1815/1000/10/
008970/20130108/110427/1815/6400/10/
008970/20130108/110440/1815/2000/10/
008970/20130108/110451/1815/200/10/
008970/20130108/110453/1815/2000/10/
008970/20130108/110455/1815/1000/10/
008970/20130108/110502/1815/700/10/
008970/20130108/110530/1815/1000/10/
008970/20130108/110553/1815/4950/10/
008970/20130108/110649/1810/210/10/
008970/20130108/110722/1810/870/10/
008970/20130108/110730/1815/500/20/
008970/20130108/110856/1810/200/10/
008970/20130108/110949/1810/90/10/
008970/20130108/111022/1810/1540/10/
008970/20130108/111623/1810/2040/10/
008970/20130108/111700/1810/1000/10/
008970/20130108/111755/1810/90/10/
008970/20130108/111833/1815/1000/20/
008970/20130108/111918/1815/690/20/
008970/20130108/112025/1815/4610/20/
008970/20130108/112030/1815/550/20/
008970/20130108/112046/1815/1240/20/
008970/20130108/112056/1815/1250/20/
008970/20130108/112105/1815/1010/20/
008970/20130108/112108/1815/610/20/
008970/20130108/112240/1815/330/20/
008970/20130108/112254/1815/340/20/
008970/20130108/112354/1815/1010/20/
008970/20130108/112433/1815/1010/20/
008970/20130108/112503/1815/1000/20/
008970/20130108/112619/1810/5300/10/
008970/20130108/112804/1810/19000/10/
008970/20130108/112850/1810/1000/10/
008970/20130108/113157/1810/1010/10/
008970/20130108/113234/1810/700/10/
008970/20130108/113257/1810/3000/10/
008970/20130108/113307/1810/100/10/
008970/20130108/113339/1810/200/10/
008970/20130108/113405/1810/1000/10/
008970/20130108/113449/1810/900/10/
008970/20130108/113531/1810/10020/10/
008970/20130108/113545/1810/1840/10/
008970/20130108/113550/1810/200/10/
008970/20130108/113551/1810/5500/10/
008970/20130108/113555/1810/110/10/
008970/20130108/113558/1810/500/10/
008970/20130108/113610/1810/110/10/
008970/20130108/113728/1810/500/10/
008970/20130108/113738/1810/20000/10/
008970/20130108/113828/1810/1000/10/
008970/20130108/113856/1810/430/10/
008970/20130108/113910/1815/100/20/
008970/20130108/113919/1810/830/10/
008970/20130108/113922/1810/3500/10/
008970/20130108/113949/1810/20000/10/
008970/20130108/114100/1810/10000/10/
008970/20130108/114140/1815/350/20/
008970/20130108/114153/1810/1500/10/
008970/20130108/114551/1815/160/20/
008970/20130108/114757/1810/8080/10/
008970/20130108/114814/1810/10420/10/
008970/20130108/114821/1810/6280/10/
008970/20130108/114829/1810/780/10/
008970/20130108/114831/1810/170/20/
008970/20130108/114912/1810/10010/10/
008970/20130108/114922/1810/3000/10/
008970/20130108/115224/1810/7320/10/
008970/20130108/115336/1810/100/20/
008970/20130108/115509/1810/500/20/
008970/20130108/115700/1810/250/20/
008970/20130108/115708/1810/7380/20/
008970/20130108/115801/1810/5000/10/
008970/20130108/115830/1810/4000/10/
008970/20130108/115848/1810/700/10/
008970/20130108/115855/1810/19420/10/
008970/20130108/115921/1810/140/20/
008970/20130108/115942/1810/100/20/
008970/20130108/120058/1810/100/20/
008970/20130108/120408/1810/1000/20/
008970/20130108/120454/1810/5640/20/
008970/20130108/120515/1810/5000/20/
008970/20130108/120518/1810/1500/20/
008970/20130108/120539/1810/1520/10/
008970/20130108/120553/1810/770/20/
008970/20130108/120610/1810/2710/20/
008970/20130108/120613/1810/190/10/
008970/20130108/120620/1810/300/10/
008970/20130108/120632/1810/140/20/
008970/20130108/120641/1810/440/20/
008970/20130108/120800/1810/1500/20/
008970/20130108/120807/1810/100/20/
008970/20130108/120900/1810/4000/20/
008970/20130108/120917/1810/4000/20/
008970/20130108/120929/1810/590/20/
008970/20130108/120935/1810/1750/20/
008970/20130108/120941/1810/380/20/
008970/20130108/120945/1810/550/20/
008970/20130108/120956/1810/1360/20/
008970/20130108/120959/1810/2060/20/
008970/20130108/121246/1810/4130/10/
008970/20130108/121334/1810/810/10/
008970/20130108/121639/1810/2400/10/
008970/20130108/122052/1815/140/20/
008970/20130108/122313/1815/120/20/
008970/20130108/122316/1810/440/10/
008970/20130108/122748/1810/600/10/
008970/20130108/122919/1810/3120/10/
008970/20130108/122927/1810/4000/10/
008970/20130108/122945/1810/6000/10/
008970/20130108/123020/1810/2250/10/
008970/20130108/123050/1810/4730/10/
008970/20130108/123052/1810/4500/10/
008970/20130108/123109/1810/5360/10/
008970/20130108/123119/1810/1000/20/
008970/20130108/123137/1810/550/20/
008970/20130108/123402/1810/870/20/
008970/20130108/123404/1810/7580/20/
008970/20130108/123405/1810/250/10/
008970/20130108/123405/1810/170/10/
008970/20130108/123408/1810/320/20/
008970/20130108/123409/1810/230/10/
008970/20130108/123409/1810/230/10/
008970/20130108/123410/1810/210/10/
008970/20130108/123410/1810/210/10/
008970/20130108/123411/1810/200/10/
008970/20130108/123411/1810/200/10/
008970/20130108/123411/1810/200/10/
008970/20130108/123411/1810/200/10/
008970/20130108/123411/1810/170/10/
008970/20130108/123605/1810/290/10/
008970/20130108/123702/1810/2000/10/
008970/20130108/123717/1810/170/10/
008970/20130108/124015/1815/5000/20/
008970/20130108/124556/1810/1310/10/
008970/20130108/124714/1810/410/10/
008970/20130108/124723/1810/10000/10/
008970/20130108/124818/1810/24060/10/
008970/20130108/125100/1810/3020/20/
008970/20130108/125107/1810/8920/20/
008970/20130108/125112/1810/970/10/
008970/20130108/125210/1810/1000/10/
008970/20130108/125236/1810/980/10/
008970/20130108/125243/1810/10000/10/
008970/20130108/125329/1810/4000/10/
008970/20130108/125410/1810/90/10/
008970/20130108/125426/1810/100/10/
008970/20130108/125459/1810/3430/10/
008970/20130108/125515/1810/500/10/
008970/20130108/125517/1810/100/10/
008970/20130108/125519/1810/100/10/
008970/20130108/125538/1810/140/10/
008970/20130108/125641/1810/110/10/
008970/20130108/125844/1815/710/20/
008970/20130108/125850/1810/500/10/
008970/20130108/125918/1810/380/10/
008970/20130108/125918/1810/13000/10/
008970/20130108/125955/1810/200/10/
008970/20130108/130042/1810/8950/10/
008970/20130108/130114/1810/300/10/
008970/20130108/130209/1810/100/10/
008970/20130108/130213/1810/2000/10/
008970/20130108/130257/1810/910/10/
008970/20130108/130345/1815/110/20/
008970/20130108/130704/1815/180/20/
008970/20130108/130856/1810/220/10/
008970/20130108/131136/1810/420/10/
008970/20130108/131142/1810/1800/10/
008970/20130108/131240/1810/220/10/
008970/20130108/131433/1810/1000/10/
008970/20130108/131500/1810/200/10/
008970/20130108/131527/1815/1000/20/
008970/20130108/131546/1815/100/20/
008970/20130108/131718/1815/520/20/
008970/20130108/131850/1810/100/10/
008970/20130108/132020/1810/390/10/
008970/20130108/132022/1810/100/10/
008970/20130108/132247/1810/1010/10/
008970/20130108/132342/1810/690/10/
008970/20130108/132352/1810/12900/10/
008970/20130108/132406/1810/1000/10/
008970/20130108/132418/1810/2660/10/
008970/20130108/132433/1810/13000/10/
008970/20130108/132456/1810/1150/10/
008970/20130108/132521/1810/200/10/
008970/20130108/132554/1810/100/20/
008970/20130108/132621/1810/7880/20/
008970/20130108/132725/1810/1000/10/
008970/20130108/132759/1810/15000/10/
008970/20130108/132903/1810/200/10/
008970/20130108/133015/1815/49230/20/
008970/20130108/133016/1815/240/10/
008970/20130108/133016/1815/240/10/
008970/20130108/133017/1815/220/10/
008970/20130108/133055/1815/580/20/
008970/20130108/133055/1815/100/20/
008970/20130108/133055/1815/170/10/
008970/20130108/133055/1815/170/10/
008970/20130108/133406/1815/1560/20/
008970/20130108/133424/1815/5000/20/
008970/20130108/133512/1815/1030/20/
008970/20130108/133516/1815/240/20/
008970/20130108/133520/1815/1090/20/
008970/20130108/133530/1815/1880/20/
008970/20130108/133536/1815/500/10/
008970/20130108/133550/1815/120/10/
008970/20130108/133552/1815/380/10/
008970/20130108/133607/1815/600/10/
008970/20130108/133638/1815/2010/10/
008970/20130108/133706/1815/100/10/
008970/20130108/133728/1815/100/10/
008970/20130108/133758/1815/520/10/
008970/20130108/133822/1815/530/10/
008970/20130108/133830/1815/500/10/
008970/20130108/133849/1815/6320/10/
008970/20130108/133850/1815/3200/20/
008970/20130108/133850/1820/11070/20/
008970/20130108/133916/1820/10060/20/
008970/20130108/133946/1820/15780/20/
008970/20130108/134104/1825/8310/20/
008970/20130108/134108/1820/910/10/
008970/20130108/134120/1820/3000/10/
008970/20130108/134136/1820/5020/10/
008970/20130108/134139/1820/300/10/
008970/20130108/134143/1820/310/10/
008970/20130108/134143/1820/1500/10/
008970/20130108/134144/1820/90/10/
008970/20130108/134146/1825/120/20/
008970/20130108/134217/1820/1150/10/
008970/20130108/134228/1820/1010/10/
008970/20130108/134232/1820/520/10/
008970/20130108/134238/1820/1720/10/
008970/20130108/134245/1820/520/10/
008970/20130108/134326/1825/600/20/
008970/20130108/134335/1820/20460/10/
008970/20130108/134347/1820/7610/20/
008970/20130108/134347/1820/1000/10/
008970/20130108/134356/1820/210/10/
008970/20130108/134401/1820/110/10/
008970/20130108/134439/1825/3020/20/
008970/20130108/134456/1825/3000/20/
008970/20130108/134550/1820/1010/10/
008970/20130108/134558/1820/150/10/
008970/20130108/134615/1820/1000/10/
008970/20130108/134632/1820/900/10/
008970/20130108/134649/1820/540/10/
008970/20130108/134657/1820/710/10/
008970/20130108/134658/1820/1150/10/
008970/20130108/134658/1820/100/10/
008970/20130108/134701/1820/900/10/
008970/20130108/134703/1820/8820/10/
008970/20130108/134723/1815/500/10/
008970/20130108/134811/1815/120/10/
008970/20130108/135056/1815/110/10/
008970/20130108/135231/1820/510/20/
008970/20130108/135232/1820/100/20/
008970/20130108/135311/1820/1800/20/
008970/20130108/135319/1820/100/20/
008970/20130108/135341/1820/1000/20/
008970/20130108/135343/1820/230/20/
008970/20130108/135347/1820/2000/20/
008970/20130108/135348/1820/16040/20/
008970/20130108/135351/1820/2000/10/
008970/20130108/135354/1820/410/10/
008970/20130108/135418/1820/500/10/
008970/20130108/135424/1820/1040/10/
008970/20130108/135430/1820/500/10/
008970/20130108/135431/1820/520/10/
008970/20130108/135450/1820/250/20/
008970/20130108/135459/1820/1510/20/
008970/20130108/135519/1820/500/10/
008970/20130108/135519/1825/1000/20/
008970/20130108/135520/1820/570/10/
008970/20130108/135559/1820/510/10/
008970/20130108/135603/1820/3000/10/
008970/20130108/135605/1820/500/10/
008970/20130108/135622/1820/1020/10/
008970/20130108/135622/1820/690/10/
008970/20130108/135646/1815/1010/10/
008970/20130108/135712/1820/1000/20/
008970/20130108/135740/1820/1000/20/
008970/20130108/135754/1820/670/20/
008970/20130108/135756/1825/700/20/
008970/20130108/135910/1820/200/10/
008970/20130108/135941/1820/100/10/
008970/20130108/140020/1820/7000/10/
008970/20130108/140033/1820/5000/10/
008970/20130108/140035/1820/1000/10/
008970/20130108/140040/1820/1810/10/
008970/20130108/140106/1820/480/20/
008970/20130108/140206/1820/610/20/
008970/20130108/140220/1820/300/20/
008970/20130108/140224/1820/500/20/
008970/20130108/140311/1820/330/20/
008970/20130108/140318/1820/330/20/
008970/20130108/140404/1820/2540/20/
008970/20130108/140408/1820/740/20/
008970/20130108/140413/1820/300/20/
008970/20130108/140417/1820/1000/20/
008970/20130108/140426/1820/200/20/
008970/20130108/140428/1820/260/20/
008970/20130108/140459/1820/850/10/
008970/20130108/140459/1815/5150/10/
008970/20130108/140603/1820/360/20/
008970/20130108/140626/1825/510/20/
008970/20130108/140734/1820/200/10/
008970/20130108/140742/1820/1710/20/
008970/20130108/140753/1820/1000/10/
008970/20130108/140756/1820/600/10/
008970/20130108/140817/1815/400/10/
008970/20130108/140907/1815/990/10/
008970/20130108/140918/1815/4780/10/
008970/20130108/141030/1820/1000/20/
008970/20130108/141200/1820/1410/20/
008970/20130108/141209/1820/790/10/
008970/20130108/141336/1815/1000/10/
008970/20130108/141505/1815/2000/10/
008970/20130108/141509/1815/1000/10/
008970/20130108/141513/1815/2000/10/
008970/20130108/141719/1815/3000/10/
008970/20130108/141735/1815/13030/10/
008970/20130108/141757/1815/210/10/
008970/20130108/141807/1815/10010/10/
008970/20130108/141818/1815/2000/10/
008970/20130108/141833/1815/1000/10/
008970/20130108/141859/1815/500/10/
008970/20130108/141906/1815/2970/10/
008970/20130108/141930/1815/10020/10/
008970/20130108/141943/1815/3000/10/
008970/20130108/142019/1815/610/10/
008970/20130108/142057/1815/5060/10/
008970/20130108/142211/1815/1000/10/
008970/20130108/142222/1815/5050/10/
008970/20130108/142224/1815/1920/10/
008970/20130108/142234/1815/1720/10/
008970/20130108/142313/1815/150/20/
008970/20130108/142342/1815/1050/20/
008970/20130108/142423/1815/900/20/
008970/20130108/142544/1810/550/10/
008970/20130108/142556/1810/5710/10/
008970/20130108/142559/1810/16100/10/
008970/20130108/142633/1810/8000/10/
008970/20130108/142708/1815/110/20/
008970/20130108/142728/1815/340/20/
008970/20130108/142734/1815/100/20/
008970/20130108/142739/1815/1000/20/
008970/20130108/142754/1815/3000/20/
008970/20130108/142758/1815/230/20/
008970/20130108/142817/1815/2810/10/
008970/20130108/142835/1815/700/20/
008970/20130108/142848/1815/1000/20/
008970/20130108/142857/1815/500/20/
008970/20130108/142913/1815/1000/20/
008970/20130108/142918/1815/500/20/
008970/20130108/142942/1815/5000/20/
008970/20130108/142943/1815/1000/20/
008970/20130108/142956/1815/310/20/
008970/20130108/143004/1815/410/20/
008970/20130108/143144/1815/520/10/
008970/20130108/143234/1815/110/10/
008970/20130108/143249/1815/1020/10/
008970/20130108/143257/1815/1030/10/
008970/20130108/143322/1815/2510/10/
008970/20130108/143409/1815/330/10/
008970/20130108/143413/1815/170/10/
008970/20130108/143415/1815/160/10/
008970/20130108/143422/1815/200/10/
008970/20130108/143425/1815/2780/10/
008970/20130108/143507/1815/3020/20/
008970/20130108/143519/1815/2180/10/
008970/20130108/143536/1815/100/20/
008970/20130108/143624/1815/5010/20/
008970/20130108/143629/1815/1890/20/
008970/20130108/143641/1815/740/10/
008970/20130108/143727/1815/4260/20/
008970/20130108/143740/1815/740/10/
008970/20130108/143740/1815/1000/20/
008970/20130108/143804/1815/400/20/
008970/20130108/143855/1810/100/10/
008970/20130108/143913/1810/100/10/
008970/20130108/143929/1815/5000/20/
008970/20130108/143944/1815/500/20/
008970/20130108/144020/1815/630/20/
008970/20130108/144102/1815/3670/20/
008970/20130108/144107/1815/1390/10/
008970/20130108/144141/1810/220/10/
008970/20130108/144156/1815/3000/20/
008970/20130108/144311/1815/6630/20/
008970/20130108/144314/1815/13100/10/
008970/20130108/144322/1815/270/10/
008970/20130108/144416/1815/5010/20/
008970/20130108/144422/1815/500/20/
008970/20130108/144449/1815/15020/20/
008970/20130108/144458/1815/1920/10/
008970/20130108/144517/1810/1000/10/
008970/20130108/144558/1815/5010/20/
008970/20130108/144605/1815/10960/20/
008970/20130108/144614/1815/150/20/
008970/20130108/144632/1815/600/20/
008970/20130108/144723/1815/1880/20/
008970/20130108/144733/1815/5010/20/
008970/20130108/144734/1815/8000/20/
008970/20130108/144740/1815/490/20/
008970/20130108/144746/1815/1010/20/
008970/20130108/144749/1815/3000/20/
008970/20130108/144822/1810/16500/10/
008970/20130108/144849/1810/20000/10/
008970/20130108/144915/1810/250/10/
008970/20130108/144924/1810/540/10/
008970/20130108/144939/1815/11000/20/
008970/20130108/144943/1815/1850/20/
008970/20130108/144947/1815/5000/20/
008970/20130108/150000/1820/61290/20/
