008970/20121217/90000/1650/19770/20/
008970/20121217/90002/1645/4100/10/
008970/20121217/90003/1650/2500/20/
008970/20121217/90009/1650/380/20/
008970/20121217/90011/1650/300/20/
008970/20121217/90034/1645/2010/10/
008970/20121217/90049/1645/200/10/
008970/20121217/90106/1645/100/20/
008970/20121217/90106/1640/2350/10/
008970/20121217/90119/1640/1000/10/
008970/20121217/90122/1640/3710/10/
008970/20121217/90124/1640/250/10/
008970/20121217/90125/1640/1000/10/
008970/20121217/90150/1640/3000/10/
008970/20121217/90157/1640/660/10/
008970/20121217/90157/1635/7880/10/
008970/20121217/90157/1630/3460/10/
008970/20121217/90221/1635/700/10/
008970/20121217/90225/1635/2300/20/
008970/20121217/90306/1640/500/20/
008970/20121217/90315/1640/1500/20/
008970/20121217/90325/1640/1520/10/
008970/20121217/90414/1640/100/20/
008970/20121217/90429/1635/160/10/
008970/20121217/90437/1635/500/10/
008970/20121217/90444/1640/1200/20/
008970/20121217/90448/1640/1000/20/
008970/20121217/90451/1640/500/20/
008970/20121217/90454/1640/1000/20/
008970/20121217/90504/1640/150/20/
008970/20121217/90527/1640/500/20/
008970/20121217/90530/1640/500/20/
008970/20121217/90531/1640/600/20/
008970/20121217/90535/1640/300/20/
008970/20121217/90541/1640/500/20/
008970/20121217/90541/1640/360/20/
008970/20121217/90619/1640/100/10/
008970/20121217/90642/1640/1000/10/
008970/20121217/90709/1640/100/10/
008970/20121217/90711/1640/3000/10/
008970/20121217/90713/1645/1000/20/
008970/20121217/90735/1640/1100/10/
008970/20121217/90757/1645/570/20/
008970/20121217/90847/1640/8570/10/
008970/20121217/90902/1640/400/20/
008970/20121217/90913/1640/4550/20/
008970/20121217/90915/1640/450/10/
008970/20121217/91027/1640/550/10/
008970/20121217/91033/1640/2050/10/
008970/20121217/91105/1640/1500/10/
008970/20121217/91121/1640/3000/10/
008970/20121217/91141/1640/2000/10/
008970/20121217/91155/1640/500/10/
008970/20121217/91200/1640/5000/10/
008970/20121217/91208/1640/510/10/
008970/20121217/91355/1640/100/20/
008970/20121217/91450/1640/1710/10/
008970/20121217/91625/1640/800/10/
008970/20121217/91648/1645/310/20/
008970/20121217/91806/1645/2900/20/
008970/20121217/91807/1645/3260/20/
008970/20121217/91808/1645/2880/20/
008970/20121217/91808/1645/2720/20/
008970/20121217/91809/1650/3000/20/
008970/20121217/91816/1650/2000/20/
008970/20121217/91820/1650/3140/20/
008970/20121217/91820/1655/5860/20/
008970/20121217/91852/1655/200/20/
008970/20121217/91913/1655/100/20/
008970/20121217/91930/1655/310/20/
008970/20121217/92020/1650/120/10/
008970/20121217/92021/1650/300/10/
008970/20121217/92108/1650/8270/10/
008970/20121217/92134/1650/510/10/
008970/20121217/92149/1655/490/20/
008970/20121217/92155/1655/100/20/
008970/20121217/92256/1650/5000/10/
008970/20121217/92307/1650/100/10/
008970/20121217/92309/1650/200/10/
008970/20121217/92310/1650/5000/10/
008970/20121217/92311/1650/100/10/
008970/20121217/92315/1650/1150/10/
008970/20121217/92344/1650/1350/20/
008970/20121217/92353/1650/100/10/
008970/20121217/92355/1655/100/20/
008970/20121217/92356/1650/1550/10/
008970/20121217/92407/1650/110/20/
008970/20121217/92408/1650/1000/20/
008970/20121217/92413/1650/440/20/
008970/20121217/92454/1650/2940/10/
008970/20121217/92502/1650/620/10/
008970/20121217/92525/1650/1050/20/
008970/20121217/92707/1650/170/20/
008970/20121217/92713/1645/2000/10/
008970/20121217/92722/1645/490/10/
008970/20121217/92739/1650/1160/20/
008970/20121217/92819/1650/400/20/
008970/20121217/92849/1645/3000/10/
008970/20121217/92855/1645/680/10/
008970/20121217/92902/1650/300/20/
008970/20121217/92943/1645/110/10/
008970/20121217/93011/1645/5000/10/
008970/20121217/93036/1645/5000/10/
008970/20121217/93142/1650/5050/20/
008970/20121217/93151/1650/190/20/
008970/20121217/93209/1650/300/20/
008970/20121217/93217/1645/1000/10/
008970/20121217/93220/1650/1810/20/
008970/20121217/93221/1650/2200/20/
008970/20121217/93323/1650/570/10/
008970/20121217/93343/1650/310/10/
008970/20121217/93428/1650/3370/10/
008970/20121217/93440/1650/2000/10/
008970/20121217/93449/1650/590/10/
008970/20121217/93512/1650/2000/20/
008970/20121217/93513/1650/2500/20/
008970/20121217/93518/1650/720/20/
008970/20121217/93527/1650/350/10/
008970/20121217/93703/1650/1740/10/
008970/20121217/93707/1650/10130/10/
008970/20121217/93821/1650/500/20/
008970/20121217/93848/1650/300/20/
008970/20121217/93930/1650/4020/20/
008970/20121217/93953/1645/4000/10/
008970/20121217/94014/1645/1050/10/
008970/20121217/94025/1645/500/10/
008970/20121217/94115/1645/160/10/
008970/20121217/94134/1645/1020/10/
008970/20121217/94245/1645/670/10/
008970/20121217/94253/1645/550/10/
008970/20121217/94256/1645/2000/10/
008970/20121217/94259/1645/550/10/
008970/20121217/94330/1645/150/10/
008970/20121217/94352/1650/600/20/
008970/20121217/94523/1645/200/10/
008970/20121217/94548/1645/200/10/
008970/20121217/94605/1645/4560/10/
008970/20121217/94605/1650/300/20/
008970/20121217/94617/1645/90/10/
008970/20121217/94715/1650/180/20/
008970/20121217/94729/1645/1000/10/
008970/20121217/94750/1650/500/20/
008970/20121217/94819/1645/100/10/
008970/20121217/94921/1645/200/10/
008970/20121217/94923/1650/270/20/
008970/20121217/95136/1650/90/20/
008970/20121217/95208/1650/1030/20/
008970/20121217/95253/1645/1660/10/
008970/20121217/95317/1645/360/10/
008970/20121217/95343/1650/2040/20/
008970/20121217/95417/1650/360/20/
008970/20121217/95431/1650/110/20/
008970/20121217/95433/1650/100/20/
008970/20121217/95520/1650/990/20/
008970/20121217/95531/1650/120/20/
008970/20121217/95541/1645/1060/10/
008970/20121217/95546/1650/100/20/
008970/20121217/95623/1650/630/20/
008970/20121217/95651/1650/5030/20/
008970/20121217/95707/1650/130/20/
008970/20121217/95721/1650/1010/20/
008970/20121217/95724/1650/2000/20/
008970/20121217/95745/1650/5710/20/
008970/20121217/95747/1650/3760/20/
008970/20121217/95752/1650/110/20/
008970/20121217/95753/1650/1000/20/
008970/20121217/95754/1650/840/20/
008970/20121217/95759/1650/100/10/
008970/20121217/95829/1655/1030/20/
008970/20121217/95851/1655/5020/20/
008970/20121217/95857/1655/2900/20/
008970/20121217/95918/1655/1620/20/
008970/20121217/95935/1655/210/20/
008970/20121217/95935/1655/500/20/
008970/20121217/95937/1655/2100/20/
008970/20121217/95950/1655/660/20/
008970/20121217/95955/1655/130/20/
008970/20121217/95957/1655/1000/20/
008970/20121217/95958/1655/13350/20/
008970/20121217/100020/1655/310/10/
008970/20121217/100036/1655/1010/10/
008970/20121217/100046/1660/90/20/
008970/20121217/100053/1660/420/20/
008970/20121217/100102/1660/500/20/
008970/20121217/100106/1660/1590/20/
008970/20121217/100132/1660/310/20/
008970/20121217/100133/1660/190/20/
008970/20121217/100136/1660/600/20/
008970/20121217/100138/1660/110/20/
008970/20121217/100142/1660/10320/20/
008970/20121217/100142/1660/6000/20/
008970/20121217/100144/1660/2670/20/
008970/20121217/100152/1660/160/10/
008970/20121217/100217/1665/90/20/
008970/20121217/100240/1660/130/10/
008970/20121217/100249/1665/5000/20/
008970/20121217/100251/1665/600/20/
008970/20121217/100254/1665/5050/20/
008970/20121217/100257/1665/2000/20/
008970/20121217/100259/1665/1060/20/
008970/20121217/100301/1665/2020/20/
008970/20121217/100307/1665/530/10/
008970/20121217/100329/1670/130/20/
008970/20121217/100339/1670/6000/20/
008970/20121217/100339/1670/3000/20/
008970/20121217/100340/1670/250/20/
008970/20121217/100341/1670/180/20/
008970/20121217/100341/1670/100/20/
008970/20121217/100341/1670/100/20/
008970/20121217/100343/1670/1020/20/
008970/20121217/100344/1670/2000/20/
008970/20121217/100347/1670/120/10/
008970/20121217/100349/1670/990/10/
008970/20121217/100349/1670/710/20/
008970/20121217/100353/1670/1550/20/
008970/20121217/100353/1670/100/20/
008970/20121217/100354/1670/1690/20/
008970/20121217/100356/1675/2820/20/
008970/20121217/100359/1675/110/20/
008970/20121217/100400/1675/170/20/
008970/20121217/100401/1675/500/20/
008970/20121217/100402/1675/380/20/
008970/20121217/100402/1675/590/20/
008970/20121217/100402/1675/200/20/
008970/20121217/100402/1675/310/20/
008970/20121217/100403/1675/1000/20/
008970/20121217/100403/1675/730/20/
008970/20121217/100404/1675/100/20/
008970/20121217/100404/1675/300/20/
008970/20121217/100404/1675/100/20/
008970/20121217/100404/1675/1000/20/
008970/20121217/100405/1675/500/20/
008970/20121217/100405/1675/200/20/
008970/20121217/100405/1675/190/20/
008970/20121217/100406/1675/1000/20/
008970/20121217/100407/1675/2000/20/
008970/20121217/100407/1675/1000/20/
008970/20121217/100408/1675/500/20/
008970/20121217/100409/1675/110/20/
008970/20121217/100409/1675/100/20/
008970/20121217/100410/1675/1030/20/
008970/20121217/100410/1675/90/20/
008970/20121217/100411/1675/490/20/
008970/20121217/100412/1675/110/20/
008970/20121217/100413/1675/1000/20/
008970/20121217/100413/1675/300/20/
008970/20121217/100414/1675/520/20/
008970/20121217/100415/1675/200/20/
008970/20121217/100415/1675/100/20/
008970/20121217/100415/1675/480/20/
008970/20121217/100416/1675/1000/20/
008970/20121217/100416/1675/1150/20/
008970/20121217/100417/1675/90/20/
008970/20121217/100418/1675/500/20/
008970/20121217/100420/1675/1100/20/
008970/20121217/100423/1675/100/10/
008970/20121217/100426/1680/370/20/
008970/20121217/100426/1680/200/20/
008970/20121217/100427/1680/130/20/
008970/20121217/100428/1680/100/20/
008970/20121217/100432/1680/100/20/
008970/20121217/100432/1680/100/20/
008970/20121217/100433/1680/100/20/
008970/20121217/100433/1680/100/20/
008970/20121217/100433/1680/100/20/
008970/20121217/100433/1680/100/20/
008970/20121217/100435/1680/110/20/
008970/20121217/100435/1680/200/20/
008970/20121217/100436/1680/7140/20/
008970/20121217/100437/1680/100/20/
008970/20121217/100438/1680/1810/20/
008970/20121217/100439/1680/100/20/
008970/20121217/100440/1680/1720/20/
008970/20121217/100440/1680/760/20/
008970/20121217/100440/1680/180/20/
008970/20121217/100440/1680/2150/20/
008970/20121217/100443/1680/90/20/
008970/20121217/100444/1680/100/20/
008970/20121217/100445/1680/100/20/
008970/20121217/100445/1680/1820/20/
008970/20121217/100446/1680/100/20/
008970/20121217/100446/1680/1000/20/
008970/20121217/100447/1680/120/20/
008970/20121217/100447/1680/12390/20/
008970/20121217/100450/1685/390/20/
008970/20121217/100450/1685/500/20/
008970/20121217/100452/1685/2000/20/
008970/20121217/100453/1680/1000/10/
008970/20121217/100453/1685/100/20/
008970/20121217/100454/1685/290/20/
008970/20121217/100454/1685/580/20/
008970/20121217/100455/1680/200/10/
008970/20121217/100456/1680/300/10/
008970/20121217/100456/1685/100/20/
008970/20121217/100459/1685/400/20/
008970/20121217/100502/1685/600/20/
008970/20121217/100503/1685/500/20/
008970/20121217/100504/1685/430/20/
008970/20121217/100504/1685/8820/20/
008970/20121217/100505/1685/100/20/
008970/20121217/100507/1685/190/20/
008970/20121217/100508/1685/460/20/
008970/20121217/100510/1685/1060/20/
008970/20121217/100511/1685/1000/20/
008970/20121217/100513/1685/120/20/
008970/20121217/100513/1685/530/20/
008970/20121217/100515/1685/5000/20/
008970/20121217/100516/1685/500/20/
008970/20121217/100516/1685/1000/20/
008970/20121217/100517/1685/670/20/
008970/20121217/100522/1685/1010/20/
008970/20121217/100523/1685/260/20/
008970/20121217/100524/1685/630/20/
008970/20121217/100524/1685/7000/20/
008970/20121217/100526/1685/130/20/
008970/20121217/100527/1685/2490/20/
008970/20121217/100527/1685/190/20/
008970/20121217/100530/1685/100/20/
008970/20121217/100533/1685/160/20/
008970/20121217/100533/1685/1470/20/
008970/20121217/100536/1680/400/10/
008970/20121217/100537/1685/1290/20/
008970/20121217/100537/1685/100/20/
008970/20121217/100538/1680/2820/10/
008970/20121217/100539/1680/3000/10/
008970/20121217/100540/1680/6000/10/
008970/20121217/100541/1680/350/10/
008970/20121217/100541/1680/740/10/
008970/20121217/100541/1680/970/10/
008970/20121217/100544/1680/160/20/
008970/20121217/100544/1680/90/20/
008970/20121217/100548/1680/3060/20/
008970/20121217/100551/1680/100/20/
008970/20121217/100551/1680/100/20/
008970/20121217/100552/1680/790/20/
008970/20121217/100552/1680/400/20/
008970/20121217/100553/1680/100/20/
008970/20121217/100556/1680/450/20/
008970/20121217/100557/1675/1400/10/
008970/20121217/100601/1675/500/10/
008970/20121217/100607/1675/310/10/
008970/20121217/100607/1675/300/10/
008970/20121217/100608/1675/100/10/
008970/20121217/100611/1680/2000/20/
008970/20121217/100619/1680/300/20/
008970/20121217/100625/1680/500/20/
008970/20121217/100627/1680/100/20/
008970/20121217/100632/1680/300/20/
008970/20121217/100640/1675/1020/10/
008970/20121217/100640/1680/200/20/
008970/20121217/100651/1680/740/20/
008970/20121217/100653/1680/1150/20/
008970/20121217/100655/1680/1500/20/
008970/20121217/100659/1680/500/20/
008970/20121217/100700/1680/280/20/
008970/20121217/100707/1680/500/20/
008970/20121217/100710/1680/500/20/
008970/20121217/100710/1680/2000/20/
008970/20121217/100711/1675/300/10/
008970/20121217/100714/1680/2010/20/
008970/20121217/100716/1680/520/20/
008970/20121217/100717/1680/3100/20/
008970/20121217/100719/1680/300/20/
008970/20121217/100724/1675/1430/10/
008970/20121217/100747/1675/810/10/
008970/20121217/100753/1675/310/10/
008970/20121217/100803/1675/12290/10/
008970/20121217/100804/1675/600/10/
008970/20121217/100804/1675/500/10/
008970/20121217/100804/1675/410/10/
008970/20121217/100805/1675/210/10/
008970/20121217/100805/1675/2590/10/
008970/20121217/100806/1675/3290/10/
008970/20121217/100806/1675/160/10/
008970/20121217/100806/1675/1010/10/
008970/20121217/100818/1675/590/20/
008970/20121217/100828/1675/970/20/
008970/20121217/100841/1675/300/20/
008970/20121217/100846/1670/14000/10/
008970/20121217/100851/1675/500/20/
008970/20121217/100852/1670/8700/10/
008970/20121217/100858/1670/5000/10/
008970/20121217/100859/1670/6400/10/
008970/20121217/100900/1665/1840/10/
008970/20121217/100901/1670/100/20/
008970/20121217/100902/1670/100/20/
008970/20121217/100920/1670/580/20/
008970/20121217/100948/1670/100/20/
008970/20121217/100951/1670/510/20/
008970/20121217/100952/1670/1600/20/
008970/20121217/101005/1675/250/20/
008970/20121217/101020/1670/740/10/
008970/20121217/101028/1675/210/20/
008970/20121217/101104/1675/1410/20/
008970/20121217/101118/1675/5030/20/
008970/20121217/101120/1675/300/20/
008970/20121217/101132/1675/290/20/
008970/20121217/101132/1675/4710/20/
008970/20121217/101134/1675/3750/20/
008970/20121217/101139/1675/3000/20/
008970/20121217/101143/1675/130/20/
008970/20121217/101148/1675/1970/10/
008970/20121217/101206/1675/290/20/
008970/20121217/101208/1675/2000/20/
008970/20121217/101210/1675/100/20/
008970/20121217/101213/1675/2000/20/
008970/20121217/101217/1675/500/20/
008970/20121217/101219/1675/400/20/
008970/20121217/101245/1675/230/20/
008970/20121217/101317/1675/730/20/
008970/20121217/101350/1675/100/20/
008970/20121217/101400/1675/300/20/
008970/20121217/101452/1670/170/10/
008970/20121217/101518/1670/230/10/
008970/20121217/101546/1670/3010/10/
008970/20121217/101558/1670/1500/10/
008970/20121217/101606/1670/4060/10/
008970/20121217/101608/1670/3750/10/
008970/20121217/101608/1670/200/10/
008970/20121217/101647/1670/7190/20/
008970/20121217/101740/1675/210/20/
008970/20121217/101756/1675/300/20/
008970/20121217/101759/1670/730/10/
008970/20121217/101813/1670/180/10/
008970/20121217/101834/1670/5000/10/
008970/20121217/101854/1670/100/10/
008970/20121217/101956/1670/290/10/
008970/20121217/102058/1670/200/10/
008970/20121217/102122/1670/1000/10/
008970/20121217/102145/1670/540/10/
008970/20121217/102153/1670/2000/10/
008970/20121217/102156/1670/1000/10/
008970/20121217/102217/1670/100/10/
008970/20121217/102241/1675/140/20/
008970/20121217/102253/1670/200/10/
008970/20121217/102314/1675/640/20/
008970/20121217/102315/1670/6190/10/
008970/20121217/102315/1670/1170/20/
008970/20121217/102339/1670/130/20/
008970/20121217/102344/1670/440/20/
008970/20121217/102345/1670/2990/20/
008970/20121217/102356/1670/200/10/
008970/20121217/102420/1670/870/20/
008970/20121217/102500/1665/580/10/
008970/20121217/102752/1670/160/20/
008970/20121217/102829/1665/12000/10/
008970/20121217/102901/1665/770/10/
008970/20121217/102916/1665/1000/10/
008970/20121217/103000/1665/470/10/
008970/20121217/103012/1665/1010/10/
008970/20121217/103029/1665/950/10/
008970/20121217/103037/1665/250/20/
008970/20121217/103100/1665/500/10/
008970/20121217/103145/1665/270/10/
008970/20121217/103154/1665/500/10/
008970/20121217/103158/1665/770/10/
008970/20121217/103235/1665/2230/20/
008970/20121217/103304/1665/3000/10/
008970/20121217/103333/1670/960/20/
008970/20121217/103404/1665/580/10/
008970/20121217/103412/1665/200/10/
008970/20121217/103435/1665/2590/10/
008970/20121217/103436/1665/200/10/
008970/20121217/103510/1665/600/10/
008970/20121217/103613/1665/1520/10/
008970/20121217/103628/1665/210/10/
008970/20121217/103821/1665/6000/10/
008970/20121217/103824/1665/200/10/
008970/20121217/103832/1665/1470/10/
008970/20121217/103924/1665/530/10/
008970/20121217/103951/1665/1150/10/
008970/20121217/103952/1665/6100/10/
008970/20121217/104028/1665/150/20/
008970/20121217/104143/1665/500/20/
008970/20121217/104157/1660/1000/10/
008970/20121217/104252/1660/1500/10/
008970/20121217/104438/1665/230/20/
008970/20121217/104556/1660/400/10/
008970/20121217/104612/1665/100/20/
008970/20121217/104630/1665/100/20/
008970/20121217/104706/1665/7250/20/
008970/20121217/104723/1665/1000/20/
008970/20121217/104724/1665/1000/20/
008970/20121217/104724/1665/500/20/
008970/20121217/104734/1665/1000/20/
008970/20121217/104743/1665/1000/20/
008970/20121217/104821/1665/100/20/
008970/20121217/104823/1665/100/20/
008970/20121217/104834/1665/900/20/
008970/20121217/104851/1665/150/20/
008970/20121217/104901/1665/630/10/
008970/20121217/104919/1665/830/10/
008970/20121217/104924/1665/100/10/
008970/20121217/104925/1665/1000/10/
008970/20121217/104935/1665/1050/10/
008970/20121217/105002/1665/1890/10/
008970/20121217/105021/1665/100/20/
008970/20121217/105212/1665/2060/10/
008970/20121217/105437/1670/2520/20/
008970/20121217/105458/1670/500/20/
008970/20121217/105502/1670/600/20/
008970/20121217/105520/1670/200/20/
008970/20121217/105912/1670/780/20/
008970/20121217/110031/1670/1000/20/
008970/20121217/110054/1670/1000/20/
008970/20121217/110310/1670/1500/20/
008970/20121217/110338/1670/100/20/
008970/20121217/110423/1670/190/20/
008970/20121217/110434/1670/110/20/
008970/20121217/110531/1670/180/20/
008970/20121217/110537/1670/8740/20/
008970/20121217/110609/1675/190/20/
008970/20121217/110738/1670/120/10/
008970/20121217/110743/1670/8790/10/
008970/20121217/110804/1670/550/20/
008970/20121217/110823/1670/260/20/
008970/20121217/110823/1670/120/20/
008970/20121217/110825/1670/280/20/
008970/20121217/110842/1670/90/10/
008970/20121217/110851/1670/280/10/
008970/20121217/110901/1670/730/20/
008970/20121217/110901/1675/3130/20/
008970/20121217/110955/1670/3000/20/
008970/20121217/111024/1670/150/20/
008970/20121217/111309/1670/2730/20/
008970/20121217/111312/1670/2350/10/
008970/20121217/111626/1665/6030/10/
008970/20121217/111631/1665/200/10/
008970/20121217/111706/1665/600/10/
008970/20121217/111732/1665/320/10/
008970/20121217/111811/1665/500/10/
008970/20121217/111829/1665/690/10/
008970/20121217/111846/1670/2800/20/
008970/20121217/111911/1665/450/10/
008970/20121217/112009/1665/920/10/
008970/20121217/112057/1665/780/10/
008970/20121217/112146/1665/2720/10/
008970/20121217/112253/1670/1110/20/
008970/20121217/112521/1665/1430/10/
008970/20121217/112707/1665/5900/10/
008970/20121217/112812/1665/4400/10/
008970/20121217/112858/1665/200/10/
008970/20121217/112907/1665/500/10/
008970/20121217/112953/1665/530/10/
008970/20121217/113024/1665/500/10/
008970/20121217/113102/1665/100/10/
008970/20121217/113124/1665/100/10/
008970/20121217/113155/1665/1950/10/
008970/20121217/113200/1665/3000/20/
008970/20121217/113404/1665/100/20/
008970/20121217/113434/1665/2500/20/
008970/20121217/113520/1665/500/20/
008970/20121217/113521/1665/500/20/
008970/20121217/113629/1665/300/20/
008970/20121217/113650/1665/3000/20/
008970/20121217/113754/1665/3150/20/
008970/20121217/113758/1665/470/10/
008970/20121217/113816/1665/100/20/
008970/20121217/113917/1665/1000/20/
008970/20121217/113924/1665/3000/20/
008970/20121217/113932/1665/1570/20/
008970/20121217/113955/1665/1800/20/
008970/20121217/114022/1665/100/20/
008970/20121217/114208/1665/600/20/
008970/20121217/114238/1665/7100/20/
008970/20121217/114256/1660/500/10/
008970/20121217/114342/1660/1000/10/
008970/20121217/114352/1665/2440/20/
008970/20121217/114542/1665/1660/10/
008970/20121217/114722/1670/150/20/
008970/20121217/114931/1665/100/10/
008970/20121217/115056/1665/7020/10/
008970/20121217/115130/1665/270/10/
008970/20121217/115235/1665/90/20/
008970/20121217/115313/1670/500/20/
008970/20121217/115401/1670/500/20/
008970/20121217/115413/1670/500/20/
008970/20121217/115438/1670/1010/20/
008970/20121217/115501/1665/150/10/
008970/20121217/115517/1670/10000/20/
008970/20121217/115521/1670/2650/20/
008970/20121217/115543/1670/1000/20/
008970/20121217/115708/1670/10000/20/
008970/20121217/115714/1670/170/20/
008970/20121217/115809/1675/1610/20/
008970/20121217/115930/1675/19390/20/
008970/20121217/115942/1675/460/10/
008970/20121217/120036/1675/230/10/
008970/20121217/120040/1680/29940/20/
008970/20121217/120104/1685/6400/20/
008970/20121217/120109/1685/750/20/
008970/20121217/120145/1680/230/10/
008970/20121217/120220/1685/130/20/
008970/20121217/120226/1685/1000/20/
008970/20121217/120229/1685/620/20/
008970/20121217/120240/1685/600/20/
008970/20121217/120251/1685/300/20/
008970/20121217/120259/1680/3000/10/
008970/20121217/120304/1680/600/10/
008970/20121217/120305/1680/650/10/
008970/20121217/120310/1675/100/10/
008970/20121217/120315/1675/890/10/
008970/20121217/120315/1675/680/20/
008970/20121217/120347/1680/90/20/
008970/20121217/120352/1680/100/20/
008970/20121217/120414/1680/2080/20/
008970/20121217/120447/1685/610/20/
008970/20121217/120458/1685/500/20/
008970/20121217/120459/1685/100/20/
008970/20121217/120507/1680/160/10/
008970/20121217/120512/1680/1810/10/
008970/20121217/120527/1680/500/10/
008970/20121217/120529/1680/1720/10/
008970/20121217/120533/1680/240/10/
008970/20121217/120536/1680/380/10/
008970/20121217/120545/1680/330/20/
008970/20121217/120551/1680/670/10/
008970/20121217/120559/1685/10000/20/
008970/20121217/120601/1685/1510/20/
008970/20121217/120603/1685/1000/20/
008970/20121217/120632/1685/710/20/
008970/20121217/120637/1685/500/20/
008970/20121217/120658/1685/200/20/
008970/20121217/120659/1685/280/20/
008970/20121217/120701/1685/10210/20/
008970/20121217/120707/1685/1650/10/
008970/20121217/120714/1685/2000/20/
008970/20121217/120725/1685/400/20/
008970/20121217/120742/1680/370/10/
008970/20121217/120743/1685/10000/20/
008970/20121217/120747/1685/1050/20/
008970/20121217/120759/1685/1010/20/
008970/20121217/120759/1685/300/20/
008970/20121217/120812/1685/6610/20/
008970/20121217/120813/1685/390/10/
008970/20121217/120825/1685/100/20/
008970/20121217/120828/1685/8510/20/
008970/20121217/120828/1690/1490/20/
008970/20121217/120829/1690/240/20/
008970/20121217/120831/1685/500/10/
008970/20121217/120838/1690/100/20/
008970/20121217/120838/1685/800/10/
008970/20121217/120845/1685/100/20/
008970/20121217/120857/1685/2000/20/
008970/20121217/120858/1685/100/20/
008970/20121217/120917/1685/720/20/
008970/20121217/120947/1685/9380/20/
008970/20121217/121002/1690/20820/20/
008970/20121217/121007/1690/770/10/
008970/20121217/121013/1690/100/20/
008970/20121217/121016/1690/2000/20/
008970/20121217/121027/1690/2000/20/
008970/20121217/121034/1690/500/20/
008970/20121217/121050/1690/110/20/
008970/20121217/121058/1690/720/20/
008970/20121217/121105/1690/1000/20/
008970/20121217/121111/1690/1130/20/
008970/20121217/121124/1690/1000/20/
008970/20121217/121149/1685/9810/10/
008970/20121217/121207/1690/230/20/
008970/20121217/121232/1690/320/20/
008970/20121217/121312/1690/90/20/
008970/20121217/121315/1690/300/20/
008970/20121217/121354/1690/330/20/
008970/20121217/121358/1690/9000/20/
008970/20121217/121359/1690/200/20/
008970/20121217/121420/1690/1020/20/
008970/20121217/121448/1685/320/10/
008970/20121217/121456/1685/1000/10/
008970/20121217/121456/1690/3330/20/
008970/20121217/121458/1685/10000/10/
008970/20121217/121512/1685/22000/10/
008970/20121217/121512/1685/2240/10/
008970/20121217/121517/1680/140/10/
008970/20121217/121543/1680/470/10/
008970/20121217/121555/1680/2650/10/
008970/20121217/121601/1680/250/10/
008970/20121217/121603/1680/760/10/
008970/20121217/121627/1680/3550/10/
008970/20121217/121639/1680/700/10/
008970/20121217/121658/1680/250/20/
008970/20121217/121707/1680/760/20/
008970/20121217/121736/1685/170/20/
008970/20121217/121934/1680/3690/10/
008970/20121217/122126/1680/4000/20/
008970/20121217/122215/1680/10030/10/
008970/20121217/122218/1680/900/10/
008970/20121217/122218/1685/2000/20/
008970/20121217/122307/1680/180/10/
008970/20121217/122307/1675/1000/10/
008970/20121217/122628/1680/180/20/
008970/20121217/122655/1675/200/10/
008970/20121217/122724/1675/8000/10/
008970/20121217/122831/1675/5310/20/
008970/20121217/122927/1680/110/20/
008970/20121217/122959/1680/5570/20/
008970/20121217/123004/1680/700/10/
008970/20121217/123035/1685/210/20/
008970/20121217/123104/1680/6000/10/
008970/20121217/123106/1680/2030/10/
008970/20121217/123106/1680/3550/10/
008970/20121217/123136/1680/500/10/
008970/20121217/123219/1685/1010/20/
008970/20121217/123250/1680/500/10/
008970/20121217/123417/1680/90/10/
008970/20121217/123513/1680/10080/10/
008970/20121217/123521/1680/160/20/
008970/20121217/123529/1680/100/20/
008970/20121217/123753/1680/2420/20/
008970/20121217/123800/1675/100/10/
008970/20121217/123823/1675/2010/10/
008970/20121217/123828/1675/20170/10/
008970/20121217/123919/1675/120/20/
008970/20121217/123942/1670/500/10/
008970/20121217/124012/1670/680/10/
008970/20121217/124036/1670/1000/10/
008970/20121217/124058/1670/110/10/
008970/20121217/124102/1670/2640/10/
008970/20121217/124123/1670/9120/10/
008970/20121217/124150/1670/280/10/
008970/20121217/124211/1670/620/10/
008970/20121217/124236/1670/240/20/
008970/20121217/124403/1665/170/10/
008970/20121217/124409/1670/1000/20/
008970/20121217/124454/1670/600/20/
008970/20121217/124617/1670/670/20/
008970/20121217/124750/1670/100/20/
008970/20121217/124752/1670/100/20/
008970/20121217/124824/1665/6110/10/
008970/20121217/125011/1670/90/20/
008970/20121217/125014/1670/100/20/
008970/20121217/125022/1670/250/20/
008970/20121217/125039/1670/3900/20/
008970/20121217/125120/1675/5000/20/
008970/20121217/125153/1670/1000/10/
008970/20121217/125156/1670/200/10/
008970/20121217/125351/1675/710/20/
008970/20121217/125409/1675/170/20/
008970/20121217/125431/1675/2000/20/
008970/20121217/125452/1675/2600/20/
008970/20121217/125554/1670/110/10/
008970/20121217/125649/1675/1000/20/
008970/20121217/125800/1675/240/20/
008970/20121217/125839/1670/1410/10/
008970/20121217/125907/1670/100/20/
008970/20121217/125935/1670/110/20/
008970/20121217/130026/1670/1150/20/
008970/20121217/130033/1670/990/20/
008970/20121217/130116/1675/5000/20/
008970/20121217/130341/1670/310/10/
008970/20121217/130356/1670/100/10/
008970/20121217/130502/1675/300/20/
008970/20121217/130522/1670/100/10/
008970/20121217/130527/1675/1000/20/
008970/20121217/130535/1675/1800/20/
008970/20121217/130636/1675/240/10/
008970/20121217/130713/1675/100/10/
008970/20121217/130713/1675/4000/10/
008970/20121217/130756/1675/320/10/
008970/20121217/131004/1670/420/10/
008970/20121217/131017/1670/180/10/
008970/20121217/131048/1670/2000/10/
008970/20121217/131117/1670/2000/10/
008970/20121217/131139/1670/2000/10/
008970/20121217/131150/1670/100/10/
008970/20121217/131201/1670/9490/10/
008970/20121217/131224/1670/1000/10/
008970/20121217/131242/1670/830/10/
008970/20121217/131243/1670/100/20/
008970/20121217/131250/1670/2110/20/
008970/20121217/131258/1670/1590/10/
008970/20121217/131301/1665/9000/10/
008970/20121217/131329/1665/310/10/
008970/20121217/131401/1665/6020/10/
008970/20121217/131418/1665/2010/10/
008970/20121217/131423/1665/500/20/
008970/20121217/131424/1665/5010/20/
008970/20121217/131424/1665/270/20/
008970/20121217/131424/1665/630/20/
008970/20121217/131620/1675/4050/20/
008970/20121217/131635/1675/200/20/
008970/20121217/131700/1670/220/10/
008970/20121217/131707/1670/1090/10/
008970/20121217/131711/1670/200/10/
008970/20121217/131720/1670/150/10/
008970/20121217/131728/1670/200/10/
008970/20121217/131744/1670/200/10/
008970/20121217/131753/1670/620/10/
008970/20121217/131803/1665/200/10/
008970/20121217/131809/1670/460/20/
008970/20121217/131815/1670/200/20/
008970/20121217/131827/1670/100/20/
008970/20121217/131840/1665/15000/10/
008970/20121217/131917/1665/2000/10/
008970/20121217/131950/1665/3030/10/
008970/20121217/132044/1670/590/20/
008970/20121217/132112/1670/400/10/
008970/20121217/132230/1670/200/10/
008970/20121217/132414/1675/2000/20/
008970/20121217/132528/1670/1000/20/
008970/20121217/132557/1670/100/20/
008970/20121217/132608/1670/490/20/
008970/20121217/132624/1670/100/20/
008970/20121217/132701/1670/90/20/
008970/20121217/132712/1670/1030/20/
008970/20121217/132714/1670/1000/20/
008970/20121217/132722/1670/240/20/
008970/20121217/132730/1670/90/20/
008970/20121217/132734/1670/230/20/
008970/20121217/132740/1670/270/20/
008970/20121217/132755/1670/120/20/
008970/20121217/132759/1670/220/20/
008970/20121217/132806/1670/90/20/
008970/20121217/132812/1670/90/20/
008970/20121217/132812/1670/240/20/
008970/20121217/132815/1670/320/20/
008970/20121217/132816/1670/200/20/
008970/20121217/132820/1670/520/20/
008970/20121217/132827/1670/90/20/
008970/20121217/132829/1670/240/20/
008970/20121217/132830/1670/1010/20/
008970/20121217/132832/1670/10050/20/
008970/20121217/132834/1670/2280/20/
008970/20121217/132837/1675/90/20/
008970/20121217/132838/1675/220/20/
008970/20121217/132838/1675/110/20/
008970/20121217/132841/1675/1000/20/
008970/20121217/132844/1675/110/20/
008970/20121217/132844/1675/200/20/
008970/20121217/132849/1675/90/20/
008970/20121217/132855/1675/90/20/
008970/20121217/132858/1675/15020/20/
008970/20121217/132901/1675/90/20/
008970/20121217/132913/1675/9830/20/
008970/20121217/132914/1675/1170/20/
008970/20121217/132919/1675/560/20/
008970/20121217/132922/1675/90/20/
008970/20121217/132927/1675/1050/20/
008970/20121217/132932/1675/5060/20/
008970/20121217/132933/1675/5050/20/
008970/20121217/132934/1675/950/20/
008970/20121217/132935/1675/510/20/
008970/20121217/132935/1675/6020/20/
008970/20121217/132936/1675/1190/20/
008970/20121217/132939/1675/90/20/
008970/20121217/132941/1675/270/20/
008970/20121217/132945/1675/90/20/
008970/20121217/132947/1675/560/20/
008970/20121217/132950/1675/90/20/
008970/20121217/132952/1675/3050/20/
008970/20121217/132953/1675/90/20/
008970/20121217/132955/1675/90/20/
008970/20121217/132957/1675/250/20/
008970/20121217/132959/1675/90/20/
008970/20121217/133000/1675/910/20/
008970/20121217/133003/1675/260/20/
008970/20121217/133009/1675/110/20/
008970/20121217/133010/1675/5000/20/
008970/20121217/133015/1675/220/20/
008970/20121217/133017/1675/10000/20/
008970/20121217/133024/1675/710/20/
008970/20121217/133029/1675/280/20/
008970/20121217/133038/1675/90/20/
008970/20121217/133044/1675/380/20/
008970/20121217/133046/1675/520/20/
008970/20121217/133049/1675/3060/20/
008970/20121217/133052/1675/240/20/
008970/20121217/133056/1675/1050/20/
008970/20121217/133100/1675/90/20/
008970/20121217/133104/1675/90/20/
008970/20121217/133108/1675/90/20/
008970/20121217/133112/1675/280/20/
008970/20121217/133114/1675/350/20/
008970/20121217/133119/1680/90/20/
008970/20121217/133127/1680/90/20/
008970/20121217/133129/1675/730/10/
008970/20121217/133157/1675/120/20/
008970/20121217/133259/1670/10770/10/
008970/20121217/133308/1670/1070/10/
008970/20121217/133347/1665/210/10/
008970/20121217/133424/1665/120/10/
008970/20121217/133433/1670/1000/20/
008970/20121217/133602/1665/1160/10/
008970/20121217/133833/1665/940/10/
008970/20121217/133922/1665/3780/10/
008970/20121217/133934/1665/90/10/
008970/20121217/133936/1665/850/10/
008970/20121217/134036/1665/830/10/
008970/20121217/134205/1665/3100/10/
008970/20121217/134210/1665/1200/10/
008970/20121217/134503/1665/1400/10/
008970/20121217/134633/1665/5050/10/
008970/20121217/134634/1665/280/10/
008970/20121217/134653/1665/1000/10/
008970/20121217/134720/1670/550/20/
008970/20121217/134748/1670/100/20/
008970/20121217/134922/1665/1060/10/
008970/20121217/134932/1670/590/20/
008970/20121217/135005/1670/450/20/
008970/20121217/135008/1670/5790/20/
008970/20121217/135010/1670/770/20/
008970/20121217/135017/1670/1000/20/
008970/20121217/135019/1670/1000/20/
008970/20121217/135022/1670/1240/20/
008970/20121217/135232/1670/500/10/
008970/20121217/135247/1670/680/10/
008970/20121217/135248/1670/320/20/
008970/20121217/135259/1670/100/10/
008970/20121217/135331/1670/200/10/
008970/20121217/135402/1670/220/10/
008970/20121217/135434/1670/360/10/
008970/20121217/135505/1670/1560/10/
008970/20121217/135505/1665/6010/10/
008970/20121217/135626/1670/510/20/
008970/20121217/135629/1670/1850/20/
008970/20121217/135640/1670/1160/10/
008970/20121217/135643/1670/200/20/
008970/20121217/135647/1670/110/20/
008970/20121217/135652/1670/1000/20/
008970/20121217/135654/1670/3010/20/
008970/20121217/135655/1670/530/20/
008970/20121217/135721/1670/1200/10/
008970/20121217/135722/1675/500/20/
008970/20121217/135727/1675/3270/20/
008970/20121217/135732/1675/990/20/
008970/20121217/135733/1675/1320/20/
008970/20121217/135759/1675/150/20/
008970/20121217/135855/1675/1430/20/
008970/20121217/135900/1675/2350/20/
008970/20121217/135903/1675/3000/20/
008970/20121217/135917/1675/3010/20/
008970/20121217/135918/1675/1640/20/
008970/20121217/135951/1680/380/20/
008970/20121217/140004/1680/220/20/
008970/20121217/140050/1680/3000/20/
008970/20121217/140057/1675/100/10/
008970/20121217/140123/1675/7000/10/
008970/20121217/140156/1675/580/10/
008970/20121217/140244/1675/1000/10/
008970/20121217/140258/1680/1370/20/
008970/20121217/140309/1680/3000/20/
008970/20121217/140314/1680/100/20/
008970/20121217/140342/1680/30050/20/
008970/20121217/140346/1680/120/20/
008970/20121217/140348/1680/700/20/
008970/20121217/140350/1680/100/20/
008970/20121217/140352/1680/100/20/
008970/20121217/140352/1680/100/20/
008970/20121217/140353/1680/100/20/
008970/20121217/140357/1680/160/20/
008970/20121217/140408/1680/480/10/
008970/20121217/140412/1680/910/10/
008970/20121217/140414/1680/1430/20/
008970/20121217/140435/1685/1070/20/
008970/20121217/140439/1685/100/20/
008970/20121217/140443/1685/100/20/
008970/20121217/140444/1685/160/20/
008970/20121217/140444/1685/200/20/
008970/20121217/140450/1685/650/20/
008970/20121217/140451/1685/1000/20/
008970/20121217/140452/1685/390/20/
008970/20121217/140454/1685/120/20/
008970/20121217/140455/1685/120/20/
008970/20121217/140455/1685/100/20/
008970/20121217/140456/1685/100/20/
008970/20121217/140456/1685/2060/20/
008970/20121217/140458/1685/2000/20/
008970/20121217/140500/1685/90/20/
008970/20121217/140500/1685/1800/20/
008970/20121217/140501/1685/100/20/
008970/20121217/140501/1685/100/20/
008970/20121217/140503/1685/150/20/
008970/20121217/140504/1685/350/20/
008970/20121217/140504/1685/500/20/
008970/20121217/140510/1685/2600/20/
008970/20121217/140514/1685/160/20/
008970/20121217/140516/1685/440/20/
008970/20121217/140519/1685/2020/20/
008970/20121217/140525/1685/210/20/
008970/20121217/140604/1685/4470/20/
008970/20121217/140604/1685/5000/20/
008970/20121217/140605/1685/6880/20/
008970/20121217/140606/1685/1000/20/
008970/20121217/140606/1685/4420/20/
008970/20121217/140607/1680/100/10/
008970/20121217/140607/1685/10000/20/
008970/20121217/140608/1685/1800/20/
008970/20121217/140608/1685/1000/20/
008970/20121217/140608/1685/1180/20/
008970/20121217/140608/1685/1000/20/
008970/20121217/140608/1685/100/20/
008970/20121217/140609/1685/280/20/
008970/20121217/140609/1685/100/20/
008970/20121217/140610/1685/1030/20/
008970/20121217/140610/1685/590/20/
008970/20121217/140610/1685/590/20/
008970/20121217/140610/1685/1000/20/
008970/20121217/140611/1685/1000/20/
008970/20121217/140613/1685/3230/20/
008970/20121217/140616/1685/3000/10/
008970/20121217/140629/1685/150/10/
008970/20121217/140630/1690/1200/20/
008970/20121217/140634/1690/110/20/
008970/20121217/140642/1690/130/20/
008970/20121217/140644/1690/100/20/
008970/20121217/140644/1690/1000/20/
008970/20121217/140648/1690/90/20/
008970/20121217/140650/1690/3020/20/
008970/20121217/140653/1690/4000/20/
008970/20121217/140653/1690/300/20/
008970/20121217/140654/1690/100/20/
008970/20121217/140655/1690/2200/20/
008970/20121217/140655/1690/2000/20/
008970/20121217/140655/1690/920/20/
008970/20121217/140656/1690/100/20/
008970/20121217/140656/1690/510/20/
008970/20121217/140656/1690/500/20/
008970/20121217/140657/1690/100/20/
008970/20121217/140657/1690/200/20/
008970/20121217/140658/1690/2950/20/
008970/20121217/140658/1690/520/20/
008970/20121217/140658/1690/5550/20/
008970/20121217/140704/1690/2880/10/
008970/20121217/140706/1690/710/10/
008970/20121217/140708/1690/1500/10/
008970/20121217/140709/1690/200/20/
008970/20121217/140709/1690/500/20/
008970/20121217/140710/1690/580/20/
008970/20121217/140711/1690/5000/20/
008970/20121217/140713/1690/2320/20/
008970/20121217/140723/1695/500/20/
008970/20121217/140724/1690/100/10/
008970/20121217/140727/1690/200/10/
008970/20121217/140728/1690/200/10/
008970/20121217/140728/1690/300/10/
008970/20121217/140729/1690/330/10/
008970/20121217/140730/1690/90/10/
008970/20121217/140731/1690/310/10/
008970/20121217/140732/1690/2000/10/
008970/20121217/140736/1690/2000/10/
008970/20121217/140741/1690/2240/10/
008970/20121217/140744/1690/1000/20/
008970/20121217/140748/1685/2280/10/
008970/20121217/140754/1690/560/20/
008970/20121217/140820/1690/3790/20/
008970/20121217/140821/1690/1000/10/
008970/20121217/140831/1690/1030/10/
008970/20121217/140833/1690/2570/10/
008970/20121217/140857/1695/1010/20/
008970/20121217/140904/1695/6000/20/
008970/20121217/140907/1695/650/20/
008970/20121217/140916/1695/2010/20/
008970/20121217/140921/1695/620/20/
008970/20121217/140939/1695/1010/20/
008970/20121217/140953/1695/200/20/
008970/20121217/140956/1695/300/20/
008970/20121217/141028/1690/2710/10/
008970/20121217/141034/1690/300/20/
008970/20121217/141038/1690/310/20/
008970/20121217/141042/1690/310/10/
008970/20121217/141043/1690/100/10/
008970/20121217/141044/1690/100/10/
008970/20121217/141044/1690/100/10/
008970/20121217/141047/1690/1010/10/
008970/20121217/141048/1690/300/10/
008970/20121217/141049/1690/500/10/
008970/20121217/141114/1690/370/20/
008970/20121217/141115/1690/500/20/
008970/20121217/141115/1690/1000/20/
008970/20121217/141123/1690/1000/20/
008970/20121217/141125/1690/100/20/
008970/20121217/141126/1690/130/20/
008970/20121217/141143/1695/1300/20/
008970/20121217/141145/1690/200/10/
008970/20121217/141154/1695/120/20/
008970/20121217/141201/1695/400/20/
008970/20121217/141206/1695/140/20/
008970/20121217/141223/1690/100/10/
008970/20121217/141235/1690/100/10/
008970/20121217/141312/1690/580/10/
008970/20121217/141313/1690/3160/10/
008970/20121217/141314/1690/2000/10/
008970/20121217/141315/1690/780/10/
008970/20121217/141322/1690/150/20/
008970/20121217/141327/1690/160/10/
008970/20121217/141335/1690/710/10/
008970/20121217/141345/1685/500/10/
008970/20121217/141355/1685/1470/10/
008970/20121217/141415/1685/200/10/
008970/20121217/141419/1685/580/10/
008970/20121217/141512/1685/2030/10/
008970/20121217/141513/1685/1450/10/
008970/20121217/141522/1685/1500/10/
008970/20121217/141529/1685/900/10/
008970/20121217/141538/1685/1000/10/
008970/20121217/141547/1685/2000/10/
008970/20121217/141554/1685/100/10/
008970/20121217/141557/1685/730/10/
008970/20121217/141605/1685/370/20/
008970/20121217/141623/1690/800/20/
008970/20121217/141713/1685/100/10/
008970/20121217/141725/1685/2610/10/
008970/20121217/141732/1685/1000/20/
008970/20121217/141748/1685/100/20/
008970/20121217/141759/1685/750/20/
008970/20121217/141805/1685/600/10/
008970/20121217/141815/1685/1000/20/
008970/20121217/141822/1685/1000/20/
008970/20121217/141830/1685/400/20/
008970/20121217/141830/1690/190/20/
008970/20121217/141910/1690/5590/20/
008970/20121217/141914/1690/1180/20/
008970/20121217/141959/1690/3440/20/
008970/20121217/142002/1685/520/10/
008970/20121217/142041/1685/1400/10/
008970/20121217/142051/1690/1000/20/
008970/20121217/142143/1690/1500/20/
008970/20121217/142143/1690/190/20/
008970/20121217/142154/1690/1500/20/
008970/20121217/142157/1690/2600/20/
008970/20121217/142159/1690/600/20/
008970/20121217/142202/1690/240/20/
008970/20121217/142202/1690/260/10/
008970/20121217/142209/1690/540/10/
008970/20121217/142209/1690/480/10/
008970/20121217/142247/1685/150/10/
008970/20121217/142255/1685/300/10/
008970/20121217/142256/1685/5000/10/
008970/20121217/142259/1685/1550/10/
008970/20121217/142311/1685/3650/20/
008970/20121217/142359/1685/160/10/
008970/20121217/142436/1685/640/10/
008970/20121217/142448/1685/300/10/
008970/20121217/142454/1685/100/10/
008970/20121217/142457/1685/3910/10/
008970/20121217/142546/1680/5630/10/
008970/20121217/142548/1680/500/10/
008970/20121217/142550/1680/200/10/
008970/20121217/142557/1680/1870/10/
008970/20121217/142558/1680/500/10/
008970/20121217/142611/1680/170/10/
008970/20121217/142630/1680/2080/10/
008970/20121217/142636/1680/1010/10/
008970/20121217/142650/1680/1000/10/
008970/20121217/142651/1680/300/10/
008970/20121217/142651/1680/2140/10/
008970/20121217/142719/1680/600/20/
008970/20121217/142738/1685/230/20/
008970/20121217/142751/1680/860/20/
008970/20121217/142817/1680/240/10/
008970/20121217/142904/1685/500/20/
008970/20121217/142906/1680/380/10/
008970/20121217/142942/1680/3210/10/
008970/20121217/142943/1685/100/20/
008970/20121217/142948/1680/200/10/
008970/20121217/142949/1680/590/10/
008970/20121217/143016/1680/500/20/
008970/20121217/143045/1680/500/20/
008970/20121217/143206/1675/3330/10/
008970/20121217/143308/1675/110/10/
008970/20121217/143312/1675/90/10/
008970/20121217/143402/1675/1000/10/
008970/20121217/143413/1675/2290/10/
008970/20121217/143441/1675/1020/10/
008970/20121217/143511/1675/480/10/
008970/20121217/143511/1670/2650/10/
008970/20121217/143517/1670/110/10/
008970/20121217/143523/1670/1000/10/
008970/20121217/143531/1670/1600/10/
008970/20121217/143537/1670/500/10/
008970/20121217/143553/1670/5000/10/
008970/20121217/143607/1675/120/20/
008970/20121217/143618/1675/100/20/
008970/20121217/143625/1670/2300/10/
008970/20121217/143738/1675/790/20/
008970/20121217/143739/1675/360/10/
008970/20121217/143918/1680/5010/20/
008970/20121217/143926/1680/880/20/
008970/20121217/144036/1680/5060/20/
008970/20121217/144126/1680/100/20/
008970/20121217/144221/1680/2500/20/
008970/20121217/144256/1680/150/20/
008970/20121217/144258/1680/100/20/
008970/20121217/144259/1680/100/20/
008970/20121217/144312/1680/350/20/
008970/20121217/144314/1680/100/20/
008970/20121217/144314/1680/100/20/
008970/20121217/144319/1680/1000/20/
008970/20121217/144340/1675/5000/10/
008970/20121217/144343/1675/1000/10/
008970/20121217/144354/1675/1000/10/
008970/20121217/144355/1675/1940/10/
008970/20121217/144358/1675/230/10/
008970/20121217/144414/1675/1010/20/
008970/20121217/144433/1670/25040/10/
008970/20121217/144440/1670/5860/10/
008970/20121217/144453/1675/810/20/
008970/20121217/144454/1675/100/10/
008970/20121217/144511/1675/1000/10/
008970/20121217/144511/1680/10010/20/
008970/20121217/144511/1685/2830/20/
008970/20121217/144521/1675/6000/20/
008970/20121217/144549/1675/5180/10/
008970/20121217/144642/1675/5670/20/
008970/20121217/144646/1675/5920/20/
008970/20121217/144647/1675/2000/20/
008970/20121217/144649/1675/500/20/
008970/20121217/144709/1675/1000/20/
008970/20121217/144715/1670/10000/10/
008970/20121217/144717/1675/3000/20/
008970/20121217/144719/1675/7230/20/
008970/20121217/144819/1675/500/10/
008970/20121217/144838/1675/3000/10/
008970/20121217/144843/1675/3010/10/
008970/20121217/144908/1675/340/10/
008970/20121217/144910/1680/360/20/
008970/20121217/144930/1680/1280/20/
008970/20121217/144937/1680/4440/20/
008970/20121217/150000/1685/73620/10/
