008970/20130218/90000/1875/45190/10/
008970/20130218/90009/1875/2800/10/
008970/20130218/90009/1875/630/10/
008970/20130218/90027/1875/580/20/
008970/20130218/90034/1875/400/20/
008970/20130218/90035/1875/100/20/
008970/20130218/90036/1870/9410/10/
008970/20130218/90036/1865/5560/10/
008970/20130218/90036/1860/10150/10/
008970/20130218/90036/1855/14980/10/
008970/20130218/90037/1875/100/20/
008970/20130218/90052/1870/350/20/
008970/20130218/90052/1875/650/20/
008970/20130218/90053/1875/1120/20/
008970/20130218/90056/1870/100/10/
008970/20130218/90112/1870/1500/20/
008970/20130218/90118/1870/500/20/
008970/20130218/90123/1870/1000/20/
008970/20130218/90127/1865/1050/10/
008970/20130218/90127/1860/3570/10/
008970/20130218/90127/1855/6480/10/
008970/20130218/90129/1870/1480/20/
008970/20130218/90140/1865/500/10/
008970/20130218/90143/1865/100/20/
008970/20130218/90144/1865/100/20/
008970/20130218/90152/1865/270/20/
008970/20130218/90154/1870/2500/20/
008970/20130218/90155/1870/100/20/
008970/20130218/90209/1870/1000/20/
008970/20130218/90212/1870/1190/20/
008970/20130218/90226/1870/3040/10/
008970/20130218/90231/1870/990/10/
008970/20130218/90235/1870/1620/10/
008970/20130218/90238/1875/23770/20/
008970/20130218/90256/1875/1050/10/
008970/20130218/90259/1880/6330/20/
008970/20130218/90303/1880/100/10/
008970/20130218/90305/1880/490/10/
008970/20130218/90307/1885/500/20/
008970/20130218/90310/1885/10000/20/
008970/20130218/90314/1885/2710/20/
008970/20130218/90315/1890/230/20/
008970/20130218/90317/1885/1500/10/
008970/20130218/90317/1885/3300/10/
008970/20130218/90319/1885/530/20/
008970/20130218/90342/1885/1010/20/
008970/20130218/90356/1885/140/20/
008970/20130218/90402/1880/100/10/
008970/20130218/90408/1880/4230/10/
008970/20130218/90408/1880/730/10/
008970/20130218/90413/1880/1780/10/
008970/20130218/90418/1880/620/20/
008970/20130218/90428/1880/1000/20/
008970/20130218/90437/1875/4780/10/
008970/20130218/90444/1870/1640/10/
008970/20130218/90459/1870/720/10/
008970/20130218/90502/1870/4950/10/
008970/20130218/90505/1870/680/20/
008970/20130218/90506/1870/250/10/
008970/20130218/90510/1875/3000/20/
008970/20130218/90541/1870/700/10/
008970/20130218/90620/1865/120/10/
008970/20130218/90624/1865/4600/10/
008970/20130218/90625/1865/230/10/
008970/20130218/90630/1865/530/10/
008970/20130218/90634/1865/1000/10/
008970/20130218/90635/1865/2400/10/
008970/20130218/90649/1865/200/10/
008970/20130218/90651/1865/200/10/
008970/20130218/90657/1865/3890/10/
008970/20130218/90700/1870/100/20/
008970/20130218/90752/1865/2730/10/
008970/20130218/90756/1865/1320/10/
008970/20130218/90815/1865/330/20/
008970/20130218/90816/1865/1000/20/
008970/20130218/90817/1865/2310/20/
008970/20130218/90823/1865/2040/10/
008970/20130218/90830/1865/500/10/
008970/20130218/90839/1865/200/10/
008970/20130218/90844/1865/400/10/
008970/20130218/90844/1865/330/10/
008970/20130218/90849/1865/200/10/
008970/20130218/90852/1865/2000/10/
008970/20130218/90857/1865/2300/10/
008970/20130218/90928/1865/100/20/
008970/20130218/90941/1865/90/20/
008970/20130218/90942/1865/100/20/
008970/20130218/90944/1865/2000/20/
008970/20130218/90946/1865/110/20/
008970/20130218/90955/1865/2010/20/
008970/20130218/90957/1865/510/20/
008970/20130218/91000/1865/170/20/
008970/20130218/91005/1865/440/20/
008970/20130218/91057/1870/180/20/
008970/20130218/91104/1870/330/20/
008970/20130218/91114/1870/500/20/
008970/20130218/91128/1865/2450/10/
008970/20130218/91145/1865/1000/10/
008970/20130218/91146/1865/1000/10/
008970/20130218/91203/1865/250/10/
008970/20130218/91205/1870/170/20/
008970/20130218/91213/1865/200/10/
008970/20130218/91308/1865/4650/10/
008970/20130218/91343/1865/1000/10/
008970/20130218/91357/1865/390/10/
008970/20130218/91359/1865/850/10/
008970/20130218/91402/1865/100/20/
008970/20130218/91433/1865/550/20/
008970/20130218/91441/1865/580/10/
008970/20130218/91442/1865/400/10/
008970/20130218/91442/1860/4600/10/
008970/20130218/91518/1860/300/10/
008970/20130218/91606/1860/2500/10/
008970/20130218/91608/1860/730/10/
008970/20130218/91655/1860/3750/10/
008970/20130218/91711/1860/170/10/
008970/20130218/91719/1860/530/10/
008970/20130218/91734/1860/540/10/
008970/20130218/91807/1860/1550/10/
008970/20130218/91940/1870/540/20/
008970/20130218/92004/1860/16740/10/
008970/20130218/92011/1855/1070/10/
008970/20130218/92015/1860/500/20/
008970/20130218/92032/1860/2030/20/
008970/20130218/92034/1860/1000/20/
008970/20130218/92051/1860/510/20/
008970/20130218/92051/1860/2000/20/
008970/20130218/92101/1860/110/20/
008970/20130218/92111/1860/960/10/
008970/20130218/92114/1860/100/20/
008970/20130218/92123/1860/340/20/
008970/20130218/92144/1865/120/20/
008970/20130218/92146/1860/500/10/
008970/20130218/92225/1860/200/10/
008970/20130218/92242/1860/1000/10/
008970/20130218/92302/1860/1000/10/
008970/20130218/92316/1860/90/10/
008970/20130218/92318/1860/900/10/
008970/20130218/92359/1855/420/10/
008970/20130218/92402/1860/310/20/
008970/20130218/92406/1860/690/10/
008970/20130218/92424/1860/100/20/
008970/20130218/92427/1855/3250/10/
008970/20130218/92430/1855/12040/10/
008970/20130218/92445/1860/560/20/
008970/20130218/92526/1860/260/20/
008970/20130218/92539/1860/600/20/
008970/20130218/92547/1860/300/20/
008970/20130218/92550/1860/100/20/
008970/20130218/92552/1860/1200/20/
008970/20130218/92552/1860/320/20/
008970/20130218/92606/1860/2260/20/
008970/20130218/92620/1855/2080/10/
008970/20130218/92636/1860/300/20/
008970/20130218/92643/1855/4000/10/
008970/20130218/92645/1855/3980/10/
008970/20130218/92707/1855/500/10/
008970/20130218/92739/1855/1020/10/
008970/20130218/92744/1855/500/20/
008970/20130218/92748/1855/130/20/
008970/20130218/92804/1855/380/20/
008970/20130218/92839/1855/260/10/
008970/20130218/92900/1860/100/20/
008970/20130218/92900/1860/200/20/
008970/20130218/92910/1860/500/20/
008970/20130218/92916/1860/300/20/
008970/20130218/92932/1860/500/20/
008970/20130218/93006/1860/1010/20/
008970/20130218/93010/1860/120/20/
008970/20130218/93026/1860/500/20/
008970/20130218/93026/1860/200/20/
008970/20130218/93040/1855/1000/10/
008970/20130218/93044/1860/370/20/
008970/20130218/93047/1860/130/10/
008970/20130218/93049/1860/590/20/
008970/20130218/93130/1860/150/10/
008970/20130218/93151/1860/2010/10/
008970/20130218/93154/1860/400/10/
008970/20130218/93217/1860/200/20/
008970/20130218/93248/1860/500/20/
008970/20130218/93309/1860/170/20/
008970/20130218/93326/1860/880/20/
008970/20130218/93326/1860/450/20/
008970/20130218/93446/1865/300/20/
008970/20130218/93446/1860/500/10/
008970/20130218/93541/1860/1010/10/
008970/20130218/93644/1860/8250/10/
008970/20130218/93717/1860/250/10/
008970/20130218/93736/1860/1760/20/
008970/20130218/93807/1860/1450/10/
008970/20130218/93811/1860/100/20/
008970/20130218/93814/1860/400/20/
008970/20130218/93946/1860/1870/10/
008970/20130218/94022/1860/200/10/
008970/20130218/94028/1860/100/10/
008970/20130218/94052/1860/300/10/
008970/20130218/94110/1860/1320/10/
008970/20130218/94112/1860/100/20/
008970/20130218/94119/1860/190/20/
008970/20130218/94153/1855/2000/10/
008970/20130218/94242/1855/120/10/
008970/20130218/94413/1855/2730/10/
008970/20130218/94421/1860/2000/20/
008970/20130218/94423/1860/160/20/
008970/20130218/94452/1860/3020/20/
008970/20130218/94456/1860/1000/20/
008970/20130218/94511/1855/600/10/
008970/20130218/94540/1860/6410/20/
008970/20130218/94714/1860/100/20/
008970/20130218/94820/1855/1000/10/
008970/20130218/94834/1855/100/10/
008970/20130218/95007/1860/2720/20/
008970/20130218/95008/1860/3000/20/
008970/20130218/95009/1860/3690/20/
008970/20130218/95010/1860/1000/20/
008970/20130218/95011/1860/2680/20/
008970/20130218/95011/1860/1070/20/
008970/20130218/95013/1860/1000/20/
008970/20130218/95013/1860/990/20/
008970/20130218/95021/1865/1010/20/
008970/20130218/95023/1865/950/20/
008970/20130218/95028/1865/960/20/
008970/20130218/95028/1865/100/20/
008970/20130218/95029/1865/100/20/
008970/20130218/95029/1865/150/20/
008970/20130218/95030/1865/1000/20/
008970/20130218/95036/1865/2050/20/
008970/20130218/95038/1865/420/20/
008970/20130218/95040/1865/480/10/
008970/20130218/95041/1865/100/20/
008970/20130218/95041/1865/500/20/
008970/20130218/95043/1865/100/20/
008970/20130218/95109/1865/5000/20/
008970/20130218/95130/1865/160/20/
008970/20130218/95149/1870/590/20/
008970/20130218/95232/1870/1000/20/
008970/20130218/95249/1870/1010/20/
008970/20130218/95304/1870/300/20/
008970/20130218/95341/1870/130/20/
008970/20130218/95343/1870/490/20/
008970/20130218/95359/1870/100/20/
008970/20130218/95400/1870/100/20/
008970/20130218/95407/1865/3530/10/
008970/20130218/95410/1865/600/20/
008970/20130218/95412/1865/870/20/
008970/20130218/95443/1865/4350/10/
008970/20130218/95450/1865/5000/20/
008970/20130218/95452/1865/450/20/
008970/20130218/95458/1865/1050/20/
008970/20130218/95500/1865/300/20/
008970/20130218/95504/1865/1650/20/
008970/20130218/95507/1865/120/10/
008970/20130218/95511/1865/3000/10/
008970/20130218/95524/1865/280/10/
008970/20130218/95524/1865/1060/10/
008970/20130218/95604/1865/800/10/
008970/20130218/95629/1870/1030/20/
008970/20130218/95631/1870/19310/20/
008970/20130218/95653/1870/700/10/
008970/20130218/95713/1875/3020/20/
008970/20130218/95714/1875/1040/20/
008970/20130218/95717/1875/310/20/
008970/20130218/95718/1875/100/20/
008970/20130218/95718/1875/500/20/
008970/20130218/95719/1875/1000/20/
008970/20130218/95720/1875/540/20/
008970/20130218/95721/1875/4300/20/
008970/20130218/95723/1875/500/20/
008970/20130218/95724/1875/1000/20/
008970/20130218/95724/1875/1480/20/
008970/20130218/95725/1875/100/20/
008970/20130218/95725/1875/4670/20/
008970/20130218/95725/1880/1000/20/
008970/20130218/95730/1880/500/20/
008970/20130218/95731/1880/2000/20/
008970/20130218/95738/1880/100/20/
008970/20130218/95741/1880/300/20/
008970/20130218/95743/1875/2680/10/
008970/20130218/95744/1875/1040/10/
008970/20130218/95746/1875/260/20/
008970/20130218/95757/1875/1080/20/
008970/20130218/95759/1875/920/20/
008970/20130218/95800/1880/1200/20/
008970/20130218/95808/1875/180/20/
008970/20130218/95811/1875/330/20/
008970/20130218/95816/1875/100/20/
008970/20130218/95825/1875/2720/20/
008970/20130218/95828/1875/2640/20/
008970/20130218/95831/1875/1000/10/
008970/20130218/95836/1880/100/20/
008970/20130218/95837/1880/100/20/
008970/20130218/95838/1880/100/20/
008970/20130218/95849/1875/280/10/
008970/20130218/95849/1875/500/10/
008970/20130218/95850/1875/4050/10/
008970/20130218/95906/1875/150/10/
008970/20130218/95906/1880/6300/20/
008970/20130218/95912/1875/100/10/
008970/20130218/95917/1880/1000/20/
008970/20130218/95918/1875/1000/10/
008970/20130218/95919/1880/160/20/
008970/20130218/95925/1880/510/20/
008970/20130218/95930/1875/100/10/
008970/20130218/95933/1875/500/10/
008970/20130218/95936/1875/140/10/
008970/20130218/95938/1880/1700/20/
008970/20130218/95949/1875/500/10/
008970/20130218/95959/1875/1000/10/
008970/20130218/100002/1875/90/10/
008970/20130218/100003/1875/340/10/
008970/20130218/100008/1875/550/10/
008970/20130218/100008/1875/730/10/
008970/20130218/100027/1875/460/20/
008970/20130218/100031/1875/1000/20/
008970/20130218/100032/1875/500/20/
008970/20130218/100048/1870/8500/10/
008970/20130218/100052/1870/2460/20/
008970/20130218/100055/1870/2310/10/
008970/20130218/100058/1870/530/10/
008970/20130218/100111/1870/500/10/
008970/20130218/100114/1875/2770/20/
008970/20130218/100114/1870/4200/10/
008970/20130218/100142/1870/280/20/
008970/20130218/100210/1870/100/20/
008970/20130218/100228/1870/130/20/
008970/20130218/100232/1870/400/20/
008970/20130218/100232/1870/1390/20/
008970/20130218/100245/1870/580/10/
008970/20130218/100259/1870/530/10/
008970/20130218/100300/1870/5620/10/
008970/20130218/100310/1870/150/20/
008970/20130218/100310/1870/750/20/
008970/20130218/100413/1870/1830/10/
008970/20130218/100422/1870/190/10/
008970/20130218/100447/1870/4770/10/
008970/20130218/100454/1865/15230/10/
008970/20130218/100505/1865/580/10/
008970/20130218/100542/1865/230/10/
008970/20130218/100557/1865/1070/10/
008970/20130218/100604/1870/130/20/
008970/20130218/100624/1870/8260/20/
008970/20130218/100639/1870/1690/10/
008970/20130218/100707/1870/370/10/
008970/20130218/100734/1870/220/20/
008970/20130218/100825/1870/670/20/
008970/20130218/100844/1870/200/10/
008970/20130218/100901/1870/100/10/
008970/20130218/100925/1870/1100/20/
008970/20130218/100943/1870/500/20/
008970/20130218/101010/1865/3000/10/
008970/20130218/101245/1865/1970/10/
008970/20130218/101401/1865/700/10/
008970/20130218/101411/1865/540/10/
008970/20130218/101418/1865/170/10/
008970/20130218/101425/1865/500/10/
008970/20130218/101555/1865/950/10/
008970/20130218/101611/1870/500/20/
008970/20130218/101726/1870/5020/20/
008970/20130218/101755/1870/3000/20/
008970/20130218/101834/1865/14260/10/
008970/20130218/101858/1870/3000/20/
008970/20130218/101922/1865/1170/10/
008970/20130218/101937/1870/710/20/
008970/20130218/102009/1870/1060/20/
008970/20130218/102029/1870/130/10/
008970/20130218/102033/1870/410/10/
008970/20130218/102035/1870/590/20/
008970/20130218/102056/1870/1000/10/
008970/20130218/102116/1870/1350/10/
008970/20130218/102231/1870/300/20/
008970/20130218/102244/1870/200/20/
008970/20130218/102251/1870/2380/20/
008970/20130218/102343/1870/1430/10/
008970/20130218/102344/1870/100/10/
008970/20130218/102354/1870/4100/10/
008970/20130218/102404/1870/200/10/
008970/20130218/102444/1875/2740/20/
008970/20130218/102454/1875/1000/20/
008970/20130218/102526/1875/5000/20/
008970/20130218/102529/1875/2000/20/
008970/20130218/102532/1875/100/20/
008970/20130218/102557/1870/3400/10/
008970/20130218/102602/1870/4220/10/
008970/20130218/102709/1870/9090/10/
008970/20130218/102804/1870/2230/20/
008970/20130218/103034/1875/210/20/
008970/20130218/103234/1875/880/20/
008970/20130218/103354/1875/500/20/
008970/20130218/103430/1875/100/20/
008970/20130218/103506/1875/1000/20/
008970/20130218/103722/1875/510/20/
008970/20130218/103728/1870/300/10/
008970/20130218/103733/1870/1000/10/
008970/20130218/103743/1870/1000/10/
008970/20130218/103747/1870/7220/10/
008970/20130218/103754/1870/4200/20/
008970/20130218/103758/1870/4300/10/
008970/20130218/103807/1870/500/20/
008970/20130218/103822/1870/530/20/
008970/20130218/103825/1870/4000/20/
008970/20130218/103841/1870/900/20/
008970/20130218/103853/1870/2570/20/
008970/20130218/103857/1870/1000/10/
008970/20130218/103932/1870/5000/10/
008970/20130218/103933/1870/510/10/
008970/20130218/104250/1870/450/20/
008970/20130218/104434/1870/460/20/
008970/20130218/104535/1865/2000/10/
008970/20130218/104538/1865/3400/10/
008970/20130218/104552/1865/180/10/
008970/20130218/104555/1865/990/10/
008970/20130218/104601/1865/25420/10/
008970/20130218/104747/1860/620/10/
008970/20130218/104813/1860/200/10/
008970/20130218/104912/1860/1010/10/
008970/20130218/104934/1860/1130/10/
008970/20130218/105144/1865/2010/20/
008970/20130218/105213/1860/810/10/
008970/20130218/105324/1865/1330/20/
008970/20130218/105337/1865/500/20/
008970/20130218/105342/1865/3110/20/
008970/20130218/105345/1865/90/20/
008970/20130218/105414/1865/200/20/
008970/20130218/105426/1865/1000/20/
008970/20130218/105442/1860/3450/10/
008970/20130218/105605/1860/560/10/
008970/20130218/105615/1860/1580/10/
008970/20130218/105744/1860/890/10/
008970/20130218/105822/1860/5500/10/
008970/20130218/105836/1860/500/10/
008970/20130218/105847/1860/2630/10/
008970/20130218/110111/1860/1010/10/
008970/20130218/110117/1860/2500/10/
008970/20130218/110242/1860/2010/10/
008970/20130218/110329/1860/500/10/
008970/20130218/110353/1860/390/10/
008970/20130218/110442/1860/500/10/
008970/20130218/110529/1860/4030/10/
008970/20130218/110535/1860/500/10/
008970/20130218/110629/1865/100/20/
008970/20130218/110629/1860/4000/10/
008970/20130218/110706/1860/1720/10/
008970/20130218/110713/1860/2070/10/
008970/20130218/110727/1860/3000/10/
008970/20130218/110728/1860/1820/10/
008970/20130218/110801/1860/5000/20/
008970/20130218/110816/1860/680/20/
008970/20130218/110900/1865/500/20/
008970/20130218/111004/1860/240/10/
008970/20130218/111106/1860/6640/10/
008970/20130218/111106/1855/2760/10/
008970/20130218/111115/1860/500/20/
008970/20130218/111158/1860/1010/10/
008970/20130218/111211/1860/100/10/
008970/20130218/111214/1860/1390/10/
008970/20130218/111244/1855/3540/10/
008970/20130218/111306/1855/2000/10/
008970/20130218/111327/1855/1000/10/
008970/20130218/111402/1855/1050/10/
008970/20130218/111416/1855/2000/10/
008970/20130218/111417/1855/150/10/
008970/20130218/111550/1855/950/10/
008970/20130218/111649/1855/4000/10/
008970/20130218/111740/1860/5060/20/
008970/20130218/111840/1855/1100/10/
008970/20130218/111907/1855/2010/10/
008970/20130218/111927/1855/650/10/
008970/20130218/111952/1855/5020/10/
008970/20130218/112007/1860/4000/20/
008970/20130218/112200/1855/9280/10/
008970/20130218/112202/1860/2400/20/
008970/20130218/112237/1860/100/20/
008970/20130218/112243/1860/1460/20/
008970/20130218/112243/1860/540/10/
008970/20130218/112317/1860/2250/20/
008970/20130218/112318/1860/750/10/
008970/20130218/112341/1860/5000/10/
008970/20130218/112411/1860/1500/10/
008970/20130218/112411/1860/3520/10/
008970/20130218/112421/1865/2300/20/
008970/20130218/112449/1865/300/20/
008970/20130218/112449/1865/400/20/
008970/20130218/112912/1860/180/10/
008970/20130218/112931/1860/330/10/
008970/20130218/113035/1865/130/20/
008970/20130218/113121/1860/90/10/
008970/20130218/113211/1860/200/10/
008970/20130218/113330/1860/240/10/
008970/20130218/113413/1860/210/10/
008970/20130218/113421/1860/5000/10/
008970/20130218/113501/1860/3380/10/
008970/20130218/113511/1860/510/10/
008970/20130218/113515/1860/1000/10/
008970/20130218/113608/1860/200/10/
008970/20130218/113642/1860/2770/10/
008970/20130218/113645/1860/2540/10/
008970/20130218/113645/1860/720/10/
008970/20130218/113752/1860/3000/10/
008970/20130218/113851/1860/1540/10/
008970/20130218/113909/1860/4000/10/
008970/20130218/113909/1860/3460/10/
008970/20130218/113921/1860/3000/10/
008970/20130218/113929/1860/2010/10/
008970/20130218/113929/1860/3310/10/
008970/20130218/113938/1860/1080/10/
008970/20130218/113945/1860/100/10/
008970/20130218/113959/1860/110/10/
008970/20130218/114021/1860/4330/10/
008970/20130218/114026/1860/730/20/
008970/20130218/114043/1860/240/10/
008970/20130218/114057/1860/1030/10/
008970/20130218/114106/1860/5020/10/
008970/20130218/114125/1860/90/10/
008970/20130218/114234/1860/120/10/
008970/20130218/114259/1860/510/10/
008970/20130218/114301/1860/2700/10/
008970/20130218/114309/1860/1250/10/
008970/20130218/114329/1860/1000/10/
008970/20130218/114336/1865/11880/20/
008970/20130218/114416/1870/700/20/
008970/20130218/114428/1870/500/20/
008970/20130218/114435/1870/100/20/
008970/20130218/114450/1870/500/20/
008970/20130218/114451/1870/90/20/
008970/20130218/114454/1870/480/20/
008970/20130218/114457/1870/1010/20/
008970/20130218/114459/1870/1000/20/
008970/20130218/114520/1870/90/20/
008970/20130218/114523/1870/90/20/
008970/20130218/114526/1870/90/20/
008970/20130218/114529/1870/90/20/
008970/20130218/114529/1870/580/20/
008970/20130218/114532/1865/90/10/
008970/20130218/114532/1865/1020/10/
008970/20130218/114535/1865/90/10/
008970/20130218/114536/1870/1020/20/
008970/20130218/114538/1865/90/10/
008970/20130218/114540/1870/3250/20/
008970/20130218/114540/1870/200/20/
008970/20130218/114543/1865/90/10/
008970/20130218/114546/1865/90/10/
008970/20130218/114549/1865/90/10/
008970/20130218/114552/1865/90/10/
008970/20130218/114555/1865/90/10/
008970/20130218/114555/1870/3000/20/
008970/20130218/114556/1870/1040/20/
008970/20130218/114558/1870/740/20/
008970/20130218/114558/1870/4870/20/
008970/20130218/114600/1865/90/10/
008970/20130218/114601/1865/120/10/
008970/20130218/114603/1865/90/10/
008970/20130218/114606/1865/90/10/
008970/20130218/114609/1870/90/20/
008970/20130218/114611/1870/90/20/
008970/20130218/114614/1870/90/20/
008970/20130218/114618/1865/90/10/
008970/20130218/114620/1865/90/10/
008970/20130218/114621/1870/110/20/
008970/20130218/114625/1870/320/20/
008970/20130218/114625/1870/200/20/
008970/20130218/114627/1870/220/20/
008970/20130218/114628/1870/5010/20/
008970/20130218/114628/1870/220/20/
008970/20130218/114630/1870/220/20/
008970/20130218/114631/1870/5010/20/
008970/20130218/114631/1870/210/20/
008970/20130218/114633/1870/2030/20/
008970/20130218/114633/1870/200/20/
008970/20130218/114633/1870/1000/20/
008970/20130218/114633/1870/2890/20/
008970/20130218/114633/1870/2290/10/
008970/20130218/114634/1870/310/20/
008970/20130218/114635/1870/220/20/
008970/20130218/114636/1870/250/20/
008970/20130218/114639/1870/3430/20/
008970/20130218/114640/1870/680/20/
008970/20130218/114640/1870/110/20/
008970/20130218/114640/1870/100/20/
008970/20130218/114641/1870/100/20/
008970/20130218/114642/1870/110/20/
008970/20130218/114642/1870/110/20/
008970/20130218/114642/1870/2010/20/
008970/20130218/114643/1870/100/20/
008970/20130218/114643/1870/120/20/
008970/20130218/114643/1870/270/20/
008970/20130218/114643/1870/730/10/
008970/20130218/114644/1875/100/20/
008970/20130218/114644/1875/110/20/
008970/20130218/114644/1875/100/20/
008970/20130218/114645/1875/120/20/
008970/20130218/114646/1875/4310/20/
008970/20130218/114646/1875/100/20/
008970/20130218/114647/1875/140/20/
008970/20130218/114648/1875/120/20/
008970/20130218/114649/1875/110/20/
008970/20130218/114650/1875/120/20/
008970/20130218/114651/1875/140/20/
008970/20130218/114652/1875/140/20/
008970/20130218/114653/1875/120/20/
008970/20130218/114654/1875/500/20/
008970/20130218/114654/1875/120/20/
008970/20130218/114654/1875/1020/20/
008970/20130218/114655/1875/110/20/
008970/20130218/114656/1875/120/20/
008970/20130218/114656/1875/110/20/
008970/20130218/114657/1875/110/20/
008970/20130218/114657/1875/110/20/
008970/20130218/114657/1875/2700/20/
008970/20130218/114658/1875/120/20/
008970/20130218/114659/1875/120/20/
008970/20130218/114700/1875/120/20/
008970/20130218/114701/1875/110/20/
008970/20130218/114702/1875/130/20/
008970/20130218/114702/1875/140/20/
008970/20130218/114703/1875/120/20/
008970/20130218/114704/1875/120/20/
008970/20130218/114705/1875/1000/20/
008970/20130218/114706/1875/6040/20/
008970/20130218/114708/1875/90/20/
008970/20130218/114708/1875/3070/20/
008970/20130218/114708/1870/1000/10/
008970/20130218/114709/1875/1200/20/
008970/20130218/114709/1875/110/20/
008970/20130218/114710/1875/110/20/
008970/20130218/114711/1875/2460/20/
008970/20130218/114711/1875/1000/20/
008970/20130218/114712/1875/100/20/
008970/20130218/114712/1875/100/20/
008970/20130218/114713/1875/110/20/
008970/20130218/114713/1875/740/20/
008970/20130218/114714/1875/90/20/
008970/20130218/114715/1875/110/20/
008970/20130218/114715/1875/2000/20/
008970/20130218/114715/1875/140/20/
008970/20130218/114716/1875/110/20/
008970/20130218/114717/1875/510/20/
008970/20130218/114717/1875/580/20/
008970/20130218/114718/1875/100/20/
008970/20130218/114718/1875/110/20/
008970/20130218/114719/1875/110/20/
008970/20130218/114720/1875/90/20/
008970/20130218/114720/1875/2990/20/
008970/20130218/114721/1875/1080/20/
008970/20130218/114722/1875/90/20/
008970/20130218/114723/1875/110/20/
008970/20130218/114724/1875/3080/20/
008970/20130218/114724/1875/100/20/
008970/20130218/114724/1880/90/20/
008970/20130218/114725/1880/100/20/
008970/20130218/114726/1880/110/20/
008970/20130218/114728/1880/90/20/
008970/20130218/114728/1880/600/20/
008970/20130218/114729/1880/90/20/
008970/20130218/114731/1880/90/20/
008970/20130218/114732/1880/110/20/
008970/20130218/114733/1880/90/20/
008970/20130218/114734/1880/90/20/
008970/20130218/114736/1880/90/20/
008970/20130218/114737/1880/110/20/
008970/20130218/114738/1880/90/20/
008970/20130218/114741/1880/1040/20/
008970/20130218/114742/1880/520/20/
008970/20130218/114742/1880/1000/20/
008970/20130218/114744/1880/170/20/
008970/20130218/114746/1880/140/20/
008970/20130218/114747/1880/140/20/
008970/20130218/114748/1880/1040/20/
008970/20130218/114749/1880/150/20/
008970/20130218/114750/1880/160/20/
008970/20130218/114753/1880/180/20/
008970/20130218/114754/1880/150/20/
008970/20130218/114755/1880/150/20/
008970/20130218/114756/1880/1520/20/
008970/20130218/114756/1880/140/20/
008970/20130218/114757/1880/150/20/
008970/20130218/114759/1880/160/20/
008970/20130218/114800/1880/150/20/
008970/20130218/114801/1880/150/20/
008970/20130218/114802/1880/150/20/
008970/20130218/114804/1880/90/20/
008970/20130218/114805/1880/100/20/
008970/20130218/114806/1880/110/20/
008970/20130218/114807/1880/90/20/
008970/20130218/114808/1880/110/20/
008970/20130218/114809/1880/90/20/
008970/20130218/114810/1880/540/20/
008970/20130218/114811/1880/110/20/
008970/20130218/114812/1880/110/20/
008970/20130218/114813/1880/90/20/
008970/20130218/114814/1880/870/20/
008970/20130218/114815/1880/90/20/
008970/20130218/114815/1880/2110/20/
008970/20130218/114816/1880/110/20/
008970/20130218/114818/1880/110/20/
008970/20130218/114819/1880/90/20/
008970/20130218/114820/1880/110/20/
008970/20130218/114820/1880/100/20/
008970/20130218/114821/1880/90/20/
008970/20130218/114822/1880/1040/20/
008970/20130218/114822/1880/6000/20/
008970/20130218/114823/1880/1050/20/
008970/20130218/114824/1880/110/20/
008970/20130218/114824/1880/1240/20/
008970/20130218/114825/1880/90/20/
008970/20130218/114826/1880/100/20/
008970/20130218/114827/1880/160/20/
008970/20130218/114827/1880/100/20/
008970/20130218/114827/1880/14720/20/
008970/20130218/114828/1880/780/20/
008970/20130218/114828/1880/1220/20/
008970/20130218/114829/1880/1030/20/
008970/20130218/114829/1880/1040/20/
008970/20130218/114830/1880/380/20/
008970/20130218/114830/1880/20010/20/
008970/20130218/114831/1880/100/20/
008970/20130218/114831/1880/100/20/
008970/20130218/114831/1880/910/20/
008970/20130218/114832/1880/90/20/
008970/20130218/114833/1880/10070/20/
008970/20130218/114833/1880/340/20/
008970/20130218/114834/1880/5070/20/
008970/20130218/114834/1880/100/20/
008970/20130218/114834/1880/300/20/
008970/20130218/114834/1880/2310/20/
008970/20130218/114838/1885/90/20/
008970/20130218/114838/1885/100/20/
008970/20130218/114841/1885/2400/20/
008970/20130218/114841/1885/800/20/
008970/20130218/114842/1885/1630/20/
008970/20130218/114845/1885/8150/20/
008970/20130218/114846/1885/530/20/
008970/20130218/114847/1885/150/20/
008970/20130218/114847/1885/10000/20/
008970/20130218/114848/1885/210/20/
008970/20130218/114848/1885/500/20/
008970/20130218/114849/1885/150/20/
008970/20130218/114850/1885/160/20/
008970/20130218/114850/1885/9820/20/
008970/20130218/114850/1885/2000/20/
008970/20130218/114851/1885/1850/20/
008970/20130218/114854/1885/2760/10/
008970/20130218/114854/1885/1330/10/
008970/20130218/114859/1885/1000/10/
008970/20130218/114902/1885/100/10/
008970/20130218/114902/1885/1000/10/
008970/20130218/114905/1885/680/10/
008970/20130218/114906/1885/410/20/
008970/20130218/114908/1885/1910/20/
008970/20130218/114908/1885/500/10/
008970/20130218/114909/1885/330/10/
008970/20130218/114918/1880/6460/10/
008970/20130218/114920/1880/220/10/
008970/20130218/114926/1880/90/20/
008970/20130218/114937/1880/90/20/
008970/20130218/114939/1880/100/20/
008970/20130218/114941/1880/90/20/
008970/20130218/114942/1880/90/20/
008970/20130218/114943/1880/1050/20/
008970/20130218/114944/1880/100/20/
008970/20130218/114951/1880/5970/20/
008970/20130218/114953/1880/4240/10/
008970/20130218/115000/1880/630/10/
008970/20130218/115016/1885/200/20/
008970/20130218/115031/1880/13000/10/
008970/20130218/115031/1880/1400/10/
008970/20130218/115126/1880/110/20/
008970/20130218/115142/1875/500/10/
008970/20130218/115153/1875/5000/10/
008970/20130218/115208/1875/10000/10/
008970/20130218/115213/1875/2000/10/
008970/20130218/115243/1875/290/10/
008970/20130218/115259/1870/10000/10/
008970/20130218/115307/1870/1150/10/
008970/20130218/115307/1870/150/10/
008970/20130218/115310/1870/400/10/
008970/20130218/115353/1870/90/10/
008970/20130218/115405/1870/3180/10/
008970/20130218/115410/1870/300/10/
008970/20130218/115421/1870/100/10/
008970/20130218/115432/1870/2410/10/
008970/20130218/115442/1870/500/10/
008970/20130218/115443/1870/500/10/
008970/20130218/115544/1870/3390/10/
008970/20130218/115548/1870/3000/20/
008970/20130218/115600/1870/1520/20/
008970/20130218/115633/1875/4510/20/
008970/20130218/115709/1875/2850/20/
008970/20130218/115717/1875/280/20/
008970/20130218/115733/1875/150/20/
008970/20130218/115808/1870/400/10/
008970/20130218/115901/1875/1000/20/
008970/20130218/115905/1870/200/10/
008970/20130218/115958/1870/600/10/
008970/20130218/115959/1875/200/20/
008970/20130218/120132/1875/440/20/
008970/20130218/120152/1875/770/20/
008970/20130218/120232/1870/500/10/
008970/20130218/120354/1870/1280/10/
008970/20130218/120408/1870/13280/10/
008970/20130218/120505/1870/200/20/
008970/20130218/120557/1870/1000/20/
008970/20130218/120558/1870/700/20/
008970/20130218/120624/1870/1000/20/
008970/20130218/120716/1870/710/20/
008970/20130218/120718/1870/120/20/
008970/20130218/120919/1865/310/10/
008970/20130218/121021/1865/850/10/
008970/20130218/121044/1865/1760/10/
008970/20130218/121241/1865/240/10/
008970/20130218/121318/1865/2820/10/
008970/20130218/121527/1865/100/10/
008970/20130218/121726/1870/1310/20/
008970/20130218/121939/1865/3130/10/
008970/20130218/122041/1865/4780/10/
008970/20130218/122047/1865/490/10/
008970/20130218/122329/1865/1020/10/
008970/20130218/122339/1865/1010/10/
008970/20130218/122354/1865/530/10/
008970/20130218/122606/1865/110/10/
008970/20130218/122616/1870/3000/20/
008970/20130218/122837/1870/1000/20/
008970/20130218/123008/1870/1050/20/
008970/20130218/123008/1865/2710/10/
008970/20130218/123109/1870/980/20/
008970/20130218/123127/1870/500/20/
008970/20130218/123206/1870/100/20/
008970/20130218/123230/1870/290/20/
008970/20130218/123315/1870/1000/20/
008970/20130218/123334/1870/240/20/
008970/20130218/123341/1870/100/20/
008970/20130218/123435/1870/190/20/
008970/20130218/123622/1870/2050/20/
008970/20130218/123644/1870/1000/20/
008970/20130218/123851/1870/530/20/
008970/20130218/123913/1870/500/20/
008970/20130218/123948/1870/500/20/
008970/20130218/124030/1865/360/10/
008970/20130218/124116/1865/7440/10/
008970/20130218/124144/1865/10830/10/
008970/20130218/124316/1870/100/20/
008970/20130218/124403/1865/500/10/
008970/20130218/124515/1870/130/20/
008970/20130218/124709/1865/9780/10/
008970/20130218/124711/1865/540/10/
008970/20130218/124724/1865/780/10/
008970/20130218/124852/1865/110/10/
008970/20130218/124914/1865/500/10/
008970/20130218/124935/1865/640/10/
008970/20130218/124935/1865/690/10/
008970/20130218/124956/1865/800/10/
008970/20130218/124959/1865/200/10/
008970/20130218/125048/1865/520/10/
008970/20130218/125102/1865/740/10/
008970/20130218/125103/1865/300/10/
008970/20130218/125112/1865/90/10/
008970/20130218/125131/1865/100/10/
008970/20130218/125133/1865/550/10/
008970/20130218/125138/1865/220/10/
008970/20130218/125146/1865/200/10/
008970/20130218/125156/1865/200/10/
008970/20130218/125205/1865/160/10/
008970/20130218/125241/1860/2470/10/
008970/20130218/125258/1860/510/10/
008970/20130218/125308/1865/1110/20/
008970/20130218/125321/1865/100/20/
008970/20130218/125334/1865/2150/20/
008970/20130218/125503/1860/560/10/
008970/20130218/125520/1860/22000/10/
008970/20130218/125808/1860/2010/10/
008970/20130218/125821/1860/1500/10/
008970/20130218/130106/1860/1100/10/
008970/20130218/130113/1860/2440/10/
008970/20130218/130318/1860/3320/10/
008970/20130218/130416/1860/550/10/
008970/20130218/130439/1860/100/10/
008970/20130218/130527/1860/230/10/
008970/20130218/130534/1860/1100/10/
008970/20130218/130720/1865/830/20/
008970/20130218/130722/1860/1720/10/
008970/20130218/130810/1860/900/10/
008970/20130218/130821/1860/1000/10/
008970/20130218/130822/1860/420/10/
008970/20130218/130830/1860/1000/10/
008970/20130218/130912/1860/9790/10/
008970/20130218/131025/1860/6770/20/
008970/20130218/131046/1860/1100/20/
008970/20130218/131100/1860/2690/20/
008970/20130218/131104/1860/1620/20/
008970/20130218/131144/1860/8590/10/
008970/20130218/131147/1860/400/10/
008970/20130218/131207/1860/350/10/
008970/20130218/131305/1860/980/10/
008970/20130218/131509/1865/510/20/
008970/20130218/131816/1865/500/20/
008970/20130218/131902/1865/1310/20/
008970/20130218/131922/1865/4780/20/
008970/20130218/132115/1865/100/10/
008970/20130218/132142/1865/810/10/
008970/20130218/132149/1865/10290/10/
008970/20130218/132149/1865/1780/10/
008970/20130218/132245/1860/10900/10/
008970/20130218/132301/1865/170/20/
008970/20130218/132303/1865/500/10/
008970/20130218/132307/1865/500/10/
008970/20130218/132330/1865/300/10/
008970/20130218/132354/1865/230/10/
008970/20130218/132455/1860/940/10/
008970/20130218/132632/1860/740/10/
008970/20130218/132744/1865/5300/20/
008970/20130218/132750/1860/1450/10/
008970/20130218/132842/1860/2150/10/
008970/20130218/132850/1865/1000/20/
008970/20130218/132929/1865/1960/20/
008970/20130218/133118/1865/6350/10/
008970/20130218/133206/1865/2000/20/
008970/20130218/133357/1860/1780/10/
008970/20130218/133456/1865/3000/20/
008970/20130218/133553/1865/1030/20/
008970/20130218/133617/1865/2650/10/
008970/20130218/133624/1870/1000/20/
008970/20130218/133648/1870/4110/20/
008970/20130218/133856/1865/1010/10/
008970/20130218/133942/1865/5330/10/
008970/20130218/134034/1865/1000/20/
008970/20130218/134054/1865/960/20/
008970/20130218/134056/1865/530/20/
008970/20130218/134105/1865/960/20/
008970/20130218/134208/1865/180/20/
008970/20130218/134255/1865/3190/10/
008970/20130218/134301/1865/610/10/
008970/20130218/134341/1865/790/20/
008970/20130218/134419/1865/100/10/
008970/20130218/134431/1865/100/10/
008970/20130218/134800/1870/130/20/
008970/20130218/134856/1865/210/10/
008970/20130218/134903/1865/100/10/
008970/20130218/134912/1870/860/20/
008970/20130218/134944/1870/1000/20/
008970/20130218/135115/1865/4000/10/
008970/20130218/135147/1865/1550/10/
008970/20130218/135244/1865/4800/10/
008970/20130218/135251/1865/100/10/
008970/20130218/135324/1865/100/10/
008970/20130218/135511/1865/2000/10/
008970/20130218/135600/1865/300/10/
008970/20130218/135631/1865/5000/10/
008970/20130218/135652/1865/2840/10/
008970/20130218/135828/1860/7250/10/
008970/20130218/135950/1860/30020/10/
008970/20130218/135950/1860/630/10/
008970/20130218/140100/1860/500/10/
008970/20130218/140131/1860/260/10/
008970/20130218/140158/1860/500/10/
008970/20130218/140202/1860/1500/10/
008970/20130218/140213/1860/1610/10/
008970/20130218/140220/1860/660/10/
008970/20130218/140220/1855/410/10/
008970/20130218/140254/1855/4290/10/
008970/20130218/140312/1860/100/20/
008970/20130218/140433/1855/1000/10/
008970/20130218/140450/1855/2000/10/
008970/20130218/140454/1855/1110/10/
008970/20130218/140532/1860/1000/20/
008970/20130218/140543/1860/950/20/
008970/20130218/140544/1860/1000/20/
008970/20130218/140554/1860/2000/20/
008970/20130218/140611/1860/2500/20/
008970/20130218/140643/1860/110/20/
008970/20130218/140655/1860/1090/10/
008970/20130218/140700/1860/400/20/
008970/20130218/140715/1860/800/20/
008970/20130218/140722/1860/90/20/
008970/20130218/140736/1860/760/20/
008970/20130218/140748/1860/360/10/
008970/20130218/140827/1860/2020/20/
008970/20130218/140837/1860/510/20/
008970/20130218/140903/1860/100/20/
008970/20130218/140924/1860/1000/20/
008970/20130218/140938/1860/90/20/
008970/20130218/140946/1860/1000/10/
008970/20130218/140946/1860/940/10/
008970/20130218/141023/1860/500/20/
008970/20130218/141221/1860/2000/20/
008970/20130218/141420/1860/100/20/
008970/20130218/141507/1860/5000/20/
008970/20130218/141511/1860/1340/20/
008970/20130218/141519/1860/160/10/
008970/20130218/141551/1860/1800/20/
008970/20130218/141614/1860/120/20/
008970/20130218/141726/1860/420/20/
008970/20130218/141751/1860/3840/10/
008970/20130218/141759/1860/1000/10/
008970/20130218/141811/1865/300/20/
008970/20130218/141821/1860/4770/10/
008970/20130218/141904/1860/780/20/
008970/20130218/141938/1860/1000/20/
008970/20130218/141948/1860/2000/20/
008970/20130218/142038/1855/980/10/
008970/20130218/142148/1860/510/20/
008970/20130218/142216/1860/540/20/
008970/20130218/142231/1860/1000/20/
008970/20130218/142312/1860/350/20/
008970/20130218/142341/1860/3540/20/
008970/20130218/142349/1860/500/20/
008970/20130218/142400/1860/2900/20/
008970/20130218/142624/1860/6000/10/
008970/20130218/142821/1860/230/10/
008970/20130218/143007/1860/90/10/
008970/20130218/143116/1860/1330/10/
008970/20130218/143129/1860/530/10/
008970/20130218/143148/1860/1600/10/
008970/20130218/143211/1865/1000/20/
008970/20130218/143211/1860/3800/10/
008970/20130218/143213/1865/1000/20/
008970/20130218/143433/1865/590/20/
008970/20130218/143445/1865/5000/20/
008970/20130218/143449/1865/400/20/
008970/20130218/143450/1865/100/20/
008970/20130218/143512/1865/210/20/
008970/20130218/143523/1865/100/20/
008970/20130218/143537/1860/2610/10/
008970/20130218/143646/1860/1500/10/
008970/20130218/143700/1860/1500/10/
008970/20130218/143742/1860/4800/10/
008970/20130218/143944/1860/1070/10/
008970/20130218/144006/1860/230/10/
008970/20130218/144008/1860/240/10/
008970/20130218/144014/1860/540/10/
008970/20130218/144021/1860/2220/10/
008970/20130218/144036/1860/3000/10/
008970/20130218/144100/1860/1840/10/
008970/20130218/144142/1860/220/10/
008970/20130218/144159/1860/140/10/
008970/20130218/144203/1860/2420/10/
008970/20130218/144206/1860/500/10/
008970/20130218/144233/1860/1960/10/
008970/20130218/144252/1860/500/10/
008970/20130218/144258/1860/500/10/
008970/20130218/144300/1860/100/10/
008970/20130218/144304/1860/200/10/
008970/20130218/144313/1860/90/10/
008970/20130218/144358/1865/300/20/
008970/20130218/144411/1860/430/10/
008970/20130218/144420/1865/7220/20/
008970/20130218/144444/1865/2400/20/
008970/20130218/144452/1865/500/20/
008970/20130218/144509/1865/2010/20/
008970/20130218/144709/1865/10750/20/
008970/20130218/144721/1865/2430/20/
008970/20130218/144733/1865/1000/10/
008970/20130218/144820/1865/5000/10/
008970/20130218/144824/1865/1500/10/
008970/20130218/144831/1865/930/10/
008970/20130218/144835/1865/360/10/
008970/20130218/144906/1865/1020/20/
008970/20130218/144920/1865/1000/20/
008970/20130218/144924/1860/530/10/
008970/20130218/144931/1865/7890/20/
008970/20130218/144947/1865/130/10/
008970/20130218/144955/1870/750/20/
008970/20130218/150000/1870/64540/20/
