008970/20130111/90000/1835/42500/10/
008970/20130111/90008/1835/650/10/
008970/20130111/90009/1835/150/10/
008970/20130111/90015/1835/660/10/
008970/20130111/90024/1835/970/20/
008970/20130111/90044/1830/220/10/
008970/20130111/90052/1830/1000/10/
008970/20130111/90139/1840/3000/20/
008970/20130111/90204/1840/500/20/
008970/20130111/90204/1835/500/10/
008970/20130111/90210/1835/150/10/
008970/20130111/90217/1835/1090/10/
008970/20130111/90226/1840/4230/20/
008970/20130111/90228/1840/2000/20/
008970/20130111/90230/1840/2900/20/
008970/20130111/90231/1840/4000/20/
008970/20130111/90232/1840/20000/20/
008970/20130111/90232/1840/2650/20/
008970/20130111/90253/1845/670/20/
008970/20130111/90307/1840/300/10/
008970/20130111/90323/1840/3050/10/
008970/20130111/90325/1840/2950/10/
008970/20130111/90357/1840/1050/10/
008970/20130111/90400/1840/220/10/
008970/20130111/90401/1840/2000/10/
008970/20130111/90408/1840/930/10/
008970/20130111/90421/1840/1070/20/
008970/20130111/90431/1840/2300/10/
008970/20130111/90433/1840/1630/10/
008970/20130111/90434/1840/470/10/
008970/20130111/90439/1840/3410/10/
008970/20130111/90446/1840/200/20/
008970/20130111/90507/1840/100/20/
008970/20130111/90509/1840/1000/20/
008970/20130111/90510/1835/200/10/
008970/20130111/90511/1840/210/20/
008970/20130111/90530/1840/1600/20/
008970/20130111/90557/1845/210/20/
008970/20130111/90612/1845/6100/20/
008970/20130111/90642/1845/5110/20/
008970/20130111/90643/1845/1390/10/
008970/20130111/90649/1845/310/20/
008970/20130111/90651/1845/5000/20/
008970/20130111/90652/1845/2000/20/
008970/20130111/90654/1845/1300/20/
008970/20130111/90656/1845/1700/10/
008970/20130111/90703/1845/400/20/
008970/20130111/90710/1845/150/10/
008970/20130111/90711/1845/1020/10/
008970/20130111/90716/1845/2000/10/
008970/20130111/90717/1845/860/10/
008970/20130111/90726/1845/1190/20/
008970/20130111/90728/1845/1000/10/
008970/20130111/90731/1845/400/10/
008970/20130111/90744/1850/9010/20/
008970/20130111/90754/1845/1100/10/
008970/20130111/90758/1845/420/10/
008970/20130111/90758/1845/590/10/
008970/20130111/90759/1845/1470/10/
008970/20130111/90800/1845/1530/20/
008970/20130111/90805/1845/1600/10/
008970/20130111/90816/1845/16090/10/
008970/20130111/90819/1845/150/20/
008970/20130111/90824/1845/6880/20/
008970/20130111/90826/1845/1000/20/
008970/20130111/90826/1845/200/20/
008970/20130111/90829/1845/640/20/
008970/20130111/90831/1845/2440/20/
008970/20130111/90835/1845/200/10/
008970/20130111/90850/1845/100/10/
008970/20130111/90850/1845/2340/10/
008970/20130111/90908/1845/1060/10/
008970/20130111/90916/1845/1010/10/
008970/20130111/90924/1845/1550/10/
008970/20130111/90929/1845/450/20/
008970/20130111/90935/1845/3000/20/
008970/20130111/90938/1845/90/20/
008970/20130111/90938/1845/820/20/
008970/20130111/90941/1845/4060/10/
008970/20130111/90947/1845/5260/20/
008970/20130111/91001/1845/340/20/
008970/20130111/91003/1840/10590/10/
008970/20130111/91011/1840/1000/20/
008970/20130111/91012/1835/6960/10/
008970/20130111/91014/1840/1000/20/
008970/20130111/91041/1835/1000/10/
008970/20130111/91045/1835/1590/10/
008970/20130111/91118/1840/300/20/
008970/20130111/91126/1835/1520/10/
008970/20130111/91130/1835/360/10/
008970/20130111/91226/1840/550/20/
008970/20130111/91321/1840/5000/20/
008970/20130111/91328/1840/590/20/
008970/20130111/91337/1840/440/10/
008970/20130111/91415/1840/1410/20/
008970/20130111/91426/1840/100/20/
008970/20130111/91428/1840/100/20/
008970/20130111/91430/1840/100/20/
008970/20130111/91432/1840/100/20/
008970/20130111/91432/1835/1000/10/
008970/20130111/91435/1840/100/20/
008970/20130111/91451/1840/100/20/
008970/20130111/91455/1840/100/20/
008970/20130111/91530/1840/200/20/
008970/20130111/91539/1840/200/20/
008970/20130111/91540/1835/100/10/
008970/20130111/91550/1835/2670/10/
008970/20130111/91603/1835/1630/10/
008970/20130111/91617/1835/510/10/
008970/20130111/91627/1835/5500/10/
008970/20130111/91632/1835/1000/10/
008970/20130111/91633/1835/1000/10/
008970/20130111/91634/1835/1000/10/
008970/20130111/91634/1835/2730/10/
008970/20130111/91635/1835/1000/10/
008970/20130111/91642/1835/10000/10/
008970/20130111/91644/1835/3880/10/
008970/20130111/91706/1830/1000/10/
008970/20130111/91727/1830/2000/10/
008970/20130111/91727/1835/800/20/
008970/20130111/91733/1835/300/20/
008970/20130111/91742/1830/400/10/
008970/20130111/91745/1830/100/10/
008970/20130111/91749/1835/430/20/
008970/20130111/91801/1835/1000/20/
008970/20130111/91805/1835/110/20/
008970/20130111/91828/1835/540/20/
008970/20130111/91832/1835/2000/20/
008970/20130111/91834/1835/480/20/
008970/20130111/91850/1835/2120/20/
008970/20130111/91854/1835/150/20/
008970/20130111/91907/1835/370/10/
008970/20130111/92001/1840/1020/20/
008970/20130111/92003/1840/9430/20/
008970/20130111/92020/1840/580/10/
008970/20130111/92115/1840/1010/20/
008970/20130111/92122/1840/1970/20/
008970/20130111/92216/1845/9430/20/
008970/20130111/92217/1845/3560/20/
008970/20130111/92218/1845/500/20/
008970/20130111/92225/1845/500/20/
008970/20130111/92238/1840/300/10/
008970/20130111/92255/1840/100/10/
008970/20130111/92300/1840/2060/10/
008970/20130111/92316/1840/5000/10/
008970/20130111/92318/1840/300/10/
008970/20130111/92351/1840/4540/10/
008970/20130111/92415/1835/200/10/
008970/20130111/92524/1840/1020/20/
008970/20130111/92529/1840/200/20/
008970/20130111/92537/1840/510/20/
008970/20130111/92542/1835/1000/10/
008970/20130111/92604/1835/1200/10/
008970/20130111/92700/1840/2700/20/
008970/20130111/92749/1845/130/20/
008970/20130111/92813/1840/310/10/
008970/20130111/92836/1840/3610/10/
008970/20130111/92838/1840/100/20/
008970/20130111/92901/1835/4800/10/
008970/20130111/92918/1840/1600/20/
008970/20130111/92930/1840/2840/20/
008970/20130111/92937/1835/1000/10/
008970/20130111/92954/1835/2000/10/
008970/20130111/93014/1835/1000/10/
008970/20130111/93140/1835/2000/10/
008970/20130111/93222/1835/620/10/
008970/20130111/93312/1840/130/20/
008970/20130111/93401/1840/660/20/
008970/20130111/93508/1840/130/20/
008970/20130111/93519/1835/1470/10/
008970/20130111/93529/1835/1360/10/
008970/20130111/93546/1835/1130/10/
008970/20130111/93606/1835/600/10/
008970/20130111/93642/1840/110/20/
008970/20130111/93708/1835/1000/10/
008970/20130111/93718/1835/700/10/
008970/20130111/93735/1840/520/20/
008970/20130111/93819/1835/1400/10/
008970/20130111/93836/1835/270/10/
008970/20130111/93839/1835/270/10/
008970/20130111/93839/1835/2500/10/
008970/20130111/93841/1835/270/10/
008970/20130111/93842/1835/270/10/
008970/20130111/93844/1835/2000/10/
008970/20130111/93845/1835/270/10/
008970/20130111/93848/1835/270/10/
008970/20130111/93913/1835/770/10/
008970/20130111/93922/1835/6800/10/
008970/20130111/93923/1835/5690/10/
008970/20130111/93949/1835/1050/20/
008970/20130111/93959/1835/570/10/
008970/20130111/94117/1835/1000/10/
008970/20130111/94140/1835/1500/10/
008970/20130111/94147/1835/1000/10/
008970/20130111/94149/1835/210/10/
008970/20130111/94149/1835/1000/10/
008970/20130111/94154/1840/12000/20/
008970/20130111/94233/1835/620/10/
008970/20130111/94235/1835/100/20/
008970/20130111/94238/1835/200/20/
008970/20130111/94249/1835/1080/10/
008970/20130111/94306/1835/1000/10/
008970/20130111/94307/1835/1000/10/
008970/20130111/94317/1835/2000/10/
008970/20130111/94323/1835/3000/10/
008970/20130111/94334/1835/2000/10/
008970/20130111/94354/1835/1700/10/
008970/20130111/94409/1830/1550/10/
008970/20130111/94433/1835/230/20/
008970/20130111/94434/1830/1000/10/
008970/20130111/94447/1830/370/10/
008970/20130111/94501/1830/700/10/
008970/20130111/94523/1830/100/10/
008970/20130111/94534/1835/400/20/
008970/20130111/94538/1835/250/20/
008970/20130111/94610/1835/400/20/
008970/20130111/94706/1835/4740/20/
008970/20130111/94719/1835/100/10/
008970/20130111/94743/1840/3500/20/
008970/20130111/94919/1835/3010/10/
008970/20130111/95041/1835/1000/10/
008970/20130111/95111/1835/2000/20/
008970/20130111/95116/1835/8070/10/
008970/20130111/95116/1830/8140/10/
008970/20130111/95126/1830/560/10/
008970/20130111/95331/1835/10000/10/
008970/20130111/95351/1835/680/10/
008970/20130111/95359/1835/260/20/
008970/20130111/95401/1830/250/10/
008970/20130111/95457/1835/1000/20/
008970/20130111/95519/1830/2000/10/
008970/20130111/95550/1830/6070/10/
008970/20130111/95612/1835/160/20/
008970/20130111/95740/1830/5370/10/
008970/20130111/95754/1830/5000/10/
008970/20130111/95939/1830/660/10/
008970/20130111/95947/1830/1000/10/
008970/20130111/100023/1830/500/10/
008970/20130111/100026/1830/1000/10/
008970/20130111/100030/1830/500/10/
008970/20130111/100040/1830/300/10/
008970/20130111/100042/1830/1000/10/
008970/20130111/100053/1830/290/10/
008970/20130111/100058/1830/6920/10/
008970/20130111/100211/1830/300/10/
008970/20130111/100228/1830/540/10/
008970/20130111/100236/1835/1000/20/
008970/20130111/100239/1830/3280/10/
008970/20130111/100339/1830/1500/10/
008970/20130111/100424/1830/2000/10/
008970/20130111/100431/1835/6000/20/
008970/20130111/100459/1835/7000/20/
008970/20130111/100514/1835/3000/20/
008970/20130111/100523/1835/1000/20/
008970/20130111/100526/1835/4030/20/
008970/20130111/100608/1840/3010/20/
008970/20130111/100609/1840/100/20/
008970/20130111/100619/1840/1110/20/
008970/20130111/100623/1840/100/20/
008970/20130111/100629/1840/100/20/
008970/20130111/100634/1840/100/20/
008970/20130111/100845/1835/100/10/
008970/20130111/100905/1835/210/10/
008970/20130111/100912/1835/100/10/
008970/20130111/100912/1835/100/10/
008970/20130111/100945/1835/100/10/
008970/20130111/101107/1840/290/20/
008970/20130111/101121/1835/1460/10/
008970/20130111/101127/1835/1400/10/
008970/20130111/101129/1835/1000/10/
008970/20130111/101229/1840/5070/20/
008970/20130111/101250/1840/5000/20/
008970/20130111/101253/1840/9070/20/
008970/20130111/101316/1845/100/20/
008970/20130111/101343/1845/130/20/
008970/20130111/101345/1845/1170/20/
008970/20130111/101349/1845/11890/20/
008970/20130111/101403/1845/1040/20/
008970/20130111/101407/1845/4270/20/
008970/20130111/101409/1845/510/10/
008970/20130111/101409/1845/670/10/
008970/20130111/101415/1845/2310/20/
008970/20130111/101417/1845/880/20/
008970/20130111/101418/1845/3060/20/
008970/20130111/101423/1845/3020/20/
008970/20130111/101424/1845/510/20/
008970/20130111/101424/1845/1560/20/
008970/20130111/101428/1845/310/10/
008970/20130111/101437/1845/1100/20/
008970/20130111/101445/1845/1000/20/
008970/20130111/101448/1845/100/20/
008970/20130111/101505/1845/110/20/
008970/20130111/101514/1845/3010/20/
008970/20130111/101514/1845/200/20/
008970/20130111/101520/1845/130/20/
008970/20130111/101546/1845/2240/20/
008970/20130111/101549/1845/2010/10/
008970/20130111/101602/1840/1370/10/
008970/20130111/101656/1840/410/10/
008970/20130111/101702/1845/2010/20/
008970/20130111/101710/1845/15310/20/
008970/20130111/101724/1850/90/20/
008970/20130111/101728/1850/360/20/
008970/20130111/101729/1850/1590/20/
008970/20130111/101737/1845/120/10/
008970/20130111/101741/1845/1980/10/
008970/20130111/101758/1850/110/20/
008970/20130111/101759/1850/2560/20/
008970/20130111/101807/1850/220/20/
008970/20130111/101820/1845/2000/10/
008970/20130111/101823/1845/4000/10/
008970/20130111/101828/1845/3060/10/
008970/20130111/101829/1845/100/10/
008970/20130111/101833/1845/570/10/
008970/20130111/101836/1845/100/10/
008970/20130111/101842/1850/110/20/
008970/20130111/101846/1850/2000/20/
008970/20130111/101855/1850/500/20/
008970/20130111/101859/1850/3000/20/
008970/20130111/101903/1850/4160/20/
008970/20130111/101907/1850/820/20/
008970/20130111/101909/1850/500/20/
008970/20130111/101910/1850/630/20/
008970/20130111/101911/1850/2000/20/
008970/20130111/101912/1850/1000/20/
008970/20130111/101912/1850/540/20/
008970/20130111/101913/1850/2500/20/
008970/20130111/101914/1850/5050/20/
008970/20130111/101917/1850/150/20/
008970/20130111/101918/1850/300/20/
008970/20130111/101918/1850/200/20/
008970/20130111/101918/1850/400/20/
008970/20130111/101919/1850/500/20/
008970/20130111/101920/1850/1000/20/
008970/20130111/101920/1850/5400/20/
008970/20130111/101920/1850/1180/20/
008970/20130111/101921/1850/460/20/
008970/20130111/101923/1850/760/20/
008970/20130111/101923/1850/500/20/
008970/20130111/101924/1850/1130/20/
008970/20130111/101924/1850/3520/20/
008970/20130111/101925/1850/1470/20/
008970/20130111/101925/1855/3530/20/
008970/20130111/101933/1850/1240/10/
008970/20130111/101935/1850/250/20/
008970/20130111/101935/1850/300/20/
008970/20130111/101935/1850/90/20/
008970/20130111/101938/1850/1000/20/
008970/20130111/101940/1850/400/20/
008970/20130111/101944/1850/630/20/
008970/20130111/101945/1850/300/20/
008970/20130111/101946/1850/370/20/
008970/20130111/101948/1850/510/20/
008970/20130111/101949/1850/150/20/
008970/20130111/101949/1850/10000/20/
008970/20130111/101949/1850/300/20/
008970/20130111/101949/1850/1000/20/
008970/20130111/101950/1850/1000/20/
008970/20130111/101950/1850/1000/20/
008970/20130111/101951/1850/1000/20/
008970/20130111/101952/1850/460/20/
008970/20130111/101955/1850/1370/10/
008970/20130111/101957/1850/2000/10/
008970/20130111/102000/1850/6370/10/
008970/20130111/102002/1855/230/20/
008970/20130111/102003/1850/2830/10/
008970/20130111/102010/1850/350/10/
008970/20130111/102012/1850/1020/10/
008970/20130111/102019/1850/1010/10/
008970/20130111/102025/1850/100/10/
008970/20130111/102030/1850/700/10/
008970/20130111/102030/1850/5000/10/
008970/20130111/102031/1850/300/10/
008970/20130111/102032/1850/100/10/
008970/20130111/102032/1850/1000/10/
008970/20130111/102032/1850/1000/10/
008970/20130111/102035/1850/890/10/
008970/20130111/102037/1850/250/10/
008970/20130111/102039/1850/6020/10/
008970/20130111/102039/1850/1000/20/
008970/20130111/102039/1845/1210/10/
008970/20130111/102047/1850/1670/20/
008970/20130111/102050/1850/2000/20/
008970/20130111/102050/1850/400/20/
008970/20130111/102053/1850/1000/20/
008970/20130111/102054/1850/1000/20/
008970/20130111/102056/1850/4580/20/
008970/20130111/102057/1850/480/20/
008970/20130111/102059/1850/1200/20/
008970/20130111/102105/1850/500/20/
008970/20130111/102141/1850/1510/20/
008970/20130111/102145/1850/500/20/
008970/20130111/102159/1850/3500/20/
008970/20130111/102205/1850/2290/20/
008970/20130111/102209/1850/110/20/
008970/20130111/102209/1850/1000/20/
008970/20130111/102210/1850/800/20/
008970/20130111/102212/1850/100/20/
008970/20130111/102215/1850/1000/20/
008970/20130111/102217/1850/1000/20/
008970/20130111/102217/1850/480/20/
008970/20130111/102218/1850/100/20/
008970/20130111/102229/1850/200/20/
008970/20130111/102230/1850/500/20/
008970/20130111/102230/1850/500/20/
008970/20130111/102239/1850/500/20/
008970/20130111/102241/1850/200/20/
008970/20130111/102247/1850/1810/10/
008970/20130111/102252/1850/1580/20/
008970/20130111/102321/1845/230/10/
008970/20130111/102323/1850/400/20/
008970/20130111/102324/1845/540/10/
008970/20130111/102345/1850/510/20/
008970/20130111/102405/1850/100/20/
008970/20130111/102408/1850/200/20/
008970/20130111/102438/1850/500/20/
008970/20130111/102529/1850/100/20/
008970/20130111/102531/1850/15920/20/
008970/20130111/102538/1850/2400/20/
008970/20130111/102544/1855/90/20/
008970/20130111/102545/1850/760/10/
008970/20130111/102551/1850/240/20/
008970/20130111/102559/1850/100/10/
008970/20130111/102559/1850/2000/10/
008970/20130111/102622/1855/1040/20/
008970/20130111/102627/1850/15520/10/
008970/20130111/102633/1850/9480/20/
008970/20130111/102636/1850/5650/10/
008970/20130111/102641/1850/1010/10/
008970/20130111/102646/1850/90/10/
008970/20130111/102651/1850/570/10/
008970/20130111/102653/1850/490/10/
008970/20130111/102658/1850/2050/10/
008970/20130111/102701/1850/1000/10/
008970/20130111/102704/1850/1200/10/
008970/20130111/102715/1850/120/10/
008970/20130111/102718/1850/100/10/
008970/20130111/102728/1850/310/10/
008970/20130111/102743/1855/6010/20/
008970/20130111/102801/1855/100/20/
008970/20130111/102818/1850/2710/10/
008970/20130111/102830/1850/1000/20/
008970/20130111/102841/1850/10200/20/
008970/20130111/102857/1850/9550/10/
008970/20130111/102902/1850/1000/10/
008970/20130111/102917/1855/130/20/
008970/20130111/102921/1850/1000/10/
008970/20130111/102923/1855/10000/20/
008970/20130111/102924/1855/5170/20/
008970/20130111/102926/1855/2000/10/
008970/20130111/102927/1860/140/20/
008970/20130111/102928/1860/2500/20/
008970/20130111/102933/1860/540/20/
008970/20130111/102934/1860/100/20/
008970/20130111/102935/1860/1520/20/
008970/20130111/102939/1860/8460/20/
008970/20130111/102958/1860/1820/20/
008970/20130111/103011/1860/110/20/
008970/20130111/103027/1855/2050/10/
008970/20130111/103035/1855/350/10/
008970/20130111/103035/1855/2120/10/
008970/20130111/103038/1855/1000/20/
008970/20130111/103043/1855/1180/20/
008970/20130111/103044/1855/100/10/
008970/20130111/103045/1855/120/10/
008970/20130111/103047/1855/280/20/
008970/20130111/103102/1855/1040/10/
008970/20130111/103113/1855/1080/10/
008970/20130111/103116/1855/1000/10/
008970/20130111/103122/1855/5010/10/
008970/20130111/103126/1855/210/10/
008970/20130111/103130/1855/700/10/
008970/20130111/103132/1855/1110/10/
008970/20130111/103135/1855/100/10/
008970/20130111/103135/1855/100/10/
008970/20130111/103146/1855/420/10/
008970/20130111/103149/1855/590/20/
008970/20130111/103156/1855/530/10/
008970/20130111/103200/1855/100/10/
008970/20130111/103203/1860/1320/20/
008970/20130111/103207/1855/270/10/
008970/20130111/103221/1860/190/20/
008970/20130111/103236/1860/230/20/
008970/20130111/103239/1855/2000/10/
008970/20130111/103247/1860/150/20/
008970/20130111/103251/1860/190/20/
008970/20130111/103315/1860/510/20/
008970/20130111/103327/1860/9030/20/
008970/20130111/103328/1860/1800/20/
008970/20130111/103329/1860/3570/20/
008970/20130111/103329/1860/18220/20/
008970/20130111/103330/1860/600/20/
008970/20130111/103331/1860/500/20/
008970/20130111/103332/1860/580/20/
008970/20130111/103333/1860/2000/20/
008970/20130111/103333/1860/1790/20/
008970/20130111/103333/1860/100/20/
008970/20130111/103333/1860/1520/20/
008970/20130111/103333/1860/9880/20/
008970/20130111/103342/1865/9010/20/
008970/20130111/103345/1865/1020/20/
008970/20130111/103359/1865/2570/20/
008970/20130111/103429/1865/1680/20/
008970/20130111/103434/1865/420/20/
008970/20130111/103438/1860/1700/10/
008970/20130111/103442/1865/200/20/
008970/20130111/103451/1860/6790/10/
008970/20130111/103452/1860/1000/10/
008970/20130111/103452/1860/7260/10/
008970/20130111/103453/1860/1000/10/
008970/20130111/103454/1860/2470/10/
008970/20130111/103454/1860/200/10/
008970/20130111/103456/1860/2710/10/
008970/20130111/103457/1860/1750/20/
008970/20130111/103459/1860/260/20/
008970/20130111/103500/1860/100/20/
008970/20130111/103505/1860/1000/20/
008970/20130111/103512/1860/510/20/
008970/20130111/103518/1860/3000/20/
008970/20130111/103520/1860/1000/20/
008970/20130111/103520/1860/1000/20/
008970/20130111/103521/1860/1000/20/
008970/20130111/103523/1860/350/20/
008970/20130111/103523/1860/150/10/
008970/20130111/103525/1860/500/20/
008970/20130111/103525/1860/1000/20/
008970/20130111/103526/1860/100/20/
008970/20130111/103527/1860/200/20/
008970/20130111/103537/1860/150/20/
008970/20130111/103540/1860/100/20/
008970/20130111/103545/1860/470/20/
008970/20130111/103550/1860/1020/10/
008970/20130111/103553/1860/230/10/
008970/20130111/103554/1860/160/10/
008970/20130111/103554/1855/2840/10/
008970/20130111/103557/1860/1010/20/
008970/20130111/103600/1855/2000/10/
008970/20130111/103603/1860/510/20/
008970/20130111/103617/1860/4080/20/
008970/20130111/103621/1860/10020/20/
008970/20130111/103623/1860/400/20/
008970/20130111/103625/1860/2570/20/
008970/20130111/103632/1860/8010/20/
008970/20130111/103637/1860/9020/10/
008970/20130111/103644/1860/290/10/
008970/20130111/103648/1865/1430/20/
008970/20130111/103650/1860/1100/10/
008970/20130111/103653/1860/160/10/
008970/20130111/103657/1860/1010/10/
008970/20130111/103658/1860/700/10/
008970/20130111/103702/1860/320/10/
008970/20130111/103704/1860/330/10/
008970/20130111/103706/1860/120/10/
008970/20130111/103711/1860/1260/10/
008970/20130111/103711/1860/3000/10/
008970/20130111/103711/1860/360/10/
008970/20130111/103712/1860/600/10/
008970/20130111/103724/1860/490/10/
008970/20130111/103735/1860/3730/10/
008970/20130111/103745/1860/2020/10/
008970/20130111/103746/1860/500/10/
008970/20130111/103747/1860/1640/10/
008970/20130111/103754/1860/1510/20/
008970/20130111/103803/1860/1400/20/
008970/20130111/103815/1860/370/20/
008970/20130111/103843/1860/220/20/
008970/20130111/103857/1860/300/20/
008970/20130111/103902/1860/230/20/
008970/20130111/103904/1860/200/20/
008970/20130111/103917/1855/14380/10/
008970/20130111/103917/1850/22800/10/
008970/20130111/103917/1845/820/10/
008970/20130111/103918/1845/130/10/
008970/20130111/103957/1855/110/20/
008970/20130111/103959/1855/90/10/
008970/20130111/104007/1855/380/20/
008970/20130111/104019/1855/90/20/
008970/20130111/104036/1855/150/20/
008970/20130111/104038/1855/5490/20/
008970/20130111/104059/1855/300/20/
008970/20130111/104103/1855/450/20/
008970/20130111/104122/1850/160/10/
008970/20130111/104141/1850/1780/10/
008970/20130111/104153/1850/17640/10/
008970/20130111/104156/1850/6040/10/
008970/20130111/104156/1850/3000/10/
008970/20130111/104157/1850/10240/10/
008970/20130111/104158/1850/4240/10/
008970/20130111/104220/1850/510/20/
008970/20130111/104249/1845/310/10/
008970/20130111/104258/1845/1000/10/
008970/20130111/104305/1845/1550/10/
008970/20130111/104309/1845/3090/10/
008970/20130111/104323/1845/170/10/
008970/20130111/104341/1850/90/20/
008970/20130111/104341/1845/5000/10/
008970/20130111/104342/1850/500/20/
008970/20130111/104342/1845/19790/10/
008970/20130111/104344/1845/430/20/
008970/20130111/104345/1845/920/10/
008970/20130111/104346/1845/1000/20/
008970/20130111/104356/1840/5020/10/
008970/20130111/104402/1840/520/10/
008970/20130111/104404/1840/7950/10/
008970/20130111/104407/1840/120/10/
008970/20130111/104408/1840/6000/10/
008970/20130111/104410/1840/730/10/
008970/20130111/104414/1835/110/10/
008970/20130111/104419/1840/300/20/
008970/20130111/104419/1840/510/10/
008970/20130111/104419/1840/810/10/
008970/20130111/104421/1840/190/20/
008970/20130111/104430/1840/220/10/
008970/20130111/104442/1845/1830/20/
008970/20130111/104442/1845/100/10/
008970/20130111/104445/1845/3080/10/
008970/20130111/104501/1840/8000/10/
008970/20130111/104507/1840/370/10/
008970/20130111/104517/1840/6010/10/
008970/20130111/104522/1845/2180/20/
008970/20130111/104534/1845/2070/10/
008970/20130111/104550/1845/3560/20/
008970/20130111/104552/1845/200/20/
008970/20130111/104602/1845/200/20/
008970/20130111/104603/1845/750/20/
008970/20130111/104605/1845/100/20/
008970/20130111/104605/1845/4290/20/
008970/20130111/104606/1845/290/10/
008970/20130111/104642/1845/2500/20/
008970/20130111/104648/1845/600/20/
008970/20130111/104654/1845/1000/20/
008970/20130111/104702/1840/1450/10/
008970/20130111/104836/1845/3030/20/
008970/20130111/104836/1845/1000/20/
008970/20130111/104844/1845/500/20/
008970/20130111/104854/1845/1000/20/
008970/20130111/104902/1845/3000/20/
008970/20130111/104905/1845/1000/20/
008970/20130111/104906/1845/150/20/
008970/20130111/104951/1850/200/20/
008970/20130111/105017/1845/150/10/
008970/20130111/105025/1845/230/10/
008970/20130111/105029/1845/200/10/
008970/20130111/105036/1845/270/10/
008970/20130111/105114/1845/640/20/
008970/20130111/105211/1845/630/20/
008970/20130111/105226/1845/1130/20/
008970/20130111/105323/1845/1070/20/
008970/20130111/105325/1845/2000/20/
008970/20130111/105329/1845/750/20/
008970/20130111/105354/1845/1390/20/
008970/20130111/105429/1845/110/20/
008970/20130111/105616/1845/110/20/
008970/20130111/105717/1840/3040/10/
008970/20130111/105728/1840/1010/10/
008970/20130111/105814/1845/2700/20/
008970/20130111/105815/1840/200/10/
008970/20130111/105834/1840/130/10/
008970/20130111/105855/1840/1500/10/
008970/20130111/105857/1845/1380/20/
008970/20130111/105859/1840/30000/10/
008970/20130111/105905/1840/2470/10/
008970/20130111/105927/1840/500/20/
008970/20130111/105929/1840/100/20/
008970/20130111/105944/1835/1850/10/
008970/20130111/105955/1835/11290/10/
008970/20130111/110003/1840/100/20/
008970/20130111/110008/1835/90/10/
008970/20130111/110017/1840/350/20/
008970/20130111/110018/1835/800/10/
008970/20130111/110029/1840/1290/20/
008970/20130111/110034/1840/100/20/
008970/20130111/110036/1840/500/20/
008970/20130111/110046/1840/2050/20/
008970/20130111/110109/1840/530/20/
008970/20130111/110110/1840/4820/20/
008970/20130111/110231/1840/2820/10/
008970/20130111/110237/1840/5420/10/
008970/20130111/110318/1835/530/10/
008970/20130111/110323/1840/300/20/
008970/20130111/110400/1835/2170/10/
008970/20130111/110412/1835/3720/10/
008970/20130111/110435/1835/2000/10/
008970/20130111/110441/1835/5890/10/
008970/20130111/110441/1835/900/10/
008970/20130111/110512/1835/530/10/
008970/20130111/110528/1840/100/20/
008970/20130111/110557/1840/300/20/
008970/20130111/110713/1840/300/20/
008970/20130111/110824/1835/20030/10/
008970/20130111/110831/1835/2510/10/
008970/20130111/110833/1835/230/10/
008970/20130111/110852/1835/1330/20/
008970/20130111/110854/1835/450/20/
008970/20130111/110922/1835/90/10/
008970/20130111/110924/1835/2690/10/
008970/20130111/110927/1835/500/20/
008970/20130111/110929/1835/4000/20/
008970/20130111/110932/1835/1820/20/
008970/20130111/110938/1835/2900/10/
008970/20130111/111003/1835/6500/10/
008970/20130111/111032/1840/570/20/
008970/20130111/111035/1840/200/20/
008970/20130111/111102/1840/100/20/
008970/20130111/111207/1835/1000/10/
008970/20130111/111224/1840/250/20/
008970/20130111/111245/1835/2050/10/
008970/20130111/111304/1840/100/20/
008970/20130111/111311/1840/300/20/
008970/20130111/111337/1835/210/10/
008970/20130111/111347/1835/4150/10/
008970/20130111/111347/1840/100/20/
008970/20130111/111419/1835/4870/10/
008970/20130111/111437/1835/500/10/
008970/20130111/111443/1835/550/10/
008970/20130111/111501/1840/1100/20/
008970/20130111/111507/1840/2850/20/
008970/20130111/111515/1845/100/20/
008970/20130111/111600/1840/570/10/
008970/20130111/111614/1840/1100/10/
008970/20130111/111728/1840/120/10/
008970/20130111/111741/1840/510/10/
008970/20130111/111814/1840/3000/10/
008970/20130111/111819/1840/2000/10/
008970/20130111/111822/1840/1000/10/
008970/20130111/111822/1840/500/10/
008970/20130111/111826/1840/5330/10/
008970/20130111/111827/1840/1000/10/
008970/20130111/111828/1840/2000/10/
008970/20130111/111832/1840/480/10/
008970/20130111/111836/1840/270/10/
008970/20130111/111836/1840/1280/10/
008970/20130111/111840/1840/720/20/
008970/20130111/111842/1840/100/10/
008970/20130111/111842/1840/2500/10/
008970/20130111/111847/1840/2100/10/
008970/20130111/111851/1840/1000/10/
008970/20130111/111851/1840/1090/10/
008970/20130111/111852/1840/1000/10/
008970/20130111/111852/1840/100/10/
008970/20130111/111853/1840/450/10/
008970/20130111/111853/1840/490/20/
008970/20130111/111853/1840/510/20/
008970/20130111/112010/1840/1010/20/
008970/20130111/112013/1840/140/20/
008970/20130111/112050/1840/1630/20/
008970/20130111/112106/1835/2770/10/
008970/20130111/112109/1835/1250/10/
008970/20130111/112128/1835/13610/10/
008970/20130111/112131/1835/2000/10/
008970/20130111/112133/1835/150/10/
008970/20130111/112139/1835/500/10/
008970/20130111/112142/1835/300/10/
008970/20130111/112151/1835/1050/10/
008970/20130111/112202/1835/1110/10/
008970/20130111/112225/1835/310/10/
008970/20130111/112242/1835/410/10/
008970/20130111/112258/1835/1000/10/
008970/20130111/112345/1835/1010/10/
008970/20130111/112426/1840/2630/20/
008970/20130111/112439/1835/500/10/
008970/20130111/112442/1840/590/20/
008970/20130111/112522/1835/1050/10/
008970/20130111/112536/1835/2000/10/
008970/20130111/112548/1835/100/10/
008970/20130111/112550/1840/100/20/
008970/20130111/112636/1835/260/10/
008970/20130111/112723/1835/1000/10/
008970/20130111/112813/1835/1470/10/
008970/20130111/112825/1840/300/20/
008970/20130111/112854/1840/1000/20/
008970/20130111/112858/1840/3000/20/
008970/20130111/112921/1835/780/10/
008970/20130111/112927/1835/2000/10/
008970/20130111/112949/1840/200/20/
008970/20130111/112959/1840/2070/20/
008970/20130111/113015/1835/3000/10/
008970/20130111/113042/1835/1300/10/
008970/20130111/113109/1835/1790/10/
008970/20130111/113142/1840/370/20/
008970/20130111/113159/1840/300/20/
008970/20130111/113641/1835/1080/10/
008970/20130111/113759/1840/13590/20/
008970/20130111/113915/1845/360/20/
008970/20130111/114308/1845/100/20/
008970/20130111/114343/1840/3340/10/
008970/20130111/114421/1840/290/10/
008970/20130111/114432/1845/12440/20/
008970/20130111/114438/1845/4600/20/
008970/20130111/114443/1845/500/20/
008970/20130111/114504/1840/370/10/
008970/20130111/114537/1845/360/20/
008970/20130111/114559/1845/5000/20/
008970/20130111/114729/1845/150/20/
008970/20130111/114736/1845/5000/20/
008970/20130111/114752/1845/730/20/
008970/20130111/114821/1845/2000/20/
008970/20130111/114834/1845/1000/20/
008970/20130111/114834/1845/140/20/
008970/20130111/114855/1845/1000/20/
008970/20130111/114937/1845/100/20/
008970/20130111/114948/1845/300/20/
008970/20130111/115004/1845/100/20/
008970/20130111/115018/1845/100/20/
008970/20130111/115030/1845/110/20/
008970/20130111/115055/1845/370/20/
008970/20130111/115055/1845/170/20/
008970/20130111/115055/1845/440/20/
008970/20130111/115211/1840/200/10/
008970/20130111/115441/1840/840/10/
008970/20130111/115503/1840/330/10/
008970/20130111/115604/1840/100/10/
008970/20130111/115642/1840/3000/10/
008970/20130111/115658/1840/300/10/
008970/20130111/115712/1840/9010/10/
008970/20130111/115746/1840/1000/10/
008970/20130111/115908/1840/1070/10/
008970/20130111/120042/1845/110/20/
008970/20130111/120305/1840/1000/10/
008970/20130111/120319/1845/150/20/
008970/20130111/120418/1845/200/20/
008970/20130111/120813/1840/1040/10/
008970/20130111/120834/1840/1000/10/
008970/20130111/120903/1840/3000/10/
008970/20130111/120913/1845/10010/20/
008970/20130111/121027/1845/5060/20/
008970/20130111/121051/1845/1100/20/
008970/20130111/121237/1845/2510/20/
008970/20130111/121350/1840/610/10/
008970/20130111/121400/1845/300/20/
008970/20130111/121443/1840/120/10/
008970/20130111/121517/1840/300/10/
008970/20130111/121623/1840/360/10/
008970/20130111/121949/1840/29110/10/
008970/20130111/121949/1835/10290/10/
008970/20130111/122022/1835/750/10/
008970/20130111/122253/1840/710/20/
008970/20130111/122317/1840/2470/20/
008970/20130111/122409/1840/480/10/
008970/20130111/122431/1840/2030/20/
008970/20130111/122507/1840/2000/20/
008970/20130111/122637/1840/540/20/
008970/20130111/122734/1840/1010/20/
008970/20130111/123537/1835/6060/10/
008970/20130111/123605/1835/1000/10/
008970/20130111/123616/1835/1010/10/
008970/20130111/123618/1835/520/10/
008970/20130111/123638/1835/9000/10/
008970/20130111/123649/1835/700/10/
008970/20130111/123758/1835/12930/10/
008970/20130111/123805/1835/2590/10/
008970/20130111/123858/1835/5000/20/
008970/20130111/123919/1835/280/20/
008970/20130111/123929/1835/1710/20/
008970/20130111/124040/1835/2000/10/
008970/20130111/124041/1835/810/10/
008970/20130111/124104/1835/500/20/
008970/20130111/124108/1835/1000/20/
008970/20130111/124110/1830/1200/10/
008970/20130111/124137/1835/200/20/
008970/20130111/124151/1835/2070/20/
008970/20130111/124223/1840/710/20/
008970/20130111/124445/1835/2000/10/
008970/20130111/124509/1835/120/20/
008970/20130111/124630/1835/520/10/
008970/20130111/124708/1835/630/20/
008970/20130111/124711/1835/200/20/
008970/20130111/124820/1835/1070/20/
008970/20130111/124838/1835/300/20/
008970/20130111/124921/1835/510/20/
008970/20130111/124936/1835/100/20/
008970/20130111/125007/1835/150/20/
008970/20130111/125016/1835/250/20/
008970/20130111/125244/1835/1010/10/
008970/20130111/125350/1835/3890/10/
008970/20130111/125543/1835/1000/10/
008970/20130111/125627/1840/120/20/
008970/20130111/125723/1835/100/10/
008970/20130111/130052/1835/5010/10/
008970/20130111/130115/1835/4860/10/
008970/20130111/130209/1830/1000/10/
008970/20130111/130313/1835/100/20/
008970/20130111/130330/1835/300/20/
008970/20130111/130334/1835/1200/20/
008970/20130111/130352/1835/280/20/
008970/20130111/130421/1835/440/10/
008970/20130111/130601/1835/700/10/
008970/20130111/130739/1835/500/10/
008970/20130111/130828/1835/3040/10/
008970/20130111/130915/1835/1070/10/
008970/20130111/130926/1835/440/10/
008970/20130111/130934/1835/930/20/
008970/20130111/130952/1835/110/20/
008970/20130111/131027/1830/3690/10/
008970/20130111/131330/1835/100/20/
008970/20130111/131417/1830/1700/10/
008970/20130111/131854/1835/510/20/
008970/20130111/131906/1835/700/20/
008970/20130111/131910/1835/530/20/
008970/20130111/132022/1835/100/20/
008970/20130111/132102/1835/100/20/
008970/20130111/132219/1835/1490/20/
008970/20130111/132248/1830/1000/10/
008970/20130111/132316/1830/200/10/
008970/20130111/132330/1830/600/10/
008970/20130111/132348/1830/4520/10/
008970/20130111/132349/1830/1000/10/
008970/20130111/132418/1830/4010/10/
008970/20130111/132442/1830/500/10/
008970/20130111/132558/1835/130/20/
008970/20130111/132651/1830/2040/10/
008970/20130111/132656/1835/1570/20/
008970/20130111/132750/1835/130/20/
008970/20130111/132921/1830/110/10/
008970/20130111/133008/1835/160/10/
008970/20130111/133023/1835/160/10/
008970/20130111/133042/1835/340/20/
008970/20130111/133042/1835/160/10/
008970/20130111/133100/1835/410/20/
008970/20130111/133147/1835/110/10/
008970/20130111/133200/1835/190/20/
008970/20130111/133224/1835/310/10/
008970/20130111/133251/1835/1010/20/
008970/20130111/133314/1835/180/20/
008970/20130111/133323/1835/2820/10/
008970/20130111/133333/1835/180/10/
008970/20130111/133403/1835/100/10/
008970/20130111/133456/1835/240/10/
008970/20130111/133733/1835/950/20/
008970/20130111/133758/1835/130/20/
008970/20130111/134054/1830/110/10/
008970/20130111/134518/1835/1010/20/
008970/20130111/134529/1830/620/10/
008970/20130111/134615/1830/300/10/
008970/20130111/134616/1830/600/10/
008970/20130111/134623/1835/100/20/
008970/20130111/134759/1830/16020/10/
008970/20130111/134811/1830/700/10/
008970/20130111/134821/1835/490/20/
008970/20130111/134911/1830/100/10/
008970/20130111/134929/1830/300/10/
008970/20130111/135008/1830/6800/10/
008970/20130111/135009/1830/1000/10/
008970/20130111/135219/1830/9210/10/
008970/20130111/135224/1830/2000/10/
008970/20130111/135240/1830/5260/10/
008970/20130111/135241/1830/4780/10/
008970/20130111/135245/1830/6880/10/
008970/20130111/135246/1830/1220/10/
008970/20130111/135249/1830/34550/10/
008970/20130111/135250/1825/330/10/
008970/20130111/135252/1825/90/10/
008970/20130111/135259/1825/3030/10/
008970/20130111/135309/1825/3020/10/
008970/20130111/135403/1830/3590/20/
008970/20130111/135405/1830/100/20/
008970/20130111/135407/1830/110/20/
008970/20130111/135420/1830/2800/20/
008970/20130111/135445/1830/160/20/
008970/20130111/135450/1830/100/20/
008970/20130111/135450/1830/100/20/
008970/20130111/135450/1830/100/20/
008970/20130111/135458/1830/610/20/
008970/20130111/135502/1830/520/20/
008970/20130111/135514/1830/120/20/
008970/20130111/135529/1830/550/20/
008970/20130111/135533/1830/100/20/
008970/20130111/135548/1830/510/20/
008970/20130111/135554/1830/2000/20/
008970/20130111/135602/1830/100/20/
008970/20130111/135608/1830/5000/20/
008970/20130111/135611/1830/200/20/
008970/20130111/135626/1830/140/20/
008970/20130111/135636/1830/1000/20/
008970/20130111/135641/1830/160/20/
008970/20130111/135649/1830/940/10/
008970/20130111/135703/1830/1000/20/
008970/20130111/135703/1830/500/20/
008970/20130111/135704/1830/300/10/
008970/20130111/135813/1830/2260/10/
008970/20130111/135915/1830/1370/10/
008970/20130111/140026/1830/300/10/
008970/20130111/140158/1830/90/10/
008970/20130111/140218/1830/880/20/
008970/20130111/140235/1830/240/20/
008970/20130111/140246/1830/730/20/
008970/20130111/140328/1830/560/20/
008970/20130111/140350/1830/1010/20/
008970/20130111/140414/1830/620/20/
008970/20130111/140423/1830/190/10/
008970/20130111/140431/1830/1030/10/
008970/20130111/140431/1825/9000/10/
008970/20130111/140541/1825/550/10/
008970/20130111/140547/1825/380/10/
008970/20130111/140619/1830/100/10/
008970/20130111/140621/1830/130/20/
008970/20130111/140705/1830/500/20/
008970/20130111/140740/1825/3700/10/
008970/20130111/140826/1830/650/20/
008970/20130111/140835/1830/360/10/
008970/20130111/140841/1830/400/10/
008970/20130111/140852/1830/200/20/
008970/20130111/140852/1835/240/20/
008970/20130111/141021/1830/110/20/
008970/20130111/141038/1830/100/20/
008970/20130111/141050/1830/300/20/
008970/20130111/141128/1830/150/20/
008970/20130111/141148/1825/2070/10/
008970/20130111/141237/1830/1130/20/
008970/20130111/141242/1825/5760/10/
008970/20130111/141430/1825/510/10/
008970/20130111/141437/1825/10450/10/
008970/20130111/141440/1825/7580/10/
008970/20130111/141441/1825/20230/10/
008970/20130111/141441/1825/860/10/
008970/20130111/141451/1825/130/10/
008970/20130111/141451/1820/4610/10/
008970/20130111/141459/1820/24020/10/
008970/20130111/141513/1820/2330/10/
008970/20130111/141520/1820/410/10/
008970/20130111/141541/1825/700/20/
008970/20130111/141542/1825/5000/10/
008970/20130111/141542/1825/730/10/
008970/20130111/141601/1825/500/20/
008970/20130111/141617/1825/1700/20/
008970/20130111/141619/1825/1190/20/
008970/20130111/141624/1825/310/10/
008970/20130111/141625/1825/100/20/
008970/20130111/141704/1825/410/10/
008970/20130111/141705/1825/500/20/
008970/20130111/141717/1825/1050/20/
008970/20130111/141725/1825/110/20/
008970/20130111/141725/1825/100/20/
008970/20130111/141753/1825/1010/20/
008970/20130111/141804/1825/300/20/
008970/20130111/141824/1825/200/20/
008970/20130111/141833/1820/3000/10/
008970/20130111/141844/1825/1650/20/
008970/20130111/141849/1825/2710/20/
008970/20130111/141902/1825/2290/10/
008970/20130111/141938/1825/1050/20/
008970/20130111/142037/1825/500/20/
008970/20130111/142051/1825/550/20/
008970/20130111/142056/1825/100/20/
008970/20130111/142100/1825/90/20/
008970/20130111/142129/1825/1040/20/
008970/20130111/142202/1825/1000/20/
008970/20130111/142221/1825/880/20/
008970/20130111/142437/1825/1100/20/
008970/20130111/142447/1825/1000/20/
008970/20130111/142458/1825/1290/20/
008970/20130111/142611/1825/1650/20/
008970/20130111/142615/1825/820/20/
008970/20130111/142647/1825/190/10/
008970/20130111/142722/1825/120/20/
008970/20130111/142806/1820/13830/10/
008970/20130111/142812/1820/17400/10/
008970/20130111/142824/1820/100/20/
008970/20130111/142839/1820/1330/20/
008970/20130111/142847/1820/990/20/
008970/20130111/142848/1820/100/20/
008970/20130111/142849/1820/500/20/
008970/20130111/142914/1820/1400/10/
008970/20130111/142914/1815/270/10/
008970/20130111/142920/1825/150/20/
008970/20130111/142937/1825/210/20/
008970/20130111/142938/1820/2460/10/
008970/20130111/142947/1820/90/10/
008970/20130111/143005/1820/2720/10/
008970/20130111/143014/1820/2000/10/
008970/20130111/143018/1820/500/10/
008970/20130111/143028/1820/2010/10/
008970/20130111/143048/1820/120/10/
008970/20130111/143122/1825/500/20/
008970/20130111/143126/1820/3000/10/
008970/20130111/143141/1820/2350/10/
008970/20130111/143158/1820/280/20/
008970/20130111/143203/1820/370/20/
008970/20130111/143212/1820/160/10/
008970/20130111/143229/1825/500/20/
008970/20130111/143255/1820/2090/10/
008970/20130111/143256/1825/600/20/
008970/20130111/143327/1825/2690/20/
008970/20130111/143355/1825/100/20/
008970/20130111/143408/1825/2000/20/
008970/20130111/143408/1825/2150/20/
008970/20130111/143413/1830/120/20/
008970/20130111/143439/1825/100/10/
008970/20130111/143441/1825/7870/10/
008970/20130111/143454/1825/200/20/
008970/20130111/143500/1825/1000/20/
008970/20130111/143520/1825/1030/20/
008970/20130111/143606/1825/1100/10/
008970/20130111/143606/1825/2000/10/
008970/20130111/143630/1825/2010/10/
008970/20130111/143631/1825/500/10/
008970/20130111/143636/1825/1000/10/
008970/20130111/143639/1825/1000/10/
008970/20130111/143649/1825/3200/10/
008970/20130111/143715/1825/170/20/
008970/20130111/143719/1825/1000/20/
008970/20130111/143722/1825/300/20/
008970/20130111/143734/1825/250/10/
008970/20130111/143925/1820/6370/10/
008970/20130111/143938/1820/200/10/
008970/20130111/144001/1825/300/20/
008970/20130111/144033/1825/1000/20/
008970/20130111/144143/1820/540/10/
008970/20130111/144145/1820/1560/10/
008970/20130111/144151/1825/3110/20/
008970/20130111/144201/1820/3230/10/
008970/20130111/144307/1820/1040/10/
008970/20130111/144322/1820/1400/10/
008970/20130111/144326/1820/5000/10/
008970/20130111/144328/1820/3050/10/
008970/20130111/144337/1825/1000/20/
008970/20130111/144342/1825/500/20/
008970/20130111/144350/1825/500/20/
008970/20130111/144355/1825/500/20/
008970/20130111/144400/1825/500/20/
008970/20130111/144428/1825/3380/20/
008970/20130111/144438/1825/190/20/
008970/20130111/144525/1825/1060/20/
008970/20130111/144549/1825/5000/20/
008970/20130111/144609/1825/15000/20/
008970/20130111/144625/1825/540/20/
008970/20130111/144710/1825/1030/20/
008970/20130111/144713/1820/1900/10/
008970/20130111/144714/1825/870/20/
008970/20130111/144720/1825/910/20/
008970/20130111/144731/1825/110/10/
008970/20130111/144736/1825/3550/10/
008970/20130111/144741/1825/430/10/
008970/20130111/144815/1825/6290/20/
008970/20130111/144815/1820/1800/10/
008970/20130111/144834/1825/890/20/
008970/20130111/144843/1825/120/20/
008970/20130111/144856/1825/1020/20/
008970/20130111/144901/1825/100/20/
008970/20130111/144918/1825/100/20/
008970/20130111/144923/1820/200/10/
008970/20130111/144926/1820/600/10/
008970/20130111/144929/1820/1600/10/
008970/20130111/144937/1820/5400/10/
008970/20130111/144938/1820/1010/10/
008970/20130111/144941/1820/1730/10/
008970/20130111/144943/1820/300/10/
008970/20130111/144945/1820/500/10/
008970/20130111/144959/1820/1000/10/
008970/20130111/150000/1820/55410/10/
