008970/20130225/90000/1915/76840/20/
008970/20130225/90001/1910/5260/10/
008970/20130225/90003/1910/7320/10/
008970/20130225/90007/1910/1000/20/
008970/20130225/90008/1910/1260/20/
008970/20130225/90008/1910/2530/10/
008970/20130225/90018/1910/230/20/
008970/20130225/90023/1905/2000/10/
008970/20130225/90025/1910/130/20/
008970/20130225/90027/1910/100/20/
008970/20130225/90030/1910/1890/20/
008970/20130225/90030/1905/2380/10/
008970/20130225/90038/1905/2010/10/
008970/20130225/90038/1905/1000/10/
008970/20130225/90039/1905/300/10/
008970/20130225/90044/1910/2000/20/
008970/20130225/90047/1905/320/10/
008970/20130225/90055/1905/120/10/
008970/20130225/90056/1905/500/10/
008970/20130225/90058/1905/150/10/
008970/20130225/90059/1905/2000/10/
008970/20130225/90108/1905/200/10/
008970/20130225/90110/1905/1030/10/
008970/20130225/90111/1905/3600/10/
008970/20130225/90112/1905/600/10/
008970/20130225/90112/1900/110/10/
008970/20130225/90116/1900/500/10/
008970/20130225/90123/1900/130/10/
008970/20130225/90123/1900/700/10/
008970/20130225/90124/1905/1000/20/
008970/20130225/90124/1900/500/10/
008970/20130225/90125/1900/500/10/
008970/20130225/90127/1900/3000/10/
008970/20130225/90127/1900/730/10/
008970/20130225/90129/1900/790/10/
008970/20130225/90133/1900/300/10/
008970/20130225/90147/1905/1000/20/
008970/20130225/90154/1905/2000/10/
008970/20130225/90157/1905/5820/10/
008970/20130225/90157/1900/16970/10/
008970/20130225/90200/1900/500/20/
008970/20130225/90200/1900/400/20/
008970/20130225/90201/1895/14130/10/
008970/20130225/90201/1890/5720/10/
008970/20130225/90201/1885/150/10/
008970/20130225/90202/1900/2000/20/
008970/20130225/90203/1890/500/20/
008970/20130225/90204/1900/350/20/
008970/20130225/90205/1890/260/10/
008970/20130225/90210/1895/400/10/
008970/20130225/90211/1895/100/10/
008970/20130225/90213/1895/500/10/
008970/20130225/90215/1895/220/10/
008970/20130225/90219/1895/1540/10/
008970/20130225/90221/1895/1000/20/
008970/20130225/90222/1895/1310/20/
008970/20130225/90222/1890/300/10/
008970/20130225/90227/1890/1370/10/
008970/20130225/90230/1895/300/10/
008970/20130225/90234/1900/2520/20/
008970/20130225/90242/1900/1010/20/
008970/20130225/90242/1900/2500/20/
008970/20130225/90244/1900/1500/20/
008970/20130225/90244/1900/260/20/
008970/20130225/90246/1900/1100/10/
008970/20130225/90259/1905/150/20/
008970/20130225/90259/1905/200/20/
008970/20130225/90301/1905/910/20/
008970/20130225/90302/1905/500/20/
008970/20130225/90302/1905/1550/20/
008970/20130225/90305/1905/1050/20/
008970/20130225/90310/1905/110/10/
008970/20130225/90339/1905/550/10/
008970/20130225/90351/1905/2770/10/
008970/20130225/90351/1900/3500/10/
008970/20130225/90400/1900/410/10/
008970/20130225/90405/1900/6750/10/
008970/20130225/90421/1900/300/20/
008970/20130225/90424/1900/120/20/
008970/20130225/90440/1900/4370/20/
008970/20130225/90440/1900/1140/10/
008970/20130225/90442/1900/1000/20/
008970/20130225/90442/1895/7360/10/
008970/20130225/90442/1890/13210/10/
008970/20130225/90507/1890/500/10/
008970/20130225/90508/1890/11220/10/
008970/20130225/90508/1885/18780/10/
008970/20130225/90510/1890/300/10/
008970/20130225/90513/1890/200/20/
008970/20130225/90516/1890/100/20/
008970/20130225/90516/1890/1110/20/
008970/20130225/90521/1890/810/20/
008970/20130225/90521/1890/2020/20/
008970/20130225/90531/1890/1000/10/
008970/20130225/90536/1890/130/10/
008970/20130225/90541/1900/450/20/
008970/20130225/90553/1890/100/10/
008970/20130225/90602/1900/5000/20/
008970/20130225/90614/1895/1000/10/
008970/20130225/90614/1890/1620/10/
008970/20130225/90626/1900/1000/20/
008970/20130225/90709/1895/630/10/
008970/20130225/90710/1895/200/20/
008970/20130225/90716/1900/1410/20/
008970/20130225/90727/1890/500/10/
008970/20130225/90752/1895/3000/10/
008970/20130225/90758/1895/100/20/
008970/20130225/90808/1895/2000/20/
008970/20130225/90810/1895/500/20/
008970/20130225/90811/1895/500/20/
008970/20130225/90813/1890/500/10/
008970/20130225/90816/1890/3150/10/
008970/20130225/90831/1890/500/10/
008970/20130225/90842/1895/3000/20/
008970/20130225/90855/1895/230/20/
008970/20130225/90858/1895/120/20/
008970/20130225/90859/1895/170/20/
008970/20130225/90902/1895/340/10/
008970/20130225/90903/1895/100/20/
008970/20130225/90906/1895/2180/20/
008970/20130225/90908/1895/2390/20/
008970/20130225/90912/1895/4000/10/
008970/20130225/90915/1895/2000/10/
008970/20130225/90924/1895/2000/10/
008970/20130225/90926/1895/680/10/
008970/20130225/90953/1890/20000/10/
008970/20130225/90957/1890/3190/10/
008970/20130225/90957/1890/7150/10/
008970/20130225/91000/1890/240/20/
008970/20130225/91012/1885/1600/10/
008970/20130225/91014/1890/100/20/
008970/20130225/91017/1890/2000/20/
008970/20130225/91031/1885/1660/10/
008970/20130225/91042/1885/5070/10/
008970/20130225/91044/1885/9110/10/
008970/20130225/91045/1885/2000/10/
008970/20130225/91047/1890/500/20/
008970/20130225/91053/1885/3030/10/
008970/20130225/91056/1885/1030/10/
008970/20130225/91058/1885/3000/10/
008970/20130225/91059/1885/510/20/
008970/20130225/91101/1885/2500/20/
008970/20130225/91101/1890/8060/20/
008970/20130225/91101/1890/1500/10/
008970/20130225/91103/1890/200/10/
008970/20130225/91103/1890/2720/10/
008970/20130225/91107/1890/5000/10/
008970/20130225/91118/1890/700/10/
008970/20130225/91122/1890/200/10/
008970/20130225/91126/1890/350/10/
008970/20130225/91127/1890/370/10/
008970/20130225/91132/1890/1000/20/
008970/20130225/91142/1890/4740/20/
008970/20130225/91150/1890/360/10/
008970/20130225/91157/1890/640/20/
008970/20130225/91201/1895/2600/20/
008970/20130225/91213/1890/440/10/
008970/20130225/91327/1890/100/20/
008970/20130225/91335/1890/300/20/
008970/20130225/91340/1885/5000/10/
008970/20130225/91342/1885/500/10/
008970/20130225/91342/1885/100/10/
008970/20130225/91353/1890/7390/20/
008970/20130225/91404/1890/1000/20/
008970/20130225/91408/1890/100/20/
008970/20130225/91408/1890/5200/20/
008970/20130225/91414/1890/400/20/
008970/20130225/91416/1890/1100/20/
008970/20130225/91422/1890/530/20/
008970/20130225/91425/1890/1000/20/
008970/20130225/91427/1890/250/20/
008970/20130225/91428/1890/280/20/
008970/20130225/91434/1890/150/20/
008970/20130225/91444/1890/310/20/
008970/20130225/91506/1890/320/20/
008970/20130225/91507/1885/1510/10/
008970/20130225/91511/1885/5830/10/
008970/20130225/91512/1885/2000/10/
008970/20130225/91513/1885/300/10/
008970/20130225/91515/1885/3500/10/
008970/20130225/91519/1885/500/10/
008970/20130225/91522/1885/100/10/
008970/20130225/91544/1885/230/10/
008970/20130225/91555/1885/120/10/
008970/20130225/91602/1885/1000/10/
008970/20130225/91607/1885/500/10/
008970/20130225/91610/1885/100/10/
008970/20130225/91618/1885/470/10/
008970/20130225/91626/1885/12170/10/
008970/20130225/91631/1885/4000/20/
008970/20130225/91635/1880/500/10/
008970/20130225/91635/1880/150/10/
008970/20130225/91654/1880/1000/10/
008970/20130225/91655/1880/20000/10/
008970/20130225/91655/1880/500/10/
008970/20130225/91658/1880/280/10/
008970/20130225/91700/1880/10800/10/
008970/20130225/91703/1880/330/10/
008970/20130225/91704/1880/100/20/
008970/20130225/91704/1885/5000/20/
008970/20130225/91722/1885/300/20/
008970/20130225/91738/1885/300/20/
008970/20130225/91751/1880/3300/10/
008970/20130225/91758/1885/2570/20/
008970/20130225/91800/1885/500/20/
008970/20130225/91803/1880/500/10/
008970/20130225/91803/1885/1000/20/
008970/20130225/91804/1885/2000/20/
008970/20130225/91805/1885/3890/20/
008970/20130225/91807/1885/270/20/
008970/20130225/91808/1885/300/20/
008970/20130225/91810/1885/100/10/
008970/20130225/91810/1880/920/10/
008970/20130225/91817/1880/570/10/
008970/20130225/91821/1880/8000/10/
008970/20130225/91909/1885/3020/10/
008970/20130225/91927/1885/600/10/
008970/20130225/91937/1885/500/10/
008970/20130225/91945/1885/200/10/
008970/20130225/91951/1885/820/10/
008970/20130225/91954/1885/1180/20/
008970/20130225/92031/1885/1050/10/
008970/20130225/92123/1885/1640/10/
008970/20130225/92131/1885/1050/10/
008970/20130225/92208/1885/1010/10/
008970/20130225/92209/1885/5000/10/
008970/20130225/92311/1885/730/10/
008970/20130225/92551/1885/120/10/
008970/20130225/92558/1885/300/10/
008970/20130225/92623/1885/110/10/
008970/20130225/92632/1885/1060/10/
008970/20130225/92749/1885/19040/20/
008970/20130225/92749/1885/160/20/
008970/20130225/92756/1885/530/20/
008970/20130225/92813/1885/6500/10/
008970/20130225/92817/1885/500/10/
008970/20130225/92829/1885/1260/10/
008970/20130225/92857/1885/500/10/
008970/20130225/92919/1885/500/10/
008970/20130225/92924/1885/100/10/
008970/20130225/93013/1885/1000/10/
008970/20130225/93013/1885/1000/10/
008970/20130225/93054/1890/310/20/
008970/20130225/93121/1885/200/10/
008970/20130225/93122/1890/500/20/
008970/20130225/93254/1885/580/10/
008970/20130225/93336/1885/4430/10/
008970/20130225/93413/1885/5000/10/
008970/20130225/93420/1885/5000/10/
008970/20130225/93449/1890/3010/20/
008970/20130225/93519/1890/700/20/
008970/20130225/93537/1890/10000/20/
008970/20130225/93538/1890/700/20/
008970/20130225/93553/1885/2240/10/
008970/20130225/93619/1890/200/20/
008970/20130225/93647/1890/100/20/
008970/20130225/93724/1885/1000/10/
008970/20130225/93804/1885/100/10/
008970/20130225/93805/1885/1570/10/
008970/20130225/93830/1885/270/10/
008970/20130225/93835/1885/1850/10/
008970/20130225/93858/1885/5810/10/
008970/20130225/93901/1885/200/10/
008970/20130225/93908/1885/330/10/
008970/20130225/93909/1885/400/10/
008970/20130225/93910/1890/4440/20/
008970/20130225/93926/1890/1000/20/
008970/20130225/93933/1890/100/20/
008970/20130225/93938/1890/150/20/
008970/20130225/94013/1890/100/20/
008970/20130225/94018/1885/1280/10/
008970/20130225/94018/1890/3000/20/
008970/20130225/94032/1890/4000/20/
008970/20130225/94034/1890/1110/20/
008970/20130225/94035/1890/1500/20/
008970/20130225/94036/1890/100/20/
008970/20130225/94040/1890/1050/20/
008970/20130225/94042/1890/5000/20/
008970/20130225/94043/1890/2000/20/
008970/20130225/94044/1890/300/20/
008970/20130225/94045/1890/1000/20/
008970/20130225/94046/1890/1000/20/
008970/20130225/94147/1895/170/20/
008970/20130225/94156/1895/500/20/
008970/20130225/94211/1895/100/20/
008970/20130225/94233/1890/180/10/
008970/20130225/94302/1890/9300/10/
008970/20130225/94305/1890/5300/10/
008970/20130225/94327/1890/400/10/
008970/20130225/94349/1890/100/10/
008970/20130225/94356/1890/700/10/
008970/20130225/94404/1890/2000/10/
008970/20130225/94407/1890/200/10/
008970/20130225/94410/1890/1000/10/
008970/20130225/94421/1890/1320/20/
008970/20130225/94438/1890/2060/20/
008970/20130225/94455/1890/500/20/
008970/20130225/94533/1885/100/10/
008970/20130225/94536/1890/500/20/
008970/20130225/94544/1885/1770/10/
008970/20130225/94552/1885/1870/10/
008970/20130225/94642/1885/100/10/
008970/20130225/94658/1885/200/10/
008970/20130225/94703/1885/8000/10/
008970/20130225/94757/1885/700/10/
008970/20130225/94848/1885/1190/10/
008970/20130225/94917/1885/1000/10/
008970/20130225/94923/1885/390/10/
008970/20130225/94928/1885/3000/10/
008970/20130225/94945/1885/300/10/
008970/20130225/95058/1885/810/10/
008970/20130225/95101/1885/4680/10/
008970/20130225/95133/1885/1000/10/
008970/20130225/95143/1885/200/10/
008970/20130225/95152/1885/1900/10/
008970/20130225/95359/1885/1000/10/
008970/20130225/95426/1885/1000/10/
008970/20130225/95438/1885/3250/10/
008970/20130225/95458/1885/100/10/
008970/20130225/95519/1890/330/20/
008970/20130225/95553/1885/6400/10/
008970/20130225/95719/1890/1010/20/
008970/20130225/95722/1890/1050/20/
008970/20130225/95722/1890/1850/20/
008970/20130225/95739/1890/1050/20/
008970/20130225/95749/1885/800/10/
008970/20130225/95804/1890/3200/20/
008970/20130225/95810/1890/2130/20/
008970/20130225/95811/1890/1000/20/
008970/20130225/95817/1890/3190/20/
008970/20130225/95818/1890/1320/20/
008970/20130225/95838/1890/500/20/
008970/20130225/95842/1890/520/20/
008970/20130225/95909/1890/1140/20/
008970/20130225/95944/1890/2190/20/
008970/20130225/100001/1890/1050/20/
008970/20130225/100015/1890/200/20/
008970/20130225/100049/1890/100/20/
008970/20130225/100118/1890/5000/20/
008970/20130225/100124/1890/230/20/
008970/20130225/100129/1890/1100/20/
008970/20130225/100131/1890/1140/20/
008970/20130225/100132/1890/1540/20/
008970/20130225/100134/1890/370/20/
008970/20130225/100138/1890/500/20/
008970/20130225/100141/1890/700/20/
008970/20130225/100143/1890/2560/20/
008970/20130225/100205/1895/500/20/
008970/20130225/100306/1895/1880/20/
008970/20130225/100308/1895/1050/20/
008970/20130225/100308/1895/500/20/
008970/20130225/100342/1895/300/20/
008970/20130225/100349/1895/300/20/
008970/20130225/100408/1895/800/20/
008970/20130225/100422/1895/200/20/
008970/20130225/100429/1895/200/20/
008970/20130225/100457/1895/500/20/
008970/20130225/100506/1895/1730/20/
008970/20130225/100752/1890/130/10/
008970/20130225/100755/1890/5000/10/
008970/20130225/100758/1890/340/10/
008970/20130225/100758/1890/120/20/
008970/20130225/100759/1890/120/20/
008970/20130225/100800/1890/200/20/
008970/20130225/100846/1885/350/10/
008970/20130225/100855/1890/200/20/
008970/20130225/101103/1885/5010/10/
008970/20130225/101106/1885/5630/10/
008970/20130225/101118/1890/2110/20/
008970/20130225/101130/1890/1050/20/
008970/20130225/101200/1890/570/20/
008970/20130225/101229/1890/300/20/
008970/20130225/101321/1890/200/20/
008970/20130225/101331/1890/100/20/
008970/20130225/101348/1885/300/10/
008970/20130225/101427/1885/170/10/
008970/20130225/101504/1885/2000/10/
008970/20130225/101741/1885/20670/10/
008970/20130225/101741/1885/180/20/
008970/20130225/101849/1885/300/20/
008970/20130225/101916/1880/9640/10/
008970/20130225/101918/1885/100/20/
008970/20130225/101933/1885/10000/20/
008970/20130225/101935/1885/3710/20/
008970/20130225/102038/1885/530/10/
008970/20130225/102106/1890/1000/20/
008970/20130225/102128/1885/400/10/
008970/20130225/102311/1885/7000/10/
008970/20130225/102342/1885/1070/20/
008970/20130225/102345/1885/180/20/
008970/20130225/102409/1880/1290/10/
008970/20130225/102413/1885/140/20/
008970/20130225/102458/1885/1000/20/
008970/20130225/102503/1885/1000/20/
008970/20130225/102520/1885/5200/20/
008970/20130225/102523/1885/4490/20/
008970/20130225/102551/1885/5510/10/
008970/20130225/102737/1885/2420/10/
008970/20130225/102737/1885/190/20/
008970/20130225/102746/1885/100/20/
008970/20130225/102802/1885/3480/20/
008970/20130225/102820/1890/510/20/
008970/20130225/102832/1890/300/20/
008970/20130225/102854/1890/910/20/
008970/20130225/102946/1885/780/10/
008970/20130225/103127/1885/2990/10/
008970/20130225/103133/1885/990/10/
008970/20130225/103135/1885/250/10/
008970/20130225/103336/1885/1710/10/
008970/20130225/103342/1890/10000/20/
008970/20130225/103427/1890/100/20/
008970/20130225/103437/1890/1000/20/
008970/20130225/103439/1890/100/20/
008970/20130225/103500/1890/100/20/
008970/20130225/103613/1890/200/20/
008970/20130225/103704/1890/4000/20/
008970/20130225/103713/1890/130/20/
008970/20130225/103739/1890/1000/20/
008970/20130225/103754/1890/90/20/
008970/20130225/103852/1890/1000/20/
008970/20130225/103903/1885/8850/10/
008970/20130225/103946/1885/4500/10/
008970/20130225/103957/1885/210/10/
008970/20130225/104034/1885/1000/10/
008970/20130225/104122/1885/2070/10/
008970/20130225/104158/1885/200/10/
008970/20130225/104300/1890/1910/20/
008970/20130225/104328/1890/2000/20/
008970/20130225/104401/1885/1880/10/
008970/20130225/104441/1885/230/10/
008970/20130225/104449/1885/200/10/
008970/20130225/104514/1885/1890/10/
008970/20130225/104539/1885/1000/10/
008970/20130225/104545/1885/800/10/
008970/20130225/104612/1885/1050/10/
008970/20130225/104829/1890/3000/20/
008970/20130225/105107/1885/410/10/
008970/20130225/105158/1885/100/10/
008970/20130225/105203/1885/1300/10/
008970/20130225/105213/1885/600/10/
008970/20130225/105359/1885/520/10/
008970/20130225/105745/1890/100/20/
008970/20130225/105801/1890/90/20/
008970/20130225/105825/1890/90/20/
008970/20130225/105827/1885/560/10/
008970/20130225/105902/1890/90/20/
008970/20130225/105957/1890/1320/20/
008970/20130225/110009/1890/530/20/
008970/20130225/110035/1890/90/20/
008970/20130225/110056/1890/5040/20/
008970/20130225/110056/1890/90/20/
008970/20130225/110056/1890/250/20/
008970/20130225/110059/1890/1320/20/
008970/20130225/110106/1890/480/20/
008970/20130225/110112/1890/370/20/
008970/20130225/110229/1890/1530/20/
008970/20130225/110230/1890/100/20/
008970/20130225/110237/1890/100/20/
008970/20130225/110248/1890/100/20/
008970/20130225/110250/1890/5000/20/
008970/20130225/110254/1890/500/20/
008970/20130225/110320/1890/200/20/
008970/20130225/110330/1890/100/20/
008970/20130225/110333/1890/100/20/
008970/20130225/110344/1890/2850/20/
008970/20130225/110357/1890/280/10/
008970/20130225/110424/1890/510/10/
008970/20130225/110457/1890/520/10/
008970/20130225/110600/1895/100/20/
008970/20130225/110748/1890/460/10/
008970/20130225/110812/1895/150/20/
008970/20130225/110838/1895/500/20/
008970/20130225/110853/1895/6310/20/
008970/20130225/110940/1890/130/10/
008970/20130225/111132/1890/500/10/
008970/20130225/111144/1895/150/20/
008970/20130225/111820/1895/90/20/
008970/20130225/111913/1890/4740/10/
008970/20130225/111945/1890/1000/10/
008970/20130225/111954/1890/980/10/
008970/20130225/111955/1890/22120/10/
008970/20130225/112003/1890/500/20/
008970/20130225/112013/1890/3000/20/
008970/20130225/112107/1890/520/20/
008970/20130225/112336/1890/890/20/
008970/20130225/112338/1890/1110/20/
008970/20130225/112338/1890/1580/20/
008970/20130225/112416/1885/5000/10/
008970/20130225/112416/1885/400/10/
008970/20130225/112455/1885/4700/10/
008970/20130225/112518/1885/1000/10/
008970/20130225/112601/1885/210/10/
008970/20130225/112648/1885/2110/10/
008970/20130225/112757/1890/100/20/
008970/20130225/112822/1890/100/20/
008970/20130225/112926/1890/500/20/
008970/20130225/112933/1885/1000/10/
008970/20130225/112939/1885/6000/10/
008970/20130225/112947/1885/2090/10/
008970/20130225/113013/1885/1410/10/
008970/20130225/113013/1885/100/10/
008970/20130225/113152/1885/1020/10/
008970/20130225/113211/1885/610/10/
008970/20130225/113222/1885/3000/10/
008970/20130225/113257/1885/400/10/
008970/20130225/113310/1885/940/10/
008970/20130225/113334/1885/1190/10/
008970/20130225/113344/1880/520/10/
008970/20130225/113354/1880/390/10/
008970/20130225/113401/1880/1000/10/
008970/20130225/113403/1880/4000/10/
008970/20130225/113445/1885/100/20/
008970/20130225/113448/1885/1600/20/
008970/20130225/113451/1885/110/20/
008970/20130225/113453/1885/100/20/
008970/20130225/113458/1885/110/20/
008970/20130225/113505/1885/1000/20/
008970/20130225/113523/1885/130/20/
008970/20130225/113605/1885/110/20/
008970/20130225/113613/1885/1130/20/
008970/20130225/113640/1885/1140/20/
008970/20130225/113651/1885/1100/20/
008970/20130225/113652/1885/2230/20/
008970/20130225/113702/1885/120/20/
008970/20130225/113727/1885/90/20/
008970/20130225/113732/1885/110/20/
008970/20130225/113825/1885/550/20/
008970/20130225/113837/1880/2000/10/
008970/20130225/113917/1880/1710/10/
008970/20130225/113928/1880/150/10/
008970/20130225/113935/1880/8000/10/
008970/20130225/113939/1880/1000/10/
008970/20130225/113945/1880/1000/10/
008970/20130225/113948/1880/4250/10/
008970/20130225/113949/1880/1550/10/
008970/20130225/113950/1880/1700/10/
008970/20130225/114001/1880/1000/10/
008970/20130225/114032/1880/10000/10/
008970/20130225/114108/1880/1000/10/
008970/20130225/114132/1880/950/10/
008970/20130225/114137/1880/2700/20/
008970/20130225/114140/1880/300/10/
008970/20130225/114149/1880/100/20/
008970/20130225/114158/1880/260/20/
008970/20130225/114208/1875/1500/10/
008970/20130225/114222/1880/250/20/
008970/20130225/114230/1880/110/20/
008970/20130225/114256/1880/2050/20/
008970/20130225/114328/1880/1020/20/
008970/20130225/114331/1880/1590/20/
008970/20130225/114359/1880/1000/20/
008970/20130225/114450/1880/100/20/
008970/20130225/114528/1880/90/20/
008970/20130225/114603/1880/90/20/
008970/20130225/114955/1880/1720/10/
008970/20130225/115034/1880/400/10/
008970/20130225/115036/1880/8720/10/
008970/20130225/115059/1880/820/20/
008970/20130225/115102/1880/900/20/
008970/20130225/115117/1875/2200/10/
008970/20130225/115123/1880/1130/20/
008970/20130225/115219/1875/2000/10/
008970/20130225/115244/1875/2000/10/
008970/20130225/115303/1875/1000/10/
008970/20130225/115314/1875/9090/10/
008970/20130225/115315/1875/270/10/
008970/20130225/115343/1880/1000/20/
008970/20130225/115417/1880/130/20/
008970/20130225/115441/1880/1000/20/
008970/20130225/115457/1880/270/20/
008970/20130225/115458/1880/8120/20/
008970/20130225/115620/1885/10000/20/
008970/20130225/115706/1885/500/20/
008970/20130225/115830/1885/3280/20/
008970/20130225/115831/1880/500/10/
008970/20130225/115832/1885/1000/20/
008970/20130225/115902/1880/210/10/
008970/20130225/115918/1880/500/10/
008970/20130225/115925/1885/10000/20/
008970/20130225/115937/1885/170/20/
008970/20130225/115937/1885/3090/20/
008970/20130225/120005/1890/500/20/
008970/20130225/120043/1890/320/20/
008970/20130225/120502/1885/1030/10/
008970/20130225/120620/1885/6000/10/
008970/20130225/120636/1885/2000/10/
008970/20130225/120642/1885/3280/10/
008970/20130225/120645/1885/1000/10/
008970/20130225/120650/1885/140/10/
008970/20130225/120711/1885/4860/20/
008970/20130225/120720/1885/4160/10/
008970/20130225/120730/1885/5050/10/
008970/20130225/120730/1885/750/10/
008970/20130225/120747/1885/700/10/
008970/20130225/120839/1885/500/10/
008970/20130225/120841/1885/2930/10/
008970/20130225/120910/1885/1000/20/
008970/20130225/120915/1880/3000/10/
008970/20130225/120933/1885/200/20/
008970/20130225/121255/1880/2500/10/
008970/20130225/121329/1880/170/10/
008970/20130225/121453/1880/120/10/
008970/20130225/121504/1880/100/10/
008970/20130225/121517/1885/200/20/
008970/20130225/121527/1885/1110/20/
008970/20130225/121605/1885/110/10/
008970/20130225/121632/1885/1000/10/
008970/20130225/121647/1890/15760/20/
008970/20130225/121702/1885/950/10/
008970/20130225/121714/1885/1000/20/
008970/20130225/121729/1885/3150/20/
008970/20130225/121739/1895/2030/20/
008970/20130225/121800/1895/2000/20/
008970/20130225/121815/1895/1000/20/
008970/20130225/121916/1890/250/20/
008970/20130225/121944/1890/500/20/
008970/20130225/122003/1890/1290/20/
008970/20130225/122019/1890/510/20/
008970/20130225/122035/1890/500/20/
008970/20130225/122411/1890/260/20/
008970/20130225/122456/1890/500/10/
008970/20130225/122459/1890/2000/10/
008970/20130225/122523/1895/15530/20/
008970/20130225/122543/1895/1640/20/
008970/20130225/122553/1895/1360/10/
008970/20130225/122604/1895/2500/20/
008970/20130225/122628/1895/200/20/
008970/20130225/122919/1895/510/20/
008970/20130225/123139/1890/1000/10/
008970/20130225/123210/1890/2060/10/
008970/20130225/123302/1890/600/10/
008970/20130225/123341/1890/1200/10/
008970/20130225/123512/1890/1000/10/
008970/20130225/123516/1890/2410/10/
008970/20130225/123517/1890/1500/10/
008970/20130225/123529/1890/500/10/
008970/20130225/123532/1890/4200/10/
008970/20130225/123533/1890/500/10/
008970/20130225/123550/1890/3100/10/
008970/20130225/123655/1890/140/10/
008970/20130225/123655/1890/170/20/
008970/20130225/123700/1885/110/10/
008970/20130225/123703/1885/300/10/
008970/20130225/124424/1885/1010/10/
008970/20130225/124438/1885/500/10/
008970/20130225/124534/1885/500/10/
008970/20130225/124624/1885/1000/10/
008970/20130225/124625/1885/2000/10/
008970/20130225/124907/1890/4570/20/
008970/20130225/124908/1890/500/10/
008970/20130225/124920/1895/2000/20/
008970/20130225/124936/1890/1800/10/
008970/20130225/125058/1890/3790/10/
008970/20130225/125120/1890/2710/10/
008970/20130225/125147/1890/300/10/
008970/20130225/125216/1890/210/10/
008970/20130225/125303/1890/500/10/
008970/20130225/125334/1890/2000/10/
008970/20130225/125336/1890/260/10/
008970/20130225/125337/1890/1000/10/
008970/20130225/125338/1890/2150/10/
008970/20130225/125349/1890/170/10/
008970/20130225/125407/1890/100/20/
008970/20130225/125553/1885/300/10/
008970/20130225/125656/1885/13180/10/
008970/20130225/125721/1890/2000/20/
008970/20130225/125815/1890/3990/20/
008970/20130225/125853/1890/1180/10/
008970/20130225/125920/1890/90/20/
008970/20130225/125944/1890/550/20/
008970/20130225/130047/1890/1050/20/
008970/20130225/130055/1890/1000/20/
008970/20130225/130401/1890/4860/20/
008970/20130225/130509/1890/510/20/
008970/20130225/130515/1890/1000/20/
008970/20130225/130518/1890/2000/20/
008970/20130225/130537/1890/100/20/
008970/20130225/130625/1890/100/20/
008970/20130225/130703/1890/240/20/
008970/20130225/130709/1885/10000/10/
008970/20130225/130720/1885/1000/10/
008970/20130225/130755/1885/1200/10/
008970/20130225/130824/1890/5000/20/
008970/20130225/130854/1890/400/20/
008970/20130225/130904/1890/500/20/
008970/20130225/130926/1890/100/20/
008970/20130225/130926/1890/460/20/
008970/20130225/131104/1890/1330/10/
008970/20130225/131104/1890/180/20/
008970/20130225/131223/1885/500/10/
008970/20130225/131252/1890/260/20/
008970/20130225/131300/1890/1300/20/
008970/20130225/131448/1885/2000/10/
008970/20130225/131454/1885/1000/10/
008970/20130225/131518/1885/1000/10/
008970/20130225/131659/1885/2000/10/
008970/20130225/131719/1885/300/10/
008970/20130225/131723/1885/1000/10/
008970/20130225/131731/1885/1000/10/
008970/20130225/131734/1885/1590/10/
008970/20130225/131738/1885/2000/20/
008970/20130225/131946/1885/150/10/
008970/20130225/132027/1885/6930/10/
008970/20130225/132136/1885/5000/10/
008970/20130225/132146/1885/2100/10/
008970/20130225/132200/1885/130/20/
008970/20130225/132218/1885/800/10/
008970/20130225/132220/1885/100/10/
008970/20130225/132548/1885/120/10/
008970/20130225/132603/1885/1300/10/
008970/20130225/132649/1885/1410/10/
008970/20130225/132649/1880/9130/10/
008970/20130225/132750/1880/2490/10/
008970/20130225/132805/1880/1000/10/
008970/20130225/132818/1880/14860/10/
008970/20130225/132824/1880/1000/10/
008970/20130225/132849/1880/1000/10/
008970/20130225/132906/1880/3320/10/
008970/20130225/132911/1880/6130/10/
008970/20130225/132943/1880/2000/20/
008970/20130225/132944/1880/2920/20/
008970/20130225/133108/1880/1000/10/
008970/20130225/133643/1885/5060/20/
008970/20130225/133644/1885/1460/20/
008970/20130225/133658/1885/3710/10/
008970/20130225/133659/1885/170/20/
008970/20130225/133705/1885/1250/20/
008970/20130225/133706/1885/3750/10/
008970/20130225/133717/1885/5000/20/
008970/20130225/133721/1885/4000/20/
008970/20130225/133819/1880/4750/10/
008970/20130225/133917/1885/4900/20/
008970/20130225/133928/1885/500/10/
008970/20130225/133931/1885/500/10/
008970/20130225/133932/1885/4680/10/
008970/20130225/134010/1880/1010/10/
008970/20130225/134058/1885/90/20/
008970/20130225/134110/1885/5010/20/
008970/20130225/134127/1885/500/10/
008970/20130225/134206/1885/9770/20/
008970/20130225/134257/1880/500/10/
008970/20130225/134304/1880/2000/10/
008970/20130225/134354/1880/200/10/
008970/20130225/134358/1885/1000/20/
008970/20130225/134446/1880/10020/10/
008970/20130225/134512/1885/200/20/
008970/20130225/134543/1880/12590/10/
008970/20130225/134610/1880/5000/20/
008970/20130225/134611/1875/40210/10/
008970/20130225/134620/1875/1000/20/
008970/20130225/134626/1875/5000/20/
008970/20130225/134627/1875/1000/20/
008970/20130225/134628/1875/290/20/
008970/20130225/134631/1875/200/20/
008970/20130225/134634/1875/5000/20/
008970/20130225/134635/1870/30360/10/
008970/20130225/134641/1880/300/20/
008970/20130225/134812/1880/1300/20/
008970/20130225/134838/1880/2000/20/
008970/20130225/135127/1875/5010/10/
008970/20130225/135139/1875/9170/10/
008970/20130225/135157/1870/200/10/
008970/20130225/135209/1870/220/10/
008970/20130225/135226/1875/10000/20/
008970/20130225/135238/1875/500/20/
008970/20130225/135239/1875/260/20/
008970/20130225/135242/1875/210/20/
008970/20130225/135311/1875/470/20/
008970/20130225/135316/1875/100/20/
008970/20130225/135320/1870/150/10/
008970/20130225/135337/1875/720/20/
008970/20130225/135402/1875/2090/20/
008970/20130225/135521/1875/250/10/
008970/20130225/135545/1875/200/10/
008970/20130225/135554/1875/1000/10/
008970/20130225/135606/1875/500/10/
008970/20130225/135612/1875/2100/10/
008970/20130225/135636/1875/1100/10/
008970/20130225/135704/1875/580/10/
008970/20130225/135718/1875/1000/10/
008970/20130225/135743/1880/5000/20/
008970/20130225/135820/1880/300/20/
008970/20130225/135952/1880/300/10/
008970/20130225/140050/1880/3790/10/
008970/20130225/140050/1880/240/20/
008970/20130225/140113/1880/1000/20/
008970/20130225/140130/1875/1110/10/
008970/20130225/140410/1875/7130/10/
008970/20130225/140457/1875/1000/10/
008970/20130225/140459/1880/1400/20/
008970/20130225/140524/1880/1600/20/
008970/20130225/140525/1880/5000/20/
008970/20130225/140525/1880/960/20/
008970/20130225/140527/1880/2440/20/
008970/20130225/140539/1885/22990/20/
008970/20130225/140540/1885/1160/10/
008970/20130225/140546/1890/100/20/
008970/20130225/140646/1890/1000/20/
008970/20130225/140707/1890/200/20/
008970/20130225/140725/1885/520/10/
008970/20130225/140748/1885/6330/10/
008970/20130225/140748/1885/180/20/
008970/20130225/140754/1885/5770/20/
008970/20130225/140754/1885/1790/10/
008970/20130225/140820/1885/5000/20/
008970/20130225/140820/1885/4450/20/
008970/20130225/140856/1885/7770/10/
008970/20130225/140906/1885/400/10/
008970/20130225/140907/1885/700/10/
008970/20130225/140942/1885/3250/10/
008970/20130225/141031/1885/2290/20/
008970/20130225/141057/1885/10000/20/
008970/20130225/141102/1885/1000/20/
008970/20130225/141308/1885/3530/20/
008970/20130225/141309/1885/1470/10/
008970/20130225/141332/1885/190/10/
008970/20130225/141411/1880/250/10/
008970/20130225/141429/1880/700/10/
008970/20130225/141758/1880/430/10/
008970/20130225/141851/1885/100/20/
008970/20130225/141932/1880/1100/10/
008970/20130225/142003/1880/1910/10/
008970/20130225/142053/1880/200/10/
008970/20130225/142107/1880/620/10/
008970/20130225/142325/1880/1810/10/
008970/20130225/142402/1880/1050/10/
008970/20130225/142435/1880/3870/10/
008970/20130225/142437/1880/7000/10/
008970/20130225/142437/1880/4700/10/
008970/20130225/142507/1880/720/20/
008970/20130225/142601/1875/1670/10/
008970/20130225/142606/1875/340/10/
008970/20130225/142610/1880/5630/20/
008970/20130225/142627/1885/100/20/
008970/20130225/142719/1880/14630/10/
008970/20130225/142720/1880/90/20/
008970/20130225/142724/1880/1300/20/
008970/20130225/142724/1880/700/10/
008970/20130225/142809/1875/150/10/
008970/20130225/142908/1875/3200/10/
008970/20130225/142915/1875/1300/10/
008970/20130225/142918/1875/300/10/
008970/20130225/142919/1880/3570/20/
008970/20130225/142922/1880/2680/20/
008970/20130225/142947/1885/22400/20/
008970/20130225/143020/1885/1000/20/
008970/20130225/143033/1885/660/20/
008970/20130225/143044/1885/2580/20/
008970/20130225/143048/1885/1000/20/
008970/20130225/143053/1885/690/10/
008970/20130225/143057/1885/120/20/
008970/20130225/143058/1885/490/20/
008970/20130225/143111/1885/180/10/
008970/20130225/143136/1885/3020/20/
008970/20130225/143136/1885/6980/10/
008970/20130225/143149/1885/6000/10/
008970/20130225/143149/1885/1650/10/
008970/20130225/143212/1885/1010/20/
008970/20130225/143214/1885/4000/10/
008970/20130225/143218/1885/1000/20/
008970/20130225/143221/1885/5000/20/
008970/20130225/143230/1885/3900/20/
008970/20130225/143231/1885/1000/10/
008970/20130225/143232/1885/120/10/
008970/20130225/143233/1880/100/10/
008970/20130225/143325/1885/8890/20/
008970/20130225/143331/1885/5560/10/
008970/20130225/143334/1885/1000/20/
008970/20130225/143357/1885/3440/20/
008970/20130225/143452/1880/530/10/
008970/20130225/143528/1885/220/20/
008970/20130225/143541/1885/200/20/
008970/20130225/143553/1885/1000/20/
008970/20130225/143631/1880/5060/10/
008970/20130225/143717/1885/10010/20/
008970/20130225/143723/1885/250/20/
008970/20130225/143739/1885/1180/20/
008970/20130225/143749/1885/1030/20/
008970/20130225/143750/1885/3010/20/
008970/20130225/143802/1885/540/20/
008970/20130225/143857/1885/840/20/
008970/20130225/143909/1880/830/10/
008970/20130225/143935/1885/2000/20/
008970/20130225/143938/1885/100/20/
008970/20130225/143941/1885/900/20/
008970/20130225/143945/1885/15310/20/
008970/20130225/143947/1885/4870/10/
008970/20130225/143953/1885/3940/20/
008970/20130225/143954/1885/1190/20/
008970/20130225/144009/1890/90/20/
008970/20130225/144029/1890/580/20/
008970/20130225/144033/1890/1200/20/
008970/20130225/144045/1890/210/20/
008970/20130225/144046/1890/5000/20/
008970/20130225/144047/1890/5000/20/
008970/20130225/144103/1890/360/20/
008970/20130225/144118/1885/13470/10/
008970/20130225/144131/1880/2000/10/
008970/20130225/144131/1885/2050/20/
008970/20130225/144309/1885/5040/10/
008970/20130225/144315/1885/3000/10/
008970/20130225/144315/1885/2080/10/
008970/20130225/144316/1885/4100/10/
008970/20130225/144325/1880/1000/10/
008970/20130225/144411/1885/650/20/
008970/20130225/144415/1885/460/20/
008970/20130225/144421/1880/250/10/
008970/20130225/144445/1880/1580/10/
008970/20130225/144507/1880/1500/10/
008970/20130225/144533/1880/1000/10/
008970/20130225/144542/1880/500/10/
008970/20130225/144552/1880/6000/10/
008970/20130225/144552/1885/1000/20/
008970/20130225/144553/1880/2430/10/
008970/20130225/144559/1880/500/10/
008970/20130225/144606/1880/1650/10/
008970/20130225/144623/1875/11380/10/
008970/20130225/144623/1870/15620/10/
008970/20130225/144638/1880/3100/10/
008970/20130225/144702/1880/3000/20/
008970/20130225/144717/1880/140/20/
008970/20130225/144730/1880/300/20/
008970/20130225/144819/1880/2000/20/
008970/20130225/144822/1870/3800/10/
008970/20130225/144857/1870/1010/10/
008970/20130225/144858/1875/170/20/
008970/20130225/144858/1875/160/20/
008970/20130225/144858/1875/500/20/
008970/20130225/144909/1875/110/20/
008970/20130225/144912/1875/1210/20/
008970/20130225/144921/1875/100/10/
008970/20130225/144924/1875/2000/10/
008970/20130225/144925/1875/370/10/
008970/20130225/144927/1875/600/20/
008970/20130225/144930/1875/100/20/
008970/20130225/144939/1875/710/20/
008970/20130225/144958/1875/3020/10/
008970/20130225/150000/1865/223730/20/
