008970/20121220/90000/1690/29780/20/
008970/20121220/90006/1690/490/20/
008970/20121220/90006/1695/190/20/
008970/20121220/90006/1700/320/20/
008970/20121220/90018/1700/2350/20/
008970/20121220/90021/1700/500/20/
008970/20121220/90023/1700/1170/20/
008970/20121220/90050/1695/1050/20/
008970/20121220/90050/1700/1530/20/
008970/20121220/90059/1685/500/10/
008970/20121220/90106/1685/1410/10/
008970/20121220/90106/1685/470/20/
008970/20121220/90106/1690/980/20/
008970/20121220/90106/1680/3180/10/
008970/20121220/90108/1680/5020/10/
008970/20121220/90108/1675/870/10/
008970/20121220/90113/1670/1060/10/
008970/20121220/90113/1665/950/10/
008970/20121220/90113/1660/1330/10/
008970/20121220/90113/1655/2670/10/
008970/20121220/90114/1665/1000/20/
008970/20121220/90117/1655/390/10/
008970/20121220/90130/1670/990/20/
008970/20121220/90151/1670/310/10/
008970/20121220/90154/1670/3580/20/
008970/20121220/90156/1670/1060/10/
008970/20121220/90158/1680/200/20/
008970/20121220/90158/1685/1770/20/
008970/20121220/90158/1690/270/20/
008970/20121220/90158/1695/760/20/
008970/20121220/90201/1670/3580/10/
008970/20121220/90201/1665/1700/10/
008970/20121220/90201/1660/720/10/
008970/20121220/90231/1685/500/20/
008970/20121220/90242/1685/260/20/
008970/20121220/90243/1690/300/20/
008970/20121220/90259/1690/100/20/
008970/20121220/90301/1690/170/20/
008970/20121220/90304/1690/300/20/
008970/20121220/90325/1695/2260/20/
008970/20121220/90338/1690/2040/10/
008970/20121220/90350/1690/500/20/
008970/20121220/90353/1685/440/10/
008970/20121220/90356/1690/500/20/
008970/20121220/90424/1685/540/20/
008970/20121220/90426/1685/1580/20/
008970/20121220/90431/1680/500/10/
008970/20121220/90440/1680/600/10/
008970/20121220/90453/1685/860/20/
008970/20121220/90508/1685/100/10/
008970/20121220/90512/1680/2040/10/
008970/20121220/90517/1685/100/20/
008970/20121220/90522/1685/200/20/
008970/20121220/90525/1680/100/10/
008970/20121220/90545/1680/630/10/
008970/20121220/90547/1680/360/20/
008970/20121220/90548/1680/640/10/
008970/20121220/90602/1675/1500/10/
008970/20121220/90604/1675/1800/10/
008970/20121220/90614/1675/1000/10/
008970/20121220/90615/1675/100/20/
008970/20121220/90625/1675/3000/20/
008970/20121220/90627/1675/100/20/
008970/20121220/90629/1670/1800/10/
008970/20121220/90630/1670/160/10/
008970/20121220/90634/1670/1270/10/
008970/20121220/90634/1665/1530/10/
008970/20121220/90635/1665/2000/10/
008970/20121220/90638/1675/1000/20/
008970/20121220/90642/1665/2000/10/
008970/20121220/90643/1665/100/10/
008970/20121220/90647/1665/1880/10/
008970/20121220/90647/1660/120/10/
008970/20121220/90649/1665/1070/20/
008970/20121220/90649/1665/150/10/
008970/20121220/90649/1665/110/10/
008970/20121220/90651/1665/860/10/
008970/20121220/90653/1665/1240/20/
008970/20121220/90659/1665/120/10/
008970/20121220/90701/1665/2740/10/
008970/20121220/90701/1665/4260/20/
008970/20121220/90708/1670/100/20/
008970/20121220/90708/1665/3160/10/
008970/20121220/90709/1665/4200/20/
008970/20121220/90710/1660/200/10/
008970/20121220/90717/1670/100/10/
008970/20121220/90717/1670/2970/10/
008970/20121220/90727/1670/100/20/
008970/20121220/90747/1675/1150/20/
008970/20121220/90754/1680/200/20/
008970/20121220/90814/1680/300/10/
008970/20121220/90816/1680/500/20/
008970/20121220/90820/1680/1560/20/
008970/20121220/90826/1680/840/10/
008970/20121220/90828/1680/300/20/
008970/20121220/90833/1680/100/20/
008970/20121220/90838/1680/2260/20/
008970/20121220/90845/1680/140/20/
008970/20121220/90911/1685/200/20/
008970/20121220/90912/1685/300/20/
008970/20121220/90920/1680/260/10/
008970/20121220/90928/1685/2300/20/
008970/20121220/90929/1685/500/20/
008970/20121220/90930/1685/880/20/
008970/20121220/90933/1680/1000/10/
008970/20121220/90947/1690/5000/20/
008970/20121220/91001/1690/150/20/
008970/20121220/91030/1680/660/10/
008970/20121220/91042/1680/1000/10/
008970/20121220/91045/1680/90/10/
008970/20121220/91059/1680/700/10/
008970/20121220/91110/1680/1000/20/
008970/20121220/91111/1680/750/20/
008970/20121220/91139/1680/1000/20/
008970/20121220/91139/1680/890/20/
008970/20121220/91157/1680/300/20/
008970/20121220/91223/1680/1240/10/
008970/20121220/91226/1680/1470/10/
008970/20121220/91229/1680/340/20/
008970/20121220/91234/1680/190/20/
008970/20121220/91240/1680/420/10/
008970/20121220/91253/1680/1000/10/
008970/20121220/91253/1680/1500/10/
008970/20121220/91255/1680/420/10/
008970/20121220/91303/1680/100/10/
008970/20121220/91307/1680/1500/10/
008970/20121220/91309/1680/370/10/
008970/20121220/91309/1680/630/20/
008970/20121220/91335/1675/2910/10/
008970/20121220/91344/1675/300/10/
008970/20121220/91348/1675/2930/10/
008970/20121220/91352/1675/520/10/
008970/20121220/91423/1675/100/10/
008970/20121220/91425/1675/1540/10/
008970/20121220/91426/1675/640/20/
008970/20121220/91443/1675/350/20/
008970/20121220/91600/1675/3260/10/
008970/20121220/91600/1670/540/10/
008970/20121220/91602/1675/2970/20/
008970/20121220/91609/1680/170/20/
008970/20121220/91725/1675/6000/10/
008970/20121220/91745/1680/2050/20/
008970/20121220/91750/1680/880/10/
008970/20121220/91759/1680/500/10/
008970/20121220/91824/1680/500/10/
008970/20121220/91825/1680/5170/10/
008970/20121220/91843/1680/110/20/
008970/20121220/91929/1675/8050/10/
008970/20121220/91941/1675/500/10/
008970/20121220/91953/1675/400/10/
008970/20121220/92017/1675/320/10/
008970/20121220/92020/1675/100/20/
008970/20121220/92023/1670/10000/10/
008970/20121220/92023/1670/200/10/
008970/20121220/92039/1670/10000/10/
008970/20121220/92040/1670/420/10/
008970/20121220/92100/1675/850/20/
008970/20121220/92101/1670/400/10/
008970/20121220/92151/1670/800/10/
008970/20121220/92153/1670/500/10/
008970/20121220/92247/1675/1000/20/
008970/20121220/92315/1670/4930/10/
008970/20121220/92330/1670/200/10/
008970/20121220/92337/1670/1200/10/
008970/20121220/92340/1670/1310/10/
008970/20121220/92357/1670/2500/10/
008970/20121220/92357/1670/1000/10/
008970/20121220/92359/1670/3540/10/
008970/20121220/92404/1670/1710/10/
008970/20121220/92406/1670/4280/10/
008970/20121220/92407/1670/1090/10/
008970/20121220/92429/1670/2760/10/
008970/20121220/92429/1665/1240/10/
008970/20121220/92438/1670/900/10/
008970/20121220/92438/1665/1530/10/
008970/20121220/92449/1665/650/10/
008970/20121220/92449/1665/460/10/
008970/20121220/92451/1665/130/10/
008970/20121220/92453/1665/200/10/
008970/20121220/92456/1665/1470/10/
008970/20121220/92514/1670/2010/20/
008970/20121220/92524/1670/140/20/
008970/20121220/92525/1670/1290/10/
008970/20121220/92558/1670/1010/10/
008970/20121220/92705/1670/520/10/
008970/20121220/92715/1675/2770/20/
008970/20121220/92722/1675/25820/20/
008970/20121220/92722/1675/1860/20/
008970/20121220/92756/1675/210/10/
008970/20121220/92759/1675/290/20/
008970/20121220/92828/1675/170/10/
008970/20121220/92836/1675/400/10/
008970/20121220/92854/1675/1500/10/
008970/20121220/92856/1675/1000/10/
008970/20121220/92858/1675/2200/10/
008970/20121220/92858/1675/700/20/
008970/20121220/93001/1680/1010/20/
008970/20121220/93042/1680/500/20/
008970/20121220/93148/1675/1500/10/
008970/20121220/93204/1675/100/10/
008970/20121220/93209/1675/900/10/
008970/20121220/93212/1675/1900/10/
008970/20121220/93239/1675/2970/10/
008970/20121220/93246/1675/1600/10/
008970/20121220/93250/1675/4180/10/
008970/20121220/93304/1670/100/10/
008970/20121220/93329/1670/2500/10/
008970/20121220/93330/1670/500/10/
008970/20121220/93338/1670/3100/10/
008970/20121220/93414/1670/2970/10/
008970/20121220/93436/1670/2390/10/
008970/20121220/93459/1670/390/10/
008970/20121220/93500/1675/310/20/
008970/20121220/93513/1675/3680/20/
008970/20121220/93531/1680/690/20/
008970/20121220/93534/1675/610/10/
008970/20121220/93541/1675/890/20/
008970/20121220/93556/1675/200/10/
008970/20121220/93646/1675/310/10/
008970/20121220/93707/1670/460/10/
008970/20121220/93709/1670/110/10/
008970/20121220/93713/1675/2330/20/
008970/20121220/93713/1675/640/10/
008970/20121220/93722/1675/3030/10/
008970/20121220/93722/1670/11010/10/
008970/20121220/93830/1675/620/20/
008970/20121220/93855/1675/2000/20/
008970/20121220/93906/1675/650/20/
008970/20121220/93911/1675/330/20/
008970/20121220/93933/1675/300/20/
008970/20121220/93935/1675/100/20/
008970/20121220/94014/1675/210/20/
008970/20121220/94020/1675/2000/20/
008970/20121220/94101/1670/150/10/
008970/20121220/94153/1675/260/20/
008970/20121220/94218/1670/6980/10/
008970/20121220/94220/1670/480/10/
008970/20121220/94245/1670/7440/10/
008970/20121220/94250/1670/12550/10/
008970/20121220/94309/1670/1000/20/
008970/20121220/94318/1670/100/20/
008970/20121220/94326/1670/500/20/
008970/20121220/94331/1670/200/20/
008970/20121220/94335/1670/1480/20/
008970/20121220/94336/1670/800/20/
008970/20121220/94347/1670/300/20/
008970/20121220/94415/1670/270/20/
008970/20121220/94430/1670/2010/20/
008970/20121220/94431/1670/100/20/
008970/20121220/94432/1670/9000/20/
008970/20121220/94439/1670/1000/20/
008970/20121220/94447/1670/300/20/
008970/20121220/94504/1670/500/20/
008970/20121220/94545/1670/180/20/
008970/20121220/94548/1670/3000/20/
008970/20121220/94552/1670/1010/20/
008970/20121220/94554/1670/420/20/
008970/20121220/94619/1670/2000/10/
008970/20121220/94650/1670/1570/10/
008970/20121220/94727/1675/100/20/
008970/20121220/94811/1675/1000/20/
008970/20121220/94917/1675/200/20/
008970/20121220/95030/1675/330/20/
008970/20121220/95031/1670/400/10/
008970/20121220/95050/1675/300/20/
008970/20121220/95105/1670/100/10/
008970/20121220/95110/1670/500/10/
008970/20121220/95111/1675/300/20/
008970/20121220/95121/1675/300/20/
008970/20121220/95125/1670/300/10/
008970/20121220/95215/1670/100/10/
008970/20121220/95222/1675/14060/20/
008970/20121220/95405/1675/1010/10/
008970/20121220/95543/1680/1010/20/
008970/20121220/95634/1680/13000/20/
008970/20121220/95634/1680/3630/20/
008970/20121220/95713/1680/160/20/
008970/20121220/95714/1680/860/10/
008970/20121220/95714/1675/190/10/
008970/20121220/95843/1685/500/20/
008970/20121220/95919/1685/100/20/
008970/20121220/95931/1680/500/10/
008970/20121220/95950/1680/1600/10/
008970/20121220/100212/1680/230/10/
008970/20121220/100304/1680/90/10/
008970/20121220/100325/1680/640/10/
008970/20121220/100409/1680/100/10/
008970/20121220/100552/1680/840/20/
008970/20121220/100616/1675/300/10/
008970/20121220/100649/1675/100/10/
008970/20121220/100728/1675/1670/10/
008970/20121220/100813/1680/2330/20/
008970/20121220/100836/1675/2500/10/
008970/20121220/101108/1680/1170/20/
008970/20121220/101502/1675/100/10/
008970/20121220/101635/1675/100/10/
008970/20121220/101738/1675/100/10/
008970/20121220/101758/1680/1080/20/
008970/20121220/101813/1680/440/20/
008970/20121220/101834/1675/140/10/
008970/20121220/101935/1680/500/20/
008970/20121220/101943/1680/250/20/
008970/20121220/101945/1680/200/20/
008970/20121220/101948/1680/850/20/
008970/20121220/102055/1675/100/10/
008970/20121220/102113/1675/300/10/
008970/20121220/102119/1675/480/10/
008970/20121220/102156/1680/170/20/
008970/20121220/102223/1675/260/10/
008970/20121220/102317/1675/110/10/
008970/20121220/102407/1680/180/20/
008970/20121220/102428/1675/100/10/
008970/20121220/102442/1675/1240/10/
008970/20121220/102540/1675/110/10/
008970/20121220/102546/1680/2000/20/
008970/20121220/102606/1680/90/20/
008970/20121220/102614/1680/1000/20/
008970/20121220/102645/1675/3030/10/
008970/20121220/102705/1675/100/10/
008970/20121220/102742/1680/300/20/
008970/20121220/102805/1680/150/20/
008970/20121220/102819/1680/980/20/
008970/20121220/102825/1680/1530/20/
008970/20121220/102838/1680/100/20/
008970/20121220/103125/1680/4010/10/
008970/20121220/103224/1680/1140/10/
008970/20121220/103532/1680/90/20/
008970/20121220/103610/1680/500/20/
008970/20121220/103624/1675/120/10/
008970/20121220/103804/1680/420/20/
008970/20121220/103805/1680/870/20/
008970/20121220/103836/1675/140/10/
008970/20121220/103841/1675/1240/10/
008970/20121220/104005/1675/3000/10/
008970/20121220/104115/1675/100/10/
008970/20121220/104117/1680/270/20/
008970/20121220/104139/1675/100/10/
008970/20121220/104227/1680/160/20/
008970/20121220/104231/1680/100/20/
008970/20121220/104237/1680/100/20/
008970/20121220/104241/1680/100/20/
008970/20121220/104250/1680/140/20/
008970/20121220/104254/1680/140/20/
008970/20121220/104259/1680/100/20/
008970/20121220/104303/1680/130/20/
008970/20121220/104316/1680/100/20/
008970/20121220/104321/1680/160/20/
008970/20121220/104327/1680/100/20/
008970/20121220/104331/1680/100/20/
008970/20121220/104333/1680/4830/20/
008970/20121220/104342/1680/1900/10/
008970/20121220/104358/1680/190/10/
008970/20121220/104517/1685/220/20/
008970/20121220/104524/1685/3000/20/
008970/20121220/104545/1685/230/20/
008970/20121220/104607/1685/260/20/
008970/20121220/104616/1685/10000/20/
008970/20121220/104617/1685/5220/20/
008970/20121220/104635/1690/310/20/
008970/20121220/104642/1690/500/20/
008970/20121220/104647/1690/110/20/
008970/20121220/104650/1690/1000/20/
008970/20121220/104656/1690/110/20/
008970/20121220/104656/1690/110/20/
008970/20121220/104715/1690/5500/20/
008970/20121220/104718/1690/16750/20/
008970/20121220/104718/1690/2550/10/
008970/20121220/104718/1690/670/20/
008970/20121220/104725/1695/1160/10/
008970/20121220/104756/1695/450/10/
008970/20121220/104803/1695/110/10/
008970/20121220/104803/1690/890/10/
008970/20121220/104819/1690/100/10/
008970/20121220/104833/1690/1500/10/
008970/20121220/104840/1690/130/10/
008970/20121220/104840/1690/870/20/
008970/20121220/104845/1690/600/10/
008970/20121220/104845/1690/1200/20/
008970/20121220/104944/1695/310/20/
008970/20121220/104958/1695/880/20/
008970/20121220/104959/1695/100/20/
008970/20121220/105004/1695/100/20/
008970/20121220/105008/1695/2300/20/
008970/20121220/105009/1695/100/20/
008970/20121220/105014/1695/3630/20/
008970/20121220/105058/1695/640/20/
008970/20121220/105125/1695/840/20/
008970/20121220/105143/1695/100/20/
008970/20121220/105218/1695/3720/20/
008970/20121220/105224/1695/500/10/
008970/20121220/105302/1700/390/20/
008970/20121220/105306/1700/1270/20/
008970/20121220/105319/1700/500/20/
008970/20121220/105321/1700/1000/20/
008970/20121220/105604/1700/530/20/
008970/20121220/105606/1695/3200/10/
008970/20121220/105626/1695/200/10/
008970/20121220/105626/1695/500/10/
008970/20121220/105651/1695/100/20/
008970/20121220/105702/1695/100/20/
008970/20121220/105703/1695/100/20/
008970/20121220/105710/1695/880/20/
008970/20121220/105751/1695/140/10/
008970/20121220/105822/1700/640/20/
008970/20121220/105855/1695/120/10/
008970/20121220/105911/1695/90/10/
008970/20121220/105913/1695/3970/10/
008970/20121220/105917/1695/1030/20/
008970/20121220/110002/1700/8800/20/
008970/20121220/110007/1700/1090/10/
008970/20121220/110019/1700/150/10/
008970/20121220/110032/1700/1640/10/
008970/20121220/110047/1695/600/10/
008970/20121220/110052/1700/1000/20/
008970/20121220/110054/1700/4800/20/
008970/20121220/110054/1700/2560/20/
008970/20121220/110152/1700/200/20/
008970/20121220/110156/1700/100/20/
008970/20121220/110159/1700/1000/20/
008970/20121220/110232/1695/1000/10/
008970/20121220/110313/1695/870/10/
008970/20121220/110343/1700/500/20/
008970/20121220/110348/1700/6320/20/
008970/20121220/110348/1705/5960/20/
008970/20121220/110348/1710/7710/20/
008970/20121220/110513/1710/730/20/
008970/20121220/110602/1710/200/20/
008970/20121220/110640/1710/110/20/
008970/20121220/110716/1705/140/10/
008970/20121220/110757/1705/1000/10/
008970/20121220/111008/1700/370/10/
008970/20121220/111036/1700/110/10/
008970/20121220/111051/1700/1000/10/
008970/20121220/111053/1705/300/20/
008970/20121220/111137/1700/570/10/
008970/20121220/111159/1700/290/10/
008970/20121220/111223/1700/500/10/
008970/20121220/111346/1700/8050/10/
008970/20121220/111350/1700/570/10/
008970/20121220/111414/1700/100/20/
008970/20121220/111600/1695/100/10/
008970/20121220/111641/1700/2850/20/
008970/20121220/111725/1705/110/20/
008970/20121220/111849/1700/1000/10/
008970/20121220/111905/1700/760/10/
008970/20121220/111941/1700/500/20/
008970/20121220/112221/1700/1210/20/
008970/20121220/112230/1700/4900/10/
008970/20121220/112400/1700/650/20/
008970/20121220/112400/1705/1350/20/
008970/20121220/112428/1700/100/20/
008970/20121220/112503/1700/600/10/
008970/20121220/112519/1700/810/20/
008970/20121220/112525/1700/1190/10/
008970/20121220/112807/1700/6250/20/
008970/20121220/112905/1700/4610/10/
008970/20121220/112931/1700/470/20/
008970/20121220/113127/1695/10510/10/
008970/20121220/113214/1700/100/20/
008970/20121220/113343/1695/350/10/
008970/20121220/113457/1695/700/10/
008970/20121220/113502/1695/310/20/
008970/20121220/113502/1700/1180/20/
008970/20121220/113535/1700/6000/20/
008970/20121220/113603/1695/1000/10/
008970/20121220/113744/1700/1010/20/
008970/20121220/113902/1700/100/20/
008970/20121220/113939/1700/6200/20/
008970/20121220/113945/1700/970/20/
008970/20121220/114048/1700/2460/20/
008970/20121220/114135/1700/550/10/
008970/20121220/114301/1695/1360/10/
008970/20121220/114312/1695/870/10/
008970/20121220/114356/1695/100/20/
008970/20121220/114842/1700/2980/20/
008970/20121220/114947/1700/800/10/
008970/20121220/114956/1700/1000/10/
008970/20121220/115121/1700/1080/10/
008970/20121220/115152/1700/1350/10/
008970/20121220/115211/1700/2810/10/
008970/20121220/115317/1700/190/20/
008970/20121220/115502/1695/2450/10/
008970/20121220/115502/1690/2660/10/
008970/20121220/115719/1690/7160/10/
008970/20121220/115744/1690/1000/10/
008970/20121220/115805/1690/1000/10/
008970/20121220/115812/1690/2000/10/
008970/20121220/120235/1695/120/20/
008970/20121220/120520/1690/100/10/
008970/20121220/120541/1690/1000/10/
008970/20121220/120603/1690/660/10/
008970/20121220/120607/1690/380/10/
008970/20121220/120627/1685/210/10/
008970/20121220/120635/1690/600/20/
008970/20121220/120635/1690/840/20/
008970/20121220/120716/1690/1000/10/
008970/20121220/120803/1695/1900/20/
008970/20121220/120843/1695/100/10/
008970/20121220/120945/1695/920/20/
008970/20121220/120945/1700/3960/20/
008970/20121220/121152/1690/500/10/
008970/20121220/121224/1690/500/10/
008970/20121220/121946/1695/340/20/
008970/20121220/122022/1695/530/20/
008970/20121220/122148/1695/200/10/
008970/20121220/122209/1695/210/10/
008970/20121220/122230/1695/230/10/
008970/20121220/122340/1700/100/20/
008970/20121220/122440/1700/100/20/
008970/20121220/122500/1695/1000/10/
008970/20121220/122545/1700/1000/20/
008970/20121220/122819/1700/100/20/
008970/20121220/122914/1695/1130/10/
008970/20121220/122932/1695/500/10/
008970/20121220/122951/1695/200/10/
008970/20121220/122958/1695/370/10/
008970/20121220/123125/1700/1010/20/
008970/20121220/123203/1695/300/10/
008970/20121220/123331/1695/510/10/
008970/20121220/123340/1695/260/10/
008970/20121220/123434/1695/890/10/
008970/20121220/123546/1690/3000/10/
008970/20121220/123837/1690/170/10/
008970/20121220/124121/1695/3310/20/
008970/20121220/124151/1695/2500/10/
008970/20121220/124347/1695/640/10/
008970/20121220/124504/1695/310/10/
008970/20121220/124603/1690/580/10/
008970/20121220/124700/1690/1010/10/
008970/20121220/124939/1690/180/10/
008970/20121220/124950/1695/1000/20/
008970/20121220/125034/1695/630/10/
008970/20121220/125045/1695/380/10/
008970/20121220/125101/1690/1220/10/
008970/20121220/125329/1690/2010/10/
008970/20121220/125347/1690/2000/10/
008970/20121220/125413/1695/700/20/
008970/20121220/125717/1690/1020/10/
008970/20121220/125802/1690/2490/10/
008970/20121220/125815/1690/1000/10/
008970/20121220/125849/1690/1000/10/
008970/20121220/125857/1690/650/10/
008970/20121220/125904/1690/250/10/
008970/20121220/130040/1690/3530/10/
008970/20121220/130049/1690/730/20/
008970/20121220/130103/1690/130/20/
008970/20121220/130212/1690/1010/10/
008970/20121220/130259/1690/1200/10/
008970/20121220/130411/1690/1010/20/
008970/20121220/130423/1690/950/20/
008970/20121220/130428/1685/7800/10/
008970/20121220/130526/1685/3020/10/
008970/20121220/130623/1685/1000/10/
008970/20121220/130723/1690/210/20/
008970/20121220/130856/1685/3090/10/
008970/20121220/130931/1685/710/10/
008970/20121220/131142/1685/3060/10/
008970/20121220/131142/1680/16300/10/
008970/20121220/131142/1675/34690/10/
008970/20121220/131142/1670/19670/10/
008970/20121220/131212/1675/1000/10/
008970/20121220/131245/1685/2020/20/
008970/20121220/131251/1685/290/20/
008970/20121220/131423/1680/1090/20/
008970/20121220/131433/1680/1000/20/
008970/20121220/131449/1680/600/20/
008970/20121220/131533/1675/1000/10/
008970/20121220/131733/1675/510/10/
008970/20121220/131736/1685/110/20/
008970/20121220/131923/1680/300/10/
008970/20121220/132049/1680/3870/10/
008970/20121220/132110/1675/100/10/
008970/20121220/132208/1675/8000/10/
008970/20121220/132225/1675/620/10/
008970/20121220/132328/1680/1860/20/
008970/20121220/132417/1680/300/20/
008970/20121220/132449/1680/90/20/
008970/20121220/132450/1680/90/20/
008970/20121220/132457/1680/100/20/
008970/20121220/132520/1680/900/20/
008970/20121220/132544/1680/200/20/
008970/20121220/132544/1680/490/20/
008970/20121220/132552/1680/510/10/
008970/20121220/132552/1675/2490/10/
008970/20121220/132647/1680/540/20/
008970/20121220/132654/1680/1460/10/
008970/20121220/132726/1680/450/20/
008970/20121220/132823/1680/1770/10/
008970/20121220/132938/1680/220/20/
008970/20121220/133024/1675/22180/10/
008970/20121220/133043/1670/100/10/
008970/20121220/133048/1675/730/20/
008970/20121220/133054/1675/1000/20/
008970/20121220/133058/1675/2000/20/
008970/20121220/133105/1675/100/20/
008970/20121220/133115/1675/420/20/
008970/20121220/133330/1675/500/10/
008970/20121220/133350/1675/300/10/
008970/20121220/133428/1675/650/10/
008970/20121220/133431/1680/2000/20/
008970/20121220/133837/1675/320/10/
008970/20121220/133839/1680/200/20/
008970/20121220/134019/1680/200/20/
008970/20121220/134043/1675/2000/10/
008970/20121220/134112/1680/800/20/
008970/20121220/134203/1675/10000/10/
008970/20121220/134316/1675/1450/10/
008970/20121220/134416/1675/160/10/
008970/20121220/134715/1675/600/10/
008970/20121220/134907/1675/540/10/
008970/20121220/134939/1675/1000/10/
008970/20121220/134959/1675/3000/10/
008970/20121220/135006/1675/7000/10/
008970/20121220/135023/1675/1500/10/
008970/20121220/135058/1675/480/10/
008970/20121220/135235/1675/2030/10/
008970/20121220/135314/1675/900/10/
008970/20121220/135348/1670/100/10/
008970/20121220/135520/1675/560/10/
008970/20121220/135531/1675/120/20/
008970/20121220/135646/1675/420/20/
008970/20121220/135714/1675/500/10/
008970/20121220/135931/1680/130/20/
008970/20121220/140224/1675/1010/10/
008970/20121220/140302/1675/710/10/
008970/20121220/140310/1675/730/10/
008970/20121220/140441/1675/500/10/
008970/20121220/140511/1675/400/10/
008970/20121220/140514/1675/200/10/
008970/20121220/140715/1680/1230/20/
008970/20121220/140733/1675/790/10/
008970/20121220/140746/1680/490/20/
008970/20121220/141107/1675/210/10/
008970/20121220/141119/1675/1260/10/
008970/20121220/141202/1680/470/20/
008970/20121220/141233/1680/100/20/
008970/20121220/141257/1675/1640/10/
008970/20121220/141257/1670/2390/10/
008970/20121220/141337/1670/550/10/
008970/20121220/141350/1670/14650/10/
008970/20121220/141439/1675/100/20/
008970/20121220/141506/1675/150/20/
008970/20121220/141533/1675/1010/20/
008970/20121220/141703/1675/2010/20/
008970/20121220/141724/1675/610/20/
008970/20121220/141740/1675/500/20/
008970/20121220/141742/1675/590/20/
008970/20121220/141749/1675/100/20/
008970/20121220/141753/1675/500/20/
008970/20121220/141805/1675/390/20/
008970/20121220/141903/1675/510/20/
008970/20121220/141906/1675/2000/20/
008970/20121220/142001/1675/500/20/
008970/20121220/142042/1675/1000/20/
008970/20121220/142046/1675/120/20/
008970/20121220/142056/1675/150/20/
008970/20121220/142101/1675/500/20/
008970/20121220/142106/1675/200/20/
008970/20121220/142219/1675/1040/20/
008970/20121220/142238/1670/300/10/
008970/20121220/142242/1675/1720/20/
008970/20121220/142438/1680/6610/20/
008970/20121220/142522/1680/1800/20/
008970/20121220/142636/1680/1670/20/
008970/20121220/142649/1680/300/20/
008970/20121220/143408/1685/170/20/
008970/20121220/143502/1685/1180/20/
008970/20121220/143555/1680/2040/10/
008970/20121220/143607/1680/1750/10/
008970/20121220/143636/1680/1200/20/
008970/20121220/143653/1685/90/20/
008970/20121220/143723/1680/100/20/
008970/20121220/143932/1685/110/20/
008970/20121220/144016/1680/120/10/
008970/20121220/144042/1680/210/10/
008970/20121220/144110/1685/1090/20/
008970/20121220/144120/1685/3000/20/
008970/20121220/144129/1685/250/20/
008970/20121220/144130/1685/1120/20/
008970/20121220/144224/1685/3010/10/
008970/20121220/144247/1685/340/10/
008970/20121220/144339/1685/1010/10/
008970/20121220/144346/1685/540/20/
008970/20121220/144359/1680/1000/10/
008970/20121220/144447/1685/160/20/
008970/20121220/144505/1680/100/10/
008970/20121220/144536/1680/1020/10/
008970/20121220/144721/1685/3670/20/
008970/20121220/144753/1680/390/10/
008970/20121220/144757/1685/100/20/
008970/20121220/144839/1680/930/10/
008970/20121220/144846/1680/310/10/
008970/20121220/144849/1680/1000/10/
008970/20121220/144930/1680/4550/10/
008970/20121220/150000/1680/28010/10/
