008970/20121029/90000/1730/14210/10/
008970/20121029/90039/1740/200/20/
008970/20121029/90039/1745/210/20/
008970/20121029/90055/1745/360/20/
008970/20121029/90111/1745/940/20/
008970/20121029/90138/1745/100/20/
008970/20121029/90153/1745/200/20/
008970/20121029/90154/1750/900/20/
008970/20121029/90210/1750/600/20/
008970/20121029/90226/1750/1000/10/
008970/20121029/90234/1750/400/20/
008970/20121029/90253/1750/1000/20/
008970/20121029/90354/1745/620/10/
008970/20121029/90358/1750/500/20/
008970/20121029/90421/1750/550/20/
008970/20121029/90422/1750/500/10/
008970/20121029/90425/1750/170/10/
008970/20121029/90426/1750/500/10/
008970/20121029/90428/1750/290/10/
008970/20121029/90444/1750/100/20/
008970/20121029/90518/1745/990/10/
008970/20121029/90540/1750/1100/20/
008970/20121029/90558/1750/1070/20/
008970/20121029/90559/1750/810/20/
008970/20121029/90602/1750/690/10/
008970/20121029/90617/1745/2000/10/
008970/20121029/90623/1745/1200/10/
008970/20121029/90625/1745/800/20/
008970/20121029/90633/1745/200/10/
008970/20121029/90640/1745/800/20/
008970/20121029/90643/1745/200/10/
008970/20121029/90644/1740/310/10/
008970/20121029/90645/1745/100/20/
008970/20121029/90651/1745/180/20/
008970/20121029/90731/1750/120/20/
008970/20121029/90751/1745/1270/10/
008970/20121029/90756/1745/100/20/
008970/20121029/90815/1740/1500/10/
008970/20121029/90922/1740/130/10/
008970/20121029/91012/1740/2020/10/
008970/20121029/91030/1740/490/10/
008970/20121029/91032/1740/500/10/
008970/20121029/91034/1740/290/10/
008970/20121029/91035/1740/100/20/
008970/20121029/91038/1740/190/20/
008970/20121029/91058/1735/1000/10/
008970/20121029/91059/1745/3320/20/
008970/20121029/91132/1740/560/10/
008970/20121029/91212/1740/360/10/
008970/20121029/91552/1740/1970/10/
008970/20121029/91602/1740/100/20/
008970/20121029/91634/1740/450/20/
008970/20121029/91714/1745/100/20/
008970/20121029/91725/1745/100/20/
008970/20121029/91739/1745/100/20/
008970/20121029/91748/1745/100/20/
008970/20121029/91801/1745/100/20/
008970/20121029/91823/1745/100/20/
008970/20121029/91851/1745/1430/20/
008970/20121029/91854/1745/100/20/
008970/20121029/91859/1745/100/20/
008970/20121029/91901/1745/100/20/
008970/20121029/91902/1740/260/10/
008970/20121029/91903/1745/500/20/
008970/20121029/91905/1745/100/20/
008970/20121029/91933/1745/500/20/
008970/20121029/91939/1740/210/10/
008970/20121029/91944/1735/210/10/
008970/20121029/92052/1735/4060/10/
008970/20121029/92055/1730/9490/10/
008970/20121029/92055/1725/10510/10/
008970/20121029/92122/1735/90/20/
008970/20121029/92136/1725/1000/10/
008970/20121029/92230/1730/100/10/
008970/20121029/92301/1725/2000/10/
008970/20121029/92322/1730/300/10/
008970/20121029/92353/1725/3010/10/
008970/20121029/92354/1730/300/20/
008970/20121029/92408/1725/1060/10/
008970/20121029/92435/1730/160/20/
008970/20121029/92504/1725/510/20/
008970/20121029/92514/1725/110/20/
008970/20121029/92532/1725/280/20/
008970/20121029/92538/1725/500/10/
008970/20121029/92546/1730/500/20/
008970/20121029/92551/1730/850/20/
008970/20121029/92607/1725/1230/10/
008970/20121029/92641/1730/170/10/
008970/20121029/92712/1735/120/20/
008970/20121029/92724/1735/630/20/
008970/20121029/92746/1735/130/10/
008970/20121029/92850/1740/1010/20/
008970/20121029/93011/1735/1500/10/
008970/20121029/93019/1735/530/10/
008970/20121029/93123/1735/1000/20/
008970/20121029/93201/1735/500/20/
008970/20121029/93319/1730/1220/10/
008970/20121029/93349/1735/2090/20/
008970/20121029/93403/1730/1520/10/
008970/20121029/93441/1735/100/10/
008970/20121029/93501/1730/2840/10/
008970/20121029/93533/1730/300/20/
008970/20121029/93556/1725/5560/10/
008970/20121029/93635/1720/3940/10/
008970/20121029/93718/1720/200/10/
008970/20121029/93726/1725/1000/20/
008970/20121029/93739/1720/5000/10/
008970/20121029/93840/1720/1010/10/
008970/20121029/93853/1725/3010/20/
008970/20121029/94034/1725/130/20/
008970/20121029/94129/1725/520/20/
008970/20121029/94158/1725/3280/20/
008970/20121029/94230/1725/1720/10/
008970/20121029/94320/1720/2010/10/
008970/20121029/94424/1720/1000/10/
008970/20121029/94426/1720/2500/10/
008970/20121029/94520/1720/510/10/
008970/20121029/94706/1725/1280/20/
008970/20121029/94756/1735/200/20/
008970/20121029/94815/1735/320/20/
008970/20121029/94915/1730/90/10/
008970/20121029/94915/1725/160/10/
008970/20121029/94915/1720/2420/10/
008970/20121029/95345/1725/1390/10/
008970/20121029/95406/1720/970/10/
008970/20121029/95418/1720/1400/10/
008970/20121029/95429/1720/310/20/
008970/20121029/95456/1720/310/20/
008970/20121029/95511/1720/190/10/
008970/20121029/95527/1715/1050/10/
008970/20121029/95652/1720/270/10/
008970/20121029/95657/1720/260/10/
008970/20121029/95707/1720/140/20/
008970/20121029/95707/1720/190/10/
008970/20121029/95707/1715/2810/10/
008970/20121029/95715/1715/2410/10/
008970/20121029/95715/1710/9420/10/
008970/20121029/95814/1710/230/20/
008970/20121029/95836/1710/100/20/
008970/20121029/95843/1710/110/20/
008970/20121029/95849/1710/100/20/
008970/20121029/95855/1710/500/20/
008970/20121029/95858/1710/2000/20/
008970/20121029/95900/1710/300/20/
008970/20121029/95903/1710/200/20/
008970/20121029/95904/1710/300/20/
008970/20121029/95904/1710/120/20/
008970/20121029/95905/1710/500/20/
008970/20121029/95912/1710/100/20/
008970/20121029/95913/1710/530/20/
008970/20121029/95925/1710/200/20/
008970/20121029/95936/1710/200/20/
008970/20121029/95950/1710/110/20/
008970/20121029/100106/1710/1050/20/
008970/20121029/100119/1705/5050/10/
008970/20121029/100137/1705/130/10/
008970/20121029/100215/1705/2010/10/
008970/20121029/100215/1705/490/10/
008970/20121029/100218/1705/200/20/
008970/20121029/100240/1705/310/20/
008970/20121029/100319/1705/100/10/
008970/20121029/100444/1710/1030/20/
008970/20121029/100451/1710/200/20/
008970/20121029/100510/1710/1000/20/
008970/20121029/100519/1710/250/20/
008970/20121029/100544/1710/500/20/
008970/20121029/100553/1710/1700/20/
008970/20121029/100628/1710/6410/20/
008970/20121029/100632/1710/870/10/
008970/20121029/100641/1710/1000/20/
008970/20121029/100642/1710/2000/20/
008970/20121029/100645/1710/200/20/
008970/20121029/100645/1710/770/20/
008970/20121029/100655/1710/200/20/
008970/20121029/100709/1710/1000/20/
008970/20121029/100714/1710/3000/20/
008970/20121029/100714/1710/960/20/
008970/20121029/100905/1720/150/20/
008970/20121029/100905/1720/100/20/
008970/20121029/100911/1715/150/10/
008970/20121029/101208/1720/460/20/
008970/20121029/101248/1715/530/10/
008970/20121029/101248/1710/2490/10/
008970/20121029/101816/1720/90/20/
008970/20121029/101821/1715/100/10/
008970/20121029/101902/1720/510/20/
008970/20121029/101946/1715/1010/10/
008970/20121029/102226/1715/130/10/
008970/20121029/102245/1715/500/10/
008970/20121029/102247/1715/2680/10/
008970/20121029/102247/1710/5320/10/
008970/20121029/102305/1710/1500/10/
008970/20121029/102318/1715/500/20/
008970/20121029/102410/1715/3600/20/
008970/20121029/102430/1715/910/20/
008970/20121029/102620/1720/5740/20/
008970/20121029/102654/1725/2910/20/
008970/20121029/102741/1725/200/20/
008970/20121029/102744/1720/2000/10/
008970/20121029/102838/1720/530/10/
008970/20121029/102841/1720/1000/10/
008970/20121029/102929/1720/430/10/
008970/20121029/103027/1720/650/20/
008970/20121029/103356/1715/700/10/
008970/20121029/103434/1715/310/10/
008970/20121029/103443/1715/510/10/
008970/20121029/103759/1715/2020/10/
008970/20121029/103921/1715/3000/10/
008970/20121029/104129/1715/180/10/
008970/20121029/104143/1715/1250/10/
008970/20121029/104158/1720/510/20/
008970/20121029/104201/1715/1610/10/
008970/20121029/104246/1720/500/20/
008970/20121029/104255/1720/1750/20/
008970/20121029/104259/1720/90/10/
008970/20121029/104329/1720/8000/10/
008970/20121029/104342/1720/660/10/
008970/20121029/104417/1720/500/20/
008970/20121029/104452/1720/150/20/
008970/20121029/104543/1720/1000/10/
008970/20121029/104823/1720/910/10/
008970/20121029/104838/1720/110/10/
008970/20121029/105447/1720/850/20/
008970/20121029/105538/1720/250/20/
008970/20121029/105539/1715/100/10/
008970/20121029/105541/1720/180/20/
008970/20121029/105544/1720/1000/20/
008970/20121029/105634/1720/660/20/
008970/20121029/105634/1720/170/20/
008970/20121029/110031/1720/380/20/
008970/20121029/110155/1715/3760/10/
008970/20121029/110344/1715/110/10/
008970/20121029/110351/1720/100/20/
008970/20121029/110744/1715/1020/10/
008970/20121029/110912/1715/170/10/
008970/20121029/110956/1715/500/10/
008970/20121029/111000/1715/1000/10/
008970/20121029/111003/1715/650/10/
008970/20121029/111015/1715/1350/20/
008970/20121029/111636/1720/160/20/
008970/20121029/111800/1720/150/20/
008970/20121029/111801/1720/3200/20/
008970/20121029/111807/1720/100/20/
008970/20121029/112003/1720/950/10/
008970/20121029/112201/1720/520/10/
008970/20121029/112441/1720/830/10/
008970/20121029/112500/1725/330/20/
008970/20121029/112515/1725/1000/20/
008970/20121029/112548/1725/1940/20/
008970/20121029/112603/1725/1000/20/
008970/20121029/112644/1720/1000/10/
008970/20121029/112841/1720/2000/10/
008970/20121029/112846/1725/2750/20/
008970/20121029/112854/1725/250/10/
008970/20121029/112854/1720/750/10/
008970/20121029/113356/1730/90/20/
008970/20121029/113418/1730/500/20/
008970/20121029/113633/1730/120/20/
008970/20121029/113946/1725/830/10/
008970/20121029/114115/1725/310/20/
008970/20121029/114218/1725/200/10/
008970/20121029/114440/1730/220/20/
008970/20121029/115019/1730/120/20/
008970/20121029/115044/1725/2000/10/
008970/20121029/115212/1725/390/10/
008970/20121029/115429/1725/130/10/
008970/20121029/115429/1720/630/10/
008970/20121029/115539/1725/1010/10/
008970/20121029/115705/1725/150/20/
008970/20121029/115712/1720/8230/10/
008970/20121029/115712/1715/470/10/
008970/20121029/115804/1725/510/20/
008970/20121029/115918/1720/1010/10/
008970/20121029/120002/1725/730/20/
008970/20121029/120011/1730/100/20/
008970/20121029/120240/1725/770/10/
008970/20121029/120245/1725/230/20/
008970/20121029/120257/1725/270/10/
008970/20121029/120343/1720/250/10/
008970/20121029/120446/1725/730/20/
008970/20121029/120804/1725/1090/10/
008970/20121029/120812/1725/1000/10/
008970/20121029/120838/1725/290/10/
008970/20121029/121000/1725/2960/20/
008970/20121029/121248/1730/90/20/
008970/20121029/121811/1725/310/10/
008970/20121029/121834/1730/170/20/
008970/20121029/121946/1720/1000/10/
008970/20121029/122032/1725/560/20/
008970/20121029/122205/1725/90/10/
008970/20121029/122211/1725/530/10/
008970/20121029/122229/1725/1750/10/
008970/20121029/122247/1730/100/20/
008970/20121029/122405/1730/180/20/
008970/20121029/122646/1725/150/10/
008970/20121029/122722/1725/2000/10/
008970/20121029/123105/1725/180/10/
008970/20121029/123109/1725/830/10/
008970/20121029/123138/1725/2120/20/
008970/20121029/123139/1720/290/10/
008970/20121029/123147/1720/1360/10/
008970/20121029/123200/1720/100/10/
008970/20121029/123210/1720/880/10/
008970/20121029/123343/1725/110/20/
008970/20121029/123459/1725/440/20/
008970/20121029/123656/1730/90/20/
008970/20121029/123701/1725/110/10/
008970/20121029/123726/1730/90/20/
008970/20121029/123744/1725/560/10/
008970/20121029/123812/1730/90/20/
008970/20121029/124111/1725/420/10/
008970/20121029/124119/1725/1650/10/
008970/20121029/124325/1720/5000/10/
008970/20121029/124327/1725/150/20/
008970/20121029/124518/1720/950/10/
008970/20121029/124528/1720/490/10/
008970/20121029/124538/1720/500/10/
008970/20121029/124619/1720/400/10/
008970/20121029/124620/1720/1530/10/
008970/20121029/124654/1715/5000/10/
008970/20121029/124818/1715/480/10/
008970/20121029/124903/1715/3740/10/
008970/20121029/125045/1715/180/20/
008970/20121029/125057/1710/920/10/
008970/20121029/125431/1710/1960/10/
008970/20121029/125746/1720/110/20/
008970/20121029/130001/1720/160/20/
008970/20121029/130016/1720/1000/20/
008970/20121029/130157/1720/100/20/
008970/20121029/130202/1715/2000/10/
008970/20121029/130359/1715/310/10/
008970/20121029/130506/1715/900/20/
008970/20121029/130508/1715/300/20/
008970/20121029/130616/1710/2550/10/
008970/20121029/130621/1710/1150/10/
008970/20121029/130639/1710/5000/10/
008970/20121029/130647/1710/1000/10/
008970/20121029/130759/1710/100/10/
008970/20121029/130827/1710/7110/10/
008970/20121029/130841/1710/4600/10/
008970/20121029/130845/1710/100/20/
008970/20121029/130909/1705/6720/10/
008970/20121029/130924/1705/2430/10/
008970/20121029/130924/1700/16570/10/
008970/20121029/130929/1700/120/20/
008970/20121029/130937/1700/270/20/
008970/20121029/130950/1700/610/20/
008970/20121029/131030/1705/100/10/
008970/20121029/131030/1700/4900/10/
008970/20121029/131109/1700/2150/10/
008970/20121029/131109/1700/200/20/
008970/20121029/131113/1700/100/20/
008970/20121029/131121/1700/150/20/
008970/20121029/131130/1695/10400/10/
008970/20121029/131131/1700/290/20/
008970/20121029/131135/1700/6590/20/
008970/20121029/131148/1700/2000/10/
008970/20121029/131221/1700/2100/10/
008970/20121029/131240/1700/320/10/
008970/20121029/131247/1700/220/20/
008970/20121029/131301/1700/530/20/
008970/20121029/131304/1700/950/20/
008970/20121029/131312/1705/100/20/
008970/20121029/131427/1705/110/20/
008970/20121029/131450/1700/3920/10/
008970/20121029/131528/1700/130/20/
008970/20121029/131615/1700/1120/10/
008970/20121029/131615/1695/6880/10/
008970/20121029/131706/1695/5680/10/
008970/20121029/131711/1695/1000/10/
008970/20121029/131715/1695/7470/10/
008970/20121029/131724/1695/100/20/
008970/20121029/131730/1690/800/10/
008970/20121029/131735/1695/120/20/
008970/20121029/131736/1695/810/20/
008970/20121029/131840/1700/100/20/
008970/20121029/132017/1700/500/20/
008970/20121029/132133/1700/1370/20/
008970/20121029/132134/1700/100/20/
008970/20121029/132144/1695/100/10/
008970/20121029/132212/1700/100/20/
008970/20121029/132309/1700/190/20/
008970/20121029/132334/1695/5750/10/
008970/20121029/132359/1700/570/20/
008970/20121029/132527/1700/250/20/
008970/20121029/132537/1700/750/10/
008970/20121029/132538/1695/260/10/
008970/20121029/132547/1690/200/10/
008970/20121029/132552/1695/240/20/
008970/20121029/132811/1695/520/10/
008970/20121029/132811/1695/210/10/
008970/20121029/132905/1700/500/20/
008970/20121029/132916/1695/170/10/
008970/20121029/132923/1695/3000/10/
008970/20121029/132958/1695/130/10/
008970/20121029/133015/1695/380/10/
008970/20121029/133106/1695/140/10/
008970/20121029/133112/1695/170/20/
008970/20121029/133652/1700/170/20/
008970/20121029/133723/1700/3000/20/
008970/20121029/133743/1700/500/20/
008970/20121029/133745/1695/520/10/
008970/20121029/133823/1695/100/10/
008970/20121029/133834/1700/100/20/
008970/20121029/134036/1700/1010/20/
008970/20121029/134101/1695/300/10/
008970/20121029/134145/1695/1010/10/
008970/20121029/134158/1695/210/10/
008970/20121029/134216/1700/210/20/
008970/20121029/134357/1695/3150/10/
008970/20121029/134408/1695/1630/10/
008970/20121029/134424/1690/500/10/
008970/20121029/134442/1695/1010/20/
008970/20121029/134453/1695/1070/20/
008970/20121029/134519/1695/4970/10/
008970/20121029/134532/1695/1030/20/
008970/20121029/134542/1695/950/10/
008970/20121029/134549/1695/210/10/
008970/20121029/134703/1695/840/10/
008970/20121029/134715/1695/200/20/
008970/20121029/134722/1695/920/10/
008970/20121029/134802/1700/500/20/
008970/20121029/134816/1695/1890/10/
008970/20121029/134821/1695/110/20/
008970/20121029/134833/1695/950/10/
008970/20121029/134834/1695/1000/20/
008970/20121029/134859/1695/110/20/
008970/20121029/134906/1695/1000/20/
008970/20121029/134914/1695/2000/20/
008970/20121029/134916/1695/2400/20/
008970/20121029/134929/1695/500/20/
008970/20121029/134931/1695/410/20/
008970/20121029/135008/1695/310/20/
008970/20121029/135344/1695/1080/20/
008970/20121029/135415/1695/1590/20/
008970/20121029/135437/1695/1450/10/
008970/20121029/135549/1695/1060/10/
008970/20121029/135650/1695/740/10/
008970/20121029/135655/1695/11480/10/
008970/20121029/135918/1690/4000/10/
008970/20121029/135946/1690/5460/10/
008970/20121029/135949/1690/10000/10/
008970/20121029/135949/1690/1220/10/
008970/20121029/140009/1685/500/10/
008970/20121029/140026/1685/1010/10/
008970/20121029/140026/1685/500/10/
008970/20121029/140039/1685/4990/10/
008970/20121029/140039/1680/20520/10/
008970/20121029/140048/1675/5010/10/
008970/20121029/140048/1680/400/20/
008970/20121029/140103/1680/1000/20/
008970/20121029/140133/1675/10460/10/
008970/20121029/140135/1675/1670/10/
008970/20121029/140137/1675/4590/10/
008970/20121029/140141/1675/1000/20/
008970/20121029/140201/1675/590/20/
008970/20121029/140202/1675/220/10/
008970/20121029/140218/1670/820/10/
008970/20121029/140229/1670/4320/10/
008970/20121029/140231/1670/1120/10/
008970/20121029/140247/1675/90/20/
008970/20121029/140300/1675/1000/20/
008970/20121029/140301/1670/1640/10/
008970/20121029/140301/1665/5330/10/
008970/20121029/140301/1660/8030/10/
008970/20121029/140333/1670/200/20/
008970/20121029/140357/1670/310/10/
008970/20121029/140406/1670/110/10/
008970/20121029/140437/1670/2060/10/
008970/20121029/140455/1670/2330/10/
008970/20121029/140509/1670/500/20/
008970/20121029/140510/1660/3420/10/
008970/20121029/140542/1665/130/20/
008970/20121029/140608/1670/300/20/
008970/20121029/140616/1665/200/20/
008970/20121029/140624/1660/5400/10/
008970/20121029/140624/1665/700/20/
008970/20121029/140647/1670/110/20/
008970/20121029/140657/1665/920/10/
008970/20121029/140709/1670/90/20/
008970/20121029/140723/1665/100/10/
008970/20121029/140735/1665/1120/10/
008970/20121029/140737/1660/3160/10/
008970/20121029/140748/1660/1600/10/
008970/20121029/140755/1655/4350/10/
008970/20121029/140819/1650/8090/10/
008970/20121029/140836/1655/1110/10/
008970/20121029/140843/1650/2950/10/
008970/20121029/140849/1645/1030/10/
008970/20121029/140905/1660/280/20/
008970/20121029/140916/1650/1000/10/
008970/20121029/140936/1650/110/10/
008970/20121029/140937/1660/410/20/
008970/20121029/140944/1660/590/10/
008970/20121029/140950/1645/1010/10/
008970/20121029/141007/1650/1510/10/
008970/20121029/141021/1650/810/10/
008970/20121029/141023/1660/100/20/
008970/20121029/141031/1660/100/20/
008970/20121029/141037/1660/330/10/
008970/20121029/141055/1655/330/10/
008970/20121029/141102/1655/800/10/
008970/20121029/141114/1655/290/20/
008970/20121029/141117/1655/150/10/
008970/20121029/141128/1655/380/20/
008970/20121029/141137/1650/1940/20/
008970/20121029/141159/1655/90/20/
008970/20121029/141200/1655/100/20/
008970/20121029/141218/1655/410/10/
008970/20121029/141219/1655/240/20/
008970/20121029/141219/1655/360/20/
008970/20121029/141229/1655/210/10/
008970/20121029/141249/1660/310/20/
008970/20121029/141315/1655/4770/10/
008970/20121029/141319/1660/320/20/
008970/20121029/141323/1655/820/10/
008970/20121029/141326/1655/90/20/
008970/20121029/141345/1655/90/20/
008970/20121029/141404/1655/4940/10/
008970/20121029/141404/1650/9500/10/
008970/20121029/141404/1645/13130/10/
008970/20121029/141404/1640/5460/10/
008970/20121029/141423/1655/210/20/
008970/20121029/141423/1660/400/20/
008970/20121029/141428/1640/10000/10/
008970/20121029/141442/1655/310/20/
008970/20121029/141455/1640/4220/10/
008970/20121029/141506/1640/2820/10/
008970/20121029/141525/1645/410/20/
008970/20121029/141527/1645/100/20/
008970/20121029/141540/1645/190/20/
008970/20121029/141542/1645/2490/10/
008970/20121029/141542/1640/1510/10/
008970/20121029/141542/1635/2870/10/
008970/20121029/141542/1630/12010/10/
008970/20121029/141542/1625/1120/10/
008970/20121029/141553/1640/1010/20/
008970/20121029/141556/1645/310/10/
008970/20121029/141556/1650/190/20/
008970/20121029/141608/1645/200/10/
008970/20121029/141631/1645/1000/20/
008970/20121029/141651/1640/600/10/
008970/20121029/141651/1635/4410/10/
008970/20121029/141702/1635/1910/10/
008970/20121029/141702/1630/600/10/
008970/20121029/141707/1630/2520/10/
008970/20121029/141707/1625/20990/10/
008970/20121029/141722/1630/230/20/
008970/20121029/141723/1630/120/20/
008970/20121029/141725/1630/100/20/
008970/20121029/141733/1630/130/20/
008970/20121029/141736/1630/250/20/
008970/20121029/141739/1630/350/20/
008970/20121029/141751/1635/210/20/
008970/20121029/141751/1630/300/10/
008970/20121029/141800/1630/470/20/
008970/20121029/141801/1630/200/20/
008970/20121029/141805/1635/100/20/
008970/20121029/141827/1630/400/10/
008970/20121029/141829/1630/100/20/
008970/20121029/141852/1630/1010/20/
008970/20121029/141902/1630/380/20/
008970/20121029/141910/1625/6000/10/
008970/20121029/141923/1625/1510/10/
008970/20121029/141936/1625/1650/10/
008970/20121029/141942/1630/210/20/
008970/20121029/142015/1625/1010/10/
008970/20121029/142015/1630/1000/20/
008970/20121029/142021/1630/510/20/
008970/20121029/142042/1630/100/20/
008970/20121029/142048/1630/100/20/
008970/20121029/142100/1630/900/20/
008970/20121029/142101/1630/100/20/
008970/20121029/142104/1630/1010/20/
008970/20121029/142105/1630/1000/20/
008970/20121029/142106/1630/780/20/
008970/20121029/142106/1635/230/20/
008970/20121029/142106/1640/500/20/
008970/20121029/142106/1645/490/20/
008970/20121029/142152/1645/390/20/
008970/20121029/142212/1645/100/20/
008970/20121029/142306/1645/2060/20/
008970/20121029/142329/1645/1420/20/
008970/20121029/142333/1645/110/20/
008970/20121029/142404/1645/410/20/
008970/20121029/142419/1645/270/20/
008970/20121029/142435/1650/110/20/
008970/20121029/142442/1650/600/20/
008970/20121029/142505/1650/400/20/
008970/20121029/142528/1650/2010/20/
008970/20121029/142538/1650/5000/20/
008970/20121029/142550/1650/4040/20/
008970/20121029/142611/1650/3010/20/
008970/20121029/142627/1655/120/20/
008970/20121029/142702/1650/500/20/
008970/20121029/142722/1650/1520/10/
008970/20121029/142731/1650/1000/20/
008970/20121029/142756/1650/1050/20/
008970/20121029/142808/1650/1000/20/
008970/20121029/142812/1650/1000/20/
008970/20121029/142824/1650/1000/20/
008970/20121029/142837/1650/1000/20/
008970/20121029/142847/1650/100/20/
008970/20121029/142855/1650/260/20/
008970/20121029/142902/1650/1000/20/
008970/20121029/142914/1650/1000/20/
008970/20121029/142922/1650/100/20/
008970/20121029/142932/1650/1010/20/
008970/20121029/142935/1650/1040/20/
008970/20121029/142941/1650/130/20/
008970/20121029/142948/1650/530/20/
008970/20121029/143021/1655/1060/20/
008970/20121029/143056/1650/170/10/
008970/20121029/143113/1655/500/20/
008970/20121029/143114/1650/3000/10/
008970/20121029/143204/1655/140/20/
008970/20121029/143204/1655/190/20/
008970/20121029/143215/1655/3590/20/
008970/20121029/143249/1655/4520/10/
008970/20121029/143321/1650/120/10/
008970/20121029/143334/1655/1010/20/
008970/20121029/143344/1655/500/20/
008970/20121029/143402/1650/5020/10/
008970/20121029/143428/1650/90/10/
008970/20121029/143435/1655/310/20/
008970/20121029/143541/1650/110/10/
008970/20121029/143553/1650/2010/10/
008970/20121029/143600/1650/760/10/
008970/20121029/143640/1650/340/10/
008970/20121029/143645/1650/2050/10/
008970/20121029/143647/1650/250/10/
008970/20121029/143718/1650/560/10/
008970/20121029/143730/1650/110/10/
008970/20121029/143752/1655/510/20/
008970/20121029/143809/1655/1520/20/
008970/20121029/143830/1655/540/20/
008970/20121029/143832/1655/220/20/
008970/20121029/143842/1650/100/10/
008970/20121029/143844/1650/140/10/
008970/20121029/143847/1655/500/20/
008970/20121029/143855/1650/200/10/
008970/20121029/143859/1650/510/10/
008970/20121029/143903/1655/510/20/
008970/20121029/143941/1655/1000/20/
008970/20121029/143953/1650/110/10/
008970/20121029/143957/1655/310/20/
008970/20121029/144005/1655/1000/20/
008970/20121029/144020/1655/130/20/
008970/20121029/144026/1655/1000/20/
008970/20121029/144040/1650/1000/10/
008970/20121029/144041/1650/4000/10/
008970/20121029/144044/1650/2450/10/
008970/20121029/144052/1650/2200/20/
008970/20121029/144054/1650/360/20/
008970/20121029/144113/1655/2610/20/
008970/20121029/144129/1655/110/20/
008970/20121029/144134/1655/110/20/
008970/20121029/144217/1650/2500/10/
008970/20121029/144311/1650/2530/10/
008970/20121029/144318/1650/1010/10/
008970/20121029/144321/1650/790/10/
008970/20121029/144343/1650/2900/10/
008970/20121029/144403/1645/510/10/
008970/20121029/144407/1650/580/20/
008970/20121029/144419/1650/1530/20/
008970/20121029/144440/1650/4100/10/
008970/20121029/144506/1650/430/10/
008970/20121029/144506/1650/500/10/
008970/20121029/144525/1650/2010/10/
008970/20121029/144602/1650/590/10/
008970/20121029/144608/1650/2500/10/
008970/20121029/144622/1655/3310/20/
008970/20121029/144642/1655/420/20/
008970/20121029/144657/1650/3620/10/
008970/20121029/144716/1655/530/20/
008970/20121029/144721/1650/3720/10/
008970/20121029/144728/1645/1000/10/
008970/20121029/144728/1650/300/20/
008970/20121029/144752/1645/220/10/
008970/20121029/144811/1650/200/20/
008970/20121029/144815/1650/500/20/
008970/20121029/144819/1645/1200/10/
008970/20121029/144819/1650/500/20/
008970/20121029/144839/1650/170/20/
008970/20121029/144839/1650/340/20/
008970/20121029/144900/1650/1000/20/
008970/20121029/144935/1650/2030/20/
008970/20121029/144936/1645/350/10/
008970/20121029/144949/1650/1010/20/
008970/20121029/150001/1640/66340/20/
