008970/20121127/90000/1680/6100/10/
008970/20121127/90002/1680/1160/10/
008970/20121127/90040/1675/5010/10/
008970/20121127/90045/1680/1000/10/
008970/20121127/90101/1680/200/20/
008970/20121127/90250/1680/910/10/
008970/20121127/90250/1675/2090/10/
008970/20121127/90307/1675/2650/10/
008970/20121127/90308/1675/490/10/
008970/20121127/90320/1670/1500/10/
008970/20121127/90334/1670/210/10/
008970/20121127/90348/1670/990/10/
008970/20121127/90402/1670/120/10/
008970/20121127/90428/1675/180/10/
008970/20121127/90522/1680/200/20/
008970/20121127/90634/1680/860/10/
008970/20121127/90705/1680/140/10/
008970/20121127/90705/1675/210/10/
008970/20121127/90715/1680/4290/20/
008970/20121127/90715/1685/580/20/
008970/20121127/90847/1680/1000/10/
008970/20121127/90941/1685/550/20/
008970/20121127/91012/1685/900/20/
008970/20121127/91013/1680/700/10/
008970/20121127/91036/1680/1500/10/
008970/20121127/91124/1680/500/10/
008970/20121127/91130/1680/100/10/
008970/20121127/91139/1680/1000/10/
008970/20121127/91142/1680/90/10/
008970/20121127/91209/1680/2000/20/
008970/20121127/91212/1680/150/20/
008970/20121127/91305/1675/400/10/
008970/20121127/91306/1675/1000/10/
008970/20121127/91329/1675/100/10/
008970/20121127/91338/1680/300/20/
008970/20121127/91431/1680/1070/20/
008970/20121127/91457/1680/2950/20/
008970/20121127/91526/1680/700/10/
008970/20121127/91552/1685/200/20/
008970/20121127/91600/1680/100/10/
008970/20121127/91609/1680/600/10/
008970/20121127/91611/1680/700/10/
008970/20121127/91618/1680/190/20/
008970/20121127/91623/1680/100/10/
008970/20121127/91802/1680/250/10/
008970/20121127/91836/1680/1460/10/
008970/20121127/91836/1675/540/10/
008970/20121127/91926/1675/1280/10/
008970/20121127/91948/1675/500/10/
008970/20121127/92038/1675/300/10/
008970/20121127/92100/1675/2500/10/
008970/20121127/92151/1675/500/10/
008970/20121127/92356/1675/1630/10/
008970/20121127/92356/1670/4950/10/
008970/20121127/92356/1665/5320/10/
008970/20121127/92356/1660/3110/10/
008970/20121127/92412/1660/2970/10/
008970/20121127/92450/1665/3000/10/
008970/20121127/92649/1670/2010/20/
008970/20121127/92733/1675/220/20/
008970/20121127/92946/1680/5020/20/
008970/20121127/93007/1675/100/10/
008970/20121127/93025/1680/200/20/
008970/20121127/93027/1680/600/10/
008970/20121127/93027/1675/400/10/
008970/20121127/93259/1675/1000/10/
008970/20121127/93400/1675/270/10/
008970/20121127/93418/1675/2000/10/
008970/20121127/93426/1675/3790/10/
008970/20121127/93426/1670/1210/10/
008970/20121127/93442/1670/3000/10/
008970/20121127/93502/1670/5000/10/
008970/20121127/93715/1670/1010/10/
008970/20121127/93742/1670/520/10/
008970/20121127/93822/1670/800/10/
008970/20121127/93832/1670/570/10/
008970/20121127/93945/1670/2000/10/
008970/20121127/94003/1670/5000/10/
008970/20121127/94008/1670/5000/10/
008970/20121127/94031/1670/1200/10/
008970/20121127/94037/1670/1190/10/
008970/20121127/94049/1670/810/20/
008970/20121127/94138/1670/1000/10/
008970/20121127/94247/1675/800/20/
008970/20121127/94307/1670/4650/10/
008970/20121127/94426/1665/1500/10/
008970/20121127/94448/1670/100/20/
008970/20121127/94451/1670/100/20/
008970/20121127/94501/1665/350/10/
008970/20121127/94514/1670/100/20/
008970/20121127/94553/1670/210/10/
008970/20121127/94758/1670/1210/10/
008970/20121127/94811/1675/1210/20/
008970/20121127/94813/1670/500/10/
008970/20121127/94916/1675/100/20/
008970/20121127/95013/1675/2810/20/
008970/20121127/95140/1670/3000/10/
008970/20121127/95150/1670/110/10/
008970/20121127/95244/1670/540/10/
008970/20121127/95301/1670/1260/10/
008970/20121127/95428/1670/1540/10/
008970/20121127/95531/1670/2250/10/
008970/20121127/95600/1670/2500/10/
008970/20121127/95807/1670/10010/10/
008970/20121127/95850/1670/100/10/
008970/20121127/95911/1670/200/10/
008970/20121127/95954/1670/5000/10/
008970/20121127/95958/1670/7960/10/
008970/20121127/100010/1670/540/20/
008970/20121127/100047/1670/100/10/
008970/20121127/100047/1665/9970/10/
008970/20121127/100127/1665/500/10/
008970/20121127/100141/1665/11860/10/
008970/20121127/100154/1665/220/20/
008970/20121127/100211/1660/8350/10/
008970/20121127/100320/1665/820/10/
008970/20121127/100341/1665/2280/20/
008970/20121127/100438/1665/2000/20/
008970/20121127/100502/1665/1050/10/
008970/20121127/100643/1665/2950/20/
008970/20121127/100958/1665/1000/10/
008970/20121127/101050/1665/4450/10/
008970/20121127/101103/1670/800/20/
008970/20121127/101117/1670/3940/20/
008970/20121127/101337/1675/520/20/
008970/20121127/101422/1675/1000/20/
008970/20121127/101427/1675/200/20/
008970/20121127/101444/1675/160/20/
008970/20121127/101446/1675/120/20/
008970/20121127/101448/1675/130/20/
008970/20121127/101449/1675/110/20/
008970/20121127/101449/1675/110/20/
008970/20121127/101451/1675/140/20/
008970/20121127/101452/1675/120/20/
008970/20121127/101456/1675/170/20/
008970/20121127/101457/1675/520/20/
008970/20121127/101458/1675/120/20/
008970/20121127/101500/1675/150/20/
008970/20121127/101502/1675/2390/20/
008970/20121127/101507/1675/90/20/
008970/20121127/101606/1675/6860/10/
008970/20121127/101727/1675/3260/20/
008970/20121127/101754/1680/90/20/
008970/20121127/101759/1680/90/20/
008970/20121127/101805/1680/90/20/
008970/20121127/101812/1680/90/20/
008970/20121127/101818/1680/90/20/
008970/20121127/101820/1680/1320/20/
008970/20121127/101822/1680/3020/20/
008970/20121127/101824/1680/6920/20/
008970/20121127/101946/1680/910/10/
008970/20121127/101950/1680/5530/20/
008970/20121127/101953/1680/1620/20/
008970/20121127/102021/1680/100/20/
008970/20121127/102033/1680/90/20/
008970/20121127/102038/1680/90/20/
008970/20121127/102043/1680/90/20/
008970/20121127/102046/1680/150/20/
008970/20121127/102051/1680/90/20/
008970/20121127/102055/1680/90/20/
008970/20121127/102056/1680/110/20/
008970/20121127/102058/1680/1030/20/
008970/20121127/102101/1680/110/20/
008970/20121127/102108/1680/100/10/
008970/20121127/102144/1685/100/20/
008970/20121127/102204/1680/2010/10/
008970/20121127/102313/1680/500/20/
008970/20121127/102547/1675/2360/10/
008970/20121127/102613/1675/2520/10/
008970/20121127/103308/1675/100/10/
008970/20121127/103320/1675/1000/10/
008970/20121127/103434/1675/2000/10/
008970/20121127/103523/1675/1380/10/
008970/20121127/103532/1675/1960/10/
008970/20121127/103705/1675/190/20/
008970/20121127/103828/1675/900/20/
008970/20121127/103837/1675/300/20/
008970/20121127/104020/1675/2010/20/
008970/20121127/104219/1675/850/20/
008970/20121127/104328/1670/1560/10/
008970/20121127/105149/1675/200/20/
008970/20121127/105302/1675/200/20/
008970/20121127/105349/1670/660/10/
008970/20121127/105546/1670/700/10/
008970/20121127/105728/1670/11030/10/
008970/20121127/105809/1675/100/20/
008970/20121127/105912/1670/5850/10/
008970/20121127/110005/1670/6970/10/
008970/20121127/110013/1675/1000/20/
008970/20121127/110154/1670/90/10/
008970/20121127/110238/1670/5000/10/
008970/20121127/110309/1670/500/10/
008970/20121127/110328/1670/300/10/
008970/20121127/110442/1670/120/10/
008970/20121127/110451/1670/3440/10/
008970/20121127/110508/1670/300/20/
008970/20121127/110605/1670/320/20/
008970/20121127/110624/1670/990/20/
008970/20121127/110746/1670/540/20/
008970/20121127/111116/1670/1210/10/
008970/20121127/111334/1670/4390/10/
008970/20121127/111334/1665/7310/10/
008970/20121127/111729/1670/110/20/
008970/20121127/111902/1670/310/20/
008970/20121127/111928/1670/500/20/
008970/20121127/111958/1670/100/20/
008970/20121127/112054/1670/490/20/
008970/20121127/112111/1670/3550/20/
008970/20121127/112248/1670/2000/10/
008970/20121127/112317/1670/200/10/
008970/20121127/112549/1670/2390/10/
008970/20121127/112631/1670/200/10/
008970/20121127/112821/1670/2000/10/
008970/20121127/112906/1670/1000/10/
008970/20121127/113002/1675/8350/20/
008970/20121127/113009/1675/3990/10/
008970/20121127/113009/1670/1010/10/
008970/20121127/113104/1670/100/10/
008970/20121127/113229/1670/550/10/
008970/20121127/113325/1670/350/10/
008970/20121127/113915/1680/90/20/
008970/20121127/113948/1680/2010/20/
008970/20121127/114029/1675/120/10/
008970/20121127/114036/1680/290/20/
008970/20121127/114107/1675/1020/10/
008970/20121127/114222/1675/320/10/
008970/20121127/114256/1675/420/10/
008970/20121127/114331/1675/530/10/
008970/20121127/114624/1675/4540/10/
008970/20121127/114636/1675/200/10/
008970/20121127/114722/1675/430/10/
008970/20121127/114819/1675/1630/20/
008970/20121127/115151/1675/1020/10/
008970/20121127/115338/1675/1010/10/
008970/20121127/115339/1675/1000/10/
008970/20121127/115405/1680/200/20/
008970/20121127/115425/1675/1000/10/
008970/20121127/115442/1675/200/10/
008970/20121127/115454/1675/200/10/
008970/20121127/115726/1675/2010/10/
008970/20121127/115800/1675/3690/10/
008970/20121127/120030/1675/300/10/
008970/20121127/120242/1675/970/10/
008970/20121127/120458/1675/800/10/
008970/20121127/120507/1675/5000/10/
008970/20121127/120657/1680/180/20/
008970/20121127/120743/1680/20000/20/
008970/20121127/120746/1675/1000/10/
008970/20121127/120748/1680/5000/20/
008970/20121127/120800/1680/100/20/
008970/20121127/120803/1680/500/20/
008970/20121127/120805/1680/690/20/
008970/20121127/120817/1680/5000/20/
008970/20121127/120824/1680/500/20/
008970/20121127/120825/1680/200/20/
008970/20121127/120828/1680/190/20/
008970/20121127/120847/1680/110/10/
008970/20121127/120919/1685/1010/20/
008970/20121127/121001/1685/3380/20/
008970/20121127/121009/1685/1000/20/
008970/20121127/121013/1685/100/20/
008970/20121127/121014/1685/180/20/
008970/20121127/121021/1685/820/10/
008970/20121127/121122/1680/500/10/
008970/20121127/121138/1680/600/10/
008970/20121127/121201/1680/100/10/
008970/20121127/121210/1680/100/10/
008970/20121127/121223/1680/100/10/
008970/20121127/121242/1680/100/10/
008970/20121127/121243/1680/1000/10/
008970/20121127/121252/1680/100/10/
008970/20121127/121710/1685/2010/20/
008970/20121127/121720/1685/200/20/
008970/20121127/121827/1685/2070/20/
008970/20121127/121830/1685/100/20/
008970/20121127/122203/1685/5000/20/
008970/20121127/122233/1685/110/20/
008970/20121127/122239/1685/1000/20/
008970/20121127/122246/1685/100/20/
008970/20121127/122246/1685/110/20/
008970/20121127/122303/1685/110/20/
008970/20121127/122327/1680/1700/10/
008970/20121127/122428/1680/1300/10/
008970/20121127/122546/1685/330/20/
008970/20121127/122546/1690/1410/20/
008970/20121127/122600/1690/220/20/
008970/20121127/122710/1690/810/20/
008970/20121127/123141/1685/320/10/
008970/20121127/123152/1685/4230/10/
008970/20121127/123237/1680/2300/10/
008970/20121127/123901/1685/510/20/
008970/20121127/124333/1680/100/10/
008970/20121127/124417/1680/990/10/
008970/20121127/124459/1680/3010/10/
008970/20121127/124508/1680/1390/10/
008970/20121127/124545/1675/100/10/
008970/20121127/124553/1675/100/10/
008970/20121127/124607/1675/100/10/
008970/20121127/124621/1675/110/10/
008970/20121127/124643/1675/100/10/
008970/20121127/124656/1675/100/10/
008970/20121127/124713/1675/110/10/
008970/20121127/124721/1675/1200/10/
008970/20121127/124902/1680/110/20/
008970/20121127/125026/1675/700/10/
008970/20121127/125236/1675/10000/10/
008970/20121127/125243/1675/1080/10/
008970/20121127/125252/1670/21560/10/
008970/20121127/125346/1675/110/20/
008970/20121127/130035/1675/210/10/
008970/20121127/130206/1675/530/10/
008970/20121127/130255/1675/400/10/
008970/20121127/130419/1675/500/10/
008970/20121127/130607/1675/1010/10/
008970/20121127/130708/1675/310/10/
008970/20121127/130731/1675/300/20/
008970/20121127/130917/1675/130/20/
008970/20121127/130944/1670/200/10/
008970/20121127/131052/1670/6000/10/
008970/20121127/131107/1675/400/20/
008970/20121127/131349/1675/1000/10/
008970/20121127/131419/1675/120/10/
008970/20121127/131447/1670/480/10/
008970/20121127/131552/1670/800/10/
008970/20121127/131653/1670/2000/10/
008970/20121127/131900/1680/120/20/
008970/20121127/131954/1670/760/10/
008970/20121127/132010/1675/2000/10/
008970/20121127/132106/1675/810/10/
008970/20121127/132212/1675/540/10/
008970/20121127/132255/1675/1480/10/
008970/20121127/132334/1675/190/10/
008970/20121127/132442/1670/290/10/
008970/20121127/132530/1675/830/20/
008970/20121127/132550/1675/170/10/
008970/20121127/132603/1670/1830/10/
008970/20121127/132652/1675/100/10/
008970/20121127/132805/1670/280/10/
008970/20121127/132809/1675/250/20/
008970/20121127/132843/1675/250/10/
008970/20121127/133018/1670/2600/10/
008970/20121127/133020/1675/5550/20/
008970/20121127/133217/1670/1000/10/
008970/20121127/133437/1675/300/20/
008970/20121127/133532/1675/700/10/
008970/20121127/133644/1675/510/20/
008970/20121127/133647/1675/2000/20/
008970/20121127/133653/1675/330/20/
008970/20121127/133748/1680/100/20/
008970/20121127/133835/1675/160/10/
008970/20121127/134025/1675/110/10/
008970/20121127/134704/1670/220/10/
008970/20121127/134850/1670/470/10/
008970/20121127/135221/1680/1400/20/
008970/20121127/135741/1670/2160/10/
008970/20121127/135814/1670/800/10/
008970/20121127/135819/1675/260/20/
008970/20121127/135827/1675/240/10/
008970/20121127/135841/1670/280/10/
008970/20121127/140048/1670/300/10/
008970/20121127/140144/1670/1000/10/
008970/20121127/140405/1670/4010/10/
008970/20121127/140717/1670/16790/10/
008970/20121127/140801/1670/2900/10/
008970/20121127/140908/1670/100/10/
008970/20121127/140926/1670/2040/10/
008970/20121127/140930/1670/1060/10/
008970/20121127/140935/1670/8030/10/
008970/20121127/141027/1670/100/20/
008970/20121127/141119/1670/450/20/
008970/20121127/141143/1665/200/10/
008970/20121127/141202/1665/300/10/
008970/20121127/141228/1665/160/10/
008970/20121127/141339/1670/1160/20/
008970/20121127/141351/1665/100/10/
008970/20121127/141416/1665/7900/10/
008970/20121127/141447/1665/160/10/
008970/20121127/141517/1670/90/20/
008970/20121127/141521/1665/690/10/
008970/20121127/141550/1665/130/10/
008970/20121127/141732/1670/190/20/
008970/20121127/141739/1665/500/10/
008970/20121127/141918/1670/280/20/
008970/20121127/142013/1670/2000/20/
008970/20121127/142017/1670/10000/20/
008970/20121127/142017/1670/690/20/
008970/20121127/142138/1670/130/20/
008970/20121127/142151/1670/180/20/
008970/20121127/142333/1675/560/20/
008970/20121127/142402/1675/440/10/
008970/20121127/142620/1675/220/20/
008970/20121127/142640/1675/230/20/
008970/20121127/142658/1675/290/20/
008970/20121127/142817/1675/610/20/
008970/20121127/142916/1675/100/20/
008970/20121127/142942/1675/100/20/
008970/20121127/143045/1670/480/10/
008970/20121127/143113/1670/820/10/
008970/20121127/143412/1675/5010/20/
008970/20121127/143453/1670/2090/10/
008970/20121127/143501/1670/300/10/
008970/20121127/143538/1670/1060/10/
008970/20121127/143619/1670/1000/10/
008970/20121127/143704/1675/700/20/
008970/20121127/143803/1675/4310/20/
008970/20121127/143803/1675/710/10/
008970/20121127/143819/1675/100/20/
008970/20121127/143828/1675/750/20/
008970/20121127/143854/1675/320/20/
008970/20121127/143913/1670/3200/10/
008970/20121127/144047/1670/500/10/
008970/20121127/144154/1670/1000/10/
008970/20121127/144526/1670/560/10/
008970/20121127/144557/1670/1000/10/
008970/20121127/144708/1670/1510/10/
008970/20121127/144752/1670/1980/10/
008970/20121127/144847/1670/2020/20/
008970/20121127/144855/1670/1000/10/
008970/20121127/144905/1670/4510/10/
008970/20121127/144916/1670/100/20/
008970/20121127/144920/1670/250/20/
008970/20121127/144936/1670/190/10/
008970/20121127/150000/1670/20940/10/
