008970/20130207/90000/1760/26070/10/
008970/20130207/90001/1760/10250/10/
008970/20130207/90007/1760/1000/10/
008970/20130207/90008/1765/570/20/
008970/20130207/90010/1765/1830/20/
008970/20130207/90010/1770/8210/20/
008970/20130207/90014/1770/240/10/
008970/20130207/90016/1770/1050/10/
008970/20130207/90024/1770/100/20/
008970/20130207/90032/1770/5000/20/
008970/20130207/90035/1770/300/20/
008970/20130207/90037/1770/1000/10/
008970/20130207/90039/1770/500/10/
008970/20130207/90043/1770/800/10/
008970/20130207/90046/1770/620/10/
008970/20130207/90049/1770/100/20/
008970/20130207/90111/1765/300/20/
008970/20130207/90120/1765/5040/20/
008970/20130207/90130/1765/500/10/
008970/20130207/90133/1765/5000/10/
008970/20130207/90135/1765/790/10/
008970/20130207/90148/1765/5000/20/
008970/20130207/90148/1765/800/20/
008970/20130207/90152/1765/100/10/
008970/20130207/90153/1765/300/10/
008970/20130207/90155/1765/490/10/
008970/20130207/90205/1765/560/20/
008970/20130207/90207/1765/300/10/
008970/20130207/90208/1770/2000/20/
008970/20130207/90208/1765/100/10/
008970/20130207/90212/1770/5000/20/
008970/20130207/90218/1770/1000/20/
008970/20130207/90219/1770/1000/20/
008970/20130207/90220/1770/850/20/
008970/20130207/90220/1775/5000/20/
008970/20130207/90221/1780/5000/20/
008970/20130207/90222/1780/10490/20/
008970/20130207/90223/1780/820/10/
008970/20130207/90224/1775/110/20/
008970/20130207/90226/1775/1250/20/
008970/20130207/90226/1785/750/20/
008970/20130207/90228/1785/13710/20/
008970/20130207/90228/1785/1290/10/
008970/20130207/90237/1780/100/20/
008970/20130207/90243/1775/100/20/
008970/20130207/90251/1780/3000/20/
008970/20130207/90251/1785/2000/20/
008970/20130207/90252/1780/100/20/
008970/20130207/90252/1785/2900/20/
008970/20130207/90255/1780/2000/10/
008970/20130207/90257/1785/1120/20/
008970/20130207/90259/1785/3410/20/
008970/20130207/90259/1785/100/20/
008970/20130207/90301/1785/1000/20/
008970/20130207/90301/1785/120/20/
008970/20130207/90307/1785/100/20/
008970/20130207/90309/1785/2620/20/
008970/20130207/90315/1785/1000/20/
008970/20130207/90317/1780/2000/10/
008970/20130207/90318/1785/560/20/
008970/20130207/90320/1785/1000/20/
008970/20130207/90322/1785/560/20/
008970/20130207/90326/1785/8000/20/
008970/20130207/90329/1780/2050/10/
008970/20130207/90329/1780/1700/10/
008970/20130207/90330/1780/1140/20/
008970/20130207/90336/1780/560/20/
008970/20130207/90336/1780/1600/20/
008970/20130207/90341/1780/400/10/
008970/20130207/90342/1780/800/10/
008970/20130207/90355/1775/5010/10/
008970/20130207/90358/1775/3190/10/
008970/20130207/90401/1775/1000/10/
008970/20130207/90401/1775/1180/10/
008970/20130207/90408/1770/300/10/
008970/20130207/90410/1770/10000/10/
008970/20130207/90412/1770/350/10/
008970/20130207/90420/1775/5590/20/
008970/20130207/90423/1775/200/10/
008970/20130207/90424/1775/1690/10/
008970/20130207/90426/1775/1000/10/
008970/20130207/90432/1780/320/20/
008970/20130207/90443/1780/1620/20/
008970/20130207/90444/1780/7670/20/
008970/20130207/90446/1780/2000/10/
008970/20130207/90448/1780/500/10/
008970/20130207/90448/1780/100/10/
008970/20130207/90448/1780/3210/10/
008970/20130207/90513/1780/520/20/
008970/20130207/90517/1775/2500/10/
008970/20130207/90518/1775/500/10/
008970/20130207/90529/1775/210/10/
008970/20130207/90531/1780/5000/20/
008970/20130207/90604/1780/1550/20/
008970/20130207/90617/1780/180/20/
008970/20130207/90622/1775/1130/10/
008970/20130207/90625/1770/4080/10/
008970/20130207/90628/1775/200/20/
008970/20130207/90637/1775/3130/20/
008970/20130207/90647/1775/400/20/
008970/20130207/90729/1775/260/20/
008970/20130207/90745/1775/550/20/
008970/20130207/90802/1775/790/20/
008970/20130207/90808/1770/4530/10/
008970/20130207/90810/1765/1500/10/
008970/20130207/90816/1765/1000/10/
008970/20130207/90817/1765/100/10/
008970/20130207/90819/1765/1140/10/
008970/20130207/90820/1765/150/10/
008970/20130207/90834/1765/320/10/
008970/20130207/90837/1765/470/10/
008970/20130207/90839/1770/200/20/
008970/20130207/90859/1765/1830/10/
008970/20130207/90913/1765/1780/20/
008970/20130207/90928/1765/5000/10/
008970/20130207/90929/1765/2400/10/
008970/20130207/91004/1760/1550/10/
008970/20130207/91023/1760/3000/10/
008970/20130207/91025/1760/5800/10/
008970/20130207/91025/1760/1300/10/
008970/20130207/91026/1760/180/10/
008970/20130207/91026/1760/610/10/
008970/20130207/91027/1760/2000/10/
008970/20130207/91027/1760/2000/10/
008970/20130207/91030/1760/180/10/
008970/20130207/91135/1760/5680/20/
008970/20130207/91137/1760/240/20/
008970/20130207/91144/1760/2600/10/
008970/20130207/91220/1760/300/20/
008970/20130207/91223/1760/200/20/
008970/20130207/91229/1760/1000/20/
008970/20130207/91229/1760/300/20/
008970/20130207/91232/1760/5000/20/
008970/20130207/91232/1760/1870/20/
008970/20130207/91320/1760/1550/10/
008970/20130207/91440/1760/490/10/
008970/20130207/91449/1765/3180/20/
008970/20130207/91457/1765/1680/10/
008970/20130207/91513/1765/500/20/
008970/20130207/91529/1765/6240/20/
008970/20130207/91529/1770/2160/20/
008970/20130207/91535/1765/160/10/
008970/20130207/91539/1770/5000/20/
008970/20130207/91539/1775/5120/20/
008970/20130207/91551/1770/200/20/
008970/20130207/91552/1770/2000/20/
008970/20130207/91554/1770/100/20/
008970/20130207/91555/1770/2000/20/
008970/20130207/91556/1770/2000/20/
008970/20130207/91557/1770/2980/20/
008970/20130207/91558/1775/1000/20/
008970/20130207/91602/1775/2540/20/
008970/20130207/91602/1775/17460/10/
008970/20130207/91611/1770/520/10/
008970/20130207/91613/1770/1690/20/
008970/20130207/91619/1770/2000/20/
008970/20130207/91628/1765/3960/10/
008970/20130207/91643/1765/560/10/
008970/20130207/91647/1765/5110/10/
008970/20130207/91657/1765/1000/20/
008970/20130207/91659/1765/900/20/
008970/20130207/91700/1765/720/10/
008970/20130207/91705/1765/300/20/
008970/20130207/91712/1765/2960/20/
008970/20130207/91802/1765/1990/10/
008970/20130207/91833/1765/140/20/
008970/20130207/91847/1760/1750/10/
008970/20130207/91900/1765/300/20/
008970/20130207/91908/1765/2780/20/
008970/20130207/91920/1765/1220/10/
008970/20130207/91924/1765/680/20/
008970/20130207/91926/1765/1100/20/
008970/20130207/91928/1765/800/10/
008970/20130207/91928/1765/200/20/
008970/20130207/92003/1770/2090/20/
008970/20130207/92003/1770/1420/10/
008970/20130207/92042/1775/440/20/
008970/20130207/92049/1775/1000/20/
008970/20130207/92050/1775/500/20/
008970/20130207/92059/1775/90/20/
008970/20130207/92100/1775/1000/20/
008970/20130207/92113/1775/1890/20/
008970/20130207/92114/1775/5000/20/
008970/20130207/92116/1775/3100/20/
008970/20130207/92116/1775/630/20/
008970/20130207/92117/1775/1220/10/
008970/20130207/92117/1775/100/20/
008970/20130207/92124/1775/1710/20/
008970/20130207/92126/1775/600/20/
008970/20130207/92127/1775/500/20/
008970/20130207/92128/1775/1100/20/
008970/20130207/92131/1775/500/20/
008970/20130207/92132/1775/3000/20/
008970/20130207/92135/1775/1080/20/
008970/20130207/92135/1775/1500/20/
008970/20130207/92136/1775/910/20/
008970/20130207/92136/1770/8650/20/
008970/20130207/92136/1775/1350/20/
008970/20130207/92137/1775/1000/20/
008970/20130207/92138/1775/13430/20/
008970/20130207/92138/1775/1240/10/
008970/20130207/92138/1775/1450/10/
008970/20130207/92138/1775/6420/10/
008970/20130207/92140/1775/200/20/
008970/20130207/92140/1775/4150/20/
008970/20130207/92141/1775/2270/10/
008970/20130207/92143/1775/1750/20/
008970/20130207/92143/1780/940/20/
008970/20130207/92146/1775/310/10/
008970/20130207/92148/1775/1230/20/
008970/20130207/92149/1775/940/20/
008970/20130207/92150/1775/450/10/
008970/20130207/92150/1775/7210/10/
008970/20130207/92154/1775/500/20/
008970/20130207/92156/1775/1010/20/
008970/20130207/92157/1775/100/20/
008970/20130207/92157/1775/1000/20/
008970/20130207/92158/1775/500/20/
008970/20130207/92158/1775/500/20/
008970/20130207/92158/1775/890/20/
008970/20130207/92200/1775/2110/10/
008970/20130207/92201/1775/110/20/
008970/20130207/92202/1775/100/20/
008970/20130207/92202/1775/830/20/
008970/20130207/92204/1775/1000/20/
008970/20130207/92205/1770/5000/10/
008970/20130207/92207/1775/100/20/
008970/20130207/92212/1775/4000/20/
008970/20130207/92218/1775/310/20/
008970/20130207/92218/1775/100/20/
008970/20130207/92219/1775/100/20/
008970/20130207/92219/1775/1800/20/
008970/20130207/92222/1775/100/20/
008970/20130207/92226/1775/3920/20/
008970/20130207/92228/1775/200/20/
008970/20130207/92229/1775/190/20/
008970/20130207/92231/1775/100/20/
008970/20130207/92236/1775/470/20/
008970/20130207/92236/1775/100/20/
008970/20130207/92236/1775/2000/20/
008970/20130207/92238/1775/500/20/
008970/20130207/92238/1775/1010/20/
008970/20130207/92239/1775/100/20/
008970/20130207/92239/1775/2660/20/
008970/20130207/92240/1775/100/20/
008970/20130207/92241/1775/100/20/
008970/20130207/92242/1775/1700/20/
008970/20130207/92244/1775/100/20/
008970/20130207/92244/1775/8190/20/
008970/20130207/92252/1775/680/10/
008970/20130207/92255/1775/4880/20/
008970/20130207/92300/1775/120/20/
008970/20130207/92312/1770/5730/10/
008970/20130207/92312/1775/900/20/
008970/20130207/92313/1770/3000/10/
008970/20130207/92313/1770/5000/10/
008970/20130207/92320/1775/18790/20/
008970/20130207/92325/1775/610/20/
008970/20130207/92326/1775/3230/20/
008970/20130207/92328/1775/4500/20/
008970/20130207/92328/1775/100/20/
008970/20130207/92333/1775/90/20/
008970/20130207/92336/1775/1590/20/
008970/20130207/92344/1775/210/10/
008970/20130207/92437/1775/4530/10/
008970/20130207/92438/1775/1750/10/
008970/20130207/92440/1775/610/20/
008970/20130207/92444/1775/300/20/
008970/20130207/92517/1775/1000/20/
008970/20130207/92529/1775/90/20/
008970/20130207/92529/1775/360/20/
008970/20130207/92534/1775/2030/20/
008970/20130207/92540/1775/2100/20/
008970/20130207/92544/1775/4380/20/
008970/20130207/92544/1775/100/20/
008970/20130207/92548/1775/330/20/
008970/20130207/92553/1775/530/20/
008970/20130207/92556/1770/13140/10/
008970/20130207/92559/1770/1000/10/
008970/20130207/92629/1770/870/10/
008970/20130207/92647/1775/500/20/
008970/20130207/92659/1770/1000/10/
008970/20130207/92710/1770/1030/10/
008970/20130207/92711/1770/100/10/
008970/20130207/92735/1770/910/10/
008970/20130207/92836/1770/2020/10/
008970/20130207/92836/1770/1010/10/
008970/20130207/92838/1770/3000/10/
008970/20130207/92841/1770/1690/10/
008970/20130207/92842/1770/6980/10/
008970/20130207/92843/1770/1500/10/
008970/20130207/92844/1765/6080/10/
008970/20130207/92848/1765/110/10/
008970/20130207/92859/1770/2040/10/
008970/20130207/92911/1770/200/10/
008970/20130207/92915/1770/270/10/
008970/20130207/92918/1770/2000/10/
008970/20130207/92921/1770/1000/10/
008970/20130207/92929/1770/1000/10/
008970/20130207/92931/1770/700/10/
008970/20130207/93014/1770/100/10/
008970/20130207/93110/1770/400/10/
008970/20130207/93114/1770/700/10/
008970/20130207/93128/1770/100/10/
008970/20130207/93153/1770/90/10/
008970/20130207/93305/1775/4000/20/
008970/20130207/93320/1775/1000/20/
008970/20130207/93329/1775/1000/20/
008970/20130207/93335/1775/3300/20/
008970/20130207/93430/1770/3900/10/
008970/20130207/93500/1770/1180/10/
008970/20130207/93500/1765/3760/10/
008970/20130207/93511/1765/3390/10/
008970/20130207/93531/1770/4510/20/
008970/20130207/93612/1770/310/20/
008970/20130207/93651/1770/1700/20/
008970/20130207/93810/1775/1140/20/
008970/20130207/93819/1770/3250/10/
008970/20130207/93829/1770/1000/10/
008970/20130207/93833/1775/850/20/
008970/20130207/93930/1770/700/10/
008970/20130207/94013/1770/5000/10/
008970/20130207/94034/1770/1010/10/
008970/20130207/94040/1770/1000/10/
008970/20130207/94053/1770/1980/10/
008970/20130207/94102/1770/2000/10/
008970/20130207/94102/1770/460/10/
008970/20130207/94246/1770/100/20/
008970/20130207/94328/1770/2000/20/
008970/20130207/94333/1770/500/20/
008970/20130207/94336/1770/350/20/
008970/20130207/94347/1770/180/10/
008970/20130207/94404/1770/510/20/
008970/20130207/94426/1770/2930/20/
008970/20130207/94454/1770/670/10/
008970/20130207/94502/1770/2860/10/
008970/20130207/94514/1770/2000/20/
008970/20130207/94548/1770/1610/20/
008970/20130207/94819/1765/320/10/
008970/20130207/94829/1765/100/10/
008970/20130207/94841/1765/1550/10/
008970/20130207/94854/1765/2280/10/
008970/20130207/94903/1765/910/10/
008970/20130207/94913/1765/850/10/
008970/20130207/95015/1765/420/10/
008970/20130207/95047/1765/2500/10/
008970/20130207/95049/1765/7370/10/
008970/20130207/95143/1760/150/10/
008970/20130207/95455/1765/170/20/
008970/20130207/95457/1765/100/20/
008970/20130207/95552/1765/1030/20/
008970/20130207/95613/1765/120/20/
008970/20130207/95638/1765/1000/20/
008970/20130207/95706/1760/210/10/
008970/20130207/95758/1765/3410/20/
008970/20130207/95805/1765/570/20/
008970/20130207/95806/1760/2650/10/
008970/20130207/95823/1765/1140/20/
008970/20130207/95828/1765/4000/20/
008970/20130207/95845/1765/2000/20/
008970/20130207/95846/1765/300/20/
008970/20130207/95853/1765/2050/20/
008970/20130207/95854/1765/1750/20/
008970/20130207/100109/1765/210/10/
008970/20130207/100113/1765/3130/10/
008970/20130207/100113/1760/5870/10/
008970/20130207/100120/1765/120/20/
008970/20130207/100136/1765/510/20/
008970/20130207/100152/1765/200/20/
008970/20130207/100153/1765/110/10/
008970/20130207/100330/1765/2280/10/
008970/20130207/100437/1765/250/10/
008970/20130207/100602/1765/3580/10/
008970/20130207/100616/1760/5000/10/
008970/20130207/100713/1760/5000/10/
008970/20130207/100759/1760/2000/10/
008970/20130207/100812/1760/2690/10/
008970/20130207/100822/1760/20000/10/
008970/20130207/100852/1760/2060/10/
008970/20130207/100856/1760/500/10/
008970/20130207/100909/1760/3000/10/
008970/20130207/100910/1760/110/10/
008970/20130207/100916/1760/3290/10/
008970/20130207/100921/1760/4880/10/
008970/20130207/100921/1760/5880/10/
008970/20130207/100930/1755/500/10/
008970/20130207/100931/1755/3230/10/
008970/20130207/100947/1755/1000/10/
008970/20130207/100947/1755/1420/10/
008970/20130207/100948/1755/990/10/
008970/20130207/100956/1755/2000/10/
008970/20130207/100958/1755/1470/10/
008970/20130207/100958/1755/2400/10/
008970/20130207/101015/1755/300/20/
008970/20130207/101015/1755/840/20/
008970/20130207/101016/1755/200/20/
008970/20130207/101031/1755/320/20/
008970/20130207/101031/1755/1000/20/
008970/20130207/101041/1755/1000/20/
008970/20130207/101042/1755/200/20/
008970/20130207/101057/1755/1000/20/
008970/20130207/101102/1755/300/20/
008970/20130207/101110/1755/100/20/
008970/20130207/101116/1755/740/20/
008970/20130207/101140/1755/260/10/
008970/20130207/101227/1755/620/10/
008970/20130207/101340/1750/2000/10/
008970/20130207/101405/1755/500/20/
008970/20130207/101423/1755/130/20/
008970/20130207/101434/1755/100/20/
008970/20130207/101436/1750/690/10/
008970/20130207/101442/1750/170/10/
008970/20130207/101452/1750/1500/10/
008970/20130207/101524/1750/3490/10/
008970/20130207/101546/1750/300/10/
008970/20130207/101708/1750/500/10/
008970/20130207/101730/1750/1810/10/
008970/20130207/101822/1750/110/10/
008970/20130207/101834/1750/500/10/
008970/20130207/101843/1750/1080/10/
008970/20130207/101844/1750/1500/10/
008970/20130207/101852/1750/8000/10/
008970/20130207/101853/1750/900/10/
008970/20130207/101859/1750/510/10/
008970/20130207/101912/1750/1790/10/
008970/20130207/101913/1750/2000/10/
008970/20130207/101913/1750/1710/10/
008970/20130207/101913/1750/100/20/
008970/20130207/101918/1750/750/10/
008970/20130207/102015/1745/1260/10/
008970/20130207/102135/1745/210/10/
008970/20130207/102141/1745/200/10/
008970/20130207/102202/1745/1000/10/
008970/20130207/102332/1750/1960/20/
008970/20130207/102402/1750/1000/20/
008970/20130207/102408/1750/1680/20/
008970/20130207/102412/1750/340/20/
008970/20130207/102627/1755/1020/20/
008970/20130207/102632/1755/850/20/
008970/20130207/102633/1755/500/20/
008970/20130207/102636/1755/280/20/
008970/20130207/102648/1755/1600/10/
008970/20130207/102703/1755/400/20/
008970/20130207/102718/1755/100/10/
008970/20130207/102823/1755/330/20/
008970/20130207/102833/1755/100/20/
008970/20130207/103054/1755/90/20/
008970/20130207/103413/1750/390/10/
008970/20130207/103453/1755/380/20/
008970/20130207/103537/1750/3000/10/
008970/20130207/103553/1750/560/10/
008970/20130207/103709/1750/1110/10/
008970/20130207/103729/1750/8000/10/
008970/20130207/103730/1755/1820/20/
008970/20130207/103859/1755/160/10/
008970/20130207/104222/1755/160/20/
008970/20130207/104259/1750/120/10/
008970/20130207/104358/1750/150/10/
008970/20130207/104416/1750/1000/10/
008970/20130207/104453/1750/350/10/
008970/20130207/104514/1745/150/10/
008970/20130207/104518/1745/5290/10/
008970/20130207/104523/1745/5000/10/
008970/20130207/104533/1745/250/10/
008970/20130207/104549/1745/3000/10/
008970/20130207/104623/1745/5000/10/
008970/20130207/104650/1745/920/10/
008970/20130207/104720/1750/690/20/
008970/20130207/104837/1745/130/10/
008970/20130207/104913/1750/510/20/
008970/20130207/104942/1750/1050/20/
008970/20130207/104954/1745/2000/10/
008970/20130207/105034/1750/120/20/
008970/20130207/105109/1750/1000/10/
008970/20130207/105152/1755/580/20/
008970/20130207/105252/1755/1430/20/
008970/20130207/105338/1755/100/20/
008970/20130207/105430/1755/560/20/
008970/20130207/105438/1750/280/10/
008970/20130207/105509/1755/3360/20/
008970/20130207/105509/1755/1640/10/
008970/20130207/105527/1755/1370/20/
008970/20130207/105527/1755/630/10/
008970/20130207/105953/1755/7150/20/
008970/20130207/105953/1755/880/10/
008970/20130207/110032/1750/10970/10/
008970/20130207/110054/1750/6480/10/
008970/20130207/110057/1755/1010/20/
008970/20130207/110058/1755/890/10/
008970/20130207/110153/1745/1560/10/
008970/20130207/110309/1745/250/10/
008970/20130207/110325/1745/3000/10/
008970/20130207/110417/1745/900/10/
008970/20130207/110428/1745/3990/10/
008970/20130207/110506/1745/2500/10/
008970/20130207/110508/1745/620/10/
008970/20130207/110616/1745/110/20/
008970/20130207/110636/1745/640/10/
008970/20130207/110807/1745/600/10/
008970/20130207/110922/1745/2000/20/
008970/20130207/110926/1745/3060/20/
008970/20130207/110936/1750/6990/20/
008970/20130207/110949/1750/800/10/
008970/20130207/110949/1755/2000/20/
008970/20130207/110956/1755/1520/20/
008970/20130207/111005/1760/18090/20/
008970/20130207/111005/1760/1910/10/
008970/20130207/111019/1765/10020/20/
008970/20130207/111050/1760/1030/10/
008970/20130207/111217/1755/2120/10/
008970/20130207/111231/1755/3000/10/
008970/20130207/111250/1755/600/10/
008970/20130207/111309/1755/210/20/
008970/20130207/111326/1755/500/20/
008970/20130207/111337/1755/710/20/
008970/20130207/111518/1755/3000/10/
008970/20130207/111524/1755/2450/10/
008970/20130207/111549/1755/900/10/
008970/20130207/111556/1760/120/20/
008970/20130207/111639/1755/450/20/
008970/20130207/111738/1760/2680/20/
008970/20130207/111834/1755/1000/10/
008970/20130207/112107/1760/380/20/
008970/20130207/112155/1760/10000/20/
008970/20130207/112158/1760/100/20/
008970/20130207/112226/1760/360/20/
008970/20130207/112230/1760/100/20/
008970/20130207/112232/1760/4340/20/
008970/20130207/112400/1765/510/20/
008970/20130207/112511/1765/130/20/
008970/20130207/112527/1765/1420/20/
008970/20130207/112540/1765/100/20/
008970/20130207/112742/1765/170/20/
008970/20130207/112855/1765/16440/20/
008970/20130207/112903/1770/110/20/
008970/20130207/112906/1770/200/20/
008970/20130207/112906/1770/20000/20/
008970/20130207/112909/1770/380/20/
008970/20130207/112917/1770/300/20/
008970/20130207/112918/1770/960/20/
008970/20130207/112923/1770/3030/20/
008970/20130207/112924/1770/1000/20/
008970/20130207/112926/1770/680/20/
008970/20130207/112927/1770/100/20/
008970/20130207/112928/1770/510/20/
008970/20130207/112930/1770/660/20/
008970/20130207/112940/1770/3790/20/
008970/20130207/112943/1775/110/20/
008970/20130207/112950/1770/100/10/
008970/20130207/112951/1775/110/20/
008970/20130207/112958/1775/2000/20/
008970/20130207/113005/1775/550/20/
008970/20130207/113010/1775/3000/20/
008970/20130207/113015/1775/2000/20/
008970/20130207/113030/1775/330/20/
008970/20130207/113038/1770/200/10/
008970/20130207/113044/1770/230/10/
008970/20130207/113051/1770/1020/10/
008970/20130207/113101/1770/230/10/
008970/20130207/113112/1770/1000/20/
008970/20130207/113117/1770/1700/20/
008970/20130207/113306/1770/2050/20/
008970/20130207/113333/1770/3000/20/
008970/20130207/113334/1770/420/20/
008970/20130207/113343/1770/350/10/
008970/20130207/113352/1770/4000/20/
008970/20130207/113400/1770/1000/20/
008970/20130207/113419/1770/810/20/
008970/20130207/113422/1770/100/10/
008970/20130207/113425/1770/570/20/
008970/20130207/113509/1770/100/20/
008970/20130207/113510/1770/3000/20/
008970/20130207/113522/1770/1000/20/
008970/20130207/113630/1770/9000/20/
008970/20130207/113635/1770/3000/20/
008970/20130207/113639/1770/100/20/
008970/20130207/113702/1770/100/20/
008970/20130207/113715/1770/1000/20/
008970/20130207/113719/1770/100/20/
008970/20130207/113732/1770/120/20/
008970/20130207/113742/1775/500/20/
008970/20130207/113750/1775/100/20/
008970/20130207/113816/1775/4440/20/
008970/20130207/113821/1775/2040/20/
008970/20130207/113843/1775/1000/20/
008970/20130207/113848/1775/340/20/
008970/20130207/113905/1775/10000/20/
008970/20130207/113909/1770/200/10/
008970/20130207/113909/1775/1000/20/
008970/20130207/113914/1775/500/20/
008970/20130207/113920/1775/300/20/
008970/20130207/113921/1775/1340/20/
008970/20130207/113923/1775/100/20/
008970/20130207/113927/1775/5900/20/
008970/20130207/113930/1775/1000/20/
008970/20130207/113931/1775/1000/20/
008970/20130207/113933/1775/1050/20/
008970/20130207/113937/1780/500/20/
008970/20130207/113944/1780/110/20/
008970/20130207/113955/1780/400/20/
008970/20130207/113956/1775/500/10/
008970/20130207/113957/1780/2500/20/
008970/20130207/114007/1780/220/20/
008970/20130207/114019/1775/1000/10/
008970/20130207/114020/1780/430/20/
008970/20130207/114025/1775/5000/10/
008970/20130207/114028/1775/3040/10/
008970/20130207/114038/1775/280/20/
008970/20130207/114042/1775/5030/20/
008970/20130207/114053/1775/1000/20/
008970/20130207/114053/1775/5000/20/
008970/20130207/114055/1775/4470/20/
008970/20130207/114058/1780/1000/20/
008970/20130207/114102/1775/6530/10/
008970/20130207/114108/1775/150/20/
008970/20130207/114122/1775/300/20/
008970/20130207/114136/1775/100/20/
008970/20130207/114154/1775/500/20/
008970/20130207/114231/1770/100/10/
008970/20130207/114242/1770/3510/10/
008970/20130207/114246/1770/1000/10/
008970/20130207/114326/1770/500/10/
008970/20130207/114334/1770/100/10/
008970/20130207/114338/1770/200/10/
008970/20130207/114345/1770/3000/10/
008970/20130207/114345/1770/840/10/
008970/20130207/114412/1765/1440/10/
008970/20130207/114455/1770/5000/20/
008970/20130207/114536/1765/430/10/
008970/20130207/114540/1765/1000/10/
008970/20130207/114546/1765/2000/10/
008970/20130207/114548/1770/4430/20/
008970/20130207/114548/1775/570/20/
008970/20130207/114931/1770/100/10/
008970/20130207/114947/1770/3000/10/
008970/20130207/115012/1770/3000/10/
008970/20130207/115021/1770/100/10/
008970/20130207/115033/1770/90/10/
008970/20130207/115036/1770/5000/10/
008970/20130207/115039/1770/500/10/
008970/20130207/115045/1770/330/10/
008970/20130207/115046/1770/180/20/
008970/20130207/115116/1770/200/20/
008970/20130207/115120/1770/2000/20/
008970/20130207/115238/1770/100/20/
008970/20130207/115249/1770/7720/20/
008970/20130207/115300/1770/5900/10/
008970/20130207/115319/1770/1000/10/
008970/20130207/115327/1770/5680/10/
008970/20130207/115337/1770/580/10/
008970/20130207/115345/1770/4000/10/
008970/20130207/115350/1770/100/10/
008970/20130207/115400/1770/150/10/
008970/20130207/115433/1770/150/10/
008970/20130207/115436/1770/100/10/
008970/20130207/115737/1770/160/10/
008970/20130207/115740/1775/27360/20/
008970/20130207/115823/1775/1140/10/
008970/20130207/115823/1775/1000/10/
008970/20130207/115833/1775/350/10/
008970/20130207/115834/1775/150/10/
008970/20130207/115837/1775/350/20/
008970/20130207/115919/1775/650/10/
008970/20130207/115919/1775/100/20/
008970/20130207/115929/1775/280/20/
008970/20130207/115941/1775/720/10/
008970/20130207/115957/1775/250/10/
008970/20130207/120019/1770/1010/10/
008970/20130207/120247/1775/250/20/
008970/20130207/120421/1770/1750/10/
008970/20130207/120436/1770/1130/10/
008970/20130207/120618/1770/3010/20/
008970/20130207/120738/1770/1240/20/
008970/20130207/120748/1770/760/10/
008970/20130207/120908/1770/580/20/
008970/20130207/120937/1770/160/20/
008970/20130207/120956/1770/100/20/
008970/20130207/121013/1770/100/20/
008970/20130207/121117/1770/120/10/
008970/20130207/121153/1770/1460/10/
008970/20130207/121208/1770/1000/10/
008970/20130207/121212/1770/5000/10/
008970/20130207/121229/1770/1500/10/
008970/20130207/121300/1770/90/10/
008970/20130207/121320/1770/550/10/
008970/20130207/121336/1770/200/10/
008970/20130207/121513/1770/140/10/
008970/20130207/121529/1770/520/10/
008970/20130207/121609/1770/1050/20/
008970/20130207/121615/1770/200/20/
008970/20130207/121652/1775/900/20/
008970/20130207/121824/1770/5000/10/
008970/20130207/121921/1770/5020/10/
008970/20130207/122001/1770/120/10/
008970/20130207/122019/1770/230/20/
008970/20130207/122054/1765/200/10/
008970/20130207/122355/1770/2610/20/
008970/20130207/122444/1770/230/20/
008970/20130207/122609/1770/110/10/
008970/20130207/122646/1770/3020/10/
008970/20130207/122646/1775/3000/20/
008970/20130207/122815/1775/1000/20/
008970/20130207/123005/1770/1380/10/
008970/20130207/123005/1765/120/10/
008970/20130207/123258/1765/2910/10/
008970/20130207/123346/1765/300/10/
008970/20130207/123633/1770/510/20/
008970/20130207/123645/1770/510/20/
008970/20130207/123738/1765/540/10/
008970/20130207/123749/1765/100/10/
008970/20130207/123849/1770/410/20/
008970/20130207/124039/1770/200/20/
008970/20130207/124048/1770/200/20/
008970/20130207/124051/1770/200/20/
008970/20130207/124139/1770/690/20/
008970/20130207/124147/1770/200/20/
008970/20130207/124152/1770/1500/20/
008970/20130207/124204/1770/2290/20/
008970/20130207/124222/1770/280/20/
008970/20130207/124326/1770/1010/20/
008970/20130207/124331/1770/300/20/
008970/20130207/124421/1770/280/10/
008970/20130207/124427/1770/190/20/
008970/20130207/124448/1770/150/10/
008970/20130207/124745/1770/150/10/
008970/20130207/124819/1775/300/20/
008970/20130207/124820/1770/400/10/
008970/20130207/125007/1770/2020/10/
008970/20130207/125047/1770/1020/10/
008970/20130207/125120/1770/3660/10/
008970/20130207/125130/1770/15000/20/
008970/20130207/125155/1770/170/20/
008970/20130207/125208/1770/100/20/
008970/20130207/125221/1770/670/20/
008970/20130207/125226/1770/170/20/
008970/20130207/125431/1770/100/20/
008970/20130207/125432/1770/7570/20/
008970/20130207/125438/1770/160/10/
008970/20130207/125502/1770/100/10/
008970/20130207/125534/1775/300/20/
008970/20130207/125558/1770/700/10/
008970/20130207/125705/1775/1000/20/
008970/20130207/125744/1775/90/20/
008970/20130207/125804/1775/650/20/
008970/20130207/130109/1775/1020/20/
008970/20130207/130144/1770/330/10/
008970/20130207/130235/1770/820/10/
008970/20130207/130239/1770/200/10/
008970/20130207/130247/1770/10000/10/
008970/20130207/130247/1770/200/10/
008970/20130207/130255/1770/220/10/
008970/20130207/130342/1770/3000/10/
008970/20130207/130345/1770/1000/10/
008970/20130207/130349/1770/1130/10/
008970/20130207/130352/1770/670/10/
008970/20130207/130434/1770/500/10/
008970/20130207/130452/1770/220/10/
008970/20130207/130550/1770/500/10/
008970/20130207/130814/1770/310/10/
008970/20130207/130828/1775/300/20/
008970/20130207/131305/1770/2320/10/
008970/20130207/131321/1770/500/10/
008970/20130207/131327/1770/2000/10/
008970/20130207/131330/1770/300/10/
008970/20130207/131555/1775/1200/20/
008970/20130207/131628/1775/8850/20/
008970/20130207/131635/1770/1400/10/
008970/20130207/131751/1770/2180/10/
008970/20130207/132208/1770/340/10/
008970/20130207/132222/1770/300/10/
008970/20130207/132534/1775/200/20/
008970/20130207/132620/1775/2000/20/
008970/20130207/132641/1775/5010/20/
008970/20130207/132649/1770/100/10/
008970/20130207/132732/1775/10000/20/
008970/20130207/132736/1775/100/20/
008970/20130207/132738/1775/1000/20/
008970/20130207/132742/1775/100/20/
008970/20130207/132757/1775/100/20/
008970/20130207/132819/1775/1120/20/
008970/20130207/132828/1775/500/10/
008970/20130207/132833/1780/5010/20/
008970/20130207/132854/1780/200/20/
008970/20130207/132919/1780/1000/20/
008970/20130207/133135/1775/460/10/
008970/20130207/133206/1775/100/10/
008970/20130207/133249/1775/400/10/
008970/20130207/133330/1775/1010/10/
008970/20130207/133350/1775/3200/10/
008970/20130207/133350/1775/1530/10/
008970/20130207/133553/1775/900/20/
008970/20130207/133801/1775/120/20/
008970/20130207/133901/1775/120/20/
008970/20130207/134349/1770/510/10/
008970/20130207/134407/1770/200/10/
008970/20130207/134450/1770/2210/10/
008970/20130207/134611/1770/300/10/
008970/20130207/134621/1770/200/10/
008970/20130207/134740/1775/1060/20/
008970/20130207/134820/1770/100/10/
008970/20130207/134935/1770/310/10/
008970/20130207/135121/1770/1430/10/
008970/20130207/135137/1775/1000/20/
008970/20130207/135403/1770/730/10/
008970/20130207/135417/1770/2380/10/
008970/20130207/135507/1770/2680/10/
008970/20130207/135609/1770/1020/10/
008970/20130207/135611/1770/210/10/
008970/20130207/135640/1770/1250/10/
008970/20130207/135708/1770/2700/10/
008970/20130207/135934/1770/2470/10/
008970/20130207/140111/1770/420/10/
008970/20130207/140241/1770/12720/10/
008970/20130207/140244/1770/6000/10/
008970/20130207/140309/1770/2020/10/
008970/20130207/140320/1770/2460/10/
008970/20130207/140320/1770/960/20/
008970/20130207/140321/1770/500/10/
008970/20130207/140333/1770/1000/10/
008970/20130207/140414/1770/670/10/
008970/20130207/140458/1770/500/10/
008970/20130207/140602/1770/1000/10/
008970/20130207/140823/1770/1030/10/
008970/20130207/140828/1770/730/10/
008970/20130207/140907/1775/2730/20/
008970/20130207/140958/1770/1500/10/
008970/20130207/141046/1770/5020/10/
008970/20130207/141055/1770/500/10/
008970/20130207/141124/1770/350/10/
008970/20130207/141124/1765/650/10/
008970/20130207/141153/1770/1110/20/
008970/20130207/141154/1765/1520/10/
008970/20130207/141255/1770/510/20/
008970/20130207/141431/1770/1710/20/
008970/20130207/141501/1770/270/20/
008970/20130207/141932/1770/1460/20/
008970/20130207/141938/1770/1000/20/
008970/20130207/142029/1765/100/10/
008970/20130207/142030/1770/200/20/
008970/20130207/142100/1765/1000/10/
008970/20130207/142208/1765/2080/10/
008970/20130207/142209/1765/11350/10/
008970/20130207/142350/1765/100/10/
008970/20130207/142420/1765/230/10/
008970/20130207/142434/1765/1000/10/
008970/20130207/142642/1770/3100/20/
008970/20130207/142730/1770/330/10/
008970/20130207/142751/1770/300/10/
008970/20130207/142844/1770/550/10/
008970/20130207/142847/1770/870/10/
008970/20130207/142857/1770/1000/10/
008970/20130207/142900/1770/1000/10/
008970/20130207/142911/1770/720/10/
008970/20130207/142921/1770/1000/10/
008970/20130207/142948/1770/750/10/
008970/20130207/143044/1770/5070/10/
008970/20130207/143106/1770/100/10/
008970/20130207/143125/1770/520/10/
008970/20130207/143131/1770/100/10/
008970/20130207/143142/1765/2200/10/
008970/20130207/143321/1765/3010/10/
008970/20130207/143535/1770/1900/20/
008970/20130207/143607/1770/2850/20/
008970/20130207/143617/1770/100/20/
008970/20130207/143633/1770/400/20/
008970/20130207/143647/1770/10000/20/
008970/20130207/143702/1770/820/20/
008970/20130207/143713/1770/800/10/
008970/20130207/143827/1770/100/10/
008970/20130207/144015/1765/220/10/
008970/20130207/144022/1765/10000/10/
008970/20130207/144029/1765/10000/10/
008970/20130207/144032/1765/520/10/
008970/20130207/144056/1765/200/10/
008970/20130207/144111/1765/220/10/
008970/20130207/144127/1765/1000/10/
008970/20130207/144146/1765/2560/10/
008970/20130207/144223/1765/3940/10/
008970/20130207/144227/1765/1060/20/
008970/20130207/144233/1765/1800/10/
008970/20130207/144245/1765/500/10/
008970/20130207/144255/1765/450/10/
008970/20130207/144258/1765/490/10/
008970/20130207/144317/1765/710/20/
008970/20130207/144458/1765/260/10/
008970/20130207/144520/1765/1000/10/
008970/20130207/144531/1765/9010/10/
008970/20130207/144553/1765/600/10/
008970/20130207/144608/1765/500/10/
008970/20130207/144610/1765/90/10/
008970/20130207/144621/1765/4000/10/
008970/20130207/144645/1765/140/20/
008970/20130207/144656/1765/800/20/
008970/20130207/144708/1760/1000/10/
008970/20130207/144718/1760/800/10/
008970/20130207/144718/1760/100/10/
008970/20130207/144720/1760/100/10/
008970/20130207/144724/1760/100/10/
008970/20130207/144737/1760/240/10/
008970/20130207/144738/1760/2820/10/
008970/20130207/144743/1760/2000/10/
008970/20130207/144746/1760/2090/10/
008970/20130207/144803/1760/13100/10/
008970/20130207/144803/1760/3400/20/
008970/20130207/144807/1760/300/20/
008970/20130207/144821/1760/200/20/
008970/20130207/144821/1755/2730/10/
008970/20130207/144919/1760/3240/20/
008970/20130207/144929/1760/3200/20/
008970/20130207/144931/1760/600/20/
008970/20130207/144952/1760/1000/20/
008970/20130207/144956/1760/400/20/
008970/20130207/150000/1760/18140/10/
