008970/20130222/90000/1875/11660/10/
008970/20130222/90003/1875/2600/10/
008970/20130222/90006/1875/2500/10/
008970/20130222/90006/1875/1000/10/
008970/20130222/90010/1875/4410/10/
008970/20130222/90010/1875/330/10/
008970/20130222/90011/1875/14830/10/
008970/20130222/90032/1870/510/10/
008970/20130222/90038/1870/200/10/
008970/20130222/90039/1870/1000/10/
008970/20130222/90054/1865/110/10/
008970/20130222/90101/1870/300/20/
008970/20130222/90110/1865/1240/10/
008970/20130222/90112/1865/100/20/
008970/20130222/90116/1865/940/20/
008970/20130222/90119/1870/1560/20/
008970/20130222/90145/1870/100/20/
008970/20130222/90246/1865/100/10/
008970/20130222/90255/1860/2000/10/
008970/20130222/90301/1860/100/10/
008970/20130222/90306/1860/100/10/
008970/20130222/90310/1860/410/10/
008970/20130222/90311/1860/1910/10/
008970/20130222/90311/1855/11510/10/
008970/20130222/90311/1855/1580/20/
008970/20130222/90330/1865/1000/20/
008970/20130222/90342/1865/1000/20/
008970/20130222/90413/1860/5000/10/
008970/20130222/90420/1865/200/20/
008970/20130222/90420/1860/630/10/
008970/20130222/90434/1860/190/10/
008970/20130222/90443/1860/1150/10/
008970/20130222/90522/1860/1010/10/
008970/20130222/90526/1860/400/10/
008970/20130222/90542/1855/200/10/
008970/20130222/90559/1860/1000/20/
008970/20130222/90559/1860/880/20/
008970/20130222/90601/1855/7170/10/
008970/20130222/90605/1855/1000/10/
008970/20130222/90606/1865/1000/20/
008970/20130222/90618/1860/3010/20/
008970/20130222/90618/1865/2020/20/
008970/20130222/90708/1855/510/10/
008970/20130222/90801/1855/4000/10/
008970/20130222/90801/1860/2000/20/
008970/20130222/90802/1860/200/20/
008970/20130222/90844/1860/1800/20/
008970/20130222/90852/1860/500/10/
008970/20130222/90938/1865/110/20/
008970/20130222/91042/1860/1100/10/
008970/20130222/91049/1865/1000/20/
008970/20130222/91112/1860/5730/10/
008970/20130222/91147/1865/150/20/
008970/20130222/91203/1860/900/10/
008970/20130222/91232/1860/630/10/
008970/20130222/91245/1860/8000/10/
008970/20130222/91259/1860/300/10/
008970/20130222/91329/1860/790/10/
008970/20130222/91333/1865/200/20/
008970/20130222/91341/1865/100/20/
008970/20130222/91348/1865/1000/20/
008970/20130222/91355/1865/150/20/
008970/20130222/91411/1865/1000/20/
008970/20130222/91437/1865/650/20/
008970/20130222/91441/1860/3000/10/
008970/20130222/91454/1860/310/10/
008970/20130222/91509/1860/1020/10/
008970/20130222/91526/1860/1000/10/
008970/20130222/91537/1860/500/10/
008970/20130222/91537/1860/100/10/
008970/20130222/91543/1860/200/10/
008970/20130222/91550/1860/2660/10/
008970/20130222/91552/1860/580/10/
008970/20130222/91554/1860/4140/10/
008970/20130222/91607/1860/240/20/
008970/20130222/91652/1855/1750/10/
008970/20130222/91654/1860/3060/20/
008970/20130222/91722/1860/180/20/
008970/20130222/91731/1855/860/10/
008970/20130222/91744/1860/1540/20/
008970/20130222/91755/1860/1000/20/
008970/20130222/91815/1860/8240/20/
008970/20130222/91821/1860/200/20/
008970/20130222/91822/1860/100/20/
008970/20130222/91846/1855/360/10/
008970/20130222/91904/1860/5000/20/
008970/20130222/91907/1860/2240/20/
008970/20130222/92026/1865/1010/20/
008970/20130222/92030/1865/250/20/
008970/20130222/92038/1865/1030/20/
008970/20130222/92040/1865/240/20/
008970/20130222/92055/1865/260/10/
008970/20130222/92103/1865/1370/10/
008970/20130222/92107/1865/130/20/
008970/20130222/92122/1870/2140/20/
008970/20130222/92127/1870/500/20/
008970/20130222/92129/1870/100/20/
008970/20130222/92130/1870/2130/20/
008970/20130222/92215/1870/250/20/
008970/20130222/92229/1870/2390/20/
008970/20130222/92233/1870/8690/20/
008970/20130222/92301/1870/1060/10/
008970/20130222/92332/1870/160/10/
008970/20130222/92404/1870/200/10/
008970/20130222/92408/1870/1500/10/
008970/20130222/92411/1870/500/10/
008970/20130222/92439/1870/4070/10/
008970/20130222/92458/1870/1900/20/
008970/20130222/92506/1870/1950/20/
008970/20130222/92523/1870/230/20/
008970/20130222/92547/1865/500/10/
008970/20130222/92724/1865/1550/10/
008970/20130222/92728/1865/310/10/
008970/20130222/92728/1865/1100/10/
008970/20130222/92733/1865/220/10/
008970/20130222/92739/1865/150/10/
008970/20130222/92811/1865/10000/10/
008970/20130222/92811/1865/2460/10/
008970/20130222/92817/1865/100/10/
008970/20130222/92818/1865/100/10/
008970/20130222/92818/1865/2390/10/
008970/20130222/92823/1865/1120/10/
008970/20130222/92839/1860/100/10/
008970/20130222/92900/1865/1950/20/
008970/20130222/92906/1865/100/20/
008970/20130222/92939/1860/300/10/
008970/20130222/93016/1860/100/10/
008970/20130222/93043/1860/1050/10/
008970/20130222/93104/1860/1000/10/
008970/20130222/93104/1860/1000/10/
008970/20130222/93113/1860/1500/10/
008970/20130222/93113/1860/310/10/
008970/20130222/93114/1860/730/10/
008970/20130222/93118/1860/7000/10/
008970/20130222/93120/1860/2000/10/
008970/20130222/93129/1860/100/10/
008970/20130222/93145/1860/120/10/
008970/20130222/93203/1860/150/10/
008970/20130222/93213/1860/3160/10/
008970/20130222/93244/1860/2000/20/
008970/20130222/93310/1860/170/20/
008970/20130222/93320/1860/300/10/
008970/20130222/93343/1860/2290/10/
008970/20130222/93348/1860/500/10/
008970/20130222/93424/1860/1500/10/
008970/20130222/93448/1860/2170/10/
008970/20130222/93510/1860/540/20/
008970/20130222/93529/1860/290/20/
008970/20130222/93544/1860/260/10/
008970/20130222/93554/1855/1310/10/
008970/20130222/93603/1860/1120/20/
008970/20130222/93608/1860/780/20/
008970/20130222/93645/1860/270/10/
008970/20130222/93658/1860/410/20/
008970/20130222/93707/1860/330/20/
008970/20130222/93714/1860/1360/10/
008970/20130222/93815/1860/2420/10/
008970/20130222/93815/1855/680/10/
008970/20130222/93849/1855/10160/10/
008970/20130222/93855/1860/310/20/
008970/20130222/93903/1860/100/20/
008970/20130222/93926/1860/100/20/
008970/20130222/93929/1860/190/20/
008970/20130222/93941/1860/500/20/
008970/20130222/93942/1860/170/20/
008970/20130222/93942/1860/150/20/
008970/20130222/93946/1860/1240/20/
008970/20130222/94009/1860/1870/10/
008970/20130222/94010/1860/150/10/
008970/20130222/94015/1860/430/20/
008970/20130222/94032/1860/300/10/
008970/20130222/94104/1860/250/10/
008970/20130222/94117/1860/1570/10/
008970/20130222/94141/1860/3550/20/
008970/20130222/94148/1860/500/10/
008970/20130222/94148/1860/950/10/
008970/20130222/94231/1855/2040/10/
008970/20130222/94238/1855/300/10/
008970/20130222/94314/1855/1000/10/
008970/20130222/94333/1855/700/10/
008970/20130222/94411/1860/600/20/
008970/20130222/94438/1855/500/10/
008970/20130222/94456/1855/540/10/
008970/20130222/94500/1855/7000/10/
008970/20130222/94500/1855/1200/10/
008970/20130222/94503/1855/2200/10/
008970/20130222/94504/1855/2000/10/
008970/20130222/94519/1855/6930/10/
008970/20130222/94524/1855/1000/20/
008970/20130222/94528/1855/4000/20/
008970/20130222/94537/1855/100/20/
008970/20130222/94544/1855/100/20/
008970/20130222/94546/1855/1050/20/
008970/20130222/94549/1855/100/20/
008970/20130222/94608/1855/200/20/
008970/20130222/94621/1855/1050/20/
008970/20130222/94627/1855/100/20/
008970/20130222/94627/1855/110/20/
008970/20130222/94627/1850/300/10/
008970/20130222/94627/1850/100/10/
008970/20130222/94627/1850/1000/10/
008970/20130222/94636/1850/2000/10/
008970/20130222/94701/1850/2000/10/
008970/20130222/94806/1855/320/20/
008970/20130222/94812/1850/1220/10/
008970/20130222/94814/1855/100/20/
008970/20130222/94821/1855/110/20/
008970/20130222/94823/1855/500/20/
008970/20130222/94833/1855/1030/20/
008970/20130222/94835/1855/860/20/
008970/20130222/94839/1855/3290/20/
008970/20130222/94928/1855/500/10/
008970/20130222/95051/1855/420/10/
008970/20130222/95434/1860/6470/20/
008970/20130222/95504/1860/6050/20/
008970/20130222/95516/1860/1080/20/
008970/20130222/95521/1860/150/20/
008970/20130222/95532/1860/1000/20/
008970/20130222/95717/1860/3550/20/
008970/20130222/95718/1860/1200/20/
008970/20130222/95727/1860/300/20/
008970/20130222/95854/1855/3060/10/
008970/20130222/95912/1860/170/20/
008970/20130222/95950/1860/2660/20/
008970/20130222/100047/1860/500/20/
008970/20130222/100223/1860/130/20/
008970/20130222/100241/1860/200/20/
008970/20130222/100244/1860/100/20/
008970/20130222/100311/1860/340/20/
008970/20130222/100313/1855/1000/10/
008970/20130222/100336/1855/1500/10/
008970/20130222/100600/1860/280/20/
008970/20130222/100744/1855/2000/10/
008970/20130222/100755/1855/110/10/
008970/20130222/100848/1855/3250/10/
008970/20130222/100859/1860/1000/20/
008970/20130222/100922/1855/10000/10/
008970/20130222/101129/1855/350/10/
008970/20130222/101130/1860/380/20/
008970/20130222/101149/1860/90/20/
008970/20130222/101212/1855/2440/10/
008970/20130222/101327/1855/4000/10/
008970/20130222/101401/1855/240/10/
008970/20130222/101413/1860/7220/20/
008970/20130222/101414/1860/120/10/
008970/20130222/101433/1860/2050/10/
008970/20130222/101549/1860/480/10/
008970/20130222/101628/1860/1030/20/
008970/20130222/101638/1860/1000/20/
008970/20130222/101642/1860/4690/20/
008970/20130222/102121/1860/1560/10/
008970/20130222/102247/1860/400/10/
008970/20130222/102519/1860/160/10/
008970/20130222/102626/1860/1000/10/
008970/20130222/102755/1865/9820/20/
008970/20130222/102819/1865/580/10/
008970/20130222/102851/1865/500/20/
008970/20130222/102858/1865/4570/20/
008970/20130222/102907/1865/1480/10/
008970/20130222/102933/1865/200/20/
008970/20130222/102938/1865/2270/20/
008970/20130222/102945/1865/2730/10/
008970/20130222/103004/1865/200/20/
008970/20130222/103014/1860/350/10/
008970/20130222/103039/1865/110/20/
008970/20130222/103101/1865/400/20/
008970/20130222/103119/1865/1000/20/
008970/20130222/103124/1865/580/20/
008970/20130222/103147/1865/9540/20/
008970/20130222/103150/1865/1920/20/
008970/20130222/103150/1870/380/20/
008970/20130222/103214/1865/550/10/
008970/20130222/103253/1865/720/10/
008970/20130222/103318/1865/160/20/
008970/20130222/103505/1865/500/20/
008970/20130222/103728/1865/2000/20/
008970/20130222/103916/1860/360/10/
008970/20130222/103942/1860/200/10/
008970/20130222/104012/1860/5020/10/
008970/20130222/104449/1860/1050/10/
008970/20130222/104503/1860/1000/10/
008970/20130222/104652/1865/500/20/
008970/20130222/104927/1865/390/20/
008970/20130222/104959/1865/2740/20/
008970/20130222/105321/1865/440/10/
008970/20130222/105326/1865/850/10/
008970/20130222/105528/1865/6700/10/
008970/20130222/105622/1865/130/10/
008970/20130222/105641/1865/230/10/
008970/20130222/105643/1865/1200/10/
008970/20130222/105709/1865/100/20/
008970/20130222/105711/1865/100/20/
008970/20130222/105735/1865/340/20/
008970/20130222/105753/1865/240/20/
008970/20130222/105954/1865/440/20/
008970/20130222/110016/1865/2820/20/
008970/20130222/110018/1865/590/20/
008970/20130222/110101/1865/300/10/
008970/20130222/110240/1865/110/10/
008970/20130222/110415/1865/120/10/
008970/20130222/110419/1865/3450/10/
008970/20130222/110434/1865/150/20/
008970/20130222/110525/1865/130/20/
008970/20130222/110538/1865/400/20/
008970/20130222/110557/1865/90/20/
008970/20130222/110607/1860/6000/10/
008970/20130222/110624/1860/5000/10/
008970/20130222/110624/1865/120/20/
008970/20130222/111000/1860/1000/10/
008970/20130222/111012/1865/1000/20/
008970/20130222/111052/1865/4850/20/
008970/20130222/111246/1870/510/20/
008970/20130222/111329/1865/5510/10/
008970/20130222/111354/1865/240/10/
008970/20130222/111436/1865/5000/10/
008970/20130222/111539/1865/1640/10/
008970/20130222/111643/1860/900/10/
008970/20130222/111727/1865/500/20/
008970/20130222/111749/1865/350/20/
008970/20130222/111801/1865/270/20/
008970/20130222/111822/1865/140/20/
008970/20130222/111909/1865/120/20/
008970/20130222/111945/1865/120/20/
008970/20130222/112000/1865/100/20/
008970/20130222/112024/1865/100/20/
008970/20130222/112055/1865/100/20/
008970/20130222/112117/1860/1500/10/
008970/20130222/112138/1865/3800/20/
008970/20130222/112218/1860/630/10/
008970/20130222/112358/1865/220/20/
008970/20130222/112408/1865/570/20/
008970/20130222/112504/1865/1010/10/
008970/20130222/112550/1865/120/10/
008970/20130222/112621/1865/300/20/
008970/20130222/112750/1865/340/20/
008970/20130222/112943/1860/200/10/
008970/20130222/113000/1865/270/20/
008970/20130222/113115/1865/3350/20/
008970/20130222/113142/1865/5310/20/
008970/20130222/113200/1865/14740/10/
008970/20130222/113453/1860/220/10/
008970/20130222/113610/1860/410/10/
008970/20130222/113719/1865/2000/20/
008970/20130222/113838/1865/1570/20/
008970/20130222/113944/1865/200/20/
008970/20130222/114101/1865/3060/20/
008970/20130222/114144/1865/2680/20/
008970/20130222/114221/1865/100/20/
008970/20130222/114344/1860/500/10/
008970/20130222/114609/1860/100/10/
008970/20130222/114622/1860/120/10/
008970/20130222/115018/1865/110/20/
008970/20130222/115135/1860/1000/10/
008970/20130222/115442/1860/410/10/
008970/20130222/115542/1860/500/10/
008970/20130222/115555/1860/200/10/
008970/20130222/115804/1860/1010/10/
008970/20130222/115807/1860/10000/10/
008970/20130222/115936/1860/1900/10/
008970/20130222/120006/1860/580/10/
008970/20130222/120022/1860/4380/10/
008970/20130222/120206/1860/2200/10/
008970/20130222/120223/1860/1700/10/
008970/20130222/120232/1860/580/10/
008970/20130222/120233/1860/190/10/
008970/20130222/120247/1860/5900/10/
008970/20130222/120250/1860/2720/10/
008970/20130222/120253/1860/310/10/
008970/20130222/120256/1860/4000/10/
008970/20130222/120305/1860/1500/10/
008970/20130222/120308/1860/980/10/
008970/20130222/120635/1860/100/10/
008970/20130222/120703/1860/1500/10/
008970/20130222/120921/1860/500/10/
008970/20130222/121039/1865/320/20/
008970/20130222/121217/1860/270/10/
008970/20130222/121235/1860/600/10/
008970/20130222/121434/1860/4270/10/
008970/20130222/121808/1860/1350/10/
008970/20130222/121855/1860/2210/10/
008970/20130222/121902/1860/2000/10/
008970/20130222/122042/1860/700/10/
008970/20130222/122321/1860/1000/10/
008970/20130222/122433/1860/7500/10/
008970/20130222/122436/1860/200/10/
008970/20130222/122653/1860/840/10/
008970/20130222/122736/1860/130/10/
008970/20130222/122754/1860/800/10/
008970/20130222/122819/1860/1000/10/
008970/20130222/122821/1860/1350/10/
008970/20130222/123437/1865/770/20/
008970/20130222/123609/1860/1000/10/
008970/20130222/123808/1860/430/10/
008970/20130222/123819/1860/4560/10/
008970/20130222/123920/1860/1080/10/
008970/20130222/123922/1860/12490/10/
008970/20130222/123949/1860/1060/10/
008970/20130222/124021/1860/500/10/
008970/20130222/124026/1860/3160/10/
008970/20130222/124049/1860/300/10/
008970/20130222/124112/1860/1000/10/
008970/20130222/124202/1860/2160/10/
008970/20130222/124203/1860/90/10/
008970/20130222/124213/1860/1860/10/
008970/20130222/124537/1855/3650/10/
008970/20130222/124634/1855/170/10/
008970/20130222/124945/1855/7010/10/
008970/20130222/125031/1855/910/10/
008970/20130222/125251/1855/9680/10/
008970/20130222/125308/1855/300/10/
008970/20130222/125353/1855/2310/10/
008970/20130222/125425/1855/4620/10/
008970/20130222/125425/1855/1600/20/
008970/20130222/125436/1855/500/20/
008970/20130222/125453/1855/480/20/
008970/20130222/125507/1855/1000/10/
008970/20130222/125536/1855/260/10/
008970/20130222/125538/1855/340/10/
008970/20130222/125538/1850/660/10/
008970/20130222/125652/1855/7220/10/
008970/20130222/125653/1855/1170/20/
008970/20130222/125705/1855/100/20/
008970/20130222/125717/1855/500/20/
008970/20130222/125726/1855/1000/20/
008970/20130222/125731/1855/380/20/
008970/20130222/125826/1855/1730/10/
008970/20130222/125845/1855/980/20/
008970/20130222/130140/1855/510/10/
008970/20130222/130144/1855/500/10/
008970/20130222/130149/1855/500/10/
008970/20130222/130155/1855/500/10/
008970/20130222/130551/1855/2020/10/
008970/20130222/130626/1860/1250/20/
008970/20130222/130649/1860/600/20/
008970/20130222/131011/1855/100/10/
008970/20130222/131333/1860/9970/20/
008970/20130222/131339/1860/3720/20/
008970/20130222/131603/1860/2560/10/
008970/20130222/131637/1865/18780/20/
008970/20130222/131659/1865/3850/20/
008970/20130222/131706/1865/2680/20/
008970/20130222/131943/1865/380/20/
008970/20130222/131946/1865/330/20/
008970/20130222/132012/1865/1220/20/
008970/20130222/132050/1865/1620/10/
008970/20130222/132206/1865/1030/10/
008970/20130222/132354/1865/4080/10/
008970/20130222/132545/1865/140/10/
008970/20130222/132652/1865/500/10/
008970/20130222/132717/1870/90/20/
008970/20130222/133040/1865/550/10/
008970/20130222/133105/1865/200/10/
008970/20130222/133106/1865/1910/10/
008970/20130222/133109/1865/800/20/
008970/20130222/133203/1865/300/20/
008970/20130222/133222/1860/2000/10/
008970/20130222/133246/1865/2380/20/
008970/20130222/133256/1865/120/20/
008970/20130222/133336/1860/1000/10/
008970/20130222/133340/1860/500/10/
008970/20130222/133621/1860/4190/10/
008970/20130222/133701/1860/4010/20/
008970/20130222/133933/1860/1060/10/
008970/20130222/133957/1860/100/20/
008970/20130222/134026/1860/3200/20/
008970/20130222/134112/1860/3230/10/
008970/20130222/134122/1860/500/20/
008970/20130222/134125/1860/1300/20/
008970/20130222/134153/1860/310/10/
008970/20130222/134231/1860/310/10/
008970/20130222/134241/1860/1500/10/
008970/20130222/134243/1860/110/10/
008970/20130222/134303/1855/500/10/
008970/20130222/134341/1860/190/20/
008970/20130222/134349/1860/170/10/
008970/20130222/134400/1860/1000/20/
008970/20130222/134511/1855/5250/10/
008970/20130222/134531/1855/190/10/
008970/20130222/134548/1855/2940/10/
008970/20130222/134854/1855/140/10/
008970/20130222/134910/1855/2660/10/
008970/20130222/135011/1855/220/10/
008970/20130222/135056/1855/1860/10/
008970/20130222/135126/1855/1200/10/
008970/20130222/135147/1855/1000/10/
008970/20130222/135243/1855/140/10/
008970/20130222/135322/1855/500/10/
008970/20130222/135436/1860/210/20/
008970/20130222/135738/1855/5000/10/
008970/20130222/140006/1860/120/20/
008970/20130222/140039/1860/9750/20/
008970/20130222/140114/1865/360/20/
008970/20130222/140132/1865/100/20/
008970/20130222/140136/1860/500/10/
008970/20130222/140254/1860/1350/10/
008970/20130222/140301/1860/250/10/
008970/20130222/140334/1860/1450/10/
008970/20130222/140351/1860/150/10/
008970/20130222/140408/1860/160/10/
008970/20130222/140446/1860/1000/10/
008970/20130222/140610/1865/280/20/
008970/20130222/140654/1865/14000/20/
008970/20130222/140704/1865/1000/20/
008970/20130222/140722/1865/3020/20/
008970/20130222/140726/1865/3050/20/
008970/20130222/140729/1865/3000/20/
008970/20130222/140731/1865/500/20/
008970/20130222/140802/1865/1570/20/
008970/20130222/140807/1865/2680/20/
008970/20130222/140834/1865/280/20/
008970/20130222/140835/1865/1010/10/
008970/20130222/140857/1865/450/10/
008970/20130222/140919/1865/910/10/
008970/20130222/140931/1860/2000/10/
008970/20130222/140952/1865/100/20/
008970/20130222/141347/1870/4060/20/
008970/20130222/141420/1860/2010/10/
008970/20130222/141429/1870/2360/20/
008970/20130222/141505/1870/1010/20/
008970/20130222/141516/1865/1640/10/
008970/20130222/141517/1865/620/20/
008970/20130222/141523/1865/1000/20/
008970/20130222/141524/1865/750/20/
008970/20130222/141538/1870/5350/20/
008970/20130222/141540/1870/15960/20/
008970/20130222/141542/1870/18000/20/
008970/20130222/141543/1870/1000/20/
008970/20130222/141543/1870/1000/20/
008970/20130222/141544/1870/1000/20/
008970/20130222/141545/1870/4810/20/
008970/20130222/141613/1875/150/20/
008970/20130222/141637/1875/100/20/
008970/20130222/141709/1875/3040/20/
008970/20130222/141714/1875/100/20/
008970/20130222/141719/1875/100/20/
008970/20130222/141733/1875/3000/20/
008970/20130222/141738/1875/500/20/
008970/20130222/141741/1875/4520/20/
008970/20130222/141742/1875/5000/20/
008970/20130222/141743/1875/16240/20/
008970/20130222/141744/1875/1430/20/
008970/20130222/141744/1875/100/20/
008970/20130222/141744/1875/300/20/
008970/20130222/141744/1875/230/20/
008970/20130222/141745/1875/2000/20/
008970/20130222/141747/1880/2020/20/
008970/20130222/141749/1880/2000/20/
008970/20130222/141751/1880/610/20/
008970/20130222/141752/1880/3000/20/
008970/20130222/141753/1880/2000/20/
008970/20130222/141754/1880/100/20/
008970/20130222/141757/1880/220/20/
008970/20130222/141758/1880/4970/20/
008970/20130222/141758/1880/3000/20/
008970/20130222/141759/1880/4460/20/
008970/20130222/141801/1885/130/20/
008970/20130222/141804/1885/5340/20/
008970/20130222/141807/1885/10170/20/
008970/20130222/141808/1885/5000/20/
008970/20130222/141808/1885/100/20/
008970/20130222/141808/1885/100/20/
008970/20130222/141809/1880/4000/10/
008970/20130222/141809/1885/30000/20/
008970/20130222/141809/1885/5110/20/
008970/20130222/141810/1885/3810/20/
008970/20130222/141811/1890/90/20/
008970/20130222/141811/1885/8910/10/
008970/20130222/141815/1885/210/20/
008970/20130222/141815/1890/6180/20/
008970/20130222/141817/1885/1050/10/
008970/20130222/141823/1885/1060/20/
008970/20130222/141823/1885/100/20/
008970/20130222/141844/1880/9060/10/
008970/20130222/141846/1885/3000/20/
008970/20130222/141857/1880/1010/10/
008970/20130222/141858/1880/4540/10/
008970/20130222/141858/1880/330/20/
008970/20130222/141933/1875/100/10/
008970/20130222/141954/1875/2290/10/
008970/20130222/142021/1880/1010/20/
008970/20130222/142029/1880/2510/20/
008970/20130222/142030/1880/150/10/
008970/20130222/142030/1875/350/10/
008970/20130222/142036/1880/870/20/
008970/20130222/142130/1880/1050/20/
008970/20130222/142133/1880/1550/20/
008970/20130222/142135/1880/500/20/
008970/20130222/142146/1880/1060/20/
008970/20130222/142158/1875/7400/10/
008970/20130222/142240/1875/560/10/
008970/20130222/142324/1875/2010/10/
008970/20130222/142326/1875/2000/10/
008970/20130222/142338/1875/150/10/
008970/20130222/142420/1875/4130/10/
008970/20130222/142446/1875/1030/10/
008970/20130222/142455/1875/510/10/
008970/20130222/142458/1875/620/10/
008970/20130222/142518/1880/16090/20/
008970/20130222/142518/1885/34950/20/
008970/20130222/142518/1890/60020/20/
008970/20130222/142518/1895/45850/20/
008970/20130222/142518/1900/51910/20/
008970/20130222/142528/1905/360/20/
008970/20130222/142532/1905/1070/20/
008970/20130222/142538/1900/110/10/
008970/20130222/142539/1905/90/20/
008970/20130222/142544/1905/1270/20/
008970/20130222/142547/1905/100/20/
008970/20130222/142548/1905/2690/20/
008970/20130222/142550/1905/6000/20/
008970/20130222/142550/1905/2000/20/
008970/20130222/142551/1905/15830/20/
008970/20130222/142551/1905/10700/10/
008970/20130222/142551/1900/19300/10/
008970/20130222/142552/1905/3150/10/
008970/20130222/142556/1900/1100/10/
008970/20130222/142557/1900/100/10/
008970/20130222/142557/1905/100/20/
008970/20130222/142603/1900/10050/10/
008970/20130222/142604/1900/1050/10/
008970/20130222/142605/1900/400/10/
008970/20130222/142605/1900/100/10/
008970/20130222/142605/1900/5010/10/
008970/20130222/142605/1900/100/10/
008970/20130222/142606/1900/4010/10/
008970/20130222/142606/1900/100/10/
008970/20130222/142607/1900/1070/10/
008970/20130222/142607/1900/620/10/
008970/20130222/142610/1900/90/20/
008970/20130222/142622/1895/550/20/
008970/20130222/142638/1895/2070/20/
008970/20130222/142645/1895/200/20/
008970/20130222/142652/1895/1000/20/
008970/20130222/142658/1895/100/20/
008970/20130222/142701/1895/100/20/
008970/20130222/142707/1895/510/20/
008970/20130222/142709/1895/880/20/
008970/20130222/142713/1890/100/10/
008970/20130222/142718/1890/1000/10/
008970/20130222/142726/1890/1280/10/
008970/20130222/142733/1890/3220/10/
008970/20130222/142736/1890/110/20/
008970/20130222/142742/1890/360/20/
008970/20130222/142748/1890/1000/20/
008970/20130222/142749/1890/2650/20/
008970/20130222/142752/1890/100/20/
008970/20130222/142755/1890/500/10/
008970/20130222/142759/1890/90/20/
008970/20130222/142806/1890/470/20/
008970/20130222/142808/1890/110/10/
008970/20130222/142813/1890/940/10/
008970/20130222/142815/1890/140/20/
008970/20130222/142819/1890/90/10/
008970/20130222/142820/1895/700/20/
008970/20130222/142822/1890/100/10/
008970/20130222/142824/1890/110/10/
008970/20130222/142825/1890/910/20/
008970/20130222/142827/1890/690/10/
008970/20130222/142830/1890/2040/20/
008970/20130222/142835/1890/110/10/
008970/20130222/142840/1890/110/10/
008970/20130222/142851/1890/100/10/
008970/20130222/142856/1890/4000/10/
008970/20130222/142905/1895/90/20/
008970/20130222/142914/1890/1030/10/
008970/20130222/142923/1895/26820/20/
008970/20130222/142924/1900/11010/20/
008970/20130222/142925/1900/500/20/
008970/20130222/142926/1900/2640/20/
008970/20130222/142927/1895/330/10/
008970/20130222/142934/1895/5860/10/
008970/20130222/142942/1895/500/20/
008970/20130222/142942/1890/3000/10/
008970/20130222/142943/1890/400/10/
008970/20130222/142943/1895/2000/20/
008970/20130222/142947/1895/1600/20/
008970/20130222/142956/1890/1030/10/
008970/20130222/143009/1895/1070/20/
008970/20130222/143011/1895/9190/20/
008970/20130222/143016/1895/1040/10/
008970/20130222/143018/1895/370/10/
008970/20130222/143018/1890/630/10/
008970/20130222/143024/1895/810/20/
008970/20130222/143028/1895/2580/20/
008970/20130222/143029/1900/2350/20/
008970/20130222/143030/1895/210/10/
008970/20130222/143048/1900/90/20/
008970/20130222/143055/1895/10010/10/
008970/20130222/143105/1895/90/10/
008970/20130222/143112/1895/510/10/
008970/20130222/143117/1900/30010/20/
008970/20130222/143117/1900/9380/20/
008970/20130222/143126/1905/100/20/
008970/20130222/143130/1905/130/20/
008970/20130222/143130/1905/2620/20/
008970/20130222/143131/1905/2620/20/
008970/20130222/143131/1905/1050/20/
008970/20130222/143132/1905/2810/20/
008970/20130222/143132/1910/2620/20/
008970/20130222/143133/1905/6250/10/
008970/20130222/143138/1905/5000/20/
008970/20130222/143138/1905/100/20/
008970/20130222/143139/1905/100/20/
008970/20130222/143140/1905/100/20/
008970/20130222/143140/1900/20000/10/
008970/20130222/143140/1905/3000/20/
008970/20130222/143140/1905/100/20/
008970/20130222/143141/1905/100/20/
008970/20130222/143141/1905/100/20/
008970/20130222/143142/1905/100/20/
008970/20130222/143143/1905/100/20/
008970/20130222/143144/1905/100/20/
008970/20130222/143145/1905/100/20/
008970/20130222/143145/1905/1390/20/
008970/20130222/143146/1905/100/20/
008970/20130222/143146/1905/100/20/
008970/20130222/143147/1905/100/20/
008970/20130222/143147/1905/100/20/
008970/20130222/143148/1905/100/20/
008970/20130222/143148/1905/1000/20/
008970/20130222/143149/1905/100/20/
008970/20130222/143149/1905/100/20/
008970/20130222/143149/1905/2510/20/
008970/20130222/143150/1905/100/20/
008970/20130222/143150/1910/100/20/
008970/20130222/143151/1910/100/20/
008970/20130222/143151/1910/100/20/
008970/20130222/143152/1910/100/20/
008970/20130222/143152/1910/100/20/
008970/20130222/143153/1910/100/20/
008970/20130222/143154/1910/100/20/
008970/20130222/143154/1905/260/10/
008970/20130222/143154/1905/100/10/
008970/20130222/143154/1905/300/20/
008970/20130222/143155/1905/100/20/
008970/20130222/143155/1905/100/20/
008970/20130222/143156/1905/100/20/
008970/20130222/143157/1910/100/20/
008970/20130222/143158/1910/100/20/
008970/20130222/143159/1910/100/20/
008970/20130222/143159/1910/4370/20/
008970/20130222/143200/1910/100/20/
008970/20130222/143200/1910/100/20/
008970/20130222/143201/1910/100/20/
008970/20130222/143202/1910/2700/20/
008970/20130222/143202/1910/100/20/
008970/20130222/143202/1910/100/20/
008970/20130222/143206/1910/170/20/
008970/20130222/143206/1905/510/10/
008970/20130222/143207/1910/100/20/
008970/20130222/143209/1905/120/10/
008970/20130222/143209/1910/110/20/
008970/20130222/143210/1910/100/20/
008970/20130222/143211/1910/100/20/
008970/20130222/143212/1910/120/20/
008970/20130222/143213/1910/110/20/
008970/20130222/143213/1910/100/20/
008970/20130222/143214/1910/110/20/
008970/20130222/143216/1910/120/20/
008970/20130222/143218/1910/2110/20/
008970/20130222/143219/1910/100/20/
008970/20130222/143223/1905/1080/10/
008970/20130222/143224/1905/5060/10/
008970/20130222/143228/1905/490/20/
008970/20130222/143235/1905/160/20/
008970/20130222/143252/1905/760/20/
008970/20130222/143254/1900/15170/10/
008970/20130222/143258/1900/1070/20/
008970/20130222/143259/1900/200/20/
008970/20130222/143259/1900/300/20/
008970/20130222/143309/1895/7570/10/
008970/20130222/143316/1890/210/10/
008970/20130222/143322/1895/3060/20/
008970/20130222/143326/1895/200/20/
008970/20130222/143329/1895/9160/20/
008970/20130222/143335/1900/520/20/
008970/20130222/143342/1900/100/20/
008970/20130222/143344/1895/4610/10/
008970/20130222/143347/1895/3200/10/
008970/20130222/143355/1895/210/10/
008970/20130222/143359/1900/90/20/
008970/20130222/143402/1900/100/20/
008970/20130222/143404/1895/12660/10/
008970/20130222/143406/1895/380/10/
008970/20130222/143410/1895/240/10/
008970/20130222/143410/1895/2000/10/
008970/20130222/143411/1895/2500/10/
008970/20130222/143412/1895/90/10/
008970/20130222/143415/1895/100/20/
008970/20130222/143420/1895/620/20/
008970/20130222/143420/1900/9380/20/
008970/20130222/143420/1900/1000/20/
008970/20130222/143424/1895/500/20/
008970/20130222/143428/1895/1070/10/
008970/20130222/143429/1895/200/10/
008970/20130222/143442/1895/330/10/
008970/20130222/143447/1895/500/20/
008970/20130222/143448/1895/170/20/
008970/20130222/143451/1895/100/20/
008970/20130222/143500/1895/320/10/
008970/20130222/143507/1895/220/10/
008970/20130222/143515/1900/340/20/
008970/20130222/143516/1900/810/20/
008970/20130222/143521/1900/130/20/
008970/20130222/143528/1895/380/10/
008970/20130222/143534/1900/90/20/
008970/20130222/143542/1900/90/20/
008970/20130222/143544/1900/550/20/
008970/20130222/143547/1900/830/20/
008970/20130222/143553/1900/180/20/
008970/20130222/143554/1900/10020/20/
008970/20130222/143554/1895/1000/10/
008970/20130222/143555/1900/6410/20/
008970/20130222/143556/1900/2440/20/
008970/20130222/143557/1905/110/20/
008970/20130222/143557/1900/4600/10/
008970/20130222/143600/1900/1000/20/
008970/20130222/143601/1900/1000/20/
008970/20130222/143601/1900/100/20/
008970/20130222/143602/1900/3140/20/
008970/20130222/143604/1900/2070/20/
008970/20130222/143604/1900/100/20/
008970/20130222/143606/1900/560/20/
008970/20130222/143608/1900/7800/20/
008970/20130222/143610/1900/5200/20/
008970/20130222/143610/1900/4190/20/
008970/20130222/143611/1900/810/10/
008970/20130222/143612/1900/190/20/
008970/20130222/143613/1900/300/10/
008970/20130222/143614/1900/1000/10/
008970/20130222/143617/1900/4510/10/
008970/20130222/143618/1900/500/20/
008970/20130222/143636/1900/200/20/
008970/20130222/143639/1900/500/20/
008970/20130222/143650/1895/5650/10/
008970/20130222/143700/1895/1100/10/
008970/20130222/143716/1895/100/10/
008970/20130222/143716/1895/2280/10/
008970/20130222/143717/1895/100/10/
008970/20130222/143717/1895/1540/10/
008970/20130222/143725/1895/100/10/
008970/20130222/143726/1895/1100/10/
008970/20130222/143728/1895/100/10/
008970/20130222/143728/1895/760/10/
008970/20130222/143731/1895/4000/10/
008970/20130222/143732/1895/100/10/
008970/20130222/143733/1895/100/10/
008970/20130222/143736/1895/500/10/
008970/20130222/143739/1900/300/20/
008970/20130222/143740/1895/100/10/
008970/20130222/143740/1895/3300/10/
008970/20130222/143742/1895/100/10/
008970/20130222/143747/1895/100/10/
008970/20130222/143751/1895/3000/10/
008970/20130222/143751/1895/3000/10/
008970/20130222/143754/1895/1170/10/
008970/20130222/143755/1895/5730/10/
008970/20130222/143759/1895/2210/10/
008970/20130222/143803/1895/1010/20/
008970/20130222/143807/1895/1000/20/
008970/20130222/143808/1895/1000/20/
008970/20130222/143813/1890/550/10/
008970/20130222/143815/1895/100/20/
008970/20130222/143846/1895/1040/20/
008970/20130222/143846/1895/2230/20/
008970/20130222/143847/1895/900/20/
008970/20130222/143850/1895/9060/20/
008970/20130222/143853/1895/100/20/
008970/20130222/143854/1895/770/20/
008970/20130222/143924/1900/1060/20/
008970/20130222/143930/1895/710/10/
008970/20130222/143951/1895/530/10/
008970/20130222/144012/1895/3040/10/
008970/20130222/144016/1895/290/10/
008970/20130222/144017/1895/100/10/
008970/20130222/144021/1895/8110/10/
008970/20130222/144024/1895/320/20/
008970/20130222/144028/1895/2280/20/
008970/20130222/144048/1895/540/10/
008970/20130222/144057/1895/2010/10/
008970/20130222/144102/1895/110/10/
008970/20130222/144116/1895/5050/10/
008970/20130222/144118/1895/100/10/
008970/20130222/144120/1895/2090/10/
008970/20130222/144122/1895/140/20/
008970/20130222/144122/1895/110/20/
008970/20130222/144129/1895/1040/20/
008970/20130222/144135/1895/120/20/
008970/20130222/144147/1890/1280/10/
008970/20130222/144154/1890/3010/10/
008970/20130222/144200/1890/110/10/
008970/20130222/144201/1890/3000/10/
008970/20130222/144208/1890/110/10/
008970/20130222/144218/1890/2000/10/
008970/20130222/144219/1890/660/10/
008970/20130222/144232/1890/2030/10/
008970/20130222/144238/1890/500/10/
008970/20130222/144251/1890/8030/10/
008970/20130222/144259/1890/100/10/
008970/20130222/144303/1890/6000/10/
008970/20130222/144311/1890/260/10/
008970/20130222/144313/1890/5000/10/
008970/20130222/144313/1885/370/10/
008970/20130222/144322/1890/330/20/
008970/20130222/144325/1890/120/10/
008970/20130222/144328/1890/3020/10/
008970/20130222/144330/1890/510/10/
008970/20130222/144337/1890/710/10/
008970/20130222/144339/1890/100/10/
008970/20130222/144343/1890/230/10/
008970/20130222/144347/1890/910/10/
008970/20130222/144348/1890/400/10/
008970/20130222/144350/1890/1500/10/
008970/20130222/144351/1895/450/20/
008970/20130222/144351/1890/510/10/
008970/20130222/144411/1895/90/20/
008970/20130222/144423/1895/13230/20/
008970/20130222/144425/1895/11830/20/
008970/20130222/144443/1895/520/10/
008970/20130222/144459/1895/9440/10/
008970/20130222/144504/1895/3170/10/
008970/20130222/144507/1900/90/20/
008970/20130222/144520/1895/1030/10/
008970/20130222/144526/1900/130/20/
008970/20130222/144539/1895/5330/10/
008970/20130222/144542/1895/520/10/
008970/20130222/144543/1895/310/10/
008970/20130222/144544/1895/1010/10/
008970/20130222/144551/1900/100/20/
008970/20130222/144603/1900/110/20/
008970/20130222/144605/1895/1000/10/
008970/20130222/144611/1895/5010/10/
008970/20130222/144618/1900/2010/20/
008970/20130222/144624/1895/520/10/
008970/20130222/144715/1895/1080/10/
008970/20130222/144750/1900/9680/20/
008970/20130222/144757/1900/610/20/
008970/20130222/144757/1900/10910/20/
008970/20130222/144759/1900/1010/20/
008970/20130222/144759/1900/480/20/
008970/20130222/144759/1900/13000/20/
008970/20130222/144800/1900/11340/20/
008970/20130222/144808/1900/100/10/
008970/20130222/144811/1900/6230/10/
008970/20130222/144812/1900/2000/20/
008970/20130222/144814/1900/280/20/
008970/20130222/144814/1900/1490/20/
008970/20130222/144816/1900/1400/10/
008970/20130222/144817/1900/1000/10/
008970/20130222/144819/1900/700/10/
008970/20130222/144822/1900/200/10/
008970/20130222/144824/1905/570/20/
008970/20130222/144826/1905/1000/20/
008970/20130222/144827/1905/9160/20/
008970/20130222/144827/1905/110/20/
008970/20130222/144828/1905/5260/20/
008970/20130222/144840/1905/690/20/
008970/20130222/144842/1905/110/20/
008970/20130222/144843/1905/1120/20/
008970/20130222/144846/1905/28610/20/
008970/20130222/144846/1905/100/20/
008970/20130222/144848/1905/1300/10/
008970/20130222/144849/1905/1190/20/
008970/20130222/144850/1905/200/20/
008970/20130222/144850/1905/2000/20/
008970/20130222/144852/1905/2250/20/
008970/20130222/144852/1905/6010/20/
008970/20130222/144853/1905/100/20/
008970/20130222/144854/1905/1000/20/
008970/20130222/144854/1905/5000/20/
008970/20130222/144856/1905/5000/20/
008970/20130222/144857/1905/550/20/
008970/20130222/144858/1905/2840/20/
008970/20130222/144858/1905/100/20/
008970/20130222/144858/1905/1040/20/
008970/20130222/144859/1905/1230/20/
008970/20130222/144900/1905/1390/10/
008970/20130222/144901/1905/510/20/
008970/20130222/144910/1905/280/20/
008970/20130222/144912/1905/7240/20/
008970/20130222/144920/1905/1780/10/
008970/20130222/144920/1900/3250/10/
008970/20130222/144921/1910/500/20/
008970/20130222/144921/1905/600/20/
008970/20130222/144921/1910/2400/20/
008970/20130222/144924/1905/100/20/
008970/20130222/144928/1905/1390/20/
008970/20130222/144928/1910/1140/20/
008970/20130222/144936/1910/360/20/
008970/20130222/144938/1910/200/20/
008970/20130222/144941/1905/100/10/
008970/20130222/144944/1905/110/10/
008970/20130222/144944/1905/100/10/
008970/20130222/144948/1905/180/10/
008970/20130222/144949/1910/210/20/
008970/20130222/144950/1910/10240/20/
008970/20130222/144950/1910/10000/20/
008970/20130222/144952/1910/130/20/
008970/20130222/144952/1910/100/20/
008970/20130222/144952/1910/2390/20/
008970/20130222/144953/1910/180/20/
008970/20130222/144954/1910/5000/20/
008970/20130222/144954/1910/500/20/
008970/20130222/144954/1910/500/20/
008970/20130222/144955/1910/10000/20/
008970/20130222/144956/1910/100/20/
008970/20130222/144956/1910/100/20/
008970/20130222/144956/1910/8000/20/
008970/20130222/144956/1905/300/10/
008970/20130222/144957/1910/2300/20/
008970/20130222/144959/1910/570/20/
008970/20130222/150000/1915/215030/10/
