008970/20130329/90000/1750/14000/20/
008970/20130329/90032/1750/490/20/
008970/20130329/90039/1750/2000/20/
008970/20130329/90051/1745/100/10/
008970/20130329/90132/1740/3900/10/
008970/20130329/90141/1740/1120/20/
008970/20130329/90246/1745/4000/20/
008970/20130329/90309/1745/1280/20/
008970/20130329/90333/1745/570/20/
008970/20130329/90347/1745/520/20/
008970/20130329/90422/1745/940/20/
008970/20130329/90433/1745/2150/20/
008970/20130329/90524/1745/1020/20/
008970/20130329/90537/1745/500/20/
008970/20130329/90559/1745/1000/20/
008970/20130329/90623/1745/380/20/
008970/20130329/90711/1745/2000/20/
008970/20130329/90721/1745/1000/20/
008970/20130329/90722/1745/960/20/
008970/20130329/90729/1745/830/20/
008970/20130329/90735/1745/2820/10/
008970/20130329/90749/1745/5750/10/
008970/20130329/90835/1745/5000/10/
008970/20130329/90843/1745/400/10/
008970/20130329/90850/1745/330/10/
008970/20130329/90917/1745/1480/20/
008970/20130329/90919/1740/3000/10/
008970/20130329/91004/1740/100/10/
008970/20130329/91006/1740/7000/10/
008970/20130329/91043/1740/300/10/
008970/20130329/91135/1740/410/10/
008970/20130329/91235/1740/1450/10/
008970/20130329/91312/1740/700/10/
008970/20130329/91409/1745/1070/20/
008970/20130329/91523/1745/440/20/
008970/20130329/91526/1745/10000/20/
008970/20130329/91622/1745/1700/20/
008970/20130329/91635/1745/5000/20/
008970/20130329/91644/1745/100/20/
008970/20130329/91648/1745/500/20/
008970/20130329/91704/1750/450/20/
008970/20130329/91743/1745/200/10/
008970/20130329/91746/1745/3000/10/
008970/20130329/91849/1750/1060/20/
008970/20130329/92007/1750/970/20/
008970/20130329/92009/1750/290/20/
008970/20130329/92011/1745/2000/10/
008970/20130329/92033/1745/2000/10/
008970/20130329/92137/1745/1050/10/
008970/20130329/92211/1745/4500/10/
008970/20130329/92230/1745/2000/10/
008970/20130329/92241/1745/500/10/
008970/20130329/92338/1745/620/10/
008970/20130329/92413/1745/1430/20/
008970/20130329/92633/1745/4020/10/
008970/20130329/92729/1745/2920/10/
008970/20130329/92736/1745/1000/10/
008970/20130329/92744/1745/1800/10/
008970/20130329/92803/1745/1300/10/
008970/20130329/92848/1745/3000/10/
008970/20130329/92852/1745/300/10/
008970/20130329/92904/1745/990/10/
008970/20130329/92908/1745/2850/10/
008970/20130329/92934/1745/4540/10/
008970/20130329/93134/1745/100/20/
008970/20130329/93156/1745/1400/20/
008970/20130329/93311/1745/1000/20/
008970/20130329/93358/1745/1500/20/
008970/20130329/93412/1740/1060/10/
008970/20130329/93441/1740/200/10/
008970/20130329/93457/1745/410/20/
008970/20130329/93536/1745/1280/20/
008970/20130329/93618/1745/1460/20/
008970/20130329/93630/1745/110/20/
008970/20130329/93633/1745/530/20/
008970/20130329/93636/1745/200/20/
008970/20130329/93715/1745/710/20/
008970/20130329/93828/1745/6650/20/
008970/20130329/93833/1745/200/10/
008970/20130329/93843/1745/2650/10/
008970/20130329/93843/1740/7350/10/
008970/20130329/93940/1740/8170/10/
008970/20130329/93947/1750/1770/20/
008970/20130329/94017/1745/790/10/
008970/20130329/94106/1745/1440/20/
008970/20130329/94128/1745/450/20/
008970/20130329/94203/1745/130/20/
008970/20130329/94314/1745/1120/20/
008970/20130329/94418/1745/500/20/
008970/20130329/94422/1745/100/20/
008970/20130329/94736/1745/1000/20/
008970/20130329/94823/1745/90/20/
008970/20130329/94902/1740/2460/10/
008970/20130329/95038/1745/4010/20/
008970/20130329/95051/1740/3560/10/
008970/20130329/95125/1745/2330/20/
008970/20130329/95158/1745/520/20/
008970/20130329/95221/1745/700/20/
008970/20130329/95311/1750/530/20/
008970/20130329/95420/1745/240/10/
008970/20130329/95431/1745/1170/20/
008970/20130329/95433/1745/200/10/
008970/20130329/95521/1745/130/10/
008970/20130329/95708/1750/150/20/
008970/20130329/95724/1745/1590/10/
008970/20130329/95807/1745/160/10/
008970/20130329/95823/1745/500/10/
008970/20130329/95823/1745/940/10/
008970/20130329/95939/1745/300/20/
008970/20130329/95940/1745/2260/20/
008970/20130329/100013/1745/3750/10/
008970/20130329/100014/1740/2200/10/
008970/20130329/100129/1745/120/20/
008970/20130329/100221/1745/100/20/
008970/20130329/100238/1745/1150/20/
008970/20130329/100424/1745/100/20/
008970/20130329/100425/1740/4820/10/
008970/20130329/100802/1740/820/10/
008970/20130329/100832/1740/1000/10/
008970/20130329/100955/1740/300/10/
008970/20130329/101055/1740/470/10/
008970/20130329/101116/1740/530/10/
008970/20130329/101135/1745/370/20/
008970/20130329/101209/1740/1400/10/
008970/20130329/101340/1745/2210/20/
008970/20130329/101430/1740/2500/10/
008970/20130329/101720/1740/110/10/
008970/20130329/101740/1740/6520/10/
008970/20130329/101749/1740/7020/10/
008970/20130329/101833/1740/240/10/
008970/20130329/101925/1740/90/10/
008970/20130329/102115/1740/1530/10/
008970/20130329/102219/1740/230/10/
008970/20130329/102322/1740/500/10/
008970/20130329/102404/1740/1380/10/
008970/20130329/102417/1740/620/20/
008970/20130329/102638/1745/4340/20/
008970/20130329/102920/1740/110/10/
008970/20130329/103105/1740/510/10/
008970/20130329/103450/1745/1010/20/
008970/20130329/103708/1745/1030/20/
008970/20130329/103800/1745/850/20/
008970/20130329/103812/1745/100/20/
008970/20130329/104152/1745/1480/20/
008970/20130329/104233/1745/3520/20/
008970/20130329/104319/1740/1500/10/
008970/20130329/104353/1745/500/20/
008970/20130329/104409/1745/3150/20/
008970/20130329/104643/1745/580/20/
008970/20130329/104723/1745/210/20/
008970/20130329/104748/1745/100/20/
008970/20130329/105128/1740/1500/10/
008970/20130329/105213/1745/90/20/
008970/20130329/110012/1745/190/20/
008970/20130329/110024/1740/3000/10/
008970/20130329/110151/1740/100/10/
008970/20130329/110210/1740/700/10/
008970/20130329/110740/1740/1580/10/
008970/20130329/110823/1745/90/20/
008970/20130329/110826/1745/90/20/
008970/20130329/111014/1740/6590/10/
008970/20130329/111342/1740/510/20/
008970/20130329/111414/1740/500/20/
008970/20130329/111502/1735/5000/10/
008970/20130329/111510/1735/100/10/
008970/20130329/111533/1735/5000/10/
008970/20130329/111615/1740/700/20/
008970/20130329/111715/1735/1080/10/
008970/20130329/111955/1735/220/10/
008970/20130329/112005/1740/100/20/
008970/20130329/112045/1740/710/20/
008970/20130329/112239/1740/1020/20/
008970/20130329/112738/1740/2000/20/
008970/20130329/112740/1740/410/20/
008970/20130329/112833/1740/400/10/
008970/20130329/113019/1740/2190/10/
008970/20130329/113324/1740/2990/20/
008970/20130329/113326/1740/290/10/
008970/20130329/113641/1740/5070/10/
008970/20130329/113753/1740/3710/10/
008970/20130329/113831/1740/3000/10/
008970/20130329/113925/1740/1200/10/
008970/20130329/113938/1740/500/10/
008970/20130329/114011/1740/410/10/
008970/20130329/114101/1740/720/10/
008970/20130329/114354/1740/2000/10/
008970/20130329/114519/1740/110/10/
008970/20130329/114740/1740/1210/10/
008970/20130329/114803/1740/2000/10/
008970/20130329/114837/1740/2500/10/
008970/20130329/114856/1740/3500/10/
008970/20130329/115359/1740/160/10/
008970/20130329/115408/1740/5000/10/
008970/20130329/115518/1745/2110/20/
008970/20130329/115537/1745/130/20/
008970/20130329/120248/1745/980/20/
008970/20130329/120403/1745/7280/20/
008970/20130329/120501/1745/13000/20/
008970/20130329/120504/1745/1000/20/
008970/20130329/120505/1745/160/20/
008970/20130329/120639/1745/5000/20/
008970/20130329/120641/1745/2430/20/
008970/20130329/120645/1745/110/20/
008970/20130329/120658/1745/400/20/
008970/20130329/120802/1740/500/10/
008970/20130329/120803/1745/1000/20/
008970/20130329/120826/1745/800/20/
008970/20130329/120919/1745/7530/20/
008970/20130329/120944/1745/530/10/
008970/20130329/120957/1745/90/10/
008970/20130329/121102/1745/140/10/
008970/20130329/121131/1745/2340/10/
008970/20130329/121233/1745/1320/20/
008970/20130329/121430/1740/2500/10/
008970/20130329/121551/1740/3000/10/
008970/20130329/122543/1740/290/10/
008970/20130329/122704/1740/300/10/
008970/20130329/122834/1740/320/10/
008970/20130329/122854/1740/500/10/
008970/20130329/123417/1740/110/10/
008970/20130329/123605/1745/100/20/
008970/20130329/123701/1745/1000/20/
008970/20130329/123748/1745/120/20/
008970/20130329/123858/1745/9760/10/
008970/20130329/123909/1745/1000/10/
008970/20130329/123922/1745/9240/10/
008970/20130329/123940/1750/260/20/
008970/20130329/124117/1750/250/20/
008970/20130329/124126/1745/2030/10/
008970/20130329/124144/1745/690/10/
008970/20130329/124321/1740/360/10/
008970/20130329/124433/1745/2540/20/
008970/20130329/124436/1745/1500/20/
008970/20130329/125714/1745/1630/20/
008970/20130329/125720/1745/200/20/
008970/20130329/125829/1745/5340/20/
008970/20130329/130545/1745/1010/20/
008970/20130329/130730/1745/1000/20/
008970/20130329/130737/1740/2800/10/
008970/20130329/130742/1745/2660/20/
008970/20130329/130902/1745/1000/20/
008970/20130329/131018/1745/1010/20/
008970/20130329/131215/1740/570/10/
008970/20130329/131306/1740/570/10/
008970/20130329/131343/1740/1000/10/
008970/20130329/131352/1740/1010/10/
008970/20130329/131438/1740/1180/10/
008970/20130329/132024/1745/2010/20/
008970/20130329/132030/1745/1000/20/
008970/20130329/132401/1740/12870/10/
008970/20130329/132414/1740/4410/10/
008970/20130329/132654/1740/510/10/
008970/20130329/132914/1740/12880/10/
008970/20130329/133055/1740/430/20/
008970/20130329/133659/1735/510/10/
008970/20130329/133758/1740/2020/20/
008970/20130329/133856/1740/110/20/
008970/20130329/133928/1740/200/20/
008970/20130329/133929/1740/5000/20/
008970/20130329/133930/1740/1300/20/
008970/20130329/133954/1740/6560/10/
008970/20130329/134018/1740/100/20/
008970/20130329/134022/1740/700/20/
008970/20130329/134045/1740/250/20/
008970/20130329/134110/1740/1570/20/
008970/20130329/134113/1740/820/20/
008970/20130329/134205/1740/2180/10/
008970/20130329/134229/1735/10000/10/
008970/20130329/134326/1740/2830/20/
008970/20130329/134338/1740/2180/10/
008970/20130329/134512/1740/3000/20/
008970/20130329/134536/1740/9860/20/
008970/20130329/134609/1740/10020/10/
008970/20130329/134615/1740/2090/10/
008970/20130329/134711/1740/5000/20/
008970/20130329/134755/1740/110/20/
008970/20130329/134940/1735/500/10/
008970/20130329/135054/1740/850/20/
008970/20130329/135218/1740/100/20/
008970/20130329/135342/1735/190/10/
008970/20130329/135409/1735/1500/10/
008970/20130329/135632/1740/1190/20/
008970/20130329/135828/1735/15280/10/
008970/20130329/140058/1740/530/20/
008970/20130329/140246/1740/12100/20/
008970/20130329/141125/1745/90/20/
008970/20130329/141134/1740/4000/10/
008970/20130329/141418/1740/2010/10/
008970/20130329/141445/1740/200/10/
008970/20130329/141757/1740/2030/10/
008970/20130329/141851/1740/16300/10/
008970/20130329/141904/1740/9670/10/
008970/20130329/141913/1740/3000/20/
008970/20130329/141923/1740/280/20/
008970/20130329/141925/1740/260/20/
008970/20130329/141926/1740/310/10/
008970/20130329/141938/1740/1000/20/
008970/20130329/142050/1740/300/20/
008970/20130329/142113/1740/1890/20/
008970/20130329/142157/1740/110/20/
008970/20130329/142210/1740/500/20/
008970/20130329/142704/1740/260/20/
008970/20130329/142751/1735/530/10/
008970/20130329/142755/1740/200/20/
008970/20130329/142841/1735/1500/10/
008970/20130329/142958/1740/520/20/
008970/20130329/143006/1735/310/10/
008970/20130329/143050/1740/230/20/
008970/20130329/143125/1740/510/20/
008970/20130329/143238/1740/2010/20/
008970/20130329/143244/1740/740/20/
008970/20130329/143323/1740/450/20/
008970/20130329/143521/1740/90/20/
008970/20130329/143539/1740/1000/20/
008970/20130329/143600/1735/2000/10/
008970/20130329/143601/1740/740/20/
008970/20130329/143838/1735/1110/10/
008970/20130329/144108/1740/510/20/
008970/20130329/144217/1740/100/20/
008970/20130329/144241/1735/1000/10/
008970/20130329/144505/1735/1000/10/
008970/20130329/144516/1735/2970/10/
008970/20130329/144613/1735/15030/10/
008970/20130329/144656/1735/10060/10/
008970/20130329/144803/1735/210/10/
008970/20130329/144850/1740/190/20/
008970/20130329/144936/1740/1030/20/
008970/20130329/150000/1735/29510/10/
