008970/20121114/90000/1720/13250/10/
008970/20121114/90012/1720/500/10/
008970/20121114/90022/1720/2270/10/
008970/20121114/90022/1720/3900/20/
008970/20121114/90113/1735/1540/20/
008970/20121114/90114/1740/100/20/
008970/20121114/90135/1740/110/20/
008970/20121114/90153/1740/2390/20/
008970/20121114/90229/1740/100/10/
008970/20121114/90230/1740/120/10/
008970/20121114/90235/1740/1050/10/
008970/20121114/90236/1740/1300/10/
008970/20121114/90248/1740/510/10/
008970/20121114/90353/1720/1000/10/
008970/20121114/90353/1720/1190/20/
008970/20121114/90419/1740/110/20/
008970/20121114/90605/1740/560/20/
008970/20121114/90800/1730/100/10/
008970/20121114/90808/1730/170/10/
008970/20121114/90832/1730/330/20/
008970/20121114/90840/1730/1050/10/
008970/20121114/90845/1735/480/20/
008970/20121114/90901/1735/400/10/
008970/20121114/90926/1735/180/10/
008970/20121114/91018/1735/490/20/
008970/20121114/91048/1735/230/20/
008970/20121114/91114/1730/1070/10/
008970/20121114/91118/1730/2450/10/
008970/20121114/91235/1725/1630/10/
008970/20121114/91355/1720/2010/10/
008970/20121114/91433/1725/310/20/
008970/20121114/91437/1725/500/20/
008970/20121114/91454/1725/110/20/
008970/20121114/91457/1725/3000/20/
008970/20121114/91513/1725/800/20/
008970/20121114/91526/1725/400/10/
008970/20121114/91631/1725/310/10/
008970/20121114/91637/1725/4310/10/
008970/20121114/91642/1725/100/20/
008970/20121114/91644/1725/100/20/
008970/20121114/91644/1725/790/20/
008970/20121114/91651/1730/170/20/
008970/20121114/91709/1730/1100/20/
008970/20121114/91819/1725/310/10/
008970/20121114/91929/1725/130/10/
008970/20121114/92013/1725/2400/10/
008970/20121114/92013/1720/3480/10/
008970/20121114/92154/1730/1810/20/
008970/20121114/92333/1720/5100/10/
008970/20121114/92400/1720/1370/20/
008970/20121114/92406/1720/380/20/
008970/20121114/92433/1720/1000/20/
008970/20121114/92438/1720/100/20/
008970/20121114/92441/1720/150/20/
008970/20121114/92450/1720/5000/20/
008970/20121114/92454/1715/690/10/
008970/20121114/92454/1720/4920/20/
008970/20121114/92617/1725/210/10/
008970/20121114/92628/1725/500/10/
008970/20121114/92717/1725/2010/10/
008970/20121114/92728/1725/250/10/
008970/20121114/92805/1725/1000/10/
008970/20121114/92810/1725/470/10/
008970/20121114/92832/1720/330/10/
008970/20121114/92846/1720/3730/10/
008970/20121114/92846/1720/1270/20/
008970/20121114/92928/1720/1000/20/
008970/20121114/92929/1720/2700/20/
008970/20121114/92938/1715/1010/10/
008970/20121114/93011/1715/500/10/
008970/20121114/93031/1715/2350/10/
008970/20121114/93056/1715/1890/10/
008970/20121114/93058/1715/160/10/
008970/20121114/93121/1715/760/10/
008970/20121114/93141/1710/1020/10/
008970/20121114/93153/1715/100/20/
008970/20121114/93315/1710/1160/10/
008970/20121114/93328/1710/1500/10/
008970/20121114/93401/1710/3300/10/
008970/20121114/93418/1710/200/10/
008970/20121114/93456/1710/5480/10/
008970/20121114/93528/1710/370/10/
008970/20121114/93541/1705/90/10/
008970/20121114/93553/1705/3000/10/
008970/20121114/93600/1705/5750/10/
008970/20121114/93603/1705/1380/10/
008970/20121114/93604/1700/500/10/
008970/20121114/93616/1705/500/20/
008970/20121114/93656/1705/610/20/
008970/20121114/93731/1710/100/20/
008970/20121114/93809/1710/1000/20/
008970/20121114/93812/1710/500/20/
008970/20121114/93836/1710/500/20/
008970/20121114/93849/1710/540/20/
008970/20121114/93946/1710/100/10/
008970/20121114/94025/1715/200/20/
008970/20121114/94044/1715/1000/20/
008970/20121114/94207/1715/930/10/
008970/20121114/94219/1715/370/10/
008970/20121114/94223/1715/2300/10/
008970/20121114/94227/1710/300/10/
008970/20121114/94243/1710/130/10/
008970/20121114/94245/1710/290/10/
008970/20121114/94247/1715/200/20/
008970/20121114/94637/1710/90/10/
008970/20121114/94651/1710/910/10/
008970/20121114/94709/1710/100/10/
008970/20121114/94805/1710/10010/10/
008970/20121114/95133/1710/8460/10/
008970/20121114/95236/1705/1500/10/
008970/20121114/95300/1705/1300/10/
008970/20121114/95306/1705/1240/10/
008970/20121114/95334/1705/150/10/
008970/20121114/95406/1705/2630/10/
008970/20121114/95435/1705/100/10/
008970/20121114/95458/1705/500/10/
008970/20121114/95500/1705/200/10/
008970/20121114/95524/1705/6000/10/
008970/20121114/95524/1705/3990/10/
008970/20121114/95542/1705/1010/10/
008970/20121114/95605/1700/540/10/
008970/20121114/95611/1700/1000/10/
008970/20121114/95614/1700/100/10/
008970/20121114/95642/1700/1010/10/
008970/20121114/95704/1700/4820/10/
008970/20121114/95708/1700/5100/10/
008970/20121114/95712/1700/2000/10/
008970/20121114/95752/1700/2420/10/
008970/20121114/95755/1700/1080/20/
008970/20121114/95806/1700/210/10/
008970/20121114/95851/1705/120/20/
008970/20121114/95906/1700/5310/10/
008970/20121114/100018/1700/440/20/
008970/20121114/100048/1700/1080/20/
008970/20121114/100053/1700/120/20/
008970/20121114/100116/1700/2290/20/
008970/20121114/100123/1700/1000/20/
008970/20121114/100129/1700/1000/20/
008970/20121114/100131/1700/300/20/
008970/20121114/100135/1700/1000/20/
008970/20121114/100201/1700/1050/20/
008970/20121114/100242/1700/1020/20/
008970/20121114/100251/1700/500/20/
008970/20121114/100255/1700/1000/20/
008970/20121114/100255/1700/1000/20/
008970/20121114/100257/1700/580/20/
008970/20121114/100257/1700/220/10/
008970/20121114/100333/1700/1290/10/
008970/20121114/100333/1700/420/20/
008970/20121114/100557/1695/1650/10/
008970/20121114/100601/1695/1000/10/
008970/20121114/100601/1700/490/20/
008970/20121114/100610/1695/2000/10/
008970/20121114/100610/1700/1000/20/
008970/20121114/100618/1695/14390/10/
008970/20121114/100625/1695/1000/20/
008970/20121114/100647/1695/1050/20/
008970/20121114/100650/1695/500/20/
008970/20121114/100658/1695/1040/20/
008970/20121114/100701/1690/20030/10/
008970/20121114/100702/1695/2000/20/
008970/20121114/100818/1690/500/10/
008970/20121114/100819/1695/100/20/
008970/20121114/100827/1690/250/10/
008970/20121114/100837/1690/500/10/
008970/20121114/100839/1690/5700/10/
008970/20121114/100840/1690/790/10/
008970/20121114/100840/1685/970/10/
008970/20121114/100844/1685/1000/10/
008970/20121114/100907/1690/100/10/
008970/20121114/100928/1685/2880/10/
008970/20121114/100934/1680/2000/10/
008970/20121114/100944/1680/8910/10/
008970/20121114/100945/1680/1890/20/
008970/20121114/100947/1680/500/20/
008970/20121114/100956/1680/290/20/
008970/20121114/100958/1680/3000/20/
008970/20121114/101000/1680/950/20/
008970/20121114/101003/1680/500/20/
008970/20121114/101004/1680/530/20/
008970/20121114/101029/1680/2090/10/
008970/20121114/101032/1680/630/10/
008970/20121114/101051/1685/210/20/
008970/20121114/101106/1680/200/10/
008970/20121114/101133/1685/170/20/
008970/20121114/101133/1685/500/20/
008970/20121114/101141/1680/1770/10/
008970/20121114/101154/1685/500/20/
008970/20121114/101208/1685/210/20/
008970/20121114/101212/1685/90/20/
008970/20121114/101225/1685/760/20/
008970/20121114/101227/1685/110/20/
008970/20121114/101234/1685/90/20/
008970/20121114/101418/1685/90/20/
008970/20121114/101434/1680/2830/10/
008970/20121114/101442/1680/3810/20/
008970/20121114/101448/1680/990/20/
008970/20121114/101659/1685/180/20/
008970/20121114/101722/1680/5580/10/
008970/20121114/101753/1685/310/20/
008970/20121114/101847/1685/1000/20/
008970/20121114/101914/1680/660/10/
008970/20121114/101930/1685/1190/20/
008970/20121114/101946/1685/1960/10/
008970/20121114/102005/1690/370/20/
008970/20121114/102057/1690/520/20/
008970/20121114/102058/1690/150/10/
008970/20121114/102059/1690/500/10/
008970/20121114/102159/1695/3010/20/
008970/20121114/102216/1700/860/20/
008970/20121114/102244/1700/710/20/
008970/20121114/102311/1700/3190/10/
008970/20121114/102332/1700/640/20/
008970/20121114/102406/1700/190/20/
008970/20121114/102411/1700/700/10/
008970/20121114/102415/1700/130/10/
008970/20121114/102658/1690/270/10/
008970/20121114/102743/1690/2300/10/
008970/20121114/102747/1695/100/20/
008970/20121114/102844/1695/1040/20/
008970/20121114/102856/1690/130/10/
008970/20121114/102921/1695/120/20/
008970/20121114/102951/1695/100/10/
008970/20121114/103308/1695/2200/10/
008970/20121114/103430/1695/310/10/
008970/20121114/103533/1695/1000/10/
008970/20121114/103616/1695/1010/10/
008970/20121114/103650/1700/110/20/
008970/20121114/103922/1700/960/20/
008970/20121114/104001/1700/480/10/
008970/20121114/104009/1705/5870/20/
008970/20121114/104123/1705/800/20/
008970/20121114/104243/1705/1000/20/
008970/20121114/104251/1705/1010/10/
008970/20121114/104338/1705/530/20/
008970/20121114/104349/1705/100/20/
008970/20121114/104457/1705/350/20/
008970/20121114/104613/1700/1630/10/
008970/20121114/104651/1700/100/20/
008970/20121114/104702/1700/280/20/
008970/20121114/104712/1700/220/10/
008970/20121114/104748/1700/500/20/
008970/20121114/104748/1700/180/20/
008970/20121114/104830/1700/820/10/
008970/20121114/104914/1700/580/20/
008970/20121114/105052/1700/210/20/
008970/20121114/105115/1695/160/10/
008970/20121114/105219/1700/100/20/
008970/20121114/105304/1700/130/20/
008970/20121114/105328/1700/110/20/
008970/20121114/105527/1700/1000/10/
008970/20121114/110046/1705/1440/20/
008970/20121114/110250/1700/510/10/
008970/20121114/110308/1700/910/10/
008970/20121114/110431/1700/500/20/
008970/20121114/110453/1700/410/20/
008970/20121114/110523/1700/90/20/
008970/20121114/110536/1700/440/10/
008970/20121114/110801/1700/860/10/
008970/20121114/110844/1700/570/10/
008970/20121114/111321/1700/280/20/
008970/20121114/111439/1700/150/20/
008970/20121114/111458/1700/2000/20/
008970/20121114/111759/1700/500/20/
008970/20121114/111801/1700/400/20/
008970/20121114/111857/1700/100/20/
008970/20121114/111922/1700/1000/20/
008970/20121114/111956/1700/2470/10/
008970/20121114/112017/1695/850/10/
008970/20121114/112119/1695/5720/10/
008970/20121114/112119/1690/10680/10/
008970/20121114/112243/1690/1000/10/
008970/20121114/112345/1690/5350/10/
008970/20121114/112345/1685/9250/10/
008970/20121114/112345/1695/200/20/
008970/20121114/112416/1700/90/20/
008970/20121114/112521/1700/110/20/
008970/20121114/112608/1700/210/20/
008970/20121114/112619/1690/210/10/
008970/20121114/112715/1695/780/20/
008970/20121114/113139/1695/3800/10/
008970/20121114/113218/1690/5810/10/
008970/20121114/113541/1700/530/20/
008970/20121114/114101/1695/500/10/
008970/20121114/114117/1695/120/10/
008970/20121114/114117/1690/380/10/
008970/20121114/114248/1690/10000/10/
008970/20121114/114320/1690/550/10/
008970/20121114/114320/1685/450/10/
008970/20121114/114406/1690/300/20/
008970/20121114/114606/1690/100/10/
008970/20121114/114620/1690/100/10/
008970/20121114/114629/1690/100/10/
008970/20121114/114639/1690/100/10/
008970/20121114/114703/1690/100/10/
008970/20121114/114955/1695/400/20/
008970/20121114/115035/1695/120/20/
008970/20121114/115056/1690/100/10/
008970/20121114/115107/1690/100/10/
008970/20121114/115116/1690/100/10/
008970/20121114/115124/1690/100/10/
008970/20121114/115132/1695/600/20/
008970/20121114/115135/1690/100/10/
008970/20121114/115219/1695/3480/20/
008970/20121114/115459/1695/2570/20/
008970/20121114/115540/1695/100/20/
008970/20121114/115630/1690/550/10/
008970/20121114/115855/1690/2570/10/
008970/20121114/120210/1690/5000/10/
008970/20121114/120219/1690/400/10/
008970/20121114/120227/1690/970/10/
008970/20121114/120345/1690/120/20/
008970/20121114/120400/1690/1180/10/
008970/20121114/120432/1690/150/20/
008970/20121114/120538/1690/200/10/
008970/20121114/120538/1685/1290/10/
008970/20121114/120543/1685/1000/10/
008970/20121114/120831/1690/310/10/
008970/20121114/121023/1690/300/10/
008970/20121114/121037/1690/1000/10/
008970/20121114/121039/1690/210/10/
008970/20121114/121043/1690/90/20/
008970/20121114/121406/1690/500/10/
008970/20121114/121554/1690/500/10/
008970/20121114/121641/1690/280/10/
008970/20121114/121702/1690/100/20/
008970/20121114/121703/1690/600/20/
008970/20121114/121807/1690/170/20/
008970/20121114/121831/1690/200/10/
008970/20121114/122043/1690/100/10/
008970/20121114/122109/1690/2900/10/
008970/20121114/122243/1690/200/10/
008970/20121114/122827/1690/600/10/
008970/20121114/122845/1690/530/10/
008970/20121114/122936/1685/100/10/
008970/20121114/122941/1685/100/10/
008970/20121114/122946/1685/100/10/
008970/20121114/122950/1685/100/10/
008970/20121114/122954/1685/100/10/
008970/20121114/123008/1685/200/10/
008970/20121114/123036/1685/300/10/
008970/20121114/123203/1685/310/10/
008970/20121114/123227/1685/100/10/
008970/20121114/123231/1685/100/10/
008970/20121114/123234/1685/100/10/
008970/20121114/123238/1685/100/10/
008970/20121114/123242/1685/100/10/
008970/20121114/123256/1685/200/10/
008970/20121114/123410/1695/510/20/
008970/20121114/123733/1685/12330/10/
008970/20121114/123733/1680/3520/10/
008970/20121114/124328/1685/200/10/
008970/20121114/124508/1685/520/10/
008970/20121114/124555/1685/1780/10/
008970/20121114/124807/1685/1000/10/
008970/20121114/124844/1685/250/10/
008970/20121114/124950/1685/1500/10/
008970/20121114/125310/1685/1500/10/
008970/20121114/125414/1685/15210/10/
008970/20121114/125424/1685/4790/20/
008970/20121114/125457/1685/500/10/
008970/20121114/125559/1685/4460/10/
008970/20121114/125643/1685/500/20/
008970/20121114/125651/1685/100/20/
008970/20121114/125837/1685/460/20/
008970/20121114/130005/1685/1000/20/
008970/20121114/130108/1680/520/10/
008970/20121114/130126/1680/440/10/
008970/20121114/130406/1680/350/10/
008970/20121114/130424/1685/130/20/
008970/20121114/130429/1685/1600/20/
008970/20121114/130510/1685/710/20/
008970/20121114/130517/1685/1000/20/
008970/20121114/130533/1685/300/20/
008970/20121114/130632/1685/2000/20/
008970/20121114/130705/1685/2160/20/
008970/20121114/130718/1685/610/20/
008970/20121114/130745/1685/100/20/
008970/20121114/130749/1685/200/20/
008970/20121114/130807/1685/300/20/
008970/20121114/130812/1685/100/20/
008970/20121114/130853/1685/500/20/
008970/20121114/130858/1685/300/20/
008970/20121114/130902/1685/500/20/
008970/20121114/130916/1685/500/20/
008970/20121114/130921/1685/2950/20/
008970/20121114/131116/1690/100/20/
008970/20121114/131152/1690/90/20/
008970/20121114/131212/1685/3160/10/
008970/20121114/131212/1680/12810/10/
008970/20121114/131402/1680/500/10/
008970/20121114/131459/1680/600/10/
008970/20121114/131514/1680/5000/10/
008970/20121114/131522/1680/3700/10/
008970/20121114/131524/1680/7290/10/
008970/20121114/131527/1680/610/10/
008970/20121114/131531/1680/3000/10/
008970/20121114/131555/1680/1250/20/
008970/20121114/131632/1685/600/20/
008970/20121114/131706/1685/320/20/
008970/20121114/131801/1685/1160/20/
008970/20121114/131808/1685/2370/10/
008970/20121114/131841/1685/100/10/
008970/20121114/132106/1685/560/10/
008970/20121114/132112/1685/600/10/
008970/20121114/132116/1680/470/10/
008970/20121114/132147/1685/1500/20/
008970/20121114/132203/1685/500/20/
008970/20121114/132236/1685/100/10/
008970/20121114/132351/1685/100/10/
008970/20121114/132424/1690/2000/20/
008970/20121114/132458/1685/2730/10/
008970/20121114/132630/1685/100/10/
008970/20121114/132916/1690/400/20/
008970/20121114/133050/1690/3900/20/
008970/20121114/133056/1690/800/20/
008970/20121114/133139/1690/1000/20/
008970/20121114/133318/1690/200/20/
008970/20121114/133330/1690/4240/20/
008970/20121114/133419/1690/1960/10/
008970/20121114/133419/1685/6690/10/
008970/20121114/133449/1685/100/10/
008970/20121114/134043/1690/100/10/
008970/20121114/134126/1690/260/10/
008970/20121114/134140/1690/200/20/
008970/20121114/134555/1690/270/10/
008970/20121114/134613/1690/470/20/
008970/20121114/134737/1690/740/10/
008970/20121114/135040/1690/300/20/
008970/20121114/135052/1690/1900/20/
008970/20121114/135056/1685/800/10/
008970/20121114/135128/1690/300/10/
008970/20121114/135128/1685/1770/10/
008970/20121114/135230/1685/240/10/
008970/20121114/135332/1685/600/10/
008970/20121114/135621/1690/1580/20/
008970/20121114/135712/1690/1000/20/
008970/20121114/135916/1695/2060/20/
008970/20121114/140012/1690/330/10/
008970/20121114/140049/1690/1000/10/
008970/20121114/140208/1690/730/10/
008970/20121114/140214/1690/670/10/
008970/20121114/140256/1685/14770/10/
008970/20121114/140309/1680/4330/10/
008970/20121114/140454/1685/3040/20/
008970/20121114/140459/1685/500/20/
008970/20121114/140533/1685/1020/20/
008970/20121114/140534/1685/480/20/
008970/20121114/140559/1685/100/20/
008970/20121114/140633/1680/940/10/
008970/20121114/140634/1685/1320/20/
008970/20121114/140649/1685/700/20/
008970/20121114/140800/1685/130/10/
008970/20121114/140800/1680/850/10/
008970/20121114/140829/1695/1050/20/
008970/20121114/140836/1695/140/20/
008970/20121114/141242/1695/670/20/
008970/20121114/141258/1685/1510/10/
008970/20121114/141316/1680/100/10/
008970/20121114/141327/1685/120/20/
008970/20121114/141409/1685/570/20/
008970/20121114/141422/1685/580/20/
008970/20121114/141441/1685/280/20/
008970/20121114/141655/1685/170/10/
008970/20121114/141746/1690/940/20/
008970/20121114/141805/1690/200/20/
008970/20121114/141840/1690/1000/20/
008970/20121114/141945/1690/1390/20/
008970/20121114/142113/1695/1020/20/
008970/20121114/142230/1695/100/20/
008970/20121114/142240/1690/2030/10/
008970/20121114/142309/1690/220/10/
008970/20121114/142309/1685/1680/10/
008970/20121114/142318/1685/310/10/
008970/20121114/142426/1695/1390/20/
008970/20121114/142427/1695/1300/10/
008970/20121114/142546/1685/520/10/
008970/20121114/142623/1680/210/10/
008970/20121114/142630/1680/2000/10/
008970/20121114/142632/1690/3280/10/
008970/20121114/142648/1690/950/10/
008970/20121114/142729/1690/870/10/
008970/20121114/142751/1680/210/10/
008970/20121114/142947/1680/1030/10/
008970/20121114/143355/1685/470/20/
008970/20121114/143452/1685/730/20/
008970/20121114/143457/1680/13000/10/
008970/20121114/143503/1680/3450/10/
008970/20121114/143512/1680/750/20/
008970/20121114/143527/1680/270/10/
008970/20121114/143536/1680/300/20/
008970/20121114/143632/1675/1260/10/
008970/20121114/143644/1675/290/10/
008970/20121114/143646/1675/1000/10/
008970/20121114/143758/1675/12720/10/
008970/20121114/143758/1680/8000/20/
008970/20121114/143805/1680/1200/20/
008970/20121114/143818/1675/1000/10/
008970/20121114/143843/1680/230/20/
008970/20121114/144010/1680/1020/20/
008970/20121114/144017/1675/150/10/
008970/20121114/144017/1680/2500/20/
008970/20121114/144030/1675/6830/10/
008970/20121114/144033/1680/130/20/
008970/20121114/144147/1675/7230/10/
008970/20121114/144149/1680/730/20/
008970/20121114/144234/1675/130/20/
008970/20121114/144238/1675/200/10/
008970/20121114/144242/1675/1130/10/
008970/20121114/144243/1675/1870/20/
008970/20121114/144243/1680/1130/20/
008970/20121114/144338/1680/3000/20/
008970/20121114/144349/1680/1980/20/
008970/20121114/144429/1680/510/10/
008970/20121114/144455/1685/3580/20/
008970/20121114/144525/1685/350/20/
008970/20121114/144533/1685/150/20/
008970/20121114/144538/1685/100/10/
008970/20121114/144623/1690/1030/20/
008970/20121114/144644/1690/1420/20/
008970/20121114/144821/1685/110/10/
008970/20121114/144825/1685/890/10/
008970/20121114/144835/1685/120/20/
008970/20121114/144853/1685/610/10/
008970/20121114/144855/1690/1330/20/
008970/20121114/144928/1690/10010/10/
008970/20121114/144944/1690/1260/10/
008970/20121114/144947/1690/510/10/
008970/20121114/144957/1690/200/10/
008970/20121114/150000/1680/25720/10/
