008970/20130322/93859/1700/500/20/
008970/20130322/93934/1695/3000/10/
008970/20130322/93957/1700/500/20/
008970/20130322/94131/1700/100/20/
008970/20130322/94148/1700/2670/20/
008970/20130322/94625/1700/290/10/
008970/20130322/94731/1700/2520/10/
008970/20130322/94800/1705/1000/20/
008970/20130322/95043/1705/8050/20/
008970/20130322/95523/1705/170/10/
008970/20130322/95620/1705/200/10/
008970/20130322/100022/1710/670/20/
008970/20130322/100023/1710/7400/20/
008970/20130322/100056/1705/3000/10/
008970/20130322/100121/1710/700/20/
008970/20130322/100133/1705/1000/10/
008970/20130322/100313/1705/690/10/
008970/20130322/100314/1705/2370/20/
008970/20130322/100514/1705/100/10/
008970/20130322/100529/1705/100/20/
008970/20130322/100530/1700/200/10/
008970/20130322/100541/1705/310/20/
008970/20130322/100638/1705/140/20/
008970/20130322/100638/1705/860/20/
008970/20130322/100709/1700/10000/10/
008970/20130322/100855/1705/450/10/
008970/20130322/100922/1710/240/20/
008970/20130322/101137/1710/100/20/
008970/20130322/101446/1705/1230/10/
008970/20130322/101505/1705/90/10/
008970/20130322/101518/1705/980/10/
008970/20130322/101601/1700/10060/10/
008970/20130322/101605/1700/11000/10/
008970/20130322/101719/1700/980/10/
008970/20130322/101926/1700/230/20/
008970/20130322/101942/1700/100/20/
008970/20130322/101946/1700/10000/20/
008970/20130322/102012/1700/500/20/
008970/20130322/102017/1700/140/20/
008970/20130322/102306/1705/130/20/
008970/20130322/102542/1700/5000/10/
008970/20130322/102645/1700/8890/10/
008970/20130322/102721/1700/200/10/
008970/20130322/102744/1705/650/20/
008970/20130322/102907/1705/530/20/
008970/20130322/102912/1705/200/20/
008970/20130322/103011/1700/3000/10/
008970/20130322/103102/1700/3000/10/
008970/20130322/103317/1700/1030/10/
008970/20130322/103629/1705/830/20/
008970/20130322/103729/1705/600/10/
008970/20130322/103844/1705/400/10/
008970/20130322/104823/1705/120/10/
008970/20130322/104908/1710/600/20/
008970/20130322/104920/1710/500/20/
008970/20130322/104950/1710/4450/20/
008970/20130322/104950/1710/2020/20/
008970/20130322/105018/1710/140/20/
008970/20130322/105019/1710/530/10/
008970/20130322/105114/1715/5020/20/
008970/20130322/105516/1710/11730/10/
008970/20130322/105624/1705/8570/10/
008970/20130322/105624/1700/16430/10/
008970/20130322/105626/1710/8510/20/
008970/20130322/105635/1710/4490/10/
008970/20130322/105912/1710/230/20/
008970/20130322/105913/1700/8000/10/
008970/20130322/105932/1700/90/10/
008970/20130322/110025/1700/150/10/
008970/20130322/110051/1705/400/20/
008970/20130322/110120/1705/150/10/
008970/20130322/110447/1700/260/10/
008970/20130322/110536/1700/100/10/
008970/20130322/110750/1700/3500/10/
008970/20130322/111232/1700/1010/10/
008970/20130322/111404/1700/7500/10/
008970/20130322/111451/1700/410/10/
008970/20130322/111523/1700/880/20/
008970/20130322/111544/1700/120/20/
008970/20130322/111603/1700/300/20/
008970/20130322/111719/1700/1000/10/
008970/20130322/111940/1700/1780/10/
008970/20130322/111949/1700/420/20/
008970/20130322/111954/1700/1500/10/
008970/20130322/112024/1700/310/10/
008970/20130322/112024/1700/1190/20/
008970/20130322/112057/1700/1000/10/
008970/20130322/112120/1700/1650/20/
008970/20130322/112133/1700/350/10/
008970/20130322/112340/1700/3110/20/
008970/20130322/112404/1700/100/10/
008970/20130322/112618/1705/110/20/
008970/20130322/112748/1705/120/20/
008970/20130322/112749/1700/9980/10/
008970/20130322/112802/1700/1000/10/
008970/20130322/112807/1700/2000/10/
008970/20130322/112903/1700/2000/10/
008970/20130322/112917/1705/500/20/
008970/20130322/113209/1700/1240/10/
008970/20130322/113214/1700/9450/10/
008970/20130322/113231/1700/140/20/
008970/20130322/113305/1700/120/20/
008970/20130322/113319/1700/110/20/
008970/20130322/113320/1700/100/20/
008970/20130322/113334/1705/130/20/
008970/20130322/113424/1705/100/20/
008970/20130322/113521/1705/100/20/
008970/20130322/113613/1705/360/20/
008970/20130322/113638/1705/410/20/
008970/20130322/113752/1705/640/10/
008970/20130322/113823/1705/110/10/
008970/20130322/113828/1710/170/20/
008970/20130322/114808/1705/690/10/
008970/20130322/114901/1705/200/10/
008970/20130322/115146/1705/100/10/
008970/20130322/115209/1705/100/10/
008970/20130322/115214/1705/100/10/
008970/20130322/115356/1705/400/10/
008970/20130322/115356/1700/190/10/
008970/20130322/120109/1705/910/20/
008970/20130322/120109/1705/110/20/
008970/20130322/120356/1705/560/20/
008970/20130322/121020/1705/100/10/
008970/20130322/121055/1705/150/10/
008970/20130322/121412/1705/3230/10/
008970/20130322/121412/1705/250/20/
008970/20130322/121433/1700/5720/10/
008970/20130322/121649/1705/100/20/
008970/20130322/121727/1700/11180/10/
008970/20130322/121727/1700/90/20/
008970/20130322/121817/1700/110/20/
008970/20130322/121938/1700/120/20/
008970/20130322/122053/1700/110/20/
008970/20130322/122243/1700/110/20/
008970/20130322/122303/1700/100/20/
008970/20130322/122314/1700/1000/20/
008970/20130322/122418/1700/110/20/
008970/20130322/122446/1700/500/20/
008970/20130322/122625/1705/100/20/
008970/20130322/122753/1700/150/10/
008970/20130322/123449/1700/460/10/
008970/20130322/123559/1700/6810/10/
008970/20130322/123615/1705/180/20/
008970/20130322/123627/1700/1740/10/
008970/20130322/123646/1700/2000/10/
008970/20130322/123732/1700/2660/10/
008970/20130322/123732/1695/13830/10/
008970/20130322/124228/1695/1330/10/
008970/20130322/124333/1700/180/20/
008970/20130322/124504/1700/1010/20/
008970/20130322/124546/1700/110/20/
008970/20130322/124747/1700/180/20/
008970/20130322/125113/1700/10000/20/
008970/20130322/125124/1700/1000/20/
008970/20130322/125124/1705/160/20/
008970/20130322/125217/1700/500/10/
008970/20130322/125602/1700/460/10/
008970/20130322/125657/1700/1440/10/
008970/20130322/125958/1705/170/20/
008970/20130322/130058/1700/620/10/
008970/20130322/130416/1700/150/10/
008970/20130322/130554/1700/600/10/
008970/20130322/130644/1700/580/10/
008970/20130322/130801/1705/180/20/
008970/20130322/131148/1705/130/20/
008970/20130322/131600/1700/4570/10/
008970/20130322/131703/1700/430/20/
008970/20130322/131728/1700/1070/10/
008970/20130322/132131/1700/930/20/
008970/20130322/132156/1700/8720/10/
008970/20130322/132345/1700/200/20/
008970/20130322/132455/1695/500/10/
008970/20130322/132459/1700/770/20/
008970/20130322/132537/1700/310/20/
008970/20130322/132602/1700/2240/10/
008970/20130322/132720/1700/760/20/
008970/20130322/132834/1700/2750/10/
008970/20130322/132955/1700/350/10/
008970/20130322/133100/1700/150/20/
008970/20130322/133146/1695/700/10/
008970/20130322/133213/1700/210/20/
008970/20130322/133452/1700/750/20/
008970/20130322/133705/1705/2820/20/
008970/20130322/134354/1705/6070/20/
008970/20130322/134500/1705/1000/10/
008970/20130322/134534/1705/1700/10/
008970/20130322/134547/1710/1100/20/
008970/20130322/134719/1705/1340/10/
008970/20130322/135128/1700/350/10/
008970/20130322/135512/1705/120/20/
008970/20130322/135653/1700/2000/10/
008970/20130322/135819/1700/7000/10/
008970/20130322/135823/1700/7170/10/
008970/20130322/135823/1695/14790/10/
008970/20130322/135823/1690/5570/10/
008970/20130322/135955/1700/4010/10/
008970/20130322/140002/1700/1000/10/
008970/20130322/140006/1700/3000/10/
008970/20130322/140011/1700/450/10/
008970/20130322/140012/1700/1000/20/
008970/20130322/140012/1700/130/20/
008970/20130322/140039/1700/3420/20/
008970/20130322/140738/1700/140/10/
008970/20130322/140739/1700/3580/10/
008970/20130322/140803/1700/100/20/
008970/20130322/141047/1700/1050/10/
008970/20130322/141229/1700/1000/10/
008970/20130322/141231/1700/240/10/
008970/20130322/141303/1700/150/10/
008970/20130322/141338/1700/450/10/
008970/20130322/141537/1700/150/10/
008970/20130322/142041/1700/320/10/
008970/20130322/142136/1700/3200/10/
008970/20130322/142246/1705/100/20/
008970/20130322/142437/1700/200/10/
008970/20130322/142556/1705/17970/20/
008970/20130322/142607/1705/1000/10/
008970/20130322/142716/1705/270/10/
008970/20130322/142741/1705/260/10/
008970/20130322/142749/1705/500/10/
008970/20130322/142805/1705/500/10/
008970/20130322/142916/1705/280/10/
008970/20130322/142922/1705/750/10/
008970/20130322/143053/1705/1780/10/
008970/20130322/143208/1705/500/20/
008970/20130322/143215/1705/140/20/
008970/20130322/143224/1705/2900/20/
008970/20130322/143232/1705/500/20/
008970/20130322/143246/1705/500/20/
008970/20130322/143444/1705/1000/20/
008970/20130322/143500/1700/5500/10/
008970/20130322/143549/1700/6170/10/
008970/20130322/143551/1705/500/20/
008970/20130322/143602/1705/500/20/
008970/20130322/144003/1700/1510/10/
008970/20130322/144019/1700/3000/10/
008970/20130322/144133/1700/5000/10/
008970/20130322/144142/1700/600/10/
008970/20130322/144202/1700/400/10/
008970/20130322/144205/1700/530/10/
008970/20130322/144215/1700/5540/10/
008970/20130322/144222/1700/1000/20/
008970/20130322/144233/1700/910/20/
008970/20130322/144248/1700/200/20/
008970/20130322/144314/1700/140/20/
008970/20130322/144328/1700/1210/20/
008970/20130322/144340/1700/290/10/
008970/20130322/144346/1700/1080/20/
008970/20130322/144446/1700/1010/10/
008970/20130322/144527/1700/210/10/
008970/20130322/144528/1700/5600/10/
008970/20130322/144627/1700/4740/20/
008970/20130322/144644/1700/1600/10/
008970/20130322/144726/1700/200/20/
008970/20130322/144746/1700/300/20/
008970/20130322/144755/1700/500/20/
008970/20130322/144800/1700/500/20/
008970/20130322/144809/1700/500/20/
008970/20130322/144841/1700/500/20/
008970/20130322/144913/1700/330/20/
008970/20130322/144920/1700/450/20/
008970/20130322/144931/1700/450/20/
008970/20130322/144954/1700/220/20/
008970/20130322/150000/1700/43300/20/
