008970/20130125/90000/1775/14010/10/
008970/20130125/90001/1775/2420/10/
008970/20130125/90001/1770/4080/10/
008970/20130125/90009/1780/6290/10/
008970/20130125/90009/1780/530/10/
008970/20130125/90013/1780/6000/10/
008970/20130125/90014/1780/4800/10/
008970/20130125/90018/1780/100/10/
008970/20130125/90044/1785/6020/20/
008970/20130125/90053/1785/1000/20/
008970/20130125/90129/1780/10000/10/
008970/20130125/90130/1780/2450/10/
008970/20130125/90208/1780/1770/20/
008970/20130125/90229/1775/1090/10/
008970/20130125/90239/1775/100/10/
008970/20130125/90253/1775/2000/10/
008970/20130125/90302/1775/9810/10/
008970/20130125/90306/1775/2820/10/
008970/20130125/90308/1775/10000/20/
008970/20130125/90309/1775/2000/20/
008970/20130125/90330/1770/1000/10/
008970/20130125/90335/1770/410/10/
008970/20130125/90336/1775/500/20/
008970/20130125/90349/1770/2530/10/
008970/20130125/90350/1770/250/10/
008970/20130125/90358/1770/500/10/
008970/20130125/90359/1775/2800/20/
008970/20130125/90404/1775/500/20/
008970/20130125/90412/1770/200/10/
008970/20130125/90508/1770/300/10/
008970/20130125/90518/1770/5000/10/
008970/20130125/90526/1770/4000/10/
008970/20130125/90542/1775/650/20/
008970/20130125/90552/1770/5000/10/
008970/20130125/90620/1775/1000/20/
008970/20130125/90628/1770/10000/10/
008970/20130125/90640/1770/2000/10/
008970/20130125/90643/1770/1400/10/
008970/20130125/90644/1770/1860/10/
008970/20130125/90651/1770/110/20/
008970/20130125/90702/1770/120/20/
008970/20130125/90707/1765/10590/10/
008970/20130125/90734/1760/1140/10/
008970/20130125/90735/1760/900/10/
008970/20130125/90740/1760/260/10/
008970/20130125/90744/1760/800/10/
008970/20130125/90753/1760/520/10/
008970/20130125/90753/1760/3000/10/
008970/20130125/90756/1760/900/10/
008970/20130125/90757/1760/10000/10/
008970/20130125/90801/1760/500/10/
008970/20130125/90803/1760/140/10/
008970/20130125/90806/1760/460/20/
008970/20130125/90807/1765/100/20/
008970/20130125/90807/1760/530/10/
008970/20130125/90809/1760/190/10/
008970/20130125/90823/1760/1020/20/
008970/20130125/90823/1755/1500/10/
008970/20130125/90831/1755/540/10/
008970/20130125/90835/1755/300/10/
008970/20130125/90845/1755/1600/10/
008970/20130125/90853/1755/12480/10/
008970/20130125/90853/1755/1220/20/
008970/20130125/90900/1755/330/20/
008970/20130125/90903/1755/500/20/
008970/20130125/90920/1755/130/20/
008970/20130125/90921/1755/100/20/
008970/20130125/90924/1755/2060/20/
008970/20130125/90925/1750/2500/10/
008970/20130125/90926/1755/1570/20/
008970/20130125/90929/1755/300/20/
008970/20130125/90932/1755/300/20/
008970/20130125/90932/1755/100/20/
008970/20130125/90933/1755/1070/20/
008970/20130125/90935/1755/1000/20/
008970/20130125/90937/1755/1000/20/
008970/20130125/90939/1755/160/20/
008970/20130125/90942/1755/1000/20/
008970/20130125/90944/1755/120/20/
008970/20130125/90946/1755/3000/20/
008970/20130125/90946/1755/130/20/
008970/20130125/90950/1755/1000/10/
008970/20130125/90954/1755/170/10/
008970/20130125/91007/1755/500/10/
008970/20130125/91020/1755/800/10/
008970/20130125/91022/1755/300/10/
008970/20130125/91023/1755/1000/10/
008970/20130125/91028/1755/1000/10/
008970/20130125/91031/1755/100/10/
008970/20130125/91032/1755/1410/10/
008970/20130125/91045/1755/100/20/
008970/20130125/91050/1755/2000/20/
008970/20130125/91058/1755/500/20/
008970/20130125/91100/1755/1000/20/
008970/20130125/91103/1755/1000/20/
008970/20130125/91106/1755/670/20/
008970/20130125/91213/1760/170/20/
008970/20130125/91223/1760/2000/20/
008970/20130125/91245/1755/3110/10/
008970/20130125/91247/1755/100/10/
008970/20130125/91248/1760/100/20/
008970/20130125/91334/1755/1510/10/
008970/20130125/91337/1755/540/10/
008970/20130125/91346/1755/1000/10/
008970/20130125/91350/1760/10000/20/
008970/20130125/91404/1760/4510/20/
008970/20130125/91407/1760/190/20/
008970/20130125/91416/1760/3740/20/
008970/20130125/91430/1760/1000/10/
008970/20130125/91452/1760/1000/10/
008970/20130125/91500/1760/4750/10/
008970/20130125/91500/1760/6250/20/
008970/20130125/91503/1760/1000/10/
008970/20130125/91528/1765/350/20/
008970/20130125/91537/1765/100/20/
008970/20130125/91537/1765/1160/20/
008970/20130125/91610/1760/620/10/
008970/20130125/91647/1760/1600/10/
008970/20130125/91655/1760/2000/10/
008970/20130125/91710/1760/260/10/
008970/20130125/91724/1765/1000/20/
008970/20130125/91818/1760/210/10/
008970/20130125/91823/1760/2000/10/
008970/20130125/91848/1760/3000/10/
008970/20130125/91853/1760/2000/10/
008970/20130125/91900/1760/500/10/
008970/20130125/91902/1760/1000/10/
008970/20130125/91928/1760/2570/10/
008970/20130125/91939/1760/430/20/
008970/20130125/91953/1760/120/10/
008970/20130125/92010/1755/370/10/
008970/20130125/92022/1760/1050/20/
008970/20130125/92033/1755/3000/10/
008970/20130125/92033/1760/500/20/
008970/20130125/92048/1760/510/20/
008970/20130125/92057/1755/7990/10/
008970/20130125/92105/1755/1000/10/
008970/20130125/92118/1760/510/20/
008970/20130125/92122/1755/440/10/
008970/20130125/92129/1760/500/20/
008970/20130125/92149/1760/570/20/
008970/20130125/92157/1760/500/20/
008970/20130125/92209/1760/1020/20/
008970/20130125/92213/1760/520/20/
008970/20130125/92217/1760/500/20/
008970/20130125/92217/1760/100/20/
008970/20130125/92222/1760/160/20/
008970/20130125/92226/1760/1000/20/
008970/20130125/92231/1760/2000/20/
008970/20130125/92232/1760/1000/20/
008970/20130125/92232/1760/500/20/
008970/20130125/92246/1760/520/20/
008970/20130125/92252/1755/500/10/
008970/20130125/92311/1755/12880/10/
008970/20130125/92311/1750/21020/10/
008970/20130125/92311/1745/20770/10/
008970/20130125/92311/1740/19150/10/
008970/20130125/92311/1735/6180/10/
008970/20130125/92319/1735/1330/10/
008970/20130125/92338/1745/970/20/
008970/20130125/92348/1745/240/10/
008970/20130125/92352/1745/1110/10/
008970/20130125/92414/1750/7120/20/
008970/20130125/92416/1750/2310/10/
008970/20130125/92456/1750/3960/10/
008970/20130125/92457/1750/1900/20/
008970/20130125/92507/1750/500/20/
008970/20130125/92508/1750/100/20/
008970/20130125/92508/1750/1200/20/
008970/20130125/92516/1750/2000/20/
008970/20130125/92524/1745/800/10/
008970/20130125/92606/1745/2270/10/
008970/20130125/92633/1750/180/20/
008970/20130125/92634/1750/2540/20/
008970/20130125/92636/1750/1430/20/
008970/20130125/92640/1750/100/20/
008970/20130125/92721/1750/130/20/
008970/20130125/92732/1750/2000/20/
008970/20130125/92735/1750/1000/20/
008970/20130125/92736/1750/500/20/
008970/20130125/92737/1750/170/20/
008970/20130125/92739/1750/210/20/
008970/20130125/92740/1750/100/20/
008970/20130125/92744/1750/410/20/
008970/20130125/92759/1755/770/20/
008970/20130125/92805/1755/500/20/
008970/20130125/92807/1755/1000/20/
008970/20130125/92809/1755/320/20/
008970/20130125/92829/1750/130/10/
008970/20130125/92838/1750/3220/10/
008970/20130125/92843/1755/100/10/
008970/20130125/92843/1750/1560/10/
008970/20130125/92846/1750/870/10/
008970/20130125/92856/1750/130/20/
008970/20130125/92905/1750/4650/10/
008970/20130125/92917/1750/500/20/
008970/20130125/92922/1750/500/10/
008970/20130125/92957/1745/5160/10/
008970/20130125/93014/1750/130/20/
008970/20130125/93016/1750/280/20/
008970/20130125/93028/1750/1550/10/
008970/20130125/93031/1750/90/10/
008970/20130125/93108/1750/2030/10/
008970/20130125/93152/1750/90/20/
008970/20130125/93154/1750/100/20/
008970/20130125/93203/1750/110/20/
008970/20130125/93211/1750/100/20/
008970/20130125/93223/1745/1020/10/
008970/20130125/93244/1750/120/20/
008970/20130125/93247/1750/100/20/
008970/20130125/93303/1750/100/20/
008970/20130125/93304/1750/400/20/
008970/20130125/93308/1750/500/20/
008970/20130125/93312/1750/170/20/
008970/20130125/93315/1750/1040/20/
008970/20130125/93357/1750/90/20/
008970/20130125/93402/1750/2370/20/
008970/20130125/93404/1750/360/10/
008970/20130125/93435/1755/200/20/
008970/20130125/93435/1755/100/20/
008970/20130125/93452/1750/160/10/
008970/20130125/93459/1755/100/20/
008970/20130125/93511/1755/200/20/
008970/20130125/93518/1755/100/20/
008970/20130125/93526/1755/400/20/
008970/20130125/93557/1755/110/20/
008970/20130125/93613/1755/100/20/
008970/20130125/93628/1755/100/20/
008970/20130125/93748/1755/1010/20/
008970/20130125/93819/1755/100/20/
008970/20130125/93842/1755/100/10/
008970/20130125/93944/1750/260/10/
008970/20130125/94013/1750/100/10/
008970/20130125/94046/1750/7010/10/
008970/20130125/94047/1755/4830/20/
008970/20130125/94051/1755/500/10/
008970/20130125/94127/1760/15040/20/
008970/20130125/94320/1760/200/20/
008970/20130125/94321/1755/3820/10/
008970/20130125/94327/1755/120/10/
008970/20130125/94443/1755/530/10/
008970/20130125/94524/1755/2060/10/
008970/20130125/94550/1755/1920/10/
008970/20130125/94600/1755/200/10/
008970/20130125/94602/1755/5020/10/
008970/20130125/94623/1755/2340/10/
008970/20130125/94650/1750/160/10/
008970/20130125/94656/1755/1100/20/
008970/20130125/94757/1755/100/20/
008970/20130125/94816/1755/180/20/
008970/20130125/94833/1750/1000/10/
008970/20130125/94847/1755/800/20/
008970/20130125/94914/1755/270/20/
008970/20130125/95005/1750/330/10/
008970/20130125/95103/1750/26460/10/
008970/20130125/95103/1745/2760/10/
008970/20130125/95128/1750/200/20/
008970/20130125/95135/1750/100/20/
008970/20130125/95149/1745/2060/10/
008970/20130125/95150/1745/2000/10/
008970/20130125/95201/1745/5000/10/
008970/20130125/95202/1745/540/10/
008970/20130125/95208/1745/800/10/
008970/20130125/95216/1745/3120/10/
008970/20130125/95231/1745/4500/10/
008970/20130125/95243/1745/430/10/
008970/20130125/95306/1745/1050/10/
008970/20130125/95319/1750/1000/20/
008970/20130125/95322/1750/1000/20/
008970/20130125/95422/1745/150/10/
008970/20130125/95439/1745/3000/10/
008970/20130125/95454/1745/3000/10/
008970/20130125/95508/1745/450/10/
008970/20130125/95601/1745/5380/10/
008970/20130125/95656/1745/1500/10/
008970/20130125/95728/1750/1260/20/
008970/20130125/95827/1745/100/10/
008970/20130125/95838/1745/2380/10/
008970/20130125/95926/1745/3090/10/
008970/20130125/95950/1745/9400/10/
008970/20130125/95954/1745/420/10/
008970/20130125/100022/1745/5470/10/
008970/20130125/100040/1745/1480/10/
008970/20130125/100042/1745/120/10/
008970/20130125/100120/1745/1830/10/
008970/20130125/100219/1745/2500/10/
008970/20130125/100225/1745/3010/10/
008970/20130125/100231/1745/570/20/
008970/20130125/100305/1750/240/20/
008970/20130125/100312/1745/370/10/
008970/20130125/100312/1740/330/10/
008970/20130125/100348/1745/100/10/
008970/20130125/100402/1745/1900/10/
008970/20130125/100429/1745/3140/20/
008970/20130125/100506/1745/150/10/
008970/20130125/100521/1745/4580/10/
008970/20130125/100605/1745/150/10/
008970/20130125/100839/1745/630/10/
008970/20130125/101006/1745/3110/10/
008970/20130125/101011/1745/110/10/
008970/20130125/101016/1745/2530/10/
008970/20130125/101016/1740/770/10/
008970/20130125/101110/1740/110/10/
008970/20130125/101130/1740/600/10/
008970/20130125/101142/1740/3000/10/
008970/20130125/101154/1740/7000/10/
008970/20130125/101240/1740/1000/10/
008970/20130125/101251/1740/14030/10/
008970/20130125/101303/1745/100/20/
008970/20130125/101322/1745/200/20/
008970/20130125/101331/1745/300/20/
008970/20130125/101340/1745/4500/20/
008970/20130125/101356/1745/100/10/
008970/20130125/101506/1740/150/10/
008970/20130125/101527/1740/100/10/
008970/20130125/101607/1740/300/10/
008970/20130125/101709/1745/120/20/
008970/20130125/101736/1740/180/10/
008970/20130125/101853/1745/130/20/
008970/20130125/101908/1740/100/10/
008970/20130125/102000/1740/500/10/
008970/20130125/102017/1740/100/10/
008970/20130125/102040/1745/130/20/
008970/20130125/102107/1745/120/20/
008970/20130125/102330/1745/110/20/
008970/20130125/102411/1745/530/20/
008970/20130125/102421/1745/500/20/
008970/20130125/102441/1745/12340/20/
008970/20130125/102448/1745/300/20/
008970/20130125/102451/1745/300/20/
008970/20130125/102459/1745/2000/20/
008970/20130125/102502/1745/2000/20/
008970/20130125/102502/1745/820/20/
008970/20130125/102531/1750/360/20/
008970/20130125/102554/1750/100/20/
008970/20130125/102619/1750/200/20/
008970/20130125/102651/1750/110/20/
008970/20130125/102852/1750/180/20/
008970/20130125/102908/1750/100/20/
008970/20130125/102959/1750/100/20/
008970/20130125/103039/1750/500/20/
008970/20130125/103303/1745/250/10/
008970/20130125/103318/1745/4480/10/
008970/20130125/103346/1745/1000/10/
008970/20130125/103441/1745/370/10/
008970/20130125/103628/1745/120/10/
008970/20130125/103645/1745/10000/10/
008970/20130125/103659/1745/4000/10/
008970/20130125/103726/1750/160/20/
008970/20130125/103737/1745/250/10/
008970/20130125/103812/1745/1000/10/
008970/20130125/103931/1750/1330/20/
008970/20130125/103936/1750/100/20/
008970/20130125/104044/1750/510/20/
008970/20130125/104055/1750/500/20/
008970/20130125/104105/1750/500/20/
008970/20130125/104114/1750/500/20/
008970/20130125/104136/1750/200/20/
008970/20130125/104139/1750/5750/20/
008970/20130125/104154/1750/5000/10/
008970/20130125/104221/1750/2850/10/
008970/20130125/104259/1750/1000/10/
008970/20130125/104417/1750/310/10/
008970/20130125/104619/1750/360/20/
008970/20130125/104702/1750/370/20/
008970/20130125/104710/1750/1000/10/
008970/20130125/104721/1750/2000/10/
008970/20130125/105123/1755/1720/20/
008970/20130125/105446/1750/1070/10/
008970/20130125/105643/1750/1700/10/
008970/20130125/105721/1750/2000/10/
008970/20130125/105726/1750/6220/10/
008970/20130125/105851/1745/1000/10/
008970/20130125/105911/1745/2000/10/
008970/20130125/105959/1745/3020/10/
008970/20130125/110005/1745/130/10/
008970/20130125/110005/1745/120/10/
008970/20130125/110012/1745/120/10/
008970/20130125/110117/1750/110/20/
008970/20130125/110135/1745/1520/10/
008970/20130125/110231/1745/1500/10/
008970/20130125/110326/1745/1310/10/
008970/20130125/110410/1745/2000/10/
008970/20130125/110416/1745/700/10/
008970/20130125/110435/1745/1060/10/
008970/20130125/110441/1745/340/10/
008970/20130125/110442/1745/120/10/
008970/20130125/110714/1745/160/10/
008970/20130125/110741/1745/500/10/
008970/20130125/110746/1745/4000/10/
008970/20130125/110747/1745/1300/10/
008970/20130125/110819/1745/2690/10/
008970/20130125/110819/1740/2310/10/
008970/20130125/110820/1740/8580/10/
008970/20130125/110847/1740/2650/10/
008970/20130125/110947/1740/7430/10/
008970/20130125/110949/1740/120/10/
008970/20130125/111006/1740/780/10/
008970/20130125/111017/1740/200/20/
008970/20130125/111048/1735/4020/10/
008970/20130125/111128/1735/2000/10/
008970/20130125/111131/1735/27620/10/
008970/20130125/111148/1735/8000/10/
008970/20130125/111150/1735/400/10/
008970/20130125/111210/1735/2980/10/
008970/20130125/111240/1740/720/20/
008970/20130125/111301/1735/520/10/
008970/20130125/111359/1735/900/10/
008970/20130125/111421/1735/19590/10/
008970/20130125/111425/1735/300/20/
008970/20130125/111504/1735/130/20/
008970/20130125/111510/1735/100/20/
008970/20130125/111514/1735/310/20/
008970/20130125/111521/1735/140/20/
008970/20130125/111523/1735/240/20/
008970/20130125/111529/1735/100/20/
008970/20130125/111531/1735/230/20/
008970/20130125/111532/1735/570/20/
008970/20130125/111538/1735/280/20/
008970/20130125/111545/1735/200/20/
008970/20130125/111550/1735/1000/20/
008970/20130125/111603/1730/180/10/
008970/20130125/111604/1730/640/10/
008970/20130125/111611/1735/1010/20/
008970/20130125/111616/1730/280/10/
008970/20130125/111620/1735/1000/20/
008970/20130125/111632/1735/330/20/
008970/20130125/111636/1730/100/10/
008970/20130125/111637/1735/2120/20/
008970/20130125/111701/1735/3360/10/
008970/20130125/111709/1735/680/20/
008970/20130125/111722/1735/9000/10/
008970/20130125/111722/1730/18700/10/
008970/20130125/111738/1735/310/10/
008970/20130125/111738/1730/690/10/
008970/20130125/111741/1730/10000/10/
008970/20130125/111812/1730/11800/10/
008970/20130125/111918/1730/100/10/
008970/20130125/111945/1730/210/10/
008970/20130125/111956/1730/700/10/
008970/20130125/112007/1730/700/10/
008970/20130125/112013/1730/210/10/
008970/20130125/112030/1730/11310/10/
008970/20130125/112117/1735/300/20/
008970/20130125/112204/1735/260/20/
008970/20130125/112240/1730/7340/10/
008970/20130125/112303/1735/100/20/
008970/20130125/112435/1735/900/10/
008970/20130125/112445/1735/740/10/
008970/20130125/112511/1735/400/20/
008970/20130125/112628/1735/2000/10/
008970/20130125/112632/1735/400/10/
008970/20130125/112721/1740/2470/20/
008970/20130125/112734/1740/3710/20/
008970/20130125/112830/1740/1440/10/
008970/20130125/113034/1740/560/20/
008970/20130125/113038/1740/2850/20/
008970/20130125/113239/1740/90/10/
008970/20130125/113320/1740/880/10/
008970/20130125/113336/1740/300/20/
008970/20130125/113419/1740/200/20/
008970/20130125/113559/1740/360/20/
008970/20130125/113610/1740/1000/10/
008970/20130125/113817/1745/200/20/
008970/20130125/113849/1745/500/20/
008970/20130125/113857/1745/3000/20/
008970/20130125/114017/1740/2050/10/
008970/20130125/114152/1740/1500/10/
008970/20130125/114210/1740/720/10/
008970/20130125/114227/1740/200/10/
008970/20130125/114238/1740/600/10/
008970/20130125/114248/1740/400/10/
008970/20130125/114342/1740/1030/10/
008970/20130125/114457/1740/1680/10/
008970/20130125/114458/1745/200/20/
008970/20130125/114632/1740/1000/10/
008970/20130125/114804/1740/200/10/
008970/20130125/114943/1740/500/10/
008970/20130125/114951/1740/600/10/
008970/20130125/115003/1740/400/10/
008970/20130125/115217/1740/270/10/
008970/20130125/115316/1740/1050/10/
008970/20130125/115332/1740/110/10/
008970/20130125/115519/1745/500/20/
008970/20130125/115548/1745/1710/20/
008970/20130125/115550/1745/150/20/
008970/20130125/115602/1740/140/10/
008970/20130125/115621/1740/100/10/
008970/20130125/115707/1745/1000/20/
008970/20130125/115751/1745/1000/20/
008970/20130125/120133/1745/500/20/
008970/20130125/120156/1740/1000/10/
008970/20130125/120357/1740/330/10/
008970/20130125/120410/1745/3000/20/
008970/20130125/121006/1740/140/10/
008970/20130125/121125/1740/2770/10/
008970/20130125/121139/1740/2000/10/
008970/20130125/121609/1740/90/10/
008970/20130125/121624/1740/700/10/
008970/20130125/121709/1740/120/10/
008970/20130125/121737/1745/310/20/
008970/20130125/121738/1740/1000/10/
008970/20130125/121749/1740/770/10/
008970/20130125/121911/1740/13630/10/
008970/20130125/121923/1740/5190/10/
008970/20130125/121923/1735/110/10/
008970/20130125/121923/1735/120/10/
008970/20130125/122025/1740/500/20/
008970/20130125/122033/1740/500/20/
008970/20130125/122242/1740/580/20/
008970/20130125/122306/1740/500/20/
008970/20130125/122319/1740/500/20/
008970/20130125/122320/1740/300/20/
008970/20130125/122349/1735/320/10/
008970/20130125/122401/1735/840/10/
008970/20130125/122420/1740/780/20/
008970/20130125/122520/1740/9000/10/
008970/20130125/122820/1740/320/10/
008970/20130125/122915/1740/5830/20/
008970/20130125/122938/1740/1870/10/
008970/20130125/123350/1740/530/10/
008970/20130125/123412/1740/5160/10/
008970/20130125/123418/1740/120/10/
008970/20130125/123435/1740/200/10/
008970/20130125/123438/1740/200/10/
008970/20130125/123724/1740/1930/10/
008970/20130125/123855/1740/560/20/
008970/20130125/123859/1735/1090/10/
008970/20130125/123924/1740/500/20/
008970/20130125/123954/1740/1000/20/
008970/20130125/124012/1740/100/20/
008970/20130125/124108/1740/100/20/
008970/20130125/124120/1740/9090/20/
008970/20130125/124156/1740/910/10/
008970/20130125/124335/1740/530/20/
008970/20130125/124347/1740/500/20/
008970/20130125/124403/1740/460/20/
008970/20130125/124415/1740/840/10/
008970/20130125/124612/1735/20000/10/
008970/20130125/124719/1735/7090/10/
008970/20130125/124840/1730/1000/10/
008970/20130125/124912/1735/280/20/
008970/20130125/125005/1730/700/10/
008970/20130125/125007/1735/690/20/
008970/20130125/125119/1730/20000/10/
008970/20130125/125204/1735/1010/20/
008970/20130125/125300/1735/500/20/
008970/20130125/125313/1735/500/20/
008970/20130125/125331/1735/500/20/
008970/20130125/125340/1735/500/20/
008970/20130125/125404/1735/90/20/
008970/20130125/125549/1735/510/20/
008970/20130125/125553/1735/1150/20/
008970/20130125/125557/1735/500/20/
008970/20130125/125604/1735/500/20/
008970/20130125/125612/1735/500/20/
008970/20130125/125724/1735/11630/20/
008970/20130125/125915/1735/2060/20/
008970/20130125/125951/1730/1610/10/
008970/20130125/130020/1735/500/20/
008970/20130125/130039/1735/1000/20/
008970/20130125/130051/1735/440/20/
008970/20130125/130129/1730/490/10/
008970/20130125/130140/1730/3000/10/
008970/20130125/130149/1730/200/10/
008970/20130125/130202/1735/560/20/
008970/20130125/130239/1735/500/20/
008970/20130125/130329/1735/750/20/
008970/20130125/130336/1730/1000/10/
008970/20130125/130350/1730/700/10/
008970/20130125/130406/1730/2000/10/
008970/20130125/130412/1730/2670/10/
008970/20130125/130427/1730/2880/10/
008970/20130125/130441/1730/15000/10/
008970/20130125/130447/1730/3000/10/
008970/20130125/130451/1730/120/10/
008970/20130125/130455/1730/10000/10/
008970/20130125/130458/1730/2000/10/
008970/20130125/130508/1730/500/10/
008970/20130125/130517/1730/8000/10/
008970/20130125/130517/1730/7730/10/
008970/20130125/130553/1725/330/10/
008970/20130125/130553/1725/600/10/
008970/20130125/130621/1730/850/20/
008970/20130125/130651/1730/500/20/
008970/20130125/130654/1730/300/20/
008970/20130125/130702/1725/7670/10/
008970/20130125/130714/1725/1010/10/
008970/20130125/130714/1730/440/20/
008970/20130125/130752/1730/520/20/
008970/20130125/130834/1725/23160/10/
008970/20130125/130846/1725/6340/20/
008970/20130125/130847/1725/100/20/
008970/20130125/130854/1725/100/20/
008970/20130125/130901/1725/180/20/
008970/20130125/130917/1725/180/20/
008970/20130125/130931/1725/1000/20/
008970/20130125/130944/1725/110/20/
008970/20130125/130947/1725/1000/20/
008970/20130125/130950/1725/16650/20/
008970/20130125/130950/1725/3350/10/
008970/20130125/130950/1720/1650/10/
008970/20130125/131009/1730/440/20/
008970/20130125/131128/1725/1170/10/
008970/20130125/131326/1725/1630/10/
008970/20130125/131450/1725/140/10/
008970/20130125/131600/1730/2440/20/
008970/20130125/131604/1730/370/20/
008970/20130125/131621/1730/90/20/
008970/20130125/131738/1725/640/10/
008970/20130125/131807/1725/800/10/
008970/20130125/131917/1730/90/20/
008970/20130125/131932/1730/90/20/
008970/20130125/132112/1725/18890/10/
008970/20130125/132134/1725/110/20/
008970/20130125/132214/1725/330/20/
008970/20130125/132226/1720/4000/10/
008970/20130125/132235/1720/2520/10/
008970/20130125/132248/1725/3000/20/
008970/20130125/132258/1725/4620/20/
008970/20130125/132333/1725/920/10/
008970/20130125/132412/1725/240/10/
008970/20130125/132420/1725/520/10/
008970/20130125/132442/1725/100/10/
008970/20130125/132451/1720/5740/10/
008970/20130125/132455/1725/100/20/
008970/20130125/132601/1725/530/20/
008970/20130125/132626/1725/510/20/
008970/20130125/132645/1720/500/10/
008970/20130125/132706/1720/1080/10/
008970/20130125/132842/1720/580/10/
008970/20130125/132849/1725/1200/20/
008970/20130125/132905/1725/110/20/
008970/20130125/132923/1725/2000/20/
008970/20130125/132926/1725/3470/20/
008970/20130125/132955/1725/7010/10/
008970/20130125/132959/1725/1230/10/
008970/20130125/132959/1720/28770/10/
008970/20130125/133022/1720/2000/10/
008970/20130125/133101/1720/150/10/
008970/20130125/133123/1720/2000/10/
008970/20130125/133132/1720/1090/10/
008970/20130125/133134/1725/15010/20/
008970/20130125/133137/1725/3340/20/
008970/20130125/133201/1725/2650/10/
008970/20130125/133210/1725/3300/20/
008970/20130125/133210/1725/590/20/
008970/20130125/133223/1720/4200/10/
008970/20130125/133232/1720/1000/10/
008970/20130125/133253/1725/500/20/
008970/20130125/133300/1725/100/20/
008970/20130125/133401/1725/500/20/
008970/20130125/133454/1725/1000/20/
008970/20130125/133502/1725/120/20/
008970/20130125/133523/1725/160/20/
008970/20130125/133643/1725/160/20/
008970/20130125/133652/1725/4000/20/
008970/20130125/133702/1725/660/20/
008970/20130125/133707/1725/150/20/
008970/20130125/133715/1725/110/20/
008970/20130125/133752/1725/210/20/
008970/20130125/133807/1725/120/20/
008970/20130125/133840/1725/120/20/
008970/20130125/133933/1725/500/20/
008970/20130125/133936/1725/100/20/
008970/20130125/133949/1725/500/20/
008970/20130125/133959/1725/100/20/
008970/20130125/134017/1725/300/20/
008970/20130125/134021/1725/160/20/
008970/20130125/134023/1720/600/10/
008970/20130125/134051/1725/180/20/
008970/20130125/134106/1725/1040/20/
008970/20130125/134111/1725/1000/20/
008970/20130125/134120/1725/1000/20/
008970/20130125/134157/1720/770/10/
008970/20130125/134158/1720/380/10/
008970/20130125/134205/1725/3000/20/
008970/20130125/134214/1725/1000/20/
008970/20130125/134221/1720/2500/10/
008970/20130125/134230/1725/4970/20/
008970/20130125/134231/1725/400/10/
008970/20130125/134305/1725/900/10/
008970/20130125/134316/1725/200/10/
008970/20130125/134324/1725/200/10/
008970/20130125/134505/1730/2270/20/
008970/20130125/134508/1730/1000/20/
008970/20130125/134646/1730/150/20/
008970/20130125/134656/1725/500/10/
008970/20130125/134735/1725/2150/10/
008970/20130125/134752/1725/1000/10/
008970/20130125/134753/1725/100/10/
008970/20130125/134755/1730/200/20/
008970/20130125/134756/1725/7370/10/
008970/20130125/134858/1725/110/10/
008970/20130125/134859/1730/1000/20/
008970/20130125/134905/1730/5000/20/
008970/20130125/134928/1730/200/20/
008970/20130125/134936/1730/100/20/
008970/20130125/134952/1730/160/20/
008970/20130125/134957/1730/1000/20/
008970/20130125/135051/1730/90/20/
008970/20130125/135106/1730/760/20/
008970/20130125/135117/1730/390/20/
008970/20130125/135303/1730/410/20/
008970/20130125/135316/1725/190/10/
008970/20130125/135337/1730/510/20/
008970/20130125/135342/1730/140/20/
008970/20130125/135348/1725/100/10/
008970/20130125/135352/1730/660/20/
008970/20130125/135553/1730/1900/10/
008970/20130125/135559/1730/230/20/
008970/20130125/135620/1730/5780/20/
008970/20130125/135726/1730/100/20/
008970/20130125/135734/1730/100/20/
008970/20130125/135738/1730/100/20/
008970/20130125/135745/1730/1060/20/
008970/20130125/135809/1730/140/20/
008970/20130125/135825/1730/550/20/
008970/20130125/135841/1730/270/20/
008970/20130125/135859/1730/220/20/
008970/20130125/135913/1725/110/10/
008970/20130125/140015/1730/420/20/
008970/20130125/140051/1730/11870/20/
008970/20130125/140104/1730/880/20/
008970/20130125/140124/1735/2510/20/
008970/20130125/140131/1735/680/20/
008970/20130125/140226/1730/1050/10/
008970/20130125/140234/1730/1000/10/
008970/20130125/140234/1735/220/20/
008970/20130125/140314/1735/2170/20/
008970/20130125/140323/1735/2000/20/
008970/20130125/140329/1735/200/20/
008970/20130125/140521/1730/230/10/
008970/20130125/140709/1735/1230/20/
008970/20130125/140720/1730/440/10/
008970/20130125/140721/1730/130/10/
008970/20130125/140745/1730/660/10/
008970/20130125/140800/1730/780/10/
008970/20130125/140950/1730/160/20/
008970/20130125/141031/1730/2500/20/
008970/20130125/141112/1730/100/20/
008970/20130125/141131/1730/500/20/
008970/20130125/141144/1725/5660/10/
008970/20130125/141305/1725/690/10/
008970/20130125/141306/1725/100/10/
008970/20130125/141445/1730/100/20/
008970/20130125/141457/1730/100/20/
008970/20130125/141652/1725/2020/10/
008970/20130125/141710/1725/5000/10/
008970/20130125/141723/1725/2000/10/
008970/20130125/141724/1725/9000/10/
008970/20130125/141727/1725/4000/10/
008970/20130125/141730/1725/1000/10/
008970/20130125/141732/1725/590/10/
008970/20130125/141735/1725/130/10/
008970/20130125/141736/1725/630/10/
008970/20130125/141824/1725/100/20/
008970/20130125/142000/1725/4920/20/
008970/20130125/142016/1725/110/10/
008970/20130125/142018/1725/1000/20/
008970/20130125/142028/1725/350/20/
008970/20130125/142108/1725/2660/10/
008970/20130125/142211/1725/110/20/
008970/20130125/142253/1725/100/20/
008970/20130125/142314/1725/3690/20/
008970/20130125/142320/1725/550/20/
008970/20130125/142335/1725/100/20/
008970/20130125/142401/1725/110/20/
008970/20130125/142407/1725/2710/20/
008970/20130125/142414/1725/5110/10/
008970/20130125/142424/1725/390/10/
008970/20130125/142424/1725/1090/10/
008970/20130125/142518/1730/1100/20/
008970/20130125/142707/1725/3020/10/
008970/20130125/142722/1725/500/10/
008970/20130125/142733/1725/500/10/
008970/20130125/142852/1725/140/10/
008970/20130125/142906/1725/2600/10/
008970/20130125/142939/1725/160/10/
008970/20130125/142954/1725/160/10/
008970/20130125/142955/1730/20940/10/
008970/20130125/143018/1730/9060/10/
008970/20130125/143116/1730/5850/20/
008970/20130125/143203/1735/140/20/
008970/20130125/143212/1730/4650/10/
008970/20130125/143218/1725/1160/10/
008970/20130125/143259/1730/1000/20/
008970/20130125/143326/1730/1000/20/
008970/20130125/143422/1735/510/20/
008970/20130125/143653/1730/190/10/
008970/20130125/143721/1730/3080/10/
008970/20130125/143803/1735/5880/20/
008970/20130125/143833/1740/510/20/
008970/20130125/144057/1740/530/20/
008970/20130125/144103/1735/190/10/
008970/20130125/144151/1740/520/20/
008970/20130125/144210/1740/1010/20/
008970/20130125/144326/1740/3850/20/
008970/20130125/144340/1740/160/10/
008970/20130125/144343/1740/440/20/
008970/20130125/144343/1745/1160/20/
008970/20130125/144414/1745/110/20/
008970/20130125/144438/1745/3550/20/
008970/20130125/144514/1745/120/20/
008970/20130125/144544/1745/100/20/
008970/20130125/144600/1740/3120/10/
008970/20130125/144609/1740/240/20/
008970/20130125/144609/1745/1500/20/
008970/20130125/144640/1745/1500/20/
008970/20130125/144711/1740/3370/10/
008970/20130125/144718/1735/2670/10/
008970/20130125/144757/1740/130/20/
008970/20130125/144810/1740/900/20/
008970/20130125/144810/1740/580/20/
008970/20130125/144821/1735/19790/10/
008970/20130125/144827/1735/220/20/
008970/20130125/144902/1740/3310/20/
008970/20130125/144933/1740/200/20/
008970/20130125/144934/1735/3000/10/
008970/20130125/150000/1740/42500/10/
