008970/20121129/90000/1650/1190/10/
008970/20121129/90057/1655/200/20/
008970/20121129/90112/1660/220/20/
008970/20121129/90127/1660/200/20/
008970/20121129/90157/1660/1280/20/
008970/20121129/90207/1660/150/20/
008970/20121129/90210/1660/400/20/
008970/20121129/90314/1655/160/10/
008970/20121129/90501/1660/260/20/
008970/20121129/90521/1660/470/20/
008970/20121129/90626/1655/1350/10/
008970/20121129/90626/1650/650/10/
008970/20121129/90714/1650/820/10/
008970/20121129/90757/1650/250/20/
008970/20121129/90908/1650/100/20/
008970/20121129/90913/1650/2290/20/
008970/20121129/90959/1660/90/20/
008970/20121129/91053/1650/1740/10/
008970/20121129/91120/1650/110/20/
008970/20121129/91223/1650/180/20/
008970/20121129/91301/1655/730/20/
008970/20121129/91417/1655/1010/20/
008970/20121129/91500/1655/870/20/
008970/20121129/91535/1650/540/10/
008970/20121129/91637/1650/300/20/
008970/20121129/91641/1650/1860/20/
008970/20121129/91914/1650/3000/10/
008970/20121129/92011/1650/2000/10/
008970/20121129/92051/1650/200/10/
008970/20121129/92132/1645/900/10/
008970/20121129/92321/1650/220/20/
008970/20121129/92433/1650/180/20/
008970/20121129/92437/1650/300/20/
008970/20121129/92449/1650/100/20/
008970/20121129/92510/1645/12000/10/
008970/20121129/92527/1645/560/10/
008970/20121129/92534/1650/90/20/
008970/20121129/92737/1650/130/20/
008970/20121129/92807/1645/560/10/
008970/20121129/93026/1650/4150/10/
008970/20121129/93152/1655/11620/20/
008970/20121129/93152/1660/7200/20/
008970/20121129/93152/1665/1180/20/
008970/20121129/93206/1665/10000/20/
008970/20121129/93222/1665/3350/20/
008970/20121129/93222/1670/2500/20/
008970/20121129/93225/1670/10000/20/
008970/20121129/93229/1670/8290/20/
008970/20121129/93229/1670/1710/10/
008970/20121129/93233/1670/120/20/
008970/20121129/93250/1660/260/10/
008970/20121129/93300/1670/500/20/
008970/20121129/93343/1670/500/20/
008970/20121129/93527/1660/910/10/
008970/20121129/93607/1660/1380/20/
008970/20121129/93651/1660/280/10/
008970/20121129/93714/1655/1900/10/
008970/20121129/93727/1655/120/10/
008970/20121129/93906/1660/380/20/
008970/20121129/93932/1655/1000/10/
008970/20121129/94018/1655/760/10/
008970/20121129/94309/1655/2590/10/
008970/20121129/94319/1655/1220/10/
008970/20121129/94319/1650/6810/10/
008970/20121129/94624/1655/1010/20/
008970/20121129/94627/1650/3760/10/
008970/20121129/94714/1655/990/20/
008970/20121129/94852/1660/2340/20/
008970/20121129/94852/1665/2710/20/
008970/20121129/94905/1655/1000/10/
008970/20121129/95303/1655/3100/10/
008970/20121129/95824/1660/100/20/
008970/20121129/100146/1655/510/10/
008970/20121129/100741/1660/1040/10/
008970/20121129/100748/1660/1490/10/
008970/20121129/100814/1655/4990/10/
008970/20121129/101246/1660/600/20/
008970/20121129/101246/1665/7310/20/
008970/20121129/101801/1660/100/10/
008970/20121129/102135/1665/1570/20/
008970/20121129/102220/1665/500/20/
008970/20121129/102602/1660/560/10/
008970/20121129/102827/1660/520/10/
008970/20121129/102829/1660/1000/10/
008970/20121129/103155/1660/390/10/
008970/20121129/103206/1655/1000/10/
008970/20121129/103448/1660/160/20/
008970/20121129/103449/1660/490/10/
008970/20121129/103458/1660/400/10/
008970/20121129/103521/1660/3720/10/
008970/20121129/103633/1660/520/20/
008970/20121129/103712/1660/4980/20/
008970/20121129/103745/1660/140/20/
008970/20121129/103849/1660/130/20/
008970/20121129/104007/1655/1400/10/
008970/20121129/104020/1655/1000/20/
008970/20121129/104233/1655/120/20/
008970/20121129/104326/1655/3440/20/
008970/20121129/104335/1655/500/20/
008970/20121129/104458/1655/220/20/
008970/20121129/104500/1650/2300/10/
008970/20121129/104524/1650/1500/10/
008970/20121129/104635/1650/2500/10/
008970/20121129/104653/1655/10940/20/
008970/20121129/104923/1650/1020/10/
008970/20121129/105309/1655/2040/20/
008970/20121129/105632/1655/230/20/
008970/20121129/110024/1650/100/10/
008970/20121129/110039/1650/400/10/
008970/20121129/110225/1650/1270/10/
008970/20121129/110249/1650/6000/10/
008970/20121129/110413/1650/300/10/
008970/20121129/110452/1650/1000/10/
008970/20121129/110509/1655/3920/20/
008970/20121129/110623/1655/840/10/
008970/20121129/110937/1660/1820/20/
008970/20121129/110954/1660/1000/20/
008970/20121129/111001/1660/200/20/
008970/20121129/111042/1660/110/20/
008970/20121129/111109/1660/3620/20/
008970/20121129/111142/1660/300/20/
008970/20121129/111143/1660/600/20/
008970/20121129/111302/1660/1800/20/
008970/20121129/111320/1660/1000/20/
008970/20121129/111330/1660/1000/20/
008970/20121129/111459/1660/300/20/
008970/20121129/111631/1655/500/10/
008970/20121129/111847/1660/130/20/
008970/20121129/112037/1660/1630/20/
008970/20121129/112222/1660/3030/20/
008970/20121129/112359/1660/3890/20/
008970/20121129/112615/1660/100/10/
008970/20121129/112723/1660/280/10/
008970/20121129/112731/1660/7560/10/
008970/20121129/112741/1660/290/20/
008970/20121129/112811/1655/8290/10/
008970/20121129/112859/1660/500/20/
008970/20121129/112909/1660/90/20/
008970/20121129/113026/1655/3000/10/
008970/20121129/113155/1655/2000/10/
008970/20121129/113241/1655/3620/10/
008970/20121129/113257/1655/3000/10/
008970/20121129/113557/1655/1070/10/
008970/20121129/113610/1650/1940/10/
008970/20121129/113754/1655/170/10/
008970/20121129/114413/1655/190/20/
008970/20121129/114514/1655/180/10/
008970/20121129/114804/1655/100/10/
008970/20121129/115049/1660/2000/20/
008970/20121129/115213/1655/1030/10/
008970/20121129/115509/1660/540/20/
008970/20121129/115534/1660/500/20/
008970/20121129/120012/1655/300/10/
008970/20121129/120020/1660/500/20/
008970/20121129/120129/1660/300/20/
008970/20121129/120419/1655/330/10/
008970/20121129/120733/1660/300/20/
008970/20121129/120745/1655/240/10/
008970/20121129/120755/1655/300/10/
008970/20121129/120858/1655/250/10/
008970/20121129/121344/1660/2520/20/
008970/20121129/121348/1655/300/10/
008970/20121129/121452/1655/800/10/
008970/20121129/122351/1660/240/20/
008970/20121129/123254/1655/220/10/
008970/20121129/123413/1655/280/10/
008970/20121129/123428/1655/1000/10/
008970/20121129/123558/1655/420/10/
008970/20121129/123647/1655/3770/20/
008970/20121129/123932/1655/300/10/
008970/20121129/123939/1655/110/20/
008970/20121129/123946/1655/970/20/
008970/20121129/124421/1655/110/10/
008970/20121129/124936/1660/1860/20/
008970/20121129/124939/1655/1000/10/
008970/20121129/125017/1655/2400/10/
008970/20121129/125055/1660/570/20/
008970/20121129/125133/1655/300/10/
008970/20121129/125202/1655/1420/10/
008970/20121129/125257/1655/200/10/
008970/20121129/125759/1655/160/10/
008970/20121129/125811/1655/3300/10/
008970/20121129/125916/1655/160/10/
008970/20121129/130112/1660/710/20/
008970/20121129/130230/1660/260/20/
008970/20121129/130711/1660/90/10/
008970/20121129/130714/1660/470/10/
008970/20121129/130831/1655/6070/10/
008970/20121129/130845/1655/6000/10/
008970/20121129/130940/1655/1460/10/
008970/20121129/131029/1655/3440/10/
008970/20121129/131036/1655/6930/10/
008970/20121129/131112/1650/1840/10/
008970/20121129/131112/1655/8160/20/
008970/20121129/131218/1655/700/20/
008970/20121129/131319/1650/3090/10/
008970/20121129/131401/1650/500/10/
008970/20121129/131636/1655/830/20/
008970/20121129/131717/1650/850/10/
008970/20121129/131913/1650/1400/10/
008970/20121129/132022/1655/90/20/
008970/20121129/132115/1655/1660/20/
008970/20121129/132116/1655/4360/10/
008970/20121129/132247/1655/110/10/
008970/20121129/132406/1655/300/10/
008970/20121129/132407/1655/870/10/
008970/20121129/132416/1655/200/10/
008970/20121129/132431/1655/300/10/
008970/20121129/132433/1655/1000/10/
008970/20121129/132812/1655/2000/10/
008970/20121129/132819/1655/1080/10/
008970/20121129/133103/1655/1400/10/
008970/20121129/133108/1655/600/20/
008970/20121129/133234/1655/400/10/
008970/20121129/133312/1655/1680/10/
008970/20121129/133338/1655/100/10/
008970/20121129/133415/1655/220/10/
008970/20121129/133531/1660/1000/20/
008970/20121129/133531/1655/900/10/
008970/20121129/133646/1660/300/20/
008970/20121129/133736/1660/2000/20/
008970/20121129/133849/1660/110/20/
008970/20121129/133925/1660/6000/20/
008970/20121129/134024/1660/300/20/
008970/20121129/134028/1660/430/20/
008970/20121129/134100/1665/6000/20/
008970/20121129/134101/1665/6000/20/
008970/20121129/134133/1665/6000/20/
008970/20121129/134135/1665/4990/20/
008970/20121129/134140/1665/1010/10/
008970/20121129/134140/1660/1970/10/
008970/20121129/134140/1655/200/10/
008970/20121129/134140/1650/820/10/
008970/20121129/134238/1665/100/20/
008970/20121129/134253/1665/300/20/
008970/20121129/134307/1665/200/20/
008970/20121129/134405/1655/3330/10/
008970/20121129/134504/1660/500/10/
008970/20121129/134724/1655/1550/20/
008970/20121129/134726/1665/90/20/
008970/20121129/134736/1665/900/20/
008970/20121129/134823/1665/2000/20/
008970/20121129/134830/1665/3000/20/
008970/20121129/135102/1665/2000/20/
008970/20121129/135211/1660/1610/10/
008970/20121129/135211/1655/2990/10/
008970/20121129/135308/1655/1520/10/
008970/20121129/135403/1665/1000/20/
008970/20121129/135602/1665/100/20/
008970/20121129/140101/1660/560/20/
008970/20121129/140430/1655/550/10/
008970/20121129/140430/1650/2160/10/
008970/20121129/140444/1655/210/20/
008970/20121129/140717/1650/1050/10/
008970/20121129/140751/1655/500/20/
008970/20121129/140814/1650/17420/10/
008970/20121129/140915/1645/510/10/
008970/20121129/140924/1645/100/10/
008970/20121129/140958/1650/350/20/
008970/20121129/141015/1645/400/10/
008970/20121129/141022/1650/2000/20/
008970/20121129/141025/1650/200/20/
008970/20121129/141031/1650/100/10/
008970/20121129/141041/1650/100/20/
008970/20121129/141100/1650/200/20/
008970/20121129/141243/1650/510/10/
008970/20121129/141304/1650/300/10/
008970/20121129/141434/1655/110/20/
008970/20121129/141537/1650/1690/10/
008970/20121129/141537/1645/810/10/
008970/20121129/141617/1645/1560/10/
008970/20121129/141731/1645/2000/10/
008970/20121129/141803/1655/150/20/
008970/20121129/141848/1650/1000/10/
008970/20121129/142119/1650/510/10/
008970/20121129/142205/1650/3040/10/
008970/20121129/142223/1650/900/10/
008970/20121129/142359/1650/1000/10/
008970/20121129/142448/1655/110/20/
008970/20121129/142846/1650/500/10/
008970/20121129/143010/1650/460/10/
008970/20121129/143018/1650/910/10/
008970/20121129/143048/1650/200/20/
008970/20121129/143116/1650/530/10/
008970/20121129/143116/1645/490/10/
008970/20121129/143155/1645/6000/10/
008970/20121129/143237/1645/740/10/
008970/20121129/143318/1645/18290/10/
008970/20121129/143329/1640/500/10/
008970/20121129/143340/1640/15000/10/
008970/20121129/143343/1640/2410/10/
008970/20121129/143345/1635/1710/10/
008970/20121129/143352/1640/5000/20/
008970/20121129/143359/1640/1000/20/
008970/20121129/143400/1640/300/20/
008970/20121129/143401/1640/2400/20/
008970/20121129/143500/1640/100/10/
008970/20121129/143651/1640/540/10/
008970/20121129/143725/1645/210/10/
008970/20121129/143945/1645/490/10/
008970/20121129/143954/1645/100/10/
008970/20121129/144306/1645/1010/10/
008970/20121129/144618/1645/90/10/
008970/20121129/144724/1650/1010/20/
008970/20121129/144800/1645/500/10/
008970/20121129/144814/1645/100/10/
008970/20121129/144905/1645/1720/10/
008970/20121129/144926/1650/510/20/
008970/20121129/144953/1645/550/10/
008970/20121129/150000/1645/13830/10/
