008970/20121121/90000/1670/1460/20/
008970/20121121/90003/1670/100/20/
008970/20121121/90008/1670/700/20/
008970/20121121/90027/1670/440/20/
008970/20121121/90027/1670/1050/10/
008970/20121121/90132/1670/150/20/
008970/20121121/90202/1660/1380/10/
008970/20121121/90220/1660/270/10/
008970/20121121/90224/1660/1030/20/
008970/20121121/90229/1660/900/10/
008970/20121121/90239/1660/2000/10/
008970/20121121/90251/1660/200/10/
008970/20121121/90331/1660/4000/10/
008970/20121121/90403/1660/9760/10/
008970/20121121/90427/1660/4070/10/
008970/20121121/90503/1660/630/10/
008970/20121121/90655/1670/4640/20/
008970/20121121/90710/1670/380/10/
008970/20121121/90727/1670/1000/20/
008970/20121121/90739/1670/250/20/
008970/20121121/90830/1670/390/10/
008970/20121121/90841/1665/950/10/
008970/20121121/90852/1665/3800/10/
008970/20121121/90932/1665/700/10/
008970/20121121/90949/1660/100/10/
008970/20121121/91059/1660/1010/10/
008970/20121121/91113/1660/580/10/
008970/20121121/91116/1665/1250/20/
008970/20121121/91129/1665/1800/20/
008970/20121121/91131/1665/200/20/
008970/20121121/91133/1665/700/20/
008970/20121121/91156/1665/450/20/
008970/20121121/91228/1665/540/20/
008970/20121121/91349/1665/110/20/
008970/20121121/91353/1665/250/20/
008970/20121121/91400/1670/200/20/
008970/20121121/91535/1670/5000/20/
008970/20121121/91611/1670/580/20/
008970/20121121/91645/1675/10080/20/
008970/20121121/91646/1675/250/10/
008970/20121121/91713/1675/120/10/
008970/20121121/91714/1675/500/10/
008970/20121121/91750/1670/2800/10/
008970/20121121/91838/1670/360/20/
008970/20121121/91844/1670/200/10/
008970/20121121/91846/1670/500/10/
008970/20121121/91905/1670/5000/10/
008970/20121121/91908/1675/2000/20/
008970/20121121/91919/1675/500/20/
008970/20121121/91929/1670/1400/10/
008970/20121121/91933/1670/100/10/
008970/20121121/92001/1670/240/10/
008970/20121121/92007/1670/2370/10/
008970/20121121/92009/1670/2120/20/
008970/20121121/92048/1670/250/10/
008970/20121121/92049/1670/3000/10/
008970/20121121/92057/1670/1730/10/
008970/20121121/92109/1670/4000/20/
008970/20121121/92118/1670/4270/20/
008970/20121121/92137/1670/1930/10/
008970/20121121/92137/1665/3070/10/
008970/20121121/92228/1665/200/10/
008970/20121121/92534/1665/200/10/
008970/20121121/92744/1670/5000/20/
008970/20121121/92757/1670/100/20/
008970/20121121/92759/1670/100/20/
008970/20121121/92800/1670/100/20/
008970/20121121/92822/1670/100/20/
008970/20121121/93001/1670/250/20/
008970/20121121/93011/1665/1220/10/
008970/20121121/93134/1665/800/10/
008970/20121121/93235/1665/500/10/
008970/20121121/93248/1665/10710/10/
008970/20121121/93431/1665/1390/10/
008970/20121121/93438/1665/2590/20/
008970/20121121/93438/1670/410/20/
008970/20121121/93529/1670/2370/20/
008970/20121121/93541/1670/2330/20/
008970/20121121/93758/1670/3010/10/
008970/20121121/93852/1670/240/10/
008970/20121121/93925/1670/400/10/
008970/20121121/93926/1670/2000/10/
008970/20121121/93950/1670/300/20/
008970/20121121/94236/1670/610/10/
008970/20121121/94259/1670/1000/10/
008970/20121121/94528/1670/160/10/
008970/20121121/94635/1670/1860/10/
008970/20121121/94723/1670/270/20/
008970/20121121/94741/1670/1190/20/
008970/20121121/94759/1670/100/20/
008970/20121121/94810/1665/510/10/
008970/20121121/94824/1670/1000/20/
008970/20121121/94843/1670/500/20/
008970/20121121/94942/1670/680/20/
008970/20121121/94954/1665/2000/10/
008970/20121121/95017/1665/500/10/
008970/20121121/95126/1665/2160/10/
008970/20121121/95137/1665/10000/10/
008970/20121121/95243/1665/300/10/
008970/20121121/95657/1665/180/10/
008970/20121121/95715/1665/180/10/
008970/20121121/95800/1670/800/20/
008970/20121121/100008/1670/210/20/
008970/20121121/100222/1670/100/20/
008970/20121121/100315/1670/590/20/
008970/20121121/100351/1665/100/10/
008970/20121121/100414/1665/270/10/
008970/20121121/100429/1665/1000/10/
008970/20121121/100552/1665/90/20/
008970/20121121/100605/1665/880/20/
008970/20121121/101309/1670/1330/20/
008970/20121121/101408/1665/650/10/
008970/20121121/101440/1665/550/10/
008970/20121121/101721/1665/3960/10/
008970/20121121/101721/1660/510/10/
008970/20121121/101738/1670/100/20/
008970/20121121/101951/1665/190/10/
008970/20121121/102016/1665/110/20/
008970/20121121/102138/1670/90/20/
008970/20121121/102243/1670/100/20/
008970/20121121/102442/1665/670/10/
008970/20121121/102921/1670/130/20/
008970/20121121/103052/1670/1000/20/
008970/20121121/103055/1665/220/10/
008970/20121121/103121/1665/1100/10/
008970/20121121/103148/1665/300/10/
008970/20121121/103208/1665/600/10/
008970/20121121/103401/1665/3040/10/
008970/20121121/103438/1665/500/20/
008970/20121121/103458/1665/1490/20/
008970/20121121/103527/1665/100/20/
008970/20121121/103549/1665/740/20/
008970/20121121/103835/1665/800/10/
008970/20121121/103841/1660/1300/10/
008970/20121121/104017/1665/710/20/
008970/20121121/104206/1665/140/10/
008970/20121121/104223/1665/110/20/
008970/20121121/104224/1660/100/10/
008970/20121121/104431/1665/660/20/
008970/20121121/104530/1665/100/10/
008970/20121121/104612/1665/270/10/
008970/20121121/104713/1665/330/10/
008970/20121121/104825/1665/510/10/
008970/20121121/104835/1665/370/10/
008970/20121121/104914/1665/510/20/
008970/20121121/104926/1665/100/20/
008970/20121121/104950/1665/200/20/
008970/20121121/105008/1665/220/20/
008970/20121121/105019/1665/820/20/
008970/20121121/105108/1665/3000/10/
008970/20121121/105425/1665/9460/10/
008970/20121121/105434/1665/540/20/
008970/20121121/105514/1665/7460/10/
008970/20121121/105538/1665/1000/20/
008970/20121121/105602/1665/1560/20/
008970/20121121/105728/1670/7980/20/
008970/20121121/105728/1670/2000/10/
008970/20121121/105800/1670/1000/10/
008970/20121121/105807/1670/2000/10/
008970/20121121/105808/1670/1180/10/
008970/20121121/110110/1665/1680/10/
008970/20121121/110239/1665/10000/10/
008970/20121121/110257/1665/2890/10/
008970/20121121/110343/1665/2000/20/
008970/20121121/110403/1665/100/20/
008970/20121121/110541/1670/2890/20/
008970/20121121/110737/1665/4950/10/
008970/20121121/111403/1665/16110/10/
008970/20121121/111403/1660/6480/10/
008970/20121121/111433/1670/600/20/
008970/20121121/111630/1660/3180/10/
008970/20121121/112321/1665/1620/20/
008970/20121121/112444/1665/510/10/
008970/20121121/112524/1660/270/10/
008970/20121121/112547/1660/15950/10/
008970/20121121/112658/1660/200/10/
008970/20121121/112832/1665/6420/20/
008970/20121121/113048/1665/5070/20/
008970/20121121/113101/1665/90/20/
008970/20121121/113116/1665/300/20/
008970/20121121/113126/1665/1000/10/
008970/20121121/113300/1665/1090/10/
008970/20121121/113445/1665/300/20/
008970/20121121/113535/1660/530/10/
008970/20121121/113614/1665/300/20/
008970/20121121/113643/1665/100/20/
008970/20121121/113801/1665/230/20/
008970/20121121/113844/1665/100/20/
008970/20121121/113934/1660/270/10/
008970/20121121/113956/1665/660/20/
008970/20121121/114027/1660/400/10/
008970/20121121/114235/1660/1000/10/
008970/20121121/114330/1660/800/10/
008970/20121121/114354/1660/5000/10/
008970/20121121/114404/1660/500/10/
008970/20121121/114434/1660/1820/10/
008970/20121121/114710/1660/7610/10/
008970/20121121/115145/1655/90/10/
008970/20121121/115145/1655/200/10/
008970/20121121/115210/1655/100/10/
008970/20121121/115247/1655/200/10/
008970/20121121/115452/1660/110/20/
008970/20121121/115532/1655/4740/10/
008970/20121121/115543/1655/1020/10/
008970/20121121/115604/1655/1280/10/
008970/20121121/120037/1655/140/10/
008970/20121121/120240/1655/1800/10/
008970/20121121/120558/1655/220/10/
008970/20121121/120559/1655/500/10/
008970/20121121/120606/1655/500/10/
008970/20121121/120607/1655/3790/10/
008970/20121121/120613/1650/500/10/
008970/20121121/120754/1655/130/20/
008970/20121121/120813/1655/1490/20/
008970/20121121/120903/1655/810/10/
008970/20121121/121245/1655/3040/20/
008970/20121121/121253/1655/100/20/
008970/20121121/121253/1655/1500/20/
008970/20121121/121320/1655/500/20/
008970/20121121/121333/1655/1050/20/
008970/20121121/121336/1655/2100/20/
008970/20121121/121356/1655/710/10/
008970/20121121/121447/1655/300/20/
008970/20121121/121606/1655/110/10/
008970/20121121/122255/1655/160/10/
008970/20121121/122315/1655/300/10/
008970/20121121/122432/1660/1000/20/
008970/20121121/122506/1660/1000/20/
008970/20121121/122530/1660/1000/20/
008970/20121121/122558/1660/3140/20/
008970/20121121/123123/1660/1030/10/
008970/20121121/123256/1660/3320/10/
008970/20121121/123604/1660/300/20/
008970/20121121/123604/1660/300/20/
008970/20121121/123638/1660/360/20/
008970/20121121/123645/1660/540/10/
008970/20121121/123645/1655/460/10/
008970/20121121/123857/1660/510/10/
008970/20121121/123938/1655/7200/10/
008970/20121121/123938/1655/11760/10/
008970/20121121/124225/1660/110/20/
008970/20121121/124236/1650/4800/10/
008970/20121121/124319/1660/160/20/
008970/20121121/124351/1660/920/20/
008970/20121121/124859/1655/320/20/
008970/20121121/125154/1650/1610/10/
008970/20121121/125154/1650/23740/10/
008970/20121121/125204/1650/3170/10/
008970/20121121/125213/1645/2000/10/
008970/20121121/125217/1645/10000/10/
008970/20121121/125229/1645/1000/10/
008970/20121121/125253/1645/3000/10/
008970/20121121/125306/1645/9900/10/
008970/20121121/125318/1645/980/10/
008970/20121121/125321/1645/100/20/
008970/20121121/125327/1640/1000/10/
008970/20121121/125356/1640/1000/10/
008970/20121121/125405/1640/200/10/
008970/20121121/125535/1640/3170/10/
008970/20121121/125633/1640/570/20/
008970/20121121/125636/1640/100/20/
008970/20121121/125644/1635/370/10/
008970/20121121/125751/1635/2880/10/
008970/20121121/125751/1635/200/10/
008970/20121121/125812/1635/1260/10/
008970/20121121/125834/1635/500/10/
008970/20121121/125847/1635/500/10/
008970/20121121/125859/1635/1620/10/
008970/20121121/125859/1635/1720/10/
008970/20121121/125959/1635/2150/10/
008970/20121121/130236/1635/510/10/
008970/20121121/130356/1640/360/20/
008970/20121121/130450/1635/100/10/
008970/20121121/130500/1635/2000/10/
008970/20121121/130507/1635/6000/10/
008970/20121121/130514/1635/3000/10/
008970/20121121/131119/1635/1520/10/
008970/20121121/131424/1635/4710/10/
008970/20121121/131428/1635/100/10/
008970/20121121/131509/1635/3000/10/
008970/20121121/131620/1635/360/10/
008970/20121121/131723/1635/2600/10/
008970/20121121/131728/1635/610/10/
008970/20121121/131826/1635/1600/10/
008970/20121121/131831/1635/2970/10/
008970/20121121/131845/1635/1280/10/
008970/20121121/131857/1635/400/20/
008970/20121121/131909/1635/100/20/
008970/20121121/131951/1630/7040/10/
008970/20121121/132030/1630/170/10/
008970/20121121/132043/1635/110/20/
008970/20121121/132044/1630/4020/10/
008970/20121121/132044/1625/6060/10/
008970/20121121/132312/1635/280/20/
008970/20121121/132315/1630/4180/10/
008970/20121121/132514/1630/2510/10/
008970/20121121/132608/1630/110/10/
008970/20121121/132659/1630/1680/10/
008970/20121121/132709/1630/800/10/
008970/20121121/132732/1630/4000/10/
008970/20121121/132814/1630/400/10/
008970/20121121/132821/1625/1000/10/
008970/20121121/132904/1625/9840/10/
008970/20121121/132918/1625/900/20/
008970/20121121/132941/1620/10010/10/
008970/20121121/133001/1615/1000/10/
008970/20121121/133124/1620/100/20/
008970/20121121/133124/1620/100/20/
008970/20121121/133157/1620/5490/20/
008970/20121121/133158/1620/3000/20/
008970/20121121/133202/1620/100/20/
008970/20121121/133204/1620/100/20/
008970/20121121/133207/1620/6900/20/
008970/20121121/133207/1620/1220/20/
008970/20121121/133410/1630/230/20/
008970/20121121/133430/1630/100/20/
008970/20121121/133519/1630/150/10/
008970/20121121/133842/1625/1000/10/
008970/20121121/134015/1630/1730/20/
008970/20121121/134116/1630/190/10/
008970/20121121/134323/1635/1740/20/
008970/20121121/134349/1635/270/10/
008970/20121121/134526/1630/220/10/
008970/20121121/134654/1635/5010/20/
008970/20121121/134728/1630/1000/10/
008970/20121121/134957/1635/130/20/
008970/20121121/135100/1630/5000/10/
008970/20121121/135113/1635/6010/20/
008970/20121121/135320/1630/510/10/
008970/20121121/135321/1635/120/20/
008970/20121121/140413/1635/210/10/
008970/20121121/140413/1630/240/10/
008970/20121121/140444/1640/110/20/
008970/20121121/140541/1635/140/10/
008970/20121121/140612/1635/100/20/
008970/20121121/140619/1635/450/10/
008970/20121121/140619/1630/4550/10/
008970/20121121/140905/1635/510/20/
008970/20121121/141213/1630/330/10/
008970/20121121/141217/1630/300/10/
008970/20121121/141702/1640/120/20/
008970/20121121/141901/1635/100/10/
008970/20121121/142453/1635/1460/10/
008970/20121121/142507/1630/510/10/
008970/20121121/142609/1630/3050/10/
008970/20121121/142615/1630/2600/10/
008970/20121121/142629/1630/110/10/
008970/20121121/142712/1630/510/10/
008970/20121121/142716/1630/240/10/
008970/20121121/142823/1630/1140/10/
008970/20121121/143240/1630/4680/10/
008970/20121121/143253/1630/90/20/
008970/20121121/143254/1630/260/20/
008970/20121121/143452/1635/1010/20/
008970/20121121/143516/1630/490/10/
008970/20121121/143559/1630/310/10/
008970/20121121/143623/1635/410/20/
008970/20121121/143729/1630/1300/10/
008970/20121121/143739/1630/500/20/
008970/20121121/143809/1635/1010/20/
008970/20121121/143819/1635/1000/20/
008970/20121121/143858/1635/1000/20/
008970/20121121/144147/1630/560/10/
008970/20121121/144209/1630/730/10/
008970/20121121/144445/1630/100/10/
008970/20121121/144524/1630/540/10/
008970/20121121/144551/1635/210/20/
008970/20121121/144609/1630/1000/10/
008970/20121121/144652/1635/210/20/
008970/20121121/144740/1635/280/20/
008970/20121121/144813/1635/100/20/
008970/20121121/144814/1635/300/20/
008970/20121121/144906/1630/3600/10/
008970/20121121/144912/1630/640/10/
008970/20121121/150000/1635/22040/10/
