008970/20130305/90000/1785/29880/10/
008970/20130305/90004/1790/440/20/
008970/20130305/90004/1795/960/20/
008970/20130305/90004/1800/3600/20/
008970/20130305/90008/1800/370/20/
008970/20130305/90022/1800/300/20/
008970/20130305/90029/1800/2140/20/
008970/20130305/90118/1805/230/20/
008970/20130305/90246/1805/2860/20/
008970/20130305/90251/1805/240/10/
008970/20130305/90315/1805/190/20/
008970/20130305/90342/1805/7670/20/
008970/20130305/90349/1810/2630/20/
008970/20130305/90353/1810/6380/20/
008970/20130305/90358/1810/3620/10/
008970/20130305/90406/1805/1000/10/
008970/20130305/90457/1810/500/20/
008970/20130305/90503/1810/100/20/
008970/20130305/90520/1805/300/10/
008970/20130305/90545/1805/280/20/
008970/20130305/90548/1805/220/20/
008970/20130305/90655/1805/550/20/
008970/20130305/90723/1800/800/10/
008970/20130305/90745/1800/2000/10/
008970/20130305/90752/1800/1780/10/
008970/20130305/90753/1800/2000/10/
008970/20130305/90754/1800/2050/10/
008970/20130305/90820/1800/3000/20/
008970/20130305/90821/1800/990/20/
008970/20130305/91033/1800/200/20/
008970/20130305/91034/1800/290/20/
008970/20130305/91103/1800/3000/10/
008970/20130305/91109/1800/1000/10/
008970/20130305/91352/1800/390/10/
008970/20130305/91412/1800/160/10/
008970/20130305/91502/1800/730/10/
008970/20130305/91509/1800/1000/10/
008970/20130305/91535/1800/100/10/
008970/20130305/91615/1800/820/10/
008970/20130305/91647/1800/4000/20/
008970/20130305/91649/1795/520/10/
008970/20130305/91654/1800/200/20/
008970/20130305/91708/1800/300/10/
008970/20130305/91820/1800/2440/10/
008970/20130305/91833/1800/4000/10/
008970/20130305/91843/1800/1000/10/
008970/20130305/91908/1805/2180/20/
008970/20130305/92023/1805/600/20/
008970/20130305/92108/1800/260/10/
008970/20130305/92134/1800/2020/10/
008970/20130305/92140/1800/510/20/
008970/20130305/92146/1800/3370/10/
008970/20130305/92158/1800/2000/10/
008970/20130305/92232/1805/110/20/
008970/20130305/92307/1800/9240/10/
008970/20130305/92307/1795/3380/10/
008970/20130305/92353/1795/9080/10/
008970/20130305/92356/1795/1400/10/
008970/20130305/92356/1795/600/20/
008970/20130305/92425/1800/100/20/
008970/20130305/92433/1800/280/20/
008970/20130305/92448/1800/330/10/
008970/20130305/92451/1800/390/10/
008970/20130305/92536/1800/1000/20/
008970/20130305/92536/1800/1000/20/
008970/20130305/92557/1805/10100/20/
008970/20130305/92558/1805/1220/10/
008970/20130305/92613/1805/550/10/
008970/20130305/92815/1800/300/20/
008970/20130305/92903/1795/4000/10/
008970/20130305/92914/1800/1000/20/
008970/20130305/92950/1795/1200/10/
008970/20130305/93006/1795/300/10/
008970/20130305/93054/1795/1000/10/
008970/20130305/93106/1795/1280/10/
008970/20130305/93116/1795/1010/10/
008970/20130305/93139/1795/2090/20/
008970/20130305/93145/1795/4910/10/
008970/20130305/93145/1795/5070/20/
008970/20130305/93205/1795/140/10/
008970/20130305/93210/1795/5960/10/
008970/20130305/93210/1790/14040/10/
008970/20130305/93234/1800/700/20/
008970/20130305/93301/1795/730/10/
008970/20130305/93342/1790/1000/10/
008970/20130305/93343/1795/1200/20/
008970/20130305/93352/1790/17550/10/
008970/20130305/93400/1790/160/10/
008970/20130305/93430/1795/6710/20/
008970/20130305/93440/1795/3000/10/
008970/20130305/93504/1795/100/10/
008970/20130305/93640/1795/2120/10/
008970/20130305/93640/1790/12440/10/
008970/20130305/93658/1795/2000/10/
008970/20130305/93702/1795/2630/10/
008970/20130305/93804/1795/1670/10/
008970/20130305/93840/1795/800/10/
008970/20130305/93851/1795/500/10/
008970/20130305/93924/1800/4390/20/
008970/20130305/93947/1795/300/10/
008970/20130305/94123/1795/5360/10/
008970/20130305/94138/1795/2620/10/
008970/20130305/94617/1795/500/10/
008970/20130305/94758/1800/120/20/
008970/20130305/94836/1795/570/10/
008970/20130305/94847/1800/260/20/
008970/20130305/94901/1795/150/10/
008970/20130305/95106/1795/1820/10/
008970/20130305/95326/1795/1120/10/
008970/20130305/95530/1795/1000/10/
008970/20130305/95712/1800/210/20/
008970/20130305/95900/1800/10000/20/
008970/20130305/95919/1800/10000/20/
008970/20130305/95924/1800/2940/20/
008970/20130305/95925/1800/400/20/
008970/20130305/95946/1800/250/20/
008970/20130305/95954/1800/950/20/
008970/20130305/100010/1800/580/10/
008970/20130305/100028/1800/1370/10/
008970/20130305/100301/1800/2000/20/
008970/20130305/100302/1800/200/20/
008970/20130305/100335/1800/200/20/
008970/20130305/100347/1800/100/20/
008970/20130305/100443/1800/4990/20/
008970/20130305/100448/1800/3000/20/
008970/20130305/100511/1800/660/20/
008970/20130305/100646/1800/500/10/
008970/20130305/100733/1800/310/10/
008970/20130305/100755/1795/550/10/
008970/20130305/100958/1800/170/20/
008970/20130305/101020/1800/200/20/
008970/20130305/101040/1800/680/20/
008970/20130305/101214/1800/160/20/
008970/20130305/101417/1800/12950/20/
008970/20130305/101419/1800/200/10/
008970/20130305/101730/1800/1010/10/
008970/20130305/101750/1805/3090/20/
008970/20130305/102055/1805/230/20/
008970/20130305/102159/1805/250/20/
008970/20130305/102210/1805/100/20/
008970/20130305/102211/1805/100/20/
008970/20130305/102540/1805/100/20/
008970/20130305/102615/1805/180/20/
008970/20130305/102729/1805/2000/20/
008970/20130305/102904/1805/500/20/
008970/20130305/102952/1805/7450/20/
008970/20130305/103013/1805/10040/20/
008970/20130305/103016/1805/820/20/
008970/20130305/103026/1805/2430/20/
008970/20130305/103055/1810/130/20/
008970/20130305/103057/1805/3400/10/
008970/20130305/103119/1805/4170/10/
008970/20130305/103221/1805/160/20/
008970/20130305/103235/1805/170/20/
008970/20130305/103505/1805/120/20/
008970/20130305/103528/1805/1000/20/
008970/20130305/103612/1805/3090/20/
008970/20130305/103900/1805/460/10/
008970/20130305/104014/1810/510/20/
008970/20130305/104158/1805/3600/10/
008970/20130305/104214/1805/690/10/
008970/20130305/104237/1805/320/10/
008970/20130305/104254/1805/3500/10/
008970/20130305/104254/1805/300/20/
008970/20130305/104309/1805/600/20/
008970/20130305/104320/1800/1300/10/
008970/20130305/104419/1800/190/10/
008970/20130305/104429/1805/600/20/
008970/20130305/104438/1805/100/20/
008970/20130305/104453/1800/2000/10/
008970/20130305/105038/1800/1090/10/
008970/20130305/105039/1800/1000/10/
008970/20130305/105201/1800/390/10/
008970/20130305/105317/1805/710/20/
008970/20130305/105420/1805/200/20/
008970/20130305/105621/1800/550/10/
008970/20130305/105706/1800/3500/10/
008970/20130305/110228/1800/1020/10/
008970/20130305/110438/1805/1060/20/
008970/20130305/110500/1805/6260/20/
008970/20130305/110523/1805/2030/20/
008970/20130305/110524/1805/200/20/
008970/20130305/110735/1805/100/20/
008970/20130305/110757/1805/400/20/
008970/20130305/110804/1805/10040/20/
008970/20130305/110914/1805/5600/20/
008970/20130305/111004/1805/240/20/
008970/20130305/111056/1805/3000/20/
008970/20130305/111114/1805/4900/20/
008970/20130305/111223/1805/160/10/
008970/20130305/111250/1805/1000/10/
008970/20130305/111400/1805/1180/10/
008970/20130305/111441/1805/970/20/
008970/20130305/111610/1805/140/10/
008970/20130305/111823/1805/210/10/
008970/20130305/111843/1805/1500/10/
008970/20130305/111905/1805/4040/10/
008970/20130305/112001/1800/1000/10/
008970/20130305/112131/1805/100/20/
008970/20130305/112521/1805/3000/20/
008970/20130305/112526/1800/300/10/
008970/20130305/112631/1805/500/20/
008970/20130305/112934/1800/320/10/
008970/20130305/113342/1800/2300/10/
008970/20130305/113524/1800/2800/10/
008970/20130305/113533/1800/200/10/
008970/20130305/113631/1800/10060/10/
008970/20130305/113708/1800/300/10/
008970/20130305/114018/1805/1030/20/
008970/20130305/114046/1805/200/20/
008970/20130305/114401/1805/2000/20/
008970/20130305/114831/1800/2020/10/
008970/20130305/115128/1800/10010/10/
008970/20130305/115139/1800/1470/10/
008970/20130305/115200/1800/1130/10/
008970/20130305/115210/1805/390/20/
008970/20130305/115312/1800/470/10/
008970/20130305/115350/1800/3700/10/
008970/20130305/115541/1800/1000/20/
008970/20130305/120158/1800/230/10/
008970/20130305/120334/1800/300/10/
008970/20130305/120558/1800/500/10/
008970/20130305/120602/1800/4000/10/
008970/20130305/120746/1800/9240/10/
008970/20130305/120839/1800/760/20/
008970/20130305/121102/1800/290/10/
008970/20130305/121145/1800/500/10/
008970/20130305/121216/1800/2400/10/
008970/20130305/121859/1800/220/10/
008970/20130305/122256/1800/600/10/
008970/20130305/122511/1800/190/10/
008970/20130305/122616/1800/100/10/
008970/20130305/122649/1800/1000/10/
008970/20130305/122707/1800/100/10/
008970/20130305/122819/1800/200/10/
008970/20130305/122935/1800/10050/10/
008970/20130305/122940/1800/560/10/
008970/20130305/123411/1800/4510/10/
008970/20130305/123526/1800/2950/10/
008970/20130305/123600/1800/1840/10/
008970/20130305/123642/1800/2750/10/
008970/20130305/123821/1800/500/10/
008970/20130305/123920/1800/100/10/
008970/20130305/124506/1805/320/20/
008970/20130305/124851/1800/4290/10/
008970/20130305/124946/1800/200/10/
008970/20130305/124954/1800/100/10/
008970/20130305/125013/1800/500/10/
008970/20130305/125306/1800/100/10/
008970/20130305/125351/1800/1000/10/
008970/20130305/125503/1800/200/10/
008970/20130305/125543/1800/140/10/
008970/20130305/125725/1800/1560/10/
008970/20130305/125737/1800/700/10/
008970/20130305/125745/1800/700/10/
008970/20130305/125820/1800/700/10/
008970/20130305/125842/1800/1100/10/
008970/20130305/125856/1800/100/10/
008970/20130305/125905/1800/3500/10/
008970/20130305/130004/1800/1000/10/
008970/20130305/130006/1800/100/10/
008970/20130305/130017/1800/300/10/
008970/20130305/130021/1800/300/10/
008970/20130305/130023/1800/300/10/
008970/20130305/130025/1800/300/10/
008970/20130305/130035/1800/300/10/
008970/20130305/130037/1800/300/10/
008970/20130305/130039/1800/300/10/
008970/20130305/130059/1800/500/10/
008970/20130305/130235/1800/100/10/
008970/20130305/130249/1805/200/20/
008970/20130305/130801/1800/5050/10/
008970/20130305/130832/1800/300/10/
008970/20130305/130923/1800/200/10/
008970/20130305/130949/1800/3720/10/
008970/20130305/131153/1800/5580/10/
008970/20130305/131839/1795/830/10/
008970/20130305/132107/1795/500/10/
008970/20130305/132143/1800/300/20/
008970/20130305/132213/1800/300/20/
008970/20130305/132645/1800/5080/20/
008970/20130305/132732/1800/2700/20/
008970/20130305/132831/1800/100/20/
008970/20130305/132851/1800/100/20/
008970/20130305/132908/1800/100/20/
008970/20130305/132918/1800/100/20/
008970/20130305/132925/1800/3000/20/
008970/20130305/133108/1795/2350/10/
008970/20130305/133241/1800/130/20/
008970/20130305/133248/1800/100/20/
008970/20130305/133436/1800/200/20/
008970/20130305/133504/1800/3250/20/
008970/20130305/133708/1795/160/10/
008970/20130305/133715/1800/550/20/
008970/20130305/133720/1795/100/10/
008970/20130305/133823/1795/340/10/
008970/20130305/133956/1795/160/10/
008970/20130305/134007/1795/30000/10/
008970/20130305/134342/1795/2910/10/
008970/20130305/134342/1790/4440/10/
008970/20130305/134354/1790/2060/10/
008970/20130305/134407/1795/170/20/
008970/20130305/134408/1795/150/10/
008970/20130305/134408/1795/140/10/
008970/20130305/134409/1795/120/10/
008970/20130305/134409/1795/120/10/
008970/20130305/134410/1795/100/10/
008970/20130305/134410/1795/100/10/
008970/20130305/134411/1795/90/10/
008970/20130305/134510/1790/1010/10/
008970/20130305/134512/1795/120/20/
008970/20130305/134522/1795/510/20/
008970/20130305/134523/1795/300/20/
008970/20130305/134636/1795/130/20/
008970/20130305/134651/1795/540/20/
008970/20130305/134705/1795/100/20/
008970/20130305/134716/1795/510/20/
008970/20130305/134749/1795/520/20/
008970/20130305/134753/1795/960/20/
008970/20130305/134800/1795/120/20/
008970/20130305/134856/1795/2000/10/
008970/20130305/134858/1795/1000/10/
008970/20130305/135046/1795/2050/10/
008970/20130305/135208/1795/1790/10/
008970/20130305/135233/1795/1060/10/
008970/20130305/135319/1795/1000/10/
008970/20130305/135438/1795/600/10/
008970/20130305/135537/1795/610/10/
008970/20130305/135545/1795/630/10/
008970/20130305/135700/1795/300/20/
008970/20130305/135837/1795/500/20/
008970/20130305/135938/1795/100/20/
008970/20130305/140022/1795/300/20/
008970/20130305/140100/1790/650/10/
008970/20130305/140414/1790/16010/10/
008970/20130305/140507/1790/410/10/
008970/20130305/140627/1795/970/20/
008970/20130305/140630/1795/1000/20/
008970/20130305/140649/1795/100/20/
008970/20130305/140712/1795/850/20/
008970/20130305/140932/1800/1280/20/
008970/20130305/141032/1800/300/20/
008970/20130305/141056/1795/1500/10/
008970/20130305/141139/1795/200/10/
008970/20130305/141229/1800/500/20/
008970/20130305/141244/1795/500/10/
008970/20130305/141814/1800/2030/20/
008970/20130305/141938/1800/500/20/
008970/20130305/142010/1800/500/20/
008970/20130305/142109/1795/980/10/
008970/20130305/142152/1795/810/10/
008970/20130305/142228/1800/6690/20/
008970/20130305/142247/1795/4450/10/
008970/20130305/142257/1795/1100/10/
008970/20130305/142304/1795/100/10/
008970/20130305/142313/1795/100/10/
008970/20130305/142319/1795/2500/10/
008970/20130305/142321/1795/100/10/
008970/20130305/142340/1795/1000/10/
008970/20130305/142350/1795/1940/10/
008970/20130305/142406/1795/2280/20/
008970/20130305/142600/1800/140/20/
008970/20130305/143022/1795/310/10/
008970/20130305/143232/1795/12750/20/
008970/20130305/143239/1795/2260/20/
008970/20130305/143428/1795/210/10/
008970/20130305/143633/1795/3000/10/
008970/20130305/143635/1795/7780/10/
008970/20130305/143644/1795/2000/20/
008970/20130305/143649/1795/100/20/
008970/20130305/143700/1795/450/20/
008970/20130305/143704/1795/380/20/
008970/20130305/143729/1795/500/10/
008970/20130305/143845/1800/510/20/
008970/20130305/143851/1800/500/20/
008970/20130305/144031/1795/4700/10/
008970/20130305/144042/1795/3000/10/
008970/20130305/144213/1795/5050/10/
008970/20130305/144244/1795/3000/10/
008970/20130305/144251/1795/200/10/
008970/20130305/144314/1795/5000/10/
008970/20130305/144330/1795/460/10/
008970/20130305/144333/1795/200/20/
008970/20130305/144338/1795/140/20/
008970/20130305/144357/1795/500/10/
008970/20130305/144425/1795/370/10/
008970/20130305/144526/1795/3000/10/
008970/20130305/144620/1795/1760/10/
008970/20130305/144653/1795/250/10/
008970/20130305/144708/1795/7740/10/
008970/20130305/144718/1795/400/10/
008970/20130305/144939/1800/230/20/
008970/20130305/144942/1800/300/20/
008970/20130305/144945/1800/500/20/
008970/20130305/144958/1800/5760/20/
008970/20130305/150000/1800/58430/10/
