043100/20121120/90000/1040/41418/10/
043100/20121120/90000/1045/1000/20/
043100/20121120/90003/1045/1002/20/
043100/20121120/90004/1045/1550/20/
043100/20121120/90013/1050/353/20/
043100/20121120/90016/1050/8649/20/
043100/20121120/90016/1055/3608/20/
043100/20121120/90016/1060/2936/20/
043100/20121120/90023/1055/104/20/
043100/20121120/90031/1050/500/10/
043100/20121120/90035/1050/867/10/
043100/20121120/90041/1050/151/10/
043100/20121120/90042/1050/900/10/
043100/20121120/90043/1050/2003/10/
043100/20121120/90043/1050/3389/10/
043100/20121120/90048/1045/609/10/
043100/20121120/90051/1045/2000/10/
043100/20121120/90052/1045/2000/10/
043100/20121120/90052/1045/2000/10/
043100/20121120/90052/1045/5963/10/
043100/20121120/90101/1045/128/20/
043100/20121120/90108/1045/2002/20/
043100/20121120/90112/1045/111/20/
043100/20121120/90139/1045/1008/20/
043100/20121120/90141/1045/501/20/
043100/20121120/90144/1045/5254/20/
043100/20121120/90205/1045/9759/10/
043100/20121120/90210/1045/1051/10/
043100/20121120/90212/1045/1000/20/
043100/20121120/90214/1045/1000/10/
043100/20121120/90215/1045/960/10/
043100/20121120/90224/1050/18661/20/
043100/20121120/90226/1050/261/10/
043100/20121120/90229/1050/5049/10/
043100/20121120/90230/1050/600/10/
043100/20121120/90234/1050/5574/10/
043100/20121120/90240/1050/1001/20/
043100/20121120/90248/1045/234/10/
043100/20121120/90249/1050/1000/20/
043100/20121120/90250/1050/3802/20/
043100/20121120/90250/1050/2000/20/
043100/20121120/90253/1045/500/10/
043100/20121120/90253/1050/3571/20/
043100/20121120/90300/1050/106/20/
043100/20121120/90301/1050/9858/20/
043100/20121120/90303/1050/1001/20/
043100/20121120/90303/1050/4489/20/
043100/20121120/90306/1050/501/20/
043100/20121120/90306/1050/600/20/
043100/20121120/90307/1050/2282/20/
043100/20121120/90317/1050/191/20/
043100/20121120/90333/1050/2023/20/
043100/20121120/90356/1050/1006/20/
043100/20121120/90359/1045/271/10/
043100/20121120/90404/1050/1001/20/
043100/20121120/90436/1045/506/10/
043100/20121120/90439/1045/169/10/
043100/20121120/90441/1050/1001/20/
043100/20121120/90442/1045/235/10/
043100/20121120/90443/1050/8231/20/
043100/20121120/90450/1050/302/20/
043100/20121120/90450/1050/1500/20/
043100/20121120/90450/1050/300/20/
043100/20121120/90453/1050/2836/20/
043100/20121120/90454/1050/2000/20/
043100/20121120/90503/1050/162/20/
043100/20121120/90505/1050/100/20/
043100/20121120/90521/1050/4050/20/
043100/20121120/90523/1050/1240/20/
043100/20121120/90523/1055/200/20/
043100/20121120/90533/1055/2409/20/
043100/20121120/90559/1050/202/10/
043100/20121120/90603/1050/3002/10/
043100/20121120/90608/1050/850/10/
043100/20121120/90616/1055/121/20/
043100/20121120/90617/1050/1370/10/
043100/20121120/90621/1050/3255/10/
043100/20121120/90632/1050/902/20/
043100/20121120/90647/1045/10001/10/
043100/20121120/90648/1045/1001/10/
043100/20121120/90656/1050/1557/20/
043100/20121120/90706/1045/103/10/
043100/20121120/90710/1045/1526/10/
043100/20121120/90736/1040/146/10/
043100/20121120/90742/1040/218/10/
043100/20121120/90814/1040/5376/10/
043100/20121120/90846/1045/5061/20/
043100/20121120/90851/1040/8178/10/
043100/20121120/90851/1045/1123/20/
043100/20121120/90904/1040/771/10/
043100/20121120/90908/1040/1747/10/
043100/20121120/90922/1040/1004/10/
043100/20121120/90943/1045/1008/20/
043100/20121120/90957/1045/2004/20/
043100/20121120/90958/1045/1000/20/
043100/20121120/91000/1045/1030/20/
043100/20121120/91009/1045/1000/20/
043100/20121120/91017/1040/5000/10/
043100/20121120/91032/1040/23005/10/
043100/20121120/91032/1040/2842/10/
043100/20121120/91057/1035/6444/10/
043100/20121120/91057/1035/7344/10/
043100/20121120/91107/1030/16938/10/
043100/20121120/91107/1030/1568/10/
043100/20121120/91128/1035/298/20/
043100/20121120/91244/1040/82/20/
043100/20121120/91306/1040/82/20/
043100/20121120/91308/1035/5756/10/
043100/20121120/91311/1035/1725/20/
043100/20121120/91317/1035/90/20/
043100/20121120/91326/1035/680/20/
043100/20121120/91413/1035/8236/10/
043100/20121120/91413/1035/1099/10/
043100/20121120/91417/1035/502/20/
043100/20121120/91445/1035/4179/10/
043100/20121120/91452/1040/201/20/
043100/20121120/91453/1035/2435/10/
043100/20121120/91456/1040/2786/20/
043100/20121120/91457/1035/1000/10/
043100/20121120/91458/1035/1040/10/
043100/20121120/91459/1035/1011/10/
043100/20121120/91500/1035/1101/10/
043100/20121120/91502/1035/552/10/
043100/20121120/91521/1040/130/20/
043100/20121120/91546/1040/3524/20/
043100/20121120/91548/1040/200/20/
043100/20121120/91551/1035/5000/10/
043100/20121120/91558/1040/102/20/
043100/20121120/91602/1040/2201/20/
043100/20121120/91607/1035/20051/10/
043100/20121120/91608/1040/200/20/
043100/20121120/91609/1035/9200/10/
043100/20121120/91615/1035/7666/10/
043100/20121120/91615/1030/8263/10/
043100/20121120/91615/1025/30602/10/
043100/20121120/91618/1025/138/10/
043100/20121120/91636/1030/2457/10/
043100/20121120/91637/1030/93/10/
043100/20121120/91638/1030/107/20/
043100/20121120/91659/1035/293/20/
043100/20121120/91704/1035/290/20/
043100/20121120/91709/1030/127/10/
043100/20121120/91710/1030/300/20/
043100/20121120/91716/1030/574/20/
043100/20121120/91806/1035/1092/20/
043100/20121120/91830/1035/5050/20/
043100/20121120/91833/1035/5000/20/
043100/20121120/91835/1035/5000/20/
043100/20121120/91836/1035/3680/20/
043100/20121120/91837/1035/502/10/
043100/20121120/91839/1035/5000/10/
043100/20121120/91839/1035/2532/10/
043100/20121120/91846/1035/1500/10/
043100/20121120/91914/1035/3010/10/
043100/20121120/91926/1035/103/10/
043100/20121120/91932/1040/4809/20/
043100/20121120/91943/1040/10416/20/
043100/20121120/91944/1040/3840/20/
043100/20121120/91946/1040/8428/20/
043100/20121120/91947/1040/512/20/
043100/20121120/91947/1040/200/20/
043100/20121120/91948/1040/1217/20/
043100/20121120/92010/1045/81/20/
043100/20121120/92033/1040/1080/10/
043100/20121120/92035/1045/1001/20/
043100/20121120/92043/1045/1238/20/
043100/20121120/92043/1040/500/10/
043100/20121120/92044/1040/1000/10/
043100/20121120/92044/1045/1294/20/
043100/20121120/92050/1040/1534/10/
043100/20121120/92056/1040/4308/20/
043100/20121120/92056/1040/100/10/
043100/20121120/92123/1045/113/20/
043100/20121120/92129/1040/4808/10/
043100/20121120/92131/1040/3733/10/
043100/20121120/92132/1040/742/20/
043100/20121120/92137/1040/373/20/
043100/20121120/92138/1040/501/20/
043100/20121120/92139/1040/6891/20/
043100/20121120/92145/1040/422/10/
043100/20121120/92150/1040/177/10/
043100/20121120/92151/1040/417/10/
043100/20121120/92155/1040/5000/20/
043100/20121120/92156/1040/412/20/
043100/20121120/92159/1040/383/20/
043100/20121120/92202/1040/300/20/
043100/20121120/92211/1040/502/20/
043100/20121120/92225/1040/272/20/
043100/20121120/92314/1040/2275/20/
043100/20121120/92324/1040/384/20/
043100/20121120/92336/1040/103/20/
043100/20121120/92341/1040/16292/20/
043100/20121120/92342/1040/7011/20/
043100/20121120/92359/1045/5710/20/
043100/20121120/92400/1040/7140/10/
043100/20121120/92404/1040/3000/20/
043100/20121120/92404/1040/1000/20/
043100/20121120/92407/1040/5195/20/
043100/20121120/92418/1040/5205/10/
043100/20121120/92425/1040/743/20/
043100/20121120/92457/1035/210/10/
043100/20121120/92627/1040/1571/20/
043100/20121120/92641/1040/10000/20/
043100/20121120/92650/1040/90/20/
043100/20121120/92711/1040/1000/20/
043100/20121120/92756/1040/1750/20/
043100/20121120/92804/1040/7000/20/
043100/20121120/92807/1040/100/20/
043100/20121120/92824/1040/100/20/
043100/20121120/92829/1040/822/20/
043100/20121120/92850/1040/120/20/
043100/20121120/92933/1040/1065/20/
043100/20121120/92951/1040/1020/20/
043100/20121120/92957/1040/100/20/
043100/20121120/93011/1040/125/20/
043100/20121120/93041/1035/224/10/
043100/20121120/93052/1035/11000/10/
043100/20121120/93053/1035/2125/10/
043100/20121120/93102/1035/294/20/
043100/20121120/93106/1030/200/10/
043100/20121120/93112/1035/101/20/
043100/20121120/93114/1035/1000/20/
043100/20121120/93115/1035/878/20/
043100/20121120/93119/1040/101/20/
043100/20121120/93129/1040/120/20/
043100/20121120/93139/1040/102/20/
043100/20121120/93143/1035/929/10/
043100/20121120/93145/1040/100/20/
043100/20121120/93151/1040/101/20/
043100/20121120/93152/1035/4198/10/
043100/20121120/93154/1035/277/20/
043100/20121120/93156/1035/201/20/
043100/20121120/93201/1035/6346/20/
043100/20121120/93204/1035/100/20/
043100/20121120/93207/1035/700/20/
043100/20121120/93209/1035/1000/20/
043100/20121120/93214/1035/100/20/
043100/20121120/93229/1035/135/20/
043100/20121120/93234/1035/100/20/
043100/20121120/93254/1040/1628/20/
043100/20121120/93329/1040/180/20/
043100/20121120/93408/1035/100/10/
043100/20121120/93419/1035/10898/10/
043100/20121120/93521/1040/1263/20/
043100/20121120/93521/1040/779/20/
043100/20121120/93531/1040/724/20/
043100/20121120/93623/1035/19763/10/
043100/20121120/93623/1030/25303/10/
043100/20121120/93628/1035/1001/20/
043100/20121120/93630/1035/3000/20/
043100/20121120/93633/1035/999/20/
043100/20121120/93639/1035/1735/10/
043100/20121120/93641/1035/4289/10/
043100/20121120/93645/1035/261/20/
043100/20121120/93650/1035/3050/20/
043100/20121120/93651/1035/10000/20/
043100/20121120/93653/1035/1003/20/
043100/20121120/93655/1035/134/20/
043100/20121120/93656/1035/600/20/
043100/20121120/93658/1035/100/20/
043100/20121120/93700/1035/10000/20/
043100/20121120/93701/1035/4572/20/
043100/20121120/93722/1040/90/20/
043100/20121120/93730/1040/88/20/
043100/20121120/93732/1040/161/20/
043100/20121120/93737/1040/86/20/
043100/20121120/93742/1040/87/20/
043100/20121120/93750/1040/88/20/
043100/20121120/93804/1040/88/20/
043100/20121120/93807/1040/154/20/
043100/20121120/93809/1040/619/20/
043100/20121120/93810/1040/637/20/
043100/20121120/93811/1040/140/20/
043100/20121120/93812/1040/124/20/
043100/20121120/93815/1040/166/20/
043100/20121120/93816/1040/102/20/
043100/20121120/93816/1040/100/20/
043100/20121120/93817/1040/116/20/
043100/20121120/93817/1040/12438/20/
043100/20121120/93819/1045/151/20/
043100/20121120/93821/1045/89/20/
043100/20121120/93823/1045/863/20/
043100/20121120/93825/1045/87/20/
043100/20121120/93828/1045/91/20/
043100/20121120/93829/1045/10025/20/
043100/20121120/93830/1045/6039/20/
043100/20121120/93831/1045/2425/20/
043100/20121120/93831/1045/6459/20/
043100/20121120/93831/1045/1012/20/
043100/20121120/93832/1045/3373/20/
043100/20121120/93832/1050/41882/20/
043100/20121120/93834/1050/83/20/
043100/20121120/93835/1050/4492/20/
043100/20121120/93838/1055/85/20/
043100/20121120/93838/1055/474/20/
043100/20121120/93840/1055/5410/20/
043100/20121120/93841/1055/81/20/
043100/20121120/93841/1050/2120/10/
043100/20121120/93842/1050/82/20/
043100/20121120/93842/1050/1025/20/
043100/20121120/93844/1050/90/20/
043100/20121120/93847/1050/90/20/
043100/20121120/93848/1050/765/20/
043100/20121120/93849/1050/4784/20/
043100/20121120/93850/1050/905/20/
043100/20121120/93853/1050/82/20/
043100/20121120/93855/1050/85/20/
043100/20121120/93855/1050/1523/20/
043100/20121120/93857/1045/81/10/
043100/20121120/93858/1050/194/20/
043100/20121120/93859/1045/81/10/
043100/20121120/93901/1050/81/20/
043100/20121120/93903/1050/84/20/
043100/20121120/93905/1050/82/20/
043100/20121120/93906/1050/145/20/
043100/20121120/93908/1050/82/20/
043100/20121120/93909/1050/82/20/
043100/20121120/93911/1045/332/10/
043100/20121120/93913/1050/82/20/
043100/20121120/93915/1050/82/20/
043100/20121120/93916/1050/672/20/
043100/20121120/93918/1050/81/20/
043100/20121120/93920/1050/85/20/
043100/20121120/93923/1050/86/20/
043100/20121120/93924/1050/10035/20/
043100/20121120/93924/1050/813/20/
043100/20121120/93925/1050/1025/20/
043100/20121120/93925/1050/2512/20/
043100/20121120/93926/1050/6012/20/
043100/20121120/93926/1050/852/20/
043100/20121120/93928/1050/5060/20/
043100/20121120/93928/1050/1817/20/
043100/20121120/93928/1050/100/20/
043100/20121120/93929/1050/967/20/
043100/20121120/93929/1050/1521/20/
043100/20121120/93929/1050/4879/20/
043100/20121120/93930/1050/4799/20/
043100/20121120/93932/1050/2080/20/
043100/20121120/93932/1050/111/20/
043100/20121120/93932/1045/4023/10/
043100/20121120/93933/1050/8423/20/
043100/20121120/93934/1050/748/20/
043100/20121120/93937/1045/9847/10/
043100/20121120/93938/1045/89/20/
043100/20121120/93940/1045/84/20/
043100/20121120/93941/1045/462/10/
043100/20121120/93943/1045/4038/20/
043100/20121120/93943/1045/182/20/
043100/20121120/93946/1045/84/20/
043100/20121120/93947/1045/1067/20/
043100/20121120/93948/1045/227/20/
043100/20121120/93949/1045/1004/20/
043100/20121120/93952/1050/82/20/
043100/20121120/94000/1045/86/20/
043100/20121120/94000/1045/2001/20/
043100/20121120/94003/1045/164/20/
043100/20121120/94003/1045/215/20/
043100/20121120/94006/1045/91/20/
043100/20121120/94008/1045/84/20/
043100/20121120/94010/1045/170/20/
043100/20121120/94011/1045/2520/20/
043100/20121120/94012/1045/1052/20/
043100/20121120/94014/1040/81/10/
043100/20121120/94015/1045/2031/20/
043100/20121120/94015/1045/3068/20/
043100/20121120/94017/1045/83/20/
043100/20121120/94019/1045/81/20/
043100/20121120/94020/1045/107/20/
043100/20121120/94022/1045/91/20/
043100/20121120/94024/1045/81/20/
043100/20121120/94026/1040/81/10/
043100/20121120/94026/1045/10012/20/
043100/20121120/94028/1045/90/20/
043100/20121120/94030/1045/82/20/
043100/20121120/94032/1045/148/20/
043100/20121120/94032/1045/116/20/
043100/20121120/94032/1045/154/20/
043100/20121120/94033/1045/112/20/
043100/20121120/94033/1045/105/20/
043100/20121120/94034/1045/120/20/
043100/20121120/94034/1045/2363/20/
043100/20121120/94034/1050/116/20/
043100/20121120/94034/1050/108/20/
043100/20121120/94036/1045/113/10/
043100/20121120/94038/1050/81/20/
043100/20121120/94041/1050/83/20/
043100/20121120/94044/1050/81/20/
043100/20121120/94046/1045/81/10/
043100/20121120/94049/1050/88/20/
043100/20121120/94050/1050/1024/20/
043100/20121120/94053/1050/81/20/
043100/20121120/94056/1050/85/20/
043100/20121120/94057/1050/87/20/
043100/20121120/94059/1045/10260/10/
043100/20121120/94102/1045/995/20/
043100/20121120/94104/1045/1068/20/
043100/20121120/94107/1045/86/20/
043100/20121120/94108/1045/3214/20/
043100/20121120/94108/1045/726/20/
043100/20121120/94108/1050/2274/20/
043100/20121120/94109/1050/229/20/
043100/20121120/94111/1050/85/20/
043100/20121120/94116/1040/81/10/
043100/20121120/94117/1045/247/20/
043100/20121120/94120/1045/4205/20/
043100/20121120/94121/1045/1019/20/
043100/20121120/94121/1045/1905/20/
043100/20121120/94122/1045/89/20/
043100/20121120/94126/1050/82/20/
043100/20121120/94128/1050/1063/20/
043100/20121120/94131/1050/89/20/
043100/20121120/94133/1050/81/20/
043100/20121120/94135/1050/85/20/
043100/20121120/94138/1050/7012/20/
043100/20121120/94140/1045/2058/10/
043100/20121120/94142/1050/11037/20/
043100/20121120/94142/1050/817/20/
043100/20121120/94144/1050/90/20/
043100/20121120/94145/1050/10050/20/
043100/20121120/94146/1050/538/20/
043100/20121120/94147/1050/482/20/
043100/20121120/94147/1050/5000/20/
043100/20121120/94148/1050/86/20/
043100/20121120/94149/1050/5049/20/
043100/20121120/94151/1050/86/20/
043100/20121120/94153/1050/87/20/
043100/20121120/94155/1050/1063/20/
043100/20121120/94157/1050/87/20/
043100/20121120/94159/1050/86/20/
043100/20121120/94159/1050/1513/20/
043100/20121120/94200/1050/5026/20/
043100/20121120/94201/1050/88/20/
043100/20121120/94203/1050/87/20/
043100/20121120/94203/1050/200/20/
043100/20121120/94203/1050/1000/20/
043100/20121120/94203/1050/5013/20/
043100/20121120/94205/1050/85/20/
043100/20121120/94206/1050/82/20/
043100/20121120/94207/1050/1017/20/
043100/20121120/94208/1050/82/20/
043100/20121120/94210/1050/85/20/
043100/20121120/94211/1050/3052/20/
043100/20121120/94212/1050/88/20/
043100/20121120/94213/1050/1051/20/
043100/20121120/94214/1050/300/20/
043100/20121120/94216/1050/87/20/
043100/20121120/94216/1050/126/20/
043100/20121120/94217/1050/88/20/
043100/20121120/94219/1050/86/20/
043100/20121120/94221/1050/88/20/
043100/20121120/94222/1050/2483/20/
043100/20121120/94223/1050/890/20/
043100/20121120/94225/1050/88/20/
043100/20121120/94227/1050/1488/20/
043100/20121120/94228/1050/4756/20/
043100/20121120/94230/1050/87/20/
043100/20121120/94230/1050/3527/20/
043100/20121120/94231/1050/3910/20/
043100/20121120/94233/1055/88/20/
043100/20121120/94234/1050/1027/10/
043100/20121120/94235/1050/815/10/
043100/20121120/94236/1050/634/10/
043100/20121120/94238/1050/231/20/
043100/20121120/94239/1050/101/20/
043100/20121120/94240/1050/404/20/
043100/20121120/94245/1050/577/20/
043100/20121120/94247/1045/1011/10/
043100/20121120/94247/1045/10001/10/
043100/20121120/94253/1045/428/10/
043100/20121120/94256/1050/652/20/
043100/20121120/94300/1050/341/20/
043100/20121120/94301/1050/591/20/
043100/20121120/94303/1045/1815/10/
043100/20121120/94310/1050/81/20/
043100/20121120/94316/1050/81/20/
043100/20121120/94316/1050/1729/20/
043100/20121120/94322/1050/97/20/
043100/20121120/94328/1050/83/20/
043100/20121120/94336/1050/81/20/
043100/20121120/94343/1050/81/20/
043100/20121120/94343/1050/104/20/
043100/20121120/94344/1050/82/20/
043100/20121120/94351/1050/82/20/
043100/20121120/94357/1050/81/20/
043100/20121120/94400/1045/728/10/
043100/20121120/94407/1050/81/20/
043100/20121120/94411/1050/115/20/
043100/20121120/94414/1050/102/20/
043100/20121120/94421/1045/173/10/
043100/20121120/94428/1050/100/20/
043100/20121120/94436/1045/2087/10/
043100/20121120/94439/1050/109/20/
043100/20121120/94445/1045/237/10/
043100/20121120/94448/1045/1120/10/
043100/20121120/94450/1045/1900/10/
043100/20121120/94450/1045/3874/10/
043100/20121120/94451/1045/1146/10/
043100/20121120/94451/1045/7265/10/
043100/20121120/94516/1040/1662/10/
043100/20121120/94534/1040/245/10/
043100/20121120/94556/1040/1001/10/
043100/20121120/94559/1040/609/10/
043100/20121120/94605/1040/134/10/
043100/20121120/94634/1040/430/10/
043100/20121120/94642/1045/317/20/
043100/20121120/94644/1040/800/10/
043100/20121120/94646/1040/430/10/
043100/20121120/94655/1045/7000/20/
043100/20121120/94712/1045/3738/20/
043100/20121120/94718/1045/1448/20/
043100/20121120/94751/1050/100/20/
043100/20121120/94829/1050/182/20/
043100/20121120/94902/1045/46850/10/
043100/20121120/94907/1045/750/10/
043100/20121120/94910/1045/100/10/
043100/20121120/94911/1045/5740/10/
043100/20121120/94912/1045/3400/10/
043100/20121120/94913/1045/300/10/
043100/20121120/94915/1045/4838/10/
043100/20121120/94934/1045/743/20/
043100/20121120/95005/1045/100/20/
043100/20121120/95013/1045/2000/20/
043100/20121120/95108/1045/13228/20/
043100/20121120/95111/1045/231/10/
043100/20121120/95112/1045/3000/10/
043100/20121120/95115/1045/4611/10/
043100/20121120/95152/1045/1485/20/
043100/20121120/95212/1045/100/20/
043100/20121120/95224/1045/2000/20/
043100/20121120/95258/1040/788/10/
043100/20121120/95300/1040/200/10/
043100/20121120/95314/1040/962/10/
043100/20121120/95443/1040/2013/10/
043100/20121120/95443/1040/1000/10/
043100/20121120/95450/1040/200/10/
043100/20121120/95457/1040/5000/10/
043100/20121120/95458/1045/1500/20/
043100/20121120/95530/1040/1852/10/
043100/20121120/95544/1040/86/10/
043100/20121120/95546/1040/5542/10/
043100/20121120/95550/1040/1500/10/
043100/20121120/95555/1040/1124/10/
043100/20121120/95608/1035/1000/10/
043100/20121120/95609/1035/4878/10/
043100/20121120/95623/1035/637/10/
043100/20121120/95711/1035/1044/10/
043100/20121120/95714/1035/104/10/
043100/20121120/95720/1035/8001/10/
043100/20121120/95720/1035/457/10/
043100/20121120/95725/1035/584/10/
043100/20121120/95758/1035/539/10/
043100/20121120/95758/1030/1512/10/
043100/20121120/95817/1035/134/10/
043100/20121120/95817/1030/3051/10/
043100/20121120/95829/1035/1533/20/
043100/20121120/95848/1035/1340/10/
043100/20121120/95941/1035/1001/10/
043100/20121120/100006/1035/83/10/
043100/20121120/100013/1035/4534/10/
043100/20121120/100024/1030/2836/10/
043100/20121120/100044/1030/2006/10/
043100/20121120/100110/1030/918/10/
043100/20121120/100141/1035/10040/20/
043100/20121120/100143/1035/300/20/
043100/20121120/100144/1035/5602/20/
043100/20121120/100155/1035/2145/10/
043100/20121120/100220/1035/2501/10/
043100/20121120/100227/1035/3820/10/
043100/20121120/100235/1035/3527/10/
043100/20121120/100254/1035/844/10/
043100/20121120/100255/1035/1618/10/
043100/20121120/100304/1035/1002/10/
043100/20121120/100304/1035/4695/10/
043100/20121120/100307/1035/675/20/
043100/20121120/100316/1035/2001/10/
043100/20121120/100323/1035/240/10/
043100/20121120/100333/1035/14083/10/
043100/20121120/100336/1035/8306/10/
043100/20121120/100339/1035/706/10/
043100/20121120/100353/1035/1000/20/
043100/20121120/100404/1035/170/20/
043100/20121120/100405/1030/100/10/
043100/20121120/100405/1035/1000/20/
043100/20121120/100406/1035/1009/20/
043100/20121120/100423/1035/359/20/
043100/20121120/100434/1035/278/20/
043100/20121120/100451/1035/1226/20/
043100/20121120/100506/1030/6033/10/
043100/20121120/100509/1035/100/20/
043100/20121120/100515/1030/1001/10/
043100/20121120/100519/1030/2755/10/
043100/20121120/100548/1035/645/20/
043100/20121120/100557/1030/255/10/
043100/20121120/100653/1030/301/10/
043100/20121120/100659/1035/10000/20/
043100/20121120/100705/1035/1000/20/
043100/20121120/100706/1035/992/20/
043100/20121120/100811/1040/1569/20/
043100/20121120/100850/1035/530/10/
043100/20121120/100926/1035/4184/10/
043100/20121120/100946/1035/424/10/
043100/20121120/100947/1035/1725/10/
043100/20121120/101007/1035/500/20/
043100/20121120/101010/1030/3750/10/
043100/20121120/101053/1035/1501/20/
043100/20121120/101054/1035/3400/20/
043100/20121120/101113/1035/842/20/
043100/20121120/101118/1035/690/20/
043100/20121120/101126/1035/2001/20/
043100/20121120/101131/1035/1694/20/
043100/20121120/101131/1040/8307/20/
043100/20121120/101142/1040/115/20/
043100/20121120/101143/1040/10000/20/
043100/20121120/101215/1035/247/10/
043100/20121120/101223/1035/102/10/
043100/20121120/101223/1030/1798/10/
043100/20121120/101224/1040/14000/20/
043100/20121120/101229/1040/100/20/
043100/20121120/101355/1035/2026/10/
043100/20121120/101359/1040/1640/20/
043100/20121120/101405/1040/1000/20/
043100/20121120/101420/1035/413/10/
043100/20121120/101421/1035/1000/20/
043100/20121120/101431/1035/1001/20/
043100/20121120/101434/1035/842/20/
043100/20121120/101503/1035/602/10/
043100/20121120/101508/1035/100/10/
043100/20121120/101512/1040/458/20/
043100/20121120/101533/1040/127/20/
043100/20121120/101559/1035/800/10/
043100/20121120/101610/1035/1158/10/
043100/20121120/101617/1035/100/20/
043100/20121120/101652/1035/1000/20/
043100/20121120/101702/1030/1030/10/
043100/20121120/101703/1035/100/20/
043100/20121120/101743/1035/1000/10/
043100/20121120/101820/1035/150/20/
043100/20121120/101829/1030/4072/10/
043100/20121120/101840/1030/2000/10/
043100/20121120/101915/1030/3001/10/
043100/20121120/101917/1030/1294/10/
043100/20121120/101931/1030/2000/10/
043100/20121120/101940/1030/6373/10/
043100/20121120/101940/1030/702/10/
043100/20121120/101946/1030/6474/10/
043100/20121120/101948/1025/7807/10/
043100/20121120/101950/1025/4219/10/
043100/20121120/102024/1025/405/10/
043100/20121120/102030/1025/91/10/
043100/20121120/102038/1030/1010/20/
043100/20121120/102109/1025/184/10/
043100/20121120/102146/1025/3820/10/
043100/20121120/102157/1025/1180/10/
043100/20121120/102159/1025/33000/10/
043100/20121120/102200/1025/25233/10/
043100/20121120/102225/1020/2053/10/
043100/20121120/102235/1025/101/20/
043100/20121120/102301/1020/95/10/
043100/20121120/102304/1025/4001/20/
043100/20121120/102306/1025/294/20/
043100/20121120/102319/1025/1001/20/
043100/20121120/102321/1025/294/20/
043100/20121120/102335/1025/24292/20/
043100/20121120/102335/1025/4995/10/
043100/20121120/102340/1025/1026/20/
043100/20121120/102340/1025/3974/10/
043100/20121120/102347/1025/2990/10/
043100/20121120/102357/1025/172/10/
043100/20121120/102405/1025/4900/10/
043100/20121120/102405/1025/201/20/
043100/20121120/102425/1025/123/10/
043100/20121120/102428/1025/935/10/
043100/20121120/102512/1020/126/10/
043100/20121120/102528/1020/13043/10/
043100/20121120/102530/1020/862/10/
043100/20121120/102533/1025/3003/20/
043100/20121120/102626/1020/10000/10/
043100/20121120/102636/1020/2500/10/
043100/20121120/102638/1020/7000/10/
043100/20121120/102640/1025/200/20/
043100/20121120/102641/1020/10000/10/
043100/20121120/102643/1020/1049/10/
043100/20121120/102648/1020/5000/10/
043100/20121120/102650/1020/8655/10/
043100/20121120/102651/1020/274/10/
043100/20121120/102652/1020/1726/20/
043100/20121120/102700/1020/204/20/
043100/20121120/102700/1025/9870/20/
043100/20121120/102704/1015/103/10/
043100/20121120/102714/1015/1910/10/
043100/20121120/102736/1015/630/10/
043100/20121120/102757/1020/1568/20/
043100/20121120/102800/1020/250/20/
043100/20121120/102812/1020/1031/20/
043100/20121120/102814/1020/320/20/
043100/20121120/102817/1020/320/20/
043100/20121120/102818/1020/300/20/
043100/20121120/102821/1020/8709/20/
043100/20121120/102828/1020/2000/10/
043100/20121120/102854/1020/1002/10/
043100/20121120/102908/1020/16001/10/
043100/20121120/102915/1025/537/20/
043100/20121120/102919/1020/1281/10/
043100/20121120/102930/1020/101/20/
043100/20121120/102937/1020/1618/20/
043100/20121120/102945/1025/401/20/
043100/20121120/103016/1020/576/10/
043100/20121120/103016/1015/1470/10/
043100/20121120/103026/1025/151/20/
043100/20121120/103053/1020/87/20/
043100/20121120/103151/1020/3801/20/
043100/20121120/103203/1015/1000/10/
043100/20121120/103235/1015/535/10/
043100/20121120/103246/1015/1501/10/
043100/20121120/103300/1015/5043/10/
043100/20121120/103342/1015/597/10/
043100/20121120/103343/1015/25579/10/
043100/20121120/103353/1015/246/20/
043100/20121120/103431/1015/111/20/
043100/20121120/103434/1010/13050/10/
043100/20121120/103444/1010/2282/10/
043100/20121120/103446/1010/2001/10/
043100/20121120/103449/1010/4762/10/
043100/20121120/103454/1010/1020/10/
043100/20121120/103506/1010/7787/10/
043100/20121120/103509/1010/2230/10/
043100/20121120/103512/1010/88/10/
043100/20121120/103515/1010/102/10/
043100/20121120/103517/1010/2009/10/
043100/20121120/103519/1010/1000/10/
043100/20121120/103521/1010/1353/10/
043100/20121120/103522/1010/147/20/
043100/20121120/103523/1010/595/10/
043100/20121120/103525/1010/1401/10/
043100/20121120/103526/1010/201/10/
043100/20121120/103542/1010/2512/10/
043100/20121120/103611/1010/2079/10/
043100/20121120/103627/1010/433/10/
043100/20121120/103639/1010/16043/10/
043100/20121120/103640/1010/300/20/
043100/20121120/103642/1010/492/20/
043100/20121120/103644/1010/3960/20/
043100/20121120/103650/1010/140/20/
043100/20121120/103653/1010/104/20/
043100/20121120/103654/1010/5145/20/
043100/20121120/103700/1010/848/10/
043100/20121120/103723/1015/1020/20/
043100/20121120/103737/1015/831/20/
043100/20121120/103741/1010/12200/10/
043100/20121120/103744/1010/1401/10/
043100/20121120/103747/1010/1296/10/
043100/20121120/103758/1005/2181/10/
043100/20121120/103758/1005/3000/10/
043100/20121120/103800/1010/191/20/
043100/20121120/103805/1005/1019/10/
043100/20121120/103817/1005/1449/10/
043100/20121120/103819/1010/2005/20/
043100/20121120/103830/1005/540/10/
043100/20121120/103833/1005/37946/10/
043100/20121120/103835/1005/1028/10/
043100/20121120/103838/1005/130/10/
043100/20121120/103857/1005/906/10/
043100/20121120/103901/1005/701/10/
043100/20121120/103903/1005/3400/10/
043100/20121120/103906/1005/301/10/
043100/20121120/103944/1010/159/20/
043100/20121120/103952/1005/7503/10/
043100/20121120/104002/1000/8073/10/
043100/20121120/104004/1005/290/20/
043100/20121120/104006/1005/101/20/
043100/20121120/104011/1005/100/20/
043100/20121120/104031/1005/2760/20/
043100/20121120/104049/1005/7099/10/
043100/20121120/104112/1005/112/20/
043100/20121120/104112/1000/200/10/
043100/20121120/104115/1000/5100/10/
043100/20121120/104121/1000/10001/10/
043100/20121120/104123/1000/500/10/
043100/20121120/104139/1000/29002/10/
043100/20121120/104141/1000/5000/10/
043100/20121120/104141/1000/10017/10/
043100/20121120/104141/1000/18073/10/
043100/20121120/104154/999/3844/10/
043100/20121120/104159/999/131/10/
043100/20121120/104200/999/400/10/
043100/20121120/104207/1000/103/20/
043100/20121120/104208/999/1000/10/
043100/20121120/104213/999/502/10/
043100/20121120/104218/999/833/10/
043100/20121120/104220/999/175/10/
043100/20121120/104224/1000/3801/20/
043100/20121120/104225/1000/1000/20/
043100/20121120/104226/1000/1009/20/
043100/20121120/104226/1000/1000/20/
043100/20121120/104226/1000/3799/20/
043100/20121120/104226/1000/2000/20/
043100/20121120/104226/999/1808/10/
043100/20121120/104227/1000/514/20/
043100/20121120/104237/1005/96/20/
043100/20121120/104255/1005/170/20/
043100/20121120/104259/1005/826/20/
043100/20121120/104302/1005/128/10/
043100/20121120/104321/1010/1607/20/
043100/20121120/104330/1005/100/10/
043100/20121120/104350/1005/937/10/
043100/20121120/104402/1005/376/20/
043100/20121120/104444/1005/81/20/
043100/20121120/104445/1000/638/10/
043100/20121120/104446/1000/9000/10/
043100/20121120/104501/1000/1039/10/
043100/20121120/104528/1000/3002/10/
043100/20121120/104604/1000/116/10/
043100/20121120/104613/1005/102/20/
043100/20121120/104622/1005/4001/20/
043100/20121120/104627/1005/1000/20/
043100/20121120/104630/1005/297/20/
043100/20121120/104637/1005/201/10/
043100/20121120/104736/1010/9989/20/
043100/20121120/104737/1010/3001/20/
043100/20121120/104803/1010/9155/20/
043100/20121120/104819/1015/1233/20/
043100/20121120/104826/1015/102/20/
043100/20121120/104829/1010/501/10/
043100/20121120/104903/1010/477/10/
043100/20121120/105030/1005/601/10/
043100/20121120/105034/1005/1892/10/
043100/20121120/105041/1005/1116/10/
043100/20121120/105222/1005/1048/10/
043100/20121120/105226/1005/4260/10/
043100/20121120/105229/1005/5020/10/
043100/20121120/105234/1005/1001/10/
043100/20121120/105235/1005/1000/10/
043100/20121120/105236/1005/1001/10/
043100/20121120/105236/1005/5530/10/
043100/20121120/105337/1000/1012/10/
043100/20121120/105344/1000/1500/10/
043100/20121120/105422/1000/959/10/
043100/20121120/105438/1005/146/20/
043100/20121120/105448/1000/1213/10/
043100/20121120/105502/1005/728/20/
043100/20121120/105503/1005/318/20/
043100/20121120/105522/1000/715/10/
043100/20121120/105527/1000/462/10/
043100/20121120/105616/1005/294/20/
043100/20121120/105617/1005/316/20/
043100/20121120/105635/1005/1112/20/
043100/20121120/105636/1005/102/20/
043100/20121120/105645/1005/1016/20/
043100/20121120/105650/1005/204/20/
043100/20121120/105709/1005/5005/20/
043100/20121120/105715/1005/1224/20/
043100/20121120/105717/1005/130/20/
043100/20121120/105719/1005/302/20/
043100/20121120/105720/1005/100/20/
043100/20121120/105729/1000/81/10/
043100/20121120/105735/1005/1032/20/
043100/20121120/105737/1005/1002/20/
043100/20121120/105747/1005/1503/20/
043100/20121120/105748/1005/149/20/
043100/20121120/105748/1005/2000/20/
043100/20121120/105748/1005/1200/20/
043100/20121120/105749/1005/350/20/
043100/20121120/105750/1005/2843/20/
043100/20121120/105755/1010/101/20/
043100/20121120/105801/1005/99/10/
043100/20121120/105805/1005/100/10/
043100/20121120/105807/1005/98/10/
043100/20121120/105810/1005/100/10/
043100/20121120/105812/1005/98/10/
043100/20121120/105814/1005/98/10/
043100/20121120/105819/1005/100/10/
043100/20121120/105823/1005/3250/10/
043100/20121120/105845/1005/16246/10/
043100/20121120/105857/1005/101/20/
043100/20121120/105906/1000/502/10/
043100/20121120/105912/1005/443/20/
043100/20121120/110011/1005/1842/20/
043100/20121120/110013/1005/510/20/
043100/20121120/110014/1005/971/20/
043100/20121120/110044/1010/92/20/
043100/20121120/110044/1005/1000/10/
043100/20121120/110053/1005/2011/10/
043100/20121120/110056/1005/6001/10/
043100/20121120/110146/1010/89/20/
043100/20121120/110243/1005/112/10/
043100/20121120/110243/1005/127/10/
043100/20121120/110243/1005/98/10/
043100/20121120/110243/1005/98/10/
043100/20121120/110243/1005/98/10/
043100/20121120/110250/1005/86/20/
043100/20121120/110311/1000/110/10/
043100/20121120/110311/1000/127/10/
043100/20121120/110311/1000/98/10/
043100/20121120/110311/1000/127/10/
043100/20121120/110312/1000/98/10/
043100/20121120/110312/1000/98/10/
043100/20121120/110312/1000/98/10/
043100/20121120/110312/1000/98/10/
043100/20121120/110313/1000/127/10/
043100/20121120/110313/1000/98/10/
043100/20121120/110313/1000/98/10/
043100/20121120/110318/1005/560/20/
043100/20121120/110332/1005/121/20/
043100/20121120/110344/1000/94/10/
043100/20121120/110344/1000/90/10/
043100/20121120/110359/1005/4049/20/
043100/20121120/110425/1005/831/10/
043100/20121120/110533/1005/166/10/
043100/20121120/110614/1010/1015/20/
043100/20121120/110701/1010/501/20/
043100/20121120/110723/1010/500/20/
043100/20121120/110810/1005/1278/10/
043100/20121120/110810/1005/1170/10/
043100/20121120/110818/1010/97/20/
043100/20121120/110938/1010/8257/20/
043100/20121120/110943/1010/100/20/
043100/20121120/110951/1005/1695/10/
043100/20121120/111108/1010/26001/20/
043100/20121120/111220/1005/802/10/
043100/20121120/111253/1010/801/20/
043100/20121120/111254/1010/117/20/
043100/20121120/111256/1010/100/20/
043100/20121120/111257/1010/2000/20/
043100/20121120/111740/1005/1836/10/
043100/20121120/111828/1005/3567/10/
043100/20121120/111844/1005/3011/10/
043100/20121120/111850/1005/400/10/
043100/20121120/111946/1010/4391/20/
043100/20121120/112104/1005/116/10/
043100/20121120/112114/1010/572/20/
043100/20121120/112142/1005/1000/10/
043100/20121120/112220/1005/1001/10/
043100/20121120/112244/1005/501/10/
043100/20121120/112323/1005/864/10/
043100/20121120/112327/1005/471/10/
043100/20121120/112329/1005/200/10/
043100/20121120/112352/1005/8653/10/
043100/20121120/112427/1010/12872/20/
043100/20121120/112606/1015/201/20/
043100/20121120/112743/1010/93/10/
043100/20121120/112746/1015/500/20/
043100/20121120/113011/1010/365/10/
043100/20121120/113148/1015/401/20/
043100/20121120/113226/1010/16900/10/
043100/20121120/113234/1010/104/10/
043100/20121120/113250/1010/430/20/
043100/20121120/113302/1010/100/20/
043100/20121120/113401/1010/1020/20/
043100/20121120/113414/1010/1266/20/
043100/20121120/113443/1010/1570/10/
043100/20121120/113445/1010/3411/10/
043100/20121120/113448/1010/844/10/
043100/20121120/113458/1010/550/20/
043100/20121120/113507/1010/5000/20/
043100/20121120/113545/1010/116/20/
043100/20121120/113614/1015/101/20/
043100/20121120/113824/1010/1600/10/
043100/20121120/113909/1010/401/20/
043100/20121120/113927/1010/417/20/
043100/20121120/113928/1010/9618/20/
043100/20121120/114013/1015/1001/20/
043100/20121120/114018/1015/400/20/
043100/20121120/114028/1015/1000/20/
043100/20121120/114034/1015/2000/20/
043100/20121120/114045/1010/100/10/
043100/20121120/114118/1015/5000/20/
043100/20121120/114132/1015/7665/20/
043100/20121120/114134/1015/22888/20/
043100/20121120/114136/1020/1000/20/
043100/20121120/114148/1020/500/20/
043100/20121120/114207/1020/300/20/
043100/20121120/114208/1020/200/20/
043100/20121120/114212/1020/1969/20/
043100/20121120/114213/1020/97/20/
043100/20121120/114213/1020/3600/20/
043100/20121120/114214/1020/684/20/
043100/20121120/114214/1020/1177/20/
043100/20121120/114214/1020/7339/20/
043100/20121120/114215/1020/4000/20/
043100/20121120/114217/1020/2958/20/
043100/20121120/114222/1020/5000/10/
043100/20121120/114239/1020/385/10/
043100/20121120/114242/1020/2001/10/
043100/20121120/114244/1020/1895/10/
043100/20121120/114248/1020/925/20/
043100/20121120/114256/1020/97/20/
043100/20121120/114258/1020/1357/20/
043100/20121120/114322/1020/500/20/
043100/20121120/114332/1015/400/10/
043100/20121120/114338/1015/5000/10/
043100/20121120/114710/1015/991/10/
043100/20121120/114823/1015/463/10/
043100/20121120/114919/1015/733/10/
043100/20121120/115022/1020/25002/20/
043100/20121120/115032/1015/3000/10/
043100/20121120/115225/1015/182/10/
043100/20121120/115258/1020/201/20/
043100/20121120/115405/1020/106/20/
043100/20121120/115448/1020/5000/20/
043100/20121120/115609/1015/1000/10/
043100/20121120/115619/1015/1000/10/
043100/20121120/115645/1015/1001/10/
043100/20121120/115735/1015/7342/10/
043100/20121120/115744/1015/7669/10/
043100/20121120/115759/1015/103/10/
043100/20121120/115815/1015/440/10/
043100/20121120/115825/1015/103/20/
043100/20121120/115831/1015/100/20/
043100/20121120/115837/1015/108/20/
043100/20121120/115842/1015/100/20/
043100/20121120/120029/1015/98/20/
043100/20121120/120121/1015/345/20/
043100/20121120/120128/1015/896/20/
043100/20121120/120206/1020/85/20/
043100/20121120/120246/1015/7105/10/
043100/20121120/120246/1010/1075/10/
043100/20121120/120416/1015/132/20/
043100/20121120/120423/1015/500/20/
043100/20121120/120516/1015/111/20/
043100/20121120/120527/1010/2000/10/
043100/20121120/120604/1015/501/20/
043100/20121120/120949/1010/576/10/
043100/20121120/121018/1010/290/10/
043100/20121120/121127/1010/101/10/
043100/20121120/121154/1010/201/10/
043100/20121120/121243/1010/501/10/
043100/20121120/121310/1010/6821/10/
043100/20121120/121325/1010/600/10/
043100/20121120/121332/1010/3359/10/
043100/20121120/121456/1010/5200/10/
043100/20121120/121618/1010/6727/10/
043100/20121120/121702/1010/500/20/
043100/20121120/121805/1010/100/20/
043100/20121120/121816/1010/1000/20/
043100/20121120/121821/1010/960/20/
043100/20121120/121844/1010/135/20/
043100/20121120/121919/1005/13053/10/
043100/20121120/122056/1010/331/20/
043100/20121120/122218/1010/567/20/
043100/20121120/122238/1010/500/20/
043100/20121120/122249/1010/1131/20/
043100/20121120/122342/1010/125/20/
043100/20121120/122409/1010/100/20/
043100/20121120/122434/1005/164/10/
043100/20121120/122443/1005/100/10/
043100/20121120/122504/1005/290/10/
043100/20121120/122609/1010/201/20/
043100/20121120/122724/1005/147/10/
043100/20121120/122803/1005/451/10/
043100/20121120/122825/1010/101/20/
043100/20121120/122907/1010/312/20/
043100/20121120/122912/1010/2000/20/
043100/20121120/123003/1010/7196/20/
043100/20121120/123020/1010/281/10/
043100/20121120/123125/1010/2072/10/
043100/20121120/123132/1010/5000/10/
043100/20121120/123139/1010/1766/10/
043100/20121120/123143/1010/243/20/
043100/20121120/123329/1005/26821/10/
043100/20121120/123333/1005/900/10/
043100/20121120/123445/1005/2217/10/
043100/20121120/123548/1005/5002/10/
043100/20121120/123624/1010/1307/20/
043100/20121120/123751/1010/81/20/
043100/20121120/123824/1010/3001/20/
043100/20121120/123924/1010/100/20/
043100/20121120/124047/1010/1580/20/
043100/20121120/124051/1010/4600/20/
043100/20121120/124120/1010/3064/20/
043100/20121120/124129/1010/493/20/
043100/20121120/124140/1010/500/20/
043100/20121120/124140/1010/1000/20/
043100/20121120/124149/1010/19058/20/
043100/20121120/124150/1010/4000/10/
043100/20121120/124214/1010/1447/10/
043100/20121120/124247/1010/386/10/
043100/20121120/124251/1010/1070/10/
043100/20121120/124315/1010/208/20/
043100/20121120/124412/1005/601/10/
043100/20121120/124541/1010/1404/20/
043100/20121120/124629/1005/6969/10/
043100/20121120/124700/1005/616/10/
043100/20121120/124730/1005/29883/10/
043100/20121120/124748/1005/409/20/
043100/20121120/124830/1000/25099/10/
043100/20121120/124835/1000/1901/10/
043100/20121120/124838/1005/101/20/
043100/20121120/124838/1000/5000/10/
043100/20121120/124846/1000/20901/10/
043100/20121120/124848/1000/1001/10/
043100/20121120/124852/1000/5138/10/
043100/20121120/124857/1000/1011/10/
043100/20121120/124901/1000/171/10/
043100/20121120/124904/1000/1501/10/
043100/20121120/124904/1000/1500/10/
043100/20121120/124904/1000/1122/10/
043100/20121120/124906/999/9235/10/
043100/20121120/124910/998/8308/10/
043100/20121120/124921/997/1785/10/
043100/20121120/124921/997/150/10/
043100/20121120/124922/997/1922/10/
043100/20121120/124926/997/3711/10/
043100/20121120/124932/997/1021/20/
043100/20121120/124933/997/280/20/
043100/20121120/124942/1000/528/20/
043100/20121120/125020/999/163/20/
043100/20121120/125020/1000/3660/20/
043100/20121120/125036/1005/92/20/
043100/20121120/125040/1005/291/10/
043100/20121120/125045/1005/601/10/
043100/20121120/125121/1000/1054/10/
043100/20121120/125215/999/377/10/
043100/20121120/125215/998/634/10/
043100/20121120/125311/1000/779/20/
043100/20121120/125330/1000/2246/10/
043100/20121120/125332/1000/255/20/
043100/20121120/125339/1000/746/10/
043100/20121120/125346/1000/256/20/
043100/20121120/125355/1000/201/10/
043100/20121120/125437/1000/542/10/
043100/20121120/125516/1000/2901/10/
043100/20121120/125517/1005/100/20/
043100/20121120/125527/1005/101/20/
043100/20121120/125532/1005/100/20/
043100/20121120/125538/1005/100/20/
043100/20121120/125549/1000/500/10/
043100/20121120/125613/1000/860/10/
043100/20121120/125626/999/710/10/
043100/20121120/125629/998/5601/10/
043100/20121120/125702/998/4115/10/
043100/20121120/125710/998/501/10/
043100/20121120/125834/999/793/20/
043100/20121120/125841/998/501/10/
043100/20121120/125852/998/5501/10/
043100/20121120/125907/998/540/10/
043100/20121120/125907/997/5861/10/
043100/20121120/125919/999/539/20/
043100/20121120/125932/999/111/20/
043100/20121120/125943/999/317/20/
043100/20121120/125943/999/572/20/
043100/20121120/125950/999/1189/10/
043100/20121120/125952/999/500/20/
043100/20121120/125957/998/4513/10/
043100/20121120/130003/998/2926/10/
043100/20121120/130003/997/23115/10/
043100/20121120/130003/996/13882/10/
043100/20121120/130003/995/27892/10/
043100/20121120/130003/994/6822/10/
043100/20121120/130003/993/54551/10/
043100/20121120/130003/992/3151/10/
043100/20121120/130003/991/2892/10/
043100/20121120/130003/990/6770/10/
043100/20121120/130029/997/1002/20/
043100/20121120/130035/997/650/20/
043100/20121120/130037/997/1533/20/
043100/20121120/130037/999/6346/20/
043100/20121120/130038/995/649/10/
043100/20121120/130047/995/199/20/
043100/20121120/130053/995/120/20/
043100/20121120/130115/999/133/20/
043100/20121120/130202/997/84/20/
043100/20121120/130204/997/330/20/
043100/20121120/130204/997/935/10/
043100/20121120/130252/998/331/20/
043100/20121120/130259/998/790/20/
043100/20121120/130334/998/4723/20/
043100/20121120/130348/998/101/20/
043100/20121120/130359/998/657/20/
043100/20121120/130410/998/509/10/
043100/20121120/130428/998/501/10/
043100/20121120/130436/999/501/20/
043100/20121120/130443/999/1007/20/
043100/20121120/130451/999/653/20/
043100/20121120/130459/999/1001/10/
043100/20121120/130522/999/993/10/
043100/20121120/130531/999/500/20/
043100/20121120/130612/999/350/20/
043100/20121120/130621/999/175/20/
043100/20121120/130641/999/846/10/
043100/20121120/130709/998/2000/10/
043100/20121120/130743/999/1045/20/
043100/20121120/130744/999/2000/20/
043100/20121120/130746/999/1000/20/
043100/20121120/130746/999/893/20/
043100/20121120/130801/999/774/10/
043100/20121120/130811/1000/5001/20/
043100/20121120/130859/1000/86/20/
043100/20121120/130903/1000/10022/20/
043100/20121120/130905/1000/1000/20/
043100/20121120/130905/1000/1000/20/
043100/20121120/130906/1000/500/20/
043100/20121120/130906/1000/1000/20/
043100/20121120/130907/1000/1000/20/
043100/20121120/130911/1000/5648/20/
043100/20121120/130911/1000/1961/20/
043100/20121120/130924/1005/3369/20/
043100/20121120/130928/1005/606/20/
043100/20121120/130932/1005/306/20/
043100/20121120/130938/1005/502/20/
043100/20121120/130938/1005/818/20/
043100/20121120/130940/1005/203/10/
043100/20121120/131012/1005/1983/10/
043100/20121120/131028/1005/1219/10/
043100/20121120/131043/1005/97/10/
043100/20121120/131112/1000/1733/10/
043100/20121120/131128/1000/3363/10/
043100/20121120/131228/1000/5718/10/
043100/20121120/131244/1000/526/20/
043100/20121120/131256/999/313/10/
043100/20121120/131300/1000/301/20/
043100/20121120/131315/999/1207/10/
043100/20121120/131344/1000/2011/20/
043100/20121120/131352/1000/1555/20/
043100/20121120/131354/1000/100/20/
043100/20121120/131409/1000/5508/20/
043100/20121120/131436/1005/12001/20/
043100/20121120/131458/1000/1902/10/
043100/20121120/131503/1005/872/20/
043100/20121120/131521/1005/9001/10/
043100/20121120/131522/1005/101/10/
043100/20121120/131525/1005/1030/10/
043100/20121120/131548/1005/6927/20/
043100/20121120/131600/1010/2582/20/
043100/20121120/131652/1005/1000/10/
043100/20121120/131715/1005/1234/10/
043100/20121120/131737/1005/2082/10/
043100/20121120/131802/1005/1949/20/
043100/20121120/131952/1005/1013/10/
043100/20121120/132042/1005/301/10/
043100/20121120/132051/1005/101/10/
043100/20121120/132136/1005/97/10/
043100/20121120/132159/1010/85/20/
043100/20121120/132314/1005/116/10/
043100/20121120/132340/1000/1000/10/
043100/20121120/132424/1000/2802/10/
043100/20121120/132535/1005/3004/20/
043100/20121120/132552/1005/2069/20/
043100/20121120/132612/1000/498/10/
043100/20121120/132727/1005/302/20/
043100/20121120/132730/1000/1122/10/
043100/20121120/132756/1005/401/20/
043100/20121120/132819/1005/3000/20/
043100/20121120/132825/1005/200/20/
043100/20121120/132832/1005/159/20/
043100/20121120/132832/1005/100/20/
043100/20121120/132902/1005/100/20/
043100/20121120/132911/1005/546/20/
043100/20121120/133004/1005/956/10/
043100/20121120/133236/1005/236/10/
043100/20121120/133359/1010/1093/20/
043100/20121120/133441/1005/1500/10/
043100/20121120/133445/1005/3000/10/
043100/20121120/133454/1005/985/10/
043100/20121120/133528/1005/1005/20/
043100/20121120/133529/1005/111/20/
043100/20121120/133530/1005/2896/10/
043100/20121120/133659/1005/5002/20/
043100/20121120/133702/1005/3322/20/
043100/20121120/133733/1005/100/20/
043100/20121120/133742/1005/361/20/
043100/20121120/133820/1000/30032/10/
043100/20121120/133831/1000/2007/10/
043100/20121120/133856/1000/3566/10/
043100/20121120/133856/999/235/10/
043100/20121120/134019/1000/592/10/
043100/20121120/134032/1000/105/10/
043100/20121120/134105/1005/301/20/
043100/20121120/134228/1000/515/10/
043100/20121120/134252/1000/301/10/
043100/20121120/134257/1005/101/20/
043100/20121120/134317/1000/1503/10/
043100/20121120/134332/1000/4001/10/
043100/20121120/134336/1000/201/10/
043100/20121120/134337/1000/4000/10/
043100/20121120/134339/1000/916/10/
043100/20121120/134400/1000/224/10/
043100/20121120/134409/1000/550/20/
043100/20121120/134420/1000/8067/20/
043100/20121120/134430/1000/1001/10/
043100/20121120/134500/1000/803/10/
043100/20121120/134501/1000/100/20/
043100/20121120/134502/1000/98/20/
043100/20121120/134520/1000/1698/10/
043100/20121120/134521/1000/1001/10/
043100/20121120/134521/1000/2564/10/
043100/20121120/134533/1000/85/10/
043100/20121120/134625/1000/101/10/
043100/20121120/134651/1005/1001/20/
043100/20121120/134659/1005/600/20/
043100/20121120/134707/1005/5200/20/
043100/20121120/134709/1005/1100/20/
043100/20121120/134712/1005/3000/20/
043100/20121120/134723/1005/100/20/
043100/20121120/134748/1005/1000/20/
043100/20121120/134749/1005/1000/20/
043100/20121120/134752/1005/104/20/
043100/20121120/134838/1005/127/20/
043100/20121120/134844/1005/1195/20/
043100/20121120/134852/1005/871/20/
043100/20121120/134921/1005/137/10/
043100/20121120/134928/1005/300/20/
043100/20121120/135023/1010/39628/20/
043100/20121120/135023/1010/8134/20/
043100/20121120/135039/1015/5052/20/
043100/20121120/135044/1015/1378/20/
043100/20121120/135047/1015/2730/20/
043100/20121120/135048/1015/1694/10/
043100/20121120/135053/1015/128/20/
043100/20121120/135053/1020/15753/20/
043100/20121120/135054/1015/1339/20/
043100/20121120/135102/1015/824/20/
043100/20121120/135105/1015/1030/20/
043100/20121120/135110/1015/112/20/
043100/20121120/135111/1015/158/20/
043100/20121120/135113/1015/2017/20/
043100/20121120/135113/1015/7001/20/
043100/20121120/135123/1015/95/20/
043100/20121120/135141/1015/88/20/
043100/20121120/135152/1015/4114/20/
043100/20121120/135152/1015/3809/10/
043100/20121120/135159/1010/264/10/
043100/20121120/135213/1015/85/20/
043100/20121120/135217/1010/1000/10/
043100/20121120/135219/1015/2001/20/
043100/20121120/135258/1015/3752/20/
043100/20121120/135308/1015/26128/10/
043100/20121120/135329/1015/1007/20/
043100/20121120/135336/1010/7015/10/
043100/20121120/135338/1010/11349/10/
043100/20121120/135343/1005/1512/10/
043100/20121120/135347/1005/3407/10/
043100/20121120/135358/1010/1148/20/
043100/20121120/135559/1015/81/20/
043100/20121120/135653/1010/95/10/
043100/20121120/135748/1015/1058/20/
043100/20121120/135806/1010/202/10/
043100/20121120/135812/1010/200/10/
043100/20121120/135839/1015/985/20/
043100/20121120/135923/1010/386/10/
043100/20121120/135937/1015/9791/20/
043100/20121120/140007/1015/839/10/
043100/20121120/140101/1015/5204/10/
043100/20121120/140102/1015/1000/10/
043100/20121120/140102/1015/1164/10/
043100/20121120/140114/1020/152/20/
043100/20121120/140153/1015/2008/10/
043100/20121120/140226/1015/3003/10/
043100/20121120/140231/1020/101/20/
043100/20121120/140231/1015/1013/10/
043100/20121120/140254/1015/406/20/
043100/20121120/140422/1015/4275/20/
043100/20121120/140441/1015/3451/20/
043100/20121120/140504/1015/126/10/
043100/20121120/140539/1015/83/10/
043100/20121120/140541/1020/102/20/
043100/20121120/140556/1020/410/20/
043100/20121120/140609/1015/1013/10/
043100/20121120/140616/1015/4602/10/
043100/20121120/140627/1015/111/10/
043100/20121120/140630/1015/1095/10/
043100/20121120/140732/1015/89/20/
043100/20121120/140831/1015/101/20/
043100/20121120/140901/1010/3039/10/
043100/20121120/140958/1010/163/10/
043100/20121120/141038/1010/17530/10/
043100/20121120/141100/1010/149/20/
043100/20121120/141112/1010/511/20/
043100/20121120/141115/1010/511/20/
043100/20121120/141117/1010/490/10/
043100/20121120/141159/1010/1009/20/
043100/20121120/141256/1005/5003/10/
043100/20121120/141336/1005/409/10/
043100/20121120/141409/1005/764/10/
043100/20121120/141430/1005/3543/10/
043100/20121120/141456/1005/1995/20/
043100/20121120/141500/1000/8169/10/
043100/20121120/141504/1000/17941/10/
043100/20121120/141512/1005/3002/20/
043100/20121120/141530/1000/13763/10/
043100/20121120/141538/1000/11000/10/
043100/20121120/141540/1000/1000/10/
043100/20121120/141540/1000/188/10/
043100/20121120/141541/1000/5000/10/
043100/20121120/141612/1000/3501/10/
043100/20121120/141632/1000/4101/10/
043100/20121120/141822/1005/2074/10/
043100/20121120/141959/1010/86/20/
043100/20121120/142023/1010/87/20/
043100/20121120/142057/1005/281/10/
043100/20121120/142154/1005/1003/10/
043100/20121120/142156/1005/3000/10/
043100/20121120/142212/1005/1441/10/
043100/20121120/142214/1005/5000/10/
043100/20121120/142215/1005/3770/10/
043100/20121120/142304/1000/249/10/
043100/20121120/142330/1005/7222/20/
043100/20121120/142331/1000/986/10/
043100/20121120/142331/1000/1000/10/
043100/20121120/142331/1000/1000/10/
043100/20121120/142331/1000/1000/10/
043100/20121120/142343/1005/4619/20/
043100/20121120/142344/1005/1015/20/
043100/20121120/142410/1005/621/10/
043100/20121120/142445/1005/616/10/
043100/20121120/142523/1010/176/20/
043100/20121120/142626/1005/413/10/
043100/20121120/142639/1005/405/10/
043100/20121120/142727/1005/1005/10/
043100/20121120/142735/1005/1177/10/
043100/20121120/142736/1005/17095/10/
043100/20121120/142810/1005/5924/10/
043100/20121120/142854/1005/1073/20/
043100/20121120/142905/1000/838/10/
043100/20121120/142921/1000/276/10/
043100/20121120/143011/1005/504/20/
043100/20121120/143023/1005/3005/20/
043100/20121120/143038/1005/12384/20/
043100/20121120/143039/1005/12959/20/
043100/20121120/143213/1010/173/20/
043100/20121120/143350/1005/89/10/
043100/20121120/143436/1005/1010/10/
043100/20121120/143443/1005/902/10/
043100/20121120/143443/1005/1000/10/
043100/20121120/143450/1005/550/10/
043100/20121120/143502/1005/551/10/
043100/20121120/143525/1005/15001/10/
043100/20121120/143528/1005/375/10/
043100/20121120/143530/1005/1014/10/
043100/20121120/143549/1005/9623/10/
043100/20121120/143556/1005/503/20/
043100/20121120/143605/1005/2204/20/
043100/20121120/143618/1010/81/20/
043100/20121120/143636/1005/1005/10/
043100/20121120/143701/1005/1001/10/
043100/20121120/143715/1005/6001/10/
043100/20121120/143721/1010/141/20/
043100/20121120/143729/1005/558/10/
043100/20121120/143742/1010/181/20/
043100/20121120/143921/1010/211/20/
043100/20121120/143958/1005/110/10/
043100/20121120/144029/1010/85/20/
043100/20121120/144124/1005/5039/10/
043100/20121120/144128/1010/25691/20/
043100/20121120/144137/1010/4000/20/
043100/20121120/144143/1010/3534/20/
043100/20121120/144153/1010/1660/20/
043100/20121120/144218/1005/4007/10/
043100/20121120/144238/1005/2001/10/
043100/20121120/144310/1005/5001/10/
043100/20121120/144351/1005/1001/10/
043100/20121120/144405/1005/6001/10/
043100/20121120/144415/1005/801/10/
043100/20121120/144435/1005/512/10/
043100/20121120/144509/1010/1723/20/
043100/20121120/144546/1005/2070/10/
043100/20121120/144605/1005/5012/10/
043100/20121120/144621/1010/1001/20/
043100/20121120/144729/1010/1252/20/
043100/20121120/144751/1005/2918/10/
043100/20121120/144810/1005/971/10/
043100/20121120/144811/1010/1000/20/
043100/20121120/144825/1005/6021/10/
043100/20121120/144837/1005/101/10/
043100/20121120/144844/1005/2000/10/
043100/20121120/144853/1005/886/10/
043100/20121120/144905/1005/501/10/
043100/20121120/144923/1005/302/10/
043100/20121120/144925/1005/2992/10/
043100/20121120/144935/1010/201/20/
043100/20121120/144942/1010/8493/20/
043100/20121120/144945/1010/9334/20/
043100/20121120/144951/1015/4806/20/
043100/20121120/150000/1005/104134/10/
