043100/20130402/90000/1140/42010/10/
043100/20130402/90001/1145/400/20/
043100/20130402/90002/1150/1550/20/
043100/20130402/90007/1150/3900/20/
043100/20130402/90014/1145/1468/10/
043100/20130402/90020/1145/1039/20/
043100/20130402/90022/1145/543/20/
043100/20130402/90022/1145/500/20/
043100/20130402/90022/1145/2447/20/
043100/20130402/90025/1145/310/20/
043100/20130402/90030/1145/500/20/
043100/20130402/90034/1145/125/20/
043100/20130402/90034/1145/1363/20/
043100/20130402/90044/1150/3251/20/
043100/20130402/90045/1150/3000/20/
043100/20130402/90047/1150/1135/20/
043100/20130402/90048/1150/311/20/
043100/20130402/90050/1150/900/20/
043100/20130402/90058/1150/102/20/
043100/20130402/90058/1150/590/20/
043100/20130402/90058/1150/3074/20/
043100/20130402/90108/1155/101/20/
043100/20130402/90112/1155/442/20/
043100/20130402/90114/1155/3024/20/
043100/20130402/90114/1155/15764/20/
043100/20130402/90114/1155/4000/10/
043100/20130402/90116/1160/30860/20/
043100/20130402/90121/1160/1816/20/
043100/20130402/90122/1160/1001/20/
043100/20130402/90125/1160/2177/20/
043100/20130402/90126/1160/176/20/
043100/20130402/90126/1160/1000/20/
043100/20130402/90127/1160/4785/20/
043100/20130402/90127/1160/3155/20/
043100/20130402/90129/1160/1037/20/
043100/20130402/90130/1160/1927/20/
043100/20130402/90133/1160/173/20/
043100/20130402/90139/1160/496/20/
043100/20130402/90144/1160/130/20/
043100/20130402/90145/1155/200/10/
043100/20130402/90148/1155/3075/10/
043100/20130402/90151/1155/536/10/
043100/20130402/90151/1155/681/10/
043100/20130402/90152/1155/12199/10/
043100/20130402/90152/1155/2000/10/
043100/20130402/90152/1155/27078/10/
043100/20130402/90153/1155/4899/10/
043100/20130402/90154/1150/356/10/
043100/20130402/90154/1145/2284/10/
043100/20130402/90156/1150/2085/10/
043100/20130402/90156/1145/4553/10/
043100/20130402/90203/1145/201/10/
043100/20130402/90213/1155/2001/20/
043100/20130402/90213/1155/915/20/
043100/20130402/90217/1155/100/20/
043100/20130402/90228/1155/3000/20/
043100/20130402/90240/1150/100/20/
043100/20130402/90240/1150/5000/20/
043100/20130402/90241/1150/1246/20/
043100/20130402/90243/1150/500/20/
043100/20130402/90252/1150/231/20/
043100/20130402/90253/1150/2000/20/
043100/20130402/90254/1150/500/20/
043100/20130402/90254/1150/100/20/
043100/20130402/90255/1150/1099/20/
043100/20130402/90257/1150/118/10/
043100/20130402/90314/1150/1387/10/
043100/20130402/90321/1155/101/20/
043100/20130402/90408/1155/912/20/
043100/20130402/90412/1150/100/10/
043100/20130402/90436/1150/1724/10/
043100/20130402/90441/1150/6275/10/
043100/20130402/90443/1150/400/10/
043100/20130402/90447/1155/101/20/
043100/20130402/90501/1155/81/20/
043100/20130402/90501/1150/21137/10/
043100/20130402/90502/1155/249/20/
043100/20130402/90503/1150/2001/10/
043100/20130402/90503/1150/1776/10/
043100/20130402/90507/1150/476/20/
043100/20130402/90508/1150/115/20/
043100/20130402/90511/1150/175/20/
043100/20130402/90518/1145/351/10/
043100/20130402/90520/1150/300/20/
043100/20130402/90527/1150/6001/20/
043100/20130402/90554/1145/415/10/
043100/20130402/90557/1150/966/20/
043100/20130402/90607/1150/1745/20/
043100/20130402/90612/1150/140/20/
043100/20130402/90615/1150/101/20/
043100/20130402/90618/1150/465/20/
043100/20130402/90619/1145/100/10/
043100/20130402/90626/1145/101/10/
043100/20130402/90627/1145/1000/10/
043100/20130402/90639/1145/402/10/
043100/20130402/90642/1150/301/20/
043100/20130402/90645/1150/2000/20/
043100/20130402/90648/1150/130/20/
043100/20130402/90658/1145/1537/10/
043100/20130402/90701/1145/5400/10/
043100/20130402/90703/1150/101/20/
043100/20130402/90707/1150/8568/20/
043100/20130402/90717/1150/197/20/
043100/20130402/90719/1150/3401/20/
043100/20130402/90736/1150/504/20/
043100/20130402/90739/1145/4302/10/
043100/20130402/90739/1150/564/20/
043100/20130402/90746/1150/1001/20/
043100/20130402/90754/1150/2002/20/
043100/20130402/90755/1150/5000/20/
043100/20130402/90756/1150/10000/20/
043100/20130402/90756/1150/8695/20/
043100/20130402/90757/1150/4000/20/
043100/20130402/90758/1150/1001/20/
043100/20130402/90759/1150/3230/20/
043100/20130402/90810/1155/1000/20/
043100/20130402/90813/1155/500/20/
043100/20130402/90813/1155/300/20/
043100/20130402/90816/1155/10001/20/
043100/20130402/90817/1155/1000/20/
043100/20130402/90820/1155/434/20/
043100/20130402/90822/1155/7237/20/
043100/20130402/90823/1160/100/20/
043100/20130402/90824/1155/10303/10/
043100/20130402/90827/1155/521/20/
043100/20130402/90831/1155/550/20/
043100/20130402/90831/1155/3200/20/
043100/20130402/90833/1155/2246/20/
043100/20130402/90835/1155/200/20/
043100/20130402/90837/1155/504/20/
043100/20130402/90839/1155/300/20/
043100/20130402/90840/1155/500/20/
043100/20130402/90846/1155/5001/20/
043100/20130402/90852/1155/101/20/
043100/20130402/90858/1155/431/20/
043100/20130402/90902/1155/1015/20/
043100/20130402/90905/1155/256/20/
043100/20130402/90905/1155/100/20/
043100/20130402/90915/1155/291/20/
043100/20130402/90921/1150/9022/10/
043100/20130402/90932/1155/1700/20/
043100/20130402/90932/1155/2864/20/
043100/20130402/90952/1160/1015/20/
043100/20130402/90958/1160/7750/20/
043100/20130402/91002/1160/100/20/
043100/20130402/91006/1155/300/10/
043100/20130402/91007/1160/2000/20/
043100/20130402/91018/1160/100/20/
043100/20130402/91019/1160/10543/20/
043100/20130402/91023/1160/1209/20/
043100/20130402/91027/1160/139/20/
043100/20130402/91029/1160/1200/20/
043100/20130402/91032/1160/116/20/
043100/20130402/91034/1160/1500/20/
043100/20130402/91035/1160/81/20/
043100/20130402/91036/1160/500/20/
043100/20130402/91039/1160/1500/20/
043100/20130402/91041/1160/1002/20/
043100/20130402/91042/1160/171/20/
043100/20130402/91044/1160/500/20/
043100/20130402/91044/1160/200/20/
043100/20130402/91045/1160/350/20/
043100/20130402/91049/1160/100/20/
043100/20130402/91050/1160/4000/20/
043100/20130402/91053/1160/4310/20/
043100/20130402/91055/1160/4014/20/
043100/20130402/91057/1160/12047/10/
043100/20130402/91057/1155/1400/10/
043100/20130402/91101/1160/1000/20/
043100/20130402/91106/1160/300/20/
043100/20130402/91108/1160/100/20/
043100/20130402/91108/1160/100/20/
043100/20130402/91115/1160/2500/20/
043100/20130402/91117/1160/12601/20/
043100/20130402/91120/1160/2189/20/
043100/20130402/91123/1160/100/20/
043100/20130402/91128/1160/196/20/
043100/20130402/91159/1160/100/20/
043100/20130402/91203/1160/981/20/
043100/20130402/91208/1160/210/20/
043100/20130402/91210/1155/576/10/
043100/20130402/91214/1155/100/10/
043100/20130402/91216/1160/101/20/
043100/20130402/91218/1155/6140/10/
043100/20130402/91219/1160/100/20/
043100/20130402/91224/1155/1000/10/
043100/20130402/91225/1155/3200/10/
043100/20130402/91232/1160/100/20/
043100/20130402/91236/1160/1046/20/
043100/20130402/91240/1155/5000/10/
043100/20130402/91242/1155/948/10/
043100/20130402/91242/1160/6000/20/
043100/20130402/91243/1155/465/10/
043100/20130402/91245/1155/400/10/
043100/20130402/91305/1155/100/10/
043100/20130402/91313/1155/100/10/
043100/20130402/91337/1155/560/10/
043100/20130402/91345/1155/1800/10/
043100/20130402/91347/1155/92/10/
043100/20130402/91351/1155/141/10/
043100/20130402/91356/1155/1842/10/
043100/20130402/91358/1155/7000/10/
043100/20130402/91359/1155/4500/10/
043100/20130402/91400/1155/1277/10/
043100/20130402/91401/1155/2000/10/
043100/20130402/91402/1155/1202/10/
043100/20130402/91410/1155/1000/20/
043100/20130402/91415/1155/943/20/
043100/20130402/91421/1155/2610/20/
043100/20130402/91429/1155/1846/10/
043100/20130402/91430/1155/544/10/
043100/20130402/91436/1155/500/20/
043100/20130402/91439/1155/100/20/
043100/20130402/91439/1150/34500/10/
043100/20130402/91455/1155/122/20/
043100/20130402/91501/1155/500/20/
043100/20130402/91510/1155/100/20/
043100/20130402/91511/1155/868/20/
043100/20130402/91524/1155/520/20/
043100/20130402/91537/1155/500/20/
043100/20130402/91546/1155/101/20/
043100/20130402/91547/1155/6652/20/
043100/20130402/91549/1155/398/10/
043100/20130402/91551/1155/3028/20/
043100/20130402/91553/1155/100/20/
043100/20130402/91557/1155/2000/20/
043100/20130402/91559/1155/876/20/
043100/20130402/91601/1155/1000/20/
043100/20130402/91605/1155/100/20/
043100/20130402/91628/1155/5020/20/
043100/20130402/91629/1150/2000/10/
043100/20130402/91647/1155/1000/20/
043100/20130402/91653/1150/100/10/
043100/20130402/91713/1150/2051/10/
043100/20130402/91716/1150/642/10/
043100/20130402/91725/1150/8505/10/
043100/20130402/91726/1150/100/10/
043100/20130402/91726/1150/1000/10/
043100/20130402/91726/1150/500/10/
043100/20130402/91745/1150/2840/10/
043100/20130402/91747/1150/1799/10/
043100/20130402/91750/1150/4405/10/
043100/20130402/91753/1150/13503/10/
043100/20130402/91753/1150/957/10/
043100/20130402/91819/1150/253/20/
043100/20130402/91848/1150/590/10/
043100/20130402/91851/1150/210/10/
043100/20130402/91853/1150/850/10/
043100/20130402/91908/1150/2540/10/
043100/20130402/91909/1150/100/10/
043100/20130402/91917/1150/200/10/
043100/20130402/91917/1150/1123/10/
043100/20130402/91924/1150/4613/10/
043100/20130402/91925/1150/1000/10/
043100/20130402/91940/1150/100/10/
043100/20130402/91945/1150/1539/10/
043100/20130402/92001/1150/3028/10/
043100/20130402/92008/1150/400/10/
043100/20130402/92011/1150/100/10/
043100/20130402/92013/1150/371/10/
043100/20130402/92021/1150/1000/10/
043100/20130402/92024/1150/200/10/
043100/20130402/92026/1150/430/10/
043100/20130402/92029/1150/1000/10/
043100/20130402/92032/1150/500/10/
043100/20130402/92034/1150/224/10/
043100/20130402/92045/1150/200/10/
043100/20130402/92047/1150/200/10/
043100/20130402/92115/1150/706/10/
043100/20130402/92139/1150/1001/10/
043100/20130402/92202/1150/1444/10/
043100/20130402/92219/1150/5000/10/
043100/20130402/92222/1150/1000/10/
043100/20130402/92228/1150/10987/10/
043100/20130402/92232/1150/2973/10/
043100/20130402/92232/1150/1181/10/
043100/20130402/92236/1150/503/20/
043100/20130402/92241/1150/913/20/
043100/20130402/92259/1150/5000/20/
043100/20130402/92301/1150/600/20/
043100/20130402/92314/1150/3673/20/
043100/20130402/92320/1150/83/20/
043100/20130402/92322/1145/1000/10/
043100/20130402/92322/1150/450/20/
043100/20130402/92325/1145/8567/10/
043100/20130402/92332/1145/501/10/
043100/20130402/92338/1150/5000/20/
043100/20130402/92347/1145/400/10/
043100/20130402/92350/1145/1500/10/
043100/20130402/92352/1145/4000/10/
043100/20130402/92405/1145/2597/10/
043100/20130402/92407/1145/5050/10/
043100/20130402/92411/1145/2803/10/
043100/20130402/92419/1145/530/10/
043100/20130402/92422/1145/300/10/
043100/20130402/92428/1145/2187/10/
043100/20130402/92438/1150/1000/20/
043100/20130402/92452/1150/346/20/
043100/20130402/92459/1150/605/20/
043100/20130402/92513/1150/1000/20/
043100/20130402/92520/1150/1111/20/
043100/20130402/92526/1150/500/20/
043100/20130402/92536/1145/200/10/
043100/20130402/92611/1145/21644/10/
043100/20130402/92649/1145/505/10/
043100/20130402/92653/1145/1000/10/
043100/20130402/92659/1145/5300/10/
043100/20130402/92709/1145/1000/10/
043100/20130402/92713/1145/400/10/
043100/20130402/92716/1145/700/10/
043100/20130402/92733/1145/1000/10/
043100/20130402/92734/1145/330/10/
043100/20130402/92749/1145/500/10/
043100/20130402/92808/1145/262/10/
043100/20130402/92902/1145/1056/10/
043100/20130402/92908/1145/1013/10/
043100/20130402/93002/1150/1002/20/
043100/20130402/93003/1145/1000/10/
043100/20130402/93033/1145/462/10/
043100/20130402/93040/1145/1025/10/
043100/20130402/93046/1145/400/10/
043100/20130402/93047/1145/400/10/
043100/20130402/93047/1145/4796/10/
043100/20130402/93048/1145/1000/20/
043100/20130402/93104/1140/1000/10/
043100/20130402/93107/1145/1055/20/
043100/20130402/93117/1145/104/20/
043100/20130402/93120/1145/100/20/
043100/20130402/93120/1145/1000/20/
043100/20130402/93139/1145/1000/20/
043100/20130402/93222/1140/884/10/
043100/20130402/93225/1145/3000/20/
043100/20130402/93247/1145/105/20/
043100/20130402/93254/1145/3000/20/
043100/20130402/93257/1145/4801/20/
043100/20130402/93306/1145/439/10/
043100/20130402/93309/1145/100/20/
043100/20130402/93311/1145/942/20/
043100/20130402/93317/1145/340/20/
043100/20130402/93320/1145/1126/20/
043100/20130402/93325/1140/200/10/
043100/20130402/93345/1145/100/20/
043100/20130402/93349/1145/100/20/
043100/20130402/93352/1145/100/20/
043100/20130402/93355/1145/100/20/
043100/20130402/93359/1145/100/20/
043100/20130402/93406/1145/100/20/
043100/20130402/93417/1145/100/20/
043100/20130402/93426/1145/100/20/
043100/20130402/93435/1145/1736/20/
043100/20130402/93444/1145/1622/10/
043100/20130402/93444/1140/482/10/
043100/20130402/93454/1145/850/10/
043100/20130402/93457/1145/100/20/
043100/20130402/93500/1145/1000/20/
043100/20130402/93515/1145/200/20/
043100/20130402/93615/1145/1001/20/
043100/20130402/93619/1145/180/20/
043100/20130402/93628/1145/1309/20/
043100/20130402/93628/1145/100/20/
043100/20130402/93643/1145/1300/20/
043100/20130402/93644/1145/100/20/
043100/20130402/93705/1140/877/10/
043100/20130402/93720/1145/500/20/
043100/20130402/93731/1145/9050/20/
043100/20130402/93735/1145/250/20/
043100/20130402/93735/1145/351/20/
043100/20130402/93735/1145/1249/10/
043100/20130402/93740/1140/2625/10/
043100/20130402/93743/1145/100/20/
043100/20130402/93744/1145/4000/20/
043100/20130402/93750/1145/100/20/
043100/20130402/93752/1145/1600/20/
043100/20130402/93759/1140/1000/10/
043100/20130402/93820/1145/3942/20/
043100/20130402/93833/1145/480/20/
043100/20130402/93835/1145/100/20/
043100/20130402/93905/1145/246/20/
043100/20130402/93912/1145/400/20/
043100/20130402/93916/1145/10000/20/
043100/20130402/93921/1145/560/20/
043100/20130402/93929/1145/1000/10/
043100/20130402/93951/1145/517/10/
043100/20130402/94000/1140/500/10/
043100/20130402/94002/1145/100/20/
043100/20130402/94008/1140/10323/10/
043100/20130402/94056/1145/509/10/
043100/20130402/94138/1145/2500/20/
043100/20130402/94141/1145/200/20/
043100/20130402/94142/1145/100/20/
043100/20130402/94146/1140/30245/10/
043100/20130402/94158/1140/1764/10/
043100/20130402/94201/1145/175/20/
043100/20130402/94228/1145/129/20/
043100/20130402/94231/1140/333/10/
043100/20130402/94236/1140/333/10/
043100/20130402/94236/1145/100/20/
043100/20130402/94241/1140/332/10/
043100/20130402/94246/1140/332/10/
043100/20130402/94249/1140/402/10/
043100/20130402/94251/1140/332/10/
043100/20130402/94256/1140/332/10/
043100/20130402/94301/1140/332/10/
043100/20130402/94301/1140/1553/10/
043100/20130402/94325/1145/120/20/
043100/20130402/94325/1140/3661/10/
043100/20130402/94334/1140/5000/10/
043100/20130402/94347/1140/7800/10/
043100/20130402/94350/1140/8963/10/
043100/20130402/94354/1140/1299/10/
043100/20130402/94356/1140/5646/10/
043100/20130402/94356/1140/1000/10/
043100/20130402/94359/1140/200/10/
043100/20130402/94359/1140/5147/10/
043100/20130402/94403/1140/1142/10/
043100/20130402/94408/1140/1600/10/
043100/20130402/94409/1140/1600/10/
043100/20130402/94415/1145/201/20/
043100/20130402/94437/1140/126/10/
043100/20130402/94446/1140/1001/10/
043100/20130402/94448/1140/500/10/
043100/20130402/94450/1140/9086/20/
043100/20130402/94458/1140/914/20/
043100/20130402/94554/1140/5041/10/
043100/20130402/94604/1140/2351/10/
043100/20130402/94609/1140/1126/10/
043100/20130402/94611/1140/200/10/
043100/20130402/94700/1145/200/20/
043100/20130402/94715/1140/1676/10/
043100/20130402/94715/1135/19096/10/
043100/20130402/94729/1140/115/10/
043100/20130402/94744/1140/2001/10/
043100/20130402/94806/1140/1000/10/
043100/20130402/94813/1140/317/10/
043100/20130402/94813/1135/2883/10/
043100/20130402/94854/1135/2923/10/
043100/20130402/94900/1140/110/20/
043100/20130402/94906/1140/100/20/
043100/20130402/94932/1140/1002/20/
043100/20130402/95001/1140/2010/20/
043100/20130402/95001/1140/3158/20/
043100/20130402/95026/1140/1000/10/
043100/20130402/95029/1140/330/10/
043100/20130402/95059/1140/620/10/
043100/20130402/95104/1140/180/20/
043100/20130402/95136/1140/100/10/
043100/20130402/95147/1140/9520/10/
043100/20130402/95151/1135/135/10/
043100/20130402/95202/1135/1066/10/
043100/20130402/95250/1135/4899/10/
043100/20130402/95310/1135/12507/10/
043100/20130402/95334/1135/8139/10/
043100/20130402/95354/1140/100/20/
043100/20130402/95415/1140/36226/20/
043100/20130402/95426/1140/362/20/
043100/20130402/95427/1140/697/20/
043100/20130402/95428/1140/200/10/
043100/20130402/95542/1140/150/20/
043100/20130402/95604/1135/94/10/
043100/20130402/95624/1140/2027/10/
043100/20130402/95717/1140/441/10/
043100/20130402/95732/1140/137/10/
043100/20130402/95732/1135/1863/10/
043100/20130402/95756/1140/1162/10/
043100/20130402/95800/1140/210/20/
043100/20130402/95806/1140/12454/10/
043100/20130402/95806/1140/1959/20/
043100/20130402/95814/1140/4434/20/
043100/20130402/95817/1140/8199/20/
043100/20130402/95844/1145/93/20/
043100/20130402/95934/1140/3010/10/
043100/20130402/95934/1140/257/10/
043100/20130402/100036/1145/611/20/
043100/20130402/100114/1140/1000/10/
043100/20130402/100130/1145/2978/20/
043100/20130402/100132/1140/2000/10/
043100/20130402/100137/1140/2796/10/
043100/20130402/100137/1135/6424/10/
043100/20130402/100219/1135/4010/10/
043100/20130402/100219/1135/1000/10/
043100/20130402/100230/1135/897/10/
043100/20130402/100247/1135/1001/10/
043100/20130402/100249/1135/1906/10/
043100/20130402/100250/1135/3000/10/
043100/20130402/100302/1135/1650/10/
043100/20130402/100307/1135/1245/10/
043100/20130402/100330/1135/100/10/
043100/20130402/100354/1140/5331/20/
043100/20130402/100445/1140/523/10/
043100/20130402/100450/1140/1000/10/
043100/20130402/100501/1140/2000/10/
043100/20130402/100501/1140/1889/10/
043100/20130402/100506/1140/449/20/
043100/20130402/100513/1135/1541/10/
043100/20130402/100637/1140/1000/20/
043100/20130402/100637/1135/5397/10/
043100/20130402/100651/1135/5990/10/
043100/20130402/100803/1135/1156/10/
043100/20130402/100816/1135/683/10/
043100/20130402/100927/1135/660/10/
043100/20130402/100937/1140/1000/20/
043100/20130402/101017/1140/100/20/
043100/20130402/101031/1140/3000/20/
043100/20130402/101032/1140/1791/20/
043100/20130402/101042/1135/200/10/
043100/20130402/101226/1135/1500/10/
043100/20130402/101231/1135/4504/10/
043100/20130402/101322/1135/4370/10/
043100/20130402/101620/1140/3228/20/
043100/20130402/101631/1140/2600/20/
043100/20130402/101636/1135/300/10/
043100/20130402/101651/1135/500/10/
043100/20130402/101655/1135/800/10/
043100/20130402/101753/1135/2992/10/
043100/20130402/101912/1135/2174/10/
043100/20130402/102011/1135/100/10/
043100/20130402/102024/1135/300/10/
043100/20130402/102102/1135/3910/10/
043100/20130402/102240/1140/102/20/
043100/20130402/102513/1135/1486/10/
043100/20130402/102529/1135/99/10/
043100/20130402/102706/1135/3028/10/
043100/20130402/102714/1135/800/10/
043100/20130402/102723/1135/3000/10/
043100/20130402/102725/1135/1000/10/
043100/20130402/102746/1140/100/20/
043100/20130402/102811/1135/350/10/
043100/20130402/102946/1135/347/10/
043100/20130402/103038/1135/5180/10/
043100/20130402/103043/1135/14386/10/
043100/20130402/103122/1135/2672/10/
043100/20130402/103236/1135/494/10/
043100/20130402/103241/1135/9100/10/
043100/20130402/103248/1135/4791/10/
043100/20130402/103338/1135/2419/10/
043100/20130402/103420/1135/397/20/
043100/20130402/103422/1135/8810/20/
043100/20130402/103435/1135/3199/20/
043100/20130402/103436/1135/331/20/
043100/20130402/103438/1135/1002/20/
043100/20130402/103443/1135/8194/20/
043100/20130402/103446/1135/1582/10/
043100/20130402/103553/1140/102/20/
043100/20130402/103722/1135/176/10/
043100/20130402/103741/1135/1263/10/
043100/20130402/103821/1140/97/20/
043100/20130402/103833/1135/309/10/
043100/20130402/103926/1135/1305/10/
043100/20130402/104005/1135/5258/10/
043100/20130402/104037/1135/8776/10/
043100/20130402/104050/1135/2211/10/
043100/20130402/104057/1135/2343/10/
043100/20130402/104110/1135/90/20/
043100/20130402/104120/1135/123/20/
043100/20130402/104123/1135/1045/20/
043100/20130402/104125/1135/921/20/
043100/20130402/104125/1135/480/20/
043100/20130402/104247/1135/535/10/
043100/20130402/104458/1140/6748/20/
043100/20130402/104619/1135/1870/10/
043100/20130402/104627/1135/2100/10/
043100/20130402/104712/1135/315/10/
043100/20130402/104739/1140/7502/20/
043100/20130402/104743/1135/7000/10/
043100/20130402/104749/1135/2300/10/
043100/20130402/104812/1140/931/20/
043100/20130402/104948/1140/1001/20/
043100/20130402/105018/1135/499/10/
043100/20130402/105052/1140/1002/20/
043100/20130402/105146/1135/3000/10/
043100/20130402/105149/1135/401/10/
043100/20130402/105214/1140/837/20/
043100/20130402/105309/1140/111/20/
043100/20130402/105356/1135/8001/10/
043100/20130402/105520/1135/1938/10/
043100/20130402/105536/1135/1009/10/
043100/20130402/105615/1135/502/10/
043100/20130402/105645/1135/203/10/
043100/20130402/105907/1140/5019/20/
043100/20130402/110125/1135/850/10/
043100/20130402/110137/1135/361/10/
043100/20130402/110247/1135/1032/10/
043100/20130402/110322/1135/2032/10/
043100/20130402/110405/1135/975/10/
043100/20130402/110425/1135/2502/10/
043100/20130402/110450/1135/881/10/
043100/20130402/110455/1135/440/10/
043100/20130402/110458/1135/100/10/
043100/20130402/110520/1140/859/20/
043100/20130402/110538/1135/455/10/
043100/20130402/110731/1135/520/10/
043100/20130402/110816/1135/1001/10/
043100/20130402/110903/1140/121/20/
043100/20130402/110916/1135/3000/10/
043100/20130402/111111/1135/4445/10/
043100/20130402/111116/1135/944/10/
043100/20130402/111127/1135/2090/10/
043100/20130402/111144/1135/90/20/
043100/20130402/111151/1135/979/20/
043100/20130402/111251/1140/503/20/
043100/20130402/111329/1140/480/20/
043100/20130402/111346/1135/260/10/
043100/20130402/111355/1135/1066/10/
043100/20130402/111357/1140/501/20/
043100/20130402/111401/1135/1000/10/
043100/20130402/111451/1135/251/10/
043100/20130402/111527/1135/228/10/
043100/20130402/111532/1140/2247/20/
043100/20130402/111543/1140/331/20/
043100/20130402/111659/1140/2040/20/
043100/20130402/111730/1135/2772/10/
043100/20130402/111752/1135/102/10/
043100/20130402/111803/1135/3486/10/
043100/20130402/111850/1135/694/10/
043100/20130402/111937/1140/552/20/
043100/20130402/112102/1135/2066/10/
043100/20130402/112228/1140/155/20/
043100/20130402/112246/1135/6507/10/
043100/20130402/112339/1135/1771/10/
043100/20130402/112411/1135/2004/10/
043100/20130402/112412/1135/343/10/
043100/20130402/112438/1140/10007/20/
043100/20130402/112502/1140/17490/20/
043100/20130402/112537/1140/796/20/
043100/20130402/112620/1140/160/20/
043100/20130402/112707/1140/2065/20/
043100/20130402/112735/1140/202/20/
043100/20130402/112739/1135/815/10/
043100/20130402/112857/1140/50016/20/
043100/20130402/112914/1140/100/20/
043100/20130402/112939/1140/897/20/
043100/20130402/112944/1140/2148/20/
043100/20130402/113007/1145/532/20/
043100/20130402/113242/1140/551/10/
043100/20130402/113246/1140/1001/10/
043100/20130402/113308/1140/506/10/
043100/20130402/113330/1140/3054/10/
043100/20130402/113333/1140/888/10/
043100/20130402/113407/1145/554/20/
043100/20130402/113425/1145/200/20/
043100/20130402/113442/1145/2445/20/
043100/20130402/113447/1145/100/20/
043100/20130402/113449/1145/7890/20/
043100/20130402/113452/1145/1402/20/
043100/20130402/113628/1140/1063/10/
043100/20130402/113836/1140/4853/10/
043100/20130402/113924/1140/108/10/
043100/20130402/114029/1140/1002/10/
043100/20130402/114051/1140/503/10/
043100/20130402/114111/1140/801/10/
043100/20130402/114126/1140/505/10/
043100/20130402/114237/1140/332/10/
043100/20130402/114305/1140/282/10/
043100/20130402/114436/1140/2320/10/
043100/20130402/114727/1135/170/10/
043100/20130402/114809/1135/9120/10/
043100/20130402/114952/1140/1511/20/
043100/20130402/115017/1140/1001/20/
043100/20130402/115028/1140/100/20/
043100/20130402/115035/1140/700/20/
043100/20130402/115051/1140/100/20/
043100/20130402/115120/1140/2050/20/
043100/20130402/115132/1140/1050/20/
043100/20130402/115135/1140/500/20/
043100/20130402/115156/1140/1000/20/
043100/20130402/115232/1140/1740/20/
043100/20130402/115317/1145/101/20/
043100/20130402/115327/1140/1187/10/
043100/20130402/115327/1135/1813/10/
043100/20130402/115337/1140/552/10/
043100/20130402/115340/1140/351/10/
043100/20130402/115349/1140/1525/20/
043100/20130402/115430/1140/856/10/
043100/20130402/115433/1140/212/10/
043100/20130402/115448/1140/306/20/
043100/20130402/115516/1140/409/10/
043100/20130402/115533/1140/701/10/
043100/20130402/115549/1145/202/20/
043100/20130402/115827/1140/103/10/
043100/20130402/115827/1140/175/10/
043100/20130402/115832/1140/1001/10/
043100/20130402/115915/1140/665/10/
043100/20130402/120102/1140/507/10/
043100/20130402/120155/1140/1002/10/
043100/20130402/120347/1145/1633/20/
043100/20130402/120422/1145/3000/20/
043100/20130402/120432/1145/2000/20/
043100/20130402/120548/1145/370/20/
043100/20130402/120611/1145/100/20/
043100/20130402/120612/1145/430/20/
043100/20130402/120645/1145/500/20/
043100/20130402/120706/1145/100/20/
043100/20130402/120742/1140/5000/10/
043100/20130402/120808/1140/546/10/
043100/20130402/120821/1140/7100/10/
043100/20130402/120836/1140/1874/10/
043100/20130402/121011/1140/1927/10/
043100/20130402/121014/1140/330/10/
043100/20130402/121023/1140/500/10/
043100/20130402/121033/1145/500/20/
043100/20130402/121048/1140/510/10/
043100/20130402/121058/1140/1000/10/
043100/20130402/121111/1140/3000/10/
043100/20130402/121116/1140/2500/10/
043100/20130402/121119/1140/4423/10/
043100/20130402/121129/1140/4000/10/
043100/20130402/121131/1140/1003/10/
043100/20130402/121204/1140/400/10/
043100/20130402/121217/1140/1400/10/
043100/20130402/121225/1140/500/10/
043100/20130402/121307/1140/3833/10/
043100/20130402/121332/1140/1000/20/
043100/20130402/121352/1135/4400/10/
043100/20130402/121357/1135/5000/10/
043100/20130402/121554/1140/199/20/
043100/20130402/121654/1140/98/20/
043100/20130402/121701/1140/8843/20/
043100/20130402/121704/1140/4757/10/
043100/20130402/121717/1140/1000/20/
043100/20130402/121812/1135/1650/10/
043100/20130402/121919/1140/200/20/
043100/20130402/121936/1140/440/20/
043100/20130402/122012/1135/1500/10/
043100/20130402/122139/1135/14508/10/
043100/20130402/122238/1135/927/10/
043100/20130402/122259/1135/200/10/
043100/20130402/122313/1135/6500/10/
043100/20130402/122328/1135/17767/10/
043100/20130402/122330/1135/620/10/
043100/20130402/122421/1135/3387/10/
043100/20130402/122449/1135/33058/10/
043100/20130402/122453/1135/140/20/
043100/20130402/122514/1135/101/20/
043100/20130402/122546/1135/1020/20/
043100/20130402/122721/1135/1028/20/
043100/20130402/122723/1135/3728/20/
043100/20130402/122816/1135/81/20/
043100/20130402/122844/1135/110/20/
043100/20130402/122903/1135/90/20/
043100/20130402/122904/1135/100/20/
043100/20130402/122915/1135/134/20/
043100/20130402/122930/1135/101/20/
043100/20130402/122946/1135/1500/20/
043100/20130402/122958/1135/200/20/
043100/20130402/123009/1135/95/20/
043100/20130402/123009/1130/175/10/
043100/20130402/123036/1135/3001/20/
043100/20130402/123052/1135/398/20/
043100/20130402/123105/1135/122/10/
043100/20130402/123121/1135/728/20/
043100/20130402/123307/1135/199/10/
043100/20130402/123325/1135/100/10/
043100/20130402/123341/1135/1000/10/
043100/20130402/123358/1135/11000/10/
043100/20130402/123451/1135/288/10/
043100/20130402/123535/1130/2537/10/
043100/20130402/123548/1130/2445/10/
043100/20130402/123633/1135/219/20/
043100/20130402/123735/1135/294/20/
043100/20130402/123737/1130/499/10/
043100/20130402/123829/1135/125/20/
043100/20130402/123919/1135/2000/20/
043100/20130402/123924/1135/100/20/
043100/20130402/123942/1135/200/20/
043100/20130402/123955/1130/110/10/
043100/20130402/124022/1130/961/10/
043100/20130402/124106/1130/2166/10/
043100/20130402/124342/1130/321/10/
043100/20130402/124344/1130/2000/10/
043100/20130402/124401/1130/100/10/
043100/20130402/124414/1130/1501/10/
043100/20130402/124439/1130/784/10/
043100/20130402/124508/1130/200/10/
043100/20130402/124526/1130/501/10/
043100/20130402/124607/1130/16148/10/
043100/20130402/124612/1130/1000/10/
043100/20130402/124621/1130/281/10/
043100/20130402/124633/1130/500/10/
043100/20130402/124707/1130/255/10/
043100/20130402/124838/1130/28002/10/
043100/20130402/124840/1130/10000/10/
043100/20130402/124842/1130/541/10/
043100/20130402/124845/1130/20000/10/
043100/20130402/124846/1130/7501/10/
043100/20130402/124847/1130/262/10/
043100/20130402/124849/1130/3954/10/
043100/20130402/124850/1130/857/10/
043100/20130402/124851/1130/2742/10/
043100/20130402/124856/1130/1000/10/
043100/20130402/124900/1130/2000/10/
043100/20130402/124905/1130/2809/10/
043100/20130402/124910/1130/1000/20/
043100/20130402/124951/1130/178/20/
043100/20130402/124951/1125/1000/10/
043100/20130402/124955/1130/657/20/
043100/20130402/125023/1130/1127/20/
043100/20130402/125050/1130/376/10/
043100/20130402/125100/1130/125/20/
043100/20130402/125126/1130/500/10/
043100/20130402/125239/1130/261/10/
043100/20130402/125245/1130/11617/10/
043100/20130402/125313/1130/4638/20/
043100/20130402/125321/1130/376/10/
043100/20130402/125328/1130/1001/20/
043100/20130402/125346/1130/90/20/
043100/20130402/125351/1130/200/20/
043100/20130402/125353/1130/200/20/
043100/20130402/125357/1130/760/20/
043100/20130402/125435/1130/1559/20/
043100/20130402/125448/1130/510/20/
043100/20130402/125500/1130/1674/20/
043100/20130402/125510/1130/5000/20/
043100/20130402/125527/1130/350/20/
043100/20130402/125530/1130/4955/20/
043100/20130402/125533/1130/155/20/
043100/20130402/125545/1130/245/20/
043100/20130402/125648/1130/123/10/
043100/20130402/125703/1130/101/10/
043100/20130402/125755/1130/1002/10/
043100/20130402/125809/1130/2001/10/
043100/20130402/125818/1130/1361/10/
043100/20130402/125828/1130/6223/10/
043100/20130402/125842/1125/3156/10/
043100/20130402/125901/1125/190/10/
043100/20130402/125930/1130/6755/20/
043100/20130402/125938/1130/100/20/
043100/20130402/130011/1125/115/10/
043100/20130402/130051/1125/20015/10/
043100/20130402/130051/1130/854/20/
043100/20130402/130107/1130/100/10/
043100/20130402/130135/1130/130/20/
043100/20130402/130215/1130/302/20/
043100/20130402/130340/1130/100/20/
043100/20130402/130409/1130/100/20/
043100/20130402/130417/1125/969/10/
043100/20130402/130454/1130/101/20/
043100/20130402/130525/1130/1000/20/
043100/20130402/130811/1125/7890/10/
043100/20130402/130814/1125/932/10/
043100/20130402/130820/1125/89/10/
043100/20130402/130832/1130/1959/20/
043100/20130402/130932/1130/301/20/
043100/20130402/130959/1125/9114/10/
043100/20130402/131003/1125/36226/10/
043100/20130402/131008/1125/500/10/
043100/20130402/131009/1125/220/10/
043100/20130402/131012/1125/100/20/
043100/20130402/131019/1125/1001/20/
043100/20130402/131020/1125/100/20/
043100/20130402/131025/1125/100/20/
043100/20130402/131030/1120/220/10/
043100/20130402/131031/1125/410/20/
043100/20130402/131042/1125/175/10/
043100/20130402/131123/1125/673/10/
043100/20130402/131131/1125/3764/10/
043100/20130402/131134/1125/1020/20/
043100/20130402/131138/1125/2146/20/
043100/20130402/131143/1125/2904/10/
043100/20130402/131146/1125/291/20/
043100/20130402/131148/1125/1000/20/
043100/20130402/131151/1125/5825/20/
043100/20130402/131300/1125/1377/10/
043100/20130402/131345/1125/2027/10/
043100/20130402/131355/1125/1001/10/
043100/20130402/131404/1125/4143/10/
043100/20130402/131404/1120/467/10/
043100/20130402/131411/1125/5000/20/
043100/20130402/131416/1125/5000/20/
043100/20130402/131430/1125/83/20/
043100/20130402/131431/1125/407/20/
043100/20130402/131518/1125/1027/10/
043100/20130402/131547/1130/400/20/
043100/20130402/131608/1125/5000/10/
043100/20130402/131625/1125/1737/10/
043100/20130402/131651/1120/26546/10/
043100/20130402/131658/1120/2520/10/
043100/20130402/131704/1120/1461/10/
043100/20130402/131756/1125/125/20/
043100/20130402/131808/1120/870/10/
043100/20130402/131850/1120/3052/10/
043100/20130402/131956/1125/105/20/
043100/20130402/131959/1120/1322/10/
043100/20130402/132007/1120/1010/10/
043100/20130402/132017/1120/5420/10/
043100/20130402/132033/1120/520/10/
043100/20130402/132037/1120/3420/10/
043100/20130402/132049/1120/420/10/
043100/20130402/132110/1125/87/20/
043100/20130402/132137/1120/154/10/
043100/20130402/132211/1125/89/20/
043100/20130402/132227/1120/1043/10/
043100/20130402/132231/1120/1010/10/
043100/20130402/132255/1125/90/20/
043100/20130402/132304/1120/1900/10/
043100/20130402/132330/1120/9006/10/
043100/20130402/132332/1120/900/10/
043100/20130402/132440/1120/25424/10/
043100/20130402/132444/1120/6000/10/
043100/20130402/132450/1120/2880/10/
043100/20130402/132454/1120/1000/10/
043100/20130402/132456/1120/10000/10/
043100/20130402/132458/1120/1703/10/
043100/20130402/132503/1120/570/10/
043100/20130402/132503/1120/2967/10/
043100/20130402/132507/1120/4355/10/
043100/20130402/132527/1115/151/10/
043100/20130402/132538/1120/150/20/
043100/20130402/132543/1120/100/20/
043100/20130402/132551/1120/100/20/
043100/20130402/132609/1120/91/20/
043100/20130402/132611/1120/1000/20/
043100/20130402/132615/1120/1000/20/
043100/20130402/132620/1120/541/20/
043100/20130402/132622/1120/1000/20/
043100/20130402/132624/1120/10000/20/
043100/20130402/132625/1120/500/20/
043100/20130402/132626/1120/139/20/
043100/20130402/132626/1120/5000/20/
043100/20130402/132637/1120/830/20/
043100/20130402/132644/1120/100/20/
043100/20130402/132655/1120/121/20/
043100/20130402/132700/1120/300/20/
043100/20130402/132702/1120/1440/20/
043100/20130402/132710/1120/2020/20/
043100/20130402/132713/1120/463/20/
043100/20130402/132720/1120/310/20/
043100/20130402/132724/1120/846/20/
043100/20130402/132726/1120/1365/20/
043100/20130402/132730/1120/1165/10/
043100/20130402/132735/1120/320/20/
043100/20130402/132738/1120/310/20/
043100/20130402/132739/1120/481/20/
043100/20130402/132742/1120/320/20/
043100/20130402/132746/1120/300/20/
043100/20130402/132754/1120/234/20/
043100/20130402/132834/1120/493/10/
043100/20130402/132854/1120/885/20/
043100/20130402/132858/1120/507/20/
043100/20130402/132916/1120/2003/20/
043100/20130402/132928/1120/400/20/
043100/20130402/132937/1120/1018/20/
043100/20130402/132940/1120/650/20/
043100/20130402/133135/1125/6210/20/
043100/20130402/133142/1120/135/10/
043100/20130402/133146/1120/2000/10/
043100/20130402/133214/1125/3503/20/
043100/20130402/133253/1125/505/20/
043100/20130402/133325/1125/94/20/
043100/20130402/133424/1125/101/10/
043100/20130402/133618/1125/1022/10/
043100/20130402/133653/1125/1000/10/
043100/20130402/133707/1125/136/10/
043100/20130402/133830/1125/1400/20/
043100/20130402/133907/1125/5679/20/
043100/20130402/134025/1120/356/10/
043100/20130402/134044/1120/200/10/
043100/20130402/134052/1120/1634/10/
043100/20130402/134126/1120/2507/10/
043100/20130402/134147/1120/2010/10/
043100/20130402/134209/1120/2001/10/
043100/20130402/134240/1120/634/10/
043100/20130402/134337/1120/1000/10/
043100/20130402/134339/1120/1400/10/
043100/20130402/134345/1120/2101/10/
043100/20130402/134527/1125/1012/20/
043100/20130402/134532/1120/30000/10/
043100/20130402/134534/1125/100/20/
043100/20130402/134543/1120/3390/10/
043100/20130402/134603/1125/200/20/
043100/20130402/134618/1120/209/10/
043100/20130402/134619/1120/290/10/
043100/20130402/134631/1120/300/10/
043100/20130402/134632/1120/1000/10/
043100/20130402/134637/1120/5932/10/
043100/20130402/134637/1115/1403/10/
043100/20130402/134702/1120/451/20/
043100/20130402/134712/1115/550/10/
043100/20130402/134722/1115/306/10/
043100/20130402/134731/1120/100/20/
043100/20130402/134756/1120/1000/20/
043100/20130402/134817/1120/251/20/
043100/20130402/134829/1120/4497/20/
043100/20130402/134838/1120/100/20/
043100/20130402/134845/1120/109/20/
043100/20130402/134900/1120/542/20/
043100/20130402/134902/1120/530/20/
043100/20130402/134912/1120/1254/20/
043100/20130402/134933/1120/1220/20/
043100/20130402/134938/1115/100/10/
043100/20130402/134956/1115/3010/10/
043100/20130402/135030/1115/230/10/
043100/20130402/135140/1120/123/20/
043100/20130402/135150/1120/100/20/
043100/20130402/135218/1120/1051/20/
043100/20130402/135243/1115/877/10/
043100/20130402/135257/1115/516/10/
043100/20130402/135340/1120/204/20/
043100/20130402/135422/1115/1709/10/
043100/20130402/135428/1115/20645/10/
043100/20130402/135508/1115/318/10/
043100/20130402/135545/1115/2043/10/
043100/20130402/135547/1115/2000/10/
043100/20130402/135549/1115/871/10/
043100/20130402/135602/1115/8219/10/
043100/20130402/135603/1115/2500/10/
043100/20130402/135615/1120/2001/20/
043100/20130402/135620/1115/20000/10/
043100/20130402/135624/1115/14908/10/
043100/20130402/135631/1115/1001/10/
043100/20130402/135638/1115/5041/10/
043100/20130402/135642/1115/2291/10/
043100/20130402/135645/1115/1740/10/
043100/20130402/135650/1120/1321/20/
043100/20130402/135651/1115/645/10/
043100/20130402/135656/1115/1038/10/
043100/20130402/135728/1115/1002/10/
043100/20130402/135842/1115/621/10/
043100/20130402/135846/1115/11525/10/
043100/20130402/135931/1115/1000/10/
043100/20130402/135949/1115/201/10/
043100/20130402/135955/1115/1433/10/
043100/20130402/140024/1115/2000/10/
043100/20130402/140028/1115/2380/10/
043100/20130402/140035/1115/3062/20/
043100/20130402/140035/1115/1100/10/
043100/20130402/140121/1115/501/10/
043100/20130402/140127/1115/1941/10/
043100/20130402/140133/1115/2281/10/
043100/20130402/140153/1115/750/10/
043100/20130402/140159/1115/123/10/
043100/20130402/140202/1115/2159/20/
043100/20130402/140204/1115/6641/20/
043100/20130402/140224/1115/2916/10/
043100/20130402/140236/1115/1000/10/
043100/20130402/140244/1115/788/10/
043100/20130402/140247/1115/782/10/
043100/20130402/140259/1110/1010/10/
043100/20130402/140309/1115/3728/20/
043100/20130402/140309/1115/384/10/
043100/20130402/140330/1115/300/10/
043100/20130402/140354/1115/452/10/
043100/20130402/140403/1115/1000/10/
043100/20130402/140507/1115/543/10/
043100/20130402/140511/1115/5000/10/
043100/20130402/140527/1115/1504/10/
043100/20130402/140557/1115/100/10/
043100/20130402/140603/1115/100/10/
043100/20130402/140609/1115/572/10/
043100/20130402/140609/1110/428/10/
043100/20130402/140617/1115/100/10/
043100/20130402/140617/1110/9900/10/
043100/20130402/140643/1110/8632/10/
043100/20130402/140742/1115/3018/10/
043100/20130402/140757/1115/155/10/
043100/20130402/140827/1115/2830/10/
043100/20130402/140837/1115/103/20/
043100/20130402/140902/1115/2000/20/
043100/20130402/140904/1115/501/20/
043100/20130402/141029/1115/206/10/
043100/20130402/141101/1120/82/20/
043100/20130402/141104/1115/400/10/
043100/20130402/141114/1115/3194/10/
043100/20130402/141134/1115/1000/10/
043100/20130402/141137/1115/110/10/
043100/20130402/141144/1115/100/10/
043100/20130402/141145/1115/161/10/
043100/20130402/141350/1115/100/10/
043100/20130402/141353/1115/940/10/
043100/20130402/141359/1115/1350/10/
043100/20130402/141416/1115/965/10/
043100/20130402/141424/1115/1000/10/
043100/20130402/141446/1115/86/10/
043100/20130402/141517/1120/10036/20/
043100/20130402/141518/1120/1004/20/
043100/20130402/141524/1120/1028/20/
043100/20130402/141529/1120/120/20/
043100/20130402/141530/1120/1004/20/
043100/20130402/141531/1120/205/20/
043100/20130402/141536/1120/230/20/
043100/20130402/141540/1120/1044/20/
043100/20130402/141541/1120/1005/20/
043100/20130402/141543/1120/125/20/
043100/20130402/141549/1120/1039/20/
043100/20130402/141601/1120/81/20/
043100/20130402/141613/1120/165/20/
043100/20130402/141618/1120/81/20/
043100/20130402/141619/1120/242/20/
043100/20130402/141621/1120/91/20/
043100/20130402/141624/1120/83/20/
043100/20130402/141627/1120/19370/20/
043100/20130402/141630/1120/938/20/
043100/20130402/141636/1120/526/10/
043100/20130402/141714/1120/10000/10/
043100/20130402/141734/1120/349/10/
043100/20130402/141738/1120/1113/10/
043100/20130402/141755/1120/500/10/
043100/20130402/141755/1120/100/10/
043100/20130402/141757/1120/1700/10/
043100/20130402/141802/1120/10000/10/
043100/20130402/141814/1120/341/10/
043100/20130402/141831/1115/2000/10/
043100/20130402/141911/1115/1201/10/
043100/20130402/141956/1115/4016/10/
043100/20130402/142010/1115/606/10/
043100/20130402/142016/1115/1315/10/
043100/20130402/142023/1115/2000/10/
043100/20130402/142024/1115/15000/10/
043100/20130402/142030/1115/870/10/
043100/20130402/142112/1115/100/10/
043100/20130402/142114/1115/4000/10/
043100/20130402/142129/1115/140/10/
043100/20130402/142132/1115/7203/10/
043100/20130402/142148/1115/101/10/
043100/20130402/142213/1115/500/10/
043100/20130402/142223/1115/92/10/
043100/20130402/142319/1115/1001/10/
043100/20130402/142323/1115/200/10/
043100/20130402/142324/1115/1180/10/
043100/20130402/142331/1115/90/10/
043100/20130402/142338/1115/1400/10/
043100/20130402/142346/1115/8248/10/
043100/20130402/142349/1115/5183/10/
043100/20130402/142353/1115/860/10/
043100/20130402/142358/1115/13573/10/
043100/20130402/142401/1115/807/10/
043100/20130402/142403/1115/20000/10/
043100/20130402/142413/1115/300/10/
043100/20130402/142416/1115/800/10/
043100/20130402/142428/1115/390/10/
043100/20130402/142430/1115/248/10/
043100/20130402/142455/1115/302/20/
043100/20130402/142457/1110/2000/10/
043100/20130402/142516/1115/6954/20/
043100/20130402/142522/1115/180/10/
043100/20130402/142545/1120/271/20/
043100/20130402/142639/1120/650/20/
043100/20130402/142645/1115/500/10/
043100/20130402/142649/1115/790/10/
043100/20130402/142809/1115/2000/10/
043100/20130402/142817/1115/700/10/
043100/20130402/142823/1115/150/10/
043100/20130402/142851/1120/1050/20/
043100/20130402/142859/1115/11023/10/
043100/20130402/142920/1115/1200/10/
043100/20130402/142928/1115/2166/10/
043100/20130402/142930/1115/2834/20/
043100/20130402/142932/1115/3600/10/
043100/20130402/142949/1115/1513/10/
043100/20130402/143035/1115/501/10/
043100/20130402/143112/1115/1000/10/
043100/20130402/143137/1115/153/10/
043100/20130402/143138/1115/12000/10/
043100/20130402/143244/1115/1000/10/
043100/20130402/143326/1115/456/10/
043100/20130402/143327/1120/900/20/
043100/20130402/143328/1120/100/20/
043100/20130402/143343/1120/100/20/
043100/20130402/143349/1115/16750/10/
043100/20130402/143359/1115/1710/10/
043100/20130402/143428/1115/1626/10/
043100/20130402/143431/1115/451/10/
043100/20130402/143433/1120/1000/20/
043100/20130402/143505/1115/1542/10/
043100/20130402/143521/1115/7000/10/
043100/20130402/143539/1120/1100/20/
043100/20130402/143718/1115/7048/10/
043100/20130402/143721/1115/565/10/
043100/20130402/143742/1115/302/10/
043100/20130402/143815/1115/1001/10/
043100/20130402/143833/1115/81/10/
043100/20130402/143854/1115/4000/10/
043100/20130402/143910/1115/116/10/
043100/20130402/143917/1115/501/10/
043100/20130402/144004/1115/1014/10/
043100/20130402/144046/1115/1018/10/
043100/20130402/144103/1115/1006/10/
043100/20130402/144116/1115/1496/10/
043100/20130402/144123/1115/9964/10/
043100/20130402/144124/1115/500/10/
043100/20130402/144136/1115/5001/10/
043100/20130402/144140/1115/401/10/
043100/20130402/144153/1120/151/20/
043100/20130402/144227/1115/1303/10/
043100/20130402/144240/1120/101/20/
043100/20130402/144312/1115/1005/10/
043100/20130402/144343/1115/160/10/
043100/20130402/144427/1115/1001/10/
043100/20130402/144458/1120/8925/20/
043100/20130402/144501/1120/35922/20/
043100/20130402/144503/1120/800/10/
043100/20130402/144523/1120/201/10/
043100/20130402/144531/1120/4000/10/
043100/20130402/144535/1120/2213/10/
043100/20130402/144557/1120/17952/10/
043100/20130402/144557/1120/600/20/
043100/20130402/144603/1115/2001/10/
043100/20130402/144608/1120/1000/20/
043100/20130402/144615/1120/7688/20/
043100/20130402/144616/1120/1000/10/
043100/20130402/144617/1120/1313/10/
043100/20130402/144634/1120/1066/20/
043100/20130402/144639/1115/300/10/
043100/20130402/144657/1120/100/20/
043100/20130402/144710/1120/205/20/
043100/20130402/144721/1120/4450/20/
043100/20130402/144749/1115/666/10/
043100/20130402/144752/1115/20071/10/
043100/20130402/144759/1115/1011/10/
043100/20130402/144810/1115/231/10/
043100/20130402/144825/1120/1000/20/
043100/20130402/144846/1115/150/10/
043100/20130402/144848/1115/1931/10/
043100/20130402/144855/1115/200/10/
043100/20130402/144859/1115/2070/10/
043100/20130402/144902/1115/761/10/
043100/20130402/144903/1120/201/20/
043100/20130402/144906/1115/201/10/
043100/20130402/144915/1120/504/20/
043100/20130402/144925/1115/305/10/
043100/20130402/144927/1115/100/10/
043100/20130402/144935/1115/518/10/
043100/20130402/144938/1115/100/10/
043100/20130402/144943/1115/504/10/
043100/20130402/144945/1120/3002/20/
043100/20130402/144946/1120/2200/20/
043100/20130402/144948/1115/587/10/
043100/20130402/144953/1115/502/10/
043100/20130402/150000/1120/123431/10/
