043100/20121121/90000/1015/14611/10/
043100/20121121/90001/1020/15001/20/
043100/20121121/90004/1020/6569/20/
043100/20121121/90010/1025/7850/20/
043100/20121121/90010/1030/2150/20/
043100/20121121/90011/1020/1917/10/
043100/20121121/90011/1020/18083/20/
043100/20121121/90023/1020/581/10/
043100/20121121/90026/1020/279/20/
043100/20121121/90036/1020/502/10/
043100/20121121/90056/1025/2395/20/
043100/20121121/90057/1025/2000/20/
043100/20121121/90058/1025/2000/20/
043100/20121121/90058/1025/4135/20/
043100/20121121/90110/1030/106/20/
043100/20121121/90111/1025/103/10/
043100/20121121/90115/1025/3997/10/
043100/20121121/90118/1020/260/10/
043100/20121121/90123/1020/3001/10/
043100/20121121/90131/1020/565/10/
043100/20121121/90131/1015/617/10/
043100/20121121/90131/1010/642/10/
043100/20121121/90136/1020/101/10/
043100/20121121/90139/1020/510/10/
043100/20121121/90139/1020/1256/10/
043100/20121121/90141/1015/545/10/
043100/20121121/90153/1020/228/20/
043100/20121121/90154/1020/5000/20/
043100/20121121/90156/1020/2568/20/
043100/20121121/90217/1020/2526/10/
043100/20121121/90226/1020/2002/20/
043100/20121121/90227/1020/2035/20/
043100/20121121/90234/1025/201/20/
043100/20121121/90244/1020/1484/10/
043100/20121121/90254/1015/1906/10/
043100/20121121/90306/1015/2867/10/
043100/20121121/90308/1015/2000/10/
043100/20121121/90324/1020/3224/20/
043100/20121121/90326/1020/3051/20/
043100/20121121/90332/1020/392/20/
043100/20121121/90333/1020/1000/20/
043100/20121121/90337/1020/3675/20/
043100/20121121/90353/1020/2001/10/
043100/20121121/90356/1020/483/10/
043100/20121121/90403/1020/2146/20/
043100/20121121/90403/1020/153/20/
043100/20121121/90406/1020/2213/20/
043100/20121121/90420/1025/25270/20/
043100/20121121/90420/1025/300/10/
043100/20121121/90424/1030/111/20/
043100/20121121/90425/1025/94/10/
043100/20121121/90426/1025/2000/10/
043100/20121121/90433/1030/9720/20/
043100/20121121/90438/1030/112/20/
043100/20121121/90440/1030/500/20/
043100/20121121/90445/1030/5003/20/
043100/20121121/90445/1030/100/20/
043100/20121121/90448/1030/1132/20/
043100/20121121/90455/1030/8975/20/
043100/20121121/90456/1030/4398/20/
043100/20121121/90456/1030/5604/10/
043100/20121121/90459/1035/403/20/
043100/20121121/90500/1030/3850/10/
043100/20121121/90506/1025/3007/10/
043100/20121121/90514/1030/1062/20/
043100/20121121/90530/1025/1826/10/
043100/20121121/90530/1020/8661/10/
043100/20121121/90535/1025/1614/20/
043100/20121121/90536/1030/5816/20/
043100/20121121/90541/1025/1386/10/
043100/20121121/90557/1025/118/20/
043100/20121121/90602/1025/5010/20/
043100/20121121/90604/1025/941/20/
043100/20121121/90613/1030/3564/20/
043100/20121121/90633/1030/104/20/
043100/20121121/90641/1030/1108/20/
043100/20121121/90648/1030/1664/20/
043100/20121121/90657/1030/106/20/
043100/20121121/90658/1030/16574/20/
043100/20121121/90659/1030/2531/10/
043100/20121121/90715/1030/109/20/
043100/20121121/90746/1030/6145/20/
043100/20121121/90757/1030/100/20/
043100/20121121/90802/1030/132/20/
043100/20121121/90803/1030/485/20/
043100/20121121/90804/1030/130/20/
043100/20121121/90808/1030/100/20/
043100/20121121/90809/1030/6000/20/
043100/20121121/90812/1030/280/20/
043100/20121121/90816/1030/1112/20/
043100/20121121/90818/1030/9600/20/
043100/20121121/90827/1030/205/20/
043100/20121121/90841/1025/12652/10/
043100/20121121/90843/1025/1000/10/
043100/20121121/90844/1025/4604/10/
043100/20121121/90844/1025/13422/10/
043100/20121121/90846/1025/2006/10/
043100/20121121/90902/1020/3605/10/
043100/20121121/90908/1025/2002/20/
043100/20121121/90909/1020/7241/10/
043100/20121121/90910/1020/1889/20/
043100/20121121/90931/1020/826/20/
043100/20121121/90957/1020/83/10/
043100/20121121/91016/1020/1892/10/
043100/20121121/91020/1020/1000/10/
043100/20121121/91021/1020/2000/10/
043100/20121121/91038/1020/5844/10/
043100/20121121/91038/1025/900/20/
043100/20121121/91136/1020/5030/10/
043100/20121121/91138/1020/2010/10/
043100/20121121/91139/1020/2481/10/
043100/20121121/91142/1020/110/10/
043100/20121121/91142/1020/395/10/
043100/20121121/91209/1015/916/10/
043100/20121121/91211/1015/200/10/
043100/20121121/91219/1015/2002/10/
043100/20121121/91220/1015/5532/10/
043100/20121121/91222/1015/485/10/
043100/20121121/91228/1015/1330/10/
043100/20121121/91313/1015/4321/10/
043100/20121121/91315/1015/1959/10/
043100/20121121/91319/1015/4725/10/
043100/20121121/91325/1015/204/20/
043100/20121121/91326/1015/1220/20/
043100/20121121/91339/1010/1020/10/
043100/20121121/91404/1010/82/10/
043100/20121121/91434/1015/1496/20/
043100/20121121/91435/1015/3412/20/
043100/20121121/91437/1015/184/20/
043100/20121121/91440/1015/710/20/
043100/20121121/91459/1015/2463/20/
043100/20121121/91534/1015/252/10/
043100/20121121/91729/1015/1431/10/
043100/20121121/91730/1015/262/10/
043100/20121121/91733/1020/100/20/
043100/20121121/91758/1015/3802/10/
043100/20121121/91843/1015/2599/10/
043100/20121121/91903/1015/102/20/
043100/20121121/91926/1010/15079/10/
043100/20121121/91928/1010/6345/10/
043100/20121121/91956/1010/2025/20/
043100/20121121/92101/1005/1877/10/
043100/20121121/92148/1010/8029/20/
043100/20121121/92151/1010/1980/20/
043100/20121121/92152/1010/418/20/
043100/20121121/92335/1010/106/10/
043100/20121121/92347/1010/35000/10/
043100/20121121/92352/1010/719/10/
043100/20121121/92429/1010/116/20/
043100/20121121/92432/1010/799/20/
043100/20121121/92435/1010/201/10/
043100/20121121/92444/1010/219/20/
043100/20121121/92452/1010/220/10/
043100/20121121/92545/1010/1019/10/
043100/20121121/92558/1010/1000/10/
043100/20121121/92642/1010/1123/10/
043100/20121121/92705/1010/202/10/
043100/20121121/92721/1010/3000/10/
043100/20121121/92906/1015/6407/20/
043100/20121121/92907/1015/3825/20/
043100/20121121/92909/1015/26150/20/
043100/20121121/92918/1015/100/10/
043100/20121121/92919/1015/451/10/
043100/20121121/92947/1020/122/20/
043100/20121121/93003/1020/528/20/
043100/20121121/93052/1020/101/20/
043100/20121121/93101/1020/3900/20/
043100/20121121/93104/1020/2550/20/
043100/20121121/93105/1020/5000/20/
043100/20121121/93109/1020/91/20/
043100/20121121/93111/1020/200/20/
043100/20121121/93114/1020/1087/20/
043100/20121121/93128/1020/22504/20/
043100/20121121/93148/1020/292/10/
043100/20121121/93151/1020/709/20/
043100/20121121/93151/1025/291/20/
043100/20121121/93200/1025/1332/20/
043100/20121121/93212/1020/2001/10/
043100/20121121/93219/1020/782/10/
043100/20121121/93219/1020/1218/20/
043100/20121121/93233/1020/502/10/
043100/20121121/93233/1020/3336/20/
043100/20121121/93322/1020/109/20/
043100/20121121/93345/1015/1020/10/
043100/20121121/93347/1020/800/20/
043100/20121121/93348/1015/10000/10/
043100/20121121/93357/1015/913/10/
043100/20121121/93357/1015/1890/20/
043100/20121121/93446/1015/476/10/
043100/20121121/93449/1020/600/20/
043100/20121121/93514/1015/1802/10/
043100/20121121/93517/1015/9708/10/
043100/20121121/93519/1015/4944/10/
043100/20121121/93535/1010/102/10/
043100/20121121/93630/1010/151/10/
043100/20121121/93729/1015/148/20/
043100/20121121/93734/1015/2000/20/
043100/20121121/93756/1010/18551/10/
043100/20121121/93919/1010/832/10/
043100/20121121/94007/1015/216/20/
043100/20121121/94028/1010/2482/10/
043100/20121121/94148/1015/1001/20/
043100/20121121/94216/1015/2634/20/
043100/20121121/94218/1015/1600/20/
043100/20121121/94222/1015/2174/20/
043100/20121121/94224/1015/2462/10/
043100/20121121/94312/1015/19351/20/
043100/20121121/94342/1015/301/10/
043100/20121121/94411/1020/5015/20/
043100/20121121/94524/1020/1001/20/
043100/20121121/94525/1020/940/20/
043100/20121121/94633/1015/109/10/
043100/20121121/94646/1015/102/10/
043100/20121121/94825/1015/2300/10/
043100/20121121/94828/1015/156/10/
043100/20121121/95028/1015/2006/10/
043100/20121121/95037/1015/1083/10/
043100/20121121/95106/1015/3400/10/
043100/20121121/95135/1015/11673/10/
043100/20121121/95144/1015/1980/10/
043100/20121121/95215/1015/178/20/
043100/20121121/95246/1015/453/20/
043100/20121121/95250/1015/5000/20/
043100/20121121/95253/1015/500/20/
043100/20121121/95254/1015/1532/20/
043100/20121121/95434/1015/1000/10/
043100/20121121/95516/1015/2209/10/
043100/20121121/95518/1015/300/10/
043100/20121121/95523/1015/1634/10/
043100/20121121/95611/1015/186/20/
043100/20121121/95619/1015/1000/10/
043100/20121121/95631/1015/340/10/
043100/20121121/95636/1015/1413/10/
043100/20121121/95706/1015/1200/20/
043100/20121121/95832/1015/2500/20/
043100/20121121/95834/1010/7462/10/
043100/20121121/95835/1015/474/20/
043100/20121121/95850/1010/3000/10/
043100/20121121/95912/1010/1500/10/
043100/20121121/95928/1010/300/10/
043100/20121121/95953/1010/300/10/
043100/20121121/100001/1010/100/10/
043100/20121121/100022/1010/446/10/
043100/20121121/100151/1010/2602/10/
043100/20121121/100228/1010/604/10/
043100/20121121/100235/1010/380/10/
043100/20121121/100302/1015/181/20/
043100/20121121/100414/1015/5000/20/
043100/20121121/100419/1015/150/20/
043100/20121121/100421/1015/940/20/
043100/20121121/100423/1015/433/20/
043100/20121121/100446/1015/200/10/
043100/20121121/100453/1015/500/10/
043100/20121121/100501/1015/778/10/
043100/20121121/100534/1015/5000/20/
043100/20121121/100537/1015/277/20/
043100/20121121/100539/1015/1202/10/
043100/20121121/100543/1015/100/20/
043100/20121121/100546/1015/550/20/
043100/20121121/100557/1015/506/20/
043100/20121121/100558/1015/200/20/
043100/20121121/100601/1015/88/20/
043100/20121121/100604/1015/200/20/
043100/20121121/100605/1015/200/20/
043100/20121121/100606/1015/200/20/
043100/20121121/100607/1015/200/20/
043100/20121121/100607/1015/200/20/
043100/20121121/100612/1015/937/20/
043100/20121121/100635/1015/1010/10/
043100/20121121/100754/1015/3257/10/
043100/20121121/100845/1020/2913/20/
043100/20121121/100932/1015/1537/10/
043100/20121121/100956/1015/2002/10/
043100/20121121/101008/1015/500/10/
043100/20121121/101108/1020/4003/20/
043100/20121121/101212/1020/87/20/
043100/20121121/101220/1020/300/20/
043100/20121121/101241/1020/1106/20/
043100/20121121/101316/1015/7522/10/
043100/20121121/101339/1015/143/10/
043100/20121121/101713/1015/556/10/
043100/20121121/101726/1015/2390/10/
043100/20121121/101744/1015/3030/10/
043100/20121121/101804/1015/3969/10/
043100/20121121/101857/1015/1475/20/
043100/20121121/102010/1015/88/20/
043100/20121121/102141/1015/255/20/
043100/20121121/102203/1015/1948/20/
043100/20121121/102344/1015/1006/20/
043100/20121121/102600/1010/2851/10/
043100/20121121/102659/1015/3029/20/
043100/20121121/102714/1015/2506/20/
043100/20121121/102734/1015/1050/20/
043100/20121121/102755/1015/81/20/
043100/20121121/102812/1010/1425/10/
043100/20121121/102853/1015/84/20/
043100/20121121/102856/1010/820/10/
043100/20121121/103031/1015/82/20/
043100/20121121/103135/1015/15670/20/
043100/20121121/103146/1015/987/20/
043100/20121121/103250/1015/1004/20/
043100/20121121/103253/1015/4920/20/
043100/20121121/103256/1015/640/20/
043100/20121121/103302/1015/322/20/
043100/20121121/103339/1020/150/20/
043100/20121121/103400/1015/101/10/
043100/20121121/103422/1015/550/10/
043100/20121121/103446/1015/2298/10/
043100/20121121/103527/1015/678/20/
043100/20121121/103614/1015/100/10/
043100/20121121/103622/1015/1266/10/
043100/20121121/103846/1010/11983/10/
043100/20121121/103915/1010/18000/10/
043100/20121121/103927/1010/374/10/
043100/20121121/103930/1010/266/20/
043100/20121121/104015/1010/200/10/
043100/20121121/104023/1010/200/10/
043100/20121121/104059/1010/201/10/
043100/20121121/104100/1010/500/10/
043100/20121121/104220/1010/1000/10/
043100/20121121/104254/1010/705/10/
043100/20121121/104256/1010/1000/20/
043100/20121121/104257/1010/295/20/
043100/20121121/104309/1015/4000/20/
043100/20121121/104414/1015/140/20/
043100/20121121/104458/1010/1000/10/
043100/20121121/104525/1010/2001/10/
043100/20121121/104557/1010/9432/10/
043100/20121121/104614/1010/1507/10/
043100/20121121/104703/1010/14716/10/
043100/20121121/104703/1005/300/10/
043100/20121121/104743/1010/344/10/
043100/20121121/104921/1010/111/10/
043100/20121121/104924/1015/673/20/
043100/20121121/104939/1010/505/10/
043100/20121121/105107/1010/82/10/
043100/20121121/105247/1010/3361/10/
043100/20121121/105404/1015/201/20/
043100/20121121/105407/1010/97/10/
043100/20121121/105445/1010/306/20/
043100/20121121/105501/1010/105/20/
043100/20121121/105609/1010/3414/10/
043100/20121121/105618/1010/1001/10/
043100/20121121/105643/1010/910/10/
043100/20121121/105659/1010/1092/10/
043100/20121121/105710/1010/128/10/
043100/20121121/105719/1010/758/20/
043100/20121121/105842/1010/1102/20/
043100/20121121/105843/1010/1704/10/
043100/20121121/105911/1010/2201/10/
043100/20121121/110157/1010/2019/10/
043100/20121121/110348/1010/1002/10/
043100/20121121/110352/1010/3000/10/
043100/20121121/110414/1010/110/10/
043100/20121121/110443/1010/816/10/
043100/20121121/110528/1010/100/10/
043100/20121121/110643/1010/410/10/
043100/20121121/110807/1010/9788/10/
043100/20121121/110810/1010/212/20/
043100/20121121/110903/1015/39474/20/
043100/20121121/110904/1015/48867/20/
043100/20121121/110908/1020/101/20/
043100/20121121/110913/1020/6100/20/
043100/20121121/110914/1020/4020/20/
043100/20121121/110914/1020/2539/20/
043100/20121121/110915/1020/1000/20/
043100/20121121/110919/1020/121/20/
043100/20121121/110920/1020/3799/20/
043100/20121121/110920/1020/658/20/
043100/20121121/110921/1020/9415/20/
043100/20121121/110924/1025/140/20/
043100/20121121/110927/1025/8271/20/
043100/20121121/110930/1025/20041/20/
043100/20121121/110937/1025/1881/20/
043100/20121121/110938/1025/5001/20/
043100/20121121/110939/1025/98/20/
043100/20121121/110940/1025/2564/20/
043100/20121121/110942/1025/97/20/
043100/20121121/110942/1025/7905/20/
043100/20121121/110943/1025/3000/20/
043100/20121121/110944/1025/200/20/
043100/20121121/110945/1025/1000/20/
043100/20121121/110946/1025/97/20/
043100/20121121/110946/1025/151/20/
043100/20121121/110946/1025/746/20/
043100/20121121/110947/1025/3500/20/
043100/20121121/110947/1025/5018/20/
043100/20121121/110948/1025/3365/10/
043100/20121121/110951/1025/2001/20/
043100/20121121/110956/1025/333/20/
043100/20121121/111009/1020/271/10/
043100/20121121/111027/1020/151/10/
043100/20121121/111028/1020/501/10/
043100/20121121/111031/1020/301/10/
043100/20121121/111041/1020/1002/10/
043100/20121121/111042/1020/5245/10/
043100/20121121/111047/1020/852/10/
043100/20121121/111100/1020/491/20/
043100/20121121/111112/1020/1000/20/
043100/20121121/111113/1020/227/20/
043100/20121121/111142/1025/16709/20/
043100/20121121/111146/1025/1000/20/
043100/20121121/111150/1025/5000/20/
043100/20121121/111200/1025/104/20/
043100/20121121/111205/1020/2066/10/
043100/20121121/111206/1025/2000/20/
043100/20121121/111235/1025/3004/20/
043100/20121121/111322/1025/2012/20/
043100/20121121/111328/1025/7000/20/
043100/20121121/111330/1025/4075/20/
043100/20121121/111331/1025/2517/10/
043100/20121121/111331/1025/1483/20/
043100/20121121/111340/1025/3820/10/
043100/20121121/111341/1025/4698/10/
043100/20121121/111357/1020/81/10/
043100/20121121/111401/1020/3659/10/
043100/20121121/111403/1020/3033/10/
043100/20121121/111405/1020/5044/10/
043100/20121121/111413/1020/87/10/
043100/20121121/111414/1020/1447/10/
043100/20121121/111421/1015/83/10/
043100/20121121/111422/1020/200/20/
043100/20121121/111428/1020/4626/20/
043100/20121121/111439/1020/84/10/
043100/20121121/111509/1025/7697/20/
043100/20121121/111516/1025/1060/20/
043100/20121121/111527/1025/101/20/
043100/20121121/111532/1025/100/20/
043100/20121121/111551/1020/8275/10/
043100/20121121/111602/1020/203/10/
043100/20121121/111605/1020/1000/10/
043100/20121121/111647/1020/158/10/
043100/20121121/111732/1020/608/10/
043100/20121121/111850/1020/1047/10/
043100/20121121/111909/1020/2000/10/
043100/20121121/111911/1020/5845/10/
043100/20121121/111947/1020/1022/20/
043100/20121121/112000/1020/702/20/
043100/20121121/112019/1020/1807/20/
043100/20121121/112030/1020/101/10/
043100/20121121/112043/1020/431/10/
043100/20121121/112051/1020/1389/20/
043100/20121121/112053/1020/580/20/
043100/20121121/112055/1020/100/10/
043100/20121121/112105/1020/1540/10/
043100/20121121/112129/1025/1001/20/
043100/20121121/112159/1020/5061/10/
043100/20121121/112214/1020/6000/10/
043100/20121121/112214/1020/253/10/
043100/20121121/112230/1015/110/10/
043100/20121121/112336/1015/7003/10/
043100/20121121/112418/1015/4939/10/
043100/20121121/112418/1015/227/10/
043100/20121121/112419/1015/2000/10/
043100/20121121/112420/1015/5405/10/
043100/20121121/112421/1015/230/20/
043100/20121121/112545/1015/81/10/
043100/20121121/112707/1015/535/10/
043100/20121121/112707/1015/2706/10/
043100/20121121/112716/1015/2295/20/
043100/20121121/112727/1015/2614/10/
043100/20121121/112758/1015/2389/20/
043100/20121121/112823/1015/1003/10/
043100/20121121/112839/1015/150/10/
043100/20121121/112906/1015/3055/10/
043100/20121121/113130/1010/2130/10/
043100/20121121/113138/1010/3000/10/
043100/20121121/113138/1010/20000/10/
043100/20121121/113140/1010/5294/10/
043100/20121121/113148/1010/1005/20/
043100/20121121/113152/1010/701/20/
043100/20121121/113208/1010/500/10/
043100/20121121/113323/1015/5002/20/
043100/20121121/113334/1015/2039/20/
043100/20121121/113446/1010/1388/10/
043100/20121121/113459/1010/100/10/
043100/20121121/113502/1010/2700/10/
043100/20121121/113537/1010/6000/10/
043100/20121121/113618/1010/359/10/
043100/20121121/113930/1010/15639/10/
043100/20121121/113933/1010/877/10/
043100/20121121/114001/1010/2019/20/
043100/20121121/114007/1010/500/20/
043100/20121121/114032/1010/311/20/
043100/20121121/114035/1010/944/20/
043100/20121121/114354/1015/19330/20/
043100/20121121/114356/1015/2329/20/
043100/20121121/114359/1015/283/20/
043100/20121121/114412/1015/3035/20/
043100/20121121/114434/1015/501/20/
043100/20121121/114445/1015/100/20/
043100/20121121/114452/1015/100/20/
043100/20121121/114501/1015/100/20/
043100/20121121/114547/1015/17459/20/
043100/20121121/114612/1020/230/20/
043100/20121121/114629/1020/1249/20/
043100/20121121/114644/1020/1000/20/
043100/20121121/114822/1020/2397/20/
043100/20121121/114833/1020/1000/20/
043100/20121121/115054/1015/2725/10/
043100/20121121/115143/1020/1046/20/
043100/20121121/115218/1015/160/10/
043100/20121121/115245/1020/1011/20/
043100/20121121/115632/1015/144/10/
043100/20121121/115639/1020/212/20/
043100/20121121/115721/1015/503/10/
043100/20121121/115847/1015/151/10/
043100/20121121/115907/1020/28129/20/
043100/20121121/115912/1015/3500/10/
043100/20121121/120241/1015/114/10/
043100/20121121/120320/1015/1964/10/
043100/20121121/120401/1015/5035/10/
043100/20121121/120506/1020/121/20/
043100/20121121/120659/1015/1010/10/
043100/20121121/120733/1015/502/10/
043100/20121121/120746/1015/9769/20/
043100/20121121/120910/1015/1027/20/
043100/20121121/120910/1015/1478/20/
043100/20121121/120943/1015/535/20/
043100/20121121/120947/1015/315/20/
043100/20121121/120948/1015/7578/10/
043100/20121121/121212/1015/659/10/
043100/20121121/121247/1015/711/10/
043100/20121121/121336/1015/81/10/
043100/20121121/121425/1015/4022/10/
043100/20121121/121533/1015/982/20/
043100/20121121/121610/1015/1000/10/
043100/20121121/121633/1015/88/10/
043100/20121121/121657/1015/6101/20/
043100/20121121/121720/1015/263/20/
043100/20121121/121814/1015/113/20/
043100/20121121/121834/1015/827/10/
043100/20121121/121835/1015/7388/10/
043100/20121121/121952/1015/1501/20/
043100/20121121/122123/1015/1511/20/
043100/20121121/122133/1015/496/10/
043100/20121121/122202/1010/20000/10/
043100/20121121/122208/1010/14362/10/
043100/20121121/122221/1010/400/20/
043100/20121121/122242/1010/96/20/
043100/20121121/122244/1010/11227/20/
043100/20121121/122249/1010/2319/10/
043100/20121121/122424/1010/293/10/
043100/20121121/122541/1015/101/20/
043100/20121121/122622/1010/1810/10/
043100/20121121/122741/1010/1329/10/
043100/20121121/122815/1010/599/10/
043100/20121121/122841/1010/1060/10/
043100/20121121/122859/1010/465/10/
043100/20121121/122953/1010/16510/10/
043100/20121121/122957/1010/596/20/
043100/20121121/123002/1010/892/20/
043100/20121121/123010/1010/2000/20/
043100/20121121/123020/1010/200/20/
043100/20121121/123043/1010/1402/20/
043100/20121121/123057/1010/4900/20/
043100/20121121/123121/1005/100/10/
043100/20121121/123144/1010/895/20/
043100/20121121/123207/1010/100/20/
043100/20121121/123222/1010/3349/20/
043100/20121121/123226/1010/6838/20/
043100/20121121/123228/1010/3355/20/
043100/20121121/123230/1010/8871/20/
043100/20121121/123242/1010/166/20/
043100/20121121/123255/1010/5122/20/
043100/20121121/123444/1010/15011/10/
043100/20121121/123703/1010/4871/10/
043100/20121121/123730/1010/4113/10/
043100/20121121/123822/1005/4000/10/
043100/20121121/123831/1005/1500/10/
043100/20121121/124021/1005/1877/10/
043100/20121121/124115/1005/605/10/
043100/20121121/124121/1005/291/10/
043100/20121121/124135/1005/25000/10/
043100/20121121/124135/1005/34896/10/
043100/20121121/124137/1005/400/10/
043100/20121121/124137/1005/7000/10/
043100/20121121/124137/1005/10000/10/
043100/20121121/124139/1005/6754/10/
043100/20121121/124141/1005/742/10/
043100/20121121/124141/1005/1000/10/
043100/20121121/124141/1005/1660/10/
043100/20121121/124141/1005/3288/10/
043100/20121121/124155/1005/99/20/
043100/20121121/124218/1000/2942/10/
043100/20121121/124233/1000/250/10/
043100/20121121/124234/1000/500/10/
043100/20121121/124237/1000/1180/10/
043100/20121121/124238/1000/4000/10/
043100/20121121/124244/1000/30000/10/
043100/20121121/124246/1000/5000/10/
043100/20121121/124250/1000/2912/10/
043100/20121121/124252/1000/2000/10/
043100/20121121/124328/1000/4210/10/
043100/20121121/124345/1000/500/10/
043100/20121121/124349/1000/1011/10/
043100/20121121/124354/1000/800/10/
043100/20121121/124405/1000/2301/10/
043100/20121121/124407/1000/3174/10/
043100/20121121/124407/999/1826/10/
043100/20121121/124408/999/5000/10/
043100/20121121/124440/1000/131/20/
043100/20121121/124510/1000/110/20/
043100/20121121/124514/1000/674/20/
043100/20121121/124517/1000/220/20/
043100/20121121/124518/1000/1000/20/
043100/20121121/124521/1000/2004/20/
043100/20121121/124522/1000/1095/20/
043100/20121121/124607/1000/2001/10/
043100/20121121/124639/1000/1802/10/
043100/20121121/124644/999/1000/10/
043100/20121121/124718/1000/111/20/
043100/20121121/124729/1000/93/20/
043100/20121121/124924/1005/966/20/
043100/20121121/124929/1005/131/20/
043100/20121121/124937/1000/5516/10/
043100/20121121/125045/1000/311/10/
043100/20121121/125049/1000/2706/10/
043100/20121121/125055/1000/361/20/
043100/20121121/125105/1000/2011/20/
043100/20121121/125112/1000/1000/20/
043100/20121121/125122/1000/180/20/
043100/20121121/125122/1000/500/20/
043100/20121121/125133/1000/256/20/
043100/20121121/125133/1000/764/10/
043100/20121121/125140/1000/1300/20/
043100/20121121/125144/1000/300/20/
043100/20121121/125145/1000/1000/20/
043100/20121121/125145/1000/1000/20/
043100/20121121/125146/1000/136/20/
043100/20121121/125244/1005/1320/20/
043100/20121121/125247/1005/200/20/
043100/20121121/125301/1005/200/20/
043100/20121121/125306/1000/590/10/
043100/20121121/125329/1000/801/10/
043100/20121121/125345/1005/1001/20/
043100/20121121/125431/1000/4106/10/
043100/20121121/125500/1000/2621/10/
043100/20121121/125500/999/10560/10/
043100/20121121/125503/999/361/10/
043100/20121121/125508/1005/4405/20/
043100/20121121/125524/1000/1069/20/
043100/20121121/125552/1000/631/20/
043100/20121121/125618/1005/111/20/
043100/20121121/125628/1000/7000/10/
043100/20121121/125643/1005/1011/20/
043100/20121121/125646/1005/500/20/
043100/20121121/125733/1000/500/10/
043100/20121121/125818/1000/410/10/
043100/20121121/125841/1000/81/20/
043100/20121121/125927/1000/81/20/
043100/20121121/125927/1000/100/20/
043100/20121121/125927/1000/500/20/
043100/20121121/125946/1000/224/20/
043100/20121121/125947/999/504/10/
043100/20121121/125956/999/2050/10/
043100/20121121/130005/1000/3512/20/
043100/20121121/130006/1000/1514/10/
043100/20121121/130010/999/500/10/
043100/20121121/130024/1000/126/20/
043100/20121121/130054/1000/360/20/
043100/20121121/130120/1000/4008/10/
043100/20121121/130152/1000/1898/10/
043100/20121121/130307/1000/533/10/
043100/20121121/130318/1000/379/10/
043100/20121121/130325/1000/3003/10/
043100/20121121/130505/1005/140/20/
043100/20121121/130541/1000/124/10/
043100/20121121/130600/1000/6117/10/
043100/20121121/130730/1000/808/10/
043100/20121121/130759/1000/18617/20/
043100/20121121/130813/1000/130/20/
043100/20121121/130823/1000/88/20/
043100/20121121/130827/1000/88/20/
043100/20121121/130831/1000/88/20/
043100/20121121/130836/1000/300/20/
043100/20121121/130847/1000/111/20/
043100/20121121/130917/1000/134/20/
043100/20121121/130943/1000/1000/20/
043100/20121121/130944/1000/396/20/
043100/20121121/130944/1000/1840/20/
043100/20121121/130956/1000/1011/20/
043100/20121121/131127/999/5006/10/
043100/20121121/131131/999/8535/10/
043100/20121121/131139/999/2958/10/
043100/20121121/131212/999/128/10/
043100/20121121/131218/999/122/10/
043100/20121121/131237/999/112/10/
043100/20121121/131237/998/8089/10/
043100/20121121/131309/999/324/10/
043100/20121121/131345/1000/178/20/
043100/20121121/131415/999/557/10/
043100/20121121/131544/1000/104/20/
043100/20121121/131625/1000/132/20/
043100/20121121/131649/999/150/10/
043100/20121121/131650/999/600/10/
043100/20121121/131742/1000/368/20/
043100/20121121/131807/999/38524/10/
043100/20121121/131807/999/3320/10/
043100/20121121/131824/999/1066/10/
043100/20121121/131946/999/306/10/
043100/20121121/132030/999/6089/10/
043100/20121121/132037/1000/106/20/
043100/20121121/132122/999/5677/10/
043100/20121121/132221/1000/2035/20/
043100/20121121/132222/1000/5000/20/
043100/20121121/132224/1000/2015/20/
043100/20121121/132235/1000/3772/20/
043100/20121121/132238/1000/1675/20/
043100/20121121/132256/1000/921/20/
043100/20121121/132259/1000/500/20/
043100/20121121/132336/1000/285/20/
043100/20121121/132346/1000/595/20/
043100/20121121/132517/1000/104/10/
043100/20121121/132518/1005/689/20/
043100/20121121/132534/1000/502/10/
043100/20121121/132537/1000/1000/10/
043100/20121121/132633/1000/623/10/
043100/20121121/132659/1000/1005/10/
043100/20121121/132713/1000/3014/10/
043100/20121121/132724/1000/102/10/
043100/20121121/132806/1000/522/10/
043100/20121121/132838/1000/2001/10/
043100/20121121/132941/1000/2017/10/
043100/20121121/133005/1000/522/10/
043100/20121121/133229/1000/143/10/
043100/20121121/133331/1000/369/10/
043100/20121121/133502/1005/1022/20/
043100/20121121/133508/1000/303/10/
043100/20121121/133526/1000/707/10/
043100/20121121/133536/1000/3004/10/
043100/20121121/133602/1005/130/20/
043100/20121121/133608/1005/9593/20/
043100/20121121/133612/1000/500/10/
043100/20121121/133613/1005/12350/20/
043100/20121121/133614/1005/160/10/
043100/20121121/133642/1010/10035/20/
043100/20121121/133646/1010/500/20/
043100/20121121/133701/1010/5011/20/
043100/20121121/133702/1010/4524/20/
043100/20121121/133708/1010/5376/10/
043100/20121121/133709/1010/494/20/
043100/20121121/133711/1010/506/10/
043100/20121121/133744/1010/503/20/
043100/20121121/133903/1010/2422/20/
043100/20121121/133912/1010/1004/20/
043100/20121121/133941/1010/2519/20/
043100/20121121/134100/1010/117/20/
043100/20121121/134144/1005/3016/10/
043100/20121121/134253/1005/6996/10/
043100/20121121/134342/1005/416/20/
043100/20121121/134438/1000/943/10/
043100/20121121/134539/1005/7581/20/
043100/20121121/135006/1005/7101/10/
043100/20121121/135006/1000/18579/10/
043100/20121121/135006/1000/5921/20/
043100/20121121/135053/1000/301/10/
043100/20121121/135123/1005/100/20/
043100/20121121/135139/1005/1949/20/
043100/20121121/135523/1000/6058/10/
043100/20121121/135635/1000/2001/10/
043100/20121121/135725/1005/319/20/
043100/20121121/135730/1000/3224/10/
043100/20121121/140041/1000/1120/10/
043100/20121121/140134/1005/201/20/
043100/20121121/140219/1005/9585/20/
043100/20121121/140234/1005/508/20/
043100/20121121/140254/1005/1552/20/
043100/20121121/140320/1005/149/20/
043100/20121121/140600/1005/112/20/
043100/20121121/140630/1000/500/10/
043100/20121121/140702/1005/8323/20/
043100/20121121/140730/1005/2000/20/
043100/20121121/140735/1000/270/10/
043100/20121121/140814/1005/2001/20/
043100/20121121/140953/1005/151/20/
043100/20121121/141135/1000/400/10/
043100/20121121/141255/1005/2001/20/
043100/20121121/141259/1000/16081/10/
043100/20121121/141339/1000/5922/10/
043100/20121121/141343/1000/5860/10/
043100/20121121/141351/1000/101/20/
043100/20121121/141406/999/611/10/
043100/20121121/141528/1000/521/20/
043100/20121121/141547/1000/200/20/
043100/20121121/141555/1000/900/20/
043100/20121121/141601/1000/2893/20/
043100/20121121/141632/1000/5701/10/
043100/20121121/141643/1000/9596/10/
043100/20121121/141644/1000/1015/10/
043100/20121121/141703/1000/401/10/
043100/20121121/141739/1000/1841/10/
043100/20121121/141808/1000/10400/10/
043100/20121121/141831/1000/3754/10/
043100/20121121/141832/1000/2098/10/
043100/20121121/141911/1000/1000/20/
043100/20121121/141941/1000/2531/20/
043100/20121121/141948/999/2800/10/
043100/20121121/142000/999/7611/10/
043100/20121121/142000/998/189/10/
043100/20121121/142027/998/621/10/
043100/20121121/142028/999/1000/20/
043100/20121121/142031/998/3070/10/
043100/20121121/142040/998/30000/10/
043100/20121121/142057/998/2788/10/
043100/20121121/142129/998/1079/10/
043100/20121121/142140/998/1100/10/
043100/20121121/142150/998/110/20/
043100/20121121/142200/997/11770/10/
043100/20121121/142206/997/15004/10/
043100/20121121/142207/997/10392/10/
043100/20121121/142214/997/900/20/
043100/20121121/142218/997/5767/20/
043100/20121121/142231/996/4000/10/
043100/20121121/142235/996/300/10/
043100/20121121/142240/996/3180/10/
043100/20121121/142242/996/3502/10/
043100/20121121/142243/996/1515/10/
043100/20121121/142244/996/9415/10/
043100/20121121/142244/996/10000/10/
043100/20121121/142244/996/4259/10/
043100/20121121/142249/996/1001/20/
043100/20121121/142254/996/591/20/
043100/20121121/142307/996/501/10/
043100/20121121/142311/996/100/10/
043100/20121121/142322/997/1379/20/
043100/20121121/142337/997/108/20/
043100/20121121/142339/997/4729/20/
043100/20121121/142359/998/681/20/
043100/20121121/142403/997/1920/10/
043100/20121121/142403/996/3080/10/
043100/20121121/142415/997/1001/10/
043100/20121121/142416/997/500/10/
043100/20121121/142421/997/1004/10/
043100/20121121/142425/998/1003/20/
043100/20121121/142529/997/2028/10/
043100/20121121/142541/997/1001/10/
043100/20121121/142544/997/1000/10/
043100/20121121/142556/997/5243/10/
043100/20121121/142556/996/2757/10/
043100/20121121/142605/996/1431/10/
043100/20121121/142611/996/110/20/
043100/20121121/142617/996/459/20/
043100/20121121/142628/996/1000/20/
043100/20121121/142643/996/1067/10/
043100/20121121/142645/996/1000/20/
043100/20121121/142648/996/423/20/
043100/20121121/142650/996/1345/20/
043100/20121121/142651/996/173/20/
043100/20121121/142706/996/1051/10/
043100/20121121/142717/997/174/20/
043100/20121121/142717/996/900/10/
043100/20121121/142732/996/1538/10/
043100/20121121/142743/995/1051/10/
043100/20121121/142749/996/1002/20/
043100/20121121/142753/996/100/20/
043100/20121121/142754/996/1000/20/
043100/20121121/142759/996/1003/20/
043100/20121121/142802/996/110/20/
043100/20121121/142802/996/1335/20/
043100/20121121/142832/997/105/20/
043100/20121121/142837/997/120/20/
043100/20121121/142841/996/1001/10/
043100/20121121/142842/997/100/20/
043100/20121121/142858/996/1001/10/
043100/20121121/143012/996/958/10/
043100/20121121/143102/996/1493/10/
043100/20121121/143125/997/5132/20/
043100/20121121/143147/998/101/20/
043100/20121121/143206/997/1520/10/
043100/20121121/143239/997/3000/10/
043100/20121121/143242/997/100/10/
043100/20121121/143306/998/101/20/
043100/20121121/143326/997/1576/10/
043100/20121121/143339/997/1000/10/
043100/20121121/143341/998/161/20/
043100/20121121/143350/997/2000/10/
043100/20121121/143400/997/1310/10/
043100/20121121/143405/997/200/20/
043100/20121121/143409/997/490/20/
043100/20121121/143409/997/100/10/
043100/20121121/143410/997/410/10/
043100/20121121/143427/997/100/20/
043100/20121121/143438/996/265/10/
043100/20121121/143438/997/1000/20/
043100/20121121/143439/997/168/20/
043100/20121121/143445/997/120/20/
043100/20121121/143447/997/300/20/
043100/20121121/143514/998/1028/20/
043100/20121121/143520/998/553/20/
043100/20121121/143543/999/1196/20/
043100/20121121/143600/999/1001/10/
043100/20121121/143603/1000/2500/20/
043100/20121121/143618/999/1000/10/
043100/20121121/143632/1000/95/20/
043100/20121121/143649/999/183/10/
043100/20121121/143706/1000/278/20/
043100/20121121/143708/1000/1826/20/
043100/20121121/143715/1000/184/10/
043100/20121121/143719/1000/816/20/
043100/20121121/143723/1000/686/10/
043100/20121121/143723/999/11105/10/
043100/20121121/143822/1000/1003/20/
043100/20121121/143832/1000/1001/10/
043100/20121121/143844/1000/756/20/
043100/20121121/143904/999/3816/10/
043100/20121121/143910/999/384/10/
043100/20121121/143918/999/100/20/
043100/20121121/143936/998/1000/10/
043100/20121121/143956/999/3001/20/
043100/20121121/144005/998/151/10/
043100/20121121/144011/998/100/10/
043100/20121121/144035/998/100/20/
043100/20121121/144052/998/297/20/
043100/20121121/144052/999/4837/20/
043100/20121121/144102/999/116/10/
043100/20121121/144107/997/2600/10/
043100/20121121/144115/997/4001/10/
043100/20121121/144129/1000/3609/20/
043100/20121121/144131/998/115/10/
043100/20121121/144131/997/15204/10/
043100/20121121/144153/997/86/10/
043100/20121121/144158/997/1000/10/
043100/20121121/144201/997/2001/10/
043100/20121121/144205/997/500/10/
043100/20121121/144213/997/510/10/
043100/20121121/144223/1000/5001/20/
043100/20121121/144236/998/1000/10/
043100/20121121/144318/998/2888/10/
043100/20121121/144333/998/133/20/
043100/20121121/144340/999/162/20/
043100/20121121/144351/999/90/20/
043100/20121121/144355/998/248/20/
043100/20121121/144359/998/3822/20/
043100/20121121/144426/999/156/20/
043100/20121121/144426/998/173/10/
043100/20121121/144505/998/2225/10/
043100/20121121/144517/999/116/20/
043100/20121121/144531/998/300/10/
043100/20121121/144532/999/295/20/
043100/20121121/144548/998/770/10/
043100/20121121/144612/999/519/20/
043100/20121121/144613/999/100/20/
043100/20121121/144636/999/943/20/
043100/20121121/144642/999/100/20/
043100/20121121/144701/998/820/10/
043100/20121121/144702/999/1001/20/
043100/20121121/144702/998/5000/10/
043100/20121121/144703/998/1782/10/
043100/20121121/144715/999/1585/20/
043100/20121121/144717/999/979/10/
043100/20121121/144726/999/100/20/
043100/20121121/144730/999/2000/20/
043100/20121121/144735/999/100/20/
043100/20121121/144751/998/2500/10/
043100/20121121/144754/998/1877/10/
043100/20121121/144801/998/112/10/
043100/20121121/144808/998/1000/10/
043100/20121121/144810/998/1000/10/
043100/20121121/144816/998/3011/10/
043100/20121121/144818/998/1297/10/
043100/20121121/144818/997/8662/10/
043100/20121121/144825/998/2515/20/
043100/20121121/144833/998/3001/10/
043100/20121121/144841/998/1485/10/
043100/20121121/144845/998/499/20/
043100/20121121/144902/998/503/10/
043100/20121121/144907/998/97/20/
043100/20121121/144911/998/4029/10/
043100/20121121/144912/998/3448/10/
043100/20121121/144917/998/450/10/
043100/20121121/144922/998/5010/10/
043100/20121121/144931/998/4500/10/
043100/20121121/150000/997/126662/10/
