043100/20130222/90000/1005/8843/20/
043100/20130222/90001/1000/800/10/
043100/20130222/90003/1000/8664/10/
043100/20130222/90027/1005/251/20/
043100/20130222/90036/1005/759/10/
043100/20130222/90049/1005/5000/20/
043100/20130222/90054/1005/500/20/
043100/20130222/90108/1000/5096/10/
043100/20130222/90126/1000/12766/10/
043100/20130222/90132/1005/2020/20/
043100/20130222/90210/1005/140/20/
043100/20130222/90222/1005/2000/20/
043100/20130222/90223/1005/1000/20/
043100/20130222/90239/1005/721/20/
043100/20130222/90248/1005/6000/20/
043100/20130222/90259/1005/4609/20/
043100/20130222/90335/1010/1001/20/
043100/20130222/90409/1010/104/20/
043100/20130222/90451/1005/84/10/
043100/20130222/90452/1005/1011/10/
043100/20130222/90501/1005/90/10/
043100/20130222/90510/1005/87/10/
043100/20130222/90525/1005/87/10/
043100/20130222/90536/1005/87/10/
043100/20130222/90544/1005/533/10/
043100/20130222/90601/1005/87/10/
043100/20130222/90608/1005/211/10/
043100/20130222/90627/1005/85/10/
043100/20130222/90630/1005/199/10/
043100/20130222/90637/1010/3000/20/
043100/20130222/90646/1010/2422/20/
043100/20130222/90651/1010/3023/20/
043100/20130222/90653/1010/5011/20/
043100/20130222/90655/1010/1011/20/
043100/20130222/90655/1010/2000/20/
043100/20130222/90657/1010/535/20/
043100/20130222/90700/1010/448/20/
043100/20130222/90702/1005/84/10/
043100/20130222/90704/1010/3000/20/
043100/20130222/90705/1010/10946/20/
043100/20130222/90705/1010/3735/20/
043100/20130222/90710/1015/11481/20/
043100/20130222/90717/1010/81/10/
043100/20130222/90722/1015/2057/20/
043100/20130222/90728/1015/1185/20/
043100/20130222/90733/1010/84/10/
043100/20130222/90740/1015/9889/20/
043100/20130222/90742/1020/500/20/
043100/20130222/90742/1020/500/20/
043100/20130222/90743/1020/500/20/
043100/20130222/90743/1020/500/20/
043100/20130222/90744/1020/500/20/
043100/20130222/90744/1020/500/20/
043100/20130222/90744/1020/500/20/
043100/20130222/90745/1020/500/20/
043100/20130222/90745/1020/510/20/
043100/20130222/90745/1020/511/20/
043100/20130222/90746/1020/500/20/
043100/20130222/90750/1015/88/10/
043100/20130222/90750/1020/723/20/
043100/20130222/90754/1015/1885/10/
043100/20130222/90800/1015/1069/20/
043100/20130222/90809/1015/2066/20/
043100/20130222/90811/1015/5294/20/
043100/20130222/90811/1015/200/10/
043100/20130222/90813/1015/522/10/
043100/20130222/90814/1020/1156/20/
043100/20130222/90819/1020/642/20/
043100/20130222/90824/1020/722/20/
043100/20130222/90825/1020/17376/20/
043100/20130222/90830/1015/88/10/
043100/20130222/90837/1020/5033/20/
043100/20130222/90842/1015/89/10/
043100/20130222/90843/1020/1480/20/
043100/20130222/90845/1015/133/10/
043100/20130222/90846/1020/989/20/
043100/20130222/90847/1020/2511/20/
043100/20130222/90848/1020/222/20/
043100/20130222/90848/1020/330/20/
043100/20130222/90857/1015/89/10/
043100/20130222/90900/1015/736/10/
043100/20130222/90907/1020/344/20/
043100/20130222/90908/1015/201/10/
043100/20130222/90917/1015/245/10/
043100/20130222/90918/1015/111/10/
043100/20130222/90923/1015/1044/10/
043100/20130222/90924/1015/5011/10/
043100/20130222/90925/1020/1960/20/
043100/20130222/90925/1020/2954/20/
043100/20130222/90928/1015/333/10/
043100/20130222/90934/1015/3056/10/
043100/20130222/90937/1015/5044/10/
043100/20130222/90944/1015/123/10/
043100/20130222/90955/1015/88/10/
043100/20130222/91004/1015/1411/10/
043100/20130222/91005/1015/100/10/
043100/20130222/91010/1015/468/10/
043100/20130222/91011/1015/142/10/
043100/20130222/91012/1015/3000/10/
043100/20130222/91014/1015/521/10/
043100/20130222/91016/1015/522/10/
043100/20130222/91023/1020/1055/20/
043100/20130222/91024/1015/2791/10/
043100/20130222/91026/1015/2022/10/
043100/20130222/91028/1015/1022/10/
043100/20130222/91028/1015/556/10/
043100/20130222/91029/1015/111/10/
043100/20130222/91030/1015/3000/10/
043100/20130222/91030/1015/111/10/
043100/20130222/91031/1015/11639/10/
043100/20130222/91031/1010/111/10/
043100/20130222/91032/1010/113/10/
043100/20130222/91039/1015/9939/20/
043100/20130222/91048/1010/83/10/
043100/20130222/91127/1015/381/20/
043100/20130222/91127/1015/7249/20/
043100/20130222/91132/1015/88/10/
043100/20130222/91142/1015/122/20/
043100/20130222/91151/1015/1518/20/
043100/20130222/91200/1015/502/20/
043100/20130222/91210/1015/406/20/
043100/20130222/91227/1015/159/20/
043100/20130222/91229/1010/702/10/
043100/20130222/91234/1010/1183/10/
043100/20130222/91303/1010/4004/10/
043100/20130222/91309/1010/2001/10/
043100/20130222/91312/1010/670/10/
043100/20130222/91312/1010/400/10/
043100/20130222/91322/1010/151/10/
043100/20130222/91323/1015/1520/20/
043100/20130222/91343/1015/344/20/
043100/20130222/91350/1015/202/20/
043100/20130222/91402/1010/897/10/
043100/20130222/91408/1010/2000/10/
043100/20130222/91425/1010/318/10/
043100/20130222/91428/1010/5052/10/
043100/20130222/91444/1010/1010/10/
043100/20130222/91500/1010/1002/10/
043100/20130222/91540/1015/849/20/
043100/20130222/91543/1015/6200/20/
043100/20130222/91624/1010/3016/10/
043100/20130222/91707/1010/254/10/
043100/20130222/91709/1010/1400/10/
043100/20130222/91709/1010/15000/10/
043100/20130222/91734/1010/3150/10/
043100/20130222/91741/1010/2000/10/
043100/20130222/91743/1010/594/10/
043100/20130222/91758/1010/588/10/
043100/20130222/91808/1010/1544/10/
043100/20130222/91814/1010/1000/20/
043100/20130222/91818/1010/2003/20/
043100/20130222/91823/1005/1211/10/
043100/20130222/91827/1005/5000/10/
043100/20130222/91831/1005/1177/10/
043100/20130222/91840/1005/615/10/
043100/20130222/91905/1005/470/10/
043100/20130222/91916/1010/701/20/
043100/20130222/91951/1010/104/10/
043100/20130222/92009/1010/493/10/
043100/20130222/92039/1010/102/20/
043100/20130222/92040/1010/900/20/
043100/20130222/92055/1010/108/20/
043100/20130222/92145/1010/528/20/
043100/20130222/92154/1010/1002/20/
043100/20130222/92155/1010/5000/20/
043100/20130222/92158/1010/1989/20/
043100/20130222/92253/1010/10013/10/
043100/20130222/92302/1010/3650/10/
043100/20130222/92305/1010/6351/20/
043100/20130222/92339/1010/300/10/
043100/20130222/92344/1010/600/10/
043100/20130222/92347/1010/10000/10/
043100/20130222/92348/1010/500/10/
043100/20130222/92353/1015/102/20/
043100/20130222/92415/1015/103/20/
043100/20130222/92423/1015/2000/20/
043100/20130222/92448/1010/10001/10/
043100/20130222/92558/1010/10001/10/
043100/20130222/92605/1010/1520/10/
043100/20130222/92616/1015/273/20/
043100/20130222/92653/1010/16852/10/
043100/20130222/92658/1010/1748/20/
043100/20130222/92706/1010/502/20/
043100/20130222/92716/1010/2310/20/
043100/20130222/92812/1015/5004/20/
043100/20130222/92815/1015/3000/20/
043100/20130222/92821/1015/200/20/
043100/20130222/92832/1015/426/20/
043100/20130222/92851/1015/5001/20/
043100/20130222/92928/1010/3332/10/
043100/20130222/92949/1010/433/10/
043100/20130222/92958/1010/143/10/
043100/20130222/93013/1010/20000/10/
043100/20130222/93015/1010/100/10/
043100/20130222/93020/1010/1000/10/
043100/20130222/93022/1010/200/10/
043100/20130222/93051/1010/1112/10/
043100/20130222/93105/1010/500/10/
043100/20130222/93109/1010/669/10/
043100/20130222/93122/1005/2601/10/
043100/20130222/93212/1010/300/20/
043100/20130222/93224/1005/1309/10/
043100/20130222/93355/1010/1005/20/
043100/20130222/93416/1010/300/20/
043100/20130222/93438/1005/1000/10/
043100/20130222/93532/1005/996/10/
043100/20130222/93536/1005/744/10/
043100/20130222/93541/1005/2000/10/
043100/20130222/93712/1010/401/20/
043100/20130222/93719/1010/200/20/
043100/20130222/93809/1005/5009/10/
043100/20130222/93830/1005/15000/10/
043100/20130222/93855/1005/1041/10/
043100/20130222/93925/1005/300/10/
043100/20130222/93943/1005/313/10/
043100/20130222/94001/1005/500/10/
043100/20130222/94005/1005/411/10/
043100/20130222/94012/1005/10000/10/
043100/20130222/94024/1005/400/10/
043100/20130222/94028/1005/573/10/
043100/20130222/94035/1005/1000/10/
043100/20130222/94042/1005/1748/10/
043100/20130222/94057/1005/300/10/
043100/20130222/94057/1005/11759/10/
043100/20130222/94114/1005/3003/10/
043100/20130222/94127/1005/1000/10/
043100/20130222/94144/1005/1029/10/
043100/20130222/94151/1005/1000/10/
043100/20130222/94216/1005/1774/10/
043100/20130222/94224/1005/1576/20/
043100/20130222/94307/1005/301/10/
043100/20130222/94538/1005/7838/10/
043100/20130222/94551/1005/173/20/
043100/20130222/94556/1005/2089/10/
043100/20130222/94603/1005/747/10/
043100/20130222/94611/1005/505/20/
043100/20130222/94658/1005/8020/20/
043100/20130222/94728/1005/160/20/
043100/20130222/94753/1000/1000/10/
043100/20130222/94822/1000/1500/10/
043100/20130222/94823/1000/3000/10/
043100/20130222/94919/1000/1100/10/
043100/20130222/95018/1005/5002/20/
043100/20130222/95052/1000/139/10/
043100/20130222/95133/1000/164/10/
043100/20130222/95156/1000/2600/10/
043100/20130222/95204/1000/21899/10/
043100/20130222/95212/1000/2000/10/
043100/20130222/95214/1005/100/20/
043100/20130222/95249/1005/14488/20/
043100/20130222/95256/1000/130/10/
043100/20130222/95313/1000/300/10/
043100/20130222/95343/1005/1795/20/
043100/20130222/95349/1000/1668/10/
043100/20130222/95439/1000/2144/10/
043100/20130222/95453/1000/1857/10/
043100/20130222/95455/1000/252/10/
043100/20130222/95558/1000/1573/10/
043100/20130222/95630/1005/521/20/
043100/20130222/95653/1005/200/20/
043100/20130222/95756/1005/380/20/
043100/20130222/95802/1000/1000/10/
043100/20130222/95851/1005/115/20/
043100/20130222/95919/1005/1000/20/
043100/20130222/95922/1005/123/20/
043100/20130222/95930/1005/1000/20/
043100/20130222/95945/1005/1000/20/
043100/20130222/95957/1000/213/10/
043100/20130222/100004/1005/1000/20/
043100/20130222/100005/1000/2895/10/
043100/20130222/100016/1005/1000/20/
043100/20130222/100044/1005/101/20/
043100/20130222/100106/1005/100/20/
043100/20130222/100111/1000/500/10/
043100/20130222/100126/1000/100/10/
043100/20130222/100248/1000/3000/10/
043100/20130222/100259/1000/1804/10/
043100/20130222/100338/1005/272/20/
043100/20130222/100414/1005/5022/20/
043100/20130222/100422/1005/2000/20/
043100/20130222/100425/1005/1200/20/
043100/20130222/100438/1005/1080/20/
043100/20130222/100441/1005/2000/20/
043100/20130222/100448/1005/400/20/
043100/20130222/100504/1005/1003/20/
043100/20130222/100507/1005/500/20/
043100/20130222/100729/1000/7010/10/
043100/20130222/100802/1000/170/10/
043100/20130222/100824/1005/238/20/
043100/20130222/100922/1005/200/20/
043100/20130222/100931/1000/1000/10/
043100/20130222/100950/1000/1001/10/
043100/20130222/101009/1000/150/10/
043100/20130222/101040/1000/5000/10/
043100/20130222/101040/1000/900/10/
043100/20130222/101047/1000/400/10/
043100/20130222/101108/1000/3500/10/
043100/20130222/101110/1005/1181/20/
043100/20130222/101134/1000/2000/10/
043100/20130222/101149/1000/1001/10/
043100/20130222/101219/1000/132/10/
043100/20130222/101247/1000/3000/10/
043100/20130222/101315/1000/1500/10/
043100/20130222/101316/1000/14169/10/
043100/20130222/101317/1005/690/20/
043100/20130222/101334/1000/1001/10/
043100/20130222/101342/1000/2000/10/
043100/20130222/101347/1000/4274/10/
043100/20130222/101350/1000/500/10/
043100/20130222/101409/1000/100/10/
043100/20130222/101501/1000/1733/10/
043100/20130222/101510/1000/209/10/
043100/20130222/101512/1000/24270/10/
043100/20130222/101550/1000/13509/10/
043100/20130222/101551/1000/12311/10/
043100/20130222/101602/1000/205/10/
043100/20130222/101611/1000/15255/10/
043100/20130222/101611/1000/2498/20/
043100/20130222/101649/999/2432/10/
043100/20130222/101700/1000/1201/20/
043100/20130222/101752/1000/102/10/
043100/20130222/101806/999/793/10/
043100/20130222/101813/1000/1004/20/
043100/20130222/101820/1000/1942/20/
043100/20130222/101830/1000/2001/10/
043100/20130222/101830/999/2494/10/
043100/20130222/101952/1000/101/10/
043100/20130222/102121/1000/5004/10/
043100/20130222/102224/1005/4048/20/
043100/20130222/102353/1000/300/10/
043100/20130222/102359/1000/580/10/
043100/20130222/102428/1000/1100/10/
043100/20130222/102505/1000/1000/10/
043100/20130222/102520/1000/2800/10/
043100/20130222/102526/1000/3000/10/
043100/20130222/102547/1000/1000/10/
043100/20130222/102609/1000/2996/10/
043100/20130222/102609/1000/6915/20/
043100/20130222/102746/1000/502/10/
043100/20130222/102754/1000/1000/10/
043100/20130222/102836/1000/583/10/
043100/20130222/102903/999/2020/10/
043100/20130222/102919/1000/400/10/
043100/20130222/103001/1000/224/10/
043100/20130222/103021/1000/2000/10/
043100/20130222/103129/1000/1158/10/
043100/20130222/103147/1000/1269/10/
043100/20130222/103147/1000/2147/20/
043100/20130222/103158/1000/1000/20/
043100/20130222/103418/1000/173/10/
043100/20130222/103457/1000/203/10/
043100/20130222/103519/1000/1002/10/
043100/20130222/103552/1005/2752/20/
043100/20130222/103616/1000/400/10/
043100/20130222/103621/1005/4902/20/
043100/20130222/103642/1000/166/10/
043100/20130222/103728/1000/1811/10/
043100/20130222/103908/1000/195/10/
043100/20130222/103911/1000/1000/10/
043100/20130222/103955/1000/1202/10/
043100/20130222/104309/1005/102/20/
043100/20130222/104352/1000/610/10/
043100/20130222/104355/1000/500/10/
043100/20130222/104415/1000/502/10/
043100/20130222/104428/1000/102/10/
043100/20130222/104505/1000/1001/10/
043100/20130222/104600/1000/6004/10/
043100/20130222/104640/1000/9264/10/
043100/20130222/104658/1000/4001/10/
043100/20130222/104819/1000/2336/10/
043100/20130222/104912/1000/101/10/
043100/20130222/105029/1000/3200/10/
043100/20130222/105130/1000/1501/10/
043100/20130222/105140/1000/403/10/
043100/20130222/105141/1000/7343/10/
043100/20130222/105232/1000/682/10/
043100/20130222/105236/1000/2025/10/
043100/20130222/105335/1000/115/10/
043100/20130222/105338/1000/5732/10/
043100/20130222/105338/1000/5366/20/
043100/20130222/105343/1005/13772/20/
043100/20130222/105409/1000/201/20/
043100/20130222/105431/999/391/10/
043100/20130222/105502/1000/302/10/
043100/20130222/105516/1000/699/10/
043100/20130222/105524/1000/91/10/
043100/20130222/105718/1000/2529/10/
043100/20130222/105718/1000/3226/20/
043100/20130222/105720/1000/5394/10/
043100/20130222/105720/1000/4606/20/
043100/20130222/105740/1000/983/10/
043100/20130222/105803/1000/1018/10/
043100/20130222/105828/1000/2001/10/
043100/20130222/105833/1000/85/10/
043100/20130222/105840/1000/999/10/
043100/20130222/105849/1000/2585/10/
043100/20130222/105849/1000/2415/20/
043100/20130222/105940/1005/1990/20/
043100/20130222/105946/1000/441/10/
043100/20130222/110003/1005/5290/20/
043100/20130222/110033/1000/6658/10/
043100/20130222/110113/1000/147/10/
043100/20130222/110205/1000/5359/10/
043100/20130222/110231/1000/4000/10/
043100/20130222/110244/1000/189/10/
043100/20130222/110244/1000/1311/20/
043100/20130222/110251/1000/12379/20/
043100/20130222/110254/1000/1000/20/
043100/20130222/110420/1000/636/10/
043100/20130222/110420/1000/2067/20/
043100/20130222/110539/1000/2520/10/
043100/20130222/110815/1000/552/10/
043100/20130222/110936/1000/286/10/
043100/20130222/111148/1000/18485/10/
043100/20130222/111148/999/16516/10/
043100/20130222/111221/1000/101/20/
043100/20130222/111229/1000/399/20/
043100/20130222/111251/1000/350/10/
043100/20130222/111251/1000/1369/20/
043100/20130222/111410/1000/501/10/
043100/20130222/111536/1000/896/10/
043100/20130222/111738/1005/1076/20/
043100/20130222/111826/1000/600/10/
043100/20130222/111827/1005/300/20/
043100/20130222/111938/1000/351/10/
043100/20130222/112012/1000/112/10/
043100/20130222/112102/1000/3311/10/
043100/20130222/112217/1005/3608/20/
043100/20130222/112231/1000/8000/10/
043100/20130222/112317/1000/132/10/
043100/20130222/112323/1000/100/10/
043100/20130222/112557/1005/144/20/
043100/20130222/112737/1005/83/20/
043100/20130222/112757/1000/5315/10/
043100/20130222/112937/1000/1802/10/
043100/20130222/113032/1000/726/10/
043100/20130222/113148/1000/4841/10/
043100/20130222/113506/1000/107/10/
043100/20130222/113537/1000/2000/10/
043100/20130222/113726/1000/690/10/
043100/20130222/113859/1000/3617/10/
043100/20130222/113910/1005/4001/20/
043100/20130222/113950/1005/101/20/
043100/20130222/114034/1005/3980/20/
043100/20130222/114042/1005/1000/20/
043100/20130222/114204/1005/170/20/
043100/20130222/114423/1005/5300/20/
043100/20130222/114440/1005/2562/20/
043100/20130222/114440/1000/1100/10/
043100/20130222/114454/1005/104/20/
043100/20130222/114527/1000/3000/10/
043100/20130222/114528/1000/8200/10/
043100/20130222/114606/1005/2300/20/
043100/20130222/114756/1005/557/20/
043100/20130222/114856/1005/100/20/
043100/20130222/114859/1005/101/20/
043100/20130222/114909/1005/1001/20/
043100/20130222/114948/1005/1006/20/
043100/20130222/115014/1000/100/10/
043100/20130222/115115/1005/1001/20/
043100/20130222/115147/1005/100/20/
043100/20130222/115249/1000/252/10/
043100/20130222/115308/1000/199/10/
043100/20130222/115314/1000/1510/10/
043100/20130222/115318/1000/15001/10/
043100/20130222/115333/1000/2567/10/
043100/20130222/115340/1000/511/10/
043100/20130222/115423/1005/307/20/
043100/20130222/115516/1005/210/20/
043100/20130222/120040/1000/168/10/
043100/20130222/120110/1000/200/10/
043100/20130222/120637/1000/5034/10/
043100/20130222/120937/1005/3001/20/
043100/20130222/120952/1000/5394/10/
043100/20130222/121027/1000/381/10/
043100/20130222/121030/1005/1600/20/
043100/20130222/121104/1005/100/20/
043100/20130222/121320/1000/109/10/
043100/20130222/121342/1000/1023/10/
043100/20130222/121412/1000/937/10/
043100/20130222/121723/1000/86/10/
043100/20130222/121943/1005/301/20/
043100/20130222/122050/1000/1000/10/
043100/20130222/122224/1000/1146/10/
043100/20130222/122226/1000/272/10/
043100/20130222/122234/1000/3001/10/
043100/20130222/122324/1000/101/10/
043100/20130222/122625/1000/20002/10/
043100/20130222/122722/1000/2009/10/
043100/20130222/122800/1000/8743/10/
043100/20130222/122821/1000/711/10/
043100/20130222/123004/1000/4005/10/
043100/20130222/123208/1005/1038/20/
043100/20130222/123352/1000/100/10/
043100/20130222/123434/1000/220/10/
043100/20130222/123439/1000/400/10/
043100/20130222/123516/1000/484/10/
043100/20130222/123523/1000/2001/10/
043100/20130222/123607/1000/110/10/
043100/20130222/123610/1005/100/20/
043100/20130222/123742/1000/86/10/
043100/20130222/123831/1000/505/10/
043100/20130222/124236/1000/5651/10/
043100/20130222/124523/1005/214/20/
043100/20130222/124536/1000/100/10/
043100/20130222/124746/1000/1051/10/
043100/20130222/124836/1005/1003/20/
043100/20130222/125045/1000/625/10/
043100/20130222/125118/1005/1920/20/
043100/20130222/125305/1005/1000/20/
043100/20130222/125700/1005/2031/20/
043100/20130222/125824/1005/547/20/
043100/20130222/125836/1005/195/20/
043100/20130222/125850/1005/100/20/
043100/20130222/125919/1005/1210/20/
043100/20130222/130011/1005/283/20/
043100/20130222/130019/1000/5000/10/
043100/20130222/130044/1005/529/20/
043100/20130222/130045/1005/685/20/
043100/20130222/130255/1005/333/20/
043100/20130222/130325/1005/1200/20/
043100/20130222/130331/1005/600/20/
043100/20130222/130359/1005/1000/20/
043100/20130222/130522/1005/3425/20/
043100/20130222/130625/1000/410/10/
043100/20130222/130627/1005/8000/20/
043100/20130222/130714/1005/224/20/
043100/20130222/130729/1005/100/20/
043100/20130222/130737/1005/170/20/
043100/20130222/130823/1000/2001/10/
043100/20130222/130846/1005/411/20/
043100/20130222/131316/1000/8196/10/
043100/20130222/131400/1000/654/10/
043100/20130222/131419/1000/2134/10/
043100/20130222/131450/1000/91/10/
043100/20130222/131501/1000/1900/10/
043100/20130222/131518/1000/500/10/
043100/20130222/131540/1000/2000/10/
043100/20130222/131622/1000/28531/10/
043100/20130222/131634/1000/3564/10/
043100/20130222/131644/1000/1000/10/
043100/20130222/131646/1000/2000/10/
043100/20130222/131706/1000/1176/10/
043100/20130222/131918/1000/504/10/
043100/20130222/132034/1000/4000/10/
043100/20130222/132121/1000/1001/10/
043100/20130222/132308/1000/391/10/
043100/20130222/132331/1000/385/10/
043100/20130222/132501/1000/125/10/
043100/20130222/132506/1000/4511/10/
043100/20130222/132636/1000/1825/10/
043100/20130222/132704/1000/5700/10/
043100/20130222/132707/1000/800/10/
043100/20130222/132712/1000/5580/10/
043100/20130222/132712/1000/1200/10/
043100/20130222/132743/1000/180/10/
043100/20130222/132910/1000/10010/10/
043100/20130222/132916/1000/200/10/
043100/20130222/132927/1000/1526/10/
043100/20130222/132927/1000/1931/20/
043100/20130222/132940/1000/100/10/
043100/20130222/133015/1000/2170/20/
043100/20130222/133027/1000/1420/20/
043100/20130222/133052/999/3507/10/
043100/20130222/133159/999/10531/10/
043100/20130222/133209/999/3254/10/
043100/20130222/133429/1000/1001/10/
043100/20130222/133524/1005/101/20/
043100/20130222/133658/1000/1605/10/
043100/20130222/133804/1000/11125/20/
043100/20130222/133805/1000/8375/10/
043100/20130222/133842/1000/287/10/
043100/20130222/133844/1000/213/10/
043100/20130222/134012/999/4012/10/
043100/20130222/134013/999/26890/10/
043100/20130222/134020/999/160/10/
043100/20130222/134055/999/3335/10/
043100/20130222/134253/999/321/10/
043100/20130222/134408/1000/119/20/
043100/20130222/134439/1000/100/20/
043100/20130222/134612/999/2090/10/
043100/20130222/134634/1000/10002/20/
043100/20130222/134720/1000/6480/20/
043100/20130222/134720/1000/3521/10/
043100/20130222/134725/999/2839/10/
043100/20130222/134757/1000/5001/10/
043100/20130222/134827/999/1000/10/
043100/20130222/134926/1000/214/20/
043100/20130222/134943/1000/2790/20/
043100/20130222/135041/1000/1353/10/
043100/20130222/135100/1000/755/20/
043100/20130222/135146/1000/248/10/
043100/20130222/135248/999/1555/10/
043100/20130222/135302/1000/93/20/
043100/20130222/135437/1000/1018/20/
043100/20130222/135439/1000/1000/20/
043100/20130222/135440/1000/1000/20/
043100/20130222/135441/1000/1000/20/
043100/20130222/135449/1000/2400/20/
043100/20130222/135518/1000/150/20/
043100/20130222/135643/1000/130/20/
043100/20130222/135706/999/4500/10/
043100/20130222/135715/999/233/10/
043100/20130222/135751/999/552/10/
043100/20130222/135816/999/4348/10/
043100/20130222/135946/1000/8035/20/
043100/20130222/140033/1000/1054/20/
043100/20130222/140145/999/100/10/
043100/20130222/140221/1000/6454/20/
043100/20130222/140221/1000/23548/10/
043100/20130222/140250/1000/1042/10/
043100/20130222/140336/999/1002/10/
043100/20130222/140439/1000/101/10/
043100/20130222/140440/1000/100/20/
043100/20130222/140456/999/2000/10/
043100/20130222/140613/1000/105/20/
043100/20130222/140621/1000/3238/20/
043100/20130222/140626/999/2001/10/
043100/20130222/140654/1000/105/20/
043100/20130222/140713/1000/2000/20/
043100/20130222/140715/1000/700/20/
043100/20130222/140732/1000/100/20/
043100/20130222/140906/1000/87/20/
043100/20130222/140920/1000/204/20/
043100/20130222/140932/1000/1900/20/
043100/20130222/141033/1000/2003/20/
043100/20130222/141127/999/10008/10/
043100/20130222/141231/1000/3025/20/
043100/20130222/141352/999/520/10/
043100/20130222/141358/1000/700/20/
043100/20130222/141436/999/1810/10/
043100/20130222/141548/1000/3759/20/
043100/20130222/141612/999/2002/10/
043100/20130222/141626/999/20607/10/
043100/20130222/141639/999/338/20/
043100/20130222/141726/999/152/20/
043100/20130222/141741/999/201/20/
043100/20130222/141749/998/9092/10/
043100/20130222/141810/998/392/10/
043100/20130222/141841/998/530/10/
043100/20130222/141841/999/97/20/
043100/20130222/141846/999/102/20/
043100/20130222/141846/999/150/20/
043100/20130222/141856/999/548/20/
043100/20130222/141901/999/102/20/
043100/20130222/141901/999/1000/20/
043100/20130222/141909/999/1026/20/
043100/20130222/141911/999/1310/20/
043100/20130222/141912/999/100/20/
043100/20130222/141930/999/87/20/
043100/20130222/141934/998/709/10/
043100/20130222/141956/998/120/10/
043100/20130222/142019/998/1168/10/
043100/20130222/142028/998/1034/10/
043100/20130222/142030/999/1702/20/
043100/20130222/142040/999/274/20/
043100/20130222/142104/999/300/20/
043100/20130222/142112/999/104/20/
043100/20130222/142134/999/499/20/
043100/20130222/142225/999/368/20/
043100/20130222/142250/999/127/20/
043100/20130222/142252/999/680/20/
043100/20130222/142255/999/1086/20/
043100/20130222/142319/999/1038/20/
043100/20130222/142332/999/6000/20/
043100/20130222/142334/998/2000/10/
043100/20130222/142353/998/712/10/
043100/20130222/142400/998/1902/10/
043100/20130222/142418/998/1388/10/
043100/20130222/142431/999/5000/20/
043100/20130222/142500/999/500/20/
043100/20130222/142514/999/500/20/
043100/20130222/142528/999/900/20/
043100/20130222/142542/999/502/20/
043100/20130222/142552/999/2887/20/
043100/20130222/142815/1000/285/20/
043100/20130222/142848/999/4565/10/
043100/20130222/142914/999/2702/10/
043100/20130222/142937/1000/10002/20/
043100/20130222/142950/999/1527/10/
043100/20130222/143038/999/4744/10/
043100/20130222/143044/999/1502/10/
043100/20130222/143053/1000/1002/20/
043100/20130222/143123/999/82/10/
043100/20130222/143159/1000/2644/20/
043100/20130222/143223/999/1000/10/
043100/20130222/143254/999/1641/10/
043100/20130222/143305/1000/5000/20/
043100/20130222/143313/1000/5000/20/
043100/20130222/143346/1000/298/20/
043100/20130222/143406/1000/1000/20/
043100/20130222/143420/1000/198/20/
043100/20130222/143438/1000/100/20/
043100/20130222/143604/999/1089/10/
043100/20130222/143626/1000/1206/20/
043100/20130222/143626/1000/1000/20/
043100/20130222/143634/1000/493/20/
043100/20130222/143637/1000/437/20/
043100/20130222/143719/1000/500/20/
043100/20130222/143725/1000/2010/20/
043100/20130222/143726/1000/1000/20/
043100/20130222/143742/1000/10000/20/
043100/20130222/143757/1000/102/20/
043100/20130222/143801/1000/12535/20/
043100/20130222/143802/1000/3468/10/
043100/20130222/143812/1000/2502/10/
043100/20130222/143841/1000/1193/10/
043100/20130222/143845/1000/1323/10/
043100/20130222/143846/1005/86/20/
043100/20130222/143849/1000/1002/10/
043100/20130222/143857/1000/102/10/
043100/20130222/143906/1005/2530/20/
043100/20130222/143923/1000/2214/10/
043100/20130222/143951/999/1006/10/
043100/20130222/143953/1000/739/20/
043100/20130222/144006/1000/131/20/
043100/20130222/144024/1000/10002/20/
043100/20130222/144024/1000/7144/20/
043100/20130222/144046/1000/1006/10/
043100/20130222/144056/1000/5005/10/
043100/20130222/144058/1000/1002/10/
043100/20130222/144107/1000/2002/10/
043100/20130222/144127/1000/5236/10/
043100/20130222/144156/1000/1702/20/
043100/20130222/144201/999/525/10/
043100/20130222/144215/1000/307/20/
043100/20130222/144226/1000/932/20/
043100/20130222/144231/1000/85/20/
043100/20130222/144237/1000/1655/20/
043100/20130222/144252/1000/1002/10/
043100/20130222/144253/1005/3329/20/
043100/20130222/144256/1000/1002/10/
043100/20130222/144300/1000/1002/10/
043100/20130222/144304/1000/553/10/
043100/20130222/144321/1000/700/20/
043100/20130222/144325/1000/1002/20/
043100/20130222/144343/1000/1006/20/
043100/20130222/144343/1000/2067/10/
043100/20130222/144404/1000/1009/20/
043100/20130222/144404/1000/2586/10/
043100/20130222/144410/1000/1002/10/
043100/20130222/144410/1000/413/10/
043100/20130222/144418/1000/1052/20/
043100/20130222/144421/1000/163/20/
043100/20130222/144438/1000/409/20/
043100/20130222/144445/999/503/10/
043100/20130222/144458/1000/506/20/
043100/20130222/144459/1000/2000/20/
043100/20130222/144509/1000/500/20/
043100/20130222/144512/1000/6000/20/
043100/20130222/144519/1000/1604/20/
043100/20130222/144519/1000/577/20/
043100/20130222/144519/1000/273/10/
043100/20130222/144524/1000/927/20/
043100/20130222/144536/1000/7578/10/
043100/20130222/144547/1000/263/20/
043100/20130222/144613/1000/104/20/
043100/20130222/144634/999/2121/10/
043100/20130222/144649/1000/10099/20/
043100/20130222/144740/1000/7041/10/
043100/20130222/144917/1000/810/10/
043100/20130222/144943/1005/504/20/
043100/20130222/144944/1005/1910/20/
043100/20130222/144957/1000/1624/10/
043100/20130222/150002/1005/70396/20/
