043100/20121210/90054/670/27366/10/
043100/20121210/90103/688/500/20/
043100/20121210/90105/672/706/10/
043100/20121210/90136/673/1044/20/
043100/20121210/90206/685/733/20/
043100/20121210/90212/673/2000/10/
043100/20121210/90213/685/232/20/
043100/20121210/90226/674/531/10/
043100/20121210/90226/673/469/10/
043100/20121210/90334/675/220/10/
043100/20121210/90337/675/1000/10/
043100/20121210/90338/675/651/10/
043100/20121210/90338/674/349/10/
043100/20121210/90352/674/101/10/
043100/20121210/90353/674/88/10/
043100/20121210/90353/680/900/20/
043100/20121210/90428/675/340/10/
043100/20121210/90441/675/1616/10/
043100/20121210/90447/675/500/10/
043100/20121210/90500/674/550/10/
043100/20121210/90503/674/300/10/
043100/20121210/90512/675/150/20/
043100/20121210/90530/674/110/10/
043100/20121210/90550/674/1956/10/
043100/20121210/90554/674/1880/10/
043100/20121210/90610/674/350/20/
043100/20121210/90611/674/1450/20/
043100/20121210/90614/674/100/20/
043100/20121210/90617/674/1461/20/
043100/20121210/90619/674/100/20/
043100/20121210/90619/674/2000/20/
043100/20121210/90633/673/12763/10/
043100/20121210/90633/674/3200/20/
043100/20121210/90634/674/340/20/
043100/20121210/90635/674/700/20/
043100/20121210/90637/673/1512/10/
043100/20121210/90637/672/524/10/
043100/20121210/90642/672/1000/10/
043100/20121210/90649/673/1000/10/
043100/20121210/90653/672/561/10/
043100/20121210/90744/673/84/20/
043100/20121210/90752/673/5000/20/
043100/20121210/90756/673/100/20/
043100/20121210/90816/673/120/20/
043100/20121210/90830/673/222/20/
043100/20121210/90839/673/510/20/
043100/20121210/90841/672/4205/10/
043100/20121210/90841/671/2249/10/
043100/20121210/90841/670/4566/10/
043100/20121210/90856/670/1700/10/
043100/20121210/90900/670/2824/10/
043100/20121210/90900/669/2176/10/
043100/20121210/90909/671/302/20/
043100/20121210/90916/669/1000/10/
043100/20121210/90945/670/1143/10/
043100/20121210/90955/669/6030/10/
043100/20121210/90957/669/150/10/
043100/20121210/91001/669/750/10/
043100/20121210/91006/669/140/20/
043100/20121210/91009/669/110/20/
043100/20121210/91021/669/120/10/
043100/20121210/91026/668/3867/10/
043100/20121210/91035/667/500/10/
043100/20121210/91037/666/5211/10/
043100/20121210/91037/665/1265/10/
043100/20121210/91037/663/112/10/
043100/20121210/91037/662/7418/10/
043100/20121210/91052/662/266/10/
043100/20121210/91052/661/4240/10/
043100/20121210/91101/660/5359/10/
043100/20121210/91103/660/4795/10/
043100/20121210/91108/660/745/10/
043100/20121210/91112/660/2001/10/
043100/20121210/91112/660/220/10/
043100/20121210/91117/660/501/10/
043100/20121210/91120/660/3000/10/
043100/20121210/91120/660/3793/10/
043100/20121210/91122/660/1050/10/
043100/20121210/91123/659/120/10/
043100/20121210/91123/658/510/10/
043100/20121210/91129/653/1127/10/
043100/20121210/91137/654/501/10/
043100/20121210/91143/653/300/20/
043100/20121210/91144/660/1000/20/
043100/20121210/91146/653/6300/10/
043100/20121210/91148/653/3484/10/
043100/20121210/91149/653/200/20/
043100/20121210/91150/653/100/20/
043100/20121210/91152/653/5000/20/
043100/20121210/91153/653/100/20/
043100/20121210/91154/653/1350/20/
043100/20121210/91154/653/219/10/
043100/20121210/91157/652/164/10/
043100/20121210/91159/652/1515/10/
043100/20121210/91208/652/1924/20/
043100/20121210/91212/652/3177/10/
043100/20121210/91214/652/301/20/
043100/20121210/91215/652/100/20/
043100/20121210/91217/652/500/20/
043100/20121210/91235/652/225/10/
043100/20121210/91235/651/1924/10/
043100/20121210/91235/650/8274/10/
043100/20121210/91235/649/511/10/
043100/20121210/91237/647/1013/20/
043100/20121210/91239/647/110/20/
043100/20121210/91250/652/642/10/
043100/20121210/91254/652/955/20/
043100/20121210/91300/652/1000/10/
043100/20121210/91313/653/260/20/
043100/20121210/91319/652/3179/10/
043100/20121210/91335/652/1550/20/
043100/20121210/91349/652/139/20/
043100/20121210/91353/652/124/20/
043100/20121210/91356/651/104/10/
043100/20121210/91409/652/246/20/
043100/20121210/91409/652/99/20/
043100/20121210/91422/652/165/10/
043100/20121210/91422/652/4335/20/
043100/20121210/91429/653/400/20/
043100/20121210/91435/653/2000/20/
043100/20121210/91439/652/143/10/
043100/20121210/91442/652/1522/10/
043100/20121210/91452/653/4870/20/
043100/20121210/91508/653/1003/10/
043100/20121210/91517/653/8131/10/
043100/20121210/91651/658/83/20/
043100/20121210/91651/659/84/20/
043100/20121210/91654/659/341/20/
043100/20121210/91805/659/111/20/
043100/20121210/91825/659/285/20/
043100/20121210/91900/659/2902/20/
043100/20121210/91902/659/3000/10/
043100/20121210/91916/659/2374/20/
043100/20121210/92012/659/2741/20/
043100/20121210/92034/659/1000/20/
043100/20121210/92037/659/5010/20/
043100/20121210/92038/659/1523/20/
043100/20121210/92038/660/7722/20/
043100/20121210/92046/660/500/20/
043100/20121210/92047/660/500/20/
043100/20121210/92052/660/5000/20/
043100/20121210/92055/660/120/20/
043100/20121210/92102/661/1874/20/
043100/20121210/92107/661/2654/20/
043100/20121210/92114/661/950/10/
043100/20121210/92135/662/500/10/
043100/20121210/92135/661/1500/10/
043100/20121210/92142/665/501/20/
043100/20121210/92145/665/1000/20/
043100/20121210/92225/664/102/20/
043100/20121210/92321/664/6756/10/
043100/20121210/92325/664/901/10/
043100/20121210/92404/664/104/10/
043100/20121210/92405/663/1000/10/
043100/20121210/92409/664/500/20/
043100/20121210/92422/664/140/20/
043100/20121210/92425/663/106/10/
043100/20121210/92425/662/521/10/
043100/20121210/92427/662/1163/20/
043100/20121210/92443/661/1001/10/
043100/20121210/92443/660/2349/10/
043100/20121210/92506/662/112/20/
043100/20121210/92508/662/500/20/
043100/20121210/92529/662/4117/20/
043100/20121210/92642/663/2024/20/
043100/20121210/92643/662/2000/10/
043100/20121210/92656/662/8833/10/
043100/20121210/92721/660/15436/10/
043100/20121210/92741/660/2020/20/
043100/20121210/92743/660/265/20/
043100/20121210/92743/662/1094/20/
043100/20121210/92743/663/7384/20/
043100/20121210/92759/663/1601/10/
043100/20121210/92804/664/1000/20/
043100/20121210/92816/663/100/20/
043100/20121210/92834/662/360/20/
043100/20121210/92857/662/4766/10/
043100/20121210/92909/662/476/10/
043100/20121210/92929/661/541/20/
043100/20121210/92936/661/305/20/
043100/20121210/92937/661/1695/10/
043100/20121210/92937/660/7653/10/
043100/20121210/92942/660/652/20/
043100/20121210/93032/660/1906/10/
043100/20121210/93040/660/592/20/
043100/20121210/93040/661/410/20/
043100/20121210/93109/659/500/10/
043100/20121210/93130/661/245/20/
043100/20121210/93148/660/249/10/
043100/20121210/93212/659/8131/10/
043100/20121210/93231/659/2051/20/
043100/20121210/93250/658/3511/10/
043100/20121210/93254/659/120/20/
043100/20121210/93329/658/7814/10/
043100/20121210/93351/657/2000/10/
043100/20121210/93351/658/100/20/
043100/20121210/93355/657/2018/10/
043100/20121210/93401/658/750/20/
043100/20121210/93422/657/1240/10/
043100/20121210/93432/657/1426/10/
043100/20121210/93443/656/721/10/
043100/20121210/93446/656/1000/10/
043100/20121210/93501/656/424/10/
043100/20121210/93505/655/9244/10/
043100/20121210/93515/655/100/20/
043100/20121210/93523/655/110/20/
043100/20121210/93529/655/97/20/
043100/20121210/93550/655/81/20/
043100/20121210/93553/655/1051/20/
043100/20121210/93558/655/838/20/
043100/20121210/93637/656/746/20/
043100/20121210/93650/656/201/20/
043100/20121210/93710/656/2780/20/
043100/20121210/93716/656/991/20/
043100/20121210/93718/656/301/10/
043100/20121210/93719/656/229/10/
043100/20121210/93731/656/1271/20/
043100/20121210/93810/656/744/10/
043100/20121210/93810/655/709/10/
043100/20121210/93812/657/549/20/
043100/20121210/93817/658/7452/10/
043100/20121210/93921/658/204/20/
043100/20121210/93926/658/1000/20/
043100/20121210/93934/656/270/10/
043100/20121210/93936/656/950/20/
043100/20121210/94016/656/499/10/
043100/20121210/94016/655/86/10/
043100/20121210/94018/659/5676/20/
043100/20121210/94022/659/990/20/
043100/20121210/94025/659/173/20/
043100/20121210/94032/659/1036/20/
043100/20121210/94052/658/1001/10/
043100/20121210/94156/656/179/10/
043100/20121210/94229/655/3354/10/
043100/20121210/94309/655/2702/10/
043100/20121210/94317/655/401/10/
043100/20121210/94326/655/508/10/
043100/20121210/94326/654/392/10/
043100/20121210/94333/654/5780/10/
043100/20121210/94338/653/1000/10/
043100/20121210/94350/654/101/20/
043100/20121210/94351/653/426/10/
043100/20121210/94354/653/1496/10/
043100/20121210/94357/652/501/10/
043100/20121210/94402/652/1498/10/
043100/20121210/94404/653/500/20/
043100/20121210/94415/652/439/10/
043100/20121210/94416/652/3445/10/
043100/20121210/94419/652/550/10/
043100/20121210/94424/653/1000/20/
043100/20121210/94452/652/692/10/
043100/20121210/94455/652/445/10/
043100/20121210/94504/652/110/20/
043100/20121210/94507/652/1490/20/
043100/20121210/94531/651/8021/10/
043100/20121210/94531/651/3000/10/
043100/20121210/94540/651/1246/10/
043100/20121210/94544/651/5000/10/
043100/20121210/94546/651/2397/10/
043100/20121210/94548/650/15000/10/
043100/20121210/94557/651/560/20/
043100/20121210/94603/650/213/10/
043100/20121210/94607/651/100/20/
043100/20121210/94612/651/1000/20/
043100/20121210/94618/650/1510/10/
043100/20121210/94643/650/6738/10/
043100/20121210/94645/651/500/20/
043100/20121210/94655/650/10050/10/
043100/20121210/94659/650/4646/10/
043100/20121210/94724/649/1596/10/
043100/20121210/94729/649/142/10/
043100/20121210/94731/649/466/10/
043100/20121210/94740/649/2001/10/
043100/20121210/94757/650/1035/20/
043100/20121210/94758/649/3612/10/
043100/20121210/94759/649/340/10/
043100/20121210/94800/649/110/10/
043100/20121210/94800/649/200/10/
043100/20121210/94806/649/124/10/
043100/20121210/94821/649/902/10/
043100/20121210/94828/649/128/10/
043100/20121210/94835/649/650/10/
043100/20121210/94904/650/103/20/
043100/20121210/94905/650/400/20/
043100/20121210/95015/649/172/10/
043100/20121210/95028/650/1000/20/
043100/20121210/95030/650/100/20/
043100/20121210/95034/650/24767/20/
043100/20121210/95205/651/137/10/
043100/20121210/95233/651/558/10/
043100/20121210/95304/653/297/20/
043100/20121210/95344/652/500/20/
043100/20121210/95427/652/420/20/
043100/20121210/95439/651/4022/10/
043100/20121210/95558/651/1142/10/
043100/20121210/95628/651/3001/10/
043100/20121210/95631/651/2160/10/
043100/20121210/95640/651/301/20/
043100/20121210/95704/651/4000/20/
043100/20121210/95710/651/100/20/
043100/20121210/95741/651/200/20/
043100/20121210/95741/650/7000/10/
043100/20121210/95747/650/550/10/
043100/20121210/95834/651/439/20/
043100/20121210/95841/651/2000/10/
043100/20121210/95919/651/5149/10/
043100/20121210/95919/650/10643/10/
043100/20121210/95919/649/6210/10/
043100/20121210/95926/649/200/20/
043100/20121210/95929/649/638/20/
043100/20121210/100124/651/1569/10/
043100/20121210/100124/650/4515/10/
043100/20121210/100217/652/94/20/
043100/20121210/100240/650/1163/10/
043100/20121210/100256/650/1330/10/
043100/20121210/100321/650/561/20/
043100/20121210/100322/650/279/20/
043100/20121210/100337/651/328/20/
043100/20121210/100358/651/500/10/
043100/20121210/100402/651/1000/10/
043100/20121210/100405/651/172/10/
043100/20121210/100416/651/1800/20/
043100/20121210/100420/651/201/10/
043100/20121210/100443/650/4500/10/
043100/20121210/100456/650/100/10/
043100/20121210/100506/649/2421/10/
043100/20121210/100516/649/500/10/
043100/20121210/100539/650/722/10/
043100/20121210/100539/649/2353/10/
043100/20121210/100539/648/5725/10/
043100/20121210/100556/648/100/10/
043100/20121210/100631/649/511/10/
043100/20121210/100641/649/474/10/
043100/20121210/100647/649/205/10/
043100/20121210/100647/648/730/10/
043100/20121210/100651/649/187/10/
043100/20121210/100651/648/5213/10/
043100/20121210/100700/648/4731/10/
043100/20121210/100700/647/1826/10/
043100/20121210/100712/647/1000/10/
043100/20121210/100720/647/1500/10/
043100/20121210/100738/647/1000/10/
043100/20121210/100755/647/5000/10/
043100/20121210/100813/647/113/10/
043100/20121210/100839/646/1015/10/
043100/20121210/100851/646/330/10/
043100/20121210/100905/646/1000/10/
043100/20121210/100916/647/4337/20/
043100/20121210/100944/647/5000/10/
043100/20121210/100950/647/1000/10/
043100/20121210/100952/647/310/10/
043100/20121210/100957/647/787/10/
043100/20121210/101023/646/215/10/
043100/20121210/101043/647/213/20/
043100/20121210/101055/647/888/10/
043100/20121210/101055/646/812/10/
043100/20121210/101114/647/112/20/
043100/20121210/101118/647/8835/20/
043100/20121210/101120/647/1000/10/
043100/20121210/101133/647/102/10/
043100/20121210/101139/648/201/20/
043100/20121210/101150/648/101/20/
043100/20121210/101154/648/625/20/
043100/20121210/101202/648/562/20/
043100/20121210/101207/648/837/20/
043100/20121210/101227/649/2049/20/
043100/20121210/101227/650/997/20/
043100/20121210/101303/650/838/20/
043100/20121210/101442/650/6710/20/
043100/20121210/101514/651/106/20/
043100/20121210/101521/650/350/10/
043100/20121210/101532/650/1000/10/
043100/20121210/101603/650/3002/10/
043100/20121210/101635/651/1390/20/
043100/20121210/101706/651/776/20/
043100/20121210/101733/651/1618/20/
043100/20121210/101753/651/1753/20/
043100/20121210/101807/652/415/20/
043100/20121210/101811/652/300/20/
043100/20121210/101925/652/101/20/
043100/20121210/101959/652/3443/20/
043100/20121210/102002/652/2000/20/
043100/20121210/102005/652/1619/20/
043100/20121210/102005/652/908/20/
043100/20121210/102006/652/5020/20/
043100/20121210/102008/652/499/20/
043100/20121210/102009/652/200/20/
043100/20121210/102010/652/1000/20/
043100/20121210/102013/652/514/20/
043100/20121210/102020/652/200/20/
043100/20121210/102047/652/181/20/
043100/20121210/102101/653/6716/20/
043100/20121210/102258/654/111/20/
043100/20121210/102353/653/1146/10/
043100/20121210/102520/655/1061/20/
043100/20121210/102601/655/1855/20/
043100/20121210/102616/656/1131/20/
043100/20121210/102619/656/1870/10/
043100/20121210/102636/654/1000/10/
043100/20121210/102649/654/2001/10/
043100/20121210/102712/655/2001/10/
043100/20121210/102715/654/302/10/
043100/20121210/102715/653/2454/10/
043100/20121210/102733/653/910/20/
043100/20121210/102745/653/210/20/
043100/20121210/102801/653/183/20/
043100/20121210/102829/652/2001/10/
043100/20121210/103004/653/1202/10/
043100/20121210/103004/653/4193/10/
043100/20121210/103030/653/3000/20/
043100/20121210/103045/653/1000/20/
043100/20121210/103046/653/300/20/
043100/20121210/103054/653/200/20/
043100/20121210/103106/653/1678/20/
043100/20121210/103107/653/1000/20/
043100/20121210/103108/653/300/20/
043100/20121210/103109/653/1000/20/
043100/20121210/103115/653/131/20/
043100/20121210/103223/653/4270/10/
043100/20121210/103249/653/100/20/
043100/20121210/103255/653/500/20/
043100/20121210/103304/653/100/20/
043100/20121210/103331/652/133/10/
043100/20121210/103423/652/800/10/
043100/20121210/103436/652/5000/10/
043100/20121210/103600/652/133/10/
043100/20121210/103615/653/501/20/
043100/20121210/103619/653/100/20/
043100/20121210/103638/653/122/20/
043100/20121210/103701/653/277/20/
043100/20121210/103801/654/1067/20/
043100/20121210/103824/653/500/10/
043100/20121210/103929/654/100/20/
043100/20121210/103951/653/1501/10/
043100/20121210/103959/654/1409/20/
043100/20121210/104006/655/6776/20/
043100/20121210/104019/655/100/20/
043100/20121210/104040/655/301/20/
043100/20121210/104056/655/1002/20/
043100/20121210/104058/655/2000/20/
043100/20121210/104101/655/3000/20/
043100/20121210/104102/654/2000/10/
043100/20121210/104130/654/5500/10/
043100/20121210/104131/654/230/10/
043100/20121210/104131/654/499/10/
043100/20121210/104134/654/600/10/
043100/20121210/104140/654/2000/10/
043100/20121210/104142/654/500/10/
043100/20121210/104143/654/1000/10/
043100/20121210/104147/654/1097/10/
043100/20121210/104149/654/2000/10/
043100/20121210/104155/654/150/10/
043100/20121210/104157/654/1705/10/
043100/20121210/104157/654/2845/20/
043100/20121210/104157/655/4174/20/
043100/20121210/104300/654/601/10/
043100/20121210/104318/654/343/10/
043100/20121210/104319/654/336/10/
043100/20121210/104319/653/2664/10/
043100/20121210/104429/654/152/20/
043100/20121210/104444/653/5000/10/
043100/20121210/104509/653/2400/10/
043100/20121210/104530/653/4166/10/
043100/20121210/104530/652/10244/10/
043100/20121210/104545/652/593/20/
043100/20121210/104600/652/300/10/
043100/20121210/104615/652/1065/10/
043100/20121210/104619/652/1000/10/
043100/20121210/104641/652/1000/10/
043100/20121210/104708/652/934/10/
043100/20121210/104841/651/216/10/
043100/20121210/104953/652/2004/10/
043100/20121210/104953/651/3000/10/
043100/20121210/104953/653/116/20/
043100/20121210/105041/653/4874/20/
043100/20121210/105243/652/331/10/
043100/20121210/105300/652/1080/10/
043100/20121210/105313/652/207/10/
043100/20121210/105313/651/9512/10/
043100/20121210/105328/651/358/20/
043100/20121210/105554/651/649/10/
043100/20121210/105605/651/1789/10/
043100/20121210/105615/651/214/20/
043100/20121210/105638/651/310/10/
043100/20121210/105646/651/109/10/
043100/20121210/105720/651/121/20/
043100/20121210/105930/650/5655/10/
043100/20121210/110014/650/2030/20/
043100/20121210/110051/650/210/10/
043100/20121210/110233/652/128/20/
043100/20121210/110326/652/297/20/
043100/20121210/110353/652/200/10/
043100/20121210/110403/652/2000/10/
043100/20121210/110406/652/150/10/
043100/20121210/110411/652/3651/10/
043100/20121210/110452/652/1400/20/
043100/20121210/110506/651/2180/10/
043100/20121210/110516/652/3049/20/
043100/20121210/110522/652/1000/10/
043100/20121210/110611/652/1003/10/
043100/20121210/110619/652/5000/10/
043100/20121210/110724/653/551/20/
043100/20121210/110734/654/515/20/
043100/20121210/110823/653/1002/10/
043100/20121210/110913/653/606/10/
043100/20121210/110929/653/3000/10/
043100/20121210/111005/653/838/10/
043100/20121210/111029/653/100/10/
043100/20121210/111140/652/500/10/
043100/20121210/111410/652/116/10/
043100/20121210/111516/652/1021/10/
043100/20121210/111541/652/1326/10/
043100/20121210/111647/652/129/20/
043100/20121210/111714/652/101/20/
043100/20121210/111755/652/200/20/
043100/20121210/111822/652/216/20/
043100/20121210/111943/651/7147/10/
043100/20121210/112043/651/104/10/
043100/20121210/112051/651/3795/10/
043100/20121210/112209/650/7660/10/
043100/20121210/112219/650/300/20/
043100/20121210/112228/650/540/20/
043100/20121210/112237/650/540/20/
043100/20121210/112318/650/3350/20/
043100/20121210/112339/650/102/20/
043100/20121210/112356/650/1000/20/
043100/20121210/112404/650/1010/20/
043100/20121210/112418/650/100/20/
043100/20121210/112434/650/100/20/
043100/20121210/112521/651/1026/20/
043100/20121210/112606/650/10000/10/
043100/20121210/112613/650/1569/10/
043100/20121210/112630/650/600/20/
043100/20121210/112632/650/500/20/
043100/20121210/112651/650/126/20/
043100/20121210/112652/650/100/20/
043100/20121210/112717/650/105/20/
043100/20121210/112801/650/88/10/
043100/20121210/112810/651/12015/20/
043100/20121210/112817/651/908/20/
043100/20121210/112826/651/4744/20/
043100/20121210/112836/651/700/10/
043100/20121210/112922/652/382/20/
043100/20121210/113024/652/1034/20/
043100/20121210/113127/651/600/10/
043100/20121210/113233/651/1004/10/
043100/20121210/113431/652/794/20/
043100/20121210/113431/652/1000/20/
043100/20121210/113452/652/714/20/
043100/20121210/113456/652/2966/20/
043100/20121210/113457/652/1300/20/
043100/20121210/113529/652/198/20/
043100/20121210/113814/651/3502/10/
043100/20121210/113835/651/800/10/
043100/20121210/113849/651/2000/10/
043100/20121210/114052/651/3220/10/
043100/20121210/114056/651/4193/10/
043100/20121210/114203/652/203/20/
043100/20121210/114219/652/3987/20/
043100/20121210/114220/652/1150/20/
043100/20121210/114224/652/1725/20/
043100/20121210/114225/652/5000/20/
043100/20121210/114244/652/950/20/
043100/20121210/114255/652/149/10/
043100/20121210/114319/653/2001/20/
043100/20121210/114330/653/470/20/
043100/20121210/114337/653/769/20/
043100/20121210/114340/653/327/20/
043100/20121210/114458/653/702/10/
043100/20121210/114621/654/152/20/
043100/20121210/114649/654/100/20/
043100/20121210/114654/654/100/20/
043100/20121210/114657/654/100/20/
043100/20121210/114658/653/1376/10/
043100/20121210/114705/653/100/20/
043100/20121210/114710/653/100/20/
043100/20121210/114713/653/100/20/
043100/20121210/114715/653/100/20/
043100/20121210/114717/653/100/20/
043100/20121210/114719/653/100/20/
043100/20121210/114721/653/100/20/
043100/20121210/114723/653/100/20/
043100/20121210/114727/653/100/20/
043100/20121210/114731/653/100/20/
043100/20121210/114733/653/100/20/
043100/20121210/114926/654/163/20/
043100/20121210/115030/653/722/10/
043100/20121210/115055/654/101/20/
043100/20121210/115156/653/211/10/
043100/20121210/115243/654/110/20/
043100/20121210/115253/653/908/10/
043100/20121210/115255/653/1440/10/
043100/20121210/115405/653/520/10/
043100/20121210/115427/653/6685/10/
043100/20121210/115427/652/393/10/
043100/20121210/115505/653/754/20/
043100/20121210/115920/652/1161/10/
043100/20121210/120002/652/4032/10/
043100/20121210/120118/652/978/20/
043100/20121210/120304/653/2319/20/
043100/20121210/120335/653/5572/20/
043100/20121210/120335/654/6428/20/
043100/20121210/120559/654/13149/20/
043100/20121210/120559/655/6881/20/
043100/20121210/120618/655/4044/20/
043100/20121210/120647/655/1103/10/
043100/20121210/120655/655/100/10/
043100/20121210/120755/656/10120/20/
043100/20121210/120843/656/200/10/
043100/20121210/120843/655/3822/10/
043100/20121210/120909/656/501/20/
043100/20121210/120955/656/1060/20/
043100/20121210/121044/655/760/10/
043100/20121210/121109/655/288/10/
043100/20121210/121252/655/382/20/
043100/20121210/121300/654/1000/10/
043100/20121210/121329/655/500/10/
043100/20121210/121413/656/180/20/
043100/20121210/121420/655/1000/10/
043100/20121210/121447/656/1752/20/
043100/20121210/121501/657/5400/20/
043100/20121210/121501/658/604/20/
043100/20121210/121516/658/2197/20/
043100/20121210/121525/658/808/10/
043100/20121210/121607/657/409/10/
043100/20121210/121623/657/402/20/
043100/20121210/121651/657/1893/10/
043100/20121210/121701/657/95/20/
043100/20121210/121934/657/2565/20/
043100/20121210/122022/656/1980/10/
043100/20121210/122029/657/356/20/
043100/20121210/122047/656/408/10/
043100/20121210/122125/657/542/20/
043100/20121210/122146/657/124/20/
043100/20121210/122151/656/899/10/
043100/20121210/122204/656/101/20/
043100/20121210/122205/656/100/10/
043100/20121210/122210/656/380/10/
043100/20121210/122224/656/202/20/
043100/20121210/122227/656/440/20/
043100/20121210/122322/656/97/20/
043100/20121210/122332/656/256/20/
043100/20121210/122358/656/127/10/
043100/20121210/122433/656/517/20/
043100/20121210/122442/655/86/10/
043100/20121210/122531/656/503/20/
043100/20121210/122636/656/915/20/
043100/20121210/122641/655/500/10/
043100/20121210/122708/656/291/10/
043100/20121210/122709/656/3360/10/
043100/20121210/122735/656/640/20/
043100/20121210/122829/655/427/10/
043100/20121210/122832/656/88/20/
043100/20121210/122921/655/14667/10/
043100/20121210/122931/655/345/20/
043100/20121210/123005/655/150/10/
043100/20121210/123019/655/354/10/
043100/20121210/123029/655/146/20/
043100/20121210/123130/655/404/20/
043100/20121210/123154/655/99/20/
043100/20121210/123228/655/324/20/
043100/20121210/123324/655/806/20/
043100/20121210/123353/655/393/20/
043100/20121210/123353/656/558/20/
043100/20121210/123427/656/500/20/
043100/20121210/123525/656/500/20/
043100/20121210/123547/656/800/20/
043100/20121210/123554/656/600/10/
043100/20121210/123554/656/600/20/
043100/20121210/123727/656/758/20/
043100/20121210/123727/655/9499/20/
043100/20121210/123730/655/3120/20/
043100/20121210/123911/655/500/20/
043100/20121210/124014/654/2202/10/
043100/20121210/124016/654/6807/10/
043100/20121210/124150/654/500/10/
043100/20121210/124216/654/200/10/
043100/20121210/124216/653/1472/10/
043100/20121210/124234/654/200/20/
043100/20121210/124257/654/1001/20/
043100/20121210/124335/653/2050/10/
043100/20121210/124448/653/658/10/
043100/20121210/124509/653/2300/10/
043100/20121210/124530/653/7630/10/
043100/20121210/124530/652/6610/10/
043100/20121210/124653/654/10010/20/
043100/20121210/124658/654/562/20/
043100/20121210/124706/654/100/20/
043100/20121210/124710/654/100/20/
043100/20121210/124740/655/11724/20/
043100/20121210/124901/655/5093/10/
043100/20121210/124913/655/3002/10/
043100/20121210/124923/656/491/20/
043100/20121210/125031/656/2017/20/
043100/20121210/125235/656/1000/20/
043100/20121210/125336/656/1821/20/
043100/20121210/125355/656/7927/20/
043100/20121210/125358/656/191/20/
043100/20121210/125402/656/1500/20/
043100/20121210/125404/656/120/20/
043100/20121210/125421/655/232/10/
043100/20121210/125436/656/1227/20/
043100/20121210/125559/656/144/20/
043100/20121210/125707/657/804/20/
043100/20121210/125724/657/689/20/
043100/20121210/125738/656/382/10/
043100/20121210/125831/657/608/20/
043100/20121210/125910/656/3013/10/
043100/20121210/130013/656/1608/10/
043100/20121210/130113/656/355/10/
043100/20121210/130121/656/300/10/
043100/20121210/130207/656/603/10/
043100/20121210/130308/656/156/20/
043100/20121210/130652/656/3031/10/
043100/20121210/130716/656/199/10/
043100/20121210/130723/656/710/10/
043100/20121210/130728/656/1200/10/
043100/20121210/130743/656/2000/10/
043100/20121210/130744/656/309/10/
043100/20121210/130800/656/285/10/
043100/20121210/130847/656/501/20/
043100/20121210/130948/656/214/20/
043100/20121210/130950/657/3424/20/
043100/20121210/131016/657/103/20/
043100/20121210/131045/657/237/20/
043100/20121210/131245/658/1505/20/
043100/20121210/131414/658/4991/10/
043100/20121210/131424/659/5128/20/
043100/20121210/131651/659/1649/20/
043100/20121210/131657/659/100/20/
043100/20121210/131747/659/2462/20/
043100/20121210/131829/660/3101/20/
043100/20121210/131841/660/100/10/
043100/20121210/131849/661/1307/20/
043100/20121210/131850/660/100/10/
043100/20121210/131859/660/1579/10/
043100/20121210/131908/660/6366/10/
043100/20121210/131908/660/3634/20/
043100/20121210/131908/660/3366/10/
043100/20121210/131944/660/721/20/
043100/20121210/131944/661/1435/20/
043100/20121210/131944/662/845/20/
043100/20121210/132049/661/1110/20/
043100/20121210/132154/661/2001/20/
043100/20121210/132201/662/1000/20/
043100/20121210/132222/660/5050/10/
043100/20121210/132316/660/15000/20/
043100/20121210/132316/660/6277/20/
043100/20121210/132321/660/356/10/
043100/20121210/132321/659/9830/10/
043100/20121210/132345/659/2000/20/
043100/20121210/132345/659/5843/20/
043100/20121210/132405/659/100/10/
043100/20121210/132554/658/230/10/
043100/20121210/132654/661/101/20/
043100/20121210/132916/661/191/20/
043100/20121210/132916/661/300/20/
043100/20121210/133024/658/145/10/
043100/20121210/133024/657/856/10/
043100/20121210/133109/657/481/10/
043100/20121210/133109/656/123/10/
043100/20121210/133122/656/2119/10/
043100/20121210/133122/655/1481/10/
043100/20121210/133328/659/111/20/
043100/20121210/133400/658/100/10/
043100/20121210/133400/657/100/10/
043100/20121210/133400/655/620/10/
043100/20121210/133430/655/4000/10/
043100/20121210/133431/655/807/10/
043100/20121210/133502/654/2273/10/
043100/20121210/133620/655/3056/10/
043100/20121210/133702/655/3000/10/
043100/20121210/133742/655/2000/10/
043100/20121210/133758/655/238/10/
043100/20121210/133758/654/262/10/
043100/20121210/133926/658/1276/20/
043100/20121210/134057/657/105/10/
043100/20121210/134217/657/1006/10/
043100/20121210/134222/657/300/10/
043100/20121210/134223/657/419/10/
043100/20121210/134329/656/315/10/
043100/20121210/134332/657/500/20/
043100/20121210/134414/656/1821/10/
043100/20121210/134539/656/552/10/
043100/20121210/134539/655/1800/10/
043100/20121210/134539/654/2672/10/
043100/20121210/134539/653/10403/10/
043100/20121210/134539/652/11902/10/
043100/20121210/134539/651/6501/10/
043100/20121210/134804/655/549/10/
043100/20121210/134856/653/732/10/
043100/20121210/134906/652/703/10/
043100/20121210/134925/652/2012/10/
043100/20121210/134932/652/2801/10/
043100/20121210/134932/651/699/10/
043100/20121210/134946/651/869/10/
043100/20121210/135024/651/2000/10/
043100/20121210/135032/651/88/10/
043100/20121210/135034/651/3000/10/
043100/20121210/135041/651/88/10/
043100/20121210/135054/652/88/10/
043100/20121210/135104/652/89/10/
043100/20121210/135119/652/88/10/
043100/20121210/135138/653/280/10/
043100/20121210/135146/653/88/10/
043100/20121210/135147/654/1489/20/
043100/20121210/135348/654/109/10/
043100/20121210/135449/655/2002/20/
043100/20121210/135537/654/1001/10/
043100/20121210/135717/654/1512/10/
043100/20121210/135921/654/574/10/
043100/20121210/135946/655/1363/10/
043100/20121210/140113/655/1011/10/
043100/20121210/140222/655/4001/10/
043100/20121210/140248/655/369/10/
043100/20121210/140702/654/615/10/
043100/20121210/140726/653/406/10/
043100/20121210/140726/652/9594/10/
043100/20121210/140845/652/1190/10/
043100/20121210/141054/652/1132/10/
043100/20121210/141112/651/1281/10/
043100/20121210/141122/651/4352/10/
043100/20121210/141135/651/4000/10/
043100/20121210/141135/650/12241/10/
043100/20121210/141148/651/100/20/
043100/20121210/141153/651/300/20/
043100/20121210/141202/651/474/20/
043100/20121210/141204/651/1715/10/
043100/20121210/141212/652/958/20/
043100/20121210/141241/652/242/10/
043100/20121210/141241/651/558/10/
043100/20121210/141252/652/119/20/
043100/20121210/141257/652/100/20/
043100/20121210/141306/652/100/20/
043100/20121210/141323/651/110/10/
043100/20121210/141401/651/500/10/
043100/20121210/141408/652/575/10/
043100/20121210/141456/652/1002/10/
043100/20121210/141542/652/2267/10/
043100/20121210/141555/652/485/20/
043100/20121210/141556/652/615/10/
043100/20121210/141556/651/2135/10/
043100/20121210/141654/651/123/10/
043100/20121210/141744/651/120/10/
043100/20121210/141808/651/5500/10/
043100/20121210/141808/651/5307/10/
043100/20121210/141829/651/2693/20/
043100/20121210/141957/651/2000/10/
043100/20121210/142010/651/8743/10/
043100/20121210/142033/651/300/10/
043100/20121210/142154/652/925/20/
043100/20121210/142250/653/351/20/
043100/20121210/142259/653/1001/20/
043100/20121210/142310/653/675/20/
043100/20121210/142328/653/373/20/
043100/20121210/142402/653/105/20/
043100/20121210/142427/654/1080/20/
043100/20121210/142515/653/496/20/
043100/20121210/142545/654/2291/10/
043100/20121210/142555/654/501/10/
043100/20121210/142603/653/1000/10/
043100/20121210/142632/653/470/10/
043100/20121210/142639/654/1001/20/
043100/20121210/142739/653/12561/10/
043100/20121210/142825/653/957/10/
043100/20121210/142843/653/1644/10/
043100/20121210/142843/652/8357/10/
043100/20121210/142937/653/1020/10/
043100/20121210/142937/652/2505/10/
043100/20121210/143100/652/4802/10/
043100/20121210/143108/652/5000/10/
043100/20121210/143124/653/872/20/
043100/20121210/143129/652/200/10/
043100/20121210/143141/652/622/10/
043100/20121210/143141/651/378/10/
043100/20121210/143159/652/474/10/
043100/20121210/143228/652/526/10/
043100/20121210/143229/652/540/20/
043100/20121210/143235/652/1452/20/
043100/20121210/143308/652/3000/10/
043100/20121210/143355/652/157/10/
043100/20121210/143409/653/3386/20/
043100/20121210/143433/654/104/20/
043100/20121210/143517/653/27892/10/
043100/20121210/143525/653/2521/10/
043100/20121210/143531/653/3112/10/
043100/20121210/143549/653/2888/20/
043100/20121210/143549/654/6124/20/
043100/20121210/143556/654/300/20/
043100/20121210/143602/653/110/10/
043100/20121210/143632/653/1210/20/
043100/20121210/143641/653/100/20/
043100/20121210/143747/653/110/10/
043100/20121210/143759/653/100/10/
043100/20121210/143834/654/400/20/
043100/20121210/143910/654/1000/20/
043100/20121210/143917/653/2010/10/
043100/20121210/143959/653/500/10/
043100/20121210/144017/653/3650/10/
043100/20121210/144028/653/4243/10/
043100/20121210/144051/653/757/20/
043100/20121210/144125/652/2910/10/
043100/20121210/144225/654/10000/20/
043100/20121210/144234/653/871/10/
043100/20121210/144237/654/106/20/
043100/20121210/144250/654/96/20/
043100/20121210/144340/654/110/20/
043100/20121210/144349/654/585/20/
043100/20121210/144349/654/415/10/
043100/20121210/144421/653/4029/10/
043100/20121210/144436/654/500/20/
043100/20121210/144455/653/389/10/
043100/20121210/144505/653/3000/20/
043100/20121210/144601/653/1453/20/
043100/20121210/144610/653/248/20/
043100/20121210/144625/653/5128/10/
043100/20121210/144628/653/206/10/
043100/20121210/144635/653/2420/10/
043100/20121210/144635/652/7580/10/
043100/20121210/144655/653/3000/10/
043100/20121210/144714/653/150/10/
043100/20121210/144818/653/2101/10/
043100/20121210/144842/653/84/20/
043100/20121210/144910/653/867/10/
043100/20121210/144912/653/1530/20/
043100/20121210/144914/652/2335/10/
043100/20121210/144932/652/10000/10/
043100/20121210/144951/652/1010/10/
043100/20121210/150000/651/44860/20/
