043100/20121119/90000/1000/42943/20/
043100/20121119/90004/1000/4001/20/
043100/20121119/90007/1005/3000/20/
043100/20121119/90013/999/3494/10/
043100/20121119/90014/1005/1547/20/
043100/20121119/90018/999/3956/10/
043100/20121119/90024/999/214/20/
043100/20121119/90036/999/462/20/
043100/20121119/90037/999/300/20/
043100/20121119/90051/1000/501/20/
043100/20121119/90054/1000/3916/20/
043100/20121119/90100/1000/121/10/
043100/20121119/90108/1005/1952/20/
043100/20121119/90129/1000/2690/10/
043100/20121119/90130/1000/6525/20/
043100/20121119/90205/1005/1461/20/
043100/20121119/90205/1000/3000/10/
043100/20121119/90205/1000/4923/10/
043100/20121119/90205/999/1177/10/
043100/20121119/90207/1000/3000/20/
043100/20121119/90225/1000/235/20/
043100/20121119/90228/1000/1001/10/
043100/20121119/90246/1000/1000/10/
043100/20121119/90246/1000/5001/20/
043100/20121119/90300/1000/181/20/
043100/20121119/90310/1000/143/20/
043100/20121119/90311/1000/147/20/
043100/20121119/90316/1000/107/20/
043100/20121119/90321/1000/723/20/
043100/20121119/90331/1005/118/20/
043100/20121119/90333/1005/1535/20/
043100/20121119/90334/1000/500/10/
043100/20121119/90350/1005/1228/20/
043100/20121119/90403/1000/2567/10/
043100/20121119/90404/1005/6917/20/
043100/20121119/90404/1005/3083/10/
043100/20121119/90428/1005/3742/20/
043100/20121119/90428/1005/2263/10/
043100/20121119/90438/1005/3001/20/
043100/20121119/90438/1005/100/20/
043100/20121119/90439/1005/506/20/
043100/20121119/90456/1005/3856/20/
043100/20121119/90458/1005/3218/20/
043100/20121119/90515/1010/474/20/
043100/20121119/90516/1010/6683/20/
043100/20121119/90516/1010/6683/20/
043100/20121119/90517/1010/39603/20/
043100/20121119/90517/1010/9900/20/
043100/20121119/90517/1010/4775/20/
043100/20121119/90522/1010/10000/10/
043100/20121119/90527/1015/564/20/
043100/20121119/90540/1020/3017/20/
043100/20121119/90545/1020/300/20/
043100/20121119/90548/1020/98/20/
043100/20121119/90549/1020/5349/20/
043100/20121119/90550/1020/621/20/
043100/20121119/90602/1020/1483/20/
043100/20121119/90602/1020/1000/20/
043100/20121119/90603/1020/658/20/
043100/20121119/90604/1020/101/20/
043100/20121119/90604/1020/8143/20/
043100/20121119/90606/1020/5021/20/
043100/20121119/90607/1020/293/20/
043100/20121119/90608/1015/800/10/
043100/20121119/90609/1020/9324/20/
043100/20121119/90626/1020/1028/10/
043100/20121119/90626/1025/3013/20/
043100/20121119/90629/1025/9900/20/
043100/20121119/90640/1025/5012/20/
043100/20121119/90644/1025/2443/20/
043100/20121119/90645/1025/1109/20/
043100/20121119/90651/1025/5007/10/
043100/20121119/90653/1025/5866/10/
043100/20121119/90707/1025/4013/20/
043100/20121119/90708/1025/2000/20/
043100/20121119/90709/1025/510/20/
043100/20121119/90709/1025/400/20/
043100/20121119/90711/1025/739/20/
043100/20121119/90714/1025/596/20/
043100/20121119/90716/1025/1002/20/
043100/20121119/90718/1025/5002/20/
043100/20121119/90719/1025/536/20/
043100/20121119/90721/1025/4649/20/
043100/20121119/90722/1025/4001/20/
043100/20121119/90725/1025/3171/20/
043100/20121119/90726/1025/83/10/
043100/20121119/90738/1025/120/10/
043100/20121119/90739/1025/4002/10/
043100/20121119/90743/1025/1084/10/
043100/20121119/90746/1030/5007/20/
043100/20121119/90747/1030/1002/20/
043100/20121119/90750/1030/11854/20/
043100/20121119/90751/1030/87/10/
043100/20121119/90752/1030/5000/10/
043100/20121119/90752/1030/1563/10/
043100/20121119/90755/1030/501/20/
043100/20121119/90759/1030/500/20/
043100/20121119/90802/1030/1004/20/
043100/20121119/90802/1030/5001/20/
043100/20121119/90803/1030/801/20/
043100/20121119/90804/1030/921/20/
043100/20121119/90804/1030/197/20/
043100/20121119/90810/1030/5899/20/
043100/20121119/90812/1030/5003/10/
043100/20121119/90821/1035/9144/20/
043100/20121119/90823/1035/601/20/
043100/20121119/90824/1035/100/20/
043100/20121119/90826/1035/3013/20/
043100/20121119/90828/1035/113/20/
043100/20121119/90828/1030/2005/10/
043100/20121119/90829/1035/15002/20/
043100/20121119/90829/1035/6312/20/
043100/20121119/90829/1040/3692/20/
043100/20121119/90830/1040/15217/20/
043100/20121119/90830/1045/4789/20/
043100/20121119/90831/1045/1010/20/
043100/20121119/90832/1045/20003/20/
043100/20121119/90833/1045/3035/20/
043100/20121119/90833/1050/22658/20/
043100/20121119/90838/1050/4069/20/
043100/20121119/90838/1055/774/20/
043100/20121119/90838/1055/502/20/
043100/20121119/90838/1055/17029/20/
043100/20121119/90838/1060/19960/20/
043100/20121119/90838/1065/12033/20/
043100/20121119/90841/1060/111/20/
043100/20121119/90842/1060/1001/20/
043100/20121119/90842/1060/262/20/
043100/20121119/90845/1060/3503/20/
043100/20121119/90845/1055/3001/10/
043100/20121119/90847/1055/6005/20/
043100/20121119/90847/1055/1000/20/
043100/20121119/90847/1055/1272/20/
043100/20121119/90847/1055/490/20/
043100/20121119/90848/1050/203/10/
043100/20121119/90850/1055/3531/20/
043100/20121119/90850/1055/2246/10/
043100/20121119/90851/1060/1487/20/
043100/20121119/90855/1055/228/20/
043100/20121119/90859/1050/320/20/
043100/20121119/90903/1050/13440/20/
043100/20121119/90904/1050/557/20/
043100/20121119/90908/1050/1021/20/
043100/20121119/90911/1050/1891/20/
043100/20121119/90911/1045/500/10/
043100/20121119/90913/1045/1000/10/
043100/20121119/90914/1050/105/20/
043100/20121119/90915/1050/13302/20/
043100/20121119/90922/1050/2810/20/
043100/20121119/90923/1050/954/20/
043100/20121119/90923/1045/5349/10/
043100/20121119/90927/1045/5002/10/
043100/20121119/90928/1050/1018/20/
043100/20121119/90928/1045/200/10/
043100/20121119/90932/1045/7006/10/
043100/20121119/90946/1045/88/10/
043100/20121119/90949/1050/4475/20/
043100/20121119/90950/1050/207/20/
043100/20121119/90950/1045/180/10/
043100/20121119/90951/1050/3458/20/
043100/20121119/90959/1045/5322/10/
043100/20121119/90959/1040/17408/10/
043100/20121119/91002/1050/113/20/
043100/20121119/91003/1045/5000/20/
043100/20121119/91011/1040/102/10/
043100/20121119/91014/1040/116/10/
043100/20121119/91019/1040/100/10/
043100/20121119/91024/1040/101/10/
043100/20121119/91025/1040/1500/10/
043100/20121119/91026/1040/1001/10/
043100/20121119/91030/1045/2002/20/
043100/20121119/91033/1040/92/10/
043100/20121119/91036/1040/3000/20/
043100/20121119/91038/1035/601/10/
043100/20121119/91041/1035/102/10/
043100/20121119/91041/1035/170/10/
043100/20121119/91042/1035/13235/10/
043100/20121119/91042/1030/6766/10/
043100/20121119/91043/1035/300/10/
043100/20121119/91043/1030/1600/10/
043100/20121119/91050/1040/349/20/
043100/20121119/91057/1035/411/10/
043100/20121119/91101/1040/2534/20/
043100/20121119/91107/1040/10788/20/
043100/20121119/91108/1040/5000/10/
043100/20121119/91112/1045/501/20/
043100/20121119/91118/1040/2001/10/
043100/20121119/91122/1040/241/10/
043100/20121119/91122/1040/2399/10/
043100/20121119/91125/1040/330/20/
043100/20121119/91127/1040/180/20/
043100/20121119/91128/1040/5112/20/
043100/20121119/91129/1040/3730/10/
043100/20121119/91138/1040/91/20/
043100/20121119/91138/1040/1020/20/
043100/20121119/91149/1040/257/20/
043100/20121119/91149/1040/961/20/
043100/20121119/91201/1040/5170/20/
043100/20121119/91201/1040/3000/10/
043100/20121119/91203/1040/657/10/
043100/20121119/91204/1040/2065/10/
043100/20121119/91209/1040/936/20/
043100/20121119/91210/1040/565/10/
043100/20121119/91215/1040/201/20/
043100/20121119/91224/1040/1235/20/
043100/20121119/91244/1045/82/20/
043100/20121119/91253/1045/979/20/
043100/20121119/91301/1045/11739/20/
043100/20121119/91301/1050/11209/20/
043100/20121119/91301/1055/6413/20/
043100/20121119/91308/1050/2501/20/
043100/20121119/91309/1045/1020/10/
043100/20121119/91309/1045/980/10/
043100/20121119/91309/1050/1368/20/
043100/20121119/91313/1050/188/20/
043100/20121119/91325/1045/84/10/
043100/20121119/91332/1045/537/10/
043100/20121119/91333/1045/100/10/
043100/20121119/91333/1045/1503/10/
043100/20121119/91338/1045/114/20/
043100/20121119/91343/1045/2326/20/
043100/20121119/91350/1045/503/20/
043100/20121119/91351/1040/2000/10/
043100/20121119/91352/1045/669/20/
043100/20121119/91400/1045/321/20/
043100/20121119/91400/1045/163/20/
043100/20121119/91405/1045/1917/10/
043100/20121119/91409/1045/1000/20/
043100/20121119/91414/1045/2281/20/
043100/20121119/91420/1050/10001/20/
043100/20121119/91427/1050/10041/20/
043100/20121119/91430/1050/90/20/
043100/20121119/91430/1050/800/20/
043100/20121119/91431/1050/1000/20/
043100/20121119/91437/1045/83/10/
043100/20121119/91437/1050/164/20/
043100/20121119/91439/1050/81/20/
043100/20121119/91443/1050/1020/20/
043100/20121119/91445/1050/867/20/
043100/20121119/91445/1050/1442/20/
043100/20121119/91446/1050/200/20/
043100/20121119/91446/1050/700/20/
043100/20121119/91447/1050/151/20/
043100/20121119/91503/1050/12136/20/
043100/20121119/91507/1050/4231/20/
043100/20121119/91508/1050/5133/20/
043100/20121119/91508/1050/12000/10/
043100/20121119/91509/1055/9607/20/
043100/20121119/91513/1055/3893/20/
043100/20121119/91514/1055/8957/20/
043100/20121119/91515/1055/3368/20/
043100/20121119/91520/1055/4806/10/
043100/20121119/91520/1055/5058/10/
043100/20121119/91524/1050/342/10/
043100/20121119/91527/1055/104/20/
043100/20121119/91529/1055/801/20/
043100/20121119/91530/1055/328/20/
043100/20121119/91538/1055/703/20/
043100/20121119/91546/1055/9472/20/
043100/20121119/91548/1055/1070/20/
043100/20121119/91559/1055/1155/20/
043100/20121119/91603/1055/1077/20/
043100/20121119/91604/1055/500/20/
043100/20121119/91604/1055/3233/20/
043100/20121119/91606/1050/10913/10/
043100/20121119/91606/1045/14857/10/
043100/20121119/91608/1055/87/20/
043100/20121119/91613/1055/134/20/
043100/20121119/91614/1055/3859/20/
043100/20121119/91626/1055/7001/20/
043100/20121119/91632/1055/754/20/
043100/20121119/91632/1055/4500/20/
043100/20121119/91633/1055/5000/20/
043100/20121119/91633/1055/1000/20/
043100/20121119/91634/1055/300/20/
043100/20121119/91636/1055/113/20/
043100/20121119/91636/1055/1000/20/
043100/20121119/91638/1055/2774/20/
043100/20121119/91638/1055/733/20/
043100/20121119/91638/1055/200/10/
043100/20121119/91641/1055/2134/10/
043100/20121119/91647/1055/13068/20/
043100/20121119/91647/1060/26932/20/
043100/20121119/91648/1060/3134/20/
043100/20121119/91648/1065/16866/20/
043100/20121119/91649/1065/1725/20/
043100/20121119/91650/1065/324/10/
043100/20121119/91650/1070/9676/20/
043100/20121119/91650/1070/30215/20/
043100/20121119/91650/1075/31555/20/
043100/20121119/91650/1075/11724/20/
043100/20121119/91650/1080/8276/20/
043100/20121119/91651/1080/21052/20/
043100/20121119/91651/1085/23993/20/
043100/20121119/91652/1080/1500/10/
043100/20121119/91652/1080/5663/10/
043100/20121119/91652/1085/6138/20/
043100/20121119/91652/1085/303/20/
043100/20121119/91653/1080/1837/10/
043100/20121119/91653/1065/379/10/
043100/20121119/91653/1065/569/10/
043100/20121119/91654/1080/10087/20/
043100/20121119/91656/1080/105/20/
043100/20121119/91658/1080/9078/20/
043100/20121119/91659/1085/8598/20/
043100/20121119/91659/1090/1402/20/
043100/20121119/91700/1090/1726/20/
043100/20121119/91702/1085/105/20/
043100/20121119/91704/1085/3053/10/
043100/20121119/91707/1085/954/20/
043100/20121119/91709/1085/800/20/
043100/20121119/91711/1080/1004/10/
043100/20121119/91715/1080/10080/10/
043100/20121119/91716/1080/1120/10/
043100/20121119/91716/1085/100/20/
043100/20121119/91716/1080/200/10/
043100/20121119/91716/1080/1000/10/
043100/20121119/91717/1080/1409/10/
043100/20121119/91718/1080/8540/20/
043100/20121119/91719/1085/901/20/
043100/20121119/91719/1080/5001/10/
043100/20121119/91720/1080/1900/10/
043100/20121119/91720/1080/3559/10/
043100/20121119/91721/1075/116/10/
043100/20121119/91723/1080/252/20/
043100/20121119/91729/1080/1855/20/
043100/20121119/91733/1075/5002/10/
043100/20121119/91733/1080/1001/20/
043100/20121119/91735/1080/2719/20/
043100/20121119/91738/1075/1437/10/
043100/20121119/91739/1075/1001/10/
043100/20121119/91742/1075/8785/10/
043100/20121119/91742/1080/10000/20/
043100/20121119/91743/1075/502/10/
043100/20121119/91743/1080/3001/20/
043100/20121119/91744/1080/2517/20/
043100/20121119/91745/1080/2376/20/
043100/20121119/91746/1080/4938/20/
043100/20121119/91746/1080/2000/10/
043100/20121119/91750/1085/6603/20/
043100/20121119/91751/1085/20001/20/
043100/20121119/91751/1085/6037/20/
043100/20121119/91751/1090/3137/20/
043100/20121119/91753/1090/1002/20/
043100/20121119/91754/1085/500/10/
043100/20121119/91754/1085/250/10/
043100/20121119/91756/1090/20000/20/
043100/20121119/91756/1090/20000/20/
043100/20121119/91756/1090/9187/20/
043100/20121119/91757/1090/2000/20/
043100/20121119/91757/1090/20000/20/
043100/20121119/91757/1090/200/20/
043100/20121119/91757/1090/6479/20/
043100/20121119/91757/1090/5000/20/
043100/20121119/91757/1090/26748/20/
043100/20121119/91757/1095/9963/20/
043100/20121119/91757/1095/15037/10/
043100/20121119/91759/1095/170/20/
043100/20121119/91759/1095/3793/20/
043100/20121119/91759/1095/1207/10/
043100/20121119/91800/1095/1167/20/
043100/20121119/91801/1095/5000/20/
043100/20121119/91801/1090/40000/10/
043100/20121119/91801/1090/45045/10/
043100/20121119/91801/1095/2395/20/
043100/20121119/91802/1090/462/10/
043100/20121119/91802/1090/200/10/
043100/20121119/91802/1090/302/20/
043100/20121119/91803/1090/1002/20/
043100/20121119/91804/1090/9332/20/
043100/20121119/91805/1090/1047/20/
043100/20121119/91807/1090/147/20/
043100/20121119/91808/1090/6627/20/
043100/20121119/91809/1090/109/20/
043100/20121119/91810/1090/116/20/
043100/20121119/91810/1090/231/20/
043100/20121119/91813/1090/200/20/
043100/20121119/91814/1090/102/20/
043100/20121119/91814/1085/89/10/
043100/20121119/91814/1090/703/20/
043100/20121119/91817/1090/26058/20/
043100/20121119/91817/1090/1160/20/
043100/20121119/91818/1090/106/20/
043100/20121119/91819/1090/2004/20/
043100/20121119/91821/1090/380/20/
043100/20121119/91822/1090/1339/20/
043100/20121119/91823/1090/2000/20/
043100/20121119/91823/1090/122/20/
043100/20121119/91823/1090/113/20/
043100/20121119/91824/1090/21566/20/
043100/20121119/91824/1090/4000/10/
043100/20121119/91824/1090/4004/10/
043100/20121119/91825/1090/1598/10/
043100/20121119/91825/1090/1178/20/
043100/20121119/91825/1090/1002/20/
043100/20121119/91826/1090/202/20/
043100/20121119/91827/1090/1607/20/
043100/20121119/91827/1090/100/20/
043100/20121119/91828/1090/1218/20/
043100/20121119/91828/1090/1519/20/
043100/20121119/91829/1090/10330/20/
043100/20121119/91832/1090/33514/20/
043100/20121119/91832/1085/4202/10/
043100/20121119/91833/1090/112/20/
043100/20121119/91834/1085/15322/10/
043100/20121119/91835/1085/3753/20/
043100/20121119/91836/1085/14902/20/
043100/20121119/91838/1085/764/20/
043100/20121119/91840/1085/1253/20/
043100/20121119/91840/1090/1490/20/
043100/20121119/91841/1085/239/10/
043100/20121119/91842/1085/152/10/
043100/20121119/91843/1085/123/10/
043100/20121119/91844/1085/539/20/
043100/20121119/91844/1085/200/20/
043100/20121119/91844/1085/1019/20/
043100/20121119/91845/1085/123/20/
043100/20121119/91847/1090/4218/20/
043100/20121119/91847/1090/1164/20/
043100/20121119/91848/1085/1020/10/
043100/20121119/91850/1090/109/20/
043100/20121119/91853/1090/14473/20/
043100/20121119/91854/1090/3006/20/
043100/20121119/91854/1090/100/20/
043100/20121119/91854/1090/948/20/
043100/20121119/91855/1090/4700/20/
043100/20121119/91855/1090/83/20/
043100/20121119/91855/1090/1898/20/
043100/20121119/91856/1090/98/20/
043100/20121119/91856/1090/766/20/
043100/20121119/91857/1090/18569/20/
043100/20121119/91858/1090/1727/20/
043100/20121119/91859/1090/913/10/
043100/20121119/91859/1090/1000/20/
043100/20121119/91900/1090/1000/20/
043100/20121119/91902/1085/500/10/
043100/20121119/91902/1085/1000/10/
043100/20121119/91902/1090/917/20/
043100/20121119/91902/1090/2695/20/
043100/20121119/91903/1090/1080/10/
043100/20121119/91903/1090/202/10/
043100/20121119/91903/1085/5216/10/
043100/20121119/91905/1090/220/20/
043100/20121119/91906/1085/6479/10/
043100/20121119/91907/1085/2516/10/
043100/20121119/91908/1085/4000/10/
043100/20121119/91909/1085/1005/10/
043100/20121119/91909/1090/354/20/
043100/20121119/91909/1090/8633/20/
043100/20121119/91909/1090/700/20/
043100/20121119/91910/1085/1520/10/
043100/20121119/91910/1080/780/10/
043100/20121119/91919/1085/157/20/
043100/20121119/91921/1085/84/20/
043100/20121119/91922/1085/100/20/
043100/20121119/91924/1085/1000/20/
043100/20121119/91927/1085/88/20/
043100/20121119/91928/1085/200/20/
043100/20121119/91929/1080/300/10/
043100/20121119/91930/1080/13529/10/
043100/20121119/91930/1080/90/10/
043100/20121119/91931/1080/100/20/
043100/20121119/91931/1080/500/20/
043100/20121119/91933/1080/7908/20/
043100/20121119/91934/1080/1337/20/
043100/20121119/91934/1080/100/20/
043100/20121119/91937/1080/2600/20/
043100/20121119/91939/1080/3868/20/
043100/20121119/91939/1080/200/20/
043100/20121119/91940/1080/101/20/
043100/20121119/91941/1080/1884/10/
043100/20121119/91944/1075/470/10/
043100/20121119/91945/1080/9299/20/
043100/20121119/91946/1075/1820/10/
043100/20121119/91947/1075/2020/10/
043100/20121119/91949/1080/135/20/
043100/20121119/91949/1075/8643/10/
043100/20121119/91949/1080/20716/20/
043100/20121119/91951/1080/15030/10/
043100/20121119/91953/1080/530/10/
043100/20121119/91953/1080/4010/10/
043100/20121119/91957/1080/864/10/
043100/20121119/91959/1080/2500/10/
043100/20121119/91959/1080/2000/10/
043100/20121119/92000/1080/1000/10/
043100/20121119/92000/1080/1018/10/
043100/20121119/92001/1080/2384/10/
043100/20121119/92001/1075/2620/10/
043100/20121119/92005/1080/835/20/
043100/20121119/92006/1080/2769/20/
043100/20121119/92008/1075/1004/10/
043100/20121119/92009/1080/300/20/
043100/20121119/92014/1080/518/20/
043100/20121119/92017/1080/218/20/
043100/20121119/92019/1080/9470/20/
043100/20121119/92019/1080/573/10/
043100/20121119/92019/1075/4427/10/
043100/20121119/92020/1080/200/20/
043100/20121119/92021/1085/92/20/
043100/20121119/92022/1080/500/10/
043100/20121119/92024/1080/190/10/
043100/20121119/92026/1080/726/10/
043100/20121119/92030/1080/110/20/
043100/20121119/92034/1080/1018/20/
043100/20121119/92035/1080/3964/20/
043100/20121119/92036/1080/110/20/
043100/20121119/92045/1080/110/20/
043100/20121119/92046/1075/1615/10/
043100/20121119/92047/1080/93/20/
043100/20121119/92051/1080/112/20/
043100/20121119/92054/1075/101/10/
043100/20121119/92054/1075/139/10/
043100/20121119/92056/1075/101/10/
043100/20121119/92102/1075/101/10/
043100/20121119/92104/1075/309/10/
043100/20121119/92106/1075/200/10/
043100/20121119/92107/1075/9187/10/
043100/20121119/92107/1075/5000/10/
043100/20121119/92108/1075/15000/10/
043100/20121119/92109/1075/300/10/
043100/20121119/92109/1075/300/10/
043100/20121119/92110/1075/2572/10/
043100/20121119/92116/1075/500/20/
043100/20121119/92119/1070/742/10/
043100/20121119/92120/1070/300/10/
043100/20121119/92124/1070/261/10/
043100/20121119/92125/1075/11070/20/
043100/20121119/92130/1070/3026/10/
043100/20121119/92131/1070/1700/10/
043100/20121119/92132/1075/2034/20/
043100/20121119/92139/1075/15188/20/
043100/20121119/92141/1075/2618/20/
043100/20121119/92141/1075/84/20/
043100/20121119/92142/1075/200/20/
043100/20121119/92143/1075/147/20/
043100/20121119/92143/1075/2638/20/
043100/20121119/92144/1075/92/20/
043100/20121119/92145/1075/92/20/
043100/20121119/92145/1075/92/20/
043100/20121119/92146/1075/112/20/
043100/20121119/92147/1075/92/20/
043100/20121119/92147/1075/210/20/
043100/20121119/92148/1075/92/20/
043100/20121119/92149/1070/143/10/
043100/20121119/92150/1075/93/20/
043100/20121119/92151/1075/2174/20/
043100/20121119/92154/1075/142/10/
043100/20121119/92155/1075/262/10/
043100/20121119/92155/1075/2500/10/
043100/20121119/92158/1075/171/20/
043100/20121119/92158/1075/172/20/
043100/20121119/92202/1075/554/20/
043100/20121119/92208/1075/221/20/
043100/20121119/92212/1070/1070/10/
043100/20121119/92221/1070/125/10/
043100/20121119/92222/1075/3079/20/
043100/20121119/92226/1075/6019/20/
043100/20121119/92228/1075/25870/20/
043100/20121119/92228/1075/5806/20/
043100/20121119/92231/1080/112/20/
043100/20121119/92233/1075/2000/10/
043100/20121119/92233/1080/92/20/
043100/20121119/92235/1080/238/20/
043100/20121119/92236/1075/6577/10/
043100/20121119/92236/1080/3650/20/
043100/20121119/92238/1080/5968/20/
043100/20121119/92240/1080/110/20/
043100/20121119/92242/1080/35907/20/
043100/20121119/92243/1080/153/10/
043100/20121119/92245/1085/13522/20/
043100/20121119/92246/1090/5500/20/
043100/20121119/92247/1090/92/20/
043100/20121119/92249/1090/4947/20/
043100/20121119/92251/1090/100/20/
043100/20121119/92251/1090/12740/20/
043100/20121119/92251/1090/7000/20/
043100/20121119/92251/1090/15035/20/
043100/20121119/92251/1095/4965/20/
043100/20121119/92252/1090/5000/10/
043100/20121119/92252/1095/540/20/
043100/20121119/92253/1095/92/20/
043100/20121119/92253/1090/110/10/
043100/20121119/92254/1090/147/10/
043100/20121119/92255/1095/19010/20/
043100/20121119/92256/1090/5068/10/
043100/20121119/92257/1095/2000/20/
043100/20121119/92258/1090/13522/10/
043100/20121119/92258/1090/12259/10/
043100/20121119/92258/1085/830/10/
043100/20121119/92258/1080/6911/10/
043100/20121119/92259/1090/100/20/
043100/20121119/92259/1095/5859/20/
043100/20121119/92300/1090/162/20/
043100/20121119/92301/1090/2000/20/
043100/20121119/92301/1090/570/20/
043100/20121119/92303/1080/180/10/
043100/20121119/92306/1090/27000/20/
043100/20121119/92309/1090/1326/20/
043100/20121119/92310/1090/2420/10/
043100/20121119/92311/1090/6000/10/
043100/20121119/92312/1090/200/10/
043100/20121119/92312/1090/1000/10/
043100/20121119/92314/1090/3000/10/
043100/20121119/92314/1090/3000/10/
043100/20121119/92314/1090/17898/10/
043100/20121119/92318/1090/1535/20/
043100/20121119/92318/1090/909/10/
043100/20121119/92319/1090/2056/10/
043100/20121119/92322/1090/114/20/
043100/20121119/92324/1090/3395/20/
043100/20121119/92324/1090/5000/20/
043100/20121119/92324/1090/1000/20/
043100/20121119/92324/1090/1915/20/
043100/20121119/92326/1090/10000/10/
043100/20121119/92328/1090/2638/10/
043100/20121119/92328/1090/5506/10/
043100/20121119/92330/1090/3983/20/
043100/20121119/92332/1095/16286/20/
043100/20121119/92333/1095/2063/20/
043100/20121119/92335/1095/251/20/
043100/20121119/92337/1095/685/20/
043100/20121119/92337/1100/3315/20/
043100/20121119/92337/1095/521/10/
043100/20121119/92338/1095/84/20/
043100/20121119/92338/1100/203/20/
043100/20121119/92339/1100/999/20/
043100/20121119/92343/1095/2241/10/
043100/20121119/92343/1100/300/20/
043100/20121119/92343/1095/881/10/
043100/20121119/92343/1095/2000/10/
043100/20121119/92345/1095/9860/20/
043100/20121119/92353/1095/19472/10/
043100/20121119/92353/1095/2000/20/
043100/20121119/92356/1095/606/20/
043100/20121119/92356/1095/5929/20/
043100/20121119/92357/1095/2001/20/
043100/20121119/92401/1095/140/20/
043100/20121119/92403/1095/10921/20/
043100/20121119/92403/1095/5000/20/
043100/20121119/92404/1095/500/20/
043100/20121119/92404/1095/525/20/
043100/20121119/92405/1095/11507/10/
043100/20121119/92405/1095/505/20/
043100/20121119/92405/1095/2000/20/
043100/20121119/92407/1095/3305/20/
043100/20121119/92407/1100/5513/20/
043100/20121119/92410/1100/4150/20/
043100/20121119/92411/1100/4135/20/
043100/20121119/92411/1100/4135/20/
043100/20121119/92411/1095/4000/10/
043100/20121119/92411/1095/407/10/
043100/20121119/92411/1095/10000/10/
043100/20121119/92413/1100/1020/20/
043100/20121119/92414/1100/229/20/
043100/20121119/92414/1100/1034/20/
043100/20121119/92415/1100/23326/20/
043100/20121119/92416/1100/10000/20/
043100/20121119/92416/1100/3573/20/
043100/20121119/92416/1100/775/20/
043100/20121119/92417/1100/13267/20/
043100/20121119/92417/1100/5736/20/
043100/20121119/92417/1100/439/20/
043100/20121119/92417/1100/6500/20/
043100/20121119/92418/1100/1000/20/
043100/20121119/92418/1100/110/20/
043100/20121119/92419/1100/581/20/
043100/20121119/92419/1100/2000/20/
043100/20121119/92420/1100/200/20/
043100/20121119/92420/1100/1102/20/
043100/20121119/92420/1100/3050/20/
043100/20121119/92420/1100/1400/20/
043100/20121119/92420/1100/89/20/
043100/20121119/92421/1100/500/20/
043100/20121119/92421/1100/6300/20/
043100/20121119/92421/1100/436/20/
043100/20121119/92423/1100/1074/20/
043100/20121119/92423/1100/1397/20/
043100/20121119/92423/1100/90/20/
043100/20121119/92424/1100/800/20/
043100/20121119/92424/1100/1227/20/
043100/20121119/92425/1100/3012/20/
043100/20121119/92426/1100/1000/20/
043100/20121119/92426/1100/6725/20/
043100/20121119/92427/1105/205/20/
043100/20121119/92427/1100/13425/10/
043100/20121119/92428/1100/1075/10/
043100/20121119/92428/1100/500/20/
043100/20121119/92428/1105/90/20/
043100/20121119/92429/1105/184/20/
043100/20121119/92430/1100/475/10/
043100/20121119/92430/1100/500/20/
043100/20121119/92430/1100/300/20/
043100/20121119/92431/1100/118/20/
043100/20121119/92431/1100/205/20/
043100/20121119/92432/1100/100/20/
043100/20121119/92433/1100/100/20/
043100/20121119/92435/1100/86/20/
043100/20121119/92440/1100/306/20/
043100/20121119/92441/1095/302/10/
043100/20121119/92443/1100/1806/20/
043100/20121119/92444/1100/2000/20/
043100/20121119/92444/1100/9894/20/
043100/20121119/92447/1100/1052/20/
043100/20121119/92448/1100/132/20/
043100/20121119/92451/1095/12004/10/
043100/20121119/92452/1095/20000/10/
043100/20121119/92452/1095/4120/10/
043100/20121119/92455/1095/672/20/
043100/20121119/92459/1095/272/20/
043100/20121119/92503/1095/23002/20/
043100/20121119/92504/1090/15067/10/
043100/20121119/92506/1095/1555/20/
043100/20121119/92509/1095/1000/20/
043100/20121119/92513/1095/7900/20/
043100/20121119/92513/1095/10000/20/
043100/20121119/92515/1095/705/20/
043100/20121119/92516/1095/200/20/
043100/20121119/92519/1095/200/20/
043100/20121119/92519/1095/1000/20/
043100/20121119/92520/1095/5010/20/
043100/20121119/92524/1095/510/20/
043100/20121119/92526/1095/5050/20/
043100/20121119/92527/1095/800/20/
043100/20121119/92528/1095/2819/20/
043100/20121119/92528/1095/390/20/
043100/20121119/92528/1095/180/20/
043100/20121119/92530/1095/886/20/
043100/20121119/92531/1095/2700/20/
043100/20121119/92531/1095/10000/20/
043100/20121119/92531/1095/2340/20/
043100/20121119/92532/1095/1000/20/
043100/20121119/92532/1095/180/20/
043100/20121119/92533/1095/1019/20/
043100/20121119/92533/1095/6732/20/
043100/20121119/92534/1095/500/20/
043100/20121119/92534/1095/3001/20/
043100/20121119/92535/1100/230/20/
043100/20121119/92535/1095/3051/10/
043100/20121119/92535/1090/28199/10/
043100/20121119/92536/1095/120/10/
043100/20121119/92538/1095/510/20/
043100/20121119/92539/1095/2050/20/
043100/20121119/92540/1095/2010/20/
043100/20121119/92541/1095/205/20/
043100/20121119/92542/1095/500/20/
043100/20121119/92542/1095/976/20/
043100/20121119/92543/1100/4170/20/
043100/20121119/92545/1100/510/20/
043100/20121119/92545/1095/265/10/
043100/20121119/92545/1095/1700/10/
043100/20121119/92545/1100/909/20/
043100/20121119/92546/1095/2826/10/
043100/20121119/92548/1095/1414/20/
043100/20121119/92548/1095/909/20/
043100/20121119/92549/1095/1010/20/
043100/20121119/92549/1095/500/20/
043100/20121119/92550/1095/141/20/
043100/20121119/92550/1100/808/20/
043100/20121119/92551/1100/180/20/
043100/20121119/92553/1095/654/10/
043100/20121119/92555/1095/270/20/
043100/20121119/92556/1095/1000/20/
043100/20121119/92556/1095/4116/20/
043100/20121119/92601/1100/641/20/
043100/20121119/92604/1095/2040/10/
043100/20121119/92606/1100/340/20/
043100/20121119/92607/1095/12659/10/
043100/20121119/92612/1090/4721/10/
043100/20121119/92613/1090/5010/10/
043100/20121119/92614/1090/310/10/
043100/20121119/92614/1090/100/10/
043100/20121119/92617/1090/5000/10/
043100/20121119/92618/1090/1122/10/
043100/20121119/92618/1090/2451/20/
043100/20121119/92619/1090/4010/20/
043100/20121119/92619/1090/14335/20/
043100/20121119/92623/1090/97/20/
043100/20121119/92627/1090/2080/10/
043100/20121119/92629/1090/217/10/
043100/20121119/92629/1090/1793/20/
043100/20121119/92630/1095/434/20/
043100/20121119/92631/1090/221/10/
043100/20121119/92634/1090/100/20/
043100/20121119/92634/1095/747/20/
043100/20121119/92637/1095/221/20/
043100/20121119/92638/1090/760/10/
043100/20121119/92641/1090/370/10/
043100/20121119/92641/1090/500/10/
043100/20121119/92643/1090/3584/10/
043100/20121119/92644/1090/125/10/
043100/20121119/92644/1090/1037/20/
043100/20121119/92645/1090/989/20/
043100/20121119/92645/1095/510/20/
043100/20121119/92649/1090/2870/10/
043100/20121119/92651/1090/780/20/
043100/20121119/92653/1090/4089/10/
043100/20121119/92653/1085/5924/10/
043100/20121119/92658/1090/134/10/
043100/20121119/92659/1090/5002/10/
043100/20121119/92700/1095/1028/20/
043100/20121119/92702/1090/170/10/
043100/20121119/92702/1090/3001/10/
043100/20121119/92703/1090/206/10/
043100/20121119/92704/1090/1001/10/
043100/20121119/92704/1090/1836/10/
043100/20121119/92704/1090/1000/10/
043100/20121119/92704/1095/100/20/
043100/20121119/92704/1095/251/20/
043100/20121119/92705/1090/512/20/
043100/20121119/92705/1090/1589/20/
043100/20121119/92705/1095/1412/20/
043100/20121119/92716/1085/1055/10/
043100/20121119/92717/1085/2002/10/
043100/20121119/92720/1085/103/10/
043100/20121119/92720/1085/3575/10/
043100/20121119/92723/1085/203/10/
043100/20121119/92729/1085/96/10/
043100/20121119/92732/1085/8026/10/
043100/20121119/92732/1085/997/10/
043100/20121119/92735/1085/1018/20/
043100/20121119/92735/1085/207/20/
043100/20121119/92736/1080/289/10/
043100/20121119/92737/1085/502/20/
043100/20121119/92738/1085/102/20/
043100/20121119/92738/1085/183/20/
043100/20121119/92742/1080/2009/10/
043100/20121119/92742/1085/500/20/
043100/20121119/92746/1085/82/20/
043100/20121119/92750/1085/108/20/
043100/20121119/92754/1085/2216/20/
043100/20121119/92757/1085/4690/20/
043100/20121119/92757/1085/5000/10/
043100/20121119/92758/1085/3001/10/
043100/20121119/92801/1085/3007/10/
043100/20121119/92802/1085/99/10/
043100/20121119/92803/1085/204/10/
043100/20121119/92804/1085/482/10/
043100/20121119/92806/1085/3005/10/
043100/20121119/92807/1085/1203/10/
043100/20121119/92808/1085/13422/10/
043100/20121119/92810/1085/248/10/
043100/20121119/92810/1085/2000/10/
043100/20121119/92811/1090/1000/20/
043100/20121119/92811/1085/579/10/
043100/20121119/92817/1085/3186/10/
043100/20121119/92823/1085/2220/10/
043100/20121119/92834/1090/125/20/
043100/20121119/92846/1085/1115/10/
043100/20121119/92847/1085/962/10/
043100/20121119/92853/1085/1011/10/
043100/20121119/92854/1085/1002/10/
043100/20121119/92858/1085/1028/10/
043100/20121119/92902/1090/1028/20/
043100/20121119/92904/1090/86/20/
043100/20121119/92904/1090/1024/20/
043100/20121119/92909/1085/1029/10/
043100/20121119/92912/1085/123/10/
043100/20121119/92919/1085/674/10/
043100/20121119/92932/1090/81/20/
043100/20121119/92935/1085/2017/10/
043100/20121119/92936/1085/4478/10/
043100/20121119/92936/1085/10003/10/
043100/20121119/92937/1085/2098/10/
043100/20121119/92937/1085/9174/10/
043100/20121119/92938/1085/105/10/
043100/20121119/92939/1085/746/10/
043100/20121119/92939/1085/2735/10/
043100/20121119/92939/1085/648/10/
043100/20121119/92940/1085/3252/10/
043100/20121119/92940/1080/474/10/
043100/20121119/92941/1085/504/10/
043100/20121119/92941/1080/4501/10/
043100/20121119/92941/1080/5929/10/
043100/20121119/92949/1080/135/10/
043100/20121119/92956/1080/688/10/
043100/20121119/93002/1080/2527/10/
043100/20121119/93004/1080/1879/10/
043100/20121119/93004/1080/1149/10/
043100/20121119/93006/1080/5935/10/
043100/20121119/93006/1080/2063/10/
043100/20121119/93007/1080/24103/10/
043100/20121119/93008/1080/1856/10/
043100/20121119/93008/1080/500/10/
043100/20121119/93008/1085/105/20/
043100/20121119/93008/1080/2188/10/
043100/20121119/93008/1080/13451/10/
043100/20121119/93009/1080/545/10/
043100/20121119/93009/1080/132/10/
043100/20121119/93009/1080/18622/10/
043100/20121119/93009/1080/38818/10/
043100/20121119/93010/1075/714/10/
043100/20121119/93011/1080/283/20/
043100/20121119/93012/1075/705/10/
043100/20121119/93014/1075/1010/10/
043100/20121119/93014/1075/3002/10/
043100/20121119/93016/1075/4754/10/
043100/20121119/93020/1080/124/20/
043100/20121119/93020/1080/1001/20/
043100/20121119/93024/1080/6023/20/
043100/20121119/93025/1075/20919/10/
043100/20121119/93026/1080/333/20/
043100/20121119/93027/1080/343/20/
043100/20121119/93027/1080/1900/20/
043100/20121119/93028/1075/7338/10/
043100/20121119/93028/1070/19873/10/
043100/20121119/93032/1075/1103/10/
043100/20121119/93032/1070/9756/10/
043100/20121119/93033/1080/100/20/
043100/20121119/93034/1070/220/10/
043100/20121119/93034/1075/2343/20/
043100/20121119/93035/1075/100/10/
043100/20121119/93040/1070/6011/10/
043100/20121119/93044/1075/515/20/
043100/20121119/93046/1070/572/10/
043100/20121119/93047/1075/102/20/
043100/20121119/93048/1075/10000/20/
043100/20121119/93049/1075/674/20/
043100/20121119/93049/1075/500/20/
043100/20121119/93050/1075/3290/20/
043100/20121119/93054/1075/400/10/
043100/20121119/93057/1075/100/10/
043100/20121119/93059/1075/616/10/
043100/20121119/93102/1075/100/10/
043100/20121119/93104/1075/8080/10/
043100/20121119/93115/1075/1012/10/
043100/20121119/93117/1075/2042/10/
043100/20121119/93124/1075/2246/10/
043100/20121119/93128/1075/1001/10/
043100/20121119/93129/1080/10000/20/
043100/20121119/93130/1080/1271/20/
043100/20121119/93133/1080/801/20/
043100/20121119/93133/1080/5796/20/
043100/20121119/93134/1080/5000/20/
043100/20121119/93135/1080/2181/20/
043100/20121119/93135/1080/10844/20/
043100/20121119/93135/1085/19156/20/
043100/20121119/93138/1085/2803/20/
043100/20121119/93140/1085/377/20/
043100/20121119/93147/1080/3006/10/
043100/20121119/93151/1085/1000/20/
043100/20121119/93152/1085/1000/20/
043100/20121119/93201/1080/905/10/
043100/20121119/93212/1085/26956/20/
043100/20121119/93214/1085/3087/10/
043100/20121119/93214/1080/2913/10/
043100/20121119/93222/1085/5003/20/
043100/20121119/93224/1085/1000/20/
043100/20121119/93227/1085/1000/20/
043100/20121119/93229/1085/310/20/
043100/20121119/93232/1085/252/20/
043100/20121119/93238/1085/101/20/
043100/20121119/93250/1085/3014/20/
043100/20121119/93250/1090/1988/20/
043100/20121119/93256/1085/3161/20/
043100/20121119/93258/1085/346/10/
043100/20121119/93300/1085/4971/10/
043100/20121119/93301/1085/324/10/
043100/20121119/93301/1085/1000/10/
043100/20121119/93304/1085/349/10/
043100/20121119/93306/1085/89/20/
043100/20121119/93317/1085/9581/10/
043100/20121119/93323/1080/4956/10/
043100/20121119/93325/1080/13607/10/
043100/20121119/93333/1075/953/10/
043100/20121119/93335/1075/26385/10/
043100/20121119/93335/1070/4587/10/
043100/20121119/93342/1075/501/20/
043100/20121119/93348/1075/1007/20/
043100/20121119/93348/1075/250/20/
043100/20121119/93351/1070/10001/10/
043100/20121119/93351/1070/3000/10/
043100/20121119/93352/1070/272/10/
043100/20121119/93353/1070/6733/10/
043100/20121119/93354/1070/961/10/
043100/20121119/93355/1065/2419/10/
043100/20121119/93355/1070/1398/10/
043100/20121119/93356/1070/323/10/
043100/20121119/93357/1070/4896/10/
043100/20121119/93358/1070/1060/10/
043100/20121119/93402/1070/1275/10/
043100/20121119/93402/1070/1513/20/
043100/20121119/93409/1065/213/10/
043100/20121119/93411/1065/2500/10/
043100/20121119/93412/1070/371/20/
043100/20121119/93412/1075/630/20/
043100/20121119/93412/1065/300/10/
043100/20121119/93414/1065/1331/10/
043100/20121119/93417/1065/600/10/
043100/20121119/93421/1065/4104/10/
043100/20121119/93422/1065/1000/10/
043100/20121119/93422/1065/11044/10/
043100/20121119/93423/1065/4785/10/
043100/20121119/93423/1060/30217/10/
043100/20121119/93428/1065/1995/10/
043100/20121119/93428/1060/8010/10/
043100/20121119/93436/1065/272/20/
043100/20121119/93436/1065/100/20/
043100/20121119/93437/1065/539/20/
043100/20121119/93440/1065/2364/10/
043100/20121119/93448/1070/297/20/
043100/20121119/93458/1070/519/20/
043100/20121119/93506/1070/2028/20/
043100/20121119/93509/1070/300/20/
043100/20121119/93518/1065/10012/10/
043100/20121119/93519/1065/5086/10/
043100/20121119/93521/1065/139/20/
043100/20121119/93524/1065/260/20/
043100/20121119/93526/1065/933/20/
043100/20121119/93528/1060/20004/10/
043100/20121119/93528/1065/302/20/
043100/20121119/93529/1060/268/10/
043100/20121119/93530/1060/500/10/
043100/20121119/93531/1060/994/10/
043100/20121119/93531/1060/6500/10/
043100/20121119/93532/1060/2225/10/
043100/20121119/93532/1060/86/10/
043100/20121119/93532/1060/103/10/
043100/20121119/93533/1060/3794/10/
043100/20121119/93533/1060/200/20/
043100/20121119/93534/1060/362/20/
043100/20121119/93537/1060/557/10/
043100/20121119/93537/1060/200/10/
043100/20121119/93542/1060/2030/10/
043100/20121119/93544/1060/8029/20/
043100/20121119/93546/1065/102/20/
043100/20121119/93551/1065/91/20/
043100/20121119/93552/1060/3755/10/
043100/20121119/93554/1060/1509/10/
043100/20121119/93555/1065/10000/20/
043100/20121119/93556/1065/9401/20/
043100/20121119/93557/1065/5981/20/
043100/20121119/93558/1065/10012/20/
043100/20121119/93559/1065/1164/20/
043100/20121119/93559/1065/2163/20/
043100/20121119/93559/1065/9000/20/
043100/20121119/93559/1065/30343/20/
043100/20121119/93602/1065/3981/10/
043100/20121119/93602/1065/1835/20/
043100/20121119/93607/1065/354/10/
043100/20121119/93608/1065/976/10/
043100/20121119/93608/1060/8974/10/
043100/20121119/93614/1065/231/10/
043100/20121119/93620/1065/270/20/
043100/20121119/93652/1070/180/20/
043100/20121119/93653/1065/13842/10/
043100/20121119/93653/1060/18237/10/
043100/20121119/93659/1060/100/10/
043100/20121119/93718/1065/1402/20/
043100/20121119/93719/1060/100/10/
043100/20121119/93725/1065/664/10/
043100/20121119/93726/1065/5001/20/
043100/20121119/93730/1065/359/20/
043100/20121119/93748/1070/1816/20/
043100/20121119/93755/1065/2000/10/
043100/20121119/93757/1070/1200/20/
043100/20121119/93806/1065/4000/10/
043100/20121119/93806/1065/9980/10/
043100/20121119/93809/1065/4272/10/
043100/20121119/93810/1065/3054/10/
043100/20121119/93815/1065/741/20/
043100/20121119/93838/1070/1447/20/
043100/20121119/93846/1065/141/10/
043100/20121119/93907/1070/3855/20/
043100/20121119/93910/1070/5010/20/
043100/20121119/93911/1070/1050/20/
043100/20121119/93915/1070/199/20/
043100/20121119/93923/1070/137/20/
043100/20121119/93924/1070/1000/20/
043100/20121119/93936/1070/405/20/
043100/20121119/93936/1070/8000/20/
043100/20121119/93940/1065/6900/10/
043100/20121119/93943/1070/608/20/
043100/20121119/93943/1070/100/20/
043100/20121119/93947/1070/1128/20/
043100/20121119/93948/1070/5000/20/
043100/20121119/93948/1070/571/20/
043100/20121119/94013/1070/124/20/
043100/20121119/94024/1070/1452/20/
043100/20121119/94026/1070/1000/20/
043100/20121119/94041/1070/91/20/
043100/20121119/94044/1070/7000/20/
043100/20121119/94045/1070/1000/20/
043100/20121119/94046/1070/4198/20/
043100/20121119/94051/1070/1001/20/
043100/20121119/94052/1070/508/20/
043100/20121119/94054/1070/1000/20/
043100/20121119/94101/1070/6726/20/
043100/20121119/94107/1070/212/20/
043100/20121119/94119/1070/602/20/
043100/20121119/94120/1065/10000/10/
043100/20121119/94121/1065/439/10/
043100/20121119/94137/1065/1055/20/
043100/20121119/94137/1065/5239/20/
043100/20121119/94144/1060/82/10/
043100/20121119/94144/1065/100/20/
043100/20121119/94144/1065/4663/20/
043100/20121119/94145/1070/885/20/
043100/20121119/94150/1065/1271/10/
043100/20121119/94154/1065/7793/10/
043100/20121119/94155/1065/300/20/
043100/20121119/94206/1065/2472/20/
043100/20121119/94206/1065/580/20/
043100/20121119/94215/1065/2000/10/
043100/20121119/94218/1065/2234/10/
043100/20121119/94226/1065/200/10/
043100/20121119/94227/1065/200/10/
043100/20121119/94229/1065/1954/10/
043100/20121119/94233/1065/1287/10/
043100/20121119/94235/1065/441/10/
043100/20121119/94240/1060/81/10/
043100/20121119/94254/1060/2000/10/
043100/20121119/94308/1060/1020/10/
043100/20121119/94327/1060/1510/10/
043100/20121119/94329/1060/769/10/
043100/20121119/94329/1065/110/20/
043100/20121119/94335/1065/3001/20/
043100/20121119/94356/1060/1020/10/
043100/20121119/94358/1065/230/20/
043100/20121119/94412/1065/10069/20/
043100/20121119/94413/1065/517/20/
043100/20121119/94441/1065/106/10/
043100/20121119/94458/1065/1407/10/
043100/20121119/94517/1070/5023/20/
043100/20121119/94539/1070/320/20/
043100/20121119/94545/1070/101/20/
043100/20121119/94549/1070/4238/20/
043100/20121119/94551/1070/500/20/
043100/20121119/94558/1070/1004/20/
043100/20121119/94558/1070/254/20/
043100/20121119/94600/1070/1989/20/
043100/20121119/94600/1070/2988/20/
043100/20121119/94609/1075/192/20/
043100/20121119/94728/1075/156/20/
043100/20121119/94741/1070/5002/10/
043100/20121119/94742/1070/986/10/
043100/20121119/94745/1065/90/10/
043100/20121119/94803/1070/8599/20/
043100/20121119/94831/1075/527/20/
043100/20121119/94837/1070/282/10/
043100/20121119/94841/1070/1002/10/
043100/20121119/94844/1075/219/20/
043100/20121119/94853/1070/3701/10/
043100/20121119/94858/1070/35003/10/
043100/20121119/94900/1070/1214/10/
043100/20121119/94902/1075/1501/20/
043100/20121119/94908/1070/1078/10/
043100/20121119/94908/1070/856/10/
043100/20121119/94915/1070/1025/10/
043100/20121119/94917/1075/17461/20/
043100/20121119/94947/1070/93/10/
043100/20121119/94949/1070/830/10/
043100/20121119/95000/1070/105/10/
043100/20121119/95007/1070/84/10/
043100/20121119/95008/1070/2735/10/
043100/20121119/95009/1070/500/10/
043100/20121119/95010/1070/148/10/
043100/20121119/95011/1070/721/10/
043100/20121119/95012/1070/259/20/
043100/20121119/95042/1070/281/20/
043100/20121119/95109/1065/101/10/
043100/20121119/95228/1070/135/20/
043100/20121119/95233/1065/1050/10/
043100/20121119/95249/1065/1103/10/
043100/20121119/95253/1065/12501/10/
043100/20121119/95254/1065/1154/10/
043100/20121119/95310/1060/201/10/
043100/20121119/95315/1060/367/10/
043100/20121119/95316/1060/1000/10/
043100/20121119/95322/1065/7000/20/
043100/20121119/95326/1065/2001/20/
043100/20121119/95353/1060/3878/10/
043100/20121119/95402/1060/431/10/
043100/20121119/95429/1060/10012/10/
043100/20121119/95442/1060/2000/10/
043100/20121119/95443/1060/3395/10/
043100/20121119/95451/1060/15120/10/
043100/20121119/95451/1060/100/10/
043100/20121119/95452/1060/1000/10/
043100/20121119/95454/1060/3000/10/
043100/20121119/95459/1060/4000/10/
043100/20121119/95500/1060/5764/10/
043100/20121119/95504/1055/5000/10/
043100/20121119/95504/1055/790/10/
043100/20121119/95504/1055/30890/10/
043100/20121119/95518/1060/5026/20/
043100/20121119/95521/1055/2769/10/
043100/20121119/95535/1060/1001/20/
043100/20121119/95607/1060/151/20/
043100/20121119/95614/1060/139/20/
043100/20121119/95619/1055/1000/10/
043100/20121119/95644/1055/2003/10/
043100/20121119/95655/1055/511/10/
043100/20121119/95701/1055/116/10/
043100/20121119/95705/1055/10000/10/
043100/20121119/95711/1055/441/10/
043100/20121119/95719/1055/1067/10/
043100/20121119/95721/1055/732/10/
043100/20121119/95732/1055/4499/10/
043100/20121119/95752/1055/2002/10/
043100/20121119/95804/1055/109/10/
043100/20121119/95820/1055/311/10/
043100/20121119/95845/1055/2021/10/
043100/20121119/95929/1060/81/20/
043100/20121119/95931/1055/2000/10/
043100/20121119/95955/1060/2050/20/
043100/20121119/100053/1060/3071/20/
043100/20121119/100128/1055/465/10/
043100/20121119/100136/1060/302/20/
043100/20121119/100137/1060/300/20/
043100/20121119/100142/1060/1004/20/
043100/20121119/100154/1060/112/20/
043100/20121119/100206/1060/221/20/
043100/20121119/100207/1060/81/20/
043100/20121119/100221/1055/104/10/
043100/20121119/100223/1060/1795/20/
043100/20121119/100229/1060/3424/20/
043100/20121119/100315/1060/397/10/
043100/20121119/100334/1065/3001/20/
043100/20121119/100350/1065/3672/20/
043100/20121119/100357/1060/209/10/
043100/20121119/100357/1065/1025/20/
043100/20121119/100357/1070/7975/20/
043100/20121119/100511/1065/411/10/
043100/20121119/100532/1065/2004/20/
043100/20121119/100552/1060/201/10/
043100/20121119/100609/1065/1001/20/
043100/20121119/100612/1065/4877/20/
043100/20121119/100658/1070/226/20/
043100/20121119/100706/1070/100/20/
043100/20121119/100707/1065/613/10/
043100/20121119/100713/1065/1996/10/
043100/20121119/100721/1065/745/10/
043100/20121119/100742/1060/881/10/
043100/20121119/100804/1065/401/20/
043100/20121119/100852/1060/81/10/
043100/20121119/100904/1065/301/20/
043100/20121119/100923/1060/100/10/
043100/20121119/100948/1060/3222/10/
043100/20121119/101053/1060/82/10/
043100/20121119/101154/1060/204/10/
043100/20121119/101326/1060/2042/10/
043100/20121119/101327/1060/1783/10/
043100/20121119/101346/1065/1015/20/
043100/20121119/101413/1060/153/10/
043100/20121119/101421/1060/1127/10/
043100/20121119/101433/1060/104/10/
043100/20121119/101433/1060/100/10/
043100/20121119/101513/1060/465/10/
043100/20121119/101519/1060/801/10/
043100/20121119/101531/1065/1023/20/
043100/20121119/101536/1065/1939/20/
043100/20121119/101538/1065/315/20/
043100/20121119/101540/1065/1012/20/
043100/20121119/101555/1065/81/20/
043100/20121119/101605/1065/545/20/
043100/20121119/101612/1065/708/20/
043100/20121119/101621/1065/10013/20/
043100/20121119/101622/1065/2012/20/
043100/20121119/101636/1065/3008/20/
043100/20121119/101638/1065/221/20/
043100/20121119/101642/1065/214/20/
043100/20121119/101716/1065/1418/20/
043100/20121119/101751/1065/13505/10/
043100/20121119/101803/1070/303/20/
043100/20121119/101804/1065/1064/10/
043100/20121119/101809/1065/1032/10/
043100/20121119/101813/1065/1785/10/
043100/20121119/101832/1070/1962/20/
043100/20121119/101838/1070/3023/20/
043100/20121119/101901/1065/2020/10/
043100/20121119/101933/1070/1819/20/
043100/20121119/101940/1070/1766/20/
043100/20121119/102042/1065/536/10/
043100/20121119/102059/1065/320/10/
043100/20121119/102100/1065/2000/10/
043100/20121119/102121/1065/121/10/
043100/20121119/102224/1065/821/10/
043100/20121119/102235/1065/1011/10/
043100/20121119/102304/1065/1060/10/
043100/20121119/102308/1065/1584/10/
043100/20121119/102330/1065/1663/10/
043100/20121119/102436/1060/620/10/
043100/20121119/102455/1065/510/20/
043100/20121119/102529/1065/530/20/
043100/20121119/102540/1065/7408/20/
043100/20121119/102600/1065/6224/10/
043100/20121119/102601/1065/3000/20/
043100/20121119/102620/1065/2010/20/
043100/20121119/102622/1065/483/20/
043100/20121119/102651/1065/801/10/
043100/20121119/102700/1065/451/10/
043100/20121119/102717/1065/294/10/
043100/20121119/102717/1060/407/10/
043100/20121119/102827/1070/358/20/
043100/20121119/102926/1065/170/10/
043100/20121119/102933/1065/2000/20/
043100/20121119/103047/1065/890/20/
043100/20121119/103051/1065/300/20/
043100/20121119/103104/1065/3003/20/
043100/20121119/103144/1065/3018/20/
043100/20121119/103152/1065/900/20/
043100/20121119/103214/1065/1818/20/
043100/20121119/103214/1065/6831/20/
043100/20121119/103226/1065/1010/20/
043100/20121119/103246/1065/220/20/
043100/20121119/103432/1065/3054/20/
043100/20121119/103447/1060/103/10/
043100/20121119/103510/1065/1007/20/
043100/20121119/103513/1065/4480/20/
043100/20121119/103513/1065/1985/20/
043100/20121119/103637/1070/166/20/
043100/20121119/103653/1070/3003/20/
043100/20121119/103653/1070/100/20/
043100/20121119/103705/1065/932/10/
043100/20121119/103729/1065/654/10/
043100/20121119/103736/1070/3002/20/
043100/20121119/103754/1070/203/20/
043100/20121119/103818/1065/5010/10/
043100/20121119/103912/1065/1000/10/
043100/20121119/103940/1065/3000/10/
043100/20121119/104008/1065/110/10/
043100/20121119/104141/1065/11039/10/
043100/20121119/104333/1065/1515/10/
043100/20121119/104419/1065/10001/10/
043100/20121119/104632/1065/1682/10/
043100/20121119/104641/1065/1235/10/
043100/20121119/104710/1065/175/20/
043100/20121119/104753/1060/1870/10/
043100/20121119/104800/1060/160/10/
043100/20121119/104808/1065/100/20/
043100/20121119/104851/1060/7000/10/
043100/20121119/104901/1060/3358/10/
043100/20121119/104901/1060/500/10/
043100/20121119/104909/1060/2163/10/
043100/20121119/104913/1060/2770/10/
043100/20121119/104916/1060/1770/10/
043100/20121119/104948/1060/600/10/
043100/20121119/105015/1060/2800/10/
043100/20121119/105037/1060/1555/10/
043100/20121119/105212/1060/1111/10/
043100/20121119/105221/1060/1000/10/
043100/20121119/105253/1060/1000/10/
043100/20121119/105303/1060/600/10/
043100/20121119/105316/1060/281/10/
043100/20121119/105319/1060/932/10/
043100/20121119/105323/1060/1005/10/
043100/20121119/105323/1060/462/10/
043100/20121119/105325/1060/232/10/
043100/20121119/105331/1060/800/10/
043100/20121119/105333/1060/1442/10/
043100/20121119/105420/1055/102/10/
043100/20121119/105427/1055/39112/10/
043100/20121119/105455/1050/203/10/
043100/20121119/105500/1055/20000/20/
043100/20121119/105505/1055/8963/20/
043100/20121119/105542/1060/511/20/
043100/20121119/105607/1055/10001/10/
043100/20121119/105610/1055/1000/10/
043100/20121119/105619/1055/1002/10/
043100/20121119/105630/1060/1023/20/
043100/20121119/105639/1060/502/20/
043100/20121119/105653/1060/100/20/
043100/20121119/105728/1060/300/20/
043100/20121119/105729/1060/100/20/
043100/20121119/105744/1060/3500/20/
043100/20121119/105757/1060/3000/20/
043100/20121119/105809/1060/200/20/
043100/20121119/105809/1060/1000/20/
043100/20121119/105810/1060/100/20/
043100/20121119/105812/1060/81/20/
043100/20121119/105824/1060/243/20/
043100/20121119/105824/1060/102/20/
043100/20121119/105917/1065/1422/20/
043100/20121119/105929/1065/801/20/
043100/20121119/105934/1065/3608/20/
043100/20121119/105948/1060/301/10/
043100/20121119/110107/1060/1025/10/
043100/20121119/110133/1060/5018/10/
043100/20121119/110247/1060/1783/10/
043100/20121119/110256/1060/502/10/
043100/20121119/110303/1060/9178/10/
043100/20121119/110424/1055/1023/10/
043100/20121119/110431/1055/5001/10/
043100/20121119/110440/1060/5863/20/
043100/20121119/110640/1060/521/20/
043100/20121119/110705/1060/1183/20/
043100/20121119/110812/1060/2100/20/
043100/20121119/110907/1055/1037/10/
043100/20121119/111000/1055/500/10/
043100/20121119/111037/1055/1472/10/
043100/20121119/111044/1055/500/10/
043100/20121119/111052/1055/10000/10/
043100/20121119/111056/1055/500/10/
043100/20121119/111150/1055/1611/10/
043100/20121119/111201/1060/14929/20/
043100/20121119/111321/1065/311/20/
043100/20121119/111355/1065/4200/20/
043100/20121119/111357/1065/16842/20/
043100/20121119/111420/1065/200/10/
043100/20121119/111450/1070/86/20/
043100/20121119/111500/1070/81/20/
043100/20121119/111504/1070/1272/20/
043100/20121119/111510/1070/82/20/
043100/20121119/111513/1070/82/20/
043100/20121119/111517/1070/86/20/
043100/20121119/111519/1070/84/20/
043100/20121119/111523/1070/88/20/
043100/20121119/111528/1070/90/20/
043100/20121119/111530/1070/82/20/
043100/20121119/111533/1070/82/20/
043100/20121119/111536/1070/90/20/
043100/20121119/111539/1070/82/20/
043100/20121119/111542/1070/92/20/
043100/20121119/111546/1070/92/20/
043100/20121119/111549/1070/92/20/
043100/20121119/111556/1070/358/20/
043100/20121119/111604/1070/82/20/
043100/20121119/111607/1070/82/20/
043100/20121119/111611/1070/82/20/
043100/20121119/111614/1070/81/20/
043100/20121119/111617/1070/91/20/
043100/20121119/111618/1070/502/20/
043100/20121119/111620/1070/91/20/
043100/20121119/111625/1070/90/20/
043100/20121119/111629/1070/82/20/
043100/20121119/111632/1070/114/20/
043100/20121119/111635/1070/92/20/
043100/20121119/111637/1070/82/20/
043100/20121119/111640/1070/82/20/
043100/20121119/111643/1070/81/20/
043100/20121119/111646/1070/82/20/
043100/20121119/111647/1070/612/20/
043100/20121119/111650/1070/92/20/
043100/20121119/111658/1070/82/20/
043100/20121119/111704/1070/82/20/
043100/20121119/111720/1070/82/20/
043100/20121119/111725/1065/1040/10/
043100/20121119/111732/1070/81/20/
043100/20121119/111743/1070/82/20/
043100/20121119/111748/1065/1065/10/
043100/20121119/111756/1070/82/20/
043100/20121119/111803/1070/81/20/
043100/20121119/111808/1065/279/10/
043100/20121119/111817/1070/81/20/
043100/20121119/111831/1070/81/20/
043100/20121119/111835/1070/702/20/
043100/20121119/111845/1070/1443/20/
043100/20121119/111850/1065/600/10/
043100/20121119/112017/1065/1013/10/
043100/20121119/112018/1065/500/10/
043100/20121119/112026/1065/100/10/
043100/20121119/112035/1065/335/10/
043100/20121119/112131/1065/541/10/
043100/20121119/112218/1065/1073/10/
043100/20121119/112218/1060/8909/10/
043100/20121119/112247/1070/81/20/
043100/20121119/112311/1065/8014/10/
043100/20121119/112318/1065/1001/20/
043100/20121119/112455/1060/9978/10/
043100/20121119/112517/1060/230/10/
043100/20121119/112638/1065/158/20/
043100/20121119/112638/1060/9514/10/
043100/20121119/112643/1060/880/10/
043100/20121119/112648/1060/1000/10/
043100/20121119/112653/1060/1408/10/
043100/20121119/112704/1060/1000/10/
043100/20121119/112706/1060/867/10/
043100/20121119/112716/1060/1144/10/
043100/20121119/112738/1060/483/10/
043100/20121119/112829/1060/1006/20/
043100/20121119/112830/1060/5490/20/
043100/20121119/112911/1060/105/10/
043100/20121119/112921/1060/16311/10/
043100/20121119/112939/1060/859/20/
043100/20121119/113018/1060/4204/20/
043100/20121119/113022/1060/12065/20/
043100/20121119/113023/1060/4449/20/
043100/20121119/113023/1060/13142/20/
043100/20121119/113153/1065/1004/20/
043100/20121119/113220/1065/10003/20/
043100/20121119/113221/1065/4805/20/
043100/20121119/113246/1070/421/20/
043100/20121119/113314/1065/1027/10/
043100/20121119/113315/1070/3000/20/
043100/20121119/113331/1070/726/20/
043100/20121119/113337/1070/3031/20/
043100/20121119/113345/1070/1751/20/
043100/20121119/113356/1070/12225/20/
043100/20121119/113358/1070/1563/10/
043100/20121119/113419/1070/130/20/
043100/20121119/113436/1070/10003/20/
043100/20121119/113438/1065/1141/10/
043100/20121119/113450/1070/5001/20/
043100/20121119/113454/1070/96/20/
043100/20121119/113459/1070/2464/20/
043100/20121119/113531/1070/3201/10/
043100/20121119/113533/1070/3403/10/
043100/20121119/113555/1070/1116/20/
043100/20121119/113557/1070/3534/20/
043100/20121119/113618/1075/1124/20/
043100/20121119/113622/1075/601/20/
043100/20121119/113622/1075/1000/20/
043100/20121119/113637/1075/26391/20/
043100/20121119/113642/1075/8000/20/
043100/20121119/113644/1075/852/20/
043100/20121119/113647/1075/311/20/
043100/20121119/113656/1075/2922/20/
043100/20121119/113657/1075/4954/20/
043100/20121119/113658/1075/1370/20/
043100/20121119/113659/1075/541/20/
043100/20121119/113701/1075/460/10/
043100/20121119/113809/1070/2828/10/
043100/20121119/113816/1070/6801/10/
043100/20121119/113825/1070/301/10/
043100/20121119/113826/1070/738/10/
043100/20121119/113828/1070/286/20/
043100/20121119/113835/1070/3000/10/
043100/20121119/113839/1070/280/10/
043100/20121119/113920/1075/1028/20/
043100/20121119/113948/1075/14166/20/
043100/20121119/114010/1075/7836/10/
043100/20121119/114017/1075/2001/20/
043100/20121119/114024/1075/1694/20/
043100/20121119/114029/1075/9126/20/
043100/20121119/114030/1075/435/20/
043100/20121119/114030/1075/853/20/
043100/20121119/114041/1075/2800/10/
043100/20121119/114043/1075/5001/20/
043100/20121119/114043/1075/2207/20/
043100/20121119/114059/1075/1694/10/
043100/20121119/114134/1075/6674/10/
043100/20121119/114232/1070/10033/10/
043100/20121119/114239/1070/417/20/
043100/20121119/114352/1070/247/20/
043100/20121119/114353/1065/1115/10/
043100/20121119/114358/1070/400/20/
043100/20121119/114532/1065/275/10/
043100/20121119/114616/1070/115/20/
043100/20121119/114618/1065/600/10/
043100/20121119/114619/1070/5000/20/
043100/20121119/114620/1070/5000/20/
043100/20121119/114620/1070/468/20/
043100/20121119/114623/1075/1500/20/
043100/20121119/114723/1075/81/20/
043100/20121119/114819/1070/496/10/
043100/20121119/114830/1070/3759/10/
043100/20121119/114850/1070/271/20/
043100/20121119/114948/1070/2269/10/
043100/20121119/115008/1070/500/20/
043100/20121119/115057/1070/981/20/
043100/20121119/115155/1070/1799/10/
043100/20121119/115221/1070/1500/20/
043100/20121119/115316/1065/501/10/
043100/20121119/115337/1070/860/20/
043100/20121119/115357/1065/1501/10/
043100/20121119/115408/1070/600/20/
043100/20121119/115413/1070/140/20/
043100/20121119/115422/1070/1000/20/
043100/20121119/115424/1070/2000/20/
043100/20121119/115425/1070/1086/20/
043100/20121119/115436/1070/319/10/
043100/20121119/115451/1070/8500/10/
043100/20121119/115456/1070/1000/10/
043100/20121119/115509/1070/2330/10/
043100/20121119/115544/1070/1174/20/
043100/20121119/115612/1070/5015/10/
043100/20121119/115900/1070/270/10/
043100/20121119/120031/1070/351/10/
043100/20121119/120053/1075/152/20/
043100/20121119/120102/1070/550/10/
043100/20121119/120226/1070/129/10/
043100/20121119/120226/1070/100/10/
043100/20121119/120244/1075/1065/20/
043100/20121119/120249/1070/252/10/
043100/20121119/120309/1070/88/20/
043100/20121119/120350/1070/95/20/
043100/20121119/120417/1070/177/10/
043100/20121119/120442/1070/119/20/
043100/20121119/120443/1070/100/20/
043100/20121119/120444/1070/100/20/
043100/20121119/120458/1070/250/20/
043100/20121119/120500/1070/120/20/
043100/20121119/120502/1070/250/20/
043100/20121119/120620/1070/1030/20/
043100/20121119/120630/1070/1061/20/
043100/20121119/120634/1070/200/20/
043100/20121119/120641/1070/1010/20/
043100/20121119/120642/1070/927/20/
043100/20121119/120747/1070/81/20/
043100/20121119/120757/1070/919/20/
043100/20121119/120820/1070/83/10/
043100/20121119/120843/1065/4914/10/
043100/20121119/120859/1065/361/10/
043100/20121119/120941/1070/413/10/
043100/20121119/120942/1070/729/10/
043100/20121119/121130/1070/5046/10/
043100/20121119/121209/1070/917/20/
043100/20121119/121228/1070/305/10/
043100/20121119/121346/1075/425/20/
043100/20121119/121445/1070/173/10/
043100/20121119/121516/1075/114/20/
043100/20121119/121534/1070/1041/10/
043100/20121119/121637/1070/459/20/
043100/20121119/121640/1070/651/10/
043100/20121119/121650/1070/2930/20/
043100/20121119/121733/1070/132/20/
043100/20121119/122103/1070/2453/10/
043100/20121119/122120/1065/400/10/
043100/20121119/122508/1070/162/20/
043100/20121119/122549/1065/5770/10/
043100/20121119/122604/1070/100/20/
043100/20121119/122616/1065/1886/10/
043100/20121119/122622/1070/100/20/
043100/20121119/122624/1070/1500/20/
043100/20121119/122626/1070/100/20/
043100/20121119/122631/1070/100/20/
043100/20121119/122710/1070/407/20/
043100/20121119/122908/1070/102/20/
043100/20121119/122923/1070/145/20/
043100/20121119/122935/1070/5455/20/
043100/20121119/122947/1070/1063/10/
043100/20121119/123025/1070/1377/10/
043100/20121119/123036/1070/2448/10/
043100/20121119/123128/1070/552/20/
043100/20121119/123139/1070/4510/20/
043100/20121119/123233/1070/130/20/
043100/20121119/123243/1070/93/20/
043100/20121119/123310/1070/346/20/
043100/20121119/123328/1070/200/20/
043100/20121119/123341/1070/100/20/
043100/20121119/123344/1070/500/20/
043100/20121119/123403/1070/500/20/
043100/20121119/123432/1070/925/20/
043100/20121119/123500/1070/110/20/
043100/20121119/123516/1070/200/20/
043100/20121119/123529/1065/15000/10/
043100/20121119/123530/1065/14818/10/
043100/20121119/123534/1060/2400/10/
043100/20121119/123555/1065/100/20/
043100/20121119/123607/1065/100/20/
043100/20121119/123631/1065/162/20/
043100/20121119/123658/1065/3118/10/
043100/20121119/123658/1060/1917/10/
043100/20121119/123722/1065/500/20/
043100/20121119/123741/1060/1000/10/
043100/20121119/123754/1060/640/10/
043100/20121119/123830/1065/563/20/
043100/20121119/123928/1060/141/10/
043100/20121119/123945/1065/1500/20/
043100/20121119/124000/1065/204/20/
043100/20121119/124050/1065/100/20/
043100/20121119/124103/1065/200/20/
043100/20121119/124117/1065/100/20/
043100/20121119/124127/1065/500/20/
043100/20121119/124143/1065/2000/20/
043100/20121119/124232/1065/300/20/
043100/20121119/124320/1065/210/20/
043100/20121119/124424/1065/500/20/
043100/20121119/124509/1065/518/20/
043100/20121119/124525/1065/88/20/
043100/20121119/124731/1060/1011/10/
043100/20121119/124817/1065/103/20/
043100/20121119/124827/1065/100/20/
043100/20121119/124833/1065/100/20/
043100/20121119/124836/1065/100/20/
043100/20121119/124838/1065/149/20/
043100/20121119/124842/1065/100/20/
043100/20121119/125011/1065/278/20/
043100/20121119/125114/1065/4010/20/
043100/20121119/125132/1065/500/20/
043100/20121119/125133/1065/203/20/
043100/20121119/125249/1065/151/20/
043100/20121119/125312/1060/1000/10/
043100/20121119/125506/1060/1139/10/
043100/20121119/125527/1065/1020/20/
043100/20121119/125530/1060/1000/10/
043100/20121119/125534/1065/1009/20/
043100/20121119/125555/1060/18061/10/
043100/20121119/125555/1060/18000/10/
043100/20121119/125555/1060/7385/10/
043100/20121119/125603/1060/1000/20/
043100/20121119/125603/1055/1400/10/
043100/20121119/125625/1060/4600/20/
043100/20121119/125627/1060/100/20/
043100/20121119/125638/1060/5000/20/
043100/20121119/125647/1060/120/20/
043100/20121119/125655/1060/578/20/
043100/20121119/125723/1065/500/20/
043100/20121119/125742/1065/1000/20/
043100/20121119/125747/1065/463/20/
043100/20121119/125808/1070/100/20/
043100/20121119/125819/1065/4192/10/
043100/20121119/125839/1065/10000/10/
043100/20121119/125839/1065/8474/10/
043100/20121119/125906/1060/5934/10/
043100/20121119/125934/1060/1012/20/
043100/20121119/125951/1060/410/20/
043100/20121119/130021/1060/120/20/
043100/20121119/130027/1060/760/20/
043100/20121119/130032/1060/310/20/
043100/20121119/130105/1055/8237/10/
043100/20121119/130134/1055/4020/10/
043100/20121119/130200/1055/9000/10/
043100/20121119/130213/1055/370/10/
043100/20121119/130231/1055/4200/10/
043100/20121119/130238/1055/4113/10/
043100/20121119/130240/1055/4236/10/
043100/20121119/130240/1055/4078/10/
043100/20121119/130250/1055/120/20/
043100/20121119/130252/1055/100/20/
043100/20121119/130302/1055/800/20/
043100/20121119/130328/1060/91/20/
043100/20121119/130400/1055/200/10/
043100/20121119/130413/1055/1000/10/
043100/20121119/130453/1055/3796/10/
043100/20121119/130524/1050/1430/10/
043100/20121119/130532/1050/18609/10/
043100/20121119/130534/1050/7068/10/
043100/20121119/130534/1050/3236/10/
043100/20121119/130611/1050/1000/10/
043100/20121119/130613/1050/1252/10/
043100/20121119/130616/1050/2237/10/
043100/20121119/130621/1050/600/10/
043100/20121119/130629/1050/275/10/
043100/20121119/130645/1050/205/10/
043100/20121119/130716/1050/1378/10/
043100/20121119/130815/1050/96/10/
043100/20121119/130817/1050/100/10/
043100/20121119/130848/1050/275/10/
043100/20121119/130851/1050/1000/10/
043100/20121119/130900/1050/1001/10/
043100/20121119/130904/1050/3000/10/
043100/20121119/130910/1050/113/10/
043100/20121119/130916/1050/1500/10/
043100/20121119/130925/1050/8491/10/
043100/20121119/130925/1045/19414/10/
043100/20121119/130925/1040/21273/10/
043100/20121119/130925/1035/822/10/
043100/20121119/130925/1040/1989/20/
043100/20121119/130929/1040/1000/10/
043100/20121119/130929/1040/4000/20/
043100/20121119/130931/1045/341/20/
043100/20121119/130934/1050/159/10/
043100/20121119/130939/1055/3038/20/
043100/20121119/130951/1050/1002/10/
043100/20121119/130952/1050/130/10/
043100/20121119/130952/1055/400/20/
043100/20121119/131007/1050/2981/10/
043100/20121119/131157/1050/376/20/
043100/20121119/131204/1050/2091/20/
043100/20121119/131206/1050/2343/20/
043100/20121119/131206/1050/4622/10/
043100/20121119/131215/1055/790/20/
043100/20121119/131225/1055/3800/20/
043100/20121119/131304/1055/90/20/
043100/20121119/131310/1055/7031/20/
043100/20121119/131313/1055/205/20/
043100/20121119/131320/1050/1460/10/
043100/20121119/131333/1050/141/10/
043100/20121119/131500/1050/8424/10/
043100/20121119/131503/1050/448/20/
043100/20121119/131508/1050/100/20/
043100/20121119/131516/1050/171/20/
043100/20121119/131516/1050/100/20/
043100/20121119/131527/1050/100/20/
043100/20121119/131531/1050/658/20/
043100/20121119/131537/1050/1000/10/
043100/20121119/131626/1050/1000/20/
043100/20121119/131627/1050/201/10/
043100/20121119/131631/1050/2799/20/
043100/20121119/131736/1045/1024/10/
043100/20121119/131750/1045/709/10/
043100/20121119/131830/1045/81/10/
043100/20121119/131837/1050/231/20/
043100/20121119/131908/1050/257/10/
043100/20121119/131916/1050/508/20/
043100/20121119/131920/1050/1040/10/
043100/20121119/131957/1050/5002/20/
043100/20121119/132009/1050/670/10/
043100/20121119/132036/1050/2336/20/
043100/20121119/132113/1050/300/10/
043100/20121119/132116/1050/4500/10/
043100/20121119/132137/1055/10000/20/
043100/20121119/132343/1050/1011/10/
043100/20121119/132351/1050/400/10/
043100/20121119/132354/1050/2600/10/
043100/20121119/132431/1055/829/20/
043100/20121119/132441/1050/1000/10/
043100/20121119/132446/1050/3000/10/
043100/20121119/132510/1050/250/10/
043100/20121119/132542/1050/8977/10/
043100/20121119/132542/1050/5247/10/
043100/20121119/132647/1045/1017/10/
043100/20121119/132657/1045/10002/10/
043100/20121119/132701/1045/1862/10/
043100/20121119/132723/1045/4955/10/
043100/20121119/132723/1045/2001/10/
043100/20121119/132725/1045/1186/10/
043100/20121119/132726/1045/6892/10/
043100/20121119/132731/1045/123/20/
043100/20121119/132806/1045/104/10/
043100/20121119/132843/1050/107/20/
043100/20121119/132850/1045/613/10/
043100/20121119/132900/1045/2790/10/
043100/20121119/132945/1045/170/10/
043100/20121119/133006/1045/228/10/
043100/20121119/133021/1045/2736/10/
043100/20121119/133138/1045/119/10/
043100/20121119/133222/1050/301/20/
043100/20121119/133225/1045/1000/10/
043100/20121119/133244/1045/101/10/
043100/20121119/133248/1045/500/10/
043100/20121119/133312/1050/94/20/
043100/20121119/133326/1045/1000/10/
043100/20121119/133328/1045/5000/10/
043100/20121119/133419/1050/168/20/
043100/20121119/133420/1050/100/20/
043100/20121119/133425/1050/632/20/
043100/20121119/133427/1050/1852/20/
043100/20121119/133428/1050/1000/20/
043100/20121119/133429/1050/1000/20/
043100/20121119/133430/1050/7740/20/
043100/20121119/133431/1050/81/20/
043100/20121119/133431/1050/1000/20/
043100/20121119/133431/1050/2315/20/
043100/20121119/133431/1050/1000/20/
043100/20121119/133432/1050/323/20/
043100/20121119/133432/1050/1000/20/
043100/20121119/133433/1050/1000/20/
043100/20121119/133434/1050/1000/20/
043100/20121119/133435/1050/395/20/
043100/20121119/133514/1050/249/10/
043100/20121119/133532/1055/105/20/
043100/20121119/133621/1050/106/10/
043100/20121119/133622/1050/6151/10/
043100/20121119/133749/1045/1054/10/
043100/20121119/133757/1050/102/20/
043100/20121119/133805/1050/1001/20/
043100/20121119/133839/1050/5608/20/
043100/20121119/133846/1050/511/20/
043100/20121119/133913/1045/326/10/
043100/20121119/133915/1045/1360/10/
043100/20121119/133943/1050/502/20/
043100/20121119/133954/1045/172/10/
043100/20121119/133958/1050/201/20/
043100/20121119/134006/1050/229/20/
043100/20121119/134043/1045/30906/10/
043100/20121119/134045/1045/320/20/
043100/20121119/134055/1040/10823/10/
043100/20121119/134100/1040/1140/10/
043100/20121119/134117/1045/2004/20/
043100/20121119/134156/1040/7461/10/
043100/20121119/134202/1040/1512/10/
043100/20121119/134217/1040/2224/10/
043100/20121119/134221/1040/200/20/
043100/20121119/134234/1040/647/20/
043100/20121119/134234/1045/4357/20/
043100/20121119/134239/1035/1761/10/
043100/20121119/134240/1035/15000/10/
043100/20121119/134241/1035/2315/10/
043100/20121119/134308/1035/93/10/
043100/20121119/134311/1035/4501/10/
043100/20121119/134319/1035/21711/10/
043100/20121119/134319/1035/2255/10/
043100/20121119/134328/1040/185/20/
043100/20121119/134338/1035/589/10/
043100/20121119/134339/1035/427/20/
043100/20121119/134343/1035/1541/10/
043100/20121119/134347/1035/464/20/
043100/20121119/134357/1035/3023/10/
043100/20121119/134359/1040/200/20/
043100/20121119/134423/1035/884/10/
043100/20121119/134433/1035/2117/10/
043100/20121119/134442/1040/591/20/
043100/20121119/134448/1035/2862/10/
043100/20121119/134453/1035/1529/10/
043100/20121119/134456/1035/1121/10/
043100/20121119/134456/1035/2546/10/
043100/20121119/134457/1035/1075/10/
043100/20121119/134504/1035/155/10/
043100/20121119/134532/1040/195/20/
043100/20121119/134607/1040/3009/20/
043100/20121119/134708/1035/1000/10/
043100/20121119/134736/1035/517/10/
043100/20121119/134744/1035/8047/10/
043100/20121119/134745/1035/1000/10/
043100/20121119/134746/1035/101/10/
043100/20121119/134751/1035/3000/10/
043100/20121119/134753/1035/2215/10/
043100/20121119/134809/1030/1510/10/
043100/20121119/134818/1035/86/20/
043100/20121119/134819/1030/30000/10/
043100/20121119/134826/1030/114/10/
043100/20121119/134831/1030/117/10/
043100/20121119/134836/1030/300/10/
043100/20121119/134839/1030/1000/10/
043100/20121119/134840/1035/575/20/
043100/20121119/134844/1030/550/10/
043100/20121119/134853/1030/802/10/
043100/20121119/134856/1030/1820/10/
043100/20121119/134901/1030/353/10/
043100/20121119/134918/1030/1011/10/
043100/20121119/134918/1035/1000/20/
043100/20121119/134929/1030/1000/10/
043100/20121119/134936/1035/200/20/
043100/20121119/134937/1030/300/10/
043100/20121119/134957/1030/81/10/
043100/20121119/135024/1030/570/10/
043100/20121119/135041/1030/107/10/
043100/20121119/135045/1030/521/10/
043100/20121119/135052/1030/1223/10/
043100/20121119/135112/1035/115/20/
043100/20121119/135115/1035/100/20/
043100/20121119/135139/1030/2330/10/
043100/20121119/135142/1030/7201/10/
043100/20121119/135144/1030/971/10/
043100/20121119/135144/1030/8267/10/
043100/20121119/135144/1030/2227/10/
043100/20121119/135146/1030/100/10/
043100/20121119/135147/1030/100/20/
043100/20121119/135152/1030/103/20/
043100/20121119/135154/1030/200/20/
043100/20121119/135156/1030/1517/20/
043100/20121119/135156/1030/7776/20/
043100/20121119/135214/1030/109/20/
043100/20121119/135217/1025/1002/10/
043100/20121119/135218/1030/1000/20/
043100/20121119/135220/1030/1000/20/
043100/20121119/135221/1030/100/20/
043100/20121119/135221/1030/1000/20/
043100/20121119/135232/1030/364/20/
043100/20121119/135240/1030/109/20/
043100/20121119/135244/1030/1000/20/
043100/20121119/135244/1030/100/20/
043100/20121119/135244/1030/985/20/
043100/20121119/135248/1030/103/10/
043100/20121119/135254/1030/1606/10/
043100/20121119/135259/1030/1201/10/
043100/20121119/135300/1030/2000/10/
043100/20121119/135313/1035/312/20/
043100/20121119/135346/1035/96/20/
043100/20121119/135352/1030/25864/10/
043100/20121119/135353/1030/2125/20/
043100/20121119/135358/1025/22632/10/
043100/20121119/135409/1025/91/10/
043100/20121119/135434/1025/309/10/
043100/20121119/135435/1030/1000/20/
043100/20121119/135448/1030/273/20/
043100/20121119/135536/1030/128/20/
043100/20121119/135555/1030/203/20/
043100/20121119/135557/1030/1001/20/
043100/20121119/135559/1030/1000/20/
043100/20121119/135601/1030/609/20/
043100/20121119/135611/1030/10053/20/
043100/20121119/135613/1030/966/20/
043100/20121119/135615/1030/603/20/
043100/20121119/135632/1030/4901/10/
043100/20121119/135755/1035/7903/20/
043100/20121119/135804/1035/1003/20/
043100/20121119/135809/1035/500/20/
043100/20121119/135818/1030/251/10/
043100/20121119/135829/1035/1002/20/
043100/20121119/135904/1035/510/20/
043100/20121119/135905/1030/100/10/
043100/20121119/135932/1035/84/20/
043100/20121119/140038/1035/97/20/
043100/20121119/140116/1035/540/20/
043100/20121119/140130/1035/224/20/
043100/20121119/140135/1035/257/20/
043100/20121119/140137/1035/1011/20/
043100/20121119/140145/1035/1033/20/
043100/20121119/140201/1035/248/20/
043100/20121119/140216/1035/314/20/
043100/20121119/140220/1035/891/20/
043100/20121119/140221/1035/3073/20/
043100/20121119/140223/1035/2022/10/
043100/20121119/140223/1035/3125/10/
043100/20121119/140237/1035/1023/20/
043100/20121119/140245/1035/1022/20/
043100/20121119/140250/1035/6330/20/
043100/20121119/140254/1035/125/10/
043100/20121119/140442/1030/18482/10/
043100/20121119/140501/1030/81/20/
043100/20121119/140502/1030/81/20/
043100/20121119/140502/1030/500/20/
043100/20121119/140506/1030/1055/20/
043100/20121119/140507/1030/1841/20/
043100/20121119/140510/1030/88/20/
043100/20121119/140510/1030/165/20/
043100/20121119/140534/1030/867/10/
043100/20121119/140543/1030/284/20/
043100/20121119/140549/1030/457/20/
043100/20121119/140607/1030/89/20/
043100/20121119/140608/1030/1046/20/
043100/20121119/140610/1030/111/20/
043100/20121119/140610/1030/160/20/
043100/20121119/140614/1030/2550/20/
043100/20121119/140619/1030/522/20/
043100/20121119/140649/1030/155/20/
043100/20121119/140652/1030/1021/20/
043100/20121119/140658/1030/85/20/
043100/20121119/140708/1030/254/20/
043100/20121119/140709/1030/111/20/
043100/20121119/140717/1030/892/20/
043100/20121119/140720/1030/2171/20/
043100/20121119/140725/1030/3396/10/
043100/20121119/140726/1030/490/20/
043100/20121119/140726/1035/1510/20/
043100/20121119/140729/1035/3004/20/
043100/20121119/140751/1030/4020/20/
043100/20121119/140754/1030/540/20/
043100/20121119/140813/1030/1006/20/
043100/20121119/140831/1030/507/20/
043100/20121119/140834/1030/9544/20/
043100/20121119/140838/1030/792/10/
043100/20121119/140841/1030/87/20/
043100/20121119/140845/1030/2862/20/
043100/20121119/140902/1025/3813/10/
043100/20121119/140925/1030/130/20/
043100/20121119/140938/1030/424/20/
043100/20121119/141139/1030/557/20/
043100/20121119/141151/1030/504/20/
043100/20121119/141216/1025/304/10/
043100/20121119/141235/1025/806/10/
043100/20121119/141249/1030/790/20/
043100/20121119/141315/1030/167/20/
043100/20121119/141343/1030/213/20/
043100/20121119/141354/1030/455/20/
043100/20121119/141412/1030/800/20/
043100/20121119/141420/1025/120/10/
043100/20121119/141454/1030/330/20/
043100/20121119/141518/1025/1423/10/
043100/20121119/141541/1030/122/20/
043100/20121119/141618/1030/970/20/
043100/20121119/141704/1030/639/20/
043100/20121119/141757/1030/8314/20/
043100/20121119/141821/1030/1016/20/
043100/20121119/141852/1030/1681/20/
043100/20121119/141859/1030/4174/20/
043100/20121119/141909/1030/204/20/
043100/20121119/141909/1030/1000/20/
043100/20121119/141911/1030/3435/20/
043100/20121119/141928/1030/1117/10/
043100/20121119/141931/1030/7120/10/
043100/20121119/141933/1030/211/20/
043100/20121119/141945/1030/81/20/
043100/20121119/142015/1025/2934/10/
043100/20121119/142019/1025/3000/10/
043100/20121119/142019/1025/1954/10/
043100/20121119/142026/1030/82/20/
043100/20121119/142027/1025/250/10/
043100/20121119/142129/1025/116/10/
043100/20121119/142131/1030/790/20/
043100/20121119/142143/1030/108/20/
043100/20121119/142151/1025/1000/10/
043100/20121119/142157/1025/1015/10/
043100/20121119/142205/1025/20019/10/
043100/20121119/142205/1025/2600/10/
043100/20121119/142208/1025/161/20/
043100/20121119/142222/1025/284/20/
043100/20121119/142223/1025/1000/20/
043100/20121119/142231/1025/1568/20/
043100/20121119/142251/1025/81/20/
043100/20121119/142255/1025/110/20/
043100/20121119/142259/1025/111/20/
043100/20121119/142303/1025/701/20/
043100/20121119/142313/1025/312/20/
043100/20121119/142319/1025/1132/20/
043100/20121119/142323/1025/1011/20/
043100/20121119/142328/1025/1032/20/
043100/20121119/142337/1025/322/20/
043100/20121119/142340/1025/5011/20/
043100/20121119/142342/1025/1011/20/
043100/20121119/142342/1025/642/20/
043100/20121119/142344/1025/422/20/
043100/20121119/142352/1025/154/20/
043100/20121119/142353/1025/6109/20/
043100/20121119/142359/1025/950/10/
043100/20121119/142402/1025/3331/10/
043100/20121119/142408/1025/3011/10/
043100/20121119/142408/1025/1767/10/
043100/20121119/142418/1025/1194/10/
043100/20121119/142432/1020/12337/10/
043100/20121119/142452/1020/11517/10/
043100/20121119/142458/1020/460/10/
043100/20121119/142513/1020/1044/10/
043100/20121119/142516/1025/88/20/
043100/20121119/142518/1020/20560/10/
043100/20121119/142519/1020/5674/10/
043100/20121119/142540/1020/1070/20/
043100/20121119/142543/1020/485/20/
043100/20121119/142546/1020/1030/20/
043100/20121119/142550/1020/1060/20/
043100/20121119/142551/1020/1835/20/
043100/20121119/142552/1020/500/20/
043100/20121119/142553/1020/500/20/
043100/20121119/142553/1020/1334/20/
043100/20121119/142553/1020/500/20/
043100/20121119/142554/1020/560/20/
043100/20121119/142554/1020/500/20/
043100/20121119/142555/1020/500/20/
043100/20121119/142555/1020/500/20/
043100/20121119/142556/1020/500/20/
043100/20121119/142558/1020/84/20/
043100/20121119/142558/1020/500/20/
043100/20121119/142600/1020/1000/20/
043100/20121119/142600/1020/3034/20/
043100/20121119/142628/1025/11034/20/
043100/20121119/142629/1020/1775/10/
043100/20121119/142643/1025/84/20/
043100/20121119/142654/1025/87/20/
043100/20121119/142710/1020/85/10/
043100/20121119/142711/1025/330/20/
043100/20121119/142715/1020/2066/10/
043100/20121119/142726/1025/83/20/
043100/20121119/142746/1020/458/10/
043100/20121119/142802/1025/86/20/
043100/20121119/142808/1025/3701/20/
043100/20121119/142813/1020/2141/10/
043100/20121119/142822/1025/86/20/
043100/20121119/142837/1020/7254/10/
043100/20121119/142844/1020/161/20/
043100/20121119/142846/1020/113/20/
043100/20121119/142853/1020/90/20/
043100/20121119/142901/1020/81/20/
043100/20121119/142901/1020/3000/20/
043100/20121119/142909/1020/89/20/
043100/20121119/142916/1015/2526/10/
043100/20121119/142926/1020/81/20/
043100/20121119/142939/1020/91/20/
043100/20121119/142948/1020/2026/20/
043100/20121119/142949/1020/100/20/
043100/20121119/142954/1020/899/20/
043100/20121119/143005/1020/1067/20/
043100/20121119/143020/1020/125/20/
043100/20121119/143026/1020/1003/20/
043100/20121119/143027/1020/1500/20/
043100/20121119/143028/1020/5000/20/
043100/20121119/143029/1020/1393/20/
043100/20121119/143053/1025/10364/20/
043100/20121119/143128/1025/155/10/
043100/20121119/143209/1020/1004/10/
043100/20121119/143236/1020/1505/10/
043100/20121119/143237/1020/500/10/
043100/20121119/143313/1020/15642/10/
043100/20121119/143337/1020/130/20/
043100/20121119/143338/1020/2001/20/
043100/20121119/143342/1015/506/10/
043100/20121119/143348/1020/505/20/
043100/20121119/143348/1020/1412/20/
043100/20121119/143427/1020/4778/20/
043100/20121119/143439/1020/10002/10/
043100/20121119/143523/1020/1912/10/
043100/20121119/143547/1025/806/20/
043100/20121119/143618/1020/3331/10/
043100/20121119/143646/1025/520/20/
043100/20121119/143734/1020/2005/10/
043100/20121119/143806/1025/1015/20/
043100/20121119/143812/1020/1053/10/
043100/20121119/143815/1025/881/20/
043100/20121119/143836/1025/3504/20/
043100/20121119/143848/1025/444/20/
043100/20121119/143902/1020/5069/10/
043100/20121119/143905/1020/420/10/
043100/20121119/143918/1020/5060/10/
043100/20121119/143922/1020/971/10/
043100/20121119/143932/1020/85/10/
043100/20121119/143935/1020/1701/10/
043100/20121119/143938/1020/4180/10/
043100/20121119/143939/1020/416/10/
043100/20121119/143949/1025/81/20/
043100/20121119/144000/1020/2060/10/
043100/20121119/144003/1020/1587/10/
043100/20121119/144006/1020/5004/10/
043100/20121119/144009/1020/3728/10/
043100/20121119/144010/1020/1349/10/
043100/20121119/144012/1020/1013/10/
043100/20121119/144016/1020/88/10/
043100/20121119/144029/1020/82/10/
043100/20121119/144055/1020/87/10/
043100/20121119/144108/1020/88/10/
043100/20121119/144200/1020/82/10/
043100/20121119/144203/1020/1011/10/
043100/20121119/144205/1020/2033/10/
043100/20121119/144214/1020/82/10/
043100/20121119/144236/1025/568/20/
043100/20121119/144245/1020/2007/10/
043100/20121119/144250/1020/2005/10/
043100/20121119/144255/1020/2007/10/
043100/20121119/144300/1020/2008/10/
043100/20121119/144305/1020/2005/10/
043100/20121119/144305/1025/201/20/
043100/20121119/144310/1020/2005/10/
043100/20121119/144315/1020/2004/10/
043100/20121119/144322/1025/21048/20/
043100/20121119/144325/1025/510/10/
043100/20121119/144331/1025/2933/10/
043100/20121119/144402/1025/81/20/
043100/20121119/144410/1025/4588/20/
043100/20121119/144412/1025/385/10/
043100/20121119/144412/1025/200/20/
043100/20121119/144422/1025/83/20/
043100/20121119/144439/1025/3150/20/
043100/20121119/144449/1025/101/10/
043100/20121119/144524/1025/1003/10/
043100/20121119/144533/1025/8686/10/
043100/20121119/144537/1025/317/20/
043100/20121119/144537/1025/684/10/
043100/20121119/144553/1025/105/20/
043100/20121119/144559/1025/666/20/
043100/20121119/144601/1025/401/10/
043100/20121119/144603/1025/2022/10/
043100/20121119/144606/1025/6682/10/
043100/20121119/144611/1025/234/10/
043100/20121119/144622/1020/200/10/
043100/20121119/144640/1025/1266/20/
043100/20121119/144644/1025/8839/10/
043100/20121119/144647/1025/1053/20/
043100/20121119/144652/1025/1886/10/
043100/20121119/144652/1020/13119/10/
043100/20121119/144713/1025/1021/10/
043100/20121119/144714/1025/9000/20/
043100/20121119/144730/1025/876/10/
043100/20121119/144730/1025/3000/10/
043100/20121119/144736/1025/4262/10/
043100/20121119/144741/1025/410/10/
043100/20121119/144743/1025/1002/10/
043100/20121119/144806/1025/2143/10/
043100/20121119/144811/1025/1810/10/
043100/20121119/144829/1025/13678/10/
043100/20121119/144835/1025/10014/20/
043100/20121119/144837/1020/5004/10/
043100/20121119/144840/1020/1009/10/
043100/20121119/144847/1020/1016/10/
043100/20121119/144854/1020/200/10/
043100/20121119/144920/1025/172/20/
043100/20121119/144946/1020/383/10/
043100/20121119/144956/1025/1018/20/
043100/20121119/144958/1020/3213/10/
043100/20121119/150000/1025/108855/10/
