043100/20121116/90000/1055/38557/10/
043100/20121116/90000/1055/451/10/
043100/20121116/90012/1060/1000/20/
043100/20121116/90019/1055/100/10/
043100/20121116/90021/1060/2636/20/
043100/20121116/90025/1060/2002/20/
043100/20121116/90033/1060/1000/20/
043100/20121116/90054/1065/3029/20/
043100/20121116/90103/1060/1430/10/
043100/20121116/90109/1065/1500/20/
043100/20121116/90121/1060/202/10/
043100/20121116/90126/1060/954/20/
043100/20121116/90147/1060/856/20/
043100/20121116/90206/1060/4450/10/
043100/20121116/90208/1060/2000/20/
043100/20121116/90240/1060/1014/20/
043100/20121116/90240/1060/1019/20/
043100/20121116/90240/1065/12862/20/
043100/20121116/90240/1065/1119/10/
043100/20121116/90343/1065/2010/10/
043100/20121116/90348/1065/2977/10/
043100/20121116/90405/1065/369/20/
043100/20121116/90412/1065/10760/20/
043100/20121116/90435/1065/1002/10/
043100/20121116/90435/1065/2240/10/
043100/20121116/90442/1065/202/20/
043100/20121116/90453/1065/874/20/
043100/20121116/90503/1065/565/10/
043100/20121116/90514/1065/850/20/
043100/20121116/90523/1065/2683/20/
043100/20121116/90523/1070/6317/20/
043100/20121116/90606/1070/1004/20/
043100/20121116/90609/1070/300/20/
043100/20121116/90623/1060/3000/10/
043100/20121116/90707/1065/3021/20/
043100/20121116/90715/1060/764/10/
043100/20121116/90716/1065/200/20/
043100/20121116/90721/1065/140/20/
043100/20121116/90723/1060/141/10/
043100/20121116/90737/1060/943/10/
043100/20121116/90747/1060/3050/10/
043100/20121116/90748/1060/100/10/
043100/20121116/90757/1060/1055/10/
043100/20121116/90810/1060/2000/10/
043100/20121116/90811/1060/1510/10/
043100/20121116/90811/1060/301/10/
043100/20121116/90814/1060/1000/10/
043100/20121116/90814/1060/447/10/
043100/20121116/90830/1060/4050/20/
043100/20121116/90836/1060/250/20/
043100/20121116/90844/1055/1000/10/
043100/20121116/90857/1060/109/20/
043100/20121116/90905/1060/2000/20/
043100/20121116/90909/1060/1000/20/
043100/20121116/90912/1060/500/20/
043100/20121116/90917/1055/1000/10/
043100/20121116/90936/1060/1924/20/
043100/20121116/90937/1060/2500/20/
043100/20121116/90940/1060/2000/20/
043100/20121116/91005/1060/127/20/
043100/20121116/91015/1060/744/10/
043100/20121116/91029/1060/1000/10/
043100/20121116/91131/1060/200/10/
043100/20121116/91140/1060/5500/10/
043100/20121116/91144/1060/2061/10/
043100/20121116/91145/1055/2616/10/
043100/20121116/91224/1060/1010/20/
043100/20121116/91242/1060/1000/20/
043100/20121116/91247/1060/1016/20/
043100/20121116/91248/1060/1000/20/
043100/20121116/91250/1060/349/20/
043100/20121116/91253/1060/1215/10/
043100/20121116/91316/1060/1000/10/
043100/20121116/91332/1065/10017/20/
043100/20121116/91403/1060/6490/10/
043100/20121116/91420/1060/105/20/
043100/20121116/91422/1060/84/20/
043100/20121116/91442/1060/8553/20/
043100/20121116/91444/1060/654/20/
043100/20121116/91515/1060/426/10/
043100/20121116/91536/1060/300/20/
043100/20121116/91601/1060/2000/20/
043100/20121116/91627/1060/2863/20/
043100/20121116/91635/1060/500/20/
043100/20121116/91647/1060/1073/20/
043100/20121116/91657/1055/550/10/
043100/20121116/91657/1060/116/20/
043100/20121116/91700/1060/100/20/
043100/20121116/91710/1060/350/20/
043100/20121116/91716/1060/1000/20/
043100/20121116/91721/1060/944/20/
043100/20121116/91740/1060/309/20/
043100/20121116/91817/1055/871/10/
043100/20121116/91827/1055/485/10/
043100/20121116/91840/1055/1301/10/
043100/20121116/91844/1055/15000/10/
043100/20121116/91844/1055/4721/10/
043100/20121116/91857/1050/500/10/
043100/20121116/91907/1050/3090/10/
043100/20121116/91940/1055/4887/20/
043100/20121116/92042/1060/236/20/
043100/20121116/92047/1055/1000/10/
043100/20121116/92054/1055/215/10/
043100/20121116/92118/1055/296/10/
043100/20121116/92126/1055/2795/10/
043100/20121116/92126/1050/205/10/
043100/20121116/92150/1055/101/20/
043100/20121116/92150/1055/711/20/
043100/20121116/92206/1055/1289/10/
043100/20121116/92224/1060/122/20/
043100/20121116/92243/1050/400/10/
043100/20121116/92338/1055/799/10/
043100/20121116/92344/1055/3248/10/
043100/20121116/92417/1050/13496/10/
043100/20121116/92417/1050/4595/10/
043100/20121116/92437/1045/889/10/
043100/20121116/92440/1055/100/20/
043100/20121116/92442/1045/1669/10/
043100/20121116/92453/1045/521/10/
043100/20121116/92459/1055/500/20/
043100/20121116/92503/1045/343/10/
043100/20121116/92505/1045/2784/10/
043100/20121116/92505/1040/18216/10/
043100/20121116/92505/1040/151/10/
043100/20121116/92505/1035/849/10/
043100/20121116/92509/1045/5000/10/
043100/20121116/92513/1035/350/10/
043100/20121116/92625/1040/1502/10/
043100/20121116/92625/1035/553/10/
043100/20121116/92640/1040/136/20/
043100/20121116/92703/1040/428/20/
043100/20121116/92717/1035/5159/10/
043100/20121116/92731/1030/13497/10/
043100/20121116/92737/1030/677/20/
043100/20121116/92741/1025/10000/10/
043100/20121116/92750/1025/1000/10/
043100/20121116/92755/1025/1000/10/
043100/20121116/92759/1025/4616/10/
043100/20121116/92801/1025/3000/10/
043100/20121116/92801/1025/904/10/
043100/20121116/92801/1020/1096/10/
043100/20121116/92808/1025/1000/10/
043100/20121116/92825/1025/952/10/
043100/20121116/92826/1025/2107/10/
043100/20121116/92828/1020/10000/10/
043100/20121116/92835/1025/5335/20/
043100/20121116/92835/1025/7072/20/
043100/20121116/92835/1020/2937/10/
043100/20121116/92850/1025/1126/20/
043100/20121116/92852/1025/1330/10/
043100/20121116/92852/1020/170/10/
043100/20121116/92933/1025/1641/10/
043100/20121116/92936/1025/500/10/
043100/20121116/92941/1025/90/10/
043100/20121116/92958/1025/754/10/
043100/20121116/93001/1025/2630/10/
043100/20121116/93008/1025/121/10/
043100/20121116/93019/1025/10054/10/
043100/20121116/93024/1025/2270/10/
043100/20121116/93031/1025/1001/10/
043100/20121116/93032/1030/450/20/
043100/20121116/93050/1030/614/20/
043100/20121116/93054/1030/1755/20/
043100/20121116/93059/1030/305/20/
043100/20121116/93105/1030/6242/20/
043100/20121116/93115/1030/1234/10/
043100/20121116/93120/1030/704/10/
043100/20121116/93144/1030/1530/10/
043100/20121116/93203/1030/2702/10/
043100/20121116/93203/1025/323/10/
043100/20121116/93205/1035/200/20/
043100/20121116/93235/1030/1363/20/
043100/20121116/93242/1035/501/20/
043100/20121116/93301/1035/1002/20/
043100/20121116/93318/1035/308/20/
043100/20121116/93345/1035/1000/20/
043100/20121116/93410/1030/529/10/
043100/20121116/93413/1030/1002/10/
043100/20121116/93440/1035/81/20/
043100/20121116/93454/1030/335/10/
043100/20121116/93456/1035/1000/20/
043100/20121116/93528/1035/84/20/
043100/20121116/93557/1035/565/20/
043100/20121116/93600/1035/140/20/
043100/20121116/93606/1035/4186/20/
043100/20121116/93610/1030/369/10/
043100/20121116/93621/1035/721/20/
043100/20121116/93655/1030/20016/10/
043100/20121116/93659/1030/338/10/
043100/20121116/93709/1025/1393/10/
043100/20121116/93716/1025/1025/10/
043100/20121116/93716/1025/11361/10/
043100/20121116/93721/1020/401/10/
043100/20121116/93732/1025/1021/20/
043100/20121116/93817/1020/10073/10/
043100/20121116/93817/1020/11911/10/
043100/20121116/93831/1015/501/10/
043100/20121116/93834/1020/2987/20/
043100/20121116/93836/1020/486/20/
043100/20121116/93838/1020/100/20/
043100/20121116/93848/1015/470/10/
043100/20121116/93850/1020/1819/20/
043100/20121116/93851/1015/8576/10/
043100/20121116/93858/1015/7136/10/
043100/20121116/93859/1015/6763/10/
043100/20121116/93901/1010/137/10/
043100/20121116/93903/1010/1206/10/
043100/20121116/93904/1015/261/10/
043100/20121116/93904/1010/18387/10/
043100/20121116/93906/1010/1600/10/
043100/20121116/93906/1010/114/10/
043100/20121116/93909/1010/186/20/
043100/20121116/93929/1015/265/20/
043100/20121116/93933/1015/397/10/
043100/20121116/93935/1015/2372/10/
043100/20121116/93939/1020/1370/20/
043100/20121116/93946/1015/150/20/
043100/20121116/93949/1015/240/20/
043100/20121116/93949/1015/1042/20/
043100/20121116/93958/1015/959/10/
043100/20121116/93958/1010/1042/10/
043100/20121116/94000/1010/2633/10/
043100/20121116/94003/1005/18000/10/
043100/20121116/94005/1005/5272/10/
043100/20121116/94008/1005/4827/20/
043100/20121116/94009/1005/5224/10/
043100/20121116/94011/1000/7903/10/
043100/20121116/94012/1000/950/10/
043100/20121116/94016/1005/1010/20/
043100/20121116/94019/1000/100/10/
043100/20121116/94020/1000/150/10/
043100/20121116/94021/1000/29581/10/
043100/20121116/94021/1000/24474/10/
043100/20121116/94023/999/1801/10/
043100/20121116/94023/1000/1000/20/
043100/20121116/94025/999/2000/10/
043100/20121116/94028/1000/1000/20/
043100/20121116/94028/999/12238/10/
043100/20121116/94029/999/1000/20/
043100/20121116/94032/999/510/20/
043100/20121116/94033/999/1000/20/
043100/20121116/94040/998/165/10/
043100/20121116/94040/997/945/10/
043100/20121116/94041/999/1779/20/
043100/20121116/94041/999/4221/10/
043100/20121116/94050/997/1205/10/
043100/20121116/94050/996/2063/10/
043100/20121116/94050/997/3000/10/
043100/20121116/94051/999/371/20/
043100/20121116/94051/1000/129/20/
043100/20121116/94052/997/10000/10/
043100/20121116/94053/995/1316/10/
043100/20121116/94054/995/1000/10/
043100/20121116/94055/995/600/10/
043100/20121116/94102/996/3021/10/
043100/20121116/94104/995/3018/10/
043100/20121116/94104/999/500/20/
043100/20121116/94108/996/5002/10/
043100/20121116/94111/996/1411/10/
043100/20121116/94111/995/22524/10/
043100/20121116/94116/995/4133/10/
043100/20121116/94121/997/1001/10/
043100/20121116/94121/996/100/10/
043100/20121116/94121/995/6954/10/
043100/20121116/94122/995/102/20/
043100/20121116/94123/995/920/20/
043100/20121116/94123/995/107/20/
043100/20121116/94124/995/112/20/
043100/20121116/94125/995/201/20/
043100/20121116/94125/995/514/20/
043100/20121116/94127/995/10005/10/
043100/20121116/94127/997/100/20/
043100/20121116/94132/997/105/20/
043100/20121116/94132/997/1000/20/
043100/20121116/94132/997/101/20/
043100/20121116/94141/998/97/20/
043100/20121116/94143/998/81/20/
043100/20121116/94144/998/1021/20/
043100/20121116/94146/998/127/20/
043100/20121116/94148/998/82/20/
043100/20121116/94149/998/125/20/
043100/20121116/94150/999/123/20/
043100/20121116/94150/999/100/20/
043100/20121116/94153/998/536/10/
043100/20121116/94155/997/115/10/
043100/20121116/94157/997/514/10/
043100/20121116/94158/998/1813/20/
043100/20121116/94205/998/88/20/
043100/20121116/94210/998/81/20/
043100/20121116/94216/998/1001/20/
043100/20121116/94218/997/180/10/
043100/20121116/94223/997/232/20/
043100/20121116/94223/998/529/20/
043100/20121116/94226/999/526/20/
043100/20121116/94226/998/1416/10/
043100/20121116/94227/996/154/10/
043100/20121116/94228/997/581/20/
043100/20121116/94230/997/950/10/
043100/20121116/94230/996/4560/10/
043100/20121116/94230/995/1592/10/
043100/20121116/94233/998/806/20/
043100/20121116/94233/999/198/20/
043100/20121116/94238/998/563/20/
043100/20121116/94241/996/1252/10/
043100/20121116/94245/998/83/20/
043100/20121116/94247/998/104/20/
043100/20121116/94249/996/4034/10/
043100/20121116/94249/995/992/10/
043100/20121116/94253/996/2075/10/
043100/20121116/94253/995/7958/10/
043100/20121116/94254/998/514/20/
043100/20121116/94255/998/102/20/
043100/20121116/94259/998/92/20/
043100/20121116/94306/997/145/10/
043100/20121116/94306/998/113/20/
043100/20121116/94313/997/744/10/
043100/20121116/94313/997/647/10/
043100/20121116/94324/997/2962/10/
043100/20121116/94324/996/6758/10/
043100/20121116/94324/998/100/20/
043100/20121116/94336/998/2381/20/
043100/20121116/94337/998/142/20/
043100/20121116/94337/999/2873/20/
043100/20121116/94349/1000/139/20/
043100/20121116/94354/1000/24515/20/
043100/20121116/94355/1000/200/20/
043100/20121116/94355/999/2155/10/
043100/20121116/94355/999/1002/20/
043100/20121116/94355/999/1649/20/
043100/20121116/94355/999/194/20/
043100/20121116/94355/1000/290/20/
043100/20121116/94355/1000/1607/20/
043100/20121116/94408/1000/3027/10/
043100/20121116/94409/1000/2010/10/
043100/20121116/94410/1005/100/20/
043100/20121116/94411/1000/1752/10/
043100/20121116/94420/1000/5015/10/
043100/20121116/94420/1000/287/10/
043100/20121116/94420/998/313/10/
043100/20121116/94431/1000/358/20/
043100/20121116/94434/1000/144/20/
043100/20121116/94438/1000/1046/20/
043100/20121116/94441/1000/279/20/
043100/20121116/94442/1000/112/20/
043100/20121116/94446/1000/5034/20/
043100/20121116/94446/1000/510/20/
043100/20121116/94449/1000/1064/20/
043100/20121116/94450/1000/2006/20/
043100/20121116/94452/1000/3711/10/
043100/20121116/94501/1000/5062/10/
043100/20121116/94503/1000/290/10/
043100/20121116/94504/1005/700/20/
043100/20121116/94509/1000/511/10/
043100/20121116/94510/1000/170/10/
043100/20121116/94512/1000/102/20/
043100/20121116/94515/1000/1728/20/
043100/20121116/94515/1000/2712/20/
043100/20121116/94519/1000/1758/10/
043100/20121116/94526/1000/6029/20/
043100/20121116/94526/1000/2217/20/
043100/20121116/94530/1000/1315/10/
043100/20121116/94544/1000/224/10/
043100/20121116/94545/1000/2410/10/
043100/20121116/94549/1005/511/20/
043100/20121116/94603/1005/81/20/
043100/20121116/94604/1005/9898/20/
043100/20121116/94611/1005/84/20/
043100/20121116/94613/1005/8332/20/
043100/20121116/94617/1005/2650/20/
043100/20121116/94617/1005/1769/20/
043100/20121116/94622/1005/420/20/
043100/20121116/94631/1005/220/20/
043100/20121116/94637/1005/5010/20/
043100/20121116/94640/1005/1694/20/
043100/20121116/94642/1005/337/10/
043100/20121116/94656/1000/1458/10/
043100/20121116/94717/1000/1270/10/
043100/20121116/94724/1000/1010/10/
043100/20121116/94802/1005/427/20/
043100/20121116/94820/1005/260/20/
043100/20121116/94822/1000/1337/10/
043100/20121116/94834/1005/293/20/
043100/20121116/94840/1005/100/20/
043100/20121116/94853/1005/100/20/
043100/20121116/94854/1005/3000/20/
043100/20121116/94859/1005/900/20/
043100/20121116/94900/1005/336/20/
043100/20121116/94901/1005/3835/20/
043100/20121116/94902/1005/3716/20/
043100/20121116/94903/1005/2000/20/
043100/20121116/94911/1005/3000/20/
043100/20121116/94913/1005/2000/20/
043100/20121116/94914/1005/500/20/
043100/20121116/94922/1005/515/20/
043100/20121116/94940/1005/717/20/
043100/20121116/94947/1000/1625/10/
043100/20121116/94955/1005/1041/20/
043100/20121116/95000/1005/300/20/
043100/20121116/95010/1005/524/20/
043100/20121116/95035/1000/469/10/
043100/20121116/95039/1000/481/10/
043100/20121116/95044/1000/1011/10/
043100/20121116/95055/1005/440/20/
043100/20121116/95103/1005/88/20/
043100/20121116/95105/1005/222/20/
043100/20121116/95114/1005/3279/20/
043100/20121116/95116/1005/2011/20/
043100/20121116/95117/1005/787/20/
043100/20121116/95136/1005/346/10/
043100/20121116/95143/1005/501/10/
043100/20121116/95200/1005/807/10/
043100/20121116/95214/1005/2280/10/
043100/20121116/95217/1005/505/10/
043100/20121116/95234/1010/6665/20/
043100/20121116/95237/1010/6580/20/
043100/20121116/95256/1015/1758/20/
043100/20121116/95308/1010/2502/10/
043100/20121116/95330/1015/2019/20/
043100/20121116/95334/1015/2083/20/
043100/20121116/95336/1015/1020/20/
043100/20121116/95351/1010/905/10/
043100/20121116/95402/1015/146/20/
043100/20121116/95422/1015/5077/20/
043100/20121116/95424/1015/100/20/
043100/20121116/95436/1015/4021/20/
043100/20121116/95443/1010/10014/10/
043100/20121116/95449/1010/590/10/
043100/20121116/95555/1010/950/20/
043100/20121116/95612/1010/1014/20/
043100/20121116/95624/1010/84/10/
043100/20121116/95631/1010/293/10/
043100/20121116/95632/1010/195/10/
043100/20121116/95634/1010/2002/10/
043100/20121116/95639/1010/120/10/
043100/20121116/95641/1010/1002/10/
043100/20121116/95726/1010/1731/10/
043100/20121116/95728/1010/1002/10/
043100/20121116/95730/1010/436/10/
043100/20121116/95817/1015/301/20/
043100/20121116/95852/1015/2016/20/
043100/20121116/95906/1015/116/20/
043100/20121116/95911/1015/500/20/
043100/20121116/95922/1010/820/10/
043100/20121116/95947/1015/188/20/
043100/20121116/95950/1015/300/20/
043100/20121116/95950/1015/100/20/
043100/20121116/100025/1010/273/10/
043100/20121116/100045/1015/702/20/
043100/20121116/100139/1015/1006/20/
043100/20121116/100141/1015/100/20/
043100/20121116/100145/1010/14500/10/
043100/20121116/100151/1010/103/10/
043100/20121116/100208/1010/1019/10/
043100/20121116/100217/1010/3007/10/
043100/20121116/100244/1015/116/20/
043100/20121116/100503/1015/4042/20/
043100/20121116/100515/1015/980/20/
043100/20121116/100524/1015/81/20/
043100/20121116/100534/1015/509/20/
043100/20121116/100541/1015/100/20/
043100/20121116/100542/1015/300/20/
043100/20121116/100544/1015/5529/20/
043100/20121116/100604/1020/501/20/
043100/20121116/100731/1020/8207/20/
043100/20121116/100736/1020/2450/20/
043100/20121116/100752/1020/689/20/
043100/20121116/100838/1020/2012/20/
043100/20121116/100847/1020/100/20/
043100/20121116/100920/1020/81/20/
043100/20121116/101116/1020/3051/20/
043100/20121116/101117/1020/736/20/
043100/20121116/101118/1020/1000/20/
043100/20121116/101126/1020/635/20/
043100/20121116/101133/1015/100/10/
043100/20121116/101217/1015/964/10/
043100/20121116/101300/1020/10008/20/
043100/20121116/101307/1015/1000/10/
043100/20121116/101342/1015/2002/10/
043100/20121116/101414/1020/1905/20/
043100/20121116/101420/1020/100/20/
043100/20121116/101422/1020/356/20/
043100/20121116/101427/1020/15000/20/
043100/20121116/101431/1020/402/20/
043100/20121116/101432/1020/1960/20/
043100/20121116/101441/1020/3213/20/
043100/20121116/101448/1020/5002/10/
043100/20121116/101501/1020/834/10/
043100/20121116/101514/1020/1190/20/
043100/20121116/101522/1025/107/20/
043100/20121116/101531/1020/1201/10/
043100/20121116/101531/1025/400/20/
043100/20121116/101554/1025/2441/20/
043100/20121116/101610/1025/9004/20/
043100/20121116/101618/1025/2440/20/
043100/20121116/101629/1025/2002/10/
043100/20121116/101630/1030/8000/20/
043100/20121116/101644/1025/2624/10/
043100/20121116/101711/1025/1037/20/
043100/20121116/101722/1025/10003/20/
043100/20121116/101753/1025/508/20/
043100/20121116/101832/1020/281/10/
043100/20121116/101836/1020/352/10/
043100/20121116/101930/1025/887/20/
043100/20121116/101935/1025/2000/20/
043100/20121116/101942/1025/503/20/
043100/20121116/102053/1025/117/20/
043100/20121116/102114/1020/749/10/
043100/20121116/102128/1025/276/20/
043100/20121116/102134/1020/10000/10/
043100/20121116/102136/1020/1172/10/
043100/20121116/102154/1020/828/20/
043100/20121116/102201/1020/4002/10/
043100/20121116/102203/1020/874/10/
043100/20121116/102211/1020/622/20/
043100/20121116/102221/1020/89/20/
043100/20121116/102223/1020/2002/20/
043100/20121116/102225/1020/413/20/
043100/20121116/102248/1020/81/10/
043100/20121116/102251/1020/89/10/
043100/20121116/102308/1020/88/10/
043100/20121116/102322/1020/4046/10/
043100/20121116/102329/1020/1828/10/
043100/20121116/102335/1020/341/10/
043100/20121116/102427/1015/448/10/
043100/20121116/102431/1020/9769/20/
043100/20121116/102433/1020/1005/10/
043100/20121116/102446/1020/112/10/
043100/20121116/102511/1025/2001/20/
043100/20121116/102558/1020/508/10/
043100/20121116/102633/1025/761/20/
043100/20121116/102637/1025/847/20/
043100/20121116/102706/1025/2297/20/
043100/20121116/102740/1020/8666/10/
043100/20121116/102802/1015/3013/10/
043100/20121116/102845/1020/3004/20/
043100/20121116/102846/1020/3000/20/
043100/20121116/102847/1020/4703/20/
043100/20121116/102904/1025/2042/20/
043100/20121116/102906/1025/663/20/
043100/20121116/102906/1025/500/20/
043100/20121116/102915/1025/400/10/
043100/20121116/102916/1025/2000/10/
043100/20121116/102926/1025/3131/10/
043100/20121116/102928/1025/700/10/
043100/20121116/103006/1025/110/20/
043100/20121116/103015/1025/5000/20/
043100/20121116/103022/1025/4000/20/
043100/20121116/103037/1025/184/20/
043100/20121116/103134/1025/1200/20/
043100/20121116/103159/1025/1000/20/
043100/20121116/103309/1020/1902/10/
043100/20121116/103326/1025/300/20/
043100/20121116/103348/1020/20010/10/
043100/20121116/103350/1020/3000/10/
043100/20121116/103350/1020/663/10/
043100/20121116/103350/1020/5000/10/
043100/20121116/103350/1020/1960/10/
043100/20121116/103352/1020/5783/10/
043100/20121116/103352/1020/2000/10/
043100/20121116/103353/1020/10090/10/
043100/20121116/103407/1020/156/20/
043100/20121116/103441/1020/1000/20/
043100/20121116/103504/1020/8625/20/
043100/20121116/103508/1020/156/20/
043100/20121116/103539/1020/3364/20/
043100/20121116/103555/1025/82/20/
043100/20121116/103556/1020/300/10/
043100/20121116/103601/1020/535/10/
043100/20121116/103614/1020/564/20/
043100/20121116/103637/1020/88/10/
043100/20121116/103648/1020/101/10/
043100/20121116/103659/1020/937/10/
043100/20121116/103703/1025/38133/20/
043100/20121116/103712/1025/654/10/
043100/20121116/103722/1025/215/10/
043100/20121116/103759/1030/7891/20/
043100/20121116/103801/1030/653/20/
043100/20121116/103804/1030/3441/20/
043100/20121116/103922/1030/1043/10/
043100/20121116/103933/1030/1000/10/
043100/20121116/103937/1030/2000/10/
043100/20121116/103939/1030/2934/10/
043100/20121116/103941/1030/1533/10/
043100/20121116/103941/1035/3700/20/
043100/20121116/103942/1030/2000/10/
043100/20121116/103942/1030/1182/10/
043100/20121116/103957/1025/500/10/
043100/20121116/103959/1025/634/10/
043100/20121116/104023/1030/1151/20/
043100/20121116/104026/1030/5000/20/
043100/20121116/104028/1030/3612/20/
043100/20121116/104039/1030/1014/20/
043100/20121116/104041/1030/120/10/
043100/20121116/104045/1030/8331/10/
043100/20121116/104047/1030/5563/20/
043100/20121116/104051/1030/180/10/
043100/20121116/104052/1030/100/10/
043100/20121116/104112/1030/528/10/
043100/20121116/104112/1035/4276/20/
043100/20121116/104114/1035/10000/20/
043100/20121116/104114/1035/20000/20/
043100/20121116/104114/1035/4574/20/
043100/20121116/104144/1040/6077/20/
043100/20121116/104232/1040/5026/20/
043100/20121116/104239/1040/2000/20/
043100/20121116/104251/1040/105/20/
043100/20121116/104302/1035/911/10/
043100/20121116/104311/1030/500/10/
043100/20121116/104315/1030/4276/10/
043100/20121116/104317/1030/944/10/
043100/20121116/104350/1025/8067/10/
043100/20121116/104408/1025/654/10/
043100/20121116/104409/1025/1396/10/
043100/20121116/104420/1025/1224/20/
043100/20121116/104421/1025/2001/20/
043100/20121116/104426/1025/2001/20/
043100/20121116/104500/1025/2304/20/
043100/20121116/104505/1020/7889/10/
043100/20121116/104512/1020/3644/10/
043100/20121116/104517/1020/245/10/
043100/20121116/104549/1020/1242/10/
043100/20121116/104605/1015/101/10/
043100/20121116/104622/1020/88/20/
043100/20121116/104705/1015/2304/10/
043100/20121116/104836/1015/2001/10/
043100/20121116/104842/1015/11207/10/
043100/20121116/104842/1010/6566/10/
043100/20121116/104909/1010/14964/10/
043100/20121116/104913/1010/100/20/
043100/20121116/105007/1015/128/20/
043100/20121116/105009/1015/503/20/
043100/20121116/105019/1015/88/10/
043100/20121116/105035/1015/123/10/
043100/20121116/105114/1010/3546/10/
043100/20121116/105118/1010/7000/10/
043100/20121116/105204/1010/1000/10/
043100/20121116/105216/1010/4003/10/
043100/20121116/105228/1010/4584/10/
043100/20121116/105230/1010/2950/10/
043100/20121116/105239/1010/1858/10/
043100/20121116/105240/1010/100/20/
043100/20121116/105248/1005/4001/10/
043100/20121116/105310/1010/3069/10/
043100/20121116/105333/1010/2110/10/
043100/20121116/105424/1015/84/20/
043100/20121116/105435/1010/4020/10/
043100/20121116/105503/1010/1001/10/
043100/20121116/105542/1015/84/20/
043100/20121116/105621/1015/1020/20/
043100/20121116/105637/1015/850/20/
043100/20121116/105639/1015/11700/20/
043100/20121116/105639/1015/16409/20/
043100/20121116/105806/1020/405/20/
043100/20121116/105855/1015/3000/10/
043100/20121116/105904/1015/400/10/
043100/20121116/110006/1015/500/10/
043100/20121116/110054/1015/6001/10/
043100/20121116/110057/1015/2000/10/
043100/20121116/110103/1020/101/20/
043100/20121116/110121/1020/200/20/
043100/20121116/110134/1015/2000/10/
043100/20121116/110209/1015/100/20/
043100/20121116/110233/1010/815/10/
043100/20121116/110235/1015/4022/20/
043100/20121116/110235/1020/978/20/
043100/20121116/110246/1020/195/20/
043100/20121116/110321/1015/810/20/
043100/20121116/110357/1015/214/10/
043100/20121116/110402/1015/460/10/
043100/20121116/110422/1015/3940/10/
043100/20121116/110451/1015/516/10/
043100/20121116/110558/1010/17659/10/
043100/20121116/110603/1010/1018/10/
043100/20121116/110605/1010/2000/10/
043100/20121116/110637/1010/1050/10/
043100/20121116/110710/1010/1500/10/
043100/20121116/110717/1010/100/10/
043100/20121116/110737/1015/1002/20/
043100/20121116/110759/1015/1000/20/
043100/20121116/110803/1015/500/20/
043100/20121116/110823/1015/2390/20/
043100/20121116/110847/1015/1057/20/
043100/20121116/110850/1010/1000/10/
043100/20121116/110926/1010/110/10/
043100/20121116/110935/1010/100/10/
043100/20121116/110939/1015/7883/20/
043100/20121116/110944/1015/100/10/
043100/20121116/110945/1020/1352/20/
043100/20121116/110947/1015/382/10/
043100/20121116/110949/1015/1738/10/
043100/20121116/111017/1020/35507/20/
043100/20121116/111035/1025/2201/20/
043100/20121116/111036/1025/7645/20/
043100/20121116/111036/1025/2742/20/
043100/20121116/111053/1025/2010/20/
043100/20121116/111100/1025/1352/10/
043100/20121116/111141/1025/5300/10/
043100/20121116/111207/1020/502/10/
043100/20121116/111222/1020/234/20/
043100/20121116/111240/1020/305/20/
043100/20121116/111307/1020/101/10/
043100/20121116/111320/1025/6660/20/
043100/20121116/111325/1025/110/20/
043100/20121116/111336/1020/653/10/
043100/20121116/111428/1025/727/20/
043100/20121116/111442/1025/4898/20/
043100/20121116/111444/1025/86/20/
043100/20121116/111453/1025/105/20/
043100/20121116/111536/1025/240/20/
043100/20121116/111554/1020/529/10/
043100/20121116/111701/1025/2831/20/
043100/20121116/111709/1025/1094/20/
043100/20121116/111710/1025/2036/10/
043100/20121116/111711/1025/874/10/
043100/20121116/111750/1025/1111/20/
043100/20121116/111808/1025/1012/20/
043100/20121116/111820/1020/210/10/
043100/20121116/111912/1020/561/10/
043100/20121116/111932/1020/250/10/
043100/20121116/111949/1020/5000/10/
043100/20121116/111957/1020/1249/10/
043100/20121116/112154/1020/1020/10/
043100/20121116/112157/1020/1000/10/
043100/20121116/112209/1020/100/10/
043100/20121116/112214/1020/100/10/
043100/20121116/112216/1025/1000/20/
043100/20121116/112321/1020/374/10/
043100/20121116/112332/1020/975/10/
043100/20121116/112339/1020/993/10/
043100/20121116/112359/1020/307/10/
043100/20121116/112427/1025/1010/20/
043100/20121116/112613/1020/2799/10/
043100/20121116/112737/1020/4948/20/
043100/20121116/112746/1020/123/10/
043100/20121116/112755/1020/1000/20/
043100/20121116/112800/1020/452/20/
043100/20121116/112836/1020/430/20/
043100/20121116/112933/1020/1007/10/
043100/20121116/112940/1020/605/10/
043100/20121116/112956/1020/245/20/
043100/20121116/113017/1020/100/10/
043100/20121116/113025/1020/100/10/
043100/20121116/113026/1020/510/10/
043100/20121116/113035/1020/320/20/
043100/20121116/113210/1020/2151/10/
043100/20121116/113254/1025/4001/20/
043100/20121116/113326/1025/392/20/
043100/20121116/113550/1025/580/20/
043100/20121116/113603/1020/1020/10/
043100/20121116/113644/1020/400/10/
043100/20121116/113824/1025/5982/20/
043100/20121116/113906/1025/111/20/
043100/20121116/113948/1025/500/20/
043100/20121116/114030/1025/2020/20/
043100/20121116/114145/1025/390/20/
043100/20121116/114200/1025/900/20/
043100/20121116/114212/1025/521/20/
043100/20121116/114300/1025/200/20/
043100/20121116/114315/1020/600/10/
043100/20121116/114435/1025/1000/20/
043100/20121116/114513/1025/450/20/
043100/20121116/114518/1025/271/20/
043100/20121116/114532/1020/1232/10/
043100/20121116/114550/1020/1000/10/
043100/20121116/114641/1020/420/10/
043100/20121116/114806/1020/517/10/
043100/20121116/114820/1020/811/10/
043100/20121116/114906/1020/1000/10/
043100/20121116/114917/1020/1500/10/
043100/20121116/115032/1025/160/20/
043100/20121116/115036/1025/100/20/
043100/20121116/115041/1025/100/20/
043100/20121116/115049/1025/110/20/
043100/20121116/115051/1025/100/20/
043100/20121116/115055/1025/100/20/
043100/20121116/115103/1025/100/20/
043100/20121116/115107/1025/100/20/
043100/20121116/115112/1025/100/20/
043100/20121116/115116/1025/100/20/
043100/20121116/115125/1025/100/20/
043100/20121116/115129/1025/100/20/
043100/20121116/115140/1025/111/20/
043100/20121116/115146/1025/100/20/
043100/20121116/115150/1025/100/20/
043100/20121116/115218/1020/7628/10/
043100/20121116/115253/1025/84/20/
043100/20121116/115321/1025/160/20/
043100/20121116/115328/1025/100/20/
043100/20121116/115333/1025/100/20/
043100/20121116/115338/1025/100/20/
043100/20121116/115405/1025/152/20/
043100/20121116/115420/1025/222/20/
043100/20121116/115424/1025/111/20/
043100/20121116/115438/1025/233/20/
043100/20121116/115440/1025/320/20/
043100/20121116/115457/1025/2046/20/
043100/20121116/115502/1025/222/20/
043100/20121116/115531/1025/268/20/
043100/20121116/115602/1025/88/20/
043100/20121116/115604/1025/2000/20/
043100/20121116/115618/1025/243/20/
043100/20121116/115658/1020/7577/10/
043100/20121116/115724/1025/88/20/
043100/20121116/120021/1020/1072/10/
043100/20121116/120127/1025/109/20/
043100/20121116/120157/1025/150/20/
043100/20121116/120202/1025/89/20/
043100/20121116/120207/1025/89/20/
043100/20121116/120216/1025/89/20/
043100/20121116/120221/1025/89/20/
043100/20121116/120226/1025/89/20/
043100/20121116/120232/1025/89/20/
043100/20121116/120232/1025/500/20/
043100/20121116/120237/1025/89/20/
043100/20121116/120243/1025/89/20/
043100/20121116/120248/1025/89/20/
043100/20121116/120253/1025/89/20/
043100/20121116/120258/1025/89/20/
043100/20121116/120259/1025/200/20/
043100/20121116/120300/1025/200/20/
043100/20121116/120303/1025/89/20/
043100/20121116/120308/1025/89/20/
043100/20121116/120309/1020/500/10/
043100/20121116/120322/1025/89/20/
043100/20121116/120327/1025/89/20/
043100/20121116/120333/1025/111/20/
043100/20121116/120341/1025/89/20/
043100/20121116/120400/1025/89/20/
043100/20121116/120408/1025/85/20/
043100/20121116/120414/1025/85/20/
043100/20121116/120420/1025/85/20/
043100/20121116/120426/1025/85/20/
043100/20121116/120432/1025/85/20/
043100/20121116/120438/1025/85/20/
043100/20121116/120444/1025/85/20/
043100/20121116/120450/1025/85/20/
043100/20121116/120457/1025/85/20/
043100/20121116/120502/1025/85/20/
043100/20121116/120509/1025/85/20/
043100/20121116/120515/1025/85/20/
043100/20121116/120549/1025/85/20/
043100/20121116/120619/1020/8960/10/
043100/20121116/120630/1020/2010/10/
043100/20121116/120720/1020/4733/10/
043100/20121116/120721/1020/100/20/
043100/20121116/120721/1020/1148/20/
043100/20121116/120737/1020/966/10/
043100/20121116/120804/1020/2000/20/
043100/20121116/120830/1020/89/20/
043100/20121116/120832/1020/701/20/
043100/20121116/120834/1020/89/20/
043100/20121116/120839/1020/200/20/
043100/20121116/120841/1020/89/20/
043100/20121116/120848/1020/85/20/
043100/20121116/120853/1020/3003/20/
043100/20121116/120902/1025/85/20/
043100/20121116/120906/1025/85/20/
043100/20121116/120912/1025/85/20/
043100/20121116/120954/1025/88/20/
043100/20121116/121049/1025/88/20/
043100/20121116/121112/1020/2025/10/
043100/20121116/121157/1020/1581/10/
043100/20121116/121200/1025/207/20/
043100/20121116/121216/1020/112/10/
043100/20121116/121232/1020/2016/10/
043100/20121116/121409/1020/1277/10/
043100/20121116/121409/1015/681/10/
043100/20121116/121542/1025/125/20/
043100/20121116/121620/1020/1062/10/
043100/20121116/121641/1020/117/10/
043100/20121116/121710/1020/84/20/
043100/20121116/121802/1025/89/20/
043100/20121116/121840/1025/81/20/
043100/20121116/121909/1020/498/10/
043100/20121116/121941/1025/550/20/
043100/20121116/122016/1025/86/20/
043100/20121116/122052/1025/88/20/
043100/20121116/122118/1025/94/20/
043100/20121116/122142/1025/82/20/
043100/20121116/122200/1025/167/20/
043100/20121116/122356/1020/165/10/
043100/20121116/122426/1020/100/10/
043100/20121116/122525/1020/244/10/
043100/20121116/122525/1020/798/10/
043100/20121116/122632/1015/1003/10/
043100/20121116/122633/1015/2040/10/
043100/20121116/122636/1015/1862/10/
043100/20121116/122713/1015/500/10/
043100/20121116/122720/1015/3010/10/
043100/20121116/122734/1015/2934/10/
043100/20121116/122734/1010/8076/10/
043100/20121116/122822/1010/1160/10/
043100/20121116/122844/1015/100/20/
043100/20121116/122851/1010/370/10/
043100/20121116/122931/1015/180/20/
043100/20121116/122939/1015/480/20/
043100/20121116/122946/1010/1020/10/
043100/20121116/123029/1015/90/20/
043100/20121116/123032/1010/500/10/
043100/20121116/123059/1015/260/20/
043100/20121116/123107/1010/510/10/
043100/20121116/123124/1015/100/20/
043100/20121116/123132/1015/901/20/
043100/20121116/123134/1015/100/20/
043100/20121116/123139/1015/100/20/
043100/20121116/123148/1015/100/20/
043100/20121116/123152/1015/100/20/
043100/20121116/123157/1015/103/20/
043100/20121116/123202/1015/101/20/
043100/20121116/123208/1015/100/20/
043100/20121116/123223/1010/6049/10/
043100/20121116/123225/1015/100/20/
043100/20121116/123231/1010/2000/10/
043100/20121116/123232/1010/21942/10/
043100/20121116/123240/1010/2011/20/
043100/20121116/123241/1010/500/20/
043100/20121116/123304/1010/133/20/
043100/20121116/123307/1010/320/20/
043100/20121116/123313/1010/111/20/
043100/20121116/123323/1010/131/20/
043100/20121116/123328/1010/100/20/
043100/20121116/123329/1010/100/20/
043100/20121116/123334/1010/100/20/
043100/20121116/123338/1010/120/20/
043100/20121116/123343/1010/100/20/
043100/20121116/123344/1010/1180/20/
043100/20121116/123400/1010/4857/10/
043100/20121116/123405/1010/3155/20/
043100/20121116/123409/1015/100/20/
043100/20121116/123423/1015/1000/20/
043100/20121116/123502/1010/260/10/
043100/20121116/123524/1010/2070/10/
043100/20121116/123525/1010/150/10/
043100/20121116/123527/1010/6635/10/
043100/20121116/123527/1005/1365/10/
043100/20121116/123533/1005/111/10/
043100/20121116/123558/1010/1065/10/
043100/20121116/123610/1010/4834/10/
043100/20121116/123612/1010/1347/10/
043100/20121116/123622/1010/100/20/
043100/20121116/123637/1010/111/20/
043100/20121116/123725/1010/2007/20/
043100/20121116/123741/1010/3948/20/
043100/20121116/123830/1010/566/10/
043100/20121116/123915/1010/5000/20/
043100/20121116/123915/1005/150/10/
043100/20121116/123919/1010/4632/20/
043100/20121116/123931/1010/101/20/
043100/20121116/124006/1005/486/10/
043100/20121116/124046/1010/7001/20/
043100/20121116/124049/1010/1000/20/
043100/20121116/124053/1005/92/10/
043100/20121116/124151/1010/1001/20/
043100/20121116/124157/1010/1038/20/
043100/20121116/124241/1010/427/20/
043100/20121116/124251/1010/6271/10/
043100/20121116/124251/1005/28729/10/
043100/20121116/124310/1010/1360/20/
043100/20121116/124318/1010/238/10/
043100/20121116/124330/1010/236/10/
043100/20121116/124332/1010/3101/10/
043100/20121116/124332/1005/1450/10/
043100/20121116/124333/1010/809/20/
043100/20121116/124338/1010/701/20/
043100/20121116/124349/1010/1061/20/
043100/20121116/124354/1010/1501/20/
043100/20121116/124418/1010/1012/20/
043100/20121116/124426/1010/100/20/
043100/20121116/124456/1010/277/20/
043100/20121116/124505/1010/693/20/
043100/20121116/124508/1010/418/20/
043100/20121116/124511/1010/2001/20/
043100/20121116/124516/1010/101/20/
043100/20121116/124521/1010/102/20/
043100/20121116/124600/1010/1062/20/
043100/20121116/124643/1010/108/20/
043100/20121116/124705/1010/475/20/
043100/20121116/124717/1010/304/20/
043100/20121116/124724/1010/1002/20/
043100/20121116/124727/1010/501/20/
043100/20121116/124748/1005/5776/10/
043100/20121116/124846/1005/164/10/
043100/20121116/124858/1010/3000/20/
043100/20121116/124912/1010/211/20/
043100/20121116/124913/1005/9491/10/
043100/20121116/124920/1005/41901/10/
043100/20121116/124920/1005/13866/10/
043100/20121116/124921/1010/1000/20/
043100/20121116/125040/1005/460/10/
043100/20121116/125111/1005/1000/10/
043100/20121116/125120/1005/220/10/
043100/20121116/125123/1005/1233/10/
043100/20121116/125128/1005/1955/10/
043100/20121116/125302/1005/96/10/
043100/20121116/125333/1005/3000/10/
043100/20121116/125335/1005/412/10/
043100/20121116/125346/1005/2480/20/
043100/20121116/125351/1005/1920/20/
043100/20121116/125411/1005/91/10/
043100/20121116/125417/1000/17000/10/
043100/20121116/125420/1000/30000/10/
043100/20121116/125423/1000/16765/10/
043100/20121116/125423/1000/6403/10/
043100/20121116/125424/1000/1600/10/
043100/20121116/125441/1000/16530/10/
043100/20121116/125441/1005/1348/20/
043100/20121116/125506/1000/12502/10/
043100/20121116/125510/1000/5000/10/
043100/20121116/125510/1000/6433/10/
043100/20121116/125515/1000/355/10/
043100/20121116/125536/1000/981/10/
043100/20121116/125552/1000/1002/10/
043100/20121116/125610/1005/1023/20/
043100/20121116/125610/1005/1000/20/
043100/20121116/125617/1000/5202/10/
043100/20121116/125630/1000/501/10/
043100/20121116/125726/1005/502/20/
043100/20121116/125742/1000/940/10/
043100/20121116/125749/1000/5441/10/
043100/20121116/125756/1000/4012/10/
043100/20121116/125807/1000/3039/10/
043100/20121116/125843/1000/512/10/
043100/20121116/125858/1005/310/20/
043100/20121116/125907/1005/100/20/
043100/20121116/130006/1005/108/20/
043100/20121116/130036/1005/100/20/
043100/20121116/130059/1005/100/20/
043100/20121116/130145/1005/2026/20/
043100/20121116/130146/1000/500/10/
043100/20121116/130148/1000/3443/10/
043100/20121116/130223/1000/1051/10/
043100/20121116/130229/1005/501/20/
043100/20121116/130318/1000/10010/10/
043100/20121116/130325/1000/1525/10/
043100/20121116/130332/1000/81/10/
043100/20121116/130416/1000/10661/10/
043100/20121116/130431/1000/340/20/
043100/20121116/130432/1000/165/10/
043100/20121116/130444/1000/853/20/
043100/20121116/130445/1000/3756/20/
043100/20121116/130446/1000/500/20/
043100/20121116/130510/1000/340/20/
043100/20121116/130526/1000/5621/10/
043100/20121116/130540/1000/387/20/
043100/20121116/130601/1000/3226/10/
043100/20121116/130609/1000/6280/20/
043100/20121116/130612/1000/500/20/
043100/20121116/130619/1000/1000/20/
043100/20121116/130623/1000/1000/20/
043100/20121116/130640/1000/2016/10/
043100/20121116/130644/1000/1270/20/
043100/20121116/130653/1000/2001/20/
043100/20121116/130700/1000/153/20/
043100/20121116/130702/1000/227/20/
043100/20121116/130704/1000/959/20/
043100/20121116/130723/1000/1402/20/
043100/20121116/130737/1000/5230/20/
043100/20121116/130739/1000/200/10/
043100/20121116/130824/1005/933/20/
043100/20121116/130828/1000/200/10/
043100/20121116/130858/1000/501/10/
043100/20121116/130900/1005/100/20/
043100/20121116/130928/1005/21766/20/
043100/20121116/131007/1005/2303/10/
043100/20121116/131008/1005/2000/10/
043100/20121116/131011/1005/3933/10/
043100/20121116/131101/1005/304/20/
043100/20121116/131109/1005/1921/20/
043100/20121116/131144/1005/101/10/
043100/20121116/131145/1005/7985/10/
043100/20121116/131145/1005/100/20/
043100/20121116/131146/1000/4000/10/
043100/20121116/131244/1000/110/10/
043100/20121116/131257/1005/5355/20/
043100/20121116/131304/1005/4647/10/
043100/20121116/131312/1005/100/20/
043100/20121116/131402/1005/5254/20/
043100/20121116/131402/1005/1000/10/
043100/20121116/131424/1005/101/10/
043100/20121116/131451/1005/5001/10/
043100/20121116/131458/1005/101/10/
043100/20121116/131514/1005/581/10/
043100/20121116/131543/1010/451/20/
043100/20121116/131647/1005/1601/10/
043100/20121116/131705/1010/420/20/
043100/20121116/131811/1005/2001/10/
043100/20121116/131834/1005/1011/10/
043100/20121116/131849/1005/16995/10/
043100/20121116/131900/1005/4200/20/
043100/20121116/131900/1010/800/20/
043100/20121116/131913/1005/300/20/
043100/20121116/131927/1005/8760/20/
043100/20121116/132052/1000/6853/10/
043100/20121116/132102/1005/5276/20/
043100/20121116/132147/1005/1412/10/
043100/20121116/132214/1000/7070/10/
043100/20121116/132243/1000/100/20/
043100/20121116/132300/999/100/10/
043100/20121116/132312/999/501/10/
043100/20121116/132312/1000/1000/20/
043100/20121116/132321/999/11684/10/
043100/20121116/132323/1000/251/20/
043100/20121116/132337/1000/422/20/
043100/20121116/132340/1000/1000/20/
043100/20121116/132412/1000/88/20/
043100/20121116/132419/1000/297/20/
043100/20121116/132424/1000/5050/20/
043100/20121116/132426/1000/322/20/
043100/20121116/132443/1000/1036/10/
043100/20121116/132444/1000/500/10/
043100/20121116/132449/1000/236/10/
043100/20121116/132456/1000/81/20/
043100/20121116/132501/1000/500/20/
043100/20121116/132510/999/1348/10/
043100/20121116/132515/1000/7219/20/
043100/20121116/132543/1000/237/20/
043100/20121116/132547/999/15750/10/
043100/20121116/132550/999/150/20/
043100/20121116/132552/999/101/20/
043100/20121116/132618/998/251/10/
043100/20121116/132623/999/2188/20/
043100/20121116/132624/999/214/10/
043100/20121116/132624/998/1285/10/
043100/20121116/132628/999/298/10/
043100/20121116/132628/998/203/10/
043100/20121116/132633/998/13409/10/
043100/20121116/132638/999/501/10/
043100/20121116/132638/998/1300/10/
043100/20121116/132719/999/1002/20/
043100/20121116/132728/998/200/10/
043100/20121116/132729/998/1455/10/
043100/20121116/132729/997/823/10/
043100/20121116/132735/999/1200/20/
043100/20121116/132739/999/1000/10/
043100/20121116/132741/999/2901/10/
043100/20121116/132749/997/5020/10/
043100/20121116/132806/998/301/10/
043100/20121116/132821/997/111/10/
043100/20121116/132821/998/297/20/
043100/20121116/132826/998/110/20/
043100/20121116/132830/998/178/20/
043100/20121116/132833/998/515/20/
043100/20121116/132835/998/100/20/
043100/20121116/132837/998/1000/20/
043100/20121116/132837/997/200/10/
043100/20121116/132842/998/288/20/
043100/20121116/132845/998/3713/10/
043100/20121116/132845/997/159/10/
043100/20121116/132925/999/94/20/
043100/20121116/132935/998/92/20/
043100/20121116/132939/998/110/20/
043100/20121116/132946/999/2000/20/
043100/20121116/132953/999/500/20/
043100/20121116/133016/999/251/10/
043100/20121116/133017/999/794/20/
043100/20121116/133021/999/5001/10/
043100/20121116/133102/1000/401/20/
043100/20121116/133116/1000/300/20/
043100/20121116/133122/999/216/10/
043100/20121116/133127/1000/303/20/
043100/20121116/133153/999/101/10/
043100/20121116/133153/999/5000/10/
043100/20121116/133218/999/1001/10/
043100/20121116/133255/1000/1014/20/
043100/20121116/133301/1000/1010/20/
043100/20121116/133302/1000/3000/20/
043100/20121116/133304/1000/932/20/
043100/20121116/133304/1000/500/20/
043100/20121116/133305/1000/1128/20/
043100/20121116/133323/1000/3882/10/
043100/20121116/133353/999/555/10/
043100/20121116/133436/999/501/10/
043100/20121116/133508/999/461/10/
043100/20121116/133508/999/93/10/
043100/20121116/133514/1000/207/20/
043100/20121116/133519/1000/4235/20/
043100/20121116/133551/999/10000/10/
043100/20121116/133552/999/496/10/
043100/20121116/133552/998/7431/10/
043100/20121116/133619/1000/22065/20/
043100/20121116/133652/1000/2001/10/
043100/20121116/133658/1000/5020/10/
043100/20121116/133713/999/500/10/
043100/20121116/133714/1000/300/20/
043100/20121116/133733/1000/1146/20/
043100/20121116/133817/1000/950/20/
043100/20121116/133824/1000/2000/20/
043100/20121116/133845/999/107/10/
043100/20121116/133847/999/2134/10/
043100/20121116/133852/998/2342/10/
043100/20121116/133945/999/891/20/
043100/20121116/133949/999/1981/10/
043100/20121116/134041/1000/124/20/
043100/20121116/134046/1000/200/20/
043100/20121116/134054/999/3664/10/
043100/20121116/134115/999/230/10/
043100/20121116/134136/999/3151/10/
043100/20121116/134136/998/350/10/
043100/20121116/134231/999/651/20/
043100/20121116/134258/999/214/10/
043100/20121116/134328/998/4001/10/
043100/20121116/134342/998/1501/10/
043100/20121116/134356/998/7320/10/
043100/20121116/134401/997/7722/10/
043100/20121116/134427/1000/1001/20/
043100/20121116/134451/997/4210/10/
043100/20121116/134511/997/1500/10/
043100/20121116/134519/997/6425/10/
043100/20121116/134523/997/6408/10/
043100/20121116/134529/996/700/10/
043100/20121116/134549/996/8391/10/
043100/20121116/134551/996/10760/10/
043100/20121116/134551/995/59241/10/
043100/20121116/134605/997/1010/20/
043100/20121116/134622/996/280/10/
043100/20121116/134622/995/220/10/
043100/20121116/134627/995/1721/10/
043100/20121116/134722/997/83/20/
043100/20121116/134738/996/4151/10/
043100/20121116/134738/995/5220/10/
043100/20121116/134741/995/2760/10/
043100/20121116/134743/996/1501/10/
043100/20121116/134743/995/432/10/
043100/20121116/134744/995/1352/10/
043100/20121116/134745/995/947/10/
043100/20121116/134749/996/500/20/
043100/20121116/134817/996/669/10/
043100/20121116/134823/996/475/10/
043100/20121116/134825/996/325/10/
043100/20121116/134827/996/277/10/
043100/20121116/134829/996/159/10/
043100/20121116/134832/996/112/10/
043100/20121116/134837/996/171/10/
043100/20121116/134857/996/95/10/
043100/20121116/134857/997/1000/20/
043100/20121116/134858/996/2275/10/
043100/20121116/134858/995/4746/10/
043100/20121116/134913/996/7404/10/
043100/20121116/134914/996/101/20/
043100/20121116/134919/995/1005/10/
043100/20121116/134920/995/5002/10/
043100/20121116/134921/996/100/20/
043100/20121116/134926/995/17663/10/
043100/20121116/134947/994/8926/10/
043100/20121116/135001/995/6171/20/
043100/20121116/135005/996/1137/20/
043100/20121116/135005/995/276/10/
043100/20121116/135006/995/2000/10/
043100/20121116/135010/995/3502/10/
043100/20121116/135016/995/502/10/
043100/20121116/135025/995/33004/10/
043100/20121116/135025/994/6648/10/
043100/20121116/135028/995/1001/10/
043100/20121116/135030/996/201/20/
043100/20121116/135043/995/1602/10/
043100/20121116/135045/995/4747/10/
043100/20121116/135047/995/1656/10/
043100/20121116/135057/995/119/20/
043100/20121116/135059/994/12000/10/
043100/20121116/135110/994/3643/10/
043100/20121116/135116/995/3004/20/
043100/20121116/135123/994/1126/10/
043100/20121116/135132/993/1053/10/
043100/20121116/135137/994/87/20/
043100/20121116/135140/994/81/20/
043100/20121116/135142/993/466/10/
043100/20121116/135144/994/102/20/
043100/20121116/135203/994/504/20/
043100/20121116/135206/994/150/20/
043100/20121116/135207/993/1100/10/
043100/20121116/135211/994/1001/20/
043100/20121116/135214/994/2065/20/
043100/20121116/135214/993/3500/10/
043100/20121116/135219/994/1002/20/
043100/20121116/135226/994/1000/20/
043100/20121116/135230/994/100/20/
043100/20121116/135233/994/500/20/
043100/20121116/135242/994/1033/20/
043100/20121116/135304/993/10000/10/
043100/20121116/135308/994/91/20/
043100/20121116/135328/994/230/20/
043100/20121116/135332/994/500/20/
043100/20121116/135333/994/657/20/
043100/20121116/135405/994/87/10/
043100/20121116/135431/994/84/10/
043100/20121116/135447/994/3043/10/
043100/20121116/135454/994/304/10/
043100/20121116/135458/994/239/20/
043100/20121116/135521/994/3002/10/
043100/20121116/135534/994/213/10/
043100/20121116/135536/994/972/10/
043100/20121116/135544/995/328/20/
043100/20121116/135547/993/410/10/
043100/20121116/135605/994/2051/10/
043100/20121116/135606/994/541/10/
043100/20121116/135615/994/6021/10/
043100/20121116/135641/994/81/10/
043100/20121116/135647/994/680/10/
043100/20121116/135649/995/510/20/
043100/20121116/135657/994/210/10/
043100/20121116/135713/994/2041/10/
043100/20121116/135714/994/720/10/
043100/20121116/135715/994/783/10/
043100/20121116/135718/994/354/10/
043100/20121116/135732/993/5806/10/
043100/20121116/135733/993/1682/10/
043100/20121116/135733/992/531/10/
043100/20121116/135758/992/1052/10/
043100/20121116/135815/992/7465/10/
043100/20121116/135817/992/1416/20/
043100/20121116/135819/992/159/20/
043100/20121116/135832/993/516/20/
043100/20121116/135852/993/1006/20/
043100/20121116/135853/993/400/20/
043100/20121116/135914/993/219/20/
043100/20121116/135915/993/100/20/
043100/20121116/135915/993/3759/20/
043100/20121116/135925/994/1245/20/
043100/20121116/135942/995/1022/20/
043100/20121116/135946/994/328/10/
043100/20121116/135947/995/300/20/
043100/20121116/135953/995/100/20/
043100/20121116/140002/995/3131/20/
043100/20121116/140012/995/215/20/
043100/20121116/140013/995/300/20/
043100/20121116/140025/995/551/20/
043100/20121116/140028/995/2000/20/
043100/20121116/140050/995/1008/20/
043100/20121116/140105/995/1001/20/
043100/20121116/140108/995/1000/20/
043100/20121116/140113/995/200/20/
043100/20121116/140122/995/4000/20/
043100/20121116/140140/995/100/20/
043100/20121116/140146/995/792/20/
043100/20121116/140153/995/300/20/
043100/20121116/140156/995/1000/20/
043100/20121116/140157/995/500/20/
043100/20121116/140202/995/200/20/
043100/20121116/140204/995/1000/20/
043100/20121116/140206/995/1000/20/
043100/20121116/140222/995/5745/20/
043100/20121116/140226/995/1260/10/
043100/20121116/140226/994/2940/10/
043100/20121116/140230/994/1350/10/
043100/20121116/140233/994/350/10/
043100/20121116/140235/994/397/10/
043100/20121116/140250/995/101/20/
043100/20121116/140302/995/224/20/
043100/20121116/140307/995/275/20/
043100/20121116/140317/995/1696/10/
043100/20121116/140329/995/131/10/
043100/20121116/140403/995/1002/20/
043100/20121116/140405/994/1000/10/
043100/20121116/140408/994/230/10/
043100/20121116/140415/994/1000/10/
043100/20121116/140426/995/3000/20/
043100/20121116/140426/994/2729/10/
043100/20121116/140450/994/1531/10/
043100/20121116/140509/994/100/20/
043100/20121116/140515/994/104/20/
043100/20121116/140515/994/696/20/
043100/20121116/140537/994/3001/10/
043100/20121116/140551/994/3578/10/
043100/20121116/140623/994/1021/10/
043100/20121116/140629/994/316/20/
043100/20121116/140640/994/1327/10/
043100/20121116/140653/995/101/20/
043100/20121116/140653/994/3502/10/
043100/20121116/140718/993/9601/10/
043100/20121116/140728/993/1006/10/
043100/20121116/140733/993/85/10/
043100/20121116/140751/994/2414/20/
043100/20121116/140753/993/5059/10/
043100/20121116/140755/994/1000/20/
043100/20121116/140758/994/200/20/
043100/20121116/140812/993/842/10/
043100/20121116/140837/993/2849/10/
043100/20121116/140846/993/266/10/
043100/20121116/140859/993/134/20/
043100/20121116/140916/993/5871/10/
043100/20121116/140927/992/5000/10/
043100/20121116/140933/992/31960/10/
043100/20121116/140934/992/267/10/
043100/20121116/140949/992/5010/20/
043100/20121116/140953/992/500/20/
043100/20121116/141008/992/2116/10/
043100/20121116/141020/992/2003/20/
043100/20121116/141022/991/10000/10/
043100/20121116/141023/992/1000/20/
043100/20121116/141031/991/381/10/
043100/20121116/141036/990/1006/10/
043100/20121116/141038/990/201/10/
043100/20121116/141040/991/704/10/
043100/20121116/141043/991/162/10/
043100/20121116/141045/991/1648/10/
043100/20121116/141045/990/1846/10/
043100/20121116/141049/991/134/10/
043100/20121116/141049/990/9867/10/
043100/20121116/141051/990/2000/10/
043100/20121116/141053/990/261/10/
043100/20121116/141056/990/35432/10/
043100/20121116/141058/990/1000/20/
043100/20121116/141059/990/90/20/
043100/20121116/141106/989/157/10/
043100/20121116/141112/988/206/10/
043100/20121116/141113/989/100/20/
043100/20121116/141117/988/1001/10/
043100/20121116/141119/988/1491/10/
043100/20121116/141119/987/1951/10/
043100/20121116/141119/985/1558/10/
043100/20121116/141142/987/4618/10/
043100/20121116/141142/988/3500/20/
043100/20121116/141145/987/183/10/
043100/20121116/141148/988/141/20/
043100/20121116/141150/987/408/10/
043100/20121116/141153/988/101/20/
043100/20121116/141154/988/653/20/
043100/20121116/141155/988/1848/10/
043100/20121116/141155/987/318/10/
043100/20121116/141212/987/3041/10/
043100/20121116/141226/988/201/10/
043100/20121116/141235/988/6010/10/
043100/20121116/141239/988/90/10/
043100/20121116/141307/988/1055/10/
043100/20121116/141308/988/1715/10/
043100/20121116/141313/988/2285/20/
043100/20121116/141316/988/331/10/
043100/20121116/141325/989/709/20/
043100/20121116/141328/989/520/20/
043100/20121116/141329/989/2000/20/
043100/20121116/141330/989/325/20/
043100/20121116/141352/991/201/20/
043100/20121116/141353/989/239/10/
043100/20121116/141412/989/923/20/
043100/20121116/141446/990/221/10/
043100/20121116/141450/990/500/10/
043100/20121116/141459/989/3613/10/
043100/20121116/141459/988/447/10/
043100/20121116/141459/990/240/20/
043100/20121116/141505/990/454/10/
043100/20121116/141520/990/1010/20/
043100/20121116/141522/989/5000/10/
043100/20121116/141527/990/536/20/
043100/20121116/141534/990/1583/10/
043100/20121116/141534/989/2417/10/
043100/20121116/141546/990/106/20/
043100/20121116/141607/990/2695/10/
043100/20121116/141620/990/6584/20/
043100/20121116/141623/990/1150/20/
043100/20121116/141630/990/269/10/
043100/20121116/141650/991/1010/20/
043100/20121116/141659/991/125/20/
043100/20121116/141701/991/7183/20/
043100/20121116/141713/991/236/10/
043100/20121116/141716/992/400/20/
043100/20121116/141745/992/319/20/
043100/20121116/141747/992/3701/20/
043100/20121116/141809/992/4667/20/
043100/20121116/141813/992/1313/20/
043100/20121116/141839/995/458/20/
043100/20121116/141902/995/102/20/
043100/20121116/141927/995/81/20/
043100/20121116/141929/995/1000/20/
043100/20121116/141952/995/2002/20/
043100/20121116/142007/995/2021/20/
043100/20121116/142013/995/112/20/
043100/20121116/142019/995/113/20/
043100/20121116/142027/995/130/20/
043100/20121116/142041/995/106/20/
043100/20121116/142054/994/441/10/
043100/20121116/142056/993/2311/10/
043100/20121116/142104/994/342/20/
043100/20121116/142117/994/108/20/
043100/20121116/142146/992/3008/10/
043100/20121116/142201/992/1538/10/
043100/20121116/142201/993/161/20/
043100/20121116/142202/991/3001/10/
043100/20121116/142230/991/102/10/
043100/20121116/142245/993/101/20/
043100/20121116/142317/993/81/20/
043100/20121116/142344/993/1010/20/
043100/20121116/142356/993/100/20/
043100/20121116/142403/992/202/10/
043100/20121116/142412/992/500/10/
043100/20121116/142451/992/901/10/
043100/20121116/142458/992/3602/10/
043100/20121116/142458/991/5720/10/
043100/20121116/142504/990/3900/10/
043100/20121116/142515/990/3951/10/
043100/20121116/142520/990/1000/10/
043100/20121116/142522/990/3102/20/
043100/20121116/142525/990/301/20/
043100/20121116/142528/990/200/20/
043100/20121116/142531/990/126/20/
043100/20121116/142533/990/161/20/
043100/20121116/142534/990/200/20/
043100/20121116/142539/990/225/20/
043100/20121116/142543/990/1363/20/
043100/20121116/142612/993/101/20/
043100/20121116/142648/993/121/20/
043100/20121116/142733/992/152/10/
043100/20121116/142752/992/415/20/
043100/20121116/142757/992/677/10/
043100/20121116/142809/991/530/10/
043100/20121116/142815/992/100/20/
043100/20121116/142833/992/3088/20/
043100/20121116/142836/992/401/10/
043100/20121116/142845/992/4689/10/
043100/20121116/142858/992/136/10/
043100/20121116/142902/992/1423/10/
043100/20121116/142910/992/104/20/
043100/20121116/142911/992/473/20/
043100/20121116/142928/993/1001/20/
043100/20121116/142933/993/191/20/
043100/20121116/142946/992/570/10/
043100/20121116/142955/992/2539/10/
043100/20121116/143004/991/6231/10/
043100/20121116/143005/992/1974/20/
043100/20121116/143038/993/1009/20/
043100/20121116/143109/993/3237/20/
043100/20121116/143126/993/2000/20/
043100/20121116/143157/993/557/20/
043100/20121116/143243/993/421/10/
043100/20121116/143249/993/400/10/
043100/20121116/143309/994/4996/20/
043100/20121116/143357/995/5127/20/
043100/20121116/143417/995/1706/10/
043100/20121116/143422/995/1418/10/
043100/20121116/143424/995/1084/10/
043100/20121116/143425/995/669/20/
043100/20121116/143536/994/1015/10/
043100/20121116/143547/994/1200/10/
043100/20121116/143549/994/552/10/
043100/20121116/143552/994/241/10/
043100/20121116/143556/993/2007/10/
043100/20121116/143557/995/400/20/
043100/20121116/143614/994/300/10/
043100/20121116/143639/994/2500/10/
043100/20121116/143641/995/300/20/
043100/20121116/143655/994/200/10/
043100/20121116/143656/993/4235/10/
043100/20121116/143659/994/1000/10/
043100/20121116/143743/993/3090/10/
043100/20121116/143755/993/5648/10/
043100/20121116/143758/993/2465/10/
043100/20121116/143807/992/3113/10/
043100/20121116/143810/992/1000/10/
043100/20121116/143810/992/2400/10/
043100/20121116/143812/993/250/20/
043100/20121116/143824/992/2385/10/
043100/20121116/143831/991/9210/10/
043100/20121116/143857/991/8502/20/
043100/20121116/143914/991/439/20/
043100/20121116/143917/990/4500/10/
043100/20121116/143920/990/500/10/
043100/20121116/143930/990/300/10/
043100/20121116/143946/991/100/20/
043100/20121116/143956/991/510/20/
043100/20121116/143958/991/300/20/
043100/20121116/144005/991/125/20/
043100/20121116/144014/990/7272/10/
043100/20121116/144024/991/126/20/
043100/20121116/144029/990/2520/10/
043100/20121116/144030/990/100/10/
043100/20121116/144034/990/100/10/
043100/20121116/144103/990/1001/10/
043100/20121116/144112/990/831/10/
043100/20121116/144114/990/5000/10/
043100/20121116/144135/990/1842/10/
043100/20121116/144135/989/5015/10/
043100/20121116/144135/988/3444/10/
043100/20121116/144146/988/516/10/
043100/20121116/144201/990/110/20/
043100/20121116/144216/990/115/20/
043100/20121116/144223/990/7308/20/
043100/20121116/144226/990/2475/20/
043100/20121116/144236/991/304/20/
043100/20121116/144247/990/2525/10/
043100/20121116/144247/989/9475/10/
043100/20121116/144308/989/2000/10/
043100/20121116/144340/989/1012/10/
043100/20121116/144404/989/504/10/
043100/20121116/144410/990/110/20/
043100/20121116/144411/990/1446/20/
043100/20121116/144419/990/168/20/
043100/20121116/144425/990/2281/20/
043100/20121116/144425/990/996/20/
043100/20121116/144427/990/2083/20/
043100/20121116/144438/992/234/20/
043100/20121116/144444/990/3000/10/
043100/20121116/144504/992/156/20/
043100/20121116/144526/993/605/20/
043100/20121116/144540/993/7304/20/
043100/20121116/144540/993/2748/20/
043100/20121116/144543/994/3063/20/
043100/20121116/144543/995/3997/20/
043100/20121116/144543/996/244/20/
043100/20121116/144545/996/1000/20/
043100/20121116/144554/993/202/10/
043100/20121116/144559/996/1001/20/
043100/20121116/144612/995/400/10/
043100/20121116/144629/995/570/20/
043100/20121116/144630/995/4522/20/
043100/20121116/144635/995/4000/20/
043100/20121116/144638/995/515/20/
043100/20121116/144657/996/2994/20/
043100/20121116/144703/997/1000/20/
043100/20121116/144706/997/1000/20/
043100/20121116/144712/997/100/20/
043100/20121116/144712/997/3340/20/
043100/20121116/144712/998/3964/20/
043100/20121116/144720/998/1000/20/
043100/20121116/144723/998/100/20/
043100/20121116/144728/998/572/20/
043100/20121116/144728/997/1000/10/
043100/20121116/144728/996/4000/10/
043100/20121116/144733/998/401/20/
043100/20121116/144755/996/1272/10/
043100/20121116/144802/996/90/20/
043100/20121116/144815/996/1003/20/
043100/20121116/144815/995/309/10/
043100/20121116/144817/995/100/10/
043100/20121116/144817/995/3690/10/
043100/20121116/144824/995/1500/20/
043100/20121116/144826/995/880/20/
043100/20121116/144828/994/300/10/
043100/20121116/144828/994/2000/10/
043100/20121116/144830/994/1702/10/
043100/20121116/144835/994/2798/20/
043100/20121116/144835/995/3285/20/
043100/20121116/144835/995/300/10/
043100/20121116/144847/995/2828/10/
043100/20121116/144853/994/3488/10/
043100/20121116/144858/994/181/20/
043100/20121116/144910/993/5012/10/
043100/20121116/144911/994/1319/20/
043100/20121116/144916/994/1182/10/
043100/20121116/144921/994/204/20/
043100/20121116/144925/994/253/20/
043100/20121116/144927/993/610/10/
043100/20121116/144930/994/3362/20/
043100/20121116/144930/995/319/20/
043100/20121116/144943/995/2320/10/
043100/20121116/144956/993/150/10/
043100/20121116/144959/995/7314/20/
043100/20121116/150000/993/96194/10/
