043100/20121217/90000/676/28787/10/
043100/20121217/90011/676/1010/10/
043100/20121217/90053/679/108/20/
043100/20121217/90101/676/345/10/
043100/20121217/90102/675/1002/10/
043100/20121217/90104/675/2789/10/
043100/20121217/90107/674/1001/10/
043100/20121217/90109/674/501/10/
043100/20121217/90111/674/600/10/
043100/20121217/90119/674/101/20/
043100/20121217/90123/673/505/10/
043100/20121217/90130/673/100/20/
043100/20121217/90132/672/100/10/
043100/20121217/90143/673/513/20/
043100/20121217/90149/673/100/20/
043100/20121217/90152/673/88/20/
043100/20121217/90154/672/2276/10/
043100/20121217/90209/672/2455/10/
043100/20121217/90233/672/4368/10/
043100/20121217/90254/672/501/20/
043100/20121217/90256/672/500/20/
043100/20121217/90258/671/400/10/
043100/20121217/90302/671/121/10/
043100/20121217/90306/671/286/20/
043100/20121217/90306/672/215/20/
043100/20121217/90312/672/101/20/
043100/20121217/90315/672/800/20/
043100/20121217/90323/672/200/20/
043100/20121217/90406/673/209/20/
043100/20121217/90416/677/224/20/
043100/20121217/90417/677/1000/20/
043100/20121217/90533/677/81/20/
043100/20121217/90547/673/161/10/
043100/20121217/90611/677/132/20/
043100/20121217/90612/678/220/20/
043100/20121217/90639/678/506/20/
043100/20121217/90656/677/471/10/
043100/20121217/90717/677/2081/20/
043100/20121217/90917/676/619/20/
043100/20121217/91001/676/193/20/
043100/20121217/91007/676/119/20/
043100/20121217/91015/676/261/20/
043100/20121217/91054/677/1001/20/
043100/20121217/91116/677/731/20/
043100/20121217/91144/678/324/20/
043100/20121217/91213/679/4926/20/
043100/20121217/91243/679/846/20/
043100/20121217/91245/679/529/10/
043100/20121217/91259/678/495/10/
043100/20121217/91300/678/2525/10/
043100/20121217/91319/678/1211/10/
043100/20121217/91329/678/1468/10/
043100/20121217/91401/678/1585/10/
043100/20121217/91402/679/805/20/
043100/20121217/91439/678/105/10/
043100/20121217/91509/678/2227/10/
043100/20121217/91511/678/100/10/
043100/20121217/91520/678/101/10/
043100/20121217/91526/678/1804/10/
043100/20121217/91622/677/327/10/
043100/20121217/91625/677/3001/20/
043100/20121217/91643/676/230/10/
043100/20121217/91650/676/781/10/
043100/20121217/91716/676/421/20/
043100/20121217/91915/678/2002/20/
043100/20121217/91924/677/2335/10/
043100/20121217/91927/677/675/20/
043100/20121217/92014/677/5909/20/
043100/20121217/92019/677/141/20/
043100/20121217/92023/677/952/20/
043100/20121217/92044/678/102/20/
043100/20121217/92149/678/100/20/
043100/20121217/92336/679/101/20/
043100/20121217/92455/679/3065/20/
043100/20121217/92456/679/8644/20/
043100/20121217/92457/679/376/10/
043100/20121217/92505/679/212/20/
043100/20121217/92547/679/6462/20/
043100/20121217/92556/679/1172/10/
043100/20121217/92627/680/3005/20/
043100/20121217/92700/680/147/20/
043100/20121217/92719/680/3000/20/
043100/20121217/92720/680/5000/20/
043100/20121217/92829/679/1020/10/
043100/20121217/93033/679/1570/10/
043100/20121217/93047/679/1815/10/
043100/20121217/93057/679/687/20/
043100/20121217/93059/679/1813/10/
043100/20121217/93111/679/688/20/
043100/20121217/93113/679/313/10/
043100/20121217/93113/678/1688/10/
043100/20121217/93214/678/87/10/
043100/20121217/93316/678/376/10/
043100/20121217/93321/678/1021/10/
043100/20121217/93331/678/2988/10/
043100/20121217/93348/677/9000/10/
043100/20121217/93350/677/13628/10/
043100/20121217/93358/677/200/10/
043100/20121217/93358/677/100/10/
043100/20121217/93419/678/82/20/
043100/20121217/93422/678/81/20/
043100/20121217/93425/678/82/20/
043100/20121217/93426/678/104/20/
043100/20121217/93426/678/1548/20/
043100/20121217/93426/679/6015/20/
043100/20121217/93428/680/14513/20/
043100/20121217/93429/680/5373/20/
043100/20121217/93432/681/5009/20/
043100/20121217/93437/685/89/20/
043100/20121217/93439/681/81/10/
043100/20121217/93441/685/83/20/
043100/20121217/93443/685/81/20/
043100/20121217/93445/685/555/20/
043100/20121217/93447/682/81/10/
043100/20121217/93449/685/82/20/
043100/20121217/93450/685/81/20/
043100/20121217/93453/685/84/20/
043100/20121217/93455/685/86/20/
043100/20121217/93457/685/86/20/
043100/20121217/93459/685/90/20/
043100/20121217/93501/685/87/20/
043100/20121217/93503/685/81/20/
043100/20121217/93505/683/81/10/
043100/20121217/93508/685/81/20/
043100/20121217/93510/685/91/20/
043100/20121217/93512/685/82/20/
043100/20121217/93515/685/81/20/
043100/20121217/93517/685/82/20/
043100/20121217/93520/685/89/20/
043100/20121217/93522/685/83/20/
043100/20121217/93524/684/84/20/
043100/20121217/93526/683/130/10/
043100/20121217/93529/684/82/20/
043100/20121217/93531/684/89/20/
043100/20121217/93533/684/82/20/
043100/20121217/93536/684/83/20/
043100/20121217/93538/684/85/20/
043100/20121217/93540/684/82/20/
043100/20121217/93541/684/6179/20/
043100/20121217/93542/684/81/10/
043100/20121217/93545/685/81/20/
043100/20121217/93547/685/88/20/
043100/20121217/93549/684/150/10/
043100/20121217/93551/684/89/10/
043100/20121217/93552/685/148/20/
043100/20121217/93555/685/87/20/
043100/20121217/93558/685/82/20/
043100/20121217/93601/685/90/20/
043100/20121217/93603/685/82/20/
043100/20121217/93606/685/82/20/
043100/20121217/93608/685/81/20/
043100/20121217/93610/685/81/20/
043100/20121217/93612/685/81/20/
043100/20121217/93615/685/81/20/
043100/20121217/93617/685/81/20/
043100/20121217/93619/685/81/20/
043100/20121217/93622/685/81/20/
043100/20121217/93624/685/84/20/
043100/20121217/93626/684/81/10/
043100/20121217/93629/684/6578/10/
043100/20121217/93630/684/466/10/
043100/20121217/93633/684/83/20/
043100/20121217/93635/683/81/10/
043100/20121217/93637/684/91/20/
043100/20121217/93638/684/448/20/
043100/20121217/93638/685/572/20/
043100/20121217/93641/685/83/20/
043100/20121217/93641/685/3198/20/
043100/20121217/93644/685/83/20/
043100/20121217/93647/685/81/20/
043100/20121217/93647/685/15664/20/
043100/20121217/93650/687/84/20/
043100/20121217/93650/687/117/20/
043100/20121217/93652/687/86/20/
043100/20121217/93655/687/83/20/
043100/20121217/93657/687/84/20/
043100/20121217/93659/687/114/20/
043100/20121217/93701/688/81/20/
043100/20121217/93703/689/81/20/
043100/20121217/93705/688/81/20/
043100/20121217/93708/688/81/20/
043100/20121217/93710/688/83/20/
043100/20121217/93712/688/83/20/
043100/20121217/93715/688/84/20/
043100/20121217/93717/688/3070/20/
043100/20121217/93719/688/147/20/
043100/20121217/93721/689/81/20/
043100/20121217/93724/689/88/20/
043100/20121217/93724/689/376/20/
043100/20121217/93724/690/3627/20/
043100/20121217/93727/690/87/20/
043100/20121217/93729/690/790/20/
043100/20121217/93731/692/81/20/
043100/20121217/93733/692/267/20/
043100/20121217/93737/693/89/20/
043100/20121217/93738/693/1018/20/
043100/20121217/93738/693/2012/20/
043100/20121217/93740/693/88/20/
043100/20121217/93740/693/187/20/
043100/20121217/93741/693/141/10/
043100/20121217/93742/693/631/20/
043100/20121217/93742/694/2549/20/
043100/20121217/93742/696/3497/20/
043100/20121217/93744/692/1589/10/
043100/20121217/93744/688/873/10/
043100/20121217/93746/696/453/20/
043100/20121217/93746/697/2508/20/
043100/20121217/93746/698/909/20/
043100/20121217/93748/696/103/20/
043100/20121217/93750/696/465/10/
043100/20121217/93753/696/845/20/
043100/20121217/93756/695/83/20/
043100/20121217/93756/696/448/20/
043100/20121217/93758/695/113/20/
043100/20121217/93801/695/959/20/
043100/20121217/93803/695/698/20/
043100/20121217/93811/693/81/20/
043100/20121217/93813/692/1515/10/
043100/20121217/93813/690/6084/10/
043100/20121217/93813/689/7424/10/
043100/20121217/93815/690/114/10/
043100/20121217/93819/690/109/10/
043100/20121217/93821/694/83/20/
043100/20121217/93824/693/91/20/
043100/20121217/93830/692/81/20/
043100/20121217/93835/691/3028/20/
043100/20121217/93836/692/1072/20/
043100/20121217/93836/693/2515/20/
043100/20121217/93840/691/14013/10/
043100/20121217/93840/690/1005/10/
043100/20121217/93840/690/11537/10/
043100/20121217/93841/690/108/20/
043100/20121217/93841/690/501/20/
043100/20121217/93847/688/3412/10/
043100/20121217/93848/688/1466/10/
043100/20121217/93849/690/2841/20/
043100/20121217/93849/693/161/20/
043100/20121217/93852/688/1282/10/
043100/20121217/93856/688/444/10/
043100/20121217/93905/690/508/10/
043100/20121217/93930/688/1000/10/
043100/20121217/93937/688/11115/10/
043100/20121217/94012/688/303/20/
043100/20121217/94015/688/183/20/
043100/20121217/94017/688/120/10/
043100/20121217/94018/688/85/10/
043100/20121217/94045/688/569/10/
043100/20121217/94055/688/110/10/
043100/20121217/94107/688/2268/10/
043100/20121217/94111/688/2990/10/
043100/20121217/94111/688/5860/10/
043100/20121217/94125/686/118/10/
043100/20121217/94220/687/690/10/
043100/20121217/94224/687/500/10/
043100/20121217/94244/687/1000/10/
043100/20121217/94316/687/1168/10/
043100/20121217/94317/687/1942/10/
043100/20121217/94324/686/333/10/
043100/20121217/94337/686/7549/10/
043100/20121217/94337/686/1000/10/
043100/20121217/94338/686/3573/10/
043100/20121217/94339/686/100/10/
043100/20121217/94339/686/4520/10/
043100/20121217/94340/686/1390/10/
043100/20121217/94340/686/10000/10/
043100/20121217/94345/686/300/10/
043100/20121217/94345/686/536/10/
043100/20121217/94349/686/1500/10/
043100/20121217/94350/686/40000/10/
043100/20121217/94350/686/26702/10/
043100/20121217/94412/683/5000/10/
043100/20121217/94417/683/454/10/
043100/20121217/94417/682/2101/10/
043100/20121217/94448/681/450/10/
043100/20121217/94456/681/155/20/
043100/20121217/94458/677/300/10/
043100/20121217/94506/677/802/10/
043100/20121217/94513/677/2070/20/
043100/20121217/94517/677/1408/20/
043100/20121217/94517/677/861/20/
043100/20121217/94542/677/2850/10/
043100/20121217/94554/677/1500/10/
043100/20121217/94603/677/677/10/
043100/20121217/94709/678/130/10/
043100/20121217/94738/678/347/10/
043100/20121217/94908/678/500/10/
043100/20121217/94911/678/632/10/
043100/20121217/94911/677/368/10/
043100/20121217/95049/678/1187/10/
043100/20121217/95049/677/4694/10/
043100/20121217/95116/677/400/10/
043100/20121217/95125/678/3117/10/
043100/20121217/95125/677/2875/10/
043100/20121217/95134/677/267/20/
043100/20121217/95210/676/3180/10/
043100/20121217/95220/676/497/10/
043100/20121217/95223/676/2077/10/
043100/20121217/95229/676/366/20/
043100/20121217/95301/676/134/10/
043100/20121217/95319/676/866/20/
043100/20121217/95320/676/100/10/
043100/20121217/95329/676/1050/10/
043100/20121217/95358/676/1010/20/
043100/20121217/95358/676/300/20/
043100/20121217/95400/676/640/20/
043100/20121217/95409/676/103/10/
043100/20121217/95410/676/350/10/
043100/20121217/95411/676/400/10/
043100/20121217/95435/676/1000/10/
043100/20121217/95455/676/977/10/
043100/20121217/95545/677/245/20/
043100/20121217/95613/676/994/10/
043100/20121217/95616/675/2300/10/
043100/20121217/95711/676/1021/10/
043100/20121217/95724/676/2484/10/
043100/20121217/95724/675/5708/10/
043100/20121217/95724/674/772/10/
043100/20121217/95738/674/136/20/
043100/20121217/95749/674/1900/20/
043100/20121217/95751/674/2000/10/
043100/20121217/95753/674/1625/10/
043100/20121217/95827/674/2010/10/
043100/20121217/100011/677/241/20/
043100/20121217/100103/677/1440/20/
043100/20121217/100124/677/1440/20/
043100/20121217/100139/677/95/20/
043100/20121217/100325/676/110/10/
043100/20121217/100342/676/500/20/
043100/20121217/100412/676/168/20/
043100/20121217/100514/676/2440/10/
043100/20121217/100537/676/175/10/
043100/20121217/100558/676/3800/10/
043100/20121217/100628/676/200/10/
043100/20121217/100737/676/150/10/
043100/20121217/100743/676/163/10/
043100/20121217/100807/676/500/10/
043100/20121217/100838/676/400/20/
043100/20121217/100838/677/669/20/
043100/20121217/101021/675/5127/10/
043100/20121217/101104/675/413/20/
043100/20121217/101111/675/2587/10/
043100/20121217/101144/674/3223/10/
043100/20121217/101151/673/320/10/
043100/20121217/101219/674/563/20/
043100/20121217/101310/674/500/10/
043100/20121217/101534/675/115/20/
043100/20121217/101535/675/4500/20/
043100/20121217/101547/675/100/20/
043100/20121217/101705/675/309/20/
043100/20121217/101715/675/207/20/
043100/20121217/101815/675/300/20/
043100/20121217/101924/675/100/20/
043100/20121217/102132/674/3200/10/
043100/20121217/102210/673/7776/10/
043100/20121217/102210/673/4177/10/
043100/20121217/102400/674/102/20/
043100/20121217/102434/672/9272/10/
043100/20121217/102552/671/15002/10/
043100/20121217/102614/671/2490/10/
043100/20121217/102624/670/5019/10/
043100/20121217/102751/671/521/10/
043100/20121217/102824/671/1679/10/
043100/20121217/102843/671/2000/10/
043100/20121217/102904/671/498/10/
043100/20121217/102929/671/727/10/
043100/20121217/102950/671/1091/10/
043100/20121217/102956/671/1000/10/
043100/20121217/103006/671/1000/10/
043100/20121217/103025/671/430/10/
043100/20121217/103034/671/2931/10/
043100/20121217/103042/671/219/10/
043100/20121217/103115/672/500/20/
043100/20121217/103209/671/1005/10/
043100/20121217/103228/671/1000/10/
043100/20121217/103242/671/1000/10/
043100/20121217/103305/671/1000/10/
043100/20121217/103326/671/1001/10/
043100/20121217/103350/671/2000/10/
043100/20121217/103355/671/3045/10/
043100/20121217/103425/671/1972/20/
043100/20121217/103430/671/973/10/
043100/20121217/103441/671/236/10/
043100/20121217/103446/671/890/20/
043100/20121217/103453/670/1050/10/
043100/20121217/103528/671/1798/20/
043100/20121217/103533/671/240/10/
043100/20121217/103533/670/9760/10/
043100/20121217/103539/670/4337/10/
043100/20121217/103547/670/110/20/
043100/20121217/103635/670/90/20/
043100/20121217/103739/670/112/20/
043100/20121217/103747/669/800/10/
043100/20121217/103751/669/4245/10/
043100/20121217/103751/670/1000/20/
043100/20121217/103838/668/1000/10/
043100/20121217/103846/668/182/10/
043100/20121217/103913/667/2000/10/
043100/20121217/103913/667/2371/10/
043100/20121217/103937/666/3426/10/
043100/20121217/103949/665/1855/10/
043100/20121217/104031/665/3364/10/
043100/20121217/104032/665/200/20/
043100/20121217/104036/664/1432/10/
043100/20121217/104036/664/1620/10/
043100/20121217/104039/665/2000/20/
043100/20121217/104051/664/100/10/
043100/20121217/104051/663/900/10/
043100/20121217/104130/665/121/20/
043100/20121217/104137/664/300/10/
043100/20121217/104137/664/2800/10/
043100/20121217/104152/663/3435/10/
043100/20121217/104253/664/2233/10/
043100/20121217/104338/664/100/20/
043100/20121217/104351/663/773/10/
043100/20121217/104433/662/2890/10/
043100/20121217/104446/661/610/10/
043100/20121217/104457/662/100/20/
043100/20121217/104505/661/182/10/
043100/20121217/104510/662/1000/20/
043100/20121217/104528/662/382/20/
043100/20121217/104600/661/5377/10/
043100/20121217/104600/660/4227/10/
043100/20121217/104632/661/1000/10/
043100/20121217/104632/660/3982/10/
043100/20121217/104642/660/91/20/
043100/20121217/104642/660/560/20/
043100/20121217/104643/660/1000/20/
043100/20121217/104647/660/110/20/
043100/20121217/104658/660/1065/20/
043100/20121217/104711/660/115/20/
043100/20121217/104712/660/300/20/
043100/20121217/104712/660/100/20/
043100/20121217/104712/659/500/10/
043100/20121217/104730/659/1662/10/
043100/20121217/104730/659/1000/20/
043100/20121217/104735/659/549/20/
043100/20121217/104749/659/100/20/
043100/20121217/104752/657/1064/10/
043100/20121217/104752/657/722/20/
043100/20121217/104752/659/278/20/
043100/20121217/104803/658/384/20/
043100/20121217/104836/659/315/20/
043100/20121217/104906/659/2132/20/
043100/20121217/104908/659/10269/10/
043100/20121217/104908/660/1664/20/
043100/20121217/104918/664/1000/20/
043100/20121217/104945/660/628/20/
043100/20121217/104954/660/1430/20/
043100/20121217/105002/660/1014/20/
043100/20121217/105002/659/3763/10/
043100/20121217/105002/658/1677/10/
043100/20121217/105003/658/3038/20/
043100/20121217/105127/658/421/10/
043100/20121217/105127/657/1161/10/
043100/20121217/105156/661/501/20/
043100/20121217/105239/661/111/20/
043100/20121217/105313/661/125/20/
043100/20121217/105415/661/563/20/
043100/20121217/105503/661/1449/10/
043100/20121217/105608/661/3990/10/
043100/20121217/105708/659/2386/10/
043100/20121217/105710/658/1362/10/
043100/20121217/105756/659/82/20/
043100/20121217/105816/658/549/10/
043100/20121217/105847/658/700/10/
043100/20121217/105856/659/3000/20/
043100/20121217/105916/659/3020/20/
043100/20121217/105933/659/495/20/
043100/20121217/105954/659/2000/20/
043100/20121217/110003/659/463/20/
043100/20121217/110029/661/473/20/
043100/20121217/110105/661/166/20/
043100/20121217/110156/662/101/20/
043100/20121217/110325/662/111/20/
043100/20121217/110330/662/100/20/
043100/20121217/110403/662/5000/20/
043100/20121217/110439/662/1010/20/
043100/20121217/110440/662/200/20/
043100/20121217/110620/662/4305/20/
043100/20121217/110730/662/2095/20/
043100/20121217/110738/662/7105/20/
043100/20121217/110756/663/9000/20/
043100/20121217/110807/663/1000/20/
043100/20121217/110808/663/5000/20/
043100/20121217/110824/663/701/10/
043100/20121217/110837/664/122/20/
043100/20121217/110846/664/1000/20/
043100/20121217/110935/664/1877/10/
043100/20121217/110948/665/1846/20/
043100/20121217/111009/666/1000/20/
043100/20121217/111042/665/155/10/
043100/20121217/111241/667/701/20/
043100/20121217/111334/666/120/20/
043100/20121217/111334/667/1825/20/
043100/20121217/111334/667/6057/10/
043100/20121217/111423/664/120/10/
043100/20121217/111443/664/1066/10/
043100/20121217/111454/664/300/10/
043100/20121217/111546/664/500/10/
043100/20121217/111601/664/13000/10/
043100/20121217/111605/664/115/10/
043100/20121217/111627/663/600/10/
043100/20121217/111640/663/100/20/
043100/20121217/111641/663/300/20/
043100/20121217/111816/664/301/20/
043100/20121217/111852/664/1716/20/
043100/20121217/111947/666/100/20/
043100/20121217/112118/665/100/20/
043100/20121217/112229/664/1206/10/
043100/20121217/112331/663/1774/10/
043100/20121217/112332/663/3878/10/
043100/20121217/112428/663/500/20/
043100/20121217/112531/662/4001/10/
043100/20121217/112707/663/971/20/
043100/20121217/112814/663/133/20/
043100/20121217/112830/662/2952/10/
043100/20121217/112830/662/1965/10/
043100/20121217/112846/661/500/10/
043100/20121217/112928/662/100/20/
043100/20121217/112952/662/4367/20/
043100/20121217/113033/662/3907/10/
043100/20121217/113053/663/521/20/
043100/20121217/113226/663/212/20/
043100/20121217/113255/662/505/10/
043100/20121217/113334/661/1500/10/
043100/20121217/113448/661/246/10/
043100/20121217/113508/662/2427/20/
043100/20121217/113646/662/362/10/
043100/20121217/113734/661/1263/10/
043100/20121217/113807/661/113/20/
043100/20121217/113817/660/8881/10/
043100/20121217/113834/660/100/20/
043100/20121217/113911/659/527/10/
043100/20121217/113918/659/2000/10/
043100/20121217/113927/659/2000/10/
043100/20121217/113950/659/1656/10/
043100/20121217/114003/659/300/10/
043100/20121217/114012/659/1034/10/
043100/20121217/114049/659/2607/10/
043100/20121217/114049/658/1191/10/
043100/20121217/114053/659/2393/20/
043100/20121217/114140/660/521/20/
043100/20121217/114144/660/3499/20/
043100/20121217/114346/662/124/10/
043100/20121217/114444/662/615/10/
043100/20121217/114447/662/160/10/
043100/20121217/114447/660/1340/10/
043100/20121217/114458/663/100/20/
043100/20121217/114633/660/2815/10/
043100/20121217/114716/659/2720/10/
043100/20121217/114722/659/2179/20/
043100/20121217/114751/659/200/20/
043100/20121217/114753/659/312/20/
043100/20121217/115038/660/353/20/
043100/20121217/115135/660/749/10/
043100/20121217/115248/660/2773/20/
043100/20121217/115249/660/1228/10/
043100/20121217/115249/659/781/10/
043100/20121217/115306/660/614/10/
043100/20121217/115336/659/1516/10/
043100/20121217/115344/659/1000/10/
043100/20121217/115352/659/1981/10/
043100/20121217/115436/658/1634/10/
043100/20121217/115507/658/2566/10/
043100/20121217/115517/659/100/20/
043100/20121217/115710/659/168/20/
043100/20121217/115729/658/136/10/
043100/20121217/115844/658/3919/10/
043100/20121217/115844/657/1193/10/
043100/20121217/115917/658/300/10/
043100/20121217/115917/657/2190/10/
043100/20121217/115952/657/2000/10/
043100/20121217/120101/657/1060/10/
043100/20121217/120133/657/1004/10/
043100/20121217/120303/659/104/20/
043100/20121217/120313/659/100/20/
043100/20121217/120319/659/4894/20/
043100/20121217/120329/659/350/10/
043100/20121217/120345/660/1070/20/
043100/20121217/120401/660/14185/20/
043100/20121217/120413/660/4230/20/
043100/20121217/120447/662/203/20/
043100/20121217/120448/660/1318/10/
043100/20121217/120516/660/665/10/
043100/20121217/120546/660/1300/20/
043100/20121217/120913/659/541/10/
043100/20121217/120913/658/418/10/
043100/20121217/120930/658/1179/10/
043100/20121217/121207/659/865/20/
043100/20121217/121456/660/99/20/
043100/20121217/121515/659/403/10/
043100/20121217/121605/660/831/20/
043100/20121217/121642/660/2540/20/
043100/20121217/121914/660/1067/10/
043100/20121217/121939/660/3215/10/
043100/20121217/122003/660/785/20/
043100/20121217/122016/660/215/10/
043100/20121217/122113/660/811/20/
043100/20121217/122144/660/514/20/
043100/20121217/122159/660/499/20/
043100/20121217/122258/659/3533/10/
043100/20121217/122328/660/962/20/
043100/20121217/122427/660/642/20/
043100/20121217/122508/660/358/20/
043100/20121217/122513/660/142/10/
043100/20121217/122520/660/858/20/
043100/20121217/122535/660/603/10/
043100/20121217/122627/659/4704/20/
043100/20121217/122715/659/296/20/
043100/20121217/122909/659/500/10/
043100/20121217/123037/660/103/20/
043100/20121217/123141/660/3001/20/
043100/20121217/123202/660/593/20/
043100/20121217/123207/660/408/10/
043100/20121217/123228/660/551/20/
043100/20121217/123240/660/803/10/
043100/20121217/123254/660/201/20/
043100/20121217/123314/660/900/20/
043100/20121217/123318/660/311/20/
043100/20121217/123333/660/700/20/
043100/20121217/123348/659/445/10/
043100/20121217/123413/660/1600/20/
043100/20121217/123448/660/256/10/
043100/20121217/123520/660/794/20/
043100/20121217/123526/660/306/10/
043100/20121217/123615/659/4040/10/
043100/20121217/123633/659/928/20/
043100/20121217/123659/659/100/20/
043100/20121217/123702/659/972/10/
043100/20121217/123720/659/500/10/
043100/20121217/123722/658/8600/10/
043100/20121217/123739/659/500/20/
043100/20121217/123752/659/5001/10/
043100/20121217/123829/658/2023/10/
043100/20121217/123829/657/8565/10/
043100/20121217/123846/657/451/10/
043100/20121217/123851/656/5000/10/
043100/20121217/123913/656/5355/10/
043100/20121217/123916/656/1500/20/
043100/20121217/123931/656/4245/20/
043100/20121217/123932/656/767/10/
043100/20121217/123932/655/682/10/
043100/20121217/123935/657/100/20/
043100/20121217/124002/656/1669/10/
043100/20121217/124037/657/310/20/
043100/20121217/124123/656/2182/10/
043100/20121217/124159/656/2176/10/
043100/20121217/124159/655/16414/10/
043100/20121217/124159/654/17886/10/
043100/20121217/124159/653/11669/10/
043100/20121217/124227/653/200/20/
043100/20121217/124300/653/1063/20/
043100/20121217/124302/653/500/20/
043100/20121217/124312/653/617/20/
043100/20121217/124359/655/101/20/
043100/20121217/124540/655/900/20/
043100/20121217/124604/655/1001/10/
043100/20121217/124804/655/1462/10/
043100/20121217/124950/655/2860/10/
043100/20121217/124950/654/3998/10/
043100/20121217/125027/656/579/20/
043100/20121217/125132/656/501/10/
043100/20121217/125132/656/1261/10/
043100/20121217/125140/656/5662/10/
043100/20121217/125152/655/2000/10/
043100/20121217/125306/657/2212/20/
043100/20121217/125438/657/310/20/
043100/20121217/130009/657/228/20/
043100/20121217/130052/655/1010/10/
043100/20121217/130142/657/160/20/
043100/20121217/130158/655/2000/10/
043100/20121217/130202/655/4743/10/
043100/20121217/130202/654/1257/10/
043100/20121217/130225/657/81/20/
043100/20121217/130320/656/229/10/
043100/20121217/130358/656/1031/20/
043100/20121217/130403/656/100/20/
043100/20121217/130404/656/1000/20/
043100/20121217/130409/656/170/20/
043100/20121217/130419/656/870/20/
043100/20121217/130446/656/1131/10/
043100/20121217/130613/656/604/10/
043100/20121217/130719/657/81/20/
043100/20121217/130919/657/179/20/
043100/20121217/131045/657/110/20/
043100/20121217/131126/657/100/20/
043100/20121217/131129/657/1565/20/
043100/20121217/131145/657/502/20/
043100/20121217/131146/657/1362/20/
043100/20121217/131314/658/102/10/
043100/20121217/131426/659/788/20/
043100/20121217/131441/659/1000/20/
043100/20121217/131603/660/905/20/
043100/20121217/131710/661/423/20/
043100/20121217/131715/661/626/10/
043100/20121217/131918/662/111/20/
043100/20121217/132212/661/500/20/
043100/20121217/132212/662/500/20/
043100/20121217/132248/660/3402/10/
043100/20121217/132250/660/136/10/
043100/20121217/132429/658/735/10/
043100/20121217/132449/659/93/20/
043100/20121217/132523/659/225/20/
043100/20121217/132547/659/200/20/
043100/20121217/132627/659/200/20/
043100/20121217/132816/658/357/10/
043100/20121217/132816/657/1010/10/
043100/20121217/132816/656/188/10/
043100/20121217/133125/659/604/20/
043100/20121217/133135/659/750/10/
043100/20121217/133147/659/268/10/
043100/20121217/133220/659/1000/20/
043100/20121217/133241/659/901/20/
043100/20121217/133526/660/106/20/
043100/20121217/133705/659/471/10/
043100/20121217/133755/658/1125/10/
043100/20121217/133948/660/2997/20/
043100/20121217/133948/661/906/20/
043100/20121217/134159/659/82/10/
043100/20121217/134208/659/121/10/
043100/20121217/134208/658/1618/10/
043100/20121217/134217/659/701/20/
043100/20121217/134409/658/398/10/
043100/20121217/134423/658/1379/20/
043100/20121217/134437/658/2873/10/
043100/20121217/134437/656/1128/10/
043100/20121217/134622/656/1001/10/
043100/20121217/134917/657/153/10/
043100/20121217/134917/656/1059/10/
043100/20121217/135016/656/1730/10/
043100/20121217/135101/659/1501/20/
043100/20121217/135220/659/300/20/
043100/20121217/135631/658/1116/10/
043100/20121217/135647/658/949/10/
043100/20121217/135709/657/1700/10/
043100/20121217/135709/656/3782/10/
043100/20121217/135709/655/16518/10/
043100/20121217/135854/657/301/20/
043100/20121217/135908/655/640/10/
043100/20121217/140046/655/5823/10/
043100/20121217/140155/656/1601/20/
043100/20121217/140342/656/3445/20/
043100/20121217/140444/657/1051/20/
043100/20121217/140555/656/2210/10/
043100/20121217/140619/656/393/10/
043100/20121217/140731/655/3153/10/
043100/20121217/140740/655/1470/10/
043100/20121217/140745/654/8235/10/
043100/20121217/140747/654/6021/10/
043100/20121217/140749/655/2000/20/
043100/20121217/140755/654/12000/10/
043100/20121217/140832/655/497/10/
043100/20121217/140840/655/1001/10/
043100/20121217/140852/655/2078/10/
043100/20121217/140919/654/2574/10/
043100/20121217/140925/653/543/10/
043100/20121217/140942/655/3000/20/
043100/20121217/140945/655/500/20/
043100/20121217/140955/655/200/20/
043100/20121217/141040/655/3030/20/
043100/20121217/141142/655/164/20/
043100/20121217/141146/655/4000/20/
043100/20121217/141205/655/205/20/
043100/20121217/141205/655/795/10/
043100/20121217/141211/655/1000/20/
043100/20121217/141217/655/4000/20/
043100/20121217/141241/655/4020/20/
043100/20121217/141319/654/171/10/
043100/20121217/141334/655/184/20/
043100/20121217/141343/655/320/10/
043100/20121217/141343/654/180/10/
043100/20121217/141554/655/6084/10/
043100/20121217/141559/654/8376/10/
043100/20121217/141559/653/11620/10/
043100/20121217/141615/654/619/10/
043100/20121217/141705/655/4077/20/
043100/20121217/141713/654/150/10/
043100/20121217/141716/655/3721/20/
043100/20121217/141726/656/4010/20/
043100/20121217/141742/656/200/20/
043100/20121217/141808/656/201/20/
043100/20121217/141820/656/3355/20/
043100/20121217/142106/655/2242/10/
043100/20121217/142114/658/86/20/
043100/20121217/142118/655/4500/10/
043100/20121217/142323/656/1708/10/
043100/20121217/142331/656/1000/10/
043100/20121217/142339/656/236/10/
043100/20121217/142407/656/1059/10/
043100/20121217/142407/655/4450/10/
043100/20121217/142407/654/1491/10/
043100/20121217/142422/654/2863/10/
043100/20121217/142444/655/200/10/
043100/20121217/142444/654/3116/10/
043100/20121217/142505/654/1571/10/
043100/20121217/142505/653/1630/10/
043100/20121217/142624/654/190/10/
043100/20121217/142741/655/301/20/
043100/20121217/142749/655/500/20/
043100/20121217/142751/654/571/10/
043100/20121217/142835/654/1001/10/
043100/20121217/142903/654/200/10/
043100/20121217/142926/655/197/20/
043100/20121217/142934/655/304/10/
043100/20121217/142934/654/1696/10/
043100/20121217/143043/654/242/10/
043100/20121217/143106/654/4153/10/
043100/20121217/143131/654/848/20/
043100/20121217/143131/656/348/20/
043100/20121217/143131/657/694/20/
043100/20121217/143131/658/610/20/
043100/20121217/143131/653/4158/10/
043100/20121217/143233/654/5001/10/
043100/20121217/143249/654/5000/20/
043100/20121217/143501/655/3824/10/
043100/20121217/143522/655/800/10/
043100/20121217/143613/655/378/10/
043100/20121217/143709/655/90/10/
043100/20121217/143809/655/2069/10/
043100/20121217/143830/658/81/20/
043100/20121217/143911/657/2462/10/
043100/20121217/143927/658/148/20/
043100/20121217/144006/656/2038/10/
043100/20121217/144122/654/952/10/
043100/20121217/144123/656/2000/20/
043100/20121217/144130/657/800/20/
043100/20121217/144313/655/200/10/
043100/20121217/144403/655/709/10/
043100/20121217/144413/655/2029/10/
043100/20121217/144414/655/100/10/
043100/20121217/144425/655/4001/10/
043100/20121217/144458/655/686/10/
043100/20121217/144458/654/12842/10/
043100/20121217/144458/653/5579/10/
043100/20121217/144515/652/197/10/
043100/20121217/144522/653/902/20/
043100/20121217/144633/654/147/20/
043100/20121217/144635/654/500/20/
043100/20121217/144641/654/592/20/
043100/20121217/144647/654/500/10/
043100/20121217/144705/654/1001/10/
043100/20121217/144730/654/1209/10/
043100/20121217/144738/654/422/20/
043100/20121217/144844/653/2030/10/
043100/20121217/144851/653/261/10/
043100/20121217/144852/652/11205/10/
043100/20121217/144852/651/11159/10/
043100/20121217/144852/650/712/10/
043100/20121217/144907/650/17298/10/
043100/20121217/144914/650/225/20/
043100/20121217/144916/650/200/20/
043100/20121217/144923/649/2020/10/
043100/20121217/144946/649/877/10/
043100/20121217/150000/648/29505/20/
