043100/20130328/90000/1185/53854/20/
043100/20130328/90007/1185/500/20/
043100/20130328/90009/1180/408/10/
043100/20130328/90010/1180/325/10/
043100/20130328/90014/1185/9534/20/
043100/20130328/90024/1190/502/20/
043100/20130328/90029/1190/1000/20/
043100/20130328/90041/1190/1946/20/
043100/20130328/90041/1190/359/20/
043100/20130328/90043/1185/1000/10/
043100/20130328/90050/1190/6053/20/
043100/20130328/90053/1190/111/20/
043100/20130328/90056/1190/830/20/
043100/20130328/90057/1190/500/20/
043100/20130328/90100/1185/237/10/
043100/20130328/90100/1190/1004/20/
043100/20130328/90102/1190/311/20/
043100/20130328/90105/1190/1000/20/
043100/20130328/90108/1190/210/20/
043100/20130328/90109/1190/100/20/
043100/20130328/90111/1185/435/10/
043100/20130328/90118/1190/3752/20/
043100/20130328/90128/1190/520/20/
043100/20130328/90130/1190/100/20/
043100/20130328/90137/1190/500/20/
043100/20130328/90152/1185/6002/10/
043100/20130328/90155/1185/3002/10/
043100/20130328/90155/1185/1217/10/
043100/20130328/90200/1185/101/20/
043100/20130328/90207/1180/89/10/
043100/20130328/90214/1180/1630/10/
043100/20130328/90215/1180/8000/10/
043100/20130328/90222/1180/3139/10/
043100/20130328/90222/1175/12882/10/
043100/20130328/90222/1175/800/10/
043100/20130328/90224/1175/447/10/
043100/20130328/90227/1175/2070/10/
043100/20130328/90229/1175/1000/10/
043100/20130328/90230/1175/325/10/
043100/20130328/90230/1175/600/10/
043100/20130328/90231/1175/776/10/
043100/20130328/90232/1175/2200/10/
043100/20130328/90234/1175/447/10/
043100/20130328/90237/1175/100/10/
043100/20130328/90240/1175/325/10/
043100/20130328/90241/1175/710/10/
043100/20130328/90243/1175/836/10/
043100/20130328/90243/1175/2000/10/
043100/20130328/90244/1175/447/10/
043100/20130328/90244/1175/10000/10/
043100/20130328/90244/1175/13191/10/
043100/20130328/90245/1175/809/10/
043100/20130328/90245/1180/1300/20/
043100/20130328/90254/1175/460/10/
043100/20130328/90304/1180/2939/20/
043100/20130328/90308/1175/1430/10/
043100/20130328/90310/1175/326/10/
043100/20130328/90311/1180/205/20/
043100/20130328/90312/1175/770/10/
043100/20130328/90314/1175/447/10/
043100/20130328/90316/1180/1521/20/
043100/20130328/90317/1180/9000/20/
043100/20130328/90317/1175/7440/10/
043100/20130328/90319/1175/1308/10/
043100/20130328/90320/1180/1083/20/
043100/20130328/90320/1180/326/20/
043100/20130328/90321/1180/1004/10/
043100/20130328/90322/1180/1218/10/
043100/20130328/90324/1180/141/10/
043100/20130328/90324/1175/306/10/
043100/20130328/90332/1180/1014/10/
043100/20130328/90334/1180/448/10/
043100/20130328/90349/1185/418/20/
043100/20130328/90357/1185/407/20/
043100/20130328/90358/1185/3856/20/
043100/20130328/90359/1180/1500/10/
043100/20130328/90400/1180/326/10/
043100/20130328/90404/1185/8079/20/
043100/20130328/90405/1180/1140/10/
043100/20130328/90408/1185/167/20/
043100/20130328/90413/1185/813/20/
043100/20130328/90415/1180/100/10/
043100/20130328/90424/1180/461/10/
043100/20130328/90424/1180/3000/10/
043100/20130328/90425/1180/144/10/
043100/20130328/90427/1180/3929/10/
043100/20130328/90430/1180/330/10/
043100/20130328/90432/1180/10007/10/
043100/20130328/90434/1180/451/10/
043100/20130328/90444/1180/820/10/
043100/20130328/90444/1180/2049/10/
043100/20130328/90444/1175/13860/10/
043100/20130328/90454/1180/1066/10/
043100/20130328/90459/1180/107/20/
043100/20130328/90509/1180/87/20/
043100/20130328/90510/1180/100/20/
043100/20130328/90514/1175/410/10/
043100/20130328/90525/1180/137/20/
043100/20130328/90530/1180/453/20/
043100/20130328/90533/1175/253/10/
043100/20130328/90534/1175/9825/10/
043100/20130328/90540/1180/87/20/
043100/20130328/90540/1175/1706/10/
043100/20130328/90544/1175/2055/10/
043100/20130328/90549/1180/87/20/
043100/20130328/90550/1175/5011/10/
043100/20130328/90551/1180/2012/20/
043100/20130328/90555/1180/1033/20/
043100/20130328/90556/1180/900/20/
043100/20130328/90556/1175/1858/10/
043100/20130328/90604/1175/1395/10/
043100/20130328/90608/1175/6873/10/
043100/20130328/90610/1175/1832/10/
043100/20130328/90610/1175/326/10/
043100/20130328/90610/1175/6000/10/
043100/20130328/90611/1175/3571/10/
043100/20130328/90611/1175/3000/10/
043100/20130328/90612/1175/2021/10/
043100/20130328/90614/1175/411/10/
043100/20130328/90616/1170/111/10/
043100/20130328/90618/1175/130/20/
043100/20130328/90623/1170/4043/10/
043100/20130328/90631/1175/132/20/
043100/20130328/90636/1170/601/10/
043100/20130328/90638/1170/1001/10/
043100/20130328/90639/1175/500/20/
043100/20130328/90650/1175/1001/20/
043100/20130328/90651/1175/101/20/
043100/20130328/90652/1175/2001/20/
043100/20130328/90654/1175/1050/20/
043100/20130328/90654/1170/2000/10/
043100/20130328/90656/1175/200/20/
043100/20130328/90656/1170/1000/10/
043100/20130328/90658/1175/201/20/
043100/20130328/90659/1175/500/20/
043100/20130328/90659/1175/800/20/
043100/20130328/90659/1170/2000/10/
043100/20130328/90700/1175/570/20/
043100/20130328/90700/1175/5000/20/
043100/20130328/90701/1170/2000/10/
043100/20130328/90702/1175/5000/20/
043100/20130328/90709/1175/601/20/
043100/20130328/90712/1175/200/20/
043100/20130328/90714/1175/200/20/
043100/20130328/90714/1175/200/20/
043100/20130328/90724/1175/1300/20/
043100/20130328/90724/1175/1000/20/
043100/20130328/90725/1175/200/20/
043100/20130328/90726/1175/200/20/
043100/20130328/90728/1175/500/20/
043100/20130328/90730/1175/2000/20/
043100/20130328/90730/1175/500/20/
043100/20130328/90732/1175/4514/20/
043100/20130328/90738/1175/1851/10/
043100/20130328/90740/1175/1000/10/
043100/20130328/90745/1175/711/10/
043100/20130328/90757/1180/3001/20/
043100/20130328/90809/1175/757/10/
043100/20130328/90811/1180/501/20/
043100/20130328/90812/1175/265/10/
043100/20130328/90812/1175/100/10/
043100/20130328/90819/1175/5356/10/
043100/20130328/90819/1170/10832/10/
043100/20130328/90823/1170/3500/10/
043100/20130328/90824/1170/300/10/
043100/20130328/90826/1170/2770/10/
043100/20130328/90836/1170/3402/10/
043100/20130328/90848/1170/741/10/
043100/20130328/90849/1170/500/10/
043100/20130328/90858/1175/141/20/
043100/20130328/90900/1170/100/10/
043100/20130328/90906/1170/778/10/
043100/20130328/90907/1170/4661/10/
043100/20130328/90913/1170/8634/10/
043100/20130328/90914/1170/7102/10/
043100/20130328/90914/1170/368/10/
043100/20130328/90917/1170/4188/10/
043100/20130328/90920/1170/5696/10/
043100/20130328/90920/1170/4495/10/
043100/20130328/90921/1170/400/10/
043100/20130328/90922/1170/890/10/
043100/20130328/90922/1170/2000/10/
043100/20130328/90923/1170/1626/10/
043100/20130328/90923/1170/100/10/
043100/20130328/90926/1170/1566/10/
043100/20130328/90929/1170/2982/20/
043100/20130328/90937/1170/2230/10/
043100/20130328/90938/1170/2000/10/
043100/20130328/90940/1170/4781/10/
043100/20130328/90940/1170/1000/20/
043100/20130328/90945/1165/800/10/
043100/20130328/90945/1170/4000/20/
043100/20130328/90945/1165/9055/10/
043100/20130328/90949/1165/100/10/
043100/20130328/90949/1165/1000/10/
043100/20130328/90952/1165/9592/10/
043100/20130328/90954/1165/101/10/
043100/20130328/90956/1165/2000/10/
043100/20130328/90956/1165/4064/10/
043100/20130328/90958/1165/283/10/
043100/20130328/90959/1165/1201/10/
043100/20130328/91003/1160/1100/10/
043100/20130328/91003/1165/143/20/
043100/20130328/91003/1165/100/20/
043100/20130328/91006/1165/231/20/
043100/20130328/91007/1165/11823/20/
043100/20130328/91008/1165/362/20/
043100/20130328/91009/1165/1000/20/
043100/20130328/91009/1165/162/20/
043100/20130328/91010/1165/500/20/
043100/20130328/91010/1165/2500/20/
043100/20130328/91011/1165/4982/10/
043100/20130328/91015/1165/1455/10/
043100/20130328/91020/1165/507/10/
043100/20130328/91024/1165/1000/10/
043100/20130328/91026/1165/301/10/
043100/20130328/91037/1170/4977/20/
043100/20130328/91040/1165/10026/10/
043100/20130328/91043/1165/804/10/
043100/20130328/91101/1165/4001/10/
043100/20130328/91109/1165/201/10/
043100/20130328/91109/1170/1014/20/
043100/20130328/91131/1165/1300/10/
043100/20130328/91133/1165/401/10/
043100/20130328/91148/1165/212/10/
043100/20130328/91206/1165/234/10/
043100/20130328/91208/1170/105/20/
043100/20130328/91211/1170/1003/20/
043100/20130328/91217/1170/205/20/
043100/20130328/91219/1170/31061/20/
043100/20130328/91219/1170/1000/20/
043100/20130328/91220/1170/239/20/
043100/20130328/91236/1175/155/20/
043100/20130328/91237/1175/202/20/
043100/20130328/91238/1170/202/10/
043100/20130328/91240/1170/6037/10/
043100/20130328/91240/1165/2878/10/
043100/20130328/91240/1165/101/10/
043100/20130328/91257/1170/260/10/
043100/20130328/91257/1165/100/10/
043100/20130328/91310/1175/414/20/
043100/20130328/91311/1170/560/10/
043100/20130328/91321/1170/100/20/
043100/20130328/91331/1165/6004/10/
043100/20130328/91335/1165/1638/10/
043100/20130328/91335/1165/251/10/
043100/20130328/91342/1165/7016/10/
043100/20130328/91342/1170/300/20/
043100/20130328/91347/1170/300/20/
043100/20130328/91350/1170/3826/20/
043100/20130328/91359/1170/503/10/
043100/20130328/91402/1170/6200/10/
043100/20130328/91404/1170/1161/20/
043100/20130328/91407/1170/1439/10/
043100/20130328/91408/1170/600/20/
043100/20130328/91410/1170/97/20/
043100/20130328/91410/1170/2186/20/
043100/20130328/91432/1170/116/10/
043100/20130328/91434/1175/100/20/
043100/20130328/91440/1175/100/20/
043100/20130328/91446/1175/100/20/
043100/20130328/91450/1175/8053/20/
043100/20130328/91452/1175/5001/20/
043100/20130328/91453/1175/4000/20/
043100/20130328/91453/1175/4105/20/
043100/20130328/91453/1175/1000/20/
043100/20130328/91454/1175/6000/20/
043100/20130328/91454/1175/99/20/
043100/20130328/91454/1175/3516/20/
043100/20130328/91455/1175/86/20/
043100/20130328/91455/1175/9475/20/
043100/20130328/91455/1175/988/20/
043100/20130328/91503/1180/2004/20/
043100/20130328/91519/1180/110/20/
043100/20130328/91523/1175/621/10/
043100/20130328/91526/1175/3052/10/
043100/20130328/91547/1180/241/20/
043100/20130328/91610/1180/88/20/
043100/20130328/91612/1175/4000/10/
043100/20130328/91617/1180/7951/20/
043100/20130328/91623/1180/2001/20/
043100/20130328/91623/1180/89/20/
043100/20130328/91637/1180/1019/20/
043100/20130328/91638/1175/2504/10/
043100/20130328/91646/1175/610/10/
043100/20130328/91647/1175/362/10/
043100/20130328/91721/1175/3019/10/
043100/20130328/91722/1175/1400/10/
043100/20130328/91722/1180/300/20/
043100/20130328/91727/1175/1145/10/
043100/20130328/91742/1175/15052/10/
043100/20130328/91744/1175/774/10/
043100/20130328/91748/1175/212/10/
043100/20130328/91748/1175/3517/10/
043100/20130328/91749/1175/2000/10/
043100/20130328/91813/1170/578/10/
043100/20130328/91823/1175/106/20/
043100/20130328/91825/1170/2073/10/
043100/20130328/91834/1175/202/20/
043100/20130328/91843/1175/160/20/
043100/20130328/91916/1170/5005/10/
043100/20130328/91933/1175/125/20/
043100/20130328/91944/1175/112/20/
043100/20130328/91950/1170/10694/10/
043100/20130328/91956/1170/802/10/
043100/20130328/91957/1175/100/20/
043100/20130328/92008/1175/103/20/
043100/20130328/92008/1170/1000/10/
043100/20130328/92012/1175/102/20/
043100/20130328/92015/1175/100/20/
043100/20130328/92017/1175/1000/20/
043100/20130328/92021/1170/3362/10/
043100/20130328/92023/1170/16800/10/
043100/20130328/92027/1170/4243/10/
043100/20130328/92028/1170/5159/10/
043100/20130328/92041/1170/5912/20/
043100/20130328/92048/1170/1581/10/
043100/20130328/92048/1170/33765/10/
043100/20130328/92056/1165/772/10/
043100/20130328/92103/1170/1003/20/
043100/20130328/92104/1165/367/10/
043100/20130328/92105/1165/3915/10/
043100/20130328/92118/1165/134/10/
043100/20130328/92124/1170/102/20/
043100/20130328/92125/1170/500/20/
043100/20130328/92126/1170/1078/20/
043100/20130328/92128/1165/118/10/
043100/20130328/92157/1165/2605/10/
043100/20130328/92203/1170/2002/20/
043100/20130328/92215/1165/438/10/
043100/20130328/92225/1170/332/20/
043100/20130328/92232/1170/83/20/
043100/20130328/92237/1170/370/20/
043100/20130328/92245/1170/85/20/
043100/20130328/92248/1170/384/20/
043100/20130328/92251/1170/2180/20/
043100/20130328/92252/1170/2152/20/
043100/20130328/92252/1170/6998/20/
043100/20130328/92253/1170/281/20/
043100/20130328/92253/1170/200/20/
043100/20130328/92254/1170/284/20/
043100/20130328/92257/1170/182/10/
043100/20130328/92304/1170/81/10/
043100/20130328/92308/1170/1447/10/
043100/20130328/92308/1165/2592/10/
043100/20130328/92312/1170/209/10/
043100/20130328/92315/1175/85/20/
043100/20130328/92316/1170/1003/10/
043100/20130328/92323/1170/81/10/
043100/20130328/92328/1175/83/20/
043100/20130328/92332/1175/89/20/
043100/20130328/92332/1170/4000/10/
043100/20130328/92336/1175/84/20/
043100/20130328/92338/1175/229/20/
043100/20130328/92341/1175/82/20/
043100/20130328/92345/1170/81/10/
043100/20130328/92345/1170/3949/10/
043100/20130328/92350/1175/90/20/
043100/20130328/92351/1175/118/20/
043100/20130328/92354/1175/1551/20/
043100/20130328/92358/1175/90/20/
043100/20130328/92400/1170/140/10/
043100/20130328/92403/1175/89/20/
043100/20130328/92404/1175/99/20/
043100/20130328/92407/1175/89/20/
043100/20130328/92410/1175/88/20/
043100/20130328/92414/1170/81/10/
043100/20130328/92417/1175/90/20/
043100/20130328/92421/1175/87/20/
043100/20130328/92425/1175/81/20/
043100/20130328/92425/1170/747/10/
043100/20130328/92428/1170/81/10/
043100/20130328/92430/1175/1039/20/
043100/20130328/92433/1170/6057/10/
043100/20130328/92435/1170/81/10/
043100/20130328/92436/1175/87/20/
043100/20130328/92440/1170/81/10/
043100/20130328/92443/1170/81/10/
043100/20130328/92445/1170/6670/10/
043100/20130328/92449/1175/81/20/
043100/20130328/92453/1175/89/20/
043100/20130328/92457/1175/84/20/
043100/20130328/92502/1175/87/20/
043100/20130328/92505/1170/23025/10/
043100/20130328/92509/1170/81/10/
043100/20130328/92513/1175/85/20/
043100/20130328/92516/1175/88/20/
043100/20130328/92520/1170/81/10/
043100/20130328/92524/1175/87/20/
043100/20130328/92525/1170/1802/10/
043100/20130328/92528/1175/88/20/
043100/20130328/92532/1175/90/20/
043100/20130328/92536/1170/81/10/
043100/20130328/92540/1175/88/20/
043100/20130328/92549/1170/81/10/
043100/20130328/92549/1170/14552/10/
043100/20130328/92550/1170/6292/10/
043100/20130328/92551/1170/2404/10/
043100/20130328/92558/1175/81/20/
043100/20130328/92605/1170/965/10/
043100/20130328/92605/1175/215/20/
043100/20130328/92609/1170/148/10/
043100/20130328/92610/1170/1002/20/
043100/20130328/92613/1170/695/20/
043100/20130328/92620/1165/81/10/
043100/20130328/92620/1170/201/20/
043100/20130328/92626/1170/998/20/
043100/20130328/92651/1175/81/20/
043100/20130328/92653/1170/7940/10/
043100/20130328/92703/1175/3669/20/
043100/20130328/92712/1170/1001/10/
043100/20130328/92714/1170/3499/10/
043100/20130328/92729/1170/242/10/
043100/20130328/92732/1175/200/20/
043100/20130328/92749/1170/1400/10/
043100/20130328/92821/1175/102/20/
043100/20130328/92832/1170/35822/10/
043100/20130328/92842/1165/2023/10/
043100/20130328/92932/1165/1909/10/
043100/20130328/92942/1170/106/20/
043100/20130328/92944/1170/1000/20/
043100/20130328/92945/1170/110/20/
043100/20130328/92950/1170/1501/20/
043100/20130328/92951/1170/45130/20/
043100/20130328/93029/1175/81/20/
043100/20130328/93034/1170/226/10/
043100/20130328/93044/1170/1058/10/
043100/20130328/93059/1175/81/20/
043100/20130328/93100/1175/86/20/
043100/20130328/93109/1175/217/20/
043100/20130328/93120/1175/82/20/
043100/20130328/93121/1175/92/20/
043100/20130328/93122/1175/123/20/
043100/20130328/93130/1170/370/10/
043100/20130328/93139/1175/154/20/
043100/20130328/93146/1170/15732/10/
043100/20130328/93149/1170/1487/10/
043100/20130328/93158/1170/1697/10/
043100/20130328/93204/1170/7477/10/
043100/20130328/93213/1175/81/20/
043100/20130328/93220/1170/816/10/
043100/20130328/93227/1170/4032/10/
043100/20130328/93229/1170/512/10/
043100/20130328/93236/1170/2077/10/
043100/20130328/93236/1170/5002/10/
043100/20130328/93238/1170/904/10/
043100/20130328/93256/1170/100/20/
043100/20130328/93257/1170/88/20/
043100/20130328/93259/1170/88/20/
043100/20130328/93300/1170/88/20/
043100/20130328/93302/1170/88/20/
043100/20130328/93303/1170/88/20/
043100/20130328/93305/1170/88/20/
043100/20130328/93306/1170/90/20/
043100/20130328/93308/1170/90/20/
043100/20130328/93309/1170/3066/20/
043100/20130328/93309/1170/2756/20/
043100/20130328/93310/1170/1044/20/
043100/20130328/93311/1170/90/20/
043100/20130328/93312/1170/6793/20/
043100/20130328/93313/1170/244/20/
043100/20130328/93313/1170/200/20/
043100/20130328/93314/1170/93/20/
043100/20130328/93315/1170/122/20/
043100/20130328/93316/1170/88/20/
043100/20130328/93317/1170/3343/20/
043100/20130328/93318/1170/700/20/
043100/20130328/93318/1170/144/20/
043100/20130328/93319/1170/3066/20/
043100/20130328/93321/1170/90/20/
043100/20130328/93322/1170/144/20/
043100/20130328/93322/1170/1694/20/
043100/20130328/93323/1170/1068/20/
043100/20130328/93324/1175/88/20/
043100/20130328/93326/1175/88/20/
043100/20130328/93327/1175/88/20/
043100/20130328/93329/1175/144/20/
043100/20130328/93330/1175/88/20/
043100/20130328/93331/1175/166/20/
043100/20130328/93333/1175/98/20/
043100/20130328/93334/1175/167/20/
043100/20130328/93336/1175/88/20/
043100/20130328/93337/1175/89/20/
043100/20130328/93339/1175/88/20/
043100/20130328/93340/1175/89/20/
043100/20130328/93342/1175/88/20/
043100/20130328/93342/1175/100/20/
043100/20130328/93343/1175/88/20/
043100/20130328/93345/1175/98/20/
043100/20130328/93347/1175/88/20/
043100/20130328/93348/1175/88/20/
043100/20130328/93350/1175/91/20/
043100/20130328/93351/1175/88/20/
043100/20130328/93353/1175/88/20/
043100/20130328/93401/1170/4340/10/
043100/20130328/93406/1170/160/10/
043100/20130328/93407/1170/235/10/
043100/20130328/93407/1175/100/20/
043100/20130328/93413/1175/88/20/
043100/20130328/93416/1175/88/20/
043100/20130328/93419/1175/88/20/
043100/20130328/93420/1170/6274/10/
043100/20130328/93423/1175/88/20/
043100/20130328/93426/1175/88/20/
043100/20130328/93429/1175/88/20/
043100/20130328/93432/1175/87/20/
043100/20130328/93436/1175/88/20/
043100/20130328/93439/1175/88/20/
043100/20130328/93443/1175/88/20/
043100/20130328/93446/1175/88/20/
043100/20130328/93450/1175/88/20/
043100/20130328/93450/1175/111/20/
043100/20130328/93453/1175/88/20/
043100/20130328/93457/1175/88/20/
043100/20130328/93500/1175/81/20/
043100/20130328/93503/1175/88/20/
043100/20130328/93506/1175/88/20/
043100/20130328/93509/1175/89/20/
043100/20130328/93512/1175/82/20/
043100/20130328/93514/1175/90/20/
043100/20130328/93517/1175/91/20/
043100/20130328/93519/1175/82/20/
043100/20130328/93522/1175/82/20/
043100/20130328/93525/1175/84/20/
043100/20130328/93528/1175/84/20/
043100/20130328/93531/1175/83/20/
043100/20130328/93533/1175/83/20/
043100/20130328/93536/1175/84/20/
043100/20130328/93539/1175/84/20/
043100/20130328/93542/1175/84/20/
043100/20130328/93545/1175/82/20/
043100/20130328/93548/1175/83/20/
043100/20130328/93551/1175/85/20/
043100/20130328/93553/1175/84/20/
043100/20130328/93556/1175/83/20/
043100/20130328/93557/1175/113/20/
043100/20130328/93600/1175/82/20/
043100/20130328/93603/1175/85/20/
043100/20130328/93605/1175/83/20/
043100/20130328/93606/1175/820/20/
043100/20130328/93609/1175/82/20/
043100/20130328/93612/1175/84/20/
043100/20130328/93615/1175/88/20/
043100/20130328/93618/1175/81/20/
043100/20130328/93620/1175/87/20/
043100/20130328/93622/1175/81/20/
043100/20130328/93623/1170/18112/10/
043100/20130328/93624/1170/1476/10/
043100/20130328/93626/1175/83/20/
043100/20130328/93629/1175/82/20/
043100/20130328/93632/1175/84/20/
043100/20130328/93635/1175/84/20/
043100/20130328/93638/1175/84/20/
043100/20130328/93641/1175/82/20/
043100/20130328/93644/1175/82/20/
043100/20130328/93647/1175/84/20/
043100/20130328/93650/1175/84/20/
043100/20130328/93652/1175/88/20/
043100/20130328/93656/1175/89/20/
043100/20130328/93659/1175/83/20/
043100/20130328/93701/1170/536/10/
043100/20130328/93704/1175/83/20/
043100/20130328/93707/1175/83/20/
043100/20130328/93708/1170/107/10/
043100/20130328/93710/1175/83/20/
043100/20130328/93713/1175/83/20/
043100/20130328/93713/1170/12893/10/
043100/20130328/93715/1170/81/20/
043100/20130328/93719/1170/89/20/
043100/20130328/93722/1170/177/20/
043100/20130328/93724/1170/748/20/
043100/20130328/93727/1170/88/20/
043100/20130328/93730/1170/89/20/
043100/20130328/93730/1170/2000/20/
043100/20130328/93732/1170/3056/20/
043100/20130328/93733/1170/4617/20/
043100/20130328/93734/1170/335/20/
043100/20130328/93737/1170/88/20/
043100/20130328/93738/1170/1022/20/
043100/20130328/93739/1170/5326/20/
043100/20130328/93743/1175/90/20/
043100/20130328/93745/1175/2047/20/
043100/20130328/93748/1175/84/20/
043100/20130328/93758/1170/81/10/
043100/20130328/93812/1170/597/10/
043100/20130328/93835/1170/152/10/
043100/20130328/93838/1170/2002/10/
043100/20130328/93842/1170/4105/10/
043100/20130328/93848/1170/2835/10/
043100/20130328/93854/1170/552/10/
043100/20130328/93901/1170/2014/10/
043100/20130328/93924/1170/2807/10/
043100/20130328/93935/1170/2003/10/
043100/20130328/93935/1170/2000/10/
043100/20130328/93935/1170/340/10/
043100/20130328/93935/1170/170/10/
043100/20130328/93939/1170/4605/10/
043100/20130328/93940/1170/1450/10/
043100/20130328/93940/1170/4041/10/
043100/20130328/93940/1165/45959/10/
043100/20130328/93941/1165/1000/10/
043100/20130328/94020/1165/457/10/
043100/20130328/94027/1165/151/10/
043100/20130328/94030/1170/200/20/
043100/20130328/94042/1165/408/10/
043100/20130328/94104/1165/1007/10/
043100/20130328/94111/1170/2759/20/
043100/20130328/94111/1165/2576/10/
043100/20130328/94113/1165/2000/10/
043100/20130328/94131/1165/10052/10/
043100/20130328/94142/1165/1422/10/
043100/20130328/94153/1170/502/20/
043100/20130328/94157/1165/401/10/
043100/20130328/94157/1165/6749/10/
043100/20130328/94158/1165/2740/10/
043100/20130328/94159/1165/2000/10/
043100/20130328/94159/1165/5020/10/
043100/20130328/94200/1165/753/10/
043100/20130328/94201/1165/3004/10/
043100/20130328/94201/1165/1500/10/
043100/20130328/94201/1165/988/10/
043100/20130328/94201/1165/1000/10/
043100/20130328/94201/1165/2500/10/
043100/20130328/94203/1165/924/10/
043100/20130328/94204/1160/5035/10/
043100/20130328/94208/1165/550/20/
043100/20130328/94211/1165/101/20/
043100/20130328/94211/1165/5054/20/
043100/20130328/94214/1165/2733/20/
043100/20130328/94216/1165/401/10/
043100/20130328/94219/1165/500/10/
043100/20130328/94220/1165/100/10/
043100/20130328/94229/1165/1423/10/
043100/20130328/94233/1165/540/10/
043100/20130328/94234/1165/1673/20/
043100/20130328/94235/1165/1002/10/
043100/20130328/94237/1165/2638/10/
043100/20130328/94239/1165/1018/20/
043100/20130328/94311/1165/4050/20/
043100/20130328/94320/1160/5015/10/
043100/20130328/94321/1165/350/20/
043100/20130328/94327/1160/1984/10/
043100/20130328/94330/1160/1002/10/
043100/20130328/94331/1165/500/20/
043100/20130328/94332/1165/2000/20/
043100/20130328/94334/1165/205/20/
043100/20130328/94337/1165/136/20/
043100/20130328/94338/1165/85/20/
043100/20130328/94341/1165/199/20/
043100/20130328/94344/1165/340/20/
043100/20130328/94345/1160/500/10/
043100/20130328/94359/1165/91/20/
043100/20130328/94404/1160/256/10/
043100/20130328/94405/1165/100/20/
043100/20130328/94407/1160/2003/10/
043100/20130328/94410/1160/412/10/
043100/20130328/94411/1160/1000/10/
043100/20130328/94412/1160/900/10/
043100/20130328/94415/1160/1009/10/
043100/20130328/94420/1165/218/20/
043100/20130328/94428/1160/4014/10/
043100/20130328/94435/1165/407/20/
043100/20130328/94438/1165/100/20/
043100/20130328/94438/1160/4490/10/
043100/20130328/94443/1160/5006/10/
043100/20130328/94444/1160/70002/10/
043100/20130328/94444/1160/1592/10/
043100/20130328/94448/1160/1198/10/
043100/20130328/94449/1160/662/20/
043100/20130328/94456/1160/564/20/
043100/20130328/94456/1155/500/10/
043100/20130328/94459/1155/501/10/
043100/20130328/94502/1160/500/20/
043100/20130328/94503/1160/10097/20/
043100/20130328/94504/1160/380/10/
043100/20130328/94506/1160/501/10/
043100/20130328/94507/1160/2000/10/
043100/20130328/94520/1160/264/10/
043100/20130328/94525/1160/2437/10/
043100/20130328/94605/1160/1028/10/
043100/20130328/94614/1160/3572/10/
043100/20130328/94615/1160/10480/10/
043100/20130328/94616/1160/1000/10/
043100/20130328/94616/1160/2002/10/
043100/20130328/94617/1160/6053/10/
043100/20130328/94631/1160/1200/10/
043100/20130328/94635/1160/5000/10/
043100/20130328/94636/1160/500/10/
043100/20130328/94638/1160/200/10/
043100/20130328/94638/1160/5316/10/
043100/20130328/94639/1160/1810/10/
043100/20130328/94658/1160/212/20/
043100/20130328/94700/1160/95/20/
043100/20130328/94704/1160/122/20/
043100/20130328/94714/1160/121/20/
043100/20130328/94721/1160/103/20/
043100/20130328/94724/1160/202/20/
043100/20130328/94724/1160/15544/20/
043100/20130328/94727/1160/3002/10/
043100/20130328/94733/1160/3369/10/
043100/20130328/94740/1160/5014/10/
043100/20130328/94751/1160/10018/10/
043100/20130328/94800/1160/245/10/
043100/20130328/94808/1160/384/10/
043100/20130328/94816/1165/501/20/
043100/20130328/94826/1160/4000/10/
043100/20130328/94830/1165/100/20/
043100/20130328/94841/1160/103/10/
043100/20130328/94936/1160/449/10/
043100/20130328/95012/1160/562/10/
043100/20130328/95012/1160/2197/10/
043100/20130328/95032/1165/331/20/
043100/20130328/95037/1160/40004/10/
043100/20130328/95101/1165/734/20/
043100/20130328/95106/1160/303/10/
043100/20130328/95118/1165/1009/20/
043100/20130328/95136/1160/103/10/
043100/20130328/95157/1160/6906/10/
043100/20130328/95159/1160/2250/10/
043100/20130328/95201/1160/1000/10/
043100/20130328/95206/1160/100/10/
043100/20130328/95211/1160/1300/10/
043100/20130328/95213/1160/10301/10/
043100/20130328/95219/1160/2520/10/
043100/20130328/95224/1160/161/10/
043100/20130328/95234/1160/4071/10/
043100/20130328/95237/1160/2000/10/
043100/20130328/95240/1160/300/10/
043100/20130328/95240/1160/12404/10/
043100/20130328/95300/1160/3316/10/
043100/20130328/95304/1160/10001/10/
043100/20130328/95310/1160/1002/10/
043100/20130328/95317/1160/702/10/
043100/20130328/95318/1160/5000/10/
043100/20130328/95321/1160/1006/10/
043100/20130328/95322/1160/4921/10/
043100/20130328/95323/1160/202/10/
043100/20130328/95324/1160/1500/10/
043100/20130328/95324/1160/425/10/
043100/20130328/95327/1160/830/10/
043100/20130328/95328/1160/200/10/
043100/20130328/95328/1160/4000/10/
043100/20130328/95328/1160/400/10/
043100/20130328/95333/1160/1566/10/
043100/20130328/95339/1160/104/10/
043100/20130328/95342/1160/214/10/
043100/20130328/95346/1160/1466/10/
043100/20130328/95352/1155/409/10/
043100/20130328/95353/1160/4000/20/
043100/20130328/95359/1160/103/20/
043100/20130328/95408/1160/1005/20/
043100/20130328/95412/1160/5929/20/
043100/20130328/95418/1155/211/10/
043100/20130328/95421/1160/6828/20/
043100/20130328/95424/1160/1002/10/
043100/20130328/95425/1160/569/10/
043100/20130328/95426/1160/10118/10/
043100/20130328/95426/1160/600/20/
043100/20130328/95445/1160/1010/20/
043100/20130328/95451/1160/2001/20/
043100/20130328/95458/1160/1001/20/
043100/20130328/95459/1155/1442/10/
043100/20130328/95501/1155/300/10/
043100/20130328/95509/1155/103/10/
043100/20130328/95526/1155/606/10/
043100/20130328/95526/1155/4744/10/
043100/20130328/95528/1155/49427/10/
043100/20130328/95528/1155/8422/10/
043100/20130328/95529/1155/16155/10/
043100/20130328/95532/1155/1336/20/
043100/20130328/95543/1150/1686/10/
043100/20130328/95544/1150/3722/10/
043100/20130328/95546/1150/3883/10/
043100/20130328/95547/1150/20002/10/
043100/20130328/95548/1150/502/10/
043100/20130328/95548/1150/7480/10/
043100/20130328/95549/1150/1956/10/
043100/20130328/95552/1150/4006/10/
043100/20130328/95553/1150/2140/10/
043100/20130328/95554/1150/5002/10/
043100/20130328/95554/1150/12000/10/
043100/20130328/95555/1150/1000/10/
043100/20130328/95555/1150/1033/10/
043100/20130328/95556/1150/177/10/
043100/20130328/95600/1150/716/20/
043100/20130328/95601/1150/5940/20/
043100/20130328/95601/1150/320/10/
043100/20130328/95604/1150/6002/10/
043100/20130328/95605/1150/2000/10/
043100/20130328/95607/1150/12702/10/
043100/20130328/95608/1150/2001/10/
043100/20130328/95611/1150/7181/10/
043100/20130328/95611/1150/4000/10/
043100/20130328/95613/1150/210/10/
043100/20130328/95613/1150/300/10/
043100/20130328/95615/1150/360/10/
043100/20130328/95619/1150/7000/10/
043100/20130328/95621/1150/4451/10/
043100/20130328/95621/1150/2568/10/
043100/20130328/95624/1155/1002/20/
043100/20130328/95625/1150/25065/10/
043100/20130328/95628/1150/1020/10/
043100/20130328/95632/1150/500/10/
043100/20130328/95634/1150/3000/10/
043100/20130328/95645/1150/516/10/
043100/20130328/95647/1155/144/20/
043100/20130328/95650/1150/100/10/
043100/20130328/95651/1150/2800/10/
043100/20130328/95656/1150/1763/10/
043100/20130328/95700/1150/2002/10/
043100/20130328/95706/1150/2804/10/
043100/20130328/95707/1150/1507/10/
043100/20130328/95709/1150/1980/10/
043100/20130328/95712/1150/750/10/
043100/20130328/95713/1150/300/10/
043100/20130328/95713/1150/3756/10/
043100/20130328/95716/1150/4347/20/
043100/20130328/95717/1150/2000/20/
043100/20130328/95717/1150/101/20/
043100/20130328/95723/1150/200/20/
043100/20130328/95724/1150/969/20/
043100/20130328/95728/1150/1020/20/
043100/20130328/95730/1150/534/20/
043100/20130328/95730/1150/100/20/
043100/20130328/95733/1150/4000/20/
043100/20130328/95734/1150/125/20/
043100/20130328/95734/1150/1527/20/
043100/20130328/95741/1150/4008/10/
043100/20130328/95743/1150/500/10/
043100/20130328/95747/1150/10365/10/
043100/20130328/95747/1150/1000/20/
043100/20130328/95747/1150/100/20/
043100/20130328/95747/1145/1000/10/
043100/20130328/95753/1145/201/10/
043100/20130328/95753/1150/1000/20/
043100/20130328/95754/1145/10000/10/
043100/20130328/95755/1145/3320/10/
043100/20130328/95801/1145/8129/10/
043100/20130328/95805/1145/500/10/
043100/20130328/95810/1145/5000/10/
043100/20130328/95811/1145/100/10/
043100/20130328/95817/1145/13357/10/
043100/20130328/95827/1145/3051/10/
043100/20130328/95828/1150/100/20/
043100/20130328/95829/1145/5300/10/
043100/20130328/95831/1145/710/10/
043100/20130328/95843/1145/101/10/
043100/20130328/95851/1150/313/20/
043100/20130328/95909/1145/1000/10/
043100/20130328/95912/1150/101/20/
043100/20130328/95913/1150/1000/20/
043100/20130328/95917/1150/102/20/
043100/20130328/95932/1150/110/20/
043100/20130328/95937/1145/1749/10/
043100/20130328/95940/1145/419/10/
043100/20130328/95945/1145/351/10/
043100/20130328/95948/1145/2152/10/
043100/20130328/95957/1145/10015/10/
043100/20130328/100008/1145/2913/10/
043100/20130328/100011/1145/1759/10/
043100/20130328/100012/1145/35034/10/
043100/20130328/100012/1145/3000/10/
043100/20130328/100013/1145/1000/10/
043100/20130328/100013/1145/1000/10/
043100/20130328/100014/1145/2803/10/
043100/20130328/100014/1145/508/10/
043100/20130328/100015/1145/2986/10/
043100/20130328/100016/1145/100/20/
043100/20130328/100017/1145/200/20/
043100/20130328/100019/1145/7700/20/
043100/20130328/100020/1140/857/10/
043100/20130328/100021/1145/2387/20/
043100/20130328/100022/1145/600/20/
043100/20130328/100025/1145/1045/20/
043100/20130328/100026/1145/100/20/
043100/20130328/100027/1145/400/20/
043100/20130328/100028/1145/12467/20/
043100/20130328/100031/1145/2970/10/
043100/20130328/100033/1145/101/10/
043100/20130328/100041/1145/6992/10/
043100/20130328/100042/1145/1877/10/
043100/20130328/100046/1145/1123/20/
043100/20130328/100046/1145/3877/10/
043100/20130328/100048/1145/156/20/
043100/20130328/100048/1145/500/20/
043100/20130328/100048/1145/500/20/
043100/20130328/100100/1145/131/20/
043100/20130328/100102/1145/1000/20/
043100/20130328/100103/1145/112/20/
043100/20130328/100104/1145/10000/20/
043100/20130328/100105/1145/100/20/
043100/20130328/100105/1145/2000/20/
043100/20130328/100105/1145/448/20/
043100/20130328/100106/1145/105/20/
043100/20130328/100107/1145/1988/20/
043100/20130328/100107/1145/500/20/
043100/20130328/100108/1145/19621/20/
043100/20130328/100111/1145/202/10/
043100/20130328/100119/1145/307/10/
043100/20130328/100126/1145/9011/10/
043100/20130328/100127/1145/100/10/
043100/20130328/100128/1145/240/10/
043100/20130328/100136/1145/1739/10/
043100/20130328/100136/1145/1750/10/
043100/20130328/100138/1145/1178/10/
043100/20130328/100140/1140/84/10/
043100/20130328/100146/1145/315/20/
043100/20130328/100149/1145/105/20/
043100/20130328/100155/1145/750/20/
043100/20130328/100156/1140/501/10/
043100/20130328/100206/1140/501/10/
043100/20130328/100235/1140/3577/10/
043100/20130328/100237/1145/102/20/
043100/20130328/100247/1140/2592/10/
043100/20130328/100251/1140/4000/10/
043100/20130328/100252/1145/800/20/
043100/20130328/100259/1140/351/10/
043100/20130328/100301/1140/3377/10/
043100/20130328/100305/1140/3218/10/
043100/20130328/100306/1140/1126/10/
043100/20130328/100308/1140/756/10/
043100/20130328/100311/1140/32580/10/
043100/20130328/100312/1140/6020/10/
043100/20130328/100312/1140/5000/10/
043100/20130328/100312/1140/593/10/
043100/20130328/100313/1135/7988/10/
043100/20130328/100318/1140/1013/20/
043100/20130328/100319/1140/4020/20/
043100/20130328/100320/1140/10300/20/
043100/20130328/100323/1140/501/10/
043100/20130328/100324/1140/1903/10/
043100/20130328/100330/1140/4004/10/
043100/20130328/100332/1140/2001/10/
043100/20130328/100334/1140/3888/10/
043100/20130328/100338/1140/101/10/
043100/20130328/100340/1140/401/10/
043100/20130328/100349/1140/2061/10/
043100/20130328/100355/1140/501/10/
043100/20130328/100356/1140/3000/10/
043100/20130328/100358/1140/7076/10/
043100/20130328/100358/1140/2182/10/
043100/20130328/100358/1140/2190/10/
043100/20130328/100359/1140/6022/10/
043100/20130328/100359/1140/1987/10/
043100/20130328/100401/1140/2802/10/
043100/20130328/100402/1140/4483/10/
043100/20130328/100404/1140/501/10/
043100/20130328/100406/1140/3458/10/
043100/20130328/100408/1140/792/10/
043100/20130328/100408/1135/1002/10/
043100/20130328/100413/1140/506/20/
043100/20130328/100414/1135/2000/10/
043100/20130328/100421/1135/102/10/
043100/20130328/100421/1135/6301/10/
043100/20130328/100423/1135/921/10/
043100/20130328/100424/1135/500/10/
043100/20130328/100425/1140/100/20/
043100/20130328/100427/1135/390/10/
043100/20130328/100434/1140/1800/20/
043100/20130328/100435/1135/780/10/
043100/20130328/100436/1135/1000/10/
043100/20130328/100437/1135/25235/10/
043100/20130328/100437/1130/14765/10/
043100/20130328/100437/1130/2000/10/
043100/20130328/100443/1135/1051/20/
043100/20130328/100445/1135/202/20/
043100/20130328/100451/1135/3085/20/
043100/20130328/100451/1135/100/20/
043100/20130328/100452/1135/796/20/
043100/20130328/100453/1135/3000/20/
043100/20130328/100454/1135/530/20/
043100/20130328/100455/1130/510/10/
043100/20130328/100456/1130/1209/10/
043100/20130328/100456/1135/1000/20/
043100/20130328/100456/1130/8000/10/
043100/20130328/100456/1135/100/20/
043100/20130328/100501/1135/200/20/
043100/20130328/100501/1135/100/20/
043100/20130328/100503/1135/891/20/
043100/20130328/100505/1135/500/20/
043100/20130328/100506/1135/100/20/
043100/20130328/100507/1130/300/10/
043100/20130328/100509/1135/2000/20/
043100/20130328/100510/1130/11943/10/
043100/20130328/100513/1130/770/10/
043100/20130328/100514/1130/13422/10/
043100/20130328/100516/1130/1500/10/
043100/20130328/100518/1130/5000/10/
043100/20130328/100518/1130/2226/10/
043100/20130328/100519/1130/100/20/
043100/20130328/100519/1130/1010/20/
043100/20130328/100520/1125/1674/10/
043100/20130328/100520/1125/1673/10/
043100/20130328/100520/1125/1673/10/
043100/20130328/100520/1125/1148/10/
043100/20130328/100520/1125/1673/10/
043100/20130328/100521/1130/4319/20/
043100/20130328/100521/1130/300/10/
043100/20130328/100522/1130/1673/10/
043100/20130328/100522/1130/729/10/
043100/20130328/100522/1125/944/10/
043100/20130328/100522/1125/1673/10/
043100/20130328/100522/1125/1673/10/
043100/20130328/100522/1125/1178/10/
043100/20130328/100522/1130/100/20/
043100/20130328/100525/1130/345/20/
043100/20130328/100529/1130/1000/20/
043100/20130328/100531/1130/10002/20/
043100/20130328/100531/1125/13000/10/
043100/20130328/100537/1130/300/20/
043100/20130328/100539/1130/500/20/
043100/20130328/100542/1125/1300/10/
043100/20130328/100542/1130/884/20/
043100/20130328/100544/1130/11851/20/
043100/20130328/100545/1130/1575/20/
043100/20130328/100545/1135/1000/20/
043100/20130328/100545/1130/4182/10/
043100/20130328/100547/1130/250/10/
043100/20130328/100551/1130/1750/10/
043100/20130328/100556/1130/2662/10/
043100/20130328/100558/1130/2418/10/
043100/20130328/100559/1130/1670/20/
043100/20130328/100601/1130/1128/10/
043100/20130328/100613/1130/501/10/
043100/20130328/100614/1130/331/10/
043100/20130328/100615/1130/1000/10/
043100/20130328/100625/1135/602/20/
043100/20130328/100625/1130/100/10/
043100/20130328/100640/1130/2013/10/
043100/20130328/100649/1130/20011/10/
043100/20130328/100649/1130/200/10/
043100/20130328/100649/1130/265/10/
043100/20130328/100652/1130/676/20/
043100/20130328/100655/1130/3151/20/
043100/20130328/100659/1125/10010/10/
043100/20130328/100700/1130/1000/20/
043100/20130328/100700/1130/150/20/
043100/20130328/100705/1125/90/10/
043100/20130328/100708/1130/501/20/
043100/20130328/100713/1125/1003/10/
043100/20130328/100716/1130/305/20/
043100/20130328/100717/1125/5200/10/
043100/20130328/100717/1125/500/10/
043100/20130328/100718/1125/700/10/
043100/20130328/100719/1125/30000/10/
043100/20130328/100720/1125/1001/10/
043100/20130328/100722/1125/2512/10/
043100/20130328/100723/1125/302/10/
043100/20130328/100725/1125/399/10/
043100/20130328/100727/1125/2000/10/
043100/20130328/100728/1125/8054/10/
043100/20130328/100730/1125/2002/10/
043100/20130328/100731/1125/152/10/
043100/20130328/100731/1125/4270/10/
043100/20130328/100731/1125/6606/10/
043100/20130328/100733/1125/9713/10/
043100/20130328/100733/1125/4500/20/
043100/20130328/100733/1125/538/20/
043100/20130328/100737/1125/2019/20/
043100/20130328/100737/1125/300/20/
043100/20130328/100738/1125/3723/20/
043100/20130328/100738/1125/1000/20/
043100/20130328/100739/1125/2002/20/
043100/20130328/100739/1125/100/20/
043100/20130328/100740/1125/856/20/
043100/20130328/100740/1125/4400/10/
043100/20130328/100740/1125/500/10/
043100/20130328/100748/1125/2817/10/
043100/20130328/100754/1125/1037/10/
043100/20130328/100759/1130/7084/20/
043100/20130328/100759/1125/296/10/
043100/20130328/100801/1125/2012/10/
043100/20130328/100805/1130/711/20/
043100/20130328/100813/1130/2777/20/
043100/20130328/100814/1130/6000/20/
043100/20130328/100815/1130/5000/20/
043100/20130328/100815/1130/10000/20/
043100/20130328/100816/1125/24704/10/
043100/20130328/100822/1130/1480/20/
043100/20130328/100823/1130/310/20/
043100/20130328/100825/1130/225/20/
043100/20130328/100827/1130/5050/20/
043100/20130328/100828/1130/654/20/
043100/20130328/100828/1130/2072/20/
043100/20130328/100828/1130/1000/20/
043100/20130328/100829/1125/2050/10/
043100/20130328/100830/1130/15289/20/
043100/20130328/100832/1130/301/10/
043100/20130328/100839/1130/1017/10/
043100/20130328/100852/1130/2035/10/
043100/20130328/100854/1135/2704/20/
043100/20130328/100917/1130/2031/10/
043100/20130328/100918/1130/500/10/
043100/20130328/100928/1130/1521/10/
043100/20130328/100930/1130/110/10/
043100/20130328/100939/1130/9528/10/
043100/20130328/100940/1130/10000/10/
043100/20130328/100940/1130/6000/10/
043100/20130328/100944/1130/7720/10/
043100/20130328/100947/1130/2434/10/
043100/20130328/100953/1130/1784/10/
043100/20130328/100953/1135/150/20/
043100/20130328/101000/1135/111/20/
043100/20130328/101004/1135/103/20/
043100/20130328/101006/1135/210/20/
043100/20130328/101009/1135/302/20/
043100/20130328/101020/1135/263/20/
043100/20130328/101024/1130/1003/10/
043100/20130328/101027/1135/510/20/
043100/20130328/101028/1135/200/20/
043100/20130328/101029/1135/100/20/
043100/20130328/101029/1130/7000/10/
043100/20130328/101029/1135/371/20/
043100/20130328/101029/1135/108/20/
043100/20130328/101030/1130/10030/10/
043100/20130328/101031/1135/2000/20/
043100/20130328/101040/1135/502/20/
043100/20130328/101041/1135/100/20/
043100/20130328/101048/1135/196/20/
043100/20130328/101051/1135/423/20/
043100/20130328/101106/1135/130/20/
043100/20130328/101110/1135/1800/20/
043100/20130328/101121/1135/299/20/
043100/20130328/101121/1135/106/20/
043100/20130328/101121/1135/800/20/
043100/20130328/101130/1135/1056/20/
043100/20130328/101143/1135/117/20/
043100/20130328/101147/1135/1505/20/
043100/20130328/101158/1135/1062/20/
043100/20130328/101159/1135/8000/20/
043100/20130328/101203/1135/510/20/
043100/20130328/101206/1135/14000/20/
043100/20130328/101208/1135/3010/20/
043100/20130328/101208/1135/10001/20/
043100/20130328/101210/1135/1000/20/
043100/20130328/101210/1135/1000/20/
043100/20130328/101211/1135/881/20/
043100/20130328/101212/1135/100/20/
043100/20130328/101212/1135/1971/20/
043100/20130328/101213/1135/2000/20/
043100/20130328/101213/1135/1010/20/
043100/20130328/101216/1135/4894/20/
043100/20130328/101217/1130/350/10/
043100/20130328/101224/1135/122/20/
043100/20130328/101227/1135/102/20/
043100/20130328/101240/1130/3872/10/
043100/20130328/101242/1130/11001/10/
043100/20130328/101243/1130/300/10/
043100/20130328/101245/1130/1818/10/
043100/20130328/101245/1130/3120/10/
043100/20130328/101248/1130/2002/10/
043100/20130328/101250/1130/2597/10/
043100/20130328/101251/1130/501/10/
043100/20130328/101252/1130/620/10/
043100/20130328/101252/1130/2346/10/
043100/20130328/101252/1130/400/20/
043100/20130328/101253/1130/2254/20/
043100/20130328/101255/1130/2338/10/
043100/20130328/101255/1130/1000/10/
043100/20130328/101257/1130/1217/10/
043100/20130328/101258/1130/1638/10/
043100/20130328/101258/1130/1556/10/
043100/20130328/101310/1125/319/10/
043100/20130328/101311/1125/5000/10/
043100/20130328/101328/1130/3003/20/
043100/20130328/101329/1125/20000/10/
043100/20130328/101336/1125/1066/10/
043100/20130328/101337/1125/1000/10/
043100/20130328/101338/1125/191/10/
043100/20130328/101343/1125/2350/10/
043100/20130328/101345/1125/834/10/
043100/20130328/101346/1125/1049/10/
043100/20130328/101402/1125/318/10/
043100/20130328/101407/1125/1128/10/
043100/20130328/101407/1120/1872/10/
043100/20130328/101410/1130/118/20/
043100/20130328/101418/1125/10023/10/
043100/20130328/101432/1125/546/10/
043100/20130328/101432/1125/3500/10/
043100/20130328/101433/1125/900/10/
043100/20130328/101439/1125/382/10/
043100/20130328/101441/1125/5005/10/
043100/20130328/101442/1125/1091/10/
043100/20130328/101449/1125/517/10/
043100/20130328/101453/1125/2419/10/
043100/20130328/101458/1125/407/10/
043100/20130328/101458/1120/9599/10/
043100/20130328/101503/1125/406/20/
043100/20130328/101506/1120/2003/10/
043100/20130328/101519/1120/26004/10/
043100/20130328/101520/1125/3080/20/
043100/20130328/101525/1120/2423/10/
043100/20130328/101532/1120/384/10/
043100/20130328/101533/1120/200/10/
043100/20130328/101533/1120/100/10/
043100/20130328/101549/1120/201/10/
043100/20130328/101549/1120/1196/10/
043100/20130328/101557/1120/251/10/
043100/20130328/101614/1120/2104/10/
043100/20130328/101614/1120/109/10/
043100/20130328/101614/1120/3000/10/
043100/20130328/101624/1120/4118/10/
043100/20130328/101626/1120/3434/10/
043100/20130328/101628/1120/2360/10/
043100/20130328/101630/1120/2689/10/
043100/20130328/101631/1120/100/20/
043100/20130328/101648/1115/1736/10/
043100/20130328/101649/1120/500/20/
043100/20130328/101651/1120/1000/20/
043100/20130328/101654/1120/100/20/
043100/20130328/101703/1115/8802/10/
043100/20130328/101705/1120/400/20/
043100/20130328/101712/1120/1002/20/
043100/20130328/101715/1115/965/10/
043100/20130328/101716/1120/101/20/
043100/20130328/101718/1120/251/20/
043100/20130328/101722/1120/101/20/
043100/20130328/101724/1120/1699/20/
043100/20130328/101727/1120/26897/20/
043100/20130328/101727/1125/3104/20/
043100/20130328/101738/1125/114/20/
043100/20130328/101739/1125/501/20/
043100/20130328/101741/1125/1044/20/
043100/20130328/101741/1125/255/20/
043100/20130328/101743/1125/4690/20/
043100/20130328/101746/1125/109/20/
043100/20130328/101758/1125/657/20/
043100/20130328/101806/1125/535/20/
043100/20130328/101807/1120/1699/10/
043100/20130328/101808/1120/3000/10/
043100/20130328/101813/1125/91/20/
043100/20130328/101816/1125/104/20/
043100/20130328/101818/1125/302/20/
043100/20130328/101823/1125/372/20/
043100/20130328/101845/1125/103/20/
043100/20130328/101848/1120/1019/10/
043100/20130328/101859/1120/507/10/
043100/20130328/101859/1120/2315/10/
043100/20130328/101900/1125/1001/20/
043100/20130328/101904/1120/2202/10/
043100/20130328/101929/1125/90/20/
043100/20130328/101932/1125/1001/20/
043100/20130328/101933/1125/9530/20/
043100/20130328/101934/1125/14400/20/
043100/20130328/101934/1120/3487/10/
043100/20130328/101935/1125/10055/20/
043100/20130328/101937/1125/1011/20/
043100/20130328/101937/1125/1000/20/
043100/20130328/101938/1125/733/20/
043100/20130328/101951/1125/1034/10/
043100/20130328/102019/1125/2021/10/
043100/20130328/102028/1130/115/20/
043100/20130328/102034/1125/115/10/
043100/20130328/102041/1130/102/20/
043100/20130328/102043/1130/157/20/
043100/20130328/102048/1125/1023/10/
043100/20130328/102059/1130/104/20/
043100/20130328/102102/1130/1001/20/
043100/20130328/102102/1130/100/20/
043100/20130328/102105/1130/312/20/
043100/20130328/102114/1130/122/20/
043100/20130328/102124/1130/305/20/
043100/20130328/102137/1125/2006/10/
043100/20130328/102137/1130/100/20/
043100/20130328/102158/1130/87/20/
043100/20130328/102201/1130/441/20/
043100/20130328/102204/1130/83/20/
043100/20130328/102207/1130/141/20/
043100/20130328/102207/1130/110/20/
043100/20130328/102211/1130/82/20/
043100/20130328/102214/1130/82/20/
043100/20130328/102215/1125/1469/10/
043100/20130328/102216/1130/86/20/
043100/20130328/102220/1130/84/20/
043100/20130328/102223/1130/556/20/
043100/20130328/102226/1130/260/20/
043100/20130328/102230/1130/103/20/
043100/20130328/102230/1130/101/20/
043100/20130328/102231/1130/100/20/
043100/20130328/102231/1130/101/20/
043100/20130328/102232/1130/101/20/
043100/20130328/102232/1130/100/20/
043100/20130328/102233/1130/100/20/
043100/20130328/102234/1130/100/20/
043100/20130328/102234/1130/101/20/
043100/20130328/102235/1130/100/20/
043100/20130328/102235/1130/100/20/
043100/20130328/102236/1130/100/20/
043100/20130328/102240/1130/258/20/
043100/20130328/102243/1130/102/20/
043100/20130328/102252/1130/517/20/
043100/20130328/102252/1130/800/20/
043100/20130328/102255/1130/1011/20/
043100/20130328/102309/1125/6882/10/
043100/20130328/102317/1125/9529/10/
043100/20130328/102318/1125/6000/10/
043100/20130328/102318/1125/3001/10/
043100/20130328/102318/1125/10000/10/
043100/20130328/102320/1125/4267/10/
043100/20130328/102329/1125/82/20/
043100/20130328/102332/1125/3001/20/
043100/20130328/102332/1125/100/20/
043100/20130328/102343/1125/101/20/
043100/20130328/102354/1120/166/10/
043100/20130328/102400/1125/1001/20/
043100/20130328/102445/1120/474/10/
043100/20130328/102505/1120/122/10/
043100/20130328/102514/1120/216/10/
043100/20130328/102533/1125/267/20/
043100/20130328/102539/1125/316/20/
043100/20130328/102542/1120/1864/10/
043100/20130328/102543/1125/2319/20/
043100/20130328/102543/1125/4002/20/
043100/20130328/102545/1125/5006/20/
043100/20130328/102547/1125/105/20/
043100/20130328/102605/1120/1540/10/
043100/20130328/102606/1120/934/10/
043100/20130328/102608/1125/1577/20/
043100/20130328/102610/1125/449/20/
043100/20130328/102612/1125/103/20/
043100/20130328/102629/1125/1030/20/
043100/20130328/102632/1125/1003/20/
043100/20130328/102633/1125/100/20/
043100/20130328/102634/1125/1201/20/
043100/20130328/102643/1125/254/20/
043100/20130328/102657/1125/1013/20/
043100/20130328/102731/1120/6741/10/
043100/20130328/102736/1120/4003/10/
043100/20130328/102809/1125/182/20/
043100/20130328/102829/1120/3422/10/
043100/20130328/102832/1120/150/10/
043100/20130328/102841/1125/112/20/
043100/20130328/102841/1120/150/10/
043100/20130328/102857/1125/1861/20/
043100/20130328/102857/1120/13355/10/
043100/20130328/102901/1120/102/10/
043100/20130328/102915/1120/3294/10/
043100/20130328/102923/1125/110/20/
043100/20130328/102924/1125/300/20/
043100/20130328/103020/1120/5023/10/
043100/20130328/103030/1125/202/20/
043100/20130328/103034/1125/1349/20/
043100/20130328/103048/1125/803/20/
043100/20130328/103054/1125/132/20/
043100/20130328/103056/1125/500/20/
043100/20130328/103103/1125/332/20/
043100/20130328/103114/1125/202/20/
043100/20130328/103122/1125/1239/20/
043100/20130328/103129/1125/273/20/
043100/20130328/103150/1120/1611/10/
043100/20130328/103201/1120/6139/10/
043100/20130328/103211/1120/1857/10/
043100/20130328/103234/1125/128/20/
043100/20130328/103236/1120/400/10/
043100/20130328/103251/1120/503/10/
043100/20130328/103255/1120/700/10/
043100/20130328/103312/1120/705/10/
043100/20130328/103315/1120/3016/10/
043100/20130328/103320/1120/4734/10/
043100/20130328/103321/1120/800/10/
043100/20130328/103321/1120/12002/10/
043100/20130328/103322/1125/2000/20/
043100/20130328/103322/1120/14465/10/
043100/20130328/103349/1120/521/20/
043100/20130328/103407/1120/760/20/
043100/20130328/103422/1115/512/10/
043100/20130328/103435/1120/755/20/
043100/20130328/103452/1115/1056/10/
043100/20130328/103503/1115/1551/10/
043100/20130328/103519/1120/314/20/
043100/20130328/103535/1120/7718/20/
043100/20130328/103536/1120/10537/20/
043100/20130328/103536/1120/17500/20/
043100/20130328/103537/1120/1496/20/
043100/20130328/103537/1120/100/20/
043100/20130328/103538/1120/1000/20/
043100/20130328/103538/1120/6559/20/
043100/20130328/103604/1125/130/20/
043100/20130328/103623/1120/2010/10/
043100/20130328/103624/1125/2900/20/
043100/20130328/103635/1125/556/20/
043100/20130328/103635/1125/3000/20/
043100/20130328/103656/1125/124/20/
043100/20130328/103729/1125/86/20/
043100/20130328/103749/1125/89/20/
043100/20130328/103835/1125/110/20/
043100/20130328/103842/1120/2905/10/
043100/20130328/103934/1125/110/20/
043100/20130328/103936/1120/18457/10/
043100/20130328/103953/1120/715/10/
043100/20130328/104002/1120/9242/10/
043100/20130328/104007/1120/3006/10/
043100/20130328/104008/1120/3923/10/
043100/20130328/104013/1120/104/10/
043100/20130328/104014/1120/1001/10/
043100/20130328/104022/1125/50009/20/
043100/20130328/104024/1125/10332/20/
043100/20130328/104024/1125/1364/10/
043100/20130328/104029/1125/100/10/
043100/20130328/104031/1125/1780/10/
043100/20130328/104034/1130/224/20/
043100/20130328/104039/1130/235/20/
043100/20130328/104041/1125/16011/10/
043100/20130328/104043/1125/4222/10/
043100/20130328/104043/1130/213/20/
043100/20130328/104044/1125/4356/10/
043100/20130328/104053/1125/133/10/
043100/20130328/104057/1130/113/20/
043100/20130328/104110/1130/174/20/
043100/20130328/104118/1130/89/20/
043100/20130328/104128/1130/89/20/
043100/20130328/104130/1130/1011/20/
043100/20130328/104131/1130/132/20/
043100/20130328/104132/1130/2011/20/
043100/20130328/104136/1130/88/20/
043100/20130328/104141/1130/341/20/
043100/20130328/104147/1130/311/20/
043100/20130328/104154/1130/96/20/
043100/20130328/104155/1130/172/20/
043100/20130328/104203/1125/777/10/
043100/20130328/104204/1130/150/20/
043100/20130328/104227/1130/312/20/
043100/20130328/104233/1130/500/20/
043100/20130328/104258/1130/402/20/
043100/20130328/104259/1125/2200/10/
043100/20130328/104302/1130/1770/20/
043100/20130328/104308/1130/301/20/
043100/20130328/104319/1125/5037/10/
043100/20130328/104331/1130/110/20/
043100/20130328/104343/1130/450/20/
043100/20130328/104346/1125/700/10/
043100/20130328/104350/1130/37006/20/
043100/20130328/104352/1130/2926/20/
043100/20130328/104353/1130/1000/20/
043100/20130328/104354/1130/500/20/
043100/20130328/104356/1130/500/20/
043100/20130328/104358/1130/1001/20/
043100/20130328/104359/1130/100/20/
043100/20130328/104400/1130/1000/20/
043100/20130328/104411/1130/5057/20/
043100/20130328/104412/1130/111/20/
043100/20130328/104412/1130/100/20/
043100/20130328/104412/1130/5000/20/
043100/20130328/104413/1130/3263/20/
043100/20130328/104415/1135/88/20/
043100/20130328/104423/1135/1266/20/
043100/20130328/104424/1135/220/20/
043100/20130328/104431/1135/88/20/
043100/20130328/104438/1135/88/20/
043100/20130328/104440/1135/154/20/
043100/20130328/104446/1135/1096/20/
043100/20130328/104453/1135/83/20/
043100/20130328/104453/1135/300/20/
043100/20130328/104503/1135/88/20/
043100/20130328/104506/1135/511/20/
043100/20130328/104541/1135/137/20/
043100/20130328/104549/1130/314/10/
043100/20130328/104553/1130/93/10/
043100/20130328/104555/1135/1038/20/
043100/20130328/104604/1130/523/10/
043100/20130328/104604/1135/511/20/
043100/20130328/104607/1135/10011/20/
043100/20130328/104608/1135/3625/20/
043100/20130328/104609/1135/5285/20/
043100/20130328/104611/1135/88/20/
043100/20130328/104613/1135/1044/20/
043100/20130328/104613/1135/5000/20/
043100/20130328/104616/1135/112/20/
043100/20130328/104618/1130/20010/10/
043100/20130328/104620/1130/5001/10/
043100/20130328/104621/1130/590/10/
043100/20130328/104637/1130/102/20/
043100/20130328/104649/1125/1001/10/
043100/20130328/104650/1125/700/10/
043100/20130328/104651/1130/145/20/
043100/20130328/104652/1125/10843/10/
043100/20130328/104702/1130/86/20/
043100/20130328/104702/1125/800/10/
043100/20130328/104703/1125/4180/10/
043100/20130328/104707/1125/508/20/
043100/20130328/104721/1120/8079/10/
043100/20130328/104746/1125/122/20/
043100/20130328/104751/1125/2010/20/
043100/20130328/104758/1125/1056/20/
043100/20130328/104759/1125/1138/10/
043100/20130328/104855/1130/1045/20/
043100/20130328/104915/1125/253/10/
043100/20130328/104937/1130/246/20/
043100/20130328/105021/1125/3316/10/
043100/20130328/105049/1130/1019/20/
043100/20130328/105059/1130/886/20/
043100/20130328/105111/1130/512/20/
043100/20130328/105118/1130/83/20/
043100/20130328/105119/1130/370/20/
043100/20130328/105121/1130/213/20/
043100/20130328/105123/1130/118/20/
043100/20130328/105140/1130/84/20/
043100/20130328/105148/1130/104/20/
043100/20130328/105159/1130/1799/20/
043100/20130328/105209/1130/82/20/
043100/20130328/105224/1130/90/20/
043100/20130328/105234/1125/595/10/
043100/20130328/105249/1125/3895/10/
043100/20130328/105257/1130/84/20/
043100/20130328/105302/1130/1057/20/
043100/20130328/105308/1130/82/20/
043100/20130328/105310/1130/1010/20/
043100/20130328/105310/1130/110/20/
043100/20130328/105313/1130/325/20/
043100/20130328/105315/1130/18151/20/
043100/20130328/105323/1135/90/20/
043100/20130328/105332/1135/125/20/
043100/20130328/105347/1135/82/20/
043100/20130328/105410/1135/2937/20/
043100/20130328/105411/1135/550/20/
043100/20130328/105428/1135/93/20/
043100/20130328/105429/1135/100/20/
043100/20130328/105447/1130/115/10/
043100/20130328/105516/1130/5012/10/
043100/20130328/105522/1130/25024/10/
043100/20130328/105523/1130/112/10/
043100/20130328/105525/1130/108/10/
043100/20130328/105527/1130/139/10/
043100/20130328/105527/1130/500/10/
043100/20130328/105547/1125/192/10/
043100/20130328/105615/1130/1254/20/
043100/20130328/105628/1125/712/10/
043100/20130328/105657/1125/1324/10/
043100/20130328/105714/1125/152/10/
043100/20130328/105729/1125/30012/10/
043100/20130328/105735/1125/2900/10/
043100/20130328/105758/1125/132/20/
043100/20130328/105811/1125/84/20/
043100/20130328/105828/1120/2571/10/
043100/20130328/105841/1120/3005/10/
043100/20130328/105845/1120/117/10/
043100/20130328/105846/1125/92/20/
043100/20130328/105851/1125/151/20/
043100/20130328/105852/1125/550/20/
043100/20130328/105856/1125/856/20/
043100/20130328/105856/1125/2378/20/
043100/20130328/105909/1125/105/20/
043100/20130328/105929/1125/88/20/
043100/20130328/105932/1125/103/20/
043100/20130328/105937/1120/111/10/
043100/20130328/110001/1120/12804/10/
043100/20130328/110034/1125/9764/20/
043100/20130328/110048/1125/2001/20/
043100/20130328/110105/1125/275/20/
043100/20130328/110143/1125/167/20/
043100/20130328/110201/1120/12122/10/
043100/20130328/110210/1125/1012/20/
043100/20130328/110248/1125/154/20/
043100/20130328/110302/1125/1061/20/
043100/20130328/110312/1120/500/10/
043100/20130328/110313/1125/3000/20/
043100/20130328/110328/1125/111/20/
043100/20130328/110343/1125/403/20/
043100/20130328/110345/1125/5000/20/
043100/20130328/110352/1125/3830/20/
043100/20130328/110353/1125/1228/20/
043100/20130328/110427/1125/1049/20/
043100/20130328/110448/1125/3059/20/
043100/20130328/110502/1120/11213/10/
043100/20130328/110521/1125/1006/20/
043100/20130328/110546/1125/561/20/
043100/20130328/110548/1120/5361/10/
043100/20130328/110549/1120/100/10/
043100/20130328/110601/1120/1004/10/
043100/20130328/110604/1120/69872/10/
043100/20130328/110612/1120/2139/20/
043100/20130328/110624/1120/113/20/
043100/20130328/110629/1120/719/20/
043100/20130328/110631/1115/250/10/
043100/20130328/110634/1120/119/20/
043100/20130328/110635/1115/736/10/
043100/20130328/110648/1115/1002/10/
043100/20130328/110653/1115/2226/10/
043100/20130328/110706/1115/10738/10/
043100/20130328/110709/1115/50957/10/
043100/20130328/110711/1110/4315/10/
043100/20130328/110714/1115/1054/20/
043100/20130328/110716/1115/1000/20/
043100/20130328/110719/1115/1004/20/
043100/20130328/110721/1115/451/20/
043100/20130328/110721/1115/1000/20/
043100/20130328/110721/1115/100/20/
043100/20130328/110721/1115/250/20/
043100/20130328/110723/1115/1000/20/
043100/20130328/110724/1115/555/20/
043100/20130328/110728/1115/4501/10/
043100/20130328/110743/1115/1520/10/
043100/20130328/110750/1115/2002/10/
043100/20130328/110751/1115/104/10/
043100/20130328/110757/1115/130/10/
043100/20130328/110802/1115/2946/10/
043100/20130328/110807/1115/102/10/
043100/20130328/110809/1115/124/10/
043100/20130328/110813/1115/2180/10/
043100/20130328/110817/1115/3070/10/
043100/20130328/110828/1115/963/20/
043100/20130328/110838/1115/100/20/
043100/20130328/110839/1115/121/20/
043100/20130328/110839/1115/3003/20/
043100/20130328/110842/1115/100/20/
043100/20130328/110850/1110/5354/10/
043100/20130328/110901/1115/101/20/
043100/20130328/110908/1115/1000/20/
043100/20130328/110914/1115/4958/20/
043100/20130328/110919/1115/1840/10/
043100/20130328/110951/1120/1056/20/
043100/20130328/111018/1115/381/10/
043100/20130328/111020/1120/117/20/
043100/20130328/111024/1120/105/20/
043100/20130328/111115/1120/81/20/
043100/20130328/111141/1120/942/20/
043100/20130328/111202/1115/3069/10/
043100/20130328/111234/1115/179/10/
043100/20130328/111304/1115/716/10/
043100/20130328/111324/1115/631/10/
043100/20130328/111346/1120/5003/20/
043100/20130328/111417/1120/99/20/
043100/20130328/111424/1120/10000/20/
043100/20130328/111425/1115/300/10/
043100/20130328/111425/1120/100/20/
043100/20130328/111431/1120/1000/20/
043100/20130328/111433/1120/136/20/
043100/20130328/111435/1120/2287/20/
043100/20130328/111438/1120/1250/20/
043100/20130328/111453/1120/107/20/
043100/20130328/111456/1120/191/20/
043100/20130328/111506/1120/4327/20/
043100/20130328/111515/1120/268/20/
043100/20130328/111517/1120/305/20/
043100/20130328/111551/1120/507/20/
043100/20130328/111614/1120/1001/20/
043100/20130328/111634/1120/500/20/
043100/20130328/111712/1115/1030/10/
043100/20130328/111749/1120/3071/20/
043100/20130328/111756/1120/687/20/
043100/20130328/111838/1120/554/20/
043100/20130328/111936/1115/56890/10/
043100/20130328/111953/1115/363/20/
043100/20130328/111959/1115/1022/20/
043100/20130328/112002/1115/310/20/
043100/20130328/112010/1110/1043/10/
043100/20130328/112015/1115/2430/20/
043100/20130328/112015/1115/3000/20/
043100/20130328/112017/1115/3001/20/
043100/20130328/112018/1115/100/20/
043100/20130328/112019/1115/366/20/
043100/20130328/112051/1120/1079/20/
043100/20130328/112137/1120/85/20/
043100/20130328/112141/1115/205/10/
043100/20130328/112245/1120/81/20/
043100/20130328/112324/1120/252/20/
043100/20130328/112328/1115/1009/10/
043100/20130328/112340/1120/1009/20/
043100/20130328/112344/1120/3001/20/
043100/20130328/112355/1120/1162/20/
043100/20130328/112415/1120/1815/20/
043100/20130328/112435/1120/547/20/
043100/20130328/112510/1120/97/20/
043100/20130328/112519/1120/237/20/
043100/20130328/112520/1120/5000/20/
043100/20130328/112523/1120/3005/20/
043100/20130328/112523/1120/1374/20/
043100/20130328/112523/1120/3000/20/
043100/20130328/112529/1120/2070/20/
043100/20130328/112532/1120/1612/20/
043100/20130328/112555/1120/3843/10/
043100/20130328/112559/1120/300/20/
043100/20130328/112603/1120/649/20/
043100/20130328/112610/1120/285/20/
043100/20130328/112619/1115/68572/10/
043100/20130328/112628/1115/1429/20/
043100/20130328/112628/1120/4371/20/
043100/20130328/112654/1120/209/20/
043100/20130328/112654/1115/4134/10/
043100/20130328/112701/1115/921/20/
043100/20130328/112704/1115/81/10/
043100/20130328/112728/1110/26511/10/
043100/20130328/112729/1110/5006/10/
043100/20130328/112751/1110/1085/10/
043100/20130328/112759/1115/1060/20/
043100/20130328/112810/1110/18555/10/
043100/20130328/112846/1115/84/20/
043100/20130328/112908/1115/1404/20/
043100/20130328/112909/1115/406/20/
043100/20130328/112937/1110/3320/10/
043100/20130328/112937/1115/875/20/
043100/20130328/112942/1115/200/20/
043100/20130328/113020/1115/2620/20/
043100/20130328/113037/1115/1004/10/
043100/20130328/113104/1120/1586/20/
043100/20130328/113110/1115/1004/10/
043100/20130328/113154/1120/6284/20/
043100/20130328/113156/1120/5002/20/
043100/20130328/113200/1120/1003/20/
043100/20130328/113234/1120/2080/20/
043100/20130328/113240/1120/201/20/
043100/20130328/113245/1120/1188/20/
043100/20130328/113246/1120/2002/20/
043100/20130328/113248/1120/1000/20/
043100/20130328/113340/1120/905/20/
043100/20130328/113359/1120/10462/20/
043100/20130328/113422/1120/97/20/
043100/20130328/113426/1120/1972/20/
043100/20130328/113434/1120/1462/20/
043100/20130328/113449/1120/2021/20/
043100/20130328/113449/1120/501/20/
043100/20130328/113457/1120/81/20/
043100/20130328/113502/1115/130/10/
043100/20130328/113503/1120/226/20/
043100/20130328/113526/1120/1107/10/
043100/20130328/113535/1120/1640/10/
043100/20130328/113538/1120/1004/20/
043100/20130328/113541/1120/1389/20/
043100/20130328/113546/1120/513/10/
043100/20130328/113623/1120/1562/10/
043100/20130328/113629/1120/703/20/
043100/20130328/113629/1120/1000/10/
043100/20130328/113635/1120/1018/10/
043100/20130328/113638/1120/361/10/
043100/20130328/113700/1120/329/20/
043100/20130328/113707/1120/2831/20/
043100/20130328/113714/1120/1053/20/
043100/20130328/113715/1120/2009/10/
043100/20130328/113718/1120/232/10/
043100/20130328/113720/1120/2002/10/
043100/20130328/113722/1120/2011/10/
043100/20130328/113722/1120/2791/10/
043100/20130328/113732/1120/232/20/
043100/20130328/113737/1120/810/20/
043100/20130328/113745/1120/228/20/
043100/20130328/113750/1120/314/20/
043100/20130328/113802/1120/125/20/
043100/20130328/113906/1115/1142/10/
043100/20130328/113913/1115/1000/10/
043100/20130328/113944/1120/90/20/
043100/20130328/114028/1120/137/20/
043100/20130328/114105/1120/171/20/
043100/20130328/114139/1120/1486/20/
043100/20130328/114149/1120/200/20/
043100/20130328/114250/1115/10458/10/
043100/20130328/114311/1115/2825/10/
043100/20130328/114316/1115/5002/10/
043100/20130328/114350/1115/140/10/
043100/20130328/114615/1120/1048/20/
043100/20130328/114624/1115/500/10/
043100/20130328/114715/1115/4180/10/
043100/20130328/114752/1120/7015/20/
043100/20130328/114756/1120/189/20/
043100/20130328/114800/1120/570/20/
043100/20130328/114810/1120/1141/20/
043100/20130328/114810/1120/5000/20/
043100/20130328/114811/1120/719/20/
043100/20130328/114812/1125/500/20/
043100/20130328/114848/1120/1210/10/
043100/20130328/114902/1120/5002/10/
043100/20130328/114930/1120/503/10/
043100/20130328/115014/1120/688/10/
043100/20130328/115140/1120/601/10/
043100/20130328/115201/1120/8040/10/
043100/20130328/115228/1125/201/20/
043100/20130328/115236/1120/200/10/
043100/20130328/115338/1125/2003/20/
043100/20130328/115347/1120/24481/10/
043100/20130328/115355/1120/520/20/
043100/20130328/115413/1120/637/10/
043100/20130328/115427/1120/90/10/
043100/20130328/115438/1120/532/20/
043100/20130328/115439/1120/1519/10/
043100/20130328/115439/1120/2061/10/
043100/20130328/115444/1120/1000/20/
043100/20130328/115504/1120/206/20/
043100/20130328/115508/1120/1000/20/
043100/20130328/115512/1120/100/20/
043100/20130328/115549/1120/225/20/
043100/20130328/115613/1120/1000/20/
043100/20130328/115615/1120/2000/20/
043100/20130328/115624/1120/807/20/
043100/20130328/115647/1120/377/10/
043100/20130328/115656/1125/14864/20/
043100/20130328/115744/1120/1024/10/
043100/20130328/115939/1125/1025/20/
043100/20130328/120042/1120/7701/10/
043100/20130328/120300/1120/17459/10/
043100/20130328/120301/1120/1121/10/
043100/20130328/120315/1120/155/10/
043100/20130328/120330/1120/102/10/
043100/20130328/120331/1120/500/10/
043100/20130328/120554/1120/1978/10/
043100/20130328/120600/1120/187/10/
043100/20130328/120606/1120/501/10/
043100/20130328/120615/1120/1000/10/
043100/20130328/120631/1120/501/10/
043100/20130328/120716/1120/2901/10/
043100/20130328/120728/1120/2001/10/
043100/20130328/120733/1120/3001/10/
043100/20130328/120743/1120/485/10/
043100/20130328/120747/1120/680/10/
043100/20130328/120752/1120/1685/20/
043100/20130328/120753/1120/2315/10/
043100/20130328/120759/1120/1047/20/
043100/20130328/120801/1120/1983/20/
043100/20130328/120806/1120/100/20/
043100/20130328/120815/1120/5042/20/
043100/20130328/120826/1120/230/20/
043100/20130328/120937/1120/186/20/
043100/20130328/121014/1120/269/20/
043100/20130328/121049/1120/4551/20/
043100/20130328/121053/1120/2201/20/
043100/20130328/121207/1115/513/10/
043100/20130328/121230/1115/800/10/
043100/20130328/121306/1120/801/20/
043100/20130328/121348/1120/5000/20/
043100/20130328/121357/1120/464/20/
043100/20130328/121359/1120/800/10/
043100/20130328/121439/1125/197/20/
043100/20130328/121507/1125/439/20/
043100/20130328/121603/1120/1230/10/
043100/20130328/121614/1120/301/10/
043100/20130328/121624/1120/1124/10/
043100/20130328/121630/1120/497/10/
043100/20130328/121710/1120/141/10/
043100/20130328/121816/1125/201/20/
043100/20130328/121821/1120/3000/10/
043100/20130328/121825/1125/200/20/
043100/20130328/121834/1120/2253/10/
043100/20130328/122008/1120/410/20/
043100/20130328/122151/1120/1035/20/
043100/20130328/122207/1120/12700/20/
043100/20130328/122209/1120/4631/20/
043100/20130328/122210/1115/10001/10/
043100/20130328/122211/1120/3502/20/
043100/20130328/122254/1120/1007/20/
043100/20130328/122322/1120/5000/20/
043100/20130328/122347/1120/100/20/
043100/20130328/122407/1120/502/20/
043100/20130328/122412/1120/100/20/
043100/20130328/122446/1120/1000/20/
043100/20130328/122452/1120/1002/20/
043100/20130328/122459/1120/500/20/
043100/20130328/122534/1120/1011/20/
043100/20130328/122602/1120/770/20/
043100/20130328/122738/1120/214/20/
043100/20130328/122759/1115/1356/10/
043100/20130328/122835/1120/502/20/
043100/20130328/122858/1115/400/10/
043100/20130328/122904/1120/3000/20/
043100/20130328/122907/1120/1000/20/
043100/20130328/122908/1120/2000/20/
043100/20130328/122915/1120/1950/20/
043100/20130328/122930/1125/448/20/
043100/20130328/122942/1125/1010/20/
043100/20130328/123005/1120/2816/10/
043100/20130328/123053/1120/735/10/
043100/20130328/123240/1120/1324/10/
043100/20130328/123247/1120/2041/10/
043100/20130328/123248/1120/2051/10/
043100/20130328/123251/1120/1589/10/
043100/20130328/123254/1120/4633/10/
043100/20130328/123305/1120/3617/10/
043100/20130328/123339/1120/5002/10/
043100/20130328/123347/1125/401/20/
043100/20130328/123401/1120/1003/10/
043100/20130328/123406/1120/1503/10/
043100/20130328/123430/1115/750/10/
043100/20130328/123523/1115/1747/10/
043100/20130328/123526/1115/297/10/
043100/20130328/123529/1115/298/10/
043100/20130328/123538/1120/200/20/
043100/20130328/123543/1120/100/20/
043100/20130328/123607/1120/135/20/
043100/20130328/123612/1120/2000/20/
043100/20130328/123636/1120/1010/20/
043100/20130328/123709/1120/841/20/
043100/20130328/123709/1120/270/20/
043100/20130328/123714/1120/597/20/
043100/20130328/123715/1120/300/20/
043100/20130328/123731/1120/600/20/
043100/20130328/123743/1120/2050/20/
043100/20130328/123825/1120/134/20/
043100/20130328/123826/1120/701/20/
043100/20130328/123830/1120/2005/20/
043100/20130328/123834/1120/296/20/
043100/20130328/124143/1115/2870/10/
043100/20130328/124145/1120/200/20/
043100/20130328/124202/1120/100/20/
043100/20130328/124208/1120/5000/20/
043100/20130328/124212/1120/618/20/
043100/20130328/124219/1120/1000/20/
043100/20130328/124223/1120/305/20/
043100/20130328/124230/1120/100/20/
043100/20130328/124234/1120/457/20/
043100/20130328/124255/1120/300/20/
043100/20130328/124300/1120/100/20/
043100/20130328/124306/1120/300/20/
043100/20130328/124311/1120/100/20/
043100/20130328/124347/1120/1025/20/
043100/20130328/124356/1115/8593/10/
043100/20130328/124418/1120/6406/10/
043100/20130328/124439/1120/2283/10/
043100/20130328/124515/1120/1001/10/
043100/20130328/124522/1120/1801/10/
043100/20130328/124632/1125/4051/20/
043100/20130328/124634/1125/155/20/
043100/20130328/124642/1125/101/20/
043100/20130328/124652/1125/201/20/
043100/20130328/124707/1125/100/20/
043100/20130328/124714/1125/163/20/
043100/20130328/124716/1120/11344/10/
043100/20130328/124716/1115/13657/10/
043100/20130328/124742/1120/1010/10/
043100/20130328/124838/1120/101/10/
043100/20130328/124933/1120/89/20/
043100/20130328/124939/1120/2000/20/
043100/20130328/125109/1120/13693/20/
043100/20130328/125127/1120/104/10/
043100/20130328/125127/1120/2181/10/
043100/20130328/125133/1120/1003/10/
043100/20130328/125135/1120/423/10/
043100/20130328/125153/1120/503/10/
043100/20130328/125213/1120/404/10/
043100/20130328/125225/1120/184/10/
043100/20130328/125324/1120/389/10/
043100/20130328/125346/1120/1004/10/
043100/20130328/125528/1115/932/10/
043100/20130328/125531/1120/2012/10/
043100/20130328/125538/1120/126/10/
043100/20130328/125613/1120/506/10/
043100/20130328/125625/1120/501/10/
043100/20130328/125654/1120/153/10/
043100/20130328/125701/1120/1000/10/
043100/20130328/125722/1125/430/20/
043100/20130328/125730/1120/300/10/
043100/20130328/125815/1120/592/10/
043100/20130328/125830/1120/1203/10/
043100/20130328/125903/1120/917/10/
043100/20130328/125917/1120/1000/10/
043100/20130328/125917/1120/190/10/
043100/20130328/130020/1120/2065/10/
043100/20130328/130028/1120/1014/10/
043100/20130328/130105/1125/865/20/
043100/20130328/130121/1120/2501/10/
043100/20130328/130126/1125/598/20/
043100/20130328/130156/1120/102/10/
043100/20130328/130225/1125/510/20/
043100/20130328/130234/1120/1463/10/
043100/20130328/130253/1120/1002/20/
043100/20130328/130341/1120/305/20/
043100/20130328/130455/1120/258/20/
043100/20130328/130456/1120/2166/20/
043100/20130328/130501/1120/1407/20/
043100/20130328/130535/1120/102/20/
043100/20130328/130602/1120/500/20/
043100/20130328/130610/1120/1354/20/
043100/20130328/130619/1120/100/20/
043100/20130328/130621/1120/100/20/
043100/20130328/130622/1115/370/10/
043100/20130328/130623/1120/7155/20/
043100/20130328/130623/1120/1116/20/
043100/20130328/130645/1125/4479/20/
043100/20130328/130648/1125/783/20/
043100/20130328/130702/1125/4436/20/
043100/20130328/130928/1125/116/20/
043100/20130328/131056/1125/517/20/
043100/20130328/131158/1120/103/10/
043100/20130328/131213/1120/2001/10/
043100/20130328/131217/1120/114/10/
043100/20130328/131247/1120/4102/10/
043100/20130328/131300/1120/2300/10/
043100/20130328/131313/1120/5000/10/
043100/20130328/131339/1120/2902/10/
043100/20130328/131355/1120/501/10/
043100/20130328/131415/1120/401/10/
043100/20130328/131415/1120/16000/10/
043100/20130328/131424/1120/3400/10/
043100/20130328/131425/1120/3317/10/
043100/20130328/131448/1120/482/20/
043100/20130328/131513/1120/533/20/
043100/20130328/131611/1120/3056/20/
043100/20130328/131644/1120/3052/20/
043100/20130328/131649/1120/180/20/
043100/20130328/131703/1120/1000/20/
043100/20130328/131705/1120/5070/20/
043100/20130328/131707/1120/2000/20/
043100/20130328/131715/1120/1010/20/
043100/20130328/131716/1120/4533/10/
043100/20130328/131716/1125/4290/20/
043100/20130328/131722/1125/1596/20/
043100/20130328/131726/1125/2432/20/
043100/20130328/131727/1125/286/20/
043100/20130328/131729/1125/1823/20/
043100/20130328/131750/1120/1072/10/
043100/20130328/131805/1120/1002/10/
043100/20130328/131901/1125/3001/20/
043100/20130328/131902/1120/200/10/
043100/20130328/131909/1125/101/20/
043100/20130328/131958/1120/2318/10/
043100/20130328/132000/1125/2283/20/
043100/20130328/132104/1125/3002/20/
043100/20130328/132127/1125/200/20/
043100/20130328/132127/1125/100/20/
043100/20130328/132133/1125/2000/20/
043100/20130328/132144/1120/2000/10/
043100/20130328/132152/1120/551/10/
043100/20130328/132227/1120/111/10/
043100/20130328/132302/1125/86/20/
043100/20130328/132318/1125/3006/20/
043100/20130328/132322/1120/169/10/
043100/20130328/132333/1125/3005/20/
043100/20130328/132559/1120/354/10/
043100/20130328/132623/1120/1501/10/
043100/20130328/132735/1125/111/20/
043100/20130328/132849/1125/666/20/
043100/20130328/132929/1125/2403/20/
043100/20130328/133046/1120/830/10/
043100/20130328/133137/1125/779/20/
043100/20130328/133202/1125/90/20/
043100/20130328/133335/1120/762/10/
043100/20130328/133337/1125/7925/20/
043100/20130328/133445/1125/121/20/
043100/20130328/133526/1125/500/20/
043100/20130328/133609/1125/97/20/
043100/20130328/133642/1125/400/20/
043100/20130328/133652/1125/300/20/
043100/20130328/133655/1120/581/10/
043100/20130328/133708/1125/500/20/
043100/20130328/133712/1125/500/20/
043100/20130328/133737/1125/5018/20/
043100/20130328/133741/1125/500/20/
043100/20130328/133751/1125/1101/20/
043100/20130328/133753/1125/500/20/
043100/20130328/133755/1125/15000/20/
043100/20130328/133756/1125/50000/20/
043100/20130328/133757/1125/9811/20/
043100/20130328/133757/1125/30000/20/
043100/20130328/133758/1125/4284/20/
043100/20130328/133758/1125/17777/20/
043100/20130328/133758/1125/3659/20/
043100/20130328/133818/1125/1043/10/
043100/20130328/133827/1130/83/20/
043100/20130328/133839/1125/138/10/
043100/20130328/133850/1130/133/20/
043100/20130328/133856/1130/91/20/
043100/20130328/133901/1130/4610/20/
043100/20130328/133921/1130/102/20/
043100/20130328/133935/1130/100/20/
043100/20130328/133944/1130/410/20/
043100/20130328/133956/1125/2032/10/
043100/20130328/134020/1130/628/20/
043100/20130328/134044/1130/100/20/
043100/20130328/134052/1125/100/10/
043100/20130328/134100/1125/22748/10/
043100/20130328/134102/1125/3093/10/
043100/20130328/134112/1125/7916/20/
043100/20130328/134115/1125/500/20/
043100/20130328/134117/1120/1200/10/
043100/20130328/134123/1125/500/20/
043100/20130328/134202/1125/1001/20/
043100/20130328/134257/1125/1199/20/
043100/20130328/134312/1120/1004/10/
043100/20130328/134358/1125/4368/20/
043100/20130328/134407/1120/2104/10/
043100/20130328/134421/1120/552/10/
043100/20130328/134429/1125/2273/20/
043100/20130328/134433/1125/212/20/
043100/20130328/134450/1125/853/20/
043100/20130328/134507/1125/1002/20/
043100/20130328/134528/1125/1004/20/
043100/20130328/134552/1125/108/20/
043100/20130328/134555/1125/100/20/
043100/20130328/134557/1125/100/20/
043100/20130328/134611/1120/1547/10/
043100/20130328/134638/1125/2420/20/
043100/20130328/134700/1120/50365/10/
043100/20130328/134707/1120/2403/10/
043100/20130328/134708/1120/5000/10/
043100/20130328/134708/1120/3659/10/
043100/20130328/134709/1120/921/10/
043100/20130328/134714/1120/344/20/
043100/20130328/134723/1120/2072/20/
043100/20130328/134724/1120/1000/20/
043100/20130328/134726/1120/391/20/
043100/20130328/134737/1120/167/10/
043100/20130328/134758/1120/1038/20/
043100/20130328/134810/1120/570/20/
043100/20130328/134834/1120/550/20/
043100/20130328/134848/1120/1062/20/
043100/20130328/134850/1120/1000/20/
043100/20130328/134859/1120/1021/20/
043100/20130328/134901/1120/5000/20/
043100/20130328/134904/1120/510/20/
043100/20130328/134922/1120/1259/20/
043100/20130328/134926/1120/310/20/
043100/20130328/134936/1120/507/20/
043100/20130328/135005/1115/733/10/
043100/20130328/135029/1115/1017/10/
043100/20130328/135033/1115/7080/10/
043100/20130328/135042/1115/4015/10/
043100/20130328/135105/1120/466/20/
043100/20130328/135124/1115/5495/10/
043100/20130328/135219/1120/2123/20/
043100/20130328/135224/1120/303/20/
043100/20130328/135234/1120/901/20/
043100/20130328/135252/1120/1007/20/
043100/20130328/135257/1115/5020/10/
043100/20130328/135422/1120/247/20/
043100/20130328/135433/1115/3646/10/
043100/20130328/135436/1120/500/20/
043100/20130328/135508/1120/212/20/
043100/20130328/135528/1115/1000/10/
043100/20130328/135543/1120/204/20/
043100/20130328/135617/1115/400/10/
043100/20130328/135623/1120/502/20/
043100/20130328/135624/1120/500/20/
043100/20130328/135643/1120/6973/20/
043100/20130328/135645/1120/24124/20/
043100/20130328/135646/1120/388/20/
043100/20130328/135715/1120/7952/10/
043100/20130328/135734/1120/958/20/
043100/20130328/135815/1120/96/20/
043100/20130328/135816/1115/1050/10/
043100/20130328/135834/1120/1007/20/
043100/20130328/135913/1120/5022/20/
043100/20130328/135915/1120/900/20/
043100/20130328/135917/1115/2010/10/
043100/20130328/135931/1120/1012/20/
043100/20130328/135934/1120/1000/20/
043100/20130328/135944/1120/2000/20/
043100/20130328/135945/1120/500/20/
043100/20130328/135951/1120/2000/20/
043100/20130328/135952/1120/1000/20/
043100/20130328/140006/1120/2626/20/
043100/20130328/140007/1120/1000/20/
043100/20130328/140008/1120/8283/20/
043100/20130328/140009/1120/517/10/
043100/20130328/140014/1120/503/20/
043100/20130328/140026/1120/712/20/
043100/20130328/140109/1120/1856/20/
043100/20130328/140138/1115/555/10/
043100/20130328/140147/1120/951/20/
043100/20130328/140200/1120/1020/20/
043100/20130328/140241/1120/518/20/
043100/20130328/140243/1120/9916/20/
043100/20130328/140246/1120/1000/20/
043100/20130328/140250/1120/1936/20/
043100/20130328/140253/1120/1363/20/
043100/20130328/140254/1120/1000/20/
043100/20130328/140300/1120/230/20/
043100/20130328/140300/1120/13266/20/
043100/20130328/140301/1120/3711/10/
043100/20130328/140327/1120/100/20/
043100/20130328/140329/1120/2145/20/
043100/20130328/140333/1120/100/20/
043100/20130328/140342/1120/1000/20/
043100/20130328/140408/1120/200/20/
043100/20130328/140423/1120/3510/20/
043100/20130328/140517/1120/1501/20/
043100/20130328/140529/1120/90/20/
043100/20130328/140545/1115/326/10/
043100/20130328/140635/1115/209/10/
043100/20130328/140636/1120/1800/20/
043100/20130328/140645/1120/251/20/
043100/20130328/140650/1120/732/20/
043100/20130328/140707/1115/4903/10/
043100/20130328/140723/1115/449/10/
043100/20130328/140749/1115/160/10/
043100/20130328/140801/1115/2300/10/
043100/20130328/140859/1115/303/10/
043100/20130328/140919/1115/100/10/
043100/20130328/140951/1115/10001/10/
043100/20130328/141121/1120/10022/20/
043100/20130328/141130/1120/5346/20/
043100/20130328/141154/1115/1085/10/
043100/20130328/141209/1115/6500/10/
043100/20130328/141215/1115/2006/10/
043100/20130328/141216/1115/6298/10/
043100/20130328/141308/1120/375/20/
043100/20130328/141311/1120/200/20/
043100/20130328/141337/1115/100/10/
043100/20130328/141343/1115/1240/10/
043100/20130328/141350/1115/500/10/
043100/20130328/141358/1115/12500/10/
043100/20130328/141359/1120/300/20/
043100/20130328/141414/1115/1472/10/
043100/20130328/141423/1115/10000/10/
043100/20130328/141426/1115/73845/10/
043100/20130328/141427/1115/100/20/
043100/20130328/141436/1115/1207/20/
043100/20130328/141455/1115/229/20/
043100/20130328/141502/1115/983/20/
043100/20130328/141503/1110/597/10/
043100/20130328/141522/1115/6036/20/
043100/20130328/141524/1115/4065/20/
043100/20130328/141524/1115/1000/20/
043100/20130328/141525/1115/5391/20/
043100/20130328/141528/1115/533/20/
043100/20130328/141530/1115/520/20/
043100/20130328/141530/1115/500/20/
043100/20130328/141531/1115/520/20/
043100/20130328/141533/1115/520/20/
043100/20130328/141533/1115/1000/20/
043100/20130328/141534/1115/552/20/
043100/20130328/141534/1115/100/20/
043100/20130328/141534/1115/500/20/
043100/20130328/141535/1115/120/20/
043100/20130328/141536/1115/511/20/
043100/20130328/141537/1115/100/20/
043100/20130328/141540/1115/200/20/
043100/20130328/141610/1115/4152/20/
043100/20130328/141614/1110/165/10/
043100/20130328/141620/1115/116/20/
043100/20130328/141623/1115/183/20/
043100/20130328/141630/1115/85/20/
043100/20130328/141636/1115/100/20/
043100/20130328/141641/1115/360/20/
043100/20130328/141641/1115/10000/20/
043100/20130328/141642/1115/500/20/
043100/20130328/141643/1115/371/20/
043100/20130328/141645/1115/10000/20/
043100/20130328/141646/1115/261/20/
043100/20130328/141708/1115/865/20/
043100/20130328/141713/1115/111/20/
043100/20130328/141715/1115/111/20/
043100/20130328/141719/1115/118/20/
043100/20130328/141721/1115/112/20/
043100/20130328/141734/1115/159/20/
043100/20130328/141801/1110/529/10/
043100/20130328/141808/1110/1214/10/
043100/20130328/141809/1110/17777/10/
043100/20130328/141811/1110/7711/10/
043100/20130328/141811/1110/1905/10/
043100/20130328/141811/1115/1000/20/
043100/20130328/141812/1110/7828/10/
043100/20130328/141815/1110/596/10/
043100/20130328/141816/1110/5000/10/
043100/20130328/141817/1110/10000/10/
043100/20130328/141819/1110/20011/10/
043100/20130328/141819/1110/2000/10/
043100/20130328/141820/1110/3000/10/
043100/20130328/141820/1110/27058/10/
043100/20130328/141820/1105/83414/10/
043100/20130328/141820/1100/72528/10/
043100/20130328/141820/1100/940/10/
043100/20130328/141828/1105/1021/10/
043100/20130328/141833/1105/5683/10/
043100/20130328/141834/1105/101/20/
043100/20130328/141835/1105/100/20/
043100/20130328/141836/1105/500/20/
043100/20130328/141837/1105/2763/20/
043100/20130328/141837/1105/1000/20/
043100/20130328/141838/1105/501/20/
043100/20130328/141838/1105/500/20/
043100/20130328/141838/1105/100/20/
043100/20130328/141840/1105/2055/20/
043100/20130328/141840/1105/2013/20/
043100/20130328/141840/1105/1000/20/
043100/20130328/141844/1105/652/10/
043100/20130328/141845/1105/763/20/
043100/20130328/141928/1110/1012/20/
043100/20130328/141931/1105/9010/10/
043100/20130328/141941/1105/170/10/
043100/20130328/141948/1105/110/10/
043100/20130328/141950/1105/3134/10/
043100/20130328/141952/1110/1002/20/
043100/20130328/142009/1105/2246/10/
043100/20130328/142011/1105/238/10/
043100/20130328/142050/1110/6009/20/
043100/20130328/142051/1110/501/20/
043100/20130328/142051/1110/500/20/
043100/20130328/142052/1110/200/20/
043100/20130328/142054/1110/1003/20/
043100/20130328/142057/1110/2001/20/
043100/20130328/142103/1110/1009/20/
043100/20130328/142107/1105/2002/10/
043100/20130328/142110/1110/102/20/
043100/20130328/142114/1110/201/20/
043100/20130328/142117/1105/961/10/
043100/20130328/142119/1110/2431/20/
043100/20130328/142120/1110/529/10/
043100/20130328/142124/1110/1002/20/
043100/20130328/142137/1105/708/10/
043100/20130328/142157/1105/1175/10/
043100/20130328/142204/1110/104/20/
043100/20130328/142237/1105/3011/10/
043100/20130328/142239/1105/20001/10/
043100/20130328/142242/1105/3500/10/
043100/20130328/142243/1105/1000/10/
043100/20130328/142248/1105/9847/10/
043100/20130328/142251/1105/631/20/
043100/20130328/142303/1100/2018/10/
043100/20130328/142307/1105/101/20/
043100/20130328/142316/1100/81/10/
043100/20130328/142321/1100/88/10/
043100/20130328/142337/1105/213/20/
043100/20130328/142337/1105/4688/20/
043100/20130328/142339/1105/6001/20/
043100/20130328/142343/1105/1059/20/
043100/20130328/142345/1105/240/20/
043100/20130328/142346/1105/212/20/
043100/20130328/142346/1105/839/20/
043100/20130328/142346/1105/500/20/
043100/20130328/142347/1105/999/20/
043100/20130328/142348/1105/110/20/
043100/20130328/142348/1105/2249/20/
043100/20130328/142349/1105/175/20/
043100/20130328/142351/1105/82/20/
043100/20130328/142351/1105/220/20/
043100/20130328/142352/1105/100/20/
043100/20130328/142355/1105/399/20/
043100/20130328/142428/1110/26001/20/
043100/20130328/142457/1110/5059/20/
043100/20130328/142459/1110/1000/20/
043100/20130328/142511/1110/513/20/
043100/20130328/142520/1110/520/20/
043100/20130328/142523/1110/16003/20/
043100/20130328/142540/1110/5015/10/
043100/20130328/142551/1110/2164/10/
043100/20130328/142551/1105/4340/10/
043100/20130328/142607/1110/114/10/
043100/20130328/142607/1115/20000/20/
043100/20130328/142624/1115/6998/20/
043100/20130328/142639/1115/1000/20/
043100/20130328/142714/1110/4828/10/
043100/20130328/142714/1105/6478/10/
043100/20130328/142722/1110/500/10/
043100/20130328/142723/1110/141/20/
043100/20130328/142729/1110/3060/20/
043100/20130328/142730/1110/1200/10/
043100/20130328/142742/1110/511/10/
043100/20130328/142757/1110/1912/10/
043100/20130328/142757/1110/91/10/
043100/20130328/142802/1110/1003/10/
043100/20130328/142809/1110/500/10/
043100/20130328/142826/1110/81/10/
043100/20130328/142829/1110/2854/10/
043100/20130328/142836/1110/5703/20/
043100/20130328/142836/1110/1447/20/
043100/20130328/142841/1115/1801/20/
043100/20130328/142900/1115/3002/20/
043100/20130328/142901/1115/5010/20/
043100/20130328/142909/1115/152/20/
043100/20130328/142911/1110/200/10/
043100/20130328/142932/1110/3125/10/
043100/20130328/142933/1115/2283/20/
043100/20130328/142947/1115/2008/20/
043100/20130328/142948/1110/100/10/
043100/20130328/142949/1115/10000/20/
043100/20130328/142950/1115/2000/20/
043100/20130328/143013/1115/801/20/
043100/20130328/143019/1110/189/10/
043100/20130328/143023/1115/83/20/
043100/20130328/143034/1110/2008/10/
043100/20130328/143035/1115/1700/20/
043100/20130328/143046/1115/420/20/
043100/20130328/143058/1115/1008/20/
043100/20130328/143100/1115/1004/20/
043100/20130328/143102/1115/368/20/
043100/20130328/143114/1115/145/20/
043100/20130328/143124/1115/1010/20/
043100/20130328/143127/1115/252/20/
043100/20130328/143129/1110/890/10/
043100/20130328/143133/1115/506/20/
043100/20130328/143144/1115/111/20/
043100/20130328/143145/1115/8000/20/
043100/20130328/143203/1115/17988/20/
043100/20130328/143207/1115/503/10/
043100/20130328/143209/1115/30000/10/
043100/20130328/143211/1115/11662/10/
043100/20130328/143212/1115/800/20/
043100/20130328/143214/1115/3002/20/
043100/20130328/143215/1115/12000/20/
043100/20130328/143216/1115/985/20/
043100/20130328/143221/1115/5002/20/
043100/20130328/143223/1115/3000/20/
043100/20130328/143227/1115/3574/20/
043100/20130328/143230/1115/500/20/
043100/20130328/143242/1115/1008/20/
043100/20130328/143244/1115/660/20/
043100/20130328/143247/1115/100/20/
043100/20130328/143257/1115/6003/20/
043100/20130328/143300/1115/1000/20/
043100/20130328/143302/1115/81/20/
043100/20130328/143306/1115/800/20/
043100/20130328/143314/1115/301/20/
043100/20130328/143317/1115/304/20/
043100/20130328/143330/1115/4184/20/
043100/20130328/143336/1115/496/20/
043100/20130328/143343/1115/105/20/
043100/20130328/143346/1115/100/20/
043100/20130328/143357/1115/100/20/
043100/20130328/143400/1115/608/20/
043100/20130328/143401/1115/145/20/
043100/20130328/143430/1120/300/20/
043100/20130328/143436/1120/449/20/
043100/20130328/143437/1115/6790/10/
043100/20130328/143439/1115/1966/10/
043100/20130328/143440/1115/100/20/
043100/20130328/143446/1115/102/20/
043100/20130328/143451/1115/2201/20/
043100/20130328/143503/1110/7490/10/
043100/20130328/143507/1115/100/20/
043100/20130328/143515/1115/90/20/
043100/20130328/143522/1115/3000/20/
043100/20130328/143528/1115/200/20/
043100/20130328/143537/1115/5273/20/
043100/20130328/143548/1115/751/10/
043100/20130328/143553/1120/110/20/
043100/20130328/143554/1115/6753/10/
043100/20130328/143616/1115/730/10/
043100/20130328/143637/1115/302/10/
043100/20130328/143641/1115/750/10/
043100/20130328/143641/1120/1000/20/
043100/20130328/143710/1115/301/10/
043100/20130328/143747/1115/15445/10/
043100/20130328/143757/1115/155/20/
043100/20130328/143810/1115/106/20/
043100/20130328/143817/1110/468/10/
043100/20130328/143825/1110/1294/10/
043100/20130328/143829/1110/2000/10/
043100/20130328/143830/1110/1555/10/
043100/20130328/143903/1115/150/20/
043100/20130328/143912/1115/22260/20/
043100/20130328/143921/1115/7101/10/
043100/20130328/143923/1115/985/10/
043100/20130328/143928/1115/85/20/
043100/20130328/143959/1110/10815/10/
043100/20130328/144017/1110/5080/10/
043100/20130328/144023/1110/310/10/
043100/20130328/144024/1110/1707/10/
043100/20130328/144028/1110/18110/10/
043100/20130328/144036/1110/12000/10/
043100/20130328/144036/1115/12755/20/
043100/20130328/144042/1115/500/10/
043100/20130328/144046/1115/1749/10/
043100/20130328/144047/1115/3710/10/
043100/20130328/144049/1115/6166/10/
043100/20130328/144049/1115/1033/10/
043100/20130328/144050/1115/1087/10/
043100/20130328/144124/1115/1013/20/
043100/20130328/144148/1110/501/10/
043100/20130328/144152/1115/1000/20/
043100/20130328/144158/1115/300/20/
043100/20130328/144206/1115/1750/20/
043100/20130328/144219/1115/5374/20/
043100/20130328/144229/1115/543/20/
043100/20130328/144231/1110/16000/10/
043100/20130328/144250/1110/21202/10/
043100/20130328/144250/1105/1798/10/
043100/20130328/144320/1105/3700/10/
043100/20130328/144324/1110/2011/20/
043100/20130328/144333/1105/567/10/
043100/20130328/144339/1110/85/20/
043100/20130328/144346/1110/1069/20/
043100/20130328/144350/1115/1000/20/
043100/20130328/144353/1110/2672/10/
043100/20130328/144410/1115/270/20/
043100/20130328/144429/1115/2562/20/
043100/20130328/144429/1110/1985/10/
043100/20130328/144432/1110/2000/10/
043100/20130328/144438/1110/350/10/
043100/20130328/144516/1110/126/10/
043100/20130328/144519/1110/400/10/
043100/20130328/144530/1115/100/20/
043100/20130328/144532/1115/10000/20/
043100/20130328/144536/1110/550/10/
043100/20130328/144559/1115/1008/20/
043100/20130328/144608/1110/14601/10/
043100/20130328/144616/1115/203/20/
043100/20130328/144638/1115/92/20/
043100/20130328/144704/1110/1024/10/
043100/20130328/144705/1115/3000/20/
043100/20130328/144712/1110/2043/10/
043100/20130328/144712/1115/500/20/
043100/20130328/144728/1110/301/10/
043100/20130328/144734/1110/533/10/
043100/20130328/144737/1110/2099/10/
043100/20130328/144745/1110/4504/10/
043100/20130328/144745/1110/1957/10/
043100/20130328/144811/1110/1503/10/
043100/20130328/144811/1115/200/20/
043100/20130328/144812/1115/400/20/
043100/20130328/144815/1110/200/10/
043100/20130328/144848/1110/304/10/
043100/20130328/144849/1110/2466/10/
043100/20130328/144905/1110/3031/10/
043100/20130328/144913/1115/107/20/
043100/20130328/144917/1115/419/20/
043100/20130328/144921/1115/750/20/
043100/20130328/144924/1115/500/20/
043100/20130328/144925/1115/5696/20/
043100/20130328/144927/1115/764/20/
043100/20130328/144928/1110/311/10/
043100/20130328/144929/1115/251/20/
043100/20130328/144937/1115/2430/20/
043100/20130328/144937/1115/2000/20/
043100/20130328/144941/1110/375/10/
043100/20130328/144944/1110/335/10/
043100/20130328/144945/1115/520/20/
043100/20130328/144945/1110/400/10/
043100/20130328/144946/1115/1170/20/
043100/20130328/144948/1115/1001/20/
043100/20130328/144951/1115/1001/20/
043100/20130328/144951/1110/501/10/
043100/20130328/144951/1115/151/20/
043100/20130328/144952/1115/500/20/
043100/20130328/144952/1115/1000/20/
043100/20130328/144954/1115/1692/20/
043100/20130328/150000/1120/266670/10/
