043100/20121126/90000/760/130406/20/
043100/20121126/90004/760/3000/20/
043100/20121126/90023/760/1010/20/
043100/20121126/90025/760/3500/20/
043100/20121126/90031/760/1000/20/
043100/20121126/90037/760/380/20/
043100/20121126/90039/760/1050/20/
043100/20121126/90040/760/1316/20/
043100/20121126/90042/760/500/20/
043100/20121126/90047/760/705/20/
043100/20121126/90109/760/116/20/
043100/20121126/90109/760/6080/20/
043100/20121126/90111/760/1819/20/
043100/20121126/90124/760/120/20/
043100/20121126/90140/760/330/20/
043100/20121126/90140/760/100/20/
043100/20121126/90145/760/133/20/
043100/20121126/90148/760/100/20/
043100/20121126/90155/760/2011/20/
043100/20121126/90205/760/1346/20/
043100/20121126/90211/760/100/20/
043100/20121126/90212/760/300/20/
043100/20121126/90218/760/158/20/
043100/20121126/90223/760/2000/20/
043100/20121126/90227/760/1010/20/
043100/20121126/90228/760/100/20/
043100/20121126/90257/760/579/20/
043100/20121126/90308/760/1000/20/
043100/20121126/90316/760/200/20/
043100/20121126/90323/760/111/20/
043100/20121126/90324/760/300/20/
043100/20121126/90327/760/500/20/
043100/20121126/90334/760/510/20/
043100/20121126/90334/760/100/20/
043100/20121126/90400/760/100/20/
043100/20121126/90409/760/204/20/
043100/20121126/90416/760/131/20/
043100/20121126/90423/760/100/20/
043100/20121126/90430/760/100/20/
043100/20121126/90435/760/102/20/
043100/20121126/90437/760/100/20/
043100/20121126/90437/760/320/20/
043100/20121126/90442/760/1000/20/
043100/20121126/90445/760/100/20/
043100/20121126/90454/760/520/20/
043100/20121126/90458/760/650/20/
043100/20121126/90510/760/1040/20/
043100/20121126/90514/760/9023/20/
043100/20121126/90515/760/381/20/
043100/20121126/90516/760/100/20/
043100/20121126/90518/760/100/20/
043100/20121126/90522/760/240/20/
043100/20121126/90529/760/300/20/
043100/20121126/90536/760/221/20/
043100/20121126/90549/760/170/20/
043100/20121126/90602/760/1000/20/
043100/20121126/90610/760/100/20/
043100/20121126/90615/760/215/20/
043100/20121126/90628/760/301/20/
043100/20121126/90636/760/81/20/
043100/20121126/90639/760/519/20/
043100/20121126/90646/760/206/20/
043100/20121126/90652/760/110/20/
043100/20121126/90705/760/358/20/
043100/20121126/90716/760/103/20/
043100/20121126/90718/760/170/20/
043100/20121126/90800/760/1071/20/
043100/20121126/90804/760/100/20/
043100/20121126/90827/760/202/20/
043100/20121126/90839/760/150/20/
043100/20121126/90847/760/124/20/
043100/20121126/90849/760/100/20/
043100/20121126/90859/760/1000/20/
043100/20121126/90907/760/405/20/
043100/20121126/90918/760/152/20/
043100/20121126/90942/760/157/20/
043100/20121126/90953/760/230/20/
043100/20121126/90955/760/3000/20/
043100/20121126/91012/760/102/20/
043100/20121126/91015/760/500/20/
043100/20121126/91019/760/100/20/
043100/20121126/91035/760/109/20/
043100/20121126/91035/760/110/20/
043100/20121126/91036/760/242/20/
043100/20121126/91043/760/510/20/
043100/20121126/91058/760/90/20/
043100/20121126/91108/760/476/20/
043100/20121126/91121/760/110/20/
043100/20121126/91140/760/470/20/
043100/20121126/91153/760/234/20/
043100/20121126/91234/760/119/20/
043100/20121126/91248/760/2602/20/
043100/20121126/91248/760/500/20/
043100/20121126/91252/760/10891/20/
043100/20121126/91310/760/100/20/
043100/20121126/91314/760/500/20/
043100/20121126/91344/760/557/20/
043100/20121126/91423/760/566/20/
043100/20121126/91437/760/230/20/
043100/20121126/91445/760/1000/20/
043100/20121126/91455/760/10000/20/
043100/20121126/91501/760/140/20/
043100/20121126/91501/760/100/20/
043100/20121126/91516/760/104/20/
043100/20121126/91520/760/1600/20/
043100/20121126/91530/760/2037/20/
043100/20121126/91535/760/300/20/
043100/20121126/91550/760/111/20/
043100/20121126/91554/760/170/20/
043100/20121126/91604/760/1000/20/
043100/20121126/91605/760/1474/20/
043100/20121126/91606/760/100/20/
043100/20121126/91623/760/220/20/
043100/20121126/91631/760/100/20/
043100/20121126/91659/760/1045/20/
043100/20121126/91730/760/92/20/
043100/20121126/91748/760/95/20/
043100/20121126/91755/760/149/20/
043100/20121126/91807/760/305/20/
043100/20121126/91811/760/312/20/
043100/20121126/91851/760/113/20/
043100/20121126/91943/760/81/20/
043100/20121126/92013/760/95/20/
043100/20121126/92119/760/130/20/
043100/20121126/92129/760/303/20/
043100/20121126/92316/760/89/20/
043100/20121126/92414/760/120/20/
043100/20121126/92434/760/191/20/
043100/20121126/92515/760/98/20/
043100/20121126/92549/760/514/20/
043100/20121126/92556/760/1021/20/
043100/20121126/92642/760/540/20/
043100/20121126/92710/760/1070/20/
043100/20121126/92712/760/6041/20/
043100/20121126/92714/760/248/20/
043100/20121126/92737/760/562/20/
043100/20121126/92754/760/142/20/
043100/20121126/92756/760/204/20/
043100/20121126/92803/760/279/20/
043100/20121126/92822/760/137/20/
043100/20121126/93059/760/251/20/
043100/20121126/93100/760/88/20/
043100/20121126/93115/760/205/20/
043100/20121126/93157/760/118/20/
043100/20121126/93240/760/10007/20/
043100/20121126/93240/760/393/20/
043100/20121126/93316/760/163/20/
043100/20121126/93326/760/125/20/
043100/20121126/93423/760/117/20/
043100/20121126/93451/760/11024/20/
043100/20121126/93451/760/433/20/
043100/20121126/93459/760/1000/20/
043100/20121126/93514/760/356/20/
043100/20121126/93611/760/225/20/
043100/20121126/93642/760/563/20/
043100/20121126/93909/760/84/20/
043100/20121126/93936/760/332/20/
043100/20121126/94059/760/135/20/
043100/20121126/94115/760/544/20/
043100/20121126/94120/760/8020/20/
043100/20121126/94121/760/315/20/
043100/20121126/94344/760/195/20/
043100/20121126/94354/760/17663/20/
043100/20121126/94354/760/696/20/
043100/20121126/94406/760/106/20/
043100/20121126/94415/760/152/20/
043100/20121126/94513/760/218/20/
043100/20121126/94548/760/2011/20/
043100/20121126/94619/760/1079/20/
043100/20121126/94853/760/457/20/
043100/20121126/94902/760/1016/20/
043100/20121126/94927/760/574/20/
043100/20121126/95207/760/131/20/
043100/20121126/95231/760/205/20/
043100/20121126/95426/760/82/20/
043100/20121126/95644/760/3213/20/
043100/20121126/95646/760/145/20/
043100/20121126/95656/760/100/20/
043100/20121126/95704/760/84/20/
043100/20121126/95738/760/133/20/
043100/20121126/95753/760/126/20/
043100/20121126/95822/760/128/20/
043100/20121126/95837/760/107/20/
043100/20121126/95913/760/113/20/
043100/20121126/95920/760/115/20/
043100/20121126/100001/760/105/20/
043100/20121126/100009/760/105/20/
043100/20121126/100251/760/158/20/
043100/20121126/100540/760/570/20/
043100/20121126/100636/760/274/20/
043100/20121126/100804/760/115/20/
043100/20121126/101121/760/82/20/
043100/20121126/101121/760/200/20/
043100/20121126/101347/760/4230/20/
043100/20121126/101347/760/159/20/
043100/20121126/101416/760/1003/20/
043100/20121126/101434/760/138/20/
043100/20121126/101835/760/154/20/
043100/20121126/101915/760/114/20/
043100/20121126/102115/760/86/20/
043100/20121126/102136/760/325/20/
043100/20121126/102346/760/177/20/
043100/20121126/102354/760/103/20/
043100/20121126/102400/760/104/20/
043100/20121126/102405/760/104/20/
043100/20121126/102414/760/104/20/
043100/20121126/102428/760/104/20/
043100/20121126/102438/760/104/20/
043100/20121126/102448/760/1104/20/
043100/20121126/102601/760/3057/20/
043100/20121126/102601/760/118/20/
043100/20121126/102634/760/102/20/
043100/20121126/102813/760/5023/20/
043100/20121126/102813/760/197/20/
043100/20121126/102841/760/197/20/
043100/20121126/102952/760/10007/20/
043100/20121126/102952/760/393/20/
043100/20121126/103008/760/1000/20/
043100/20121126/103114/760/173/20/
043100/20121126/103128/760/1066/20/
043100/20121126/103132/760/140/20/
043100/20121126/103202/760/106/20/
043100/20121126/103410/760/511/20/
043100/20121126/103411/760/5015/20/
043100/20121126/103413/760/147/20/
043100/20121126/103456/760/275/20/
043100/20121126/103526/760/507/20/
043100/20121126/103527/760/147/20/
043100/20121126/103533/760/16004/20/
043100/20121126/103533/760/471/20/
043100/20121126/103617/760/555/20/
043100/20121126/103628/760/139/20/
043100/20121126/103634/760/103/20/
043100/20121126/103640/760/203/20/
043100/20121126/103653/760/8006/20/
043100/20121126/103653/760/235/20/
043100/20121126/103654/760/88/20/
043100/20121126/103745/760/10034/20/
043100/20121126/103745/760/294/20/
043100/20121126/103835/760/300/20/
043100/20121126/103924/760/160/20/
043100/20121126/103933/760/403/20/
043100/20121126/104006/760/579/20/
043100/20121126/104019/760/116/20/
043100/20121126/104240/760/504/20/
043100/20121126/104516/760/89/20/
043100/20121126/104522/760/11003/20/
043100/20121126/104536/760/324/20/
043100/20121126/104724/760/412/20/
043100/20121126/104738/760/112/20/
043100/20121126/104832/760/813/20/
043100/20121126/104839/760/198/20/
043100/20121126/104934/760/105/20/
043100/20121126/105114/760/143/20/
043100/20121126/105310/760/94/20/
043100/20121126/105333/760/2001/20/
043100/20121126/105354/760/114/20/
043100/20121126/105440/760/119/20/
043100/20121126/105507/760/413/20/
043100/20121126/105513/760/213/20/
043100/20121126/105535/760/358/20/
043100/20121126/105604/760/210/20/
043100/20121126/105949/760/1006/20/
043100/20121126/110055/760/125/20/
043100/20121126/110117/760/1003/20/
043100/20121126/110138/760/94/20/
043100/20121126/110308/760/185/20/
043100/20121126/110420/760/1005/20/
043100/20121126/110422/760/125/20/
043100/20121126/110508/760/1052/20/
043100/20121126/110551/760/105/20/
043100/20121126/110618/760/3002/20/
043100/20121126/110706/760/2576/20/
043100/20121126/110738/760/367/20/
043100/20121126/110800/760/108/20/
043100/20121126/110953/760/117/20/
043100/20121126/111015/760/108/20/
043100/20121126/111428/760/1015/20/
043100/20121126/111710/760/1025/20/
043100/20121126/111733/760/126/20/
043100/20121126/111919/760/203/20/
043100/20121126/112020/760/1005/20/
043100/20121126/112108/760/1026/20/
043100/20121126/112140/760/129/20/
043100/20121126/112328/760/107/20/
043100/20121126/112435/760/205/20/
043100/20121126/112453/760/1005/20/
043100/20121126/112541/760/325/20/
043100/20121126/112612/760/420/20/
043100/20121126/112631/760/310/20/
043100/20121126/112704/760/507/20/
043100/20121126/112835/760/276/20/
043100/20121126/113407/760/108/20/
043100/20121126/113441/760/10003/20/
043100/20121126/113442/760/280/20/
043100/20121126/113721/760/1502/20/
043100/20121126/113853/760/1045/20/
043100/20121126/113939/760/528/20/
043100/20121126/114334/760/326/20/
043100/20121126/114610/760/108/20/
043100/20121126/115126/760/125/20/
043100/20121126/115754/760/10044/20/
043100/20121126/115754/760/251/20/
043100/20121126/115831/760/833/20/
043100/20121126/120416/760/135/20/
043100/20121126/120419/760/1003/20/
043100/20121126/120442/760/782/20/
043100/20121126/120453/760/324/20/
043100/20121126/120505/760/776/20/
043100/20121126/120614/760/3519/20/
043100/20121126/120614/760/88/20/
043100/20121126/120635/760/193/20/
043100/20121126/121122/760/114/20/
043100/20121126/121814/760/89/20/
043100/20121126/121914/760/103/20/
043100/20121126/122352/760/2055/20/
043100/20121126/122514/760/2059/20/
043100/20121126/123107/760/250/20/
043100/20121126/123107/760/500/20/
043100/20121126/123124/760/278/20/
043100/20121126/123235/760/128/20/
043100/20121126/123528/760/694/20/
043100/20121126/123556/760/357/20/
043100/20121126/123607/760/260/20/
043100/20121126/123754/760/115/20/
043100/20121126/124217/760/175/20/
043100/20121126/124303/760/2002/20/
043100/20121126/124420/760/101/20/
043100/20121126/124701/760/84/20/
043100/20121126/124732/760/1020/20/
043100/20121126/125216/760/277/20/
043100/20121126/125837/760/566/20/
043100/20121126/125952/760/634/20/
043100/20121126/130006/760/1082/20/
043100/20121126/130330/760/1188/20/
043100/20121126/130516/760/373/20/
043100/20121126/130532/760/1095/20/
043100/20121126/130534/760/1522/20/
043100/20121126/130711/760/1032/20/
043100/20121126/130727/760/4019/20/
043100/20121126/130736/760/445/20/
043100/20121126/130819/760/207/20/
043100/20121126/130826/760/93/20/
043100/20121126/130835/760/1000/20/
043100/20121126/130905/760/91/20/
043100/20121126/131310/760/251/20/
043100/20121126/131448/760/266/20/
043100/20121126/131817/760/111/20/
043100/20121126/132007/760/502/20/
043100/20121126/132509/760/4073/20/
043100/20121126/132618/760/169/20/
043100/20121126/132701/760/102/20/
043100/20121126/132807/760/94/20/
043100/20121126/133548/760/1704/20/
043100/20121126/133646/760/88/20/
043100/20121126/133913/760/1461/20/
043100/20121126/134005/760/526/20/
043100/20121126/134027/760/512/20/
043100/20121126/134321/760/110/20/
043100/20121126/134509/760/322/20/
043100/20121126/134600/760/256/20/
043100/20121126/134926/760/504/20/
043100/20121126/135128/760/921/20/
043100/20121126/140029/760/129/20/
043100/20121126/140349/760/502/20/
043100/20121126/140535/760/2012/20/
043100/20121126/140933/760/93/20/
043100/20121126/141129/760/1001/20/
043100/20121126/141808/760/1043/20/
043100/20121126/142113/760/554/20/
043100/20121126/142306/760/313/20/
043100/20121126/142335/760/504/20/
043100/20121126/142402/760/458/20/
043100/20121126/142423/760/101/20/
043100/20121126/142631/760/7003/20/
043100/20121126/142632/760/103/20/
043100/20121126/142756/760/100/20/
043100/20121126/142920/760/502/20/
043100/20121126/143011/760/1007/20/
043100/20121126/143226/760/515/20/
043100/20121126/144330/760/253/20/
043100/20121126/144542/760/201/20/
043100/20121126/144601/760/142/20/
043100/20121126/144748/760/321/20/
043100/20121126/150000/760/2726/20/
