043100/20130206/90000/917/47760/10/
043100/20130206/90002/918/120/20/
043100/20130206/90008/919/624/20/
043100/20130206/90008/920/376/20/
043100/20130206/90009/920/1340/20/
043100/20130206/90014/920/114/10/
043100/20130206/90020/922/1467/20/
043100/20130206/90020/925/1823/20/
043100/20130206/90025/924/97/20/
043100/20130206/90025/925/2704/20/
043100/20130206/90030/925/3315/10/
043100/20130206/90031/925/384/10/
043100/20130206/90033/925/465/20/
043100/20130206/90035/925/282/20/
043100/20130206/90041/925/91/20/
043100/20130206/90054/920/3058/10/
043100/20130206/90054/917/3659/10/
043100/20130206/90123/918/109/20/
043100/20130206/90134/923/159/20/
043100/20130206/90150/923/500/20/
043100/20130206/90200/923/96/10/
043100/20130206/90201/923/1926/20/
043100/20130206/90201/924/2799/20/
043100/20130206/90202/920/300/10/
043100/20130206/90210/920/700/10/
043100/20130206/90211/923/1020/20/
043100/20130206/90212/920/9602/10/
043100/20130206/90215/920/4839/10/
043100/20130206/90217/920/3546/10/
043100/20130206/90221/920/3954/20/
043100/20130206/90221/924/2803/20/
043100/20130206/90223/920/3719/20/
043100/20130206/90239/920/100/20/
043100/20130206/90246/920/1486/20/
043100/20130206/90256/920/9502/10/
043100/20130206/90256/920/428/20/
043100/20130206/90300/920/1260/20/
043100/20130206/90305/920/16350/10/
043100/20130206/90312/920/1479/20/
043100/20130206/90323/920/500/10/
043100/20130206/90327/920/420/20/
043100/20130206/90331/919/1004/10/
043100/20130206/90335/919/1970/10/
043100/20130206/90340/919/100/10/
043100/20130206/90342/920/500/20/
043100/20130206/90342/920/2042/20/
043100/20130206/90354/920/180/20/
043100/20130206/90358/920/2596/20/
043100/20130206/90410/920/101/10/
043100/20130206/90418/920/1400/10/
043100/20130206/90419/920/800/20/
043100/20130206/90427/920/861/10/
043100/20130206/90438/920/2265/20/
043100/20130206/90444/920/2780/10/
043100/20130206/90448/919/230/10/
043100/20130206/90449/919/515/10/
043100/20130206/90452/920/1001/20/
043100/20130206/90454/919/3853/10/
043100/20130206/90455/919/3376/10/
043100/20130206/90456/919/5267/10/
043100/20130206/90500/919/1000/20/
043100/20130206/90505/919/300/20/
043100/20130206/90510/919/6005/20/
043100/20130206/90513/919/2005/20/
043100/20130206/90514/919/208/20/
043100/20130206/90524/920/215/20/
043100/20130206/90526/919/503/10/
043100/20130206/90541/920/13060/20/
043100/20130206/90542/920/1429/10/
043100/20130206/90551/921/1001/20/
043100/20130206/90554/921/1012/20/
043100/20130206/90559/922/354/20/
043100/20130206/90600/922/2146/20/
043100/20130206/90602/922/600/20/
043100/20130206/90609/922/882/20/
043100/20130206/90610/923/4000/20/
043100/20130206/90615/924/150/20/
043100/20130206/90626/923/320/20/
043100/20130206/90628/923/100/20/
043100/20130206/90642/923/1248/20/
043100/20130206/90648/923/105/20/
043100/20130206/90651/923/200/20/
043100/20130206/90652/923/2071/20/
043100/20130206/90653/922/6000/10/
043100/20130206/90657/922/1174/10/
043100/20130206/90713/922/310/20/
043100/20130206/90725/922/4520/20/
043100/20130206/90807/923/100/20/
043100/20130206/90814/923/1000/20/
043100/20130206/90824/923/1945/20/
043100/20130206/90829/924/108/20/
043100/20130206/90835/924/100/20/
043100/20130206/90838/923/519/10/
043100/20130206/90838/922/7024/10/
043100/20130206/90853/922/1380/10/
043100/20130206/90855/922/688/20/
043100/20130206/90917/922/8506/10/
043100/20130206/90925/921/5000/10/
043100/20130206/90928/921/2902/10/
043100/20130206/90929/921/279/10/
043100/20130206/90932/921/100/20/
043100/20130206/90936/921/100/20/
043100/20130206/90937/920/3130/10/
043100/20130206/90937/921/100/20/
043100/20130206/90937/921/3132/20/
043100/20130206/90938/921/101/20/
043100/20130206/90942/921/103/20/
043100/20130206/90947/921/104/20/
043100/20130206/90951/921/102/20/
043100/20130206/91007/921/140/20/
043100/20130206/91012/921/150/20/
043100/20130206/91014/921/300/20/
043100/20130206/91044/921/1646/20/
043100/20130206/91044/920/500/10/
043100/20130206/91050/920/2200/10/
043100/20130206/91101/920/5835/10/
043100/20130206/91113/920/2400/10/
043100/20130206/91115/920/570/10/
043100/20130206/91133/920/173/10/
043100/20130206/91148/920/4367/10/
043100/20130206/91148/920/4819/10/
043100/20130206/91203/920/103/20/
043100/20130206/91213/919/2291/10/
043100/20130206/91213/920/407/20/
043100/20130206/91215/920/517/20/
043100/20130206/91242/920/3008/20/
043100/20130206/91243/919/1000/10/
043100/20130206/91313/920/500/20/
043100/20130206/91318/920/300/20/
043100/20130206/91324/920/5038/20/
043100/20130206/91326/920/100/20/
043100/20130206/91332/920/1020/20/
043100/20130206/91339/920/15113/20/
043100/20130206/91345/921/6511/20/
043100/20130206/91352/921/100/10/
043100/20130206/91355/922/20715/20/
043100/20130206/91355/923/1001/20/
043100/20130206/91356/921/100/10/
043100/20130206/91403/921/441/10/
043100/20130206/91403/920/450/10/
043100/20130206/91405/921/559/20/
043100/20130206/91406/921/138/20/
043100/20130206/91415/921/1000/10/
043100/20130206/91417/921/1000/10/
043100/20130206/91421/921/368/10/
043100/20130206/91422/922/200/20/
043100/20130206/91424/922/800/20/
043100/20130206/91424/923/100/20/
043100/20130206/91424/923/100/20/
043100/20130206/91425/923/100/20/
043100/20130206/91425/923/100/20/
043100/20130206/91425/923/100/20/
043100/20130206/91426/923/100/20/
043100/20130206/91426/923/100/20/
043100/20130206/91427/923/100/20/
043100/20130206/91433/922/1005/20/
043100/20130206/91435/922/401/20/
043100/20130206/91442/922/1041/20/
043100/20130206/91443/922/553/20/
043100/20130206/91450/923/138/20/
043100/20130206/91450/923/162/20/
043100/20130206/91452/923/851/10/
043100/20130206/91454/923/83/20/
043100/20130206/91454/924/2930/20/
043100/20130206/91458/924/90/20/
043100/20130206/91500/924/100/20/
043100/20130206/91505/924/1048/20/
043100/20130206/91505/924/92/20/
043100/20130206/91508/924/81/20/
043100/20130206/91510/924/81/20/
043100/20130206/91510/924/5000/20/
043100/20130206/91511/924/354/20/
043100/20130206/91511/924/104/20/
043100/20130206/91512/924/408/20/
043100/20130206/91514/924/100/20/
043100/20130206/91516/924/102/20/
043100/20130206/91518/924/1052/20/
043100/20130206/91518/924/686/20/
043100/20130206/91520/924/169/20/
043100/20130206/91520/924/1006/20/
043100/20130206/91521/924/1012/20/
043100/20130206/91523/924/5870/20/
043100/20130206/91525/924/136/20/
043100/20130206/91525/924/3004/20/
043100/20130206/91526/924/1011/20/
043100/20130206/91527/924/219/20/
043100/20130206/91527/924/3001/20/
043100/20130206/91529/924/2616/20/
043100/20130206/91530/924/81/20/
043100/20130206/91530/924/1024/20/
043100/20130206/91531/924/2553/20/
043100/20130206/91531/924/675/20/
043100/20130206/91533/925/97/20/
043100/20130206/91534/924/81/10/
043100/20130206/91537/925/156/20/
043100/20130206/91538/925/534/20/
043100/20130206/91539/925/81/20/
043100/20130206/91539/925/2317/20/
043100/20130206/91540/925/2082/20/
043100/20130206/91540/925/1018/20/
043100/20130206/91541/925/4460/20/
043100/20130206/91542/926/93/20/
043100/20130206/91543/925/81/10/
043100/20130206/91544/926/284/20/
043100/20130206/91546/926/81/20/
043100/20130206/91546/926/274/20/
043100/20130206/91550/928/84/20/
043100/20130206/91551/928/1011/20/
043100/20130206/91553/928/85/20/
043100/20130206/91554/928/611/20/
043100/20130206/91555/929/88/20/
043100/20130206/91556/928/5009/10/
043100/20130206/91557/928/1015/10/
043100/20130206/91558/929/95/20/
043100/20130206/91600/929/88/20/
043100/20130206/91601/929/81/20/
043100/20130206/91602/929/510/20/
043100/20130206/91603/929/587/20/
043100/20130206/91603/929/135/20/
043100/20130206/91605/929/899/20/
043100/20130206/91605/930/2066/20/
043100/20130206/91607/930/86/20/
043100/20130206/91608/930/86/20/
043100/20130206/91608/930/1027/20/
043100/20130206/91611/930/5445/20/
043100/20130206/91611/930/1610/20/
043100/20130206/91613/930/245/10/
043100/20130206/91614/931/202/20/
043100/20130206/91616/931/87/20/
043100/20130206/91616/931/300/20/
043100/20130206/91616/931/3608/20/
043100/20130206/91616/932/1300/20/
043100/20130206/91616/933/480/20/
043100/20130206/91618/933/5053/10/
043100/20130206/91619/933/5009/10/
043100/20130206/91619/934/101/20/
043100/20130206/91620/933/5019/10/
043100/20130206/91620/933/5005/10/
043100/20130206/91621/933/206/10/
043100/20130206/91621/933/5013/10/
043100/20130206/91622/934/1008/20/
043100/20130206/91622/933/5001/10/
043100/20130206/91622/933/202/10/
043100/20130206/91623/934/2298/20/
043100/20130206/91623/935/817/20/
043100/20130206/91623/934/130/20/
043100/20130206/91623/935/7513/20/
043100/20130206/91623/936/2360/20/
043100/20130206/91623/933/202/10/
043100/20130206/91625/936/1624/20/
043100/20130206/91626/935/206/20/
043100/20130206/91626/936/642/20/
043100/20130206/91628/935/82/20/
043100/20130206/91629/934/89/10/
043100/20130206/91630/935/81/20/
043100/20130206/91632/935/90/20/
043100/20130206/91633/935/4361/20/
043100/20130206/91633/936/82/20/
043100/20130206/91634/935/619/10/
043100/20130206/91635/934/102/10/
043100/20130206/91637/933/518/10/
043100/20130206/91637/934/2259/20/
043100/20130206/91637/935/200/20/
043100/20130206/91637/936/11305/20/
043100/20130206/91638/933/5015/10/
043100/20130206/91639/934/119/10/
043100/20130206/91640/935/1003/20/
043100/20130206/91642/935/228/10/
043100/20130206/91642/936/102/20/
043100/20130206/91644/935/1860/10/
043100/20130206/91644/934/163/10/
043100/20130206/91644/935/137/10/
043100/20130206/91646/936/81/20/
043100/20130206/91646/935/207/10/
043100/20130206/91646/936/327/20/
043100/20130206/91648/936/541/20/
043100/20130206/91648/935/200/10/
043100/20130206/91648/935/110/10/
043100/20130206/91648/935/738/10/
043100/20130206/91648/934/4262/10/
043100/20130206/91650/935/230/20/
043100/20130206/91650/936/9283/20/
043100/20130206/91653/936/1428/10/
043100/20130206/91653/934/1212/10/
043100/20130206/91655/935/83/20/
043100/20130206/91655/935/1039/20/
043100/20130206/91655/936/464/20/
043100/20130206/91656/934/417/10/
043100/20130206/91656/936/289/20/
043100/20130206/91657/936/288/20/
043100/20130206/91657/936/206/20/
043100/20130206/91658/936/465/20/
043100/20130206/91701/936/122/20/
043100/20130206/91701/935/500/10/
043100/20130206/91701/935/253/10/
043100/20130206/91704/935/292/10/
043100/20130206/91705/936/2556/20/
043100/20130206/91705/935/318/10/
043100/20130206/91707/935/554/10/
043100/20130206/91708/935/257/10/
043100/20130206/91709/935/851/20/
043100/20130206/91710/935/5002/10/
043100/20130206/91712/935/100/10/
043100/20130206/91712/935/340/10/
043100/20130206/91718/935/3000/20/
043100/20130206/91720/934/1804/10/
043100/20130206/91723/935/117/20/
043100/20130206/91723/934/1000/10/
043100/20130206/91723/934/500/10/
043100/20130206/91723/934/1124/10/
043100/20130206/91724/934/1000/10/
043100/20130206/91725/934/2828/10/
043100/20130206/91726/933/26966/10/
043100/20130206/91727/933/4770/10/
043100/20130206/91729/933/1005/10/
043100/20130206/91730/933/3895/10/
043100/20130206/91731/933/500/20/
043100/20130206/91736/932/102/10/
043100/20130206/91739/932/201/10/
043100/20130206/91739/931/127/10/
043100/20130206/91746/931/130/10/
043100/20130206/91748/931/867/10/
043100/20130206/91749/931/194/20/
043100/20130206/91750/931/200/20/
043100/20130206/91759/930/1012/10/
043100/20130206/91759/930/1081/10/
043100/20130206/91803/930/5000/20/
043100/20130206/91806/930/2000/20/
043100/20130206/91818/930/445/20/
043100/20130206/91819/929/296/10/
043100/20130206/91821/929/137/10/
043100/20130206/91822/928/1340/10/
043100/20130206/91825/928/220/10/
043100/20130206/91830/927/1704/10/
043100/20130206/91830/926/508/10/
043100/20130206/91833/926/128/10/
043100/20130206/91837/926/608/10/
043100/20130206/91839/926/656/10/
043100/20130206/91839/926/300/10/
043100/20130206/91842/926/500/10/
043100/20130206/91843/927/220/20/
043100/20130206/91845/927/1929/20/
043100/20130206/91851/928/4000/20/
043100/20130206/91851/928/4000/20/
043100/20130206/91851/928/4000/20/
043100/20130206/91901/929/1000/20/
043100/20130206/91910/930/3002/20/
043100/20130206/91918/930/1230/20/
043100/20130206/91921/930/1444/20/
043100/20130206/91923/930/1000/20/
043100/20130206/91924/930/500/20/
043100/20130206/91924/930/449/20/
043100/20130206/91924/930/251/20/
043100/20130206/91928/930/244/10/
043100/20130206/91943/931/1900/20/
043100/20130206/91955/932/93/20/
043100/20130206/92001/932/200/20/
043100/20130206/92016/932/285/20/
043100/20130206/92019/932/1000/20/
043100/20130206/92019/932/2000/20/
043100/20130206/92033/932/977/20/
043100/20130206/92037/932/2609/20/
043100/20130206/92046/931/6138/10/
043100/20130206/92112/931/567/10/
043100/20130206/92120/931/96/10/
043100/20130206/92126/931/1100/10/
043100/20130206/92129/931/2500/10/
043100/20130206/92130/931/702/10/
043100/20130206/92135/930/93/10/
043100/20130206/92143/930/104/10/
043100/20130206/92143/930/284/10/
043100/20130206/92144/930/300/10/
043100/20130206/92144/930/375/10/
043100/20130206/92149/929/10863/10/
043100/20130206/92150/929/100/20/
043100/20130206/92215/928/2964/10/
043100/20130206/92219/928/1000/20/
043100/20130206/92228/928/1111/20/
043100/20130206/92234/928/1602/20/
043100/20130206/92234/929/2038/20/
043100/20130206/92234/931/958/20/
043100/20130206/92235/927/6076/10/
043100/20130206/92235/926/914/10/
043100/20130206/92235/925/3010/10/
043100/20130206/92309/926/501/10/
043100/20130206/92311/928/2000/10/
043100/20130206/92337/926/2335/10/
043100/20130206/92338/926/1735/10/
043100/20130206/92352/925/329/10/
043100/20130206/92352/925/181/10/
043100/20130206/92359/925/1000/10/
043100/20130206/92403/925/159/10/
043100/20130206/92403/925/1192/10/
043100/20130206/92407/925/2946/20/
043100/20130206/92410/925/1000/10/
043100/20130206/92428/925/2111/10/
043100/20130206/92429/925/435/20/
043100/20130206/92430/926/165/20/
043100/20130206/92433/926/100/20/
043100/20130206/92503/925/122/10/
043100/20130206/92509/925/1092/10/
043100/20130206/92514/925/1136/10/
043100/20130206/92518/925/1005/20/
043100/20130206/92529/925/2137/20/
043100/20130206/92533/925/2582/10/
043100/20130206/92538/926/2159/20/
043100/20130206/92627/926/135/10/
043100/20130206/92637/926/250/10/
043100/20130206/92704/926/211/10/
043100/20130206/92722/927/1933/20/
043100/20130206/92734/927/1893/20/
043100/20130206/92748/928/700/20/
043100/20130206/92816/927/1672/10/
043100/20130206/92818/927/1700/10/
043100/20130206/92824/928/3005/20/
043100/20130206/92833/927/175/10/
043100/20130206/92839/928/82/20/
043100/20130206/92840/927/110/10/
043100/20130206/92847/928/1072/20/
043100/20130206/92848/928/100/20/
043100/20130206/92852/928/248/20/
043100/20130206/92857/928/13020/20/
043100/20130206/92857/927/3000/10/
043100/20130206/92923/927/675/10/
043100/20130206/92935/928/90/20/
043100/20130206/92942/928/147/20/
043100/20130206/92945/928/2600/20/
043100/20130206/93007/928/100/20/
043100/20130206/93021/928/2993/20/
043100/20130206/93029/928/500/20/
043100/20130206/93032/928/103/20/
043100/20130206/93034/928/5000/20/
043100/20130206/93034/928/112/20/
043100/20130206/93035/927/4060/10/
043100/20130206/93035/928/952/20/
043100/20130206/93037/928/1400/10/
043100/20130206/93044/929/570/20/
043100/20130206/93048/929/1010/20/
043100/20130206/93051/929/1030/20/
043100/20130206/93057/930/1040/20/
043100/20130206/93104/930/491/20/
043100/20130206/93106/930/190/20/
043100/20130206/93116/930/6042/20/
043100/20130206/93136/930/3959/10/
043100/20130206/93139/930/90/20/
043100/20130206/93149/930/1011/20/
043100/20130206/93157/930/1000/20/
043100/20130206/93159/930/2391/20/
043100/20130206/93200/929/1703/10/
043100/20130206/93200/928/2299/10/
043100/20130206/93200/928/4001/10/
043100/20130206/93228/928/182/10/
043100/20130206/93331/928/381/10/
043100/20130206/93332/928/500/10/
043100/20130206/93335/928/100/10/
043100/20130206/93346/929/1216/20/
043100/20130206/93419/929/663/20/
043100/20130206/93428/929/347/10/
043100/20130206/93506/929/1005/20/
043100/20130206/93511/929/1000/20/
043100/20130206/93517/929/1000/20/
043100/20130206/93519/929/112/20/
043100/20130206/93522/929/1000/20/
043100/20130206/93524/929/1000/20/
043100/20130206/93527/929/288/20/
043100/20130206/93546/929/102/10/
043100/20130206/93547/929/508/10/
043100/20130206/93600/930/2151/20/
043100/20130206/93609/930/180/20/
043100/20130206/93618/929/204/10/
043100/20130206/93618/928/796/10/
043100/20130206/93632/928/2002/10/
043100/20130206/93700/929/10007/10/
043100/20130206/93702/930/100/20/
043100/20130206/93723/929/102/20/
043100/20130206/93810/928/2285/10/
043100/20130206/93810/927/4681/10/
043100/20130206/93810/926/10090/10/
043100/20130206/93842/926/132/20/
043100/20130206/93854/925/2032/10/
043100/20130206/93911/925/1677/10/
043100/20130206/93917/925/100/20/
043100/20130206/93939/926/1463/20/
043100/20130206/93945/926/2508/20/
043100/20130206/93945/925/3238/10/
043100/20130206/93945/924/2520/10/
043100/20130206/94007/926/302/20/
043100/20130206/94010/926/100/20/
043100/20130206/94019/929/113/20/
043100/20130206/94025/926/89/10/
043100/20130206/94114/925/2416/10/
043100/20130206/94146/926/136/20/
043100/20130206/94209/925/1133/10/
043100/20130206/94213/926/101/20/
043100/20130206/94217/925/704/10/
043100/20130206/94222/925/2123/10/
043100/20130206/94257/926/125/20/
043100/20130206/94306/926/106/20/
043100/20130206/94308/926/134/20/
043100/20130206/94317/925/2305/10/
043100/20130206/94321/924/901/10/
043100/20130206/94328/925/270/10/
043100/20130206/94329/925/1530/10/
043100/20130206/94355/926/144/20/
043100/20130206/94356/926/200/20/
043100/20130206/94358/926/197/20/
043100/20130206/94401/926/111/20/
043100/20130206/94430/926/1076/20/
043100/20130206/94433/926/111/20/
043100/20130206/94456/926/151/10/
043100/20130206/94530/928/88/20/
043100/20130206/94609/928/166/20/
043100/20130206/94617/928/92/20/
043100/20130206/94626/929/5003/20/
043100/20130206/94628/926/3000/10/
043100/20130206/94632/929/302/20/
043100/20130206/94637/929/1003/20/
043100/20130206/94652/929/812/20/
043100/20130206/94705/929/309/20/
043100/20130206/94825/927/87/10/
043100/20130206/94825/926/12285/10/
043100/20130206/94841/926/92/10/
043100/20130206/94841/925/3908/10/
043100/20130206/94902/926/1001/10/
043100/20130206/94922/925/426/10/
043100/20130206/94922/924/1019/10/
043100/20130206/95031/926/1196/20/
043100/20130206/95054/927/503/20/
043100/20130206/95054/927/100/20/
043100/20130206/95224/926/1980/10/
043100/20130206/95224/925/2769/10/
043100/20130206/95328/925/2005/10/
043100/20130206/95329/926/190/20/
043100/20130206/95405/925/913/10/
043100/20130206/95421/925/1497/10/
043100/20130206/95421/924/5174/10/
043100/20130206/95421/923/4651/10/
043100/20130206/95429/923/2500/10/
043100/20130206/95543/926/1068/20/
043100/20130206/95639/925/102/10/
043100/20130206/95643/925/3260/10/
043100/20130206/95710/925/303/20/
043100/20130206/95724/925/108/20/
043100/20130206/95728/925/700/10/
043100/20130206/95738/925/240/10/
043100/20130206/95835/925/209/20/
043100/20130206/95836/925/1679/20/
043100/20130206/95912/926/203/20/
043100/20130206/95927/926/231/20/
043100/20130206/95932/926/1735/20/
043100/20130206/100022/927/5009/20/
043100/20130206/100045/927/1004/20/
043100/20130206/100049/927/200/20/
043100/20130206/100054/927/100/20/
043100/20130206/100118/927/100/20/
043100/20130206/100119/927/705/20/
043100/20130206/100141/927/504/20/
043100/20130206/100206/927/7874/20/
043100/20130206/100207/927/1176/20/
043100/20130206/100216/927/602/10/
043100/20130206/100226/927/6174/10/
043100/20130206/100226/926/1837/10/
043100/20130206/100254/928/112/20/
043100/20130206/100331/927/144/10/
043100/20130206/100447/928/2717/20/
043100/20130206/100504/928/1150/20/
043100/20130206/100533/928/205/20/
043100/20130206/100629/927/87/10/
043100/20130206/100712/928/414/20/
043100/20130206/100722/927/1803/10/
043100/20130206/100738/927/1750/10/
043100/20130206/100746/927/2001/10/
043100/20130206/100758/927/83/10/
043100/20130206/100810/927/176/10/
043100/20130206/100825/927/100/10/
043100/20130206/100923/927/457/10/
043100/20130206/100924/927/200/10/
043100/20130206/101004/927/137/20/
043100/20130206/101124/926/1534/10/
043100/20130206/101206/927/2000/20/
043100/20130206/101232/927/1727/10/
043100/20130206/101335/928/1203/20/
043100/20130206/101419/927/2638/10/
043100/20130206/101426/927/486/10/
043100/20130206/101428/927/1023/10/
043100/20130206/101451/926/7871/10/
043100/20130206/101454/926/1500/10/
043100/20130206/101520/926/1002/10/
043100/20130206/101543/927/92/20/
043100/20130206/101549/927/500/20/
043100/20130206/101602/925/6203/10/
043100/20130206/101602/924/138/10/
043100/20130206/101804/926/1056/10/
043100/20130206/101820/926/901/10/
043100/20130206/101838/926/102/10/
043100/20130206/101838/925/101/10/
043100/20130206/101859/927/205/20/
043100/20130206/101859/925/3080/10/
043100/20130206/101912/926/1000/20/
043100/20130206/101926/925/101/10/
043100/20130206/101928/926/99/20/
043100/20130206/102009/925/529/10/
043100/20130206/102010/925/100/10/
043100/20130206/102012/925/1069/10/
043100/20130206/102012/925/2832/10/
043100/20130206/102032/925/485/20/
043100/20130206/102046/925/2147/10/
043100/20130206/102205/925/1239/10/
043100/20130206/102215/924/953/10/
043100/20130206/102228/924/3488/10/
043100/20130206/102254/924/354/10/
043100/20130206/102314/924/109/20/
043100/20130206/102320/923/10002/10/
043100/20130206/102354/923/1087/10/
043100/20130206/102400/923/238/20/
043100/20130206/102417/923/1486/20/
043100/20130206/102456/924/106/20/
043100/20130206/102512/924/811/20/
043100/20130206/102534/924/469/20/
043100/20130206/102541/924/546/20/
043100/20130206/102619/926/3005/20/
043100/20130206/102622/924/465/10/
043100/20130206/102638/924/100/20/
043100/20130206/102649/924/100/20/
043100/20130206/102652/924/420/20/
043100/20130206/102743/924/971/10/
043100/20130206/102846/924/81/20/
043100/20130206/102858/923/8277/10/
043100/20130206/102859/923/4831/10/
043100/20130206/102902/923/200/20/
043100/20130206/102903/922/4500/10/
043100/20130206/102915/922/1004/10/
043100/20130206/102920/922/3565/10/
043100/20130206/102925/923/2100/20/
043100/20130206/103024/922/1009/10/
043100/20130206/103040/922/579/10/
043100/20130206/103047/922/98/10/
043100/20130206/103134/922/241/10/
043100/20130206/103139/922/101/10/
043100/20130206/103227/923/110/20/
043100/20130206/103234/923/506/20/
043100/20130206/103235/923/403/20/
043100/20130206/103325/924/1002/20/
043100/20130206/103326/924/534/20/
043100/20130206/103330/925/680/20/
043100/20130206/103340/925/1000/20/
043100/20130206/103344/925/209/20/
043100/20130206/103406/925/397/10/
043100/20130206/103407/925/1030/20/
043100/20130206/103415/924/1502/10/
043100/20130206/103433/925/4208/20/
043100/20130206/103436/925/4562/20/
043100/20130206/103536/926/782/20/
043100/20130206/103537/926/263/20/
043100/20130206/103602/927/225/20/
043100/20130206/103640/927/7293/20/
043100/20130206/103646/927/100/10/
043100/20130206/103727/927/1200/20/
043100/20130206/103826/927/288/10/
043100/20130206/103843/928/1001/20/
043100/20130206/103851/928/1002/20/
043100/20130206/103901/928/542/20/
043100/20130206/103902/928/1000/20/
043100/20130206/103906/928/101/20/
043100/20130206/103915/928/1001/20/
043100/20130206/103917/928/6502/20/
043100/20130206/103919/928/995/20/
043100/20130206/103920/928/100/20/
043100/20130206/103920/928/100/20/
043100/20130206/103921/928/100/20/
043100/20130206/103921/928/100/20/
043100/20130206/103921/928/1001/20/
043100/20130206/103922/928/245/20/
043100/20130206/103924/928/100/20/
043100/20130206/103931/928/101/20/
043100/20130206/103934/927/246/10/
043100/20130206/103936/928/100/20/
043100/20130206/103944/928/103/20/
043100/20130206/103947/928/301/20/
043100/20130206/103948/928/908/20/
043100/20130206/103955/928/102/20/
043100/20130206/104001/928/1115/20/
043100/20130206/104002/928/914/20/
043100/20130206/104003/928/800/20/
043100/20130206/104005/928/101/20/
043100/20130206/104021/928/103/20/
043100/20130206/104024/928/628/20/
043100/20130206/104027/928/1796/20/
043100/20130206/104039/928/103/20/
043100/20130206/104053/928/103/20/
043100/20130206/104055/928/901/20/
043100/20130206/104100/928/500/20/
043100/20130206/104103/928/101/20/
043100/20130206/104128/927/229/10/
043100/20130206/104226/927/7074/10/
043100/20130206/104237/928/112/20/
043100/20130206/104249/928/102/20/
043100/20130206/104347/927/3544/10/
043100/20130206/104347/926/1556/10/
043100/20130206/104347/925/949/10/
043100/20130206/104401/925/1201/10/
043100/20130206/104434/927/2025/20/
043100/20130206/104441/928/2234/20/
043100/20130206/104453/928/348/10/
043100/20130206/104529/929/81/20/
043100/20130206/104533/929/100/20/
043100/20130206/104621/929/1165/20/
043100/20130206/104700/929/85/20/
043100/20130206/104703/929/203/20/
043100/20130206/104719/929/7171/20/
043100/20130206/104809/930/106/20/
043100/20130206/104819/930/2466/20/
043100/20130206/104821/930/10013/20/
043100/20130206/104822/930/10159/20/
043100/20130206/104835/930/522/10/
043100/20130206/104843/931/2551/20/
043100/20130206/104843/930/100/10/
043100/20130206/104844/931/312/20/
043100/20130206/104857/931/233/20/
043100/20130206/104858/930/5000/10/
043100/20130206/104900/930/371/10/
043100/20130206/104909/930/2889/20/
043100/20130206/104956/930/1018/10/
043100/20130206/104959/930/578/10/
043100/20130206/105003/930/265/10/
043100/20130206/105046/930/2008/20/
043100/20130206/105147/930/86/20/
043100/20130206/105215/930/81/20/
043100/20130206/105232/930/135/20/
043100/20130206/105233/930/7667/20/
043100/20130206/105233/930/3238/20/
043100/20130206/105255/930/1034/10/
043100/20130206/105341/931/154/20/
043100/20130206/105349/931/122/20/
043100/20130206/105356/931/122/20/
043100/20130206/105407/931/112/20/
043100/20130206/105415/931/2643/20/
043100/20130206/105417/931/111/20/
043100/20130206/105420/931/512/20/
043100/20130206/105421/931/300/20/
043100/20130206/105428/931/1067/20/
043100/20130206/105430/931/113/20/
043100/20130206/105442/931/173/20/
043100/20130206/105459/931/84/20/
043100/20130206/105544/931/758/20/
043100/20130206/105614/931/85/20/
043100/20130206/105618/930/300/10/
043100/20130206/105621/930/1001/10/
043100/20130206/105623/930/1001/10/
043100/20130206/105637/930/6041/10/
043100/20130206/105641/930/2001/10/
043100/20130206/105641/930/633/10/
043100/20130206/105642/930/318/10/
043100/20130206/105643/930/100/10/
043100/20130206/105646/930/2487/10/
043100/20130206/105707/929/1004/10/
043100/20130206/105722/929/959/10/
043100/20130206/105757/928/3061/10/
043100/20130206/105817/928/2540/10/
043100/20130206/105916/928/1562/20/
043100/20130206/105925/928/1045/20/
043100/20130206/110004/928/2955/20/
043100/20130206/110143/929/1111/20/
043100/20130206/110150/929/1001/20/
043100/20130206/110206/929/2055/20/
043100/20130206/110207/928/1816/10/
043100/20130206/110244/928/402/10/
043100/20130206/110423/928/1966/10/
043100/20130206/110441/928/1002/10/
043100/20130206/110443/928/101/10/
043100/20130206/110450/927/2719/10/
043100/20130206/110450/926/271/10/
043100/20130206/110548/927/1005/20/
043100/20130206/110548/928/1652/20/
043100/20130206/110600/929/101/20/
043100/20130206/110622/928/333/10/
043100/20130206/110627/929/3632/20/
043100/20130206/110706/930/204/20/
043100/20130206/110719/928/300/10/
043100/20130206/110935/930/81/20/
043100/20130206/110957/929/1003/10/
043100/20130206/110957/929/739/10/
043100/20130206/111050/928/133/10/
043100/20130206/111121/929/501/20/
043100/20130206/111121/929/1314/10/
043100/20130206/111137/929/93/20/
043100/20130206/111326/928/2343/10/
043100/20130206/111412/927/1138/10/
043100/20130206/111457/926/2035/10/
043100/20130206/111501/926/1066/10/
043100/20130206/111526/926/108/10/
043100/20130206/111657/929/5404/20/
043100/20130206/111800/928/859/10/
043100/20130206/111816/928/1484/10/
043100/20130206/111857/928/360/20/
043100/20130206/111943/927/1001/10/
043100/20130206/112104/927/7597/10/
043100/20130206/112111/928/92/20/
043100/20130206/112130/928/7221/20/
043100/20130206/112138/928/100/20/
043100/20130206/112232/928/755/20/
043100/20130206/112336/929/3071/20/
043100/20130206/112441/929/6556/20/
043100/20130206/112450/929/2000/10/
043100/20130206/112615/929/484/10/
043100/20130206/112621/929/974/10/
043100/20130206/112650/929/1190/20/
043100/20130206/112654/929/1100/10/
043100/20130206/112728/929/83/10/
043100/20130206/112856/930/171/20/
043100/20130206/112900/929/7630/10/
043100/20130206/112908/929/107/20/
043100/20130206/112921/928/2003/10/
043100/20130206/113112/928/1003/10/
043100/20130206/113118/928/2166/10/
043100/20130206/113202/928/2360/10/
043100/20130206/113209/928/2828/10/
043100/20130206/113359/928/245/20/
043100/20130206/113432/928/738/20/
043100/20130206/113605/928/2145/10/
043100/20130206/113718/928/354/10/
043100/20130206/113718/927/1676/10/
043100/20130206/113845/929/201/20/
043100/20130206/113959/929/503/20/
043100/20130206/114026/927/1000/10/
043100/20130206/114045/929/2001/20/
043100/20130206/114058/929/415/20/
043100/20130206/114201/927/3000/10/
043100/20130206/114456/928/81/20/
043100/20130206/114557/928/1601/10/
043100/20130206/114654/928/1634/10/
043100/20130206/114823/928/939/20/
043100/20130206/114901/928/3013/20/
043100/20130206/115046/927/120/10/
043100/20130206/115129/927/2163/10/
043100/20130206/115216/927/1048/10/
043100/20130206/115220/928/3000/20/
043100/20130206/115334/928/4989/20/
043100/20130206/115427/928/3244/20/
043100/20130206/115537/929/3006/20/
043100/20130206/115714/928/6856/10/
043100/20130206/115714/927/1389/10/
043100/20130206/115714/926/1830/10/
043100/20130206/115736/927/761/10/
043100/20130206/115812/929/1727/20/
043100/20130206/115852/929/1014/20/
043100/20130206/120043/928/194/20/
043100/20130206/120414/928/837/10/
043100/20130206/120622/928/928/10/
043100/20130206/120628/929/1540/20/
043100/20130206/120631/929/7344/20/
043100/20130206/120633/930/5393/20/
043100/20130206/120640/930/1745/20/
043100/20130206/120646/929/2068/10/
043100/20130206/120703/929/1206/20/
043100/20130206/120745/930/1607/20/
043100/20130206/120759/930/103/20/
043100/20130206/120822/930/3103/20/
043100/20130206/121027/929/932/10/
043100/20130206/121109/929/4007/10/
043100/20130206/121116/929/5431/10/
043100/20130206/121126/929/486/20/
043100/20130206/121211/929/206/20/
043100/20130206/121351/929/1094/20/
043100/20130206/121412/928/127/10/
043100/20130206/121447/929/205/20/
043100/20130206/121647/929/150/20/
043100/20130206/121800/929/4199/20/
043100/20130206/121840/930/506/20/
043100/20130206/122044/929/3006/10/
043100/20130206/122051/929/3119/10/
043100/20130206/122108/929/241/10/
043100/20130206/122116/930/392/20/
043100/20130206/122207/929/261/10/
043100/20130206/122213/929/500/10/
043100/20130206/122308/930/81/20/
043100/20130206/122332/930/303/20/
043100/20130206/122432/930/241/20/
043100/20130206/122455/930/970/20/
043100/20130206/122532/930/998/20/
043100/20130206/122536/929/722/10/
043100/20130206/122556/930/3003/20/
043100/20130206/122602/930/1000/20/
043100/20130206/122603/930/2900/20/
043100/20130206/122614/930/5005/20/
043100/20130206/122723/929/1438/10/
043100/20130206/122732/930/500/20/
043100/20130206/122839/930/120/10/
043100/20130206/122839/930/300/10/
043100/20130206/122905/931/504/20/
043100/20130206/122907/930/201/10/
043100/20130206/123017/930/6999/10/
043100/20130206/123023/930/101/10/
043100/20130206/123033/930/3803/10/
043100/20130206/123143/929/87/10/
043100/20130206/123223/929/93/10/
043100/20130206/123329/930/1157/20/
043100/20130206/123358/929/301/10/
043100/20130206/123409/929/122/10/
043100/20130206/123425/930/8368/20/
043100/20130206/123531/930/7441/10/
043100/20130206/123537/931/2521/20/
043100/20130206/123639/931/8798/20/
043100/20130206/123657/931/134/20/
043100/20130206/123709/930/106/10/
043100/20130206/123714/930/103/10/
043100/20130206/123720/931/304/20/
043100/20130206/123743/931/2413/20/
043100/20130206/123804/930/317/10/
043100/20130206/123906/930/519/10/
043100/20130206/123917/930/305/10/
043100/20130206/123955/930/207/10/
043100/20130206/124001/930/3379/10/
043100/20130206/124049/929/354/10/
043100/20130206/124050/929/300/10/
043100/20130206/124055/929/303/10/
043100/20130206/124239/929/1618/10/
043100/20130206/124251/929/181/10/
043100/20130206/124251/928/928/10/
043100/20130206/124336/928/823/10/
043100/20130206/124340/928/2344/20/
043100/20130206/124400/928/841/20/
043100/20130206/124405/928/104/10/
043100/20130206/124406/928/113/10/
043100/20130206/124406/927/887/10/
043100/20130206/124420/930/93/20/
043100/20130206/124529/929/518/20/
043100/20130206/124653/929/533/20/
043100/20130206/124758/929/2201/20/
043100/20130206/124832/929/900/10/
043100/20130206/124855/929/110/10/
043100/20130206/125234/929/313/10/
043100/20130206/125306/929/862/20/
043100/20130206/125400/929/508/20/
043100/20130206/125619/928/114/10/
043100/20130206/125702/928/2933/10/
043100/20130206/125827/927/1574/10/
043100/20130206/125829/928/1000/20/
043100/20130206/125930/927/2603/10/
043100/20130206/130048/928/81/20/
043100/20130206/130103/928/1657/20/
043100/20130206/130124/927/4090/10/
043100/20130206/130156/928/501/20/
043100/20130206/130314/927/1002/10/
043100/20130206/130319/927/276/10/
043100/20130206/130324/927/200/10/
043100/20130206/130346/927/2023/10/
043100/20130206/130405/927/271/10/
043100/20130206/130405/926/8136/10/
043100/20130206/130516/928/81/20/
043100/20130206/130550/928/90/20/
043100/20130206/130601/928/86/20/
043100/20130206/130630/928/88/20/
043100/20130206/130819/928/274/20/
043100/20130206/130830/928/1000/10/
043100/20130206/130922/929/82/20/
043100/20130206/130929/929/2837/20/
043100/20130206/130954/929/690/20/
043100/20130206/131028/928/1628/10/
043100/20130206/131119/928/1601/10/
043100/20130206/131133/929/769/20/
043100/20130206/131211/929/216/20/
043100/20130206/131228/929/4574/20/
043100/20130206/131257/930/91/20/
043100/20130206/131311/930/101/20/
043100/20130206/131312/930/11324/20/
043100/20130206/131315/930/887/20/
043100/20130206/131347/930/4834/20/
043100/20130206/131350/930/3221/20/
043100/20130206/131355/931/8478/20/
043100/20130206/131414/930/2206/10/
043100/20130206/131434/931/6330/20/
043100/20130206/131509/930/2892/10/
043100/20130206/131513/930/2001/20/
043100/20130206/131531/930/5150/20/
043100/20130206/131535/930/800/10/
043100/20130206/131550/931/324/20/
043100/20130206/131551/931/300/20/
043100/20130206/131619/931/85/20/
043100/20130206/131626/930/4036/10/
043100/20130206/131628/930/196/20/
043100/20130206/131648/930/1071/20/
043100/20130206/131658/930/121/20/
043100/20130206/131718/930/1077/20/
043100/20130206/131803/930/779/20/
043100/20130206/131834/930/5058/20/
043100/20130206/131855/929/3015/10/
043100/20130206/131904/929/406/10/
043100/20130206/132035/930/82/20/
043100/20130206/132131/930/137/20/
043100/20130206/132135/930/108/20/
043100/20130206/132139/930/100/20/
043100/20130206/132146/930/110/20/
043100/20130206/132210/930/143/20/
043100/20130206/132214/930/108/20/
043100/20130206/132219/930/102/20/
043100/20130206/132220/930/5000/20/
043100/20130206/132222/930/1756/20/
043100/20130206/132307/931/168/20/
043100/20130206/132321/931/134/20/
043100/20130206/132326/931/615/20/
043100/20130206/132328/930/1436/10/
043100/20130206/132503/930/1799/10/
043100/20130206/132618/930/115/20/
043100/20130206/132621/930/246/20/
043100/20130206/132625/930/1599/20/
043100/20130206/132628/930/1615/20/
043100/20130206/132628/931/5046/20/
043100/20130206/132628/932/862/20/
043100/20130206/132634/932/858/20/
043100/20130206/132641/932/98/20/
043100/20130206/132718/931/1930/20/
043100/20130206/132735/931/105/10/
043100/20130206/132748/931/107/10/
043100/20130206/132753/931/332/10/
043100/20130206/132824/932/10072/20/
043100/20130206/132841/932/1045/20/
043100/20130206/132845/932/4330/20/
043100/20130206/132847/932/286/20/
043100/20130206/133006/933/1235/20/
043100/20130206/133019/932/969/10/
043100/20130206/133029/932/503/10/
043100/20130206/133039/932/388/10/
043100/20130206/133127/932/119/10/
043100/20130206/133140/933/507/20/
043100/20130206/133221/932/2076/10/
043100/20130206/133223/932/502/10/
043100/20130206/133238/933/10006/20/
043100/20130206/133243/933/3002/20/
043100/20130206/133244/933/2147/20/
043100/20130206/133244/934/6644/20/
043100/20130206/133257/934/679/20/
043100/20130206/133435/933/433/10/
043100/20130206/133435/932/433/10/
043100/20130206/133448/933/210/20/
043100/20130206/133448/934/5846/20/
043100/20130206/133448/935/8087/20/
043100/20130206/133514/935/950/20/
043100/20130206/133537/935/1046/20/
043100/20130206/133546/935/3000/20/
043100/20130206/133553/935/500/20/
043100/20130206/133639/935/2002/20/
043100/20130206/133644/934/1001/10/
043100/20130206/133704/934/300/10/
043100/20130206/133714/934/5001/10/
043100/20130206/133715/934/1025/10/
043100/20130206/133812/934/1208/20/
043100/20130206/133952/934/230/20/
043100/20130206/134004/934/3982/20/
043100/20130206/134007/933/200/10/
043100/20130206/134056/933/510/10/
043100/20130206/134056/933/100/10/
043100/20130206/134103/933/3002/10/
043100/20130206/134103/934/861/20/
043100/20130206/134203/933/921/10/
043100/20130206/134206/933/193/10/
043100/20130206/134239/933/531/10/
043100/20130206/134256/933/2648/10/
043100/20130206/134305/932/501/10/
043100/20130206/134316/932/110/10/
043100/20130206/134450/933/489/20/
043100/20130206/134453/933/314/20/
043100/20130206/134652/934/1893/20/
043100/20130206/134704/934/119/20/
043100/20130206/134712/934/5297/20/
043100/20130206/134736/935/202/20/
043100/20130206/134744/934/2003/10/
043100/20130206/134813/935/113/20/
043100/20130206/134905/935/2865/20/
043100/20130206/134917/935/103/20/
043100/20130206/134933/934/3005/10/
043100/20130206/134953/934/3806/10/
043100/20130206/135058/933/89/10/
043100/20130206/135058/932/969/10/
043100/20130206/135145/934/98/20/
043100/20130206/135149/934/1756/20/
043100/20130206/135242/934/1013/20/
043100/20130206/135247/934/3589/20/
043100/20130206/135405/933/4009/10/
043100/20130206/135418/933/4911/10/
043100/20130206/135448/933/503/10/
043100/20130206/135457/933/150/10/
043100/20130206/135458/933/100/10/
043100/20130206/135509/933/1353/10/
043100/20130206/135541/932/304/10/
043100/20130206/135558/933/803/20/
043100/20130206/135714/933/102/20/
043100/20130206/135719/934/4864/20/
043100/20130206/135729/933/1002/10/
043100/20130206/135742/933/901/10/
043100/20130206/135745/934/2601/20/
043100/20130206/135819/933/81/10/
043100/20130206/135845/934/8874/20/
043100/20130206/135845/933/94/10/
043100/20130206/135855/934/1000/20/
043100/20130206/135954/934/1037/20/
043100/20130206/135958/934/500/20/
043100/20130206/140012/934/500/20/
043100/20130206/140048/933/100/10/
043100/20130206/140056/933/1000/10/
043100/20130206/140101/933/3168/10/
043100/20130206/140101/932/1266/10/
043100/20130206/140118/932/2803/10/
043100/20130206/140125/932/1252/10/
043100/20130206/140125/931/3182/10/
043100/20130206/140239/931/2534/10/
043100/20130206/140243/931/303/20/
043100/20130206/140254/931/2166/20/
043100/20130206/140406/931/173/10/
043100/20130206/140416/931/1050/10/
043100/20130206/140431/931/3466/10/
043100/20130206/140431/930/6540/10/
043100/20130206/140517/931/124/10/
043100/20130206/140517/930/2879/10/
043100/20130206/140526/931/2128/10/
043100/20130206/140526/930/2901/10/
043100/20130206/140613/930/20004/10/
043100/20130206/140613/930/1310/10/
043100/20130206/140620/929/190/10/
043100/20130206/140626/929/343/10/
043100/20130206/140638/929/158/10/
043100/20130206/140648/930/301/20/
043100/20130206/140724/929/1018/10/
043100/20130206/140727/929/110/10/
043100/20130206/140733/929/1794/10/
043100/20130206/140819/929/112/20/
043100/20130206/140820/929/95/20/
043100/20130206/140821/929/105/10/
043100/20130206/140847/930/159/20/
043100/20130206/140854/928/2000/10/
043100/20130206/141025/929/130/10/
043100/20130206/141028/928/244/10/
043100/20130206/141034/928/1793/10/
043100/20130206/141038/928/109/10/
043100/20130206/141041/928/115/10/
043100/20130206/141045/928/1850/10/
043100/20130206/141049/928/100/20/
043100/20130206/141054/928/281/20/
043100/20130206/141102/928/171/20/
043100/20130206/141107/928/2079/10/
043100/20130206/141107/927/7921/10/
043100/20130206/141117/929/895/20/
043100/20130206/141117/930/177/20/
043100/20130206/141131/927/82/10/
043100/20130206/141204/927/2010/10/
043100/20130206/141210/927/2177/10/
043100/20130206/141220/926/87/10/
043100/20130206/141221/927/2006/20/
043100/20130206/141227/926/8000/10/
043100/20130206/141235/926/326/10/
043100/20130206/141250/926/300/10/
043100/20130206/141305/927/5001/20/
043100/20130206/141314/927/104/20/
043100/20130206/141315/927/907/10/
043100/20130206/141324/927/1002/20/
043100/20130206/141325/927/1000/20/
043100/20130206/141326/927/100/20/
043100/20130206/141329/927/322/20/
043100/20130206/141331/927/1001/20/
043100/20130206/141333/927/200/20/
043100/20130206/141337/927/500/20/
043100/20130206/141345/927/1021/20/
043100/20130206/141427/929/95/20/
043100/20130206/141431/929/1910/10/
043100/20130206/141450/929/1504/20/
043100/20130206/141610/929/223/20/
043100/20130206/141622/929/800/20/
043100/20130206/141701/929/100/20/
043100/20130206/141709/928/2650/10/
043100/20130206/141710/928/804/10/
043100/20130206/141737/928/100/20/
043100/20130206/141737/927/2000/10/
043100/20130206/141743/927/3229/10/
043100/20130206/141750/926/10000/10/
043100/20130206/141756/926/301/10/
043100/20130206/141820/926/5039/10/
043100/20130206/141824/926/4587/10/
043100/20130206/141824/925/11943/10/
043100/20130206/141830/925/2002/20/
043100/20130206/141832/925/1298/20/
043100/20130206/141900/926/1053/10/
043100/20130206/141915/926/1021/10/
043100/20130206/141921/925/4279/10/
043100/20130206/141922/925/107/10/
043100/20130206/141924/925/321/10/
043100/20130206/141926/925/1144/10/
043100/20130206/141927/925/164/10/
043100/20130206/141927/924/8851/10/
043100/20130206/141927/923/3485/10/
043100/20130206/141935/925/1000/10/
043100/20130206/141948/923/1000/10/
043100/20130206/142001/923/1098/10/
043100/20130206/142011/925/100/20/
043100/20130206/142022/924/201/10/
043100/20130206/142022/923/120/10/
043100/20130206/142028/923/2001/10/
043100/20130206/142032/924/100/20/
043100/20130206/142050/924/141/20/
043100/20130206/142057/924/100/20/
043100/20130206/142103/923/4000/10/
043100/20130206/142103/922/5451/10/
043100/20130206/142141/925/81/20/
043100/20130206/142200/924/118/10/
043100/20130206/142207/924/969/10/
043100/20130206/142236/925/87/20/
043100/20130206/142240/925/100/20/
043100/20130206/142257/924/645/10/
043100/20130206/142301/924/4800/20/
043100/20130206/142310/925/100/20/
043100/20130206/142411/925/88/20/
043100/20130206/142415/925/5868/20/
043100/20130206/142504/927/108/20/
043100/20130206/142711/927/81/20/
043100/20130206/142735/926/204/10/
043100/20130206/142747/926/270/20/
043100/20130206/142803/927/103/20/
043100/20130206/142818/926/129/10/
043100/20130206/142837/927/94/20/
043100/20130206/142941/927/81/20/
043100/20130206/143022/927/120/20/
043100/20130206/143025/927/100/20/
043100/20130206/143027/927/174/20/
043100/20130206/143036/926/264/10/
043100/20130206/143141/927/145/20/
043100/20130206/143142/927/500/20/
043100/20130206/143154/927/96/20/
043100/20130206/143159/927/252/20/
043100/20130206/143211/927/208/20/
043100/20130206/143236/927/304/20/
043100/20130206/143305/927/116/20/
043100/20130206/143340/926/3024/10/
043100/20130206/143425/926/222/20/
043100/20130206/143448/926/543/20/
043100/20130206/143453/926/311/20/
043100/20130206/143455/926/2917/20/
043100/20130206/143521/926/149/10/
043100/20130206/143527/926/81/10/
043100/20130206/143611/926/1635/10/
043100/20130206/143623/927/2015/20/
043100/20130206/143640/926/372/10/
043100/20130206/143714/926/1030/20/
043100/20130206/143722/926/1504/20/
043100/20130206/143724/926/542/20/
043100/20130206/143727/926/501/20/
043100/20130206/143729/926/5382/20/
043100/20130206/143734/926/202/10/
043100/20130206/143800/926/207/10/
043100/20130206/143809/926/2260/10/
043100/20130206/143826/927/213/20/
043100/20130206/143841/926/111/10/
043100/20130206/143856/927/342/20/
043100/20130206/143910/926/920/10/
043100/20130206/143910/927/10000/20/
043100/20130206/143916/927/500/20/
043100/20130206/143923/927/881/20/
043100/20130206/143923/928/4130/20/
043100/20130206/143952/928/120/20/
043100/20130206/144006/928/131/20/
043100/20130206/144011/928/5000/20/
043100/20130206/144020/928/211/20/
043100/20130206/144204/928/555/20/
043100/20130206/144252/928/95/20/
043100/20130206/144305/927/1650/10/
043100/20130206/144311/928/602/20/
043100/20130206/144314/928/306/20/
043100/20130206/144314/929/4496/20/
043100/20130206/144345/927/1570/10/
043100/20130206/144349/927/120/10/
043100/20130206/144349/926/4808/10/
043100/20130206/144349/925/5074/10/
043100/20130206/144356/929/1002/20/
043100/20130206/144431/928/86/10/
043100/20130206/144442/928/171/10/
043100/20130206/144459/928/4296/20/
043100/20130206/144523/928/300/20/
043100/20130206/144532/927/586/10/
043100/20130206/144540/928/118/20/
043100/20130206/144540/928/884/10/
043100/20130206/144559/928/751/20/
043100/20130206/144559/928/100/20/
043100/20130206/144628/927/1029/10/
043100/20130206/144631/927/1002/10/
043100/20130206/144632/927/100/10/
043100/20130206/144636/927/756/10/
043100/20130206/144647/927/1206/10/
043100/20130206/144700/927/586/10/
043100/20130206/144700/927/476/10/
043100/20130206/144700/926/350/10/
043100/20130206/144720/927/429/20/
043100/20130206/144751/926/13166/10/
043100/20130206/144751/925/5273/10/
043100/20130206/144823/926/2827/10/
043100/20130206/144823/925/5668/10/
043100/20130206/144825/925/4544/10/
043100/20130206/144829/925/17003/10/
043100/20130206/144830/925/21111/10/
043100/20130206/144830/925/7951/10/
043100/20130206/144850/925/88/10/
043100/20130206/144909/926/923/20/
043100/20130206/144923/926/133/10/
043100/20130206/144930/927/423/20/
043100/20130206/144939/926/783/10/
043100/20130206/144948/926/1766/10/
043100/20130206/144951/926/632/20/
043100/20130206/144952/927/2000/20/
043100/20130206/144958/926/259/10/
043100/20130206/144958/925/5041/10/
043100/20130206/150000/928/79246/10/
