043100/20130207/90000/931/257027/10/
043100/20130207/90001/931/100/10/
043100/20130207/90001/931/6043/10/
043100/20130207/90001/930/8798/10/
043100/20130207/90001/932/2208/20/
043100/20130207/90001/934/665/20/
043100/20130207/90002/935/2000/20/
043100/20130207/90002/935/500/20/
043100/20130207/90005/934/774/10/
043100/20130207/90006/934/500/10/
043100/20130207/90008/935/1500/20/
043100/20130207/90013/934/139/10/
043100/20130207/90015/935/2000/20/
043100/20130207/90015/934/545/10/
043100/20130207/90016/932/917/10/
043100/20130207/90020/932/917/10/
043100/20130207/90020/932/307/10/
043100/20130207/90021/933/305/10/
043100/20130207/90021/934/3000/20/
043100/20130207/90023/933/815/10/
043100/20130207/90025/934/2065/20/
043100/20130207/90028/933/3167/10/
043100/20130207/90029/933/2723/20/
043100/20130207/90029/934/7277/20/
043100/20130207/90029/932/917/10/
043100/20130207/90031/933/84/10/
043100/20130207/90031/932/323/10/
043100/20130207/90032/932/917/10/
043100/20130207/90035/932/254/10/
043100/20130207/90041/932/558/10/
043100/20130207/90042/933/1528/20/
043100/20130207/90044/932/100/10/
043100/20130207/90047/934/1900/20/
043100/20130207/90048/933/317/10/
043100/20130207/90048/934/710/20/
043100/20130207/90048/935/228/20/
043100/20130207/90050/933/611/10/
043100/20130207/90051/935/734/20/
043100/20130207/90052/936/2551/20/
043100/20130207/90052/937/978/20/
043100/20130207/90053/937/3529/20/
043100/20130207/90054/937/2438/20/
043100/20130207/90056/937/1003/20/
043100/20130207/90057/937/2012/20/
043100/20130207/90057/937/4772/20/
043100/20130207/90057/937/1741/20/
043100/20130207/90059/937/2024/10/
043100/20130207/90100/938/103/20/
043100/20130207/90100/938/1093/20/
043100/20130207/90100/939/104/20/
043100/20130207/90103/938/259/10/
043100/20130207/90104/938/501/10/
043100/20130207/90104/938/447/10/
043100/20130207/90106/938/2564/20/
043100/20130207/90106/939/2491/20/
043100/20130207/90108/938/1002/10/
043100/20130207/90108/939/1023/20/
043100/20130207/90111/939/1423/20/
043100/20130207/90113/939/204/20/
043100/20130207/90115/939/1000/20/
043100/20130207/90116/939/12096/20/
043100/20130207/90116/940/1763/20/
043100/20130207/90117/940/8692/20/
043100/20130207/90118/939/1900/10/
043100/20130207/90121/939/1493/20/
043100/20130207/90121/939/1000/20/
043100/20130207/90122/939/1000/20/
043100/20130207/90123/938/917/10/
043100/20130207/90123/939/2327/20/
043100/20130207/90123/940/575/20/
043100/20130207/90124/939/2577/10/
043100/20130207/90124/939/509/10/
043100/20130207/90125/940/1000/20/
043100/20130207/90125/939/1987/10/
043100/20130207/90127/939/4207/20/
043100/20130207/90128/940/1000/20/
043100/20130207/90129/939/210/10/
043100/20130207/90129/939/2641/10/
043100/20130207/90129/939/2500/10/
043100/20130207/90130/939/617/20/
043100/20130207/90131/939/10000/20/
043100/20130207/90132/938/255/10/
043100/20130207/90133/938/204/10/
043100/20130207/90133/939/90/20/
043100/20130207/90133/938/917/10/
043100/20130207/90133/939/500/20/
043100/20130207/90135/938/342/10/
043100/20130207/90137/938/150/10/
043100/20130207/90137/938/1912/10/
043100/20130207/90138/938/1030/20/
043100/20130207/90140/938/1000/20/
043100/20130207/90142/937/7529/10/
043100/20130207/90144/935/934/10/
043100/20130207/90144/937/300/20/
043100/20130207/90146/935/4532/10/
043100/20130207/90154/933/6973/10/
043100/20130207/90155/933/102/10/
043100/20130207/90156/933/230/10/
043100/20130207/90159/933/153/10/
043100/20130207/90201/933/815/10/
043100/20130207/90202/933/917/10/
043100/20130207/90203/933/417/10/
043100/20130207/90204/933/222/10/
043100/20130207/90206/933/407/10/
043100/20130207/90213/933/356/10/
043100/20130207/90213/935/2000/20/
043100/20130207/90219/933/101/10/
043100/20130207/90221/933/204/10/
043100/20130207/90224/934/1000/10/
043100/20130207/90224/933/500/10/
043100/20130207/90225/934/210/10/
043100/20130207/90226/933/713/10/
043100/20130207/90228/933/952/10/
043100/20130207/90230/933/12171/10/
043100/20130207/90231/933/1706/10/
043100/20130207/90233/933/1740/20/
043100/20130207/90237/933/184/10/
043100/20130207/90240/933/150/20/
043100/20130207/90243/932/180/10/
043100/20130207/90244/932/2000/10/
043100/20130207/90246/932/3300/10/
043100/20130207/90246/932/2410/10/
043100/20130207/90250/931/947/10/
043100/20130207/90254/931/1600/10/
043100/20130207/90255/931/2500/10/
043100/20130207/90255/931/509/10/
043100/20130207/90257/931/300/10/
043100/20130207/90257/932/1000/20/
043100/20130207/90259/931/509/10/
043100/20130207/90300/931/450/10/
043100/20130207/90301/931/305/10/
043100/20130207/90301/931/415/10/
043100/20130207/90302/931/2900/10/
043100/20130207/90302/931/924/10/
043100/20130207/90302/932/4300/20/
043100/20130207/90303/932/2327/20/
043100/20130207/90303/931/3350/10/
043100/20130207/90303/930/3079/10/
043100/20130207/90306/930/4573/10/
043100/20130207/90307/930/81/10/
043100/20130207/90308/930/500/10/
043100/20130207/90309/931/1391/20/
043100/20130207/90309/930/917/10/
043100/20130207/90313/930/255/10/
043100/20130207/90314/931/1239/20/
043100/20130207/90314/932/4694/20/
043100/20130207/90316/931/117/10/
043100/20130207/90317/931/407/10/
043100/20130207/90322/931/2196/10/
043100/20130207/90322/930/4563/10/
043100/20130207/90327/931/917/10/
043100/20130207/90332/931/92/10/
043100/20130207/90334/931/300/10/
043100/20130207/90337/931/917/10/
043100/20130207/90337/931/305/10/
043100/20130207/90343/931/123/10/
043100/20130207/90344/931/591/20/
043100/20130207/90347/930/204/10/
043100/20130207/90349/931/100/10/
043100/20130207/90353/931/200/10/
043100/20130207/90354/931/701/10/
043100/20130207/90355/931/299/20/
043100/20130207/90355/931/142/20/
043100/20130207/90358/931/4000/20/
043100/20130207/90359/930/232/10/
043100/20130207/90359/931/200/20/
043100/20130207/90400/930/917/10/
043100/20130207/90403/931/550/20/
043100/20130207/90404/931/1000/20/
043100/20130207/90406/931/2847/20/
043100/20130207/90410/932/1080/20/
043100/20130207/90410/931/117/10/
043100/20130207/90411/931/509/10/
043100/20130207/90412/932/685/20/
043100/20130207/90412/933/1315/20/
043100/20130207/90415/932/306/20/
043100/20130207/90416/932/204/10/
043100/20130207/90419/932/200/10/
043100/20130207/90431/932/110/10/
043100/20130207/90434/932/254/10/
043100/20130207/90441/932/1050/10/
043100/20130207/90441/932/187/10/
043100/20130207/90442/932/8290/10/
043100/20130207/90442/932/324/10/
043100/20130207/90443/932/116/10/
043100/20130207/90448/932/102/10/
043100/20130207/90448/932/2000/10/
043100/20130207/90448/932/356/10/
043100/20130207/90452/932/100/10/
043100/20130207/90452/932/713/10/
043100/20130207/90452/932/2438/10/
043100/20130207/90453/933/1000/20/
043100/20130207/90456/932/81/10/
043100/20130207/90500/932/1000/10/
043100/20130207/90501/932/311/10/
043100/20130207/90502/932/7581/10/
043100/20130207/90502/931/12419/10/
043100/20130207/90513/932/961/20/
043100/20130207/90517/931/928/10/
043100/20130207/90523/931/918/10/
043100/20130207/90527/932/1752/20/
043100/20130207/90529/932/417/10/
043100/20130207/90531/932/305/10/
043100/20130207/90532/932/917/10/
043100/20130207/90535/932/922/10/
043100/20130207/90538/932/272/10/
043100/20130207/90548/932/929/10/
043100/20130207/90549/933/306/20/
043100/20130207/90549/932/407/10/
043100/20130207/90605/932/453/10/
043100/20130207/90605/933/300/20/
043100/20130207/90610/933/2287/20/
043100/20130207/90612/932/625/10/
043100/20130207/90613/933/1000/20/
043100/20130207/90615/933/1335/20/
043100/20130207/90616/933/293/20/
043100/20130207/90618/933/6002/20/
043100/20130207/90618/933/134/20/
043100/20130207/90619/933/3000/20/
043100/20130207/90620/933/2000/20/
043100/20130207/90620/933/870/20/
043100/20130207/90620/934/2830/20/
043100/20130207/90620/935/1300/20/
043100/20130207/90627/935/100/20/
043100/20130207/90633/933/418/10/
043100/20130207/90638/933/206/10/
043100/20130207/90639/933/204/10/
043100/20130207/90642/933/979/10/
043100/20130207/90645/934/2000/20/
043100/20130207/90648/934/512/20/
043100/20130207/90648/933/917/10/
043100/20130207/90649/933/204/10/
043100/20130207/90650/934/1487/20/
043100/20130207/90651/934/917/10/
043100/20130207/90652/934/509/10/
043100/20130207/90654/934/87/10/
043100/20130207/90656/934/117/20/
043100/20130207/90701/934/885/10/
043100/20130207/90701/933/665/10/
043100/20130207/90704/935/1002/20/
043100/20130207/90711/934/144/20/
043100/20130207/90716/934/925/20/
043100/20130207/90720/933/20079/10/
043100/20130207/90726/933/263/10/
043100/20130207/90727/933/200/10/
043100/20130207/90728/934/581/20/
043100/20130207/90729/934/1000/10/
043100/20130207/90729/934/917/10/
043100/20130207/90730/934/200/10/
043100/20130207/90732/934/200/10/
043100/20130207/90734/934/200/10/
043100/20130207/90735/934/153/10/
043100/20130207/90736/934/200/10/
043100/20130207/90738/935/656/20/
043100/20130207/90739/934/205/10/
043100/20130207/90740/934/256/10/
043100/20130207/90741/934/102/10/
043100/20130207/90742/934/917/10/
043100/20130207/90743/935/112/20/
043100/20130207/90746/935/3957/20/
043100/20130207/90746/934/500/10/
043100/20130207/90749/935/131/20/
043100/20130207/90753/934/917/10/
043100/20130207/90755/934/917/10/
043100/20130207/90805/934/1022/10/
043100/20130207/90812/934/121/10/
043100/20130207/90816/934/107/10/
043100/20130207/90823/934/1066/20/
043100/20130207/90823/935/367/20/
043100/20130207/90836/934/256/20/
043100/20130207/90837/934/102/10/
043100/20130207/90838/934/551/10/
043100/20130207/90850/933/562/10/
043100/20130207/90854/933/10000/10/
043100/20130207/90855/933/1416/10/
043100/20130207/90859/933/2000/20/
043100/20130207/90908/932/1004/10/
043100/20130207/90912/932/509/10/
043100/20130207/90912/932/1428/10/
043100/20130207/90913/932/407/10/
043100/20130207/90915/932/459/10/
043100/20130207/90915/932/509/10/
043100/20130207/90916/932/917/10/
043100/20130207/90918/932/294/10/
043100/20130207/90919/932/131/10/
043100/20130207/90922/932/2500/10/
043100/20130207/90924/932/917/10/
043100/20130207/90926/932/6048/10/
043100/20130207/90929/932/266/10/
043100/20130207/90929/931/13593/10/
043100/20130207/90929/933/597/20/
043100/20130207/90937/934/152/20/
043100/20130207/90939/933/3280/10/
043100/20130207/90943/933/153/10/
043100/20130207/90949/933/918/10/
043100/20130207/90950/934/1000/20/
043100/20130207/90950/934/856/20/
043100/20130207/90952/933/5004/10/
043100/20130207/90957/931/159/10/
043100/20130207/91003/931/1397/10/
043100/20130207/91005/931/21241/10/
043100/20130207/91005/930/38759/10/
043100/20130207/91010/930/200/10/
043100/20130207/91017/930/408/10/
043100/20130207/91018/930/153/10/
043100/20130207/91032/930/2518/10/
043100/20130207/91037/929/815/10/
043100/20130207/91038/929/16066/10/
043100/20130207/91038/928/3934/10/
043100/20130207/91040/928/4500/10/
043100/20130207/91042/928/204/10/
043100/20130207/91044/928/200/10/
043100/20130207/91046/928/6640/10/
043100/20130207/91052/928/1658/20/
043100/20130207/91052/929/723/20/
043100/20130207/91052/930/207/20/
043100/20130207/91057/928/8352/10/
043100/20130207/91102/928/540/20/
043100/20130207/91106/928/600/10/
043100/20130207/91108/928/204/10/
043100/20130207/91111/928/713/10/
043100/20130207/91115/928/11675/10/
043100/20130207/91120/928/1000/10/
043100/20130207/91121/928/321/10/
043100/20130207/91123/928/177/20/
043100/20130207/91127/928/100/10/
043100/20130207/91129/928/200/10/
043100/20130207/91132/928/979/10/
043100/20130207/91137/927/628/10/
043100/20130207/91138/928/90/20/
043100/20130207/91141/928/100/20/
043100/20130207/91144/927/100/10/
043100/20130207/91144/927/1330/10/
043100/20130207/91147/927/5000/10/
043100/20130207/91152/927/5032/10/
043100/20130207/91153/927/540/10/
043100/20130207/91153/927/265/10/
043100/20130207/91155/927/141/20/
043100/20130207/91156/926/100/10/
043100/20130207/91159/927/500/20/
043100/20130207/91200/926/930/10/
043100/20130207/91202/927/100/10/
043100/20130207/91207/926/2011/10/
043100/20130207/91208/926/172/10/
043100/20130207/91208/926/296/20/
043100/20130207/91212/926/104/20/
043100/20130207/91214/925/88/10/
043100/20130207/91214/926/100/20/
043100/20130207/91217/925/4851/10/
043100/20130207/91222/925/1307/10/
043100/20130207/91224/925/458/10/
043100/20130207/91225/925/251/10/
043100/20130207/91226/925/4000/10/
043100/20130207/91228/925/2507/10/
043100/20130207/91228/924/7493/10/
043100/20130207/91232/925/510/20/
043100/20130207/91233/925/219/20/
043100/20130207/91238/924/1221/10/
043100/20130207/91238/925/1000/20/
043100/20130207/91240/924/1434/10/
043100/20130207/91240/924/100/10/
043100/20130207/91246/924/123/10/
043100/20130207/91248/924/1583/10/
043100/20130207/91249/924/3568/10/
043100/20130207/91250/924/2535/10/
043100/20130207/91250/923/3129/10/
043100/20130207/91250/922/4285/10/
043100/20130207/91250/921/3251/10/
043100/20130207/91253/922/99/10/
043100/20130207/91259/922/500/10/
043100/20130207/91301/922/917/10/
043100/20130207/91301/922/100/10/
043100/20130207/91302/922/356/10/
043100/20130207/91303/922/205/10/
043100/20130207/91306/922/100/10/
043100/20130207/91307/922/104/10/
043100/20130207/91317/922/1001/10/
043100/20130207/91318/924/100/20/
043100/20130207/91329/924/109/20/
043100/20130207/91332/924/350/20/
043100/20130207/91338/924/1002/20/
043100/20130207/91338/923/102/10/
043100/20130207/91339/924/1000/20/
043100/20130207/91346/924/293/10/
043100/20130207/91351/924/402/10/
043100/20130207/91352/925/1420/20/
043100/20130207/91357/925/710/20/
043100/20130207/91357/925/562/20/
043100/20130207/91358/925/100/20/
043100/20130207/91358/924/4707/10/
043100/20130207/91400/924/204/10/
043100/20130207/91404/924/3500/10/
043100/20130207/91406/924/153/10/
043100/20130207/91407/924/1256/10/
043100/20130207/91407/923/244/10/
043100/20130207/91413/923/1001/10/
043100/20130207/91425/923/226/10/
043100/20130207/91428/924/2000/20/
043100/20130207/91432/923/356/20/
043100/20130207/91434/923/611/10/
043100/20130207/91438/923/1305/10/
043100/20130207/91438/922/102/10/
043100/20130207/91445/922/7001/10/
043100/20130207/91454/923/8142/20/
043100/20130207/91454/923/500/20/
043100/20130207/91454/923/305/10/
043100/20130207/91455/923/124/10/
043100/20130207/91455/923/181/20/
043100/20130207/91457/924/2206/20/
043100/20130207/91457/925/6101/20/
043100/20130207/91514/925/612/10/
043100/20130207/91521/925/81/10/
043100/20130207/91523/925/225/10/
043100/20130207/91524/925/509/10/
043100/20130207/91525/925/294/10/
043100/20130207/91525/925/500/20/
043100/20130207/91534/925/817/20/
043100/20130207/91538/925/254/10/
043100/20130207/91539/925/917/10/
043100/20130207/91542/926/1775/20/
043100/20130207/91542/926/225/10/
043100/20130207/91542/925/2801/10/
043100/20130207/91550/927/152/20/
043100/20130207/91551/927/100/20/
043100/20130207/91551/927/100/20/
043100/20130207/91552/927/100/20/
043100/20130207/91552/927/100/20/
043100/20130207/91552/927/100/20/
043100/20130207/91553/927/100/20/
043100/20130207/91553/927/100/20/
043100/20130207/91557/925/459/10/
043100/20130207/91600/927/101/20/
043100/20130207/91605/925/917/10/
043100/20130207/91612/926/81/20/
043100/20130207/91617/926/145/20/
043100/20130207/91623/927/102/20/
043100/20130207/91625/927/98/20/
043100/20130207/91625/927/1405/20/
043100/20130207/91627/927/2009/20/
043100/20130207/91627/927/1611/20/
043100/20130207/91628/928/82/20/
043100/20130207/91630/928/2039/20/
043100/20130207/91632/928/124/20/
043100/20130207/91635/928/146/20/
043100/20130207/91636/928/359/20/
043100/20130207/91638/929/1060/20/
043100/20130207/91641/929/1015/20/
043100/20130207/91644/929/87/20/
043100/20130207/91645/929/2533/20/
043100/20130207/91645/930/511/20/
043100/20130207/91647/930/81/20/
043100/20130207/91648/930/2000/20/
043100/20130207/91649/929/282/10/
043100/20130207/91649/930/1775/20/
043100/20130207/91649/930/502/10/
043100/20130207/91651/930/2750/10/
043100/20130207/91654/930/140/20/
043100/20130207/91656/930/115/20/
043100/20130207/91658/929/990/10/
043100/20130207/91658/930/2015/20/
043100/20130207/91659/930/2969/20/
043100/20130207/91700/930/522/10/
043100/20130207/91703/931/1052/20/
043100/20130207/91705/931/117/20/
043100/20130207/91706/931/81/20/
043100/20130207/91707/931/100/20/
043100/20130207/91709/930/81/10/
043100/20130207/91710/931/131/20/
043100/20130207/91711/931/5051/20/
043100/20130207/91713/931/88/20/
043100/20130207/91713/931/100/20/
043100/20130207/91714/931/83/20/
043100/20130207/91715/931/620/20/
043100/20130207/91720/930/81/10/
043100/20130207/91721/931/1558/20/
043100/20130207/91722/931/151/20/
043100/20130207/91724/931/81/20/
043100/20130207/91725/931/528/20/
043100/20130207/91725/930/936/10/
043100/20130207/91725/931/512/20/
043100/20130207/91727/931/88/20/
043100/20130207/91727/930/204/10/
043100/20130207/91728/931/1040/20/
043100/20130207/91730/930/967/10/
043100/20130207/91732/931/90/20/
043100/20130207/91734/931/85/20/
043100/20130207/91736/931/81/20/
043100/20130207/91737/931/154/20/
043100/20130207/91737/932/1002/20/
043100/20130207/91737/930/207/10/
043100/20130207/91740/931/82/20/
043100/20130207/91743/931/82/20/
043100/20130207/91746/931/88/20/
043100/20130207/91748/931/86/20/
043100/20130207/91750/931/356/20/
043100/20130207/91754/931/3043/20/
043100/20130207/91755/930/721/10/
043100/20130207/91755/931/324/20/
043100/20130207/91758/931/556/10/
043100/20130207/91802/931/1083/10/
043100/20130207/91803/931/771/10/
043100/20130207/91803/930/4250/10/
043100/20130207/91804/930/5027/10/
043100/20130207/91805/932/4033/20/
043100/20130207/91806/932/1355/10/
043100/20130207/91808/932/128/10/
043100/20130207/91811/932/756/10/
043100/20130207/91814/933/81/20/
043100/20130207/91815/932/296/10/
043100/20130207/91817/931/3794/10/
043100/20130207/91817/930/1233/10/
043100/20130207/91818/930/5024/10/
043100/20130207/91820/930/4775/10/
043100/20130207/91821/929/1026/10/
043100/20130207/91823/929/1024/10/
043100/20130207/91825/929/495/10/
043100/20130207/91825/928/524/10/
043100/20130207/91825/928/396/10/
043100/20130207/91830/930/85/20/
043100/20130207/91832/928/413/10/
043100/20130207/91833/930/5635/20/
043100/20130207/91836/928/149/10/
043100/20130207/91839/926/136/10/
043100/20130207/91849/927/318/10/
043100/20130207/91849/926/411/10/
043100/20130207/91855/927/107/10/
043100/20130207/91855/926/205/10/
043100/20130207/91855/928/3000/20/
043100/20130207/91858/926/291/10/
043100/20130207/91903/926/1368/10/
043100/20130207/91905/926/1864/10/
043100/20130207/91907/926/467/10/
043100/20130207/91910/926/5000/10/
043100/20130207/91919/926/234/10/
043100/20130207/91920/926/350/10/
043100/20130207/91923/928/530/20/
043100/20130207/91925/926/255/10/
043100/20130207/91930/927/1020/10/
043100/20130207/91934/927/917/10/
043100/20130207/91935/927/563/10/
043100/20130207/91938/926/1650/10/
043100/20130207/91938/925/2350/10/
043100/20130207/91946/925/2000/10/
043100/20130207/91946/925/204/10/
043100/20130207/91947/925/713/10/
043100/20130207/91950/925/409/10/
043100/20130207/92000/925/459/10/
043100/20130207/92006/925/153/10/
043100/20130207/92007/925/81/10/
043100/20130207/92012/925/658/10/
043100/20130207/92014/925/917/10/
043100/20130207/92018/925/1600/10/
043100/20130207/92032/925/305/10/
043100/20130207/92053/925/937/10/
043100/20130207/92056/925/7824/10/
043100/20130207/92106/925/805/20/
043100/20130207/92107/925/3251/10/
043100/20130207/92110/925/945/10/
043100/20130207/92110/924/2500/10/
043100/20130207/92114/924/300/10/
043100/20130207/92118/924/286/10/
043100/20130207/92122/924/153/10/
043100/20130207/92124/924/917/10/
043100/20130207/92127/925/3633/20/
043100/20130207/92128/924/2119/10/
043100/20130207/92133/923/221/10/
043100/20130207/92137/923/300/10/
043100/20130207/92138/923/322/10/
043100/20130207/92142/923/255/10/
043100/20130207/92151/924/1503/20/
043100/20130207/92153/924/100/20/
043100/20130207/92156/923/8394/10/
043100/20130207/92157/924/90/20/
043100/20130207/92159/924/505/20/
043100/20130207/92202/923/204/10/
043100/20130207/92204/924/3328/20/
043100/20130207/92206/923/510/10/
043100/20130207/92210/924/100/20/
043100/20130207/92210/923/458/10/
043100/20130207/92215/924/5006/10/
043100/20130207/92227/924/919/10/
043100/20130207/92238/925/362/20/
043100/20130207/92248/924/653/10/
043100/20130207/92251/924/8571/10/
043100/20130207/92303/924/101/20/
043100/20130207/92325/924/923/10/
043100/20130207/92328/924/918/10/
043100/20130207/92332/924/8750/10/
043100/20130207/92349/924/2729/20/
043100/20130207/92351/924/518/10/
043100/20130207/92353/924/408/10/
043100/20130207/92354/924/153/10/
043100/20130207/92355/924/611/10/
043100/20130207/92410/924/918/10/
043100/20130207/92413/924/5125/10/
043100/20130207/92413/923/100/10/
043100/20130207/92415/924/1736/20/
043100/20130207/92418/924/917/10/
043100/20130207/92427/924/603/10/
043100/20130207/92443/925/960/20/
043100/20130207/92446/925/452/20/
043100/20130207/92447/924/10559/10/
043100/20130207/92457/925/1003/20/
043100/20130207/92458/925/9914/20/
043100/20130207/92503/924/305/10/
043100/20130207/92504/924/1000/10/
043100/20130207/92531/925/612/10/
043100/20130207/92538/926/100/20/
043100/20130207/92547/925/490/10/
043100/20130207/92558/925/600/10/
043100/20130207/92601/925/2000/10/
043100/20130207/92605/926/1123/20/
043100/20130207/92614/927/4201/20/
043100/20130207/92614/928/619/20/
043100/20130207/92622/927/100/20/
043100/20130207/92624/927/715/20/
043100/20130207/92630/927/400/10/
043100/20130207/92633/927/300/20/
043100/20130207/92645/927/100/20/
043100/20130207/92645/927/200/20/
043100/20130207/92657/927/206/10/
043100/20130207/92702/927/1853/10/
043100/20130207/92715/927/815/20/
043100/20130207/92722/927/92/10/
043100/20130207/92732/927/300/10/
043100/20130207/92733/928/5924/20/
043100/20130207/92752/928/315/20/
043100/20130207/92756/929/200/20/
043100/20130207/92803/928/4761/10/
043100/20130207/92903/927/5067/10/
043100/20130207/92911/927/637/10/
043100/20130207/92926/927/323/20/
043100/20130207/92941/926/817/10/
043100/20130207/92953/926/500/10/
043100/20130207/93010/926/918/10/
043100/20130207/93020/926/153/10/
043100/20130207/93028/925/377/10/
043100/20130207/93028/924/7623/10/
043100/20130207/93030/924/354/10/
043100/20130207/93033/924/1000/20/
043100/20130207/93038/923/917/10/
043100/20130207/93043/923/5447/10/
043100/20130207/93045/923/1382/10/
043100/20130207/93048/922/12751/10/
043100/20130207/93054/923/1301/20/
043100/20130207/93059/923/2268/20/
043100/20130207/93103/923/81/10/
043100/20130207/93104/923/840/10/
043100/20130207/93111/923/845/10/
043100/20130207/93111/922/1155/10/
043100/20130207/93126/922/3997/10/
043100/20130207/93126/921/12809/10/
043100/20130207/93128/921/918/10/
043100/20130207/93139/922/301/20/
043100/20130207/93139/921/531/10/
043100/20130207/93145/921/306/10/
043100/20130207/93147/921/6024/10/
043100/20130207/93148/922/737/20/
043100/20130207/93148/922/2264/10/
043100/20130207/93148/920/7651/10/
043100/20130207/93150/920/3246/10/
043100/20130207/93203/920/4021/10/
043100/20130207/93204/921/500/10/
043100/20130207/93204/920/3928/10/
043100/20130207/93212/920/550/10/
043100/20130207/93223/920/3625/10/
043100/20130207/93227/920/713/10/
043100/20130207/93230/920/204/10/
043100/20130207/93233/920/2588/10/
043100/20130207/93233/920/306/20/
043100/20130207/93234/920/1500/20/
043100/20130207/93236/919/418/10/
043100/20130207/93236/920/100/20/
043100/20130207/93240/920/730/20/
043100/20130207/93244/920/652/10/
043100/20130207/93244/920/400/10/
043100/20130207/93250/920/919/10/
043100/20130207/93313/921/1027/10/
043100/20130207/93313/922/2000/20/
043100/20130207/93323/922/81/20/
043100/20130207/93340/922/344/20/
043100/20130207/93343/921/209/10/
043100/20130207/93346/921/502/10/
043100/20130207/93350/921/920/10/
043100/20130207/93354/921/156/10/
043100/20130207/93412/921/968/10/
043100/20130207/93418/922/2005/20/
043100/20130207/93422/921/155/10/
043100/20130207/93423/922/373/20/
043100/20130207/93432/922/261/10/
043100/20130207/93432/922/1373/10/
043100/20130207/93438/921/209/10/
043100/20130207/93440/922/108/10/
043100/20130207/93456/922/196/20/
043100/20130207/93504/921/108/10/
043100/20130207/93510/921/5982/10/
043100/20130207/93510/920/20228/10/
043100/20130207/93520/919/5678/10/
043100/20130207/93524/919/3433/10/
043100/20130207/93526/918/8644/10/
043100/20130207/93527/917/1101/10/
043100/20130207/93528/917/9001/10/
043100/20130207/93528/917/1920/10/
043100/20130207/93529/918/257/20/
043100/20130207/93541/917/1525/10/
043100/20130207/93541/917/91/20/
043100/20130207/93542/916/1010/10/
043100/20130207/93544/917/788/20/
043100/20130207/93545/917/148/10/
043100/20130207/93545/916/354/10/
043100/20130207/93549/917/102/20/
043100/20130207/93550/916/3701/10/
043100/20130207/93551/918/1001/20/
043100/20130207/93555/917/157/10/
043100/20130207/93601/917/506/10/
043100/20130207/93602/917/91/10/
043100/20130207/93614/918/213/20/
043100/20130207/93618/917/7478/10/
043100/20130207/93619/917/1001/20/
043100/20130207/93622/917/273/20/
043100/20130207/93623/917/373/20/
043100/20130207/93627/917/1013/20/
043100/20130207/93629/916/10002/10/
043100/20130207/93630/917/101/20/
043100/20130207/93631/917/248/20/
043100/20130207/93631/917/2097/10/
043100/20130207/93634/917/403/10/
043100/20130207/93635/917/180/10/
043100/20130207/93635/916/738/10/
043100/20130207/93636/916/3386/10/
043100/20130207/93639/916/2750/10/
043100/20130207/93639/915/2325/10/
043100/20130207/93639/917/200/20/
043100/20130207/93645/915/1024/10/
043100/20130207/93645/916/501/10/
043100/20130207/93647/915/1343/10/
043100/20130207/93650/915/1003/10/
043100/20130207/93651/916/500/20/
043100/20130207/93651/916/143/20/
043100/20130207/93652/915/5000/10/
043100/20130207/93653/915/745/10/
043100/20130207/93654/916/501/20/
043100/20130207/93654/915/1500/10/
043100/20130207/93655/915/529/10/
043100/20130207/93656/914/518/10/
043100/20130207/93656/915/100/20/
043100/20130207/93702/915/157/20/
043100/20130207/93702/915/231/20/
043100/20130207/93704/915/112/20/
043100/20130207/93704/915/500/20/
043100/20130207/93706/915/3783/20/
043100/20130207/93706/915/201/20/
043100/20130207/93707/915/350/20/
043100/20130207/93708/915/100/20/
043100/20130207/93708/915/2000/20/
043100/20130207/93709/915/1001/20/
043100/20130207/93709/915/101/20/
043100/20130207/93709/915/100/20/
043100/20130207/93710/914/3600/10/
043100/20130207/93710/914/816/10/
043100/20130207/93712/915/935/20/
043100/20130207/93717/915/504/10/
043100/20130207/93719/915/867/10/
043100/20130207/93719/916/111/20/
043100/20130207/93721/914/1002/10/
043100/20130207/93723/914/6002/10/
043100/20130207/93724/914/1484/10/
043100/20130207/93724/913/14672/10/
043100/20130207/93725/913/102/20/
043100/20130207/93733/912/6025/10/
043100/20130207/93733/912/1535/10/
043100/20130207/93734/913/88/20/
043100/20130207/93734/911/101/10/
043100/20130207/93734/913/150/20/
043100/20130207/93739/912/108/10/
043100/20130207/93739/911/1045/10/
043100/20130207/93741/911/81/10/
043100/20130207/93742/911/282/10/
043100/20130207/93742/912/501/20/
043100/20130207/93742/911/917/10/
043100/20130207/93742/911/3633/10/
043100/20130207/93744/911/576/10/
043100/20130207/93744/910/12889/10/
043100/20130207/93746/910/1003/10/
043100/20130207/93750/910/5022/10/
043100/20130207/93750/910/179/20/
043100/20130207/93754/910/2523/20/
043100/20130207/93754/909/10044/10/
043100/20130207/93754/910/100/20/
043100/20130207/93754/910/85/20/
043100/20130207/93755/909/721/10/
043100/20130207/93757/908/157/10/
043100/20130207/93800/909/2760/20/
043100/20130207/93801/909/263/10/
043100/20130207/93804/910/503/20/
043100/20130207/93805/909/231/20/
043100/20130207/93807/908/1196/10/
043100/20130207/93808/908/266/10/
043100/20130207/93809/909/1001/20/
043100/20130207/93809/909/1401/20/
043100/20130207/93809/909/800/20/
043100/20130207/93809/908/1500/10/
043100/20130207/93812/909/453/20/
043100/20130207/93819/910/563/20/
043100/20130207/93819/910/100/20/
043100/20130207/93820/910/501/20/
043100/20130207/93822/910/509/20/
043100/20130207/93822/910/201/20/
043100/20130207/93824/910/134/20/
043100/20130207/93826/910/270/10/
043100/20130207/93828/910/302/10/
043100/20130207/93831/910/1134/10/
043100/20130207/93832/910/1006/20/
043100/20130207/93834/910/233/20/
043100/20130207/93834/910/389/20/
043100/20130207/93838/909/1004/10/
043100/20130207/93839/909/1760/10/
043100/20130207/93840/908/2000/10/
043100/20130207/93840/908/3619/10/
043100/20130207/93844/907/2191/10/
043100/20130207/93845/906/2202/10/
043100/20130207/93845/905/7801/10/
043100/20130207/93846/905/105/10/
043100/20130207/93849/907/875/20/
043100/20130207/93849/908/138/20/
043100/20130207/93856/907/580/20/
043100/20130207/93856/906/200/10/
043100/20130207/93900/906/3352/10/
043100/20130207/93902/906/87/10/
043100/20130207/93902/906/204/10/
043100/20130207/93904/906/104/10/
043100/20130207/93905/906/371/10/
043100/20130207/93906/907/95/20/
043100/20130207/93906/906/282/10/
043100/20130207/93907/906/1729/10/
043100/20130207/93907/906/1600/10/
043100/20130207/93910/907/1949/20/
043100/20130207/93910/906/2120/10/
043100/20130207/93913/906/302/10/
043100/20130207/93913/906/714/10/
043100/20130207/93916/906/362/10/
043100/20130207/93921/907/506/20/
043100/20130207/93921/907/250/20/
043100/20130207/93922/906/501/10/
043100/20130207/93922/906/4205/10/
043100/20130207/93923/906/100/20/
043100/20130207/93926/905/4378/10/
043100/20130207/93926/904/1002/10/
043100/20130207/93927/906/309/20/
043100/20130207/93929/905/1003/10/
043100/20130207/93929/904/1156/10/
043100/20130207/93929/903/3892/10/
043100/20130207/93930/905/1001/10/
043100/20130207/93933/903/1799/10/
043100/20130207/93933/902/3202/10/
043100/20130207/93934/902/2000/10/
043100/20130207/93934/902/2284/10/
043100/20130207/93934/901/16880/10/
043100/20130207/93934/900/5836/10/
043100/20130207/93935/900/1100/10/
043100/20130207/93935/900/1000/10/
043100/20130207/93936/902/200/10/
043100/20130207/93936/900/2801/10/
043100/20130207/93941/900/459/10/
043100/20130207/93942/900/21513/10/
043100/20130207/93942/899/2837/10/
043100/20130207/93942/899/1530/10/
043100/20130207/93942/899/4394/10/
043100/20130207/93944/899/5010/10/
043100/20130207/93944/899/2009/10/
043100/20130207/93944/898/960/10/
043100/20130207/93948/898/7154/10/
043100/20130207/93949/898/1000/20/
043100/20130207/93949/897/1110/10/
043100/20130207/93949/895/2890/10/
043100/20130207/93949/895/1456/10/
043100/20130207/93949/895/400/10/
043100/20130207/93951/897/298/20/
043100/20130207/93952/895/815/10/
043100/20130207/93952/895/4000/10/
043100/20130207/93954/895/223/10/
043100/20130207/93955/897/501/20/
043100/20130207/93958/895/100/10/
043100/20130207/93959/895/1602/10/
043100/20130207/94000/897/302/20/
043100/20130207/94005/897/900/20/
043100/20130207/94005/897/352/10/
043100/20130207/94005/895/816/10/
043100/20130207/94007/897/926/10/
043100/20130207/94014/898/1029/20/
043100/20130207/94016/898/88/20/
043100/20130207/94016/898/100/20/
043100/20130207/94016/898/668/20/
043100/20130207/94016/899/252/20/
043100/20130207/94019/898/401/10/
043100/20130207/94019/897/829/10/
043100/20130207/94021/897/602/10/
043100/20130207/94021/896/1542/10/
043100/20130207/94021/895/1597/10/
043100/20130207/94024/896/669/10/
043100/20130207/94027/896/256/10/
043100/20130207/94028/899/111/20/
043100/20130207/94028/899/1000/20/
043100/20130207/94030/899/232/20/
043100/20130207/94031/899/91/20/
043100/20130207/94034/899/211/20/
043100/20130207/94036/900/5000/20/
043100/20130207/94037/900/2318/20/
043100/20130207/94037/900/2303/10/
043100/20130207/94037/900/1334/10/
043100/20130207/94044/901/512/20/
043100/20130207/94048/901/90/20/
043100/20130207/94049/901/1940/20/
043100/20130207/94051/902/138/20/
043100/20130207/94052/901/81/10/
043100/20130207/94052/902/863/20/
043100/20130207/94052/902/100/20/
043100/20130207/94102/902/512/10/
043100/20130207/94105/902/1034/10/
043100/20130207/94106/903/1000/20/
043100/20130207/94106/902/1000/10/
043100/20130207/94106/903/845/20/
043100/20130207/94106/904/155/20/
043100/20130207/94112/903/993/10/
043100/20130207/94114/903/2472/10/
043100/20130207/94117/904/1578/20/
043100/20130207/94119/905/100/20/
043100/20130207/94126/905/960/20/
043100/20130207/94127/905/82/10/
043100/20130207/94127/904/350/10/
043100/20130207/94127/904/204/10/
043100/20130207/94133/905/611/20/
043100/20130207/94136/904/5547/10/
043100/20130207/94142/904/2006/10/
043100/20130207/94144/905/884/20/
043100/20130207/94145/905/500/20/
043100/20130207/94147/905/4000/20/
043100/20130207/94148/905/510/20/
043100/20130207/94149/905/100/20/
043100/20130207/94149/905/781/20/
043100/20130207/94155/905/2517/10/
043100/20130207/94155/905/1000/20/
043100/20130207/94158/904/4500/10/
043100/20130207/94158/904/9683/10/
043100/20130207/94158/905/200/20/
043100/20130207/94200/903/2520/10/
043100/20130207/94204/904/110/20/
043100/20130207/94204/905/210/20/
043100/20130207/94205/905/9000/20/
043100/20130207/94206/903/10000/10/
043100/20130207/94207/904/1010/20/
043100/20130207/94207/903/1859/10/
043100/20130207/94210/904/2000/20/
043100/20130207/94211/903/3000/10/
043100/20130207/94214/904/311/20/
043100/20130207/94217/903/18010/10/
043100/20130207/94218/902/815/10/
043100/20130207/94218/904/190/20/
043100/20130207/94220/904/364/20/
043100/20130207/94220/905/736/20/
043100/20130207/94228/904/100/20/
043100/20130207/94229/904/101/20/
043100/20130207/94229/904/3000/20/
043100/20130207/94230/904/500/20/
043100/20130207/94234/904/235/20/
043100/20130207/94234/904/1000/20/
043100/20130207/94235/904/90/20/
043100/20130207/94246/904/552/10/
043100/20130207/94251/904/1500/10/
043100/20130207/94255/904/265/10/
043100/20130207/94256/904/81/10/
043100/20130207/94256/904/2523/10/
043100/20130207/94257/904/1653/10/
043100/20130207/94257/904/5818/10/
043100/20130207/94305/905/3500/20/
043100/20130207/94308/905/400/20/
043100/20130207/94313/905/310/20/
043100/20130207/94316/904/329/10/
043100/20130207/94316/903/2881/10/
043100/20130207/94320/904/90/20/
043100/20130207/94322/904/93/20/
043100/20130207/94335/905/320/20/
043100/20130207/94335/905/300/20/
043100/20130207/94337/905/100/20/
043100/20130207/94347/904/4032/10/
043100/20130207/94353/904/238/10/
043100/20130207/94353/903/3763/10/
043100/20130207/94359/903/4010/10/
043100/20130207/94359/904/90/20/
043100/20130207/94359/904/100/20/
043100/20130207/94400/904/143/20/
043100/20130207/94405/904/94/20/
043100/20130207/94405/904/90/20/
043100/20130207/94406/903/214/10/
043100/20130207/94409/904/95/20/
043100/20130207/94411/903/100/10/
043100/20130207/94413/903/4000/10/
043100/20130207/94416/904/90/20/
043100/20130207/94422/903/204/10/
043100/20130207/94422/903/690/10/
043100/20130207/94422/902/3310/10/
043100/20130207/94423/904/1000/20/
043100/20130207/94435/903/2215/20/
043100/20130207/94435/904/1543/20/
043100/20130207/94439/904/356/10/
043100/20130207/94443/904/1000/10/
043100/20130207/94444/904/917/10/
043100/20130207/94444/904/427/10/
043100/20130207/94449/904/102/20/
043100/20130207/94453/903/510/10/
043100/20130207/94455/903/2390/20/
043100/20130207/94456/904/570/20/
043100/20130207/94459/903/2500/10/
043100/20130207/94500/903/311/10/
043100/20130207/94500/902/2689/10/
043100/20130207/94507/902/1368/10/
043100/20130207/94511/903/1000/20/
043100/20130207/94513/903/100/20/
043100/20130207/94520/903/1095/20/
043100/20130207/94521/903/907/10/
043100/20130207/94522/903/7200/20/
043100/20130207/94523/903/1893/20/
043100/20130207/94525/903/3108/10/
043100/20130207/94528/903/705/20/
043100/20130207/94533/902/2925/10/
043100/20130207/94537/903/2210/20/
043100/20130207/94542/902/510/10/
043100/20130207/94543/903/370/20/
043100/20130207/94552/902/815/10/
043100/20130207/94555/902/102/10/
043100/20130207/94558/902/1300/10/
043100/20130207/94606/902/1007/10/
043100/20130207/94607/902/502/10/
043100/20130207/94608/902/917/10/
043100/20130207/94608/902/651/10/
043100/20130207/94611/902/704/10/
043100/20130207/94613/902/939/10/
043100/20130207/94615/901/3000/10/
043100/20130207/94623/901/5465/10/
043100/20130207/94625/901/1535/20/
043100/20130207/94625/902/412/20/
043100/20130207/94632/902/180/10/
043100/20130207/94634/902/500/10/
043100/20130207/94634/902/6559/10/
043100/20130207/94634/901/704/10/
043100/20130207/94634/900/9073/10/
043100/20130207/94641/899/102/10/
043100/20130207/94658/899/6416/10/
043100/20130207/94658/899/4900/10/
043100/20130207/94708/900/100/20/
043100/20130207/94712/899/1096/10/
043100/20130207/94713/899/927/10/
043100/20130207/94716/899/932/10/
043100/20130207/94726/899/1001/10/
043100/20130207/94731/899/500/10/
043100/20130207/94733/899/1020/10/
043100/20130207/94741/899/146/10/
043100/20130207/94750/899/102/10/
043100/20130207/94750/900/200/20/
043100/20130207/94801/899/502/10/
043100/20130207/94809/899/811/10/
043100/20130207/94814/899/641/10/
043100/20130207/94826/900/543/20/
043100/20130207/94834/899/5264/10/
043100/20130207/94834/898/4768/10/
043100/20130207/94852/900/194/20/
043100/20130207/94858/900/110/20/
043100/20130207/94902/900/103/20/
043100/20130207/94906/900/955/20/
043100/20130207/94906/900/2397/20/
043100/20130207/94906/900/2000/20/
043100/20130207/94906/900/100/20/
043100/20130207/94907/900/1000/20/
043100/20130207/94908/900/1012/20/
043100/20130207/94911/900/1921/20/
043100/20130207/94913/900/1000/20/
043100/20130207/94913/900/3122/20/
043100/20130207/94918/901/542/20/
043100/20130207/94929/900/791/10/
043100/20130207/94949/900/442/10/
043100/20130207/94959/901/362/10/
043100/20130207/95000/901/917/10/
043100/20130207/95001/901/600/10/
043100/20130207/95009/902/301/20/
043100/20130207/95010/902/606/20/
043100/20130207/95027/902/3003/10/
043100/20130207/95035/902/1044/10/
043100/20130207/95044/902/1000/10/
043100/20130207/95101/902/170/10/
043100/20130207/95112/902/660/10/
043100/20130207/95119/902/300/10/
043100/20130207/95156/903/306/20/
043100/20130207/95200/903/1011/20/
043100/20130207/95201/903/100/20/
043100/20130207/95202/903/2000/20/
043100/20130207/95204/903/1160/20/
043100/20130207/95206/903/5001/20/
043100/20130207/95207/903/112/20/
043100/20130207/95208/903/300/20/
043100/20130207/95208/903/500/20/
043100/20130207/95212/903/501/20/
043100/20130207/95217/903/980/20/
043100/20130207/95233/904/2464/20/
043100/20130207/95233/905/7787/20/
043100/20130207/95233/906/5255/20/
043100/20130207/95235/904/200/20/
043100/20130207/95309/904/402/10/
043100/20130207/95312/904/255/10/
043100/20130207/95319/906/101/20/
043100/20130207/95330/905/116/20/
043100/20130207/95408/905/152/10/
043100/20130207/95415/905/138/10/
043100/20130207/95419/905/100/10/
043100/20130207/95432/905/162/20/
043100/20130207/95438/905/479/10/
043100/20130207/95439/906/237/20/
043100/20130207/95443/905/661/10/
043100/20130207/95447/905/201/20/
043100/20130207/95447/904/2000/10/
043100/20130207/95459/904/1040/10/
043100/20130207/95542/904/301/10/
043100/20130207/95542/904/2000/10/
043100/20130207/95548/904/680/10/
043100/20130207/95550/904/1000/20/
043100/20130207/95620/904/263/20/
043100/20130207/95635/904/500/20/
043100/20130207/95640/904/107/20/
043100/20130207/95702/905/102/20/
043100/20130207/95714/904/688/10/
043100/20130207/95718/904/1322/20/
043100/20130207/95720/905/500/20/
043100/20130207/95735/905/122/20/
043100/20130207/95800/905/208/20/
043100/20130207/95801/905/822/20/
043100/20130207/95803/904/102/10/
043100/20130207/95818/905/310/20/
043100/20130207/95849/905/850/20/
043100/20130207/95851/905/142/20/
043100/20130207/95852/905/10000/20/
043100/20130207/95853/905/4181/20/
043100/20130207/95909/906/115/20/
043100/20130207/95921/906/1000/20/
043100/20130207/95922/906/1000/20/
043100/20130207/95923/906/932/20/
043100/20130207/95934/907/911/20/
043100/20130207/95935/907/1894/20/
043100/20130207/95943/908/202/20/
043100/20130207/95946/908/1000/20/
043100/20130207/95951/908/121/20/
043100/20130207/95952/908/441/20/
043100/20130207/95955/908/501/10/
043100/20130207/100005/908/96/10/
043100/20130207/100005/909/500/20/
043100/20130207/100011/909/1647/20/
043100/20130207/100011/908/100/10/
043100/20130207/100015/909/502/20/
043100/20130207/100016/909/1000/20/
043100/20130207/100020/909/475/20/
043100/20130207/100022/909/848/20/
043100/20130207/100026/909/582/10/
043100/20130207/100029/908/1161/10/
043100/20130207/100035/908/500/10/
043100/20130207/100037/908/299/10/
043100/20130207/100041/909/2906/20/
043100/20130207/100041/908/2059/10/
043100/20130207/100044/908/1002/10/
043100/20130207/100045/908/196/10/
043100/20130207/100045/907/5186/10/
043100/20130207/100045/909/100/20/
043100/20130207/100058/908/1000/10/
043100/20130207/100058/909/900/20/
043100/20130207/100100/909/199/20/
043100/20130207/100110/908/100/20/
043100/20130207/100116/908/100/20/
043100/20130207/100116/908/209/10/
043100/20130207/100120/908/756/10/
043100/20130207/100123/908/2000/20/
043100/20130207/100129/908/118/20/
043100/20130207/100130/908/127/20/
043100/20130207/100207/908/95/10/
043100/20130207/100244/908/4111/10/
043100/20130207/100258/908/1450/10/
043100/20130207/100322/909/1911/20/
043100/20130207/100334/909/103/20/
043100/20130207/100344/909/5526/20/
043100/20130207/100413/909/1370/10/
043100/20130207/100419/909/801/10/
043100/20130207/100421/909/1001/10/
043100/20130207/100423/909/673/10/
043100/20130207/100425/909/501/10/
043100/20130207/100436/909/1002/10/
043100/20130207/100437/909/234/10/
043100/20130207/100440/909/301/10/
043100/20130207/100444/909/239/10/
043100/20130207/100503/909/3390/20/
043100/20130207/100532/909/920/10/
043100/20130207/100538/909/501/10/
043100/20130207/100548/909/403/10/
043100/20130207/100552/908/2307/10/
043100/20130207/100554/908/4181/10/
043100/20130207/100554/909/100/20/
043100/20130207/100559/908/132/10/
043100/20130207/100600/908/2003/10/
043100/20130207/100602/908/399/10/
043100/20130207/100611/907/1302/10/
043100/20130207/100626/906/1817/10/
043100/20130207/100644/906/174/10/
043100/20130207/100710/907/494/20/
043100/20130207/100730/907/2001/20/
043100/20130207/100734/906/625/10/
043100/20130207/100814/905/10078/10/
043100/20130207/100814/905/500/10/
043100/20130207/100814/905/1000/10/
043100/20130207/100820/905/5592/10/
043100/20130207/100828/905/101/20/
043100/20130207/100830/904/2250/10/
043100/20130207/100830/904/8799/10/
043100/20130207/100830/903/1201/10/
043100/20130207/100837/903/2505/10/
043100/20130207/100838/904/1000/20/
043100/20130207/100842/903/300/10/
043100/20130207/100855/903/509/10/
043100/20130207/100903/903/1300/10/
043100/20130207/100905/903/6000/10/
043100/20130207/100905/903/506/10/
043100/20130207/100908/903/411/20/
043100/20130207/100909/903/690/10/
043100/20130207/100912/903/841/10/
043100/20130207/100920/903/1562/10/
043100/20130207/100924/902/3131/10/
043100/20130207/100924/901/6869/10/
043100/20130207/100934/902/1678/20/
043100/20130207/100935/902/132/20/
043100/20130207/100938/902/102/20/
043100/20130207/100942/902/201/20/
043100/20130207/100943/902/1230/20/
043100/20130207/100946/901/2123/10/
043100/20130207/100947/902/200/20/
043100/20130207/100951/902/253/20/
043100/20130207/100955/902/487/20/
043100/20130207/100956/902/178/10/
043100/20130207/101005/903/104/20/
043100/20130207/101006/903/250/20/
043100/20130207/101008/903/668/20/
043100/20130207/101018/903/926/20/
043100/20130207/101020/903/310/20/
043100/20130207/101027/903/6694/20/
043100/20130207/101109/904/303/10/
043100/20130207/101117/904/332/10/
043100/20130207/101117/903/1658/10/
043100/20130207/101137/903/105/10/
043100/20130207/101139/903/201/10/
043100/20130207/101142/903/253/10/
043100/20130207/101225/904/209/10/
043100/20130207/101233/903/16500/10/
043100/20130207/101240/904/500/20/
043100/20130207/101247/903/200/10/
043100/20130207/101251/904/84/20/
043100/20130207/101313/903/304/10/
043100/20130207/101321/903/4000/10/
043100/20130207/101324/903/1000/10/
043100/20130207/101328/903/1000/10/
043100/20130207/101329/903/897/10/
043100/20130207/101406/903/328/10/
043100/20130207/101406/902/672/10/
043100/20130207/101416/902/509/10/
043100/20130207/101421/902/400/10/
043100/20130207/101423/904/100/20/
043100/20130207/101426/902/4668/10/
043100/20130207/101433/902/267/20/
043100/20130207/101435/901/26814/10/
043100/20130207/101435/900/4790/10/
043100/20130207/101444/900/1217/10/
043100/20130207/101502/901/1078/10/
043100/20130207/101540/901/3012/10/
043100/20130207/101549/902/100/10/
043100/20130207/101549/901/1337/10/
043100/20130207/101549/900/1604/10/
043100/20130207/101550/903/91/20/
043100/20130207/101649/902/139/20/
043100/20130207/101649/901/1200/10/
043100/20130207/101715/901/235/10/
043100/20130207/101735/902/133/20/
043100/20130207/101742/901/7828/10/
043100/20130207/101826/901/950/10/
043100/20130207/101843/902/1603/20/
043100/20130207/101859/901/92/10/
043100/20130207/101903/902/101/20/
043100/20130207/101924/902/90/20/
043100/20130207/101928/902/101/20/
043100/20130207/101930/902/1155/20/
043100/20130207/101935/902/261/20/
043100/20130207/101936/902/609/20/
043100/20130207/101950/902/2002/20/
043100/20130207/101951/902/1000/20/
043100/20130207/101954/902/536/20/
043100/20130207/101956/902/505/20/
043100/20130207/101959/902/329/20/
043100/20130207/101959/903/672/20/
043100/20130207/102011/903/3014/20/
043100/20130207/102014/903/1544/20/
043100/20130207/102017/903/8090/20/
043100/20130207/102019/903/81/20/
043100/20130207/102020/902/103/10/
043100/20130207/102030/902/168/10/
043100/20130207/102058/902/124/20/
043100/20130207/102150/902/1036/10/
043100/20130207/102151/902/3732/20/
043100/20130207/102157/902/305/10/
043100/20130207/102225/903/2075/20/
043100/20130207/102246/904/325/20/
043100/20130207/102303/904/3098/20/
043100/20130207/102321/903/152/10/
043100/20130207/102346/902/87/10/
043100/20130207/102415/902/901/10/
043100/20130207/102426/902/1101/10/
043100/20130207/102431/902/509/10/
043100/20130207/102455/902/12338/10/
043100/20130207/102455/901/19425/10/
043100/20130207/102516/902/92/20/
043100/20130207/102544/902/534/20/
043100/20130207/102555/901/843/10/
043100/20130207/102616/902/560/20/
043100/20130207/102627/902/5035/20/
043100/20130207/102640/901/11927/10/
043100/20130207/102658/901/15122/10/
043100/20130207/102658/900/64924/10/
043100/20130207/102701/902/673/20/
043100/20130207/102741/901/377/10/
043100/20130207/102754/901/106/10/
043100/20130207/102811/902/83/20/
043100/20130207/102814/901/345/10/
043100/20130207/102816/901/798/10/
043100/20130207/102816/900/2197/10/
043100/20130207/102829/900/11561/10/
043100/20130207/102843/900/1174/10/
043100/20130207/102849/900/113/20/
043100/20130207/102854/899/907/10/
043100/20130207/102858/900/512/20/
043100/20130207/102900/899/1761/10/
043100/20130207/102904/900/6610/20/
043100/20130207/102912/900/90/20/
043100/20130207/102922/900/225/20/
043100/20130207/102923/900/861/20/
043100/20130207/102936/900/87/20/
043100/20130207/102954/900/146/20/
043100/20130207/103001/900/333/20/
043100/20130207/103003/899/5011/10/
043100/20130207/103014/900/89/20/
043100/20130207/103019/899/1623/10/
043100/20130207/103022/899/4052/10/
043100/20130207/103023/900/19577/20/
043100/20130207/103028/900/424/10/
043100/20130207/103107/900/5951/20/
043100/20130207/103116/900/400/10/
043100/20130207/103125/901/174/20/
043100/20130207/103133/901/145/20/
043100/20130207/103136/901/881/20/
043100/20130207/103157/901/1661/20/
043100/20130207/103217/901/145/10/
043100/20130207/103222/901/551/10/
043100/20130207/103222/901/2482/10/
043100/20130207/103242/901/848/20/
043100/20130207/103251/901/218/10/
043100/20130207/103307/901/864/20/
043100/20130207/103314/901/323/10/
043100/20130207/103320/901/998/10/
043100/20130207/103320/900/513/10/
043100/20130207/103339/900/1523/10/
043100/20130207/103339/901/1429/20/
043100/20130207/103343/901/3050/10/
043100/20130207/103407/900/2473/10/
043100/20130207/103407/900/2078/10/
043100/20130207/103413/901/2005/20/
043100/20130207/103413/902/1506/20/
043100/20130207/103439/902/2005/20/
043100/20130207/103440/901/611/10/
043100/20130207/103457/902/1192/20/
043100/20130207/103501/902/6011/20/
043100/20130207/103525/902/123/20/
043100/20130207/103525/902/3000/20/
043100/20130207/103528/902/3045/20/
043100/20130207/103548/903/1062/20/
043100/20130207/103615/902/6874/10/
043100/20130207/103634/903/2986/20/
043100/20130207/103720/902/3693/10/
043100/20130207/103753/902/301/10/
043100/20130207/103804/902/101/20/
043100/20130207/103826/902/404/20/
043100/20130207/103837/901/772/10/
043100/20130207/103853/901/2000/10/
043100/20130207/103856/901/1579/10/
043100/20130207/103859/901/820/10/
043100/20130207/103900/901/7670/10/
043100/20130207/103922/900/308/10/
043100/20130207/103929/900/2959/10/
043100/20130207/103929/899/2542/10/
043100/20130207/104031/900/10953/10/
043100/20130207/104035/902/85/20/
043100/20130207/104036/900/2000/10/
043100/20130207/104102/901/369/20/
043100/20130207/104124/900/1184/10/
043100/20130207/104126/900/561/10/
043100/20130207/104132/900/500/10/
043100/20130207/104142/901/149/20/
043100/20130207/104202/901/255/10/
043100/20130207/104217/901/886/20/
043100/20130207/104222/900/5794/10/
043100/20130207/104239/900/1000/10/
043100/20130207/104252/900/2767/10/
043100/20130207/104252/900/1113/20/
043100/20130207/104312/899/6001/10/
043100/20130207/104324/899/305/10/
043100/20130207/104351/899/7656/10/
043100/20130207/104412/899/9702/10/
043100/20130207/104424/899/649/10/
043100/20130207/104440/899/131/10/
043100/20130207/104440/898/788/10/
043100/20130207/104448/899/3018/10/
043100/20130207/104448/898/2253/10/
043100/20130207/104529/899/6772/20/
043100/20130207/104536/900/4502/20/
043100/20130207/104541/900/1001/20/
043100/20130207/104548/899/357/10/
043100/20130207/104554/900/645/20/
043100/20130207/104606/900/1166/10/
043100/20130207/104607/900/836/20/
043100/20130207/104616/900/918/10/
043100/20130207/104645/901/1051/20/
043100/20130207/104723/901/501/20/
043100/20130207/104829/901/761/20/
043100/20130207/104846/902/200/20/
043100/20130207/104851/901/22122/10/
043100/20130207/104903/901/917/10/
043100/20130207/105020/901/92/10/
043100/20130207/105023/901/2172/10/
043100/20130207/105026/901/4908/10/
043100/20130207/105036/901/2804/20/
043100/20130207/105101/900/3000/10/
043100/20130207/105110/901/1339/20/
043100/20130207/105124/900/1070/10/
043100/20130207/105131/900/9812/10/
043100/20130207/105136/899/356/10/
043100/20130207/105145/900/2858/10/
043100/20130207/105146/901/1000/20/
043100/20130207/105205/900/204/10/
043100/20130207/105227/901/4000/20/
043100/20130207/105228/901/133/20/
043100/20130207/105234/902/1000/20/
043100/20130207/105241/902/2199/20/
043100/20130207/105250/901/9888/10/
043100/20130207/105250/900/10113/10/
043100/20130207/105256/902/1000/20/
043100/20130207/105301/900/2890/10/
043100/20130207/105309/900/7120/20/
043100/20130207/105315/901/905/10/
043100/20130207/105315/900/2880/10/
043100/20130207/105328/899/948/10/
043100/20130207/105331/900/501/20/
043100/20130207/105334/900/6574/20/
043100/20130207/105338/900/1000/10/
043100/20130207/105341/900/10000/10/
043100/20130207/105348/900/3427/10/
043100/20130207/105406/900/1039/20/
043100/20130207/105408/900/5003/20/
043100/20130207/105408/900/778/20/
043100/20130207/105412/900/422/10/
043100/20130207/105417/900/4980/20/
043100/20130207/105423/900/1055/20/
043100/20130207/105425/900/238/20/
043100/20130207/105427/900/798/10/
043100/20130207/105440/900/1005/20/
043100/20130207/105440/899/1001/10/
043100/20130207/105447/900/140/20/
043100/20130207/105449/900/100/10/
043100/20130207/105449/899/222/10/
043100/20130207/105450/899/102/10/
043100/20130207/105453/900/1000/20/
043100/20130207/105501/900/853/20/
043100/20130207/105503/900/2854/20/
043100/20130207/105509/902/1000/20/
043100/20130207/105516/902/137/20/
043100/20130207/105524/902/125/20/
043100/20130207/105524/903/875/20/
043100/20130207/105529/903/100/20/
043100/20130207/105612/903/366/20/
043100/20130207/105653/902/5005/20/
043100/20130207/105708/901/918/10/
043100/20130207/105734/902/5004/20/
043100/20130207/105737/902/3184/20/
043100/20130207/105739/902/1200/10/
043100/20130207/105820/901/181/10/
043100/20130207/105823/903/330/20/
043100/20130207/105832/902/940/20/
043100/20130207/105833/903/1000/20/
043100/20130207/105845/902/865/20/
043100/20130207/105847/901/917/10/
043100/20130207/105910/901/5000/10/
043100/20130207/105910/901/1679/10/
043100/20130207/105920/900/511/10/
043100/20130207/105951/900/809/10/
043100/20130207/105959/901/300/20/
043100/20130207/110000/900/5000/10/
043100/20130207/110016/900/5000/10/
043100/20130207/110022/900/917/10/
043100/20130207/110032/900/10006/10/
043100/20130207/110034/900/301/10/
043100/20130207/110038/900/153/10/
043100/20130207/110040/900/1110/10/
043100/20130207/110040/900/5496/10/
043100/20130207/110050/900/4348/10/
043100/20130207/110102/900/1239/20/
043100/20130207/110114/899/2576/10/
043100/20130207/110118/899/794/10/
043100/20130207/110140/899/2000/10/
043100/20130207/110146/899/81/10/
043100/20130207/110150/899/508/10/
043100/20130207/110218/899/988/10/
043100/20130207/110234/899/7501/10/
043100/20130207/110234/899/2500/10/
043100/20130207/110305/899/81/10/
043100/20130207/110341/900/513/20/
043100/20130207/110350/899/7467/10/
043100/20130207/110410/900/1019/20/
043100/20130207/110419/900/850/20/
043100/20130207/110425/900/861/20/
043100/20130207/110446/900/511/20/
043100/20130207/110456/900/100/20/
043100/20130207/110501/900/500/20/
043100/20130207/110515/900/1011/20/
043100/20130207/110534/900/1066/20/
043100/20130207/110537/899/4000/10/
043100/20130207/110607/900/691/20/
043100/20130207/110612/900/345/10/
043100/20130207/110613/900/100/20/
043100/20130207/110619/900/306/20/
043100/20130207/110624/899/3001/10/
043100/20130207/110628/899/181/10/
043100/20130207/110633/899/2000/10/
043100/20130207/110710/899/1909/10/
043100/20130207/110716/899/917/10/
043100/20130207/110718/899/100/10/
043100/20130207/110723/899/770/10/
043100/20130207/110758/899/5003/10/
043100/20130207/110823/899/984/10/
043100/20130207/110823/898/978/10/
043100/20130207/110856/899/2503/20/
043100/20130207/110909/899/703/10/
043100/20130207/110941/899/1000/10/
043100/20130207/111019/899/4500/10/
043100/20130207/111110/899/177/10/
043100/20130207/111116/899/1000/10/
043100/20130207/111132/899/5046/10/
043100/20130207/111136/899/1600/10/
043100/20130207/111207/899/3602/10/
043100/20130207/111222/899/1050/10/
043100/20130207/111234/899/300/10/
043100/20130207/111254/900/122/20/
043100/20130207/111257/900/3000/20/
043100/20130207/111320/900/500/20/
043100/20130207/111323/899/228/10/
043100/20130207/111415/899/575/10/
043100/20130207/111421/899/1275/10/
043100/20130207/111450/899/1620/10/
043100/20130207/111457/899/1598/10/
043100/20130207/111543/899/7541/10/
043100/20130207/111609/899/1989/20/
043100/20130207/111619/898/1004/10/
043100/20130207/111625/899/2003/20/
043100/20130207/111652/899/3003/20/
043100/20130207/111657/899/200/20/
043100/20130207/111700/899/822/20/
043100/20130207/111827/899/5763/10/
043100/20130207/111849/899/417/10/
043100/20130207/111852/899/500/10/
043100/20130207/111906/899/1000/10/
043100/20130207/111940/899/2578/10/
043100/20130207/111951/899/917/10/
043100/20130207/111957/899/503/10/
043100/20130207/112000/899/1329/10/
043100/20130207/112002/899/671/20/
043100/20130207/112018/900/10000/20/
043100/20130207/112108/899/254/10/
043100/20130207/112116/900/10000/20/
043100/20130207/112200/899/2110/10/
043100/20130207/112255/899/4355/10/
043100/20130207/112400/899/105/10/
043100/20130207/112404/898/917/10/
043100/20130207/112442/899/116/10/
043100/20130207/112442/898/803/10/
043100/20130207/112503/898/4613/10/
043100/20130207/112539/899/301/10/
043100/20130207/112605/899/4000/10/
043100/20130207/112607/899/500/10/
043100/20130207/112620/899/1250/10/
043100/20130207/112627/900/657/20/
043100/20130207/112627/899/200/10/
043100/20130207/112639/900/901/20/
043100/20130207/112644/899/1166/10/
043100/20130207/112656/900/10000/20/
043100/20130207/112721/899/917/10/
043100/20130207/112726/900/1000/20/
043100/20130207/112758/900/112/20/
043100/20130207/112806/900/100/20/
043100/20130207/112812/900/92/20/
043100/20130207/112817/900/120/20/
043100/20130207/112824/899/927/10/
043100/20130207/112825/900/100/20/
043100/20130207/112833/900/100/20/
043100/20130207/112849/900/110/20/
043100/20130207/112856/899/917/10/
043100/20130207/112858/900/100/20/
043100/20130207/112902/899/1503/10/
043100/20130207/112920/900/110/20/
043100/20130207/112923/900/3000/20/
043100/20130207/112925/900/2000/20/
043100/20130207/112931/900/3011/20/
043100/20130207/112931/900/678/20/
043100/20130207/112933/900/1187/20/
043100/20130207/113004/900/451/20/
043100/20130207/113007/899/400/10/
043100/20130207/113010/899/2587/10/
043100/20130207/113044/899/589/10/
043100/20130207/113055/899/3097/10/
043100/20130207/113056/900/8248/20/
043100/20130207/113057/900/917/10/
043100/20130207/113107/900/815/10/
043100/20130207/113119/901/120/20/
043100/20130207/113124/901/138/20/
043100/20130207/113202/899/310/10/
043100/20130207/113210/899/12701/10/
043100/20130207/113217/898/2000/10/
043100/20130207/113235/898/5001/10/
043100/20130207/113239/898/443/10/
043100/20130207/113244/898/203/10/
043100/20130207/113258/898/2675/10/
043100/20130207/113304/899/500/20/
043100/20130207/113305/899/2000/20/
043100/20130207/113317/899/101/20/
043100/20130207/113324/898/3000/10/
043100/20130207/113326/899/3000/20/
043100/20130207/113336/898/3449/10/
043100/20130207/113337/899/110/20/
043100/20130207/113342/899/300/20/
043100/20130207/113354/899/165/20/
043100/20130207/113449/898/104/10/
043100/20130207/113515/898/204/10/
043100/20130207/113552/899/500/20/
043100/20130207/113554/898/9621/10/
043100/20130207/113601/899/100/20/
043100/20130207/113613/899/236/20/
043100/20130207/113633/898/905/10/
043100/20130207/113644/898/571/10/
043100/20130207/113656/898/10047/10/
043100/20130207/113658/898/16043/10/
043100/20130207/113712/897/932/10/
043100/20130207/113714/897/457/10/
043100/20130207/113715/897/294/10/
043100/20130207/113723/898/2951/20/
043100/20130207/113729/898/300/10/
043100/20130207/113731/899/107/20/
043100/20130207/113738/899/498/20/
043100/20130207/113739/898/505/10/
043100/20130207/113755/898/92/10/
043100/20130207/113838/900/1020/20/
043100/20130207/113846/899/1901/10/
043100/20130207/113858/899/2068/10/
043100/20130207/113858/898/17267/10/
043100/20130207/113937/898/1003/20/
043100/20130207/113937/898/10000/20/
043100/20130207/113946/898/994/20/
043100/20130207/113950/898/501/20/
043100/20130207/113951/897/153/10/
043100/20130207/113959/898/100/20/
043100/20130207/114003/898/200/20/
043100/20130207/114007/898/1000/20/
043100/20130207/114012/898/407/20/
043100/20130207/114014/898/700/20/
043100/20130207/114015/898/100/20/
043100/20130207/114024/898/209/20/
043100/20130207/114025/898/3006/20/
043100/20130207/114029/898/400/20/
043100/20130207/114042/898/101/20/
043100/20130207/114058/897/1013/10/
043100/20130207/114119/898/4411/20/
043100/20130207/114125/898/176/10/
043100/20130207/114228/898/1895/10/
043100/20130207/114235/899/200/20/
043100/20130207/114355/898/538/10/
043100/20130207/114356/898/629/10/
043100/20130207/114404/898/308/10/
043100/20130207/114409/898/1432/20/
043100/20130207/114421/898/401/20/
043100/20130207/114442/898/101/20/
043100/20130207/114517/897/923/10/
043100/20130207/114535/898/1001/20/
043100/20130207/114554/898/4050/20/
043100/20130207/114556/898/1000/20/
043100/20130207/114559/898/1572/20/
043100/20130207/114602/898/1692/20/
043100/20130207/114634/898/1021/10/
043100/20130207/114644/898/6460/10/
043100/20130207/114645/898/1000/20/
043100/20130207/114656/898/104/20/
043100/20130207/114701/898/5000/20/
043100/20130207/114720/898/101/20/
043100/20130207/114720/898/2886/20/
043100/20130207/114740/898/3825/10/
043100/20130207/114745/898/289/10/
043100/20130207/114803/897/4347/10/
043100/20130207/114812/897/3476/10/
043100/20130207/114852/897/2284/10/
043100/20130207/114858/897/1000/10/
043100/20130207/114859/897/39576/10/
043100/20130207/114900/897/3770/10/
043100/20130207/114902/897/2110/10/
043100/20130207/114927/897/322/10/
043100/20130207/114928/897/1000/10/
043100/20130207/114928/897/500/10/
043100/20130207/114948/897/20001/10/
043100/20130207/115000/897/6896/10/
043100/20130207/115028/897/3051/20/
043100/20130207/115039/897/501/20/
043100/20130207/115049/897/343/20/
043100/20130207/115055/897/1000/20/
043100/20130207/115104/896/10001/10/
043100/20130207/115114/896/1900/10/
043100/20130207/115119/897/510/20/
043100/20130207/115131/896/1002/10/
043100/20130207/115134/896/112/10/
043100/20130207/115136/896/1010/10/
043100/20130207/115200/896/5172/10/
043100/20130207/115202/896/124/10/
043100/20130207/115206/896/300/10/
043100/20130207/115207/896/3124/10/
043100/20130207/115227/896/768/10/
043100/20130207/115230/896/268/10/
043100/20130207/115233/896/3000/10/
043100/20130207/115255/896/1007/10/
043100/20130207/115301/897/1780/20/
043100/20130207/115326/896/15005/10/
043100/20130207/115330/896/815/10/
043100/20130207/115331/896/500/10/
043100/20130207/115404/896/1154/10/
043100/20130207/115407/896/100/10/
043100/20130207/115415/896/252/10/
043100/20130207/115423/896/358/10/
043100/20130207/115428/896/5000/10/
043100/20130207/115431/896/582/10/
043100/20130207/115433/896/5067/20/
043100/20130207/115442/895/235/10/
043100/20130207/115451/895/323/10/
043100/20130207/115454/895/2340/10/
043100/20130207/115501/895/156/10/
043100/20130207/115502/895/3775/10/
043100/20130207/115502/895/235/10/
043100/20130207/115504/895/9400/10/
043100/20130207/115505/895/1000/10/
043100/20130207/115505/895/1914/10/
043100/20130207/115506/895/3000/10/
043100/20130207/115507/895/20001/10/
043100/20130207/115510/895/123/10/
043100/20130207/115511/895/647/10/
043100/20130207/115515/895/1000/10/
043100/20130207/115516/895/963/10/
043100/20130207/115522/894/7895/10/
043100/20130207/115527/894/2000/10/
043100/20130207/115543/895/124/20/
043100/20130207/115545/894/917/10/
043100/20130207/115551/895/1036/20/
043100/20130207/115557/895/999/20/
043100/20130207/115605/894/3501/10/
043100/20130207/115606/894/5000/10/
043100/20130207/115623/894/3001/10/
043100/20130207/115627/894/620/10/
043100/20130207/115627/894/2479/10/
043100/20130207/115628/894/1290/10/
043100/20130207/115652/894/591/10/
043100/20130207/115713/895/353/20/
043100/20130207/115720/895/501/20/
043100/20130207/115723/895/501/20/
043100/20130207/115743/894/500/10/
043100/20130207/115747/894/5000/10/
043100/20130207/115749/893/5000/10/
043100/20130207/115756/893/11022/10/
043100/20130207/115800/893/102/10/
043100/20130207/115826/894/412/10/
043100/20130207/115830/894/81/20/
043100/20130207/115902/893/1042/10/
043100/20130207/115915/894/2539/20/
043100/20130207/115927/894/4037/20/
043100/20130207/115930/893/545/10/
043100/20130207/115940/894/368/20/
043100/20130207/115941/894/513/20/
043100/20130207/115952/894/800/20/
043100/20130207/120003/893/285/10/
043100/20130207/120010/893/16434/10/
043100/20130207/120016/893/101/20/
043100/20130207/120020/893/705/20/
043100/20130207/120021/892/251/10/
043100/20130207/120024/893/101/20/
043100/20130207/120029/892/235/10/
043100/20130207/120035/893/100/20/
043100/20130207/120037/892/123/10/
043100/20130207/120045/892/259/10/
043100/20130207/120109/893/88/20/
043100/20130207/120114/892/2003/10/
043100/20130207/120144/892/345/10/
043100/20130207/120216/893/3048/20/
043100/20130207/120218/893/99/20/
043100/20130207/120220/893/1613/20/
043100/20130207/120225/893/4095/20/
043100/20130207/120243/893/636/10/
043100/20130207/120246/893/917/10/
043100/20130207/120250/893/3752/20/
043100/20130207/120326/893/5563/20/
043100/20130207/120341/893/417/10/
043100/20130207/120431/894/3016/20/
043100/20130207/120446/894/288/20/
043100/20130207/120447/893/88/10/
043100/20130207/120447/893/9643/10/
043100/20130207/120447/892/357/10/
043100/20130207/120452/892/5012/10/
043100/20130207/120501/892/411/10/
043100/20130207/120505/892/1782/10/
043100/20130207/120536/893/529/20/
043100/20130207/120542/893/111/20/
043100/20130207/120543/892/1000/10/
043100/20130207/120548/893/1001/20/
043100/20130207/120604/893/90/20/
043100/20130207/120624/893/84/20/
043100/20130207/120649/893/87/20/
043100/20130207/120726/893/85/20/
043100/20130207/120734/893/2023/20/
043100/20130207/120737/893/200/20/
043100/20130207/120744/892/124/10/
043100/20130207/120759/893/5614/20/
043100/20130207/120800/892/300/10/
043100/20130207/120811/893/990/20/
043100/20130207/120818/893/2011/20/
043100/20130207/120819/893/1000/20/
043100/20130207/120820/893/759/20/
043100/20130207/120830/894/225/20/
043100/20130207/120841/894/226/20/
043100/20130207/120852/894/134/20/
043100/20130207/120907/893/4976/10/
043100/20130207/120935/892/2047/10/
043100/20130207/121011/892/444/10/
043100/20130207/121025/893/304/20/
043100/20130207/121042/893/114/20/
043100/20130207/121105/893/532/20/
043100/20130207/121107/893/813/20/
043100/20130207/121115/893/1017/20/
043100/20130207/121127/893/126/20/
043100/20130207/121128/893/201/20/
043100/20130207/121131/893/200/20/
043100/20130207/121131/893/1454/20/
043100/20130207/121159/893/1054/10/
043100/20130207/121215/894/127/20/
043100/20130207/121224/894/112/20/
043100/20130207/121246/894/83/20/
043100/20130207/121305/894/266/20/
043100/20130207/121317/894/349/20/
043100/20130207/121321/894/1121/20/
043100/20130207/121324/895/18779/20/
043100/20130207/121332/895/83/20/
043100/20130207/121333/895/3365/20/
043100/20130207/121349/895/85/20/
043100/20130207/121412/895/1708/20/
043100/20130207/121414/895/500/10/
043100/20130207/121425/895/592/10/
043100/20130207/121442/896/3048/20/
043100/20130207/121503/896/98/20/
043100/20130207/121532/896/81/20/
043100/20130207/121549/895/404/10/
043100/20130207/121549/896/100/20/
043100/20130207/121552/896/2001/20/
043100/20130207/121621/895/3364/10/
043100/20130207/121713/895/4426/10/
043100/20130207/121737/894/1103/10/
043100/20130207/121756/894/2009/10/
043100/20130207/121759/894/90/20/
043100/20130207/121806/894/90/20/
043100/20130207/121808/894/312/20/
043100/20130207/121808/894/1488/10/
043100/20130207/121808/893/1311/10/
043100/20130207/121838/895/201/20/
043100/20130207/121839/894/200/10/
043100/20130207/121852/894/3273/20/
043100/20130207/121944/895/4257/10/
043100/20130207/122012/896/503/20/
043100/20130207/122046/895/406/10/
043100/20130207/122105/895/542/10/
043100/20130207/122144/896/502/20/
043100/20130207/122153/895/6000/10/
043100/20130207/122217/895/3000/20/
043100/20130207/122226/895/1013/10/
043100/20130207/122246/895/502/10/
043100/20130207/122246/895/500/10/
043100/20130207/122336/895/114/10/
043100/20130207/122341/896/3000/20/
043100/20130207/122351/896/983/20/
043100/20130207/122435/897/520/20/
043100/20130207/122440/897/3000/10/
043100/20130207/122519/895/6087/10/
043100/20130207/122519/894/13014/10/
043100/20130207/122519/893/20900/10/
043100/20130207/122532/893/101/10/
043100/20130207/122706/895/170/20/
043100/20130207/122741/895/3001/20/
043100/20130207/122812/894/81/20/
043100/20130207/122825/893/15000/10/
043100/20130207/122825/893/404/10/
043100/20130207/122827/893/300/20/
043100/20130207/122834/892/39000/10/
043100/20130207/122841/892/1000/10/
043100/20130207/122841/892/383/10/
043100/20130207/122848/892/817/20/
043100/20130207/122857/892/2000/20/
043100/20130207/122859/892/310/20/
043100/20130207/122906/892/2389/20/
043100/20130207/122955/894/521/20/
043100/20130207/123000/893/2000/10/
043100/20130207/123017/892/392/10/
043100/20130207/123118/894/155/20/
043100/20130207/123140/894/500/20/
043100/20130207/123209/893/867/10/
043100/20130207/123231/893/146/10/
043100/20130207/123240/892/16938/10/
043100/20130207/123244/891/363/10/
043100/20130207/123254/891/5022/10/
043100/20130207/123319/891/33280/10/
043100/20130207/123319/890/32723/10/
043100/20130207/123339/890/25001/10/
043100/20130207/123340/890/966/10/
043100/20130207/123342/889/1878/10/
043100/20130207/123348/889/2400/10/
043100/20130207/123407/890/1121/20/
043100/20130207/123413/889/5000/10/
043100/20130207/123419/890/400/20/
043100/20130207/123421/889/5000/10/
043100/20130207/123423/889/3038/10/
043100/20130207/123436/889/1982/20/
043100/20130207/123442/889/1022/10/
043100/20130207/123445/889/1000/20/
043100/20130207/123445/889/179/20/
043100/20130207/123448/890/386/20/
043100/20130207/123450/890/500/20/
043100/20130207/123452/889/1000/10/
043100/20130207/123455/890/149/20/
043100/20130207/123501/890/500/20/
043100/20130207/123505/890/5833/20/
043100/20130207/123514/890/1001/10/
043100/20130207/123515/891/200/20/
043100/20130207/123516/891/500/20/
043100/20130207/123522/890/3987/10/
043100/20130207/123522/889/1013/10/
043100/20130207/123531/891/101/20/
043100/20130207/123536/891/100/20/
043100/20130207/123555/891/92/20/
043100/20130207/123601/892/1001/20/
043100/20130207/123603/891/1019/10/
043100/20130207/123603/890/2200/10/
043100/20130207/123606/890/1000/20/
043100/20130207/123610/890/1050/20/
043100/20130207/123614/890/100/20/
043100/20130207/123615/890/1000/20/
043100/20130207/123620/890/400/20/
043100/20130207/123621/890/100/20/
043100/20130207/123622/890/300/20/
043100/20130207/123623/890/500/20/
043100/20130207/123624/890/500/20/
043100/20130207/123624/890/170/20/
043100/20130207/123628/890/550/20/
043100/20130207/123630/890/1111/20/
043100/20130207/123701/890/5311/10/
043100/20130207/123701/889/11299/10/
043100/20130207/123712/889/590/20/
043100/20130207/123714/889/2998/20/
043100/20130207/123806/891/1017/20/
043100/20130207/123808/890/2432/10/
043100/20130207/123812/890/1000/20/
043100/20130207/123827/889/2022/10/
043100/20130207/123830/889/917/10/
043100/20130207/123841/889/188/10/
043100/20130207/123841/888/198/10/
043100/20130207/123841/888/230/10/
043100/20130207/123843/889/501/10/
043100/20130207/123901/888/10135/10/
043100/20130207/123912/890/106/20/
043100/20130207/123915/889/1000/10/
043100/20130207/123915/888/15228/10/
043100/20130207/123916/888/100/20/
043100/20130207/123919/887/5001/10/
043100/20130207/123922/888/305/20/
043100/20130207/123930/887/8947/10/
043100/20130207/123935/886/4001/10/
043100/20130207/123937/886/1100/10/
043100/20130207/123937/886/2655/10/
043100/20130207/123940/885/4561/10/
043100/20130207/123946/885/13368/10/
043100/20130207/123948/886/1001/10/
043100/20130207/123953/886/3820/10/
043100/20130207/123954/887/90/20/
043100/20130207/123957/887/500/20/
043100/20130207/124011/887/1001/20/
043100/20130207/124026/887/503/20/
043100/20130207/124037/887/501/20/
043100/20130207/124037/887/110/20/
043100/20130207/124040/887/11261/20/
043100/20130207/124042/887/100/20/
043100/20130207/124046/886/300/10/
043100/20130207/124046/887/100/20/
043100/20130207/124049/887/5001/20/
043100/20130207/124052/887/3816/20/
043100/20130207/124057/886/3028/10/
043100/20130207/124058/887/100/20/
043100/20130207/124101/887/938/20/
043100/20130207/124113/887/110/20/
043100/20130207/124116/887/119/20/
043100/20130207/124117/887/1352/20/
043100/20130207/124121/887/121/20/
043100/20130207/124124/886/3923/10/
043100/20130207/124124/885/7116/10/
043100/20130207/124155/886/102/10/
043100/20130207/124155/885/1981/10/
043100/20130207/124202/887/156/20/
043100/20130207/124203/885/3000/10/
043100/20130207/124211/886/100/10/
043100/20130207/124211/885/950/10/
043100/20130207/124236/885/123/10/
043100/20130207/124307/886/1972/20/
043100/20130207/124311/886/199/10/
043100/20130207/124311/885/9742/10/
043100/20130207/124340/887/201/20/
043100/20130207/124349/885/2002/10/
043100/20130207/124354/887/106/20/
043100/20130207/124406/887/2020/20/
043100/20130207/124421/886/120/20/
043100/20130207/124427/886/129/20/
043100/20130207/124431/886/101/20/
043100/20130207/124450/887/120/20/
043100/20130207/124455/886/105/10/
043100/20130207/124504/886/801/10/
043100/20130207/124518/887/1560/20/
043100/20130207/124529/887/5005/20/
043100/20130207/124531/887/203/20/
043100/20130207/124545/887/209/20/
043100/20130207/124548/887/302/20/
043100/20130207/124550/887/1002/20/
043100/20130207/124555/887/610/20/
043100/20130207/124555/888/1396/20/
043100/20130207/124633/888/137/20/
043100/20130207/124644/888/2506/20/
043100/20130207/124646/888/1000/20/
043100/20130207/124647/888/502/20/
043100/20130207/124648/888/9614/20/
043100/20130207/124649/888/212/20/
043100/20130207/124701/888/2004/10/
043100/20130207/124702/889/91/20/
043100/20130207/124711/889/98/20/
043100/20130207/124725/888/106/10/
043100/20130207/124728/888/8339/10/
043100/20130207/124733/888/1394/10/
043100/20130207/124739/888/672/20/
043100/20130207/124742/888/500/20/
043100/20130207/124744/888/112/20/
043100/20130207/124747/888/118/20/
043100/20130207/124813/887/118/10/
043100/20130207/124816/887/817/20/
043100/20130207/124903/888/1011/20/
043100/20130207/124921/888/338/20/
043100/20130207/124925/888/411/10/
043100/20130207/125036/889/108/20/
043100/20130207/125050/889/3108/20/
043100/20130207/125057/889/801/20/
043100/20130207/125127/889/101/20/
043100/20130207/125203/888/464/10/
043100/20130207/125214/888/99/10/
043100/20130207/125215/888/513/10/
043100/20130207/125257/888/137/10/
043100/20130207/125304/888/917/10/
043100/20130207/125306/888/1924/10/
043100/20130207/125307/888/1333/10/
043100/20130207/125308/888/100/20/
043100/20130207/125316/887/199/10/
043100/20130207/125325/887/2744/10/
043100/20130207/125325/886/4241/10/
043100/20130207/125325/885/2531/10/
043100/20130207/125405/887/603/20/
043100/20130207/125458/886/1979/10/
043100/20130207/125503/886/965/20/
043100/20130207/125512/886/884/10/
043100/20130207/125529/886/185/20/
043100/20130207/125535/886/368/20/
043100/20130207/125536/887/90/20/
043100/20130207/125548/886/914/10/
043100/20130207/125606/886/134/10/
043100/20130207/125628/886/600/10/
043100/20130207/125637/886/2928/10/
043100/20130207/125646/886/933/10/
043100/20130207/125707/886/118/10/
043100/20130207/125734/887/203/20/
043100/20130207/125736/887/90/20/
043100/20130207/125739/887/1480/20/
043100/20130207/125743/887/200/10/
043100/20130207/125752/887/180/10/
043100/20130207/125752/886/1007/10/
043100/20130207/125804/886/924/10/
043100/20130207/125830/887/1104/20/
043100/20130207/125912/887/3901/10/
043100/20130207/125912/886/2748/10/
043100/20130207/130011/888/4198/20/
043100/20130207/130011/889/4314/20/
043100/20130207/130037/888/92/10/
043100/20130207/130108/889/100/20/
043100/20130207/130115/889/100/20/
043100/20130207/130121/889/1637/20/
043100/20130207/130126/890/100/20/
043100/20130207/130129/889/2000/10/
043100/20130207/130130/890/100/20/
043100/20130207/130210/890/164/20/
043100/20130207/130213/890/6700/20/
043100/20130207/130214/890/120/20/
043100/20130207/130215/890/1826/20/
043100/20130207/130215/890/2266/20/
043100/20130207/130215/890/5678/20/
043100/20130207/130229/891/2568/20/
043100/20130207/130238/892/1004/20/
043100/20130207/130327/891/425/10/
043100/20130207/130332/891/140/10/
043100/20130207/130408/891/644/10/
043100/20130207/130418/891/100/20/
043100/20130207/130440/890/539/10/
043100/20130207/130448/890/9000/10/
043100/20130207/130457/891/928/20/
043100/20130207/130550/891/329/20/
043100/20130207/130617/892/552/20/
043100/20130207/130635/891/300/10/
043100/20130207/130637/892/3000/20/
043100/20130207/130710/891/240/10/
043100/20130207/130800/891/154/10/
043100/20130207/130812/891/500/10/
043100/20130207/130833/891/851/10/
043100/20130207/130904/892/115/20/
043100/20130207/130922/892/1730/20/
043100/20130207/130957/892/323/20/
043100/20130207/131018/892/106/20/
043100/20130207/131020/892/9766/20/
043100/20130207/131023/891/100/10/
043100/20130207/131125/891/1051/10/
043100/20130207/131148/891/119/10/
043100/20130207/131230/891/1055/10/
043100/20130207/131330/892/228/20/
043100/20130207/131333/891/115/10/
043100/20130207/131341/892/3995/20/
043100/20130207/131342/891/200/10/
043100/20130207/131356/892/1645/20/
043100/20130207/131401/892/255/10/
043100/20130207/131401/891/3236/10/
043100/20130207/131401/890/10509/10/
043100/20130207/131423/890/2600/10/
043100/20130207/131508/890/104/20/
043100/20130207/131531/890/187/20/
043100/20130207/131536/890/461/20/
043100/20130207/131558/890/592/20/
043100/20130207/131642/889/2003/10/
043100/20130207/131706/892/1268/20/
043100/20130207/131714/890/201/10/
043100/20130207/131748/891/90/20/
043100/20130207/131819/890/9350/10/
043100/20130207/131834/891/301/20/
043100/20130207/131905/891/205/20/
043100/20130207/131915/892/572/20/
043100/20130207/131916/892/10563/20/
043100/20130207/131920/892/201/10/
043100/20130207/132009/893/2226/20/
043100/20130207/132013/892/200/10/
043100/20130207/132022/892/102/10/
043100/20130207/132029/892/858/10/
043100/20130207/132029/891/3137/10/
043100/20130207/132125/892/162/10/
043100/20130207/132128/892/200/10/
043100/20130207/132213/893/7550/20/
043100/20130207/132231/892/5561/10/
043100/20130207/132231/891/5161/10/
043100/20130207/132231/893/1000/20/
043100/20130207/132241/893/700/20/
043100/20130207/132248/893/500/20/
043100/20130207/132248/893/683/20/
043100/20130207/132303/893/548/10/
043100/20130207/132335/894/5046/20/
043100/20130207/132353/894/500/20/
043100/20130207/132418/894/1010/20/
043100/20130207/132512/894/1816/20/
043100/20130207/132516/893/211/10/
043100/20130207/132600/893/976/10/
043100/20130207/132616/893/802/10/
043100/20130207/132708/893/1230/10/
043100/20130207/132708/892/2784/10/
043100/20130207/132729/892/4005/10/
043100/20130207/132733/892/1801/10/
043100/20130207/132836/892/1318/10/
043100/20130207/132843/891/4003/10/
043100/20130207/132849/891/919/10/
043100/20130207/132850/891/4052/10/
043100/20130207/132952/891/291/10/
043100/20130207/132954/891/954/20/
043100/20130207/133025/891/2741/20/
043100/20130207/133032/891/301/20/
043100/20130207/133039/891/3718/20/
043100/20130207/133057/891/1782/10/
043100/20130207/133057/890/3611/10/
043100/20130207/133116/891/103/20/
043100/20130207/133122/891/100/20/
043100/20130207/133126/891/100/20/
043100/20130207/133129/891/271/20/
043100/20130207/133305/891/10251/10/
043100/20130207/133319/891/3002/20/
043100/20130207/133417/891/521/20/
043100/20130207/133433/891/5112/20/
043100/20130207/133448/890/405/10/
043100/20130207/133523/891/337/20/
043100/20130207/133546/890/1012/10/
043100/20130207/133554/891/576/20/
043100/20130207/133603/890/1001/10/
043100/20130207/133607/890/1231/10/
043100/20130207/133800/890/608/10/
043100/20130207/133803/890/2000/10/
043100/20130207/133816/890/8578/10/
043100/20130207/133853/890/5791/20/
043100/20130207/133859/890/1280/10/
043100/20130207/133929/891/200/20/
043100/20130207/133940/890/917/10/
043100/20130207/133956/890/458/10/
043100/20130207/134005/891/2000/20/
043100/20130207/134006/891/459/20/
043100/20130207/134014/891/2000/20/
043100/20130207/134016/891/5000/20/
043100/20130207/134030/891/500/20/
043100/20130207/134035/891/211/20/
043100/20130207/134125/892/121/20/
043100/20130207/134140/892/508/20/
043100/20130207/134208/892/2534/20/
043100/20130207/134210/892/1001/20/
043100/20130207/134211/892/671/20/
043100/20130207/134343/892/923/10/
043100/20130207/134357/892/1000/10/
043100/20130207/134403/893/112/20/
043100/20130207/134405/892/467/10/
043100/20130207/134449/893/222/20/
043100/20130207/134507/892/300/10/
043100/20130207/134518/892/232/20/
043100/20130207/134525/892/100/20/
043100/20130207/134526/891/10000/10/
043100/20130207/134553/891/462/10/
043100/20130207/134554/891/1500/10/
043100/20130207/134622/892/230/20/
043100/20130207/134756/892/2031/20/
043100/20130207/134809/891/1722/10/
043100/20130207/134814/891/678/20/
043100/20130207/134843/891/286/10/
043100/20130207/134843/890/391/10/
043100/20130207/134858/892/11001/20/
043100/20130207/134951/892/2502/20/
043100/20130207/135122/892/526/20/
043100/20130207/135151/892/2000/20/
043100/20130207/135206/892/236/20/
043100/20130207/135227/892/284/10/
043100/20130207/135253/892/1700/10/
043100/20130207/135332/892/3802/10/
043100/20130207/135400/892/1219/20/
043100/20130207/135437/892/81/10/
043100/20130207/135446/892/100/10/
043100/20130207/135446/892/101/10/
043100/20130207/135447/892/339/20/
043100/20130207/135524/893/494/20/
043100/20130207/135559/892/1864/10/
043100/20130207/135611/892/202/10/
043100/20130207/135653/892/1014/10/
043100/20130207/135721/892/1503/10/
043100/20130207/135728/892/112/10/
043100/20130207/135738/893/513/20/
043100/20130207/135742/892/1511/10/
043100/20130207/135802/892/502/10/
043100/20130207/135805/893/412/20/
043100/20130207/135836/893/864/20/
043100/20130207/135842/892/2301/10/
043100/20130207/135851/892/501/10/
043100/20130207/135853/892/350/10/
043100/20130207/140006/892/152/10/
043100/20130207/140124/892/124/10/
043100/20130207/140126/893/7083/20/
043100/20130207/140126/894/2917/20/
043100/20130207/140154/892/917/10/
043100/20130207/140237/892/502/10/
043100/20130207/140243/893/200/10/
043100/20130207/140253/893/181/10/
043100/20130207/140322/892/4000/10/
043100/20130207/140328/892/6849/10/
043100/20130207/140328/891/651/10/
043100/20130207/140343/892/133/20/
043100/20130207/140609/893/1148/20/
043100/20130207/140713/892/748/10/
043100/20130207/140725/893/603/20/
043100/20130207/140740/893/558/20/
043100/20130207/140846/892/4300/10/
043100/20130207/140854/892/200/20/
043100/20130207/140858/892/503/20/
043100/20130207/140911/892/678/10/
043100/20130207/140916/892/636/10/
043100/20130207/140916/891/9364/10/
043100/20130207/140933/892/355/20/
043100/20130207/140955/892/235/20/
043100/20130207/140958/891/4908/10/
043100/20130207/140959/892/1000/20/
043100/20130207/140959/892/300/20/
043100/20130207/141004/892/300/20/
043100/20130207/141022/892/155/20/
043100/20130207/141040/892/358/20/
043100/20130207/141047/891/2940/10/
043100/20130207/141058/891/259/20/
043100/20130207/141106/891/244/20/
043100/20130207/141124/891/310/20/
043100/20130207/141132/891/294/20/
043100/20130207/141233/890/112/10/
043100/20130207/141300/890/9676/10/
043100/20130207/141315/890/922/10/
043100/20130207/141338/890/5003/10/
043100/20130207/141343/890/3335/10/
043100/20130207/141344/890/753/10/
043100/20130207/141353/890/176/10/
043100/20130207/141412/891/2523/20/
043100/20130207/141537/891/2018/20/
043100/20130207/141540/891/100/20/
043100/20130207/141541/890/451/10/
043100/20130207/141605/891/3001/20/
043100/20130207/141641/891/1000/20/
043100/20130207/141647/891/100/20/
043100/20130207/141701/890/151/10/
043100/20130207/141815/890/1070/10/
043100/20130207/141835/890/100/10/
043100/20130207/141842/890/3328/10/
043100/20130207/141849/890/312/10/
043100/20130207/141907/890/103/10/
043100/20130207/141931/890/921/10/
043100/20130207/141941/891/247/20/
043100/20130207/141951/891/502/20/
043100/20130207/141958/890/5001/10/
043100/20130207/142000/890/201/10/
043100/20130207/142002/890/15809/10/
043100/20130207/142020/889/275/10/
043100/20130207/142100/890/8874/20/
043100/20130207/142104/890/100/10/
043100/20130207/142124/890/5004/10/
043100/20130207/142132/890/1906/10/
043100/20130207/142139/890/801/10/
043100/20130207/142139/890/100/10/
043100/20130207/142144/890/459/10/
043100/20130207/142147/890/503/10/
043100/20130207/142150/890/917/10/
043100/20130207/142211/891/1003/20/
043100/20130207/142222/891/361/20/
043100/20130207/142238/891/1037/20/
043100/20130207/142246/891/100/20/
043100/20130207/142301/891/996/20/
043100/20130207/142307/891/101/20/
043100/20130207/142318/890/11093/10/
043100/20130207/142320/890/100/10/
043100/20130207/142323/890/512/10/
043100/20130207/142323/889/239/10/
043100/20130207/142352/889/2004/10/
043100/20130207/142425/889/310/10/
043100/20130207/142431/890/131/20/
043100/20130207/142510/889/125/10/
043100/20130207/142520/889/4471/10/
043100/20130207/142524/888/1117/10/
043100/20130207/142525/888/700/10/
043100/20130207/142550/888/2003/10/
043100/20130207/142611/889/2363/20/
043100/20130207/142627/889/202/10/
043100/20130207/142710/889/352/10/
043100/20130207/142737/889/657/20/
043100/20130207/142745/889/2402/10/
043100/20130207/142748/888/2000/10/
043100/20130207/142835/889/1066/20/
043100/20130207/142845/888/462/10/
043100/20130207/142848/888/100/10/
043100/20130207/142853/888/5001/10/
043100/20130207/142926/889/507/20/
043100/20130207/143000/889/1020/20/
043100/20130207/143001/889/1275/20/
043100/20130207/143010/889/1001/20/
043100/20130207/143013/889/1356/20/
043100/20130207/143015/888/708/10/
043100/20130207/143032/889/8766/20/
043100/20130207/143035/889/8743/20/
043100/20130207/143037/889/1326/20/
043100/20130207/143112/890/1003/20/
043100/20130207/143112/890/1000/20/
043100/20130207/143115/890/1000/20/
043100/20130207/143154/890/550/20/
043100/20130207/143201/890/1000/20/
043100/20130207/143214/890/759/20/
043100/20130207/143247/889/4324/10/
043100/20130207/143255/889/1000/10/
043100/20130207/143325/890/120/20/
043100/20130207/143336/890/100/20/
043100/20130207/143343/890/8733/20/
043100/20130207/143345/890/243/20/
043100/20130207/143350/890/100/20/
043100/20130207/143401/890/125/20/
043100/20130207/143408/890/416/20/
043100/20130207/143433/890/551/20/
043100/20130207/143437/890/154/20/
043100/20130207/143450/890/1024/20/
043100/20130207/143514/890/308/20/
043100/20130207/143517/890/252/20/
043100/20130207/143524/890/246/20/
043100/20130207/143604/890/447/10/
043100/20130207/143610/890/400/10/
043100/20130207/143613/890/500/10/
043100/20130207/143614/890/959/10/
043100/20130207/143621/890/401/20/
043100/20130207/143630/890/600/10/
043100/20130207/143641/890/100/20/
043100/20130207/143644/890/556/20/
043100/20130207/143646/890/540/20/
043100/20130207/143654/890/361/10/
043100/20130207/143715/890/101/10/
043100/20130207/143720/890/1299/20/
043100/20130207/143725/890/1701/20/
043100/20130207/143729/890/600/10/
043100/20130207/143736/890/733/10/
043100/20130207/143749/890/81/20/
043100/20130207/143815/889/138/10/
043100/20130207/143827/889/130/10/
043100/20130207/143839/889/828/10/
043100/20130207/143839/890/271/20/
043100/20130207/143902/889/8603/10/
043100/20130207/143912/889/403/20/
043100/20130207/143919/889/103/20/
043100/20130207/143921/889/500/20/
043100/20130207/143929/889/409/20/
043100/20130207/144022/889/2263/10/
043100/20130207/144031/889/653/10/
043100/20130207/144037/889/2229/20/
043100/20130207/144055/889/732/10/
043100/20130207/144057/890/2156/20/
043100/20130207/144126/890/254/20/
043100/20130207/144135/889/390/10/
043100/20130207/144143/890/5102/20/
043100/20130207/144207/891/99/20/
043100/20130207/144216/891/102/20/
043100/20130207/144302/891/4101/20/
043100/20130207/144310/891/501/20/
043100/20130207/144312/890/200/10/
043100/20130207/144322/890/301/10/
043100/20130207/144341/891/303/20/
043100/20130207/144343/891/698/20/
043100/20130207/144344/890/3000/10/
043100/20130207/144351/891/302/20/
043100/20130207/144423/891/305/10/
043100/20130207/144515/892/107/20/
043100/20130207/144519/892/201/20/
043100/20130207/144535/892/802/20/
043100/20130207/144553/892/175/20/
043100/20130207/144611/892/101/20/
043100/20130207/144620/892/101/20/
043100/20130207/144620/892/1000/20/
043100/20130207/144622/892/777/20/
043100/20130207/144636/892/1431/20/
043100/20130207/144640/892/579/10/
043100/20130207/144640/891/421/10/
043100/20130207/144658/891/121/10/
043100/20130207/144714/892/201/10/
043100/20130207/144729/891/201/10/
043100/20130207/144739/892/337/10/
043100/20130207/144753/891/3872/10/
043100/20130207/144753/890/967/10/
043100/20130207/144826/891/402/20/
043100/20130207/144842/891/500/10/
043100/20130207/144847/890/5000/10/
043100/20130207/144900/891/725/20/
043100/20130207/144910/891/963/20/
043100/20130207/144928/891/4148/10/
043100/20130207/144928/891/354/20/
043100/20130207/144929/890/240/10/
043100/20130207/144940/890/1362/10/
043100/20130207/144951/890/150/10/
043100/20130207/150000/890/54441/10/
