043100/20121109/90000/1350/29716/20/
043100/20121109/90000/1350/100/10/
043100/20121109/90000/1350/1909/10/
043100/20121109/90001/1355/1100/20/
043100/20121109/90010/1350/825/20/
043100/20121109/90015/1345/3010/10/
043100/20121109/90024/1345/1826/10/
043100/20121109/90030/1345/106/10/
043100/20121109/90031/1345/2060/10/
043100/20121109/90033/1345/385/10/
043100/20121109/90033/1345/756/10/
043100/20121109/90101/1345/170/10/
043100/20121109/90109/1345/1865/10/
043100/20121109/90113/1350/1400/20/
043100/20121109/90113/1345/679/10/
043100/20121109/90121/1345/200/10/
043100/20121109/90121/1345/300/10/
043100/20121109/90126/1345/6569/10/
043100/20121109/90139/1345/5795/10/
043100/20121109/90202/1345/504/10/
043100/20121109/90211/1345/100/10/
043100/20121109/90235/1345/519/10/
043100/20121109/90246/1345/1931/10/
043100/20121109/90249/1345/101/10/
043100/20121109/90256/1345/201/10/
043100/20121109/90300/1345/3000/10/
043100/20121109/90309/1345/200/10/
043100/20121109/90311/1345/1189/10/
043100/20121109/90313/1345/1585/10/
043100/20121109/90334/1340/211/10/
043100/20121109/90341/1340/1008/10/
043100/20121109/90349/1340/1168/10/
043100/20121109/90352/1340/2248/10/
043100/20121109/90354/1340/300/10/
043100/20121109/90404/1340/151/10/
043100/20121109/90414/1340/1098/10/
043100/20121109/90423/1340/1260/10/
043100/20121109/90427/1340/1000/10/
043100/20121109/90430/1340/7000/10/
043100/20121109/90432/1340/4008/10/
043100/20121109/90505/1340/110/20/
043100/20121109/90512/1335/650/10/
043100/20121109/90518/1335/2001/10/
043100/20121109/90528/1335/1838/10/
043100/20121109/90531/1335/1000/10/
043100/20121109/90554/1335/150/10/
043100/20121109/90555/1335/500/10/
043100/20121109/90608/1340/140/20/
043100/20121109/90616/1340/170/20/
043100/20121109/90623/1340/1205/10/
043100/20121109/90626/1340/1000/10/
043100/20121109/90629/1340/1200/10/
043100/20121109/90636/1340/500/10/
043100/20121109/90645/1340/580/10/
043100/20121109/90649/1340/150/10/
043100/20121109/90650/1340/300/10/
043100/20121109/90725/1340/500/10/
043100/20121109/90736/1340/2000/10/
043100/20121109/90740/1345/1000/20/
043100/20121109/90753/1345/200/20/
043100/20121109/90800/1345/300/20/
043100/20121109/90813/1340/121/10/
043100/20121109/90817/1340/5000/10/
043100/20121109/90817/1340/263/10/
043100/20121109/90821/1340/2162/10/
043100/20121109/90822/1340/100/20/
043100/20121109/90826/1340/110/20/
043100/20121109/90830/1340/225/20/
043100/20121109/90835/1340/200/20/
043100/20121109/90844/1340/210/20/
043100/20121109/90845/1340/193/20/
043100/20121109/90856/1340/782/10/
043100/20121109/90911/1340/500/20/
043100/20121109/90916/1340/300/20/
043100/20121109/90918/1340/448/20/
043100/20121109/90928/1340/152/10/
043100/20121109/90928/1335/595/10/
043100/20121109/90959/1335/3226/10/
043100/20121109/91018/1340/104/20/
043100/20121109/91031/1335/600/10/
043100/20121109/91049/1335/10060/10/
043100/20121109/91053/1335/500/10/
043100/20121109/91056/1335/3976/10/
043100/20121109/91058/1335/200/20/
043100/20121109/91116/1335/401/20/
043100/20121109/91141/1335/102/20/
043100/20121109/91159/1335/502/20/
043100/20121109/91202/1335/2537/20/
043100/20121109/91208/1335/793/10/
043100/20121109/91208/1330/28207/10/
043100/20121109/91230/1330/2319/10/
043100/20121109/91237/1330/801/10/
043100/20121109/91250/1330/5120/10/
043100/20121109/91255/1330/6669/10/
043100/20121109/91315/1335/100/20/
043100/20121109/91319/1330/607/10/
043100/20121109/91321/1330/100/10/
043100/20121109/91336/1330/7810/10/
043100/20121109/91341/1330/609/10/
043100/20121109/91343/1330/1161/10/
043100/20121109/91421/1330/3522/10/
043100/20121109/91427/1330/100/10/
043100/20121109/91428/1330/3198/10/
043100/20121109/91441/1330/280/20/
043100/20121109/91446/1330/1100/20/
043100/20121109/91501/1330/203/20/
043100/20121109/91503/1330/400/20/
043100/20121109/91505/1330/100/20/
043100/20121109/91513/1330/300/10/
043100/20121109/91514/1330/600/20/
043100/20121109/91516/1330/212/20/
043100/20121109/91517/1330/406/20/
043100/20121109/91601/1330/187/10/
043100/20121109/91603/1330/245/10/
043100/20121109/91611/1330/500/10/
043100/20121109/91624/1330/1500/10/
043100/20121109/91636/1330/1003/10/
043100/20121109/91657/1335/4021/20/
043100/20121109/91657/1335/150/20/
043100/20121109/91658/1335/300/20/
043100/20121109/91710/1330/146/10/
043100/20121109/91712/1330/431/10/
043100/20121109/91730/1335/3735/20/
043100/20121109/91730/1335/3420/10/
043100/20121109/91748/1340/4785/20/
043100/20121109/91753/1340/286/10/
043100/20121109/91753/1335/414/10/
043100/20121109/91810/1340/103/20/
043100/20121109/91814/1340/504/20/
043100/20121109/91833/1340/113/10/
043100/20121109/91840/1340/150/20/
043100/20121109/91847/1340/158/10/
043100/20121109/91849/1340/200/20/
043100/20121109/91908/1335/552/10/
043100/20121109/91957/1330/343/10/
043100/20121109/92007/1330/194/10/
043100/20121109/92030/1335/1011/20/
043100/20121109/92045/1330/151/10/
043100/20121109/92059/1330/108/10/
043100/20121109/92109/1330/5213/10/
043100/20121109/92149/1330/700/10/
043100/20121109/92217/1330/2000/10/
043100/20121109/92228/1330/233/10/
043100/20121109/92251/1335/3807/20/
043100/20121109/92254/1335/1400/20/
043100/20121109/92308/1335/3000/10/
043100/20121109/92323/1335/130/20/
043100/20121109/92416/1335/2054/10/
043100/20121109/92419/1335/5533/20/
043100/20121109/92427/1335/246/10/
043100/20121109/92457/1335/1770/10/
043100/20121109/92506/1335/2000/10/
043100/20121109/92510/1335/462/10/
043100/20121109/92630/1335/211/10/
043100/20121109/92714/1340/4156/20/
043100/20121109/92719/1340/845/10/
043100/20121109/92755/1335/1000/10/
043100/20121109/92818/1335/4647/10/
043100/20121109/92853/1335/384/20/
043100/20121109/92856/1335/325/10/
043100/20121109/92911/1335/1269/20/
043100/20121109/92917/1335/3000/20/
043100/20121109/92919/1335/406/20/
043100/20121109/92921/1335/104/10/
043100/20121109/92935/1335/1241/20/
043100/20121109/92937/1335/1000/20/
043100/20121109/93008/1335/234/20/
043100/20121109/93248/1330/2001/10/
043100/20121109/93306/1330/3000/10/
043100/20121109/93307/1330/341/10/
043100/20121109/93310/1330/100/10/
043100/20121109/93311/1330/968/10/
043100/20121109/93318/1330/2134/10/
043100/20121109/93322/1330/820/10/
043100/20121109/93323/1330/4213/10/
043100/20121109/93326/1330/172/10/
043100/20121109/93333/1330/500/10/
043100/20121109/93334/1330/2909/10/
043100/20121109/93335/1330/500/10/
043100/20121109/93335/1330/840/10/
043100/20121109/93336/1330/2718/10/
043100/20121109/93338/1330/100/10/
043100/20121109/93340/1330/684/10/
043100/20121109/93407/1325/500/10/
043100/20121109/93414/1325/1379/10/
043100/20121109/93417/1325/4627/10/
043100/20121109/93419/1325/10000/10/
043100/20121109/93433/1325/507/10/
043100/20121109/93501/1330/3031/20/
043100/20121109/93508/1325/310/10/
043100/20121109/93514/1325/18066/10/
043100/20121109/93520/1325/600/10/
043100/20121109/93528/1325/727/10/
043100/20121109/93529/1325/382/10/
043100/20121109/93536/1325/4596/10/
043100/20121109/93536/1325/400/10/
043100/20121109/93550/1325/4383/10/
043100/20121109/93559/1325/3117/20/
043100/20121109/93610/1325/401/10/
043100/20121109/93610/1325/301/10/
043100/20121109/93615/1325/2000/10/
043100/20121109/93620/1325/95/10/
043100/20121109/93636/1325/101/10/
043100/20121109/93639/1325/300/10/
043100/20121109/93705/1325/1510/10/
043100/20121109/93712/1325/201/10/
043100/20121109/93717/1325/126/10/
043100/20121109/93718/1325/9693/10/
043100/20121109/93737/1325/307/20/
043100/20121109/93750/1325/1028/10/
043100/20121109/93801/1330/81/20/
043100/20121109/93809/1325/2562/10/
043100/20121109/93810/1325/1000/10/
043100/20121109/93817/1325/212/10/
043100/20121109/93820/1325/2692/10/
043100/20121109/93831/1325/4887/20/
043100/20121109/93839/1325/85/20/
043100/20121109/93843/1325/1050/20/
043100/20121109/93911/1325/4674/20/
043100/20121109/93914/1330/1000/20/
043100/20121109/93914/1330/2255/20/
043100/20121109/94004/1325/701/10/
043100/20121109/94024/1325/6878/10/
043100/20121109/94041/1325/3111/20/
043100/20121109/94048/1325/452/10/
043100/20121109/94124/1325/2543/10/
043100/20121109/94124/1320/25282/10/
043100/20121109/94129/1330/4001/20/
043100/20121109/94153/1325/1019/20/
043100/20121109/94203/1325/213/20/
043100/20121109/94210/1325/4007/20/
043100/20121109/94211/1325/1000/20/
043100/20121109/94211/1325/2777/10/
043100/20121109/94217/1325/101/10/
043100/20121109/94237/1330/1011/20/
043100/20121109/94244/1325/1541/10/
043100/20121109/94257/1325/1042/10/
043100/20121109/94259/1325/1363/10/
043100/20121109/94308/1325/105/20/
043100/20121109/94314/1325/5004/20/
043100/20121109/94316/1325/2502/20/
043100/20121109/94326/1325/1057/20/
043100/20121109/94329/1325/333/20/
043100/20121109/94330/1325/11666/20/
043100/20121109/94332/1325/100/20/
043100/20121109/94335/1325/300/20/
043100/20121109/94337/1325/101/20/
043100/20121109/94356/1320/1169/10/
043100/20121109/94401/1320/1000/10/
043100/20121109/94414/1325/100/20/
043100/20121109/94441/1325/103/20/
043100/20121109/94447/1325/1100/20/
043100/20121109/94517/1325/1006/20/
043100/20121109/94524/1320/3444/10/
043100/20121109/94605/1325/111/20/
043100/20121109/94608/1325/500/20/
043100/20121109/94612/1325/2522/20/
043100/20121109/94615/1325/1288/20/
043100/20121109/94615/1325/300/20/
043100/20121109/94616/1325/682/20/
043100/20121109/94619/1325/206/20/
043100/20121109/94622/1325/1583/20/
043100/20121109/94626/1325/730/10/
043100/20121109/94629/1325/687/10/
043100/20121109/94645/1325/5191/20/
043100/20121109/94645/1330/6803/20/
043100/20121109/94645/1335/5195/20/
043100/20121109/94645/1340/5311/20/
043100/20121109/94717/1335/346/20/
043100/20121109/94907/1325/6959/10/
043100/20121109/94910/1330/3006/20/
043100/20121109/94929/1330/314/20/
043100/20121109/94949/1325/861/10/
043100/20121109/94957/1320/6782/10/
043100/20121109/95019/1325/102/20/
043100/20121109/95046/1325/1508/20/
043100/20121109/95151/1325/146/10/
043100/20121109/95157/1325/300/10/
043100/20121109/95254/1325/311/10/
043100/20121109/95309/1325/300/10/
043100/20121109/95333/1325/837/10/
043100/20121109/95356/1320/101/10/
043100/20121109/95456/1325/263/20/
043100/20121109/95458/1325/242/20/
043100/20121109/95524/1325/3373/20/
043100/20121109/95531/1325/665/20/
043100/20121109/95701/1325/2274/10/
043100/20121109/95724/1325/3009/20/
043100/20121109/95729/1325/654/20/
043100/20121109/95738/1325/100/10/
043100/20121109/95744/1325/774/20/
043100/20121109/95746/1325/755/20/
043100/20121109/95747/1325/461/20/
043100/20121109/95942/1330/522/20/
043100/20121109/100010/1325/276/10/
043100/20121109/100031/1325/2674/10/
043100/20121109/100036/1325/398/20/
043100/20121109/100100/1325/102/10/
043100/20121109/100109/1325/850/10/
043100/20121109/100110/1325/164/10/
043100/20121109/100116/1325/5000/10/
043100/20121109/100119/1325/386/20/
043100/20121109/100131/1325/758/20/
043100/20121109/100134/1325/754/20/
043100/20121109/100135/1325/758/20/
043100/20121109/100135/1325/754/20/
043100/20121109/100219/1330/695/20/
043100/20121109/100320/1325/3991/10/
043100/20121109/100330/1325/685/10/
043100/20121109/100333/1325/754/20/
043100/20121109/100335/1325/561/20/
043100/20121109/100440/1330/243/20/
043100/20121109/100444/1330/2000/20/
043100/20121109/100457/1330/642/20/
043100/20121109/100501/1325/295/10/
043100/20121109/100502/1325/2000/10/
043100/20121109/100542/1325/1002/10/
043100/20121109/100549/1330/102/20/
043100/20121109/100821/1330/359/20/
043100/20121109/100831/1325/517/10/
043100/20121109/100832/1330/4000/20/
043100/20121109/100859/1330/204/20/
043100/20121109/101019/1325/2298/10/
043100/20121109/101023/1325/2642/10/
043100/20121109/101033/1330/200/20/
043100/20121109/101058/1325/301/10/
043100/20121109/101100/1325/566/10/
043100/20121109/101102/1325/6064/10/
043100/20121109/101102/1320/31936/10/
043100/20121109/101112/1325/954/10/
043100/20121109/101113/1325/690/20/
043100/20121109/101129/1325/1818/10/
043100/20121109/101134/1325/754/20/
043100/20121109/101135/1325/754/20/
043100/20121109/101136/1325/754/20/
043100/20121109/101136/1325/570/20/
043100/20121109/101137/1325/350/20/
043100/20121109/101142/1325/81/10/
043100/20121109/101147/1325/300/10/
043100/20121109/101200/1325/1241/10/
043100/20121109/101228/1330/331/20/
043100/20121109/101305/1330/7001/20/
043100/20121109/101305/1330/984/20/
043100/20121109/101354/1335/388/20/
043100/20121109/101405/1335/413/20/
043100/20121109/101415/1335/102/20/
043100/20121109/101422/1335/100/20/
043100/20121109/101507/1335/81/20/
043100/20121109/101533/1330/1001/10/
043100/20121109/101600/1335/202/20/
043100/20121109/101602/1335/1213/20/
043100/20121109/101618/1330/11442/10/
043100/20121109/101726/1335/459/20/
043100/20121109/101812/1330/170/10/
043100/20121109/101838/1335/101/20/
043100/20121109/101840/1330/402/10/
043100/20121109/101923/1335/1314/20/
043100/20121109/101927/1335/376/20/
043100/20121109/101950/1335/292/20/
043100/20121109/102003/1330/991/10/
043100/20121109/102106/1335/504/20/
043100/20121109/102117/1330/327/10/
043100/20121109/102131/1330/99/20/
043100/20121109/102145/1330/2800/20/
043100/20121109/102206/1330/1501/20/
043100/20121109/102228/1335/102/20/
043100/20121109/102242/1330/511/20/
043100/20121109/102251/1330/85/20/
043100/20121109/102305/1330/1000/20/
043100/20121109/102314/1330/102/20/
043100/20121109/102318/1330/501/20/
043100/20121109/102353/1330/3001/20/
043100/20121109/102504/1330/5007/20/
043100/20121109/102546/1330/4185/20/
043100/20121109/102623/1325/261/10/
043100/20121109/102804/1330/137/20/
043100/20121109/102810/1325/395/10/
043100/20121109/102823/1330/1001/20/
043100/20121109/102917/1330/14551/20/
043100/20121109/102924/1330/506/20/
043100/20121109/102933/1330/532/20/
043100/20121109/102935/1330/4375/20/
043100/20121109/102946/1335/154/20/
043100/20121109/102946/1335/30000/20/
043100/20121109/102952/1330/943/10/
043100/20121109/103002/1330/2159/20/
043100/20121109/103002/1330/1710/20/
043100/20121109/103029/1335/2605/20/
043100/20121109/103029/1335/800/20/
043100/20121109/103031/1335/1251/20/
043100/20121109/103039/1340/105/20/
043100/20121109/103051/1340/1170/20/
043100/20121109/103051/1335/4722/10/
043100/20121109/103118/1335/1819/20/
043100/20121109/103130/1330/4187/10/
043100/20121109/103153/1330/1300/10/
043100/20121109/103212/1335/1772/20/
043100/20121109/103256/1330/944/10/
043100/20121109/103259/1330/3127/10/
043100/20121109/103307/1325/100/10/
043100/20121109/103322/1325/374/10/
043100/20121109/103339/1330/670/20/
043100/20121109/103340/1330/330/20/
043100/20121109/103456/1330/832/10/
043100/20121109/103556/1330/234/10/
043100/20121109/103615/1325/200/10/
043100/20121109/103721/1330/101/20/
043100/20121109/103748/1325/4125/10/
043100/20121109/103750/1325/300/10/
043100/20121109/103816/1330/1001/20/
043100/20121109/103830/1330/2000/20/
043100/20121109/103833/1325/105/10/
043100/20121109/103833/1330/2000/20/
043100/20121109/103902/1325/2529/10/
043100/20121109/103903/1330/538/20/
043100/20121109/103910/1330/768/20/
043100/20121109/103914/1330/1203/10/
043100/20121109/104043/1335/6895/20/
043100/20121109/104101/1330/1287/10/
043100/20121109/104101/1325/8115/10/
043100/20121109/104109/1330/101/10/
043100/20121109/104124/1330/100/20/
043100/20121109/104126/1330/1000/20/
043100/20121109/104135/1330/257/20/
043100/20121109/104153/1330/1001/20/
043100/20121109/104159/1330/301/20/
043100/20121109/104208/1330/179/20/
043100/20121109/104215/1330/302/20/
043100/20121109/104223/1330/3889/20/
043100/20121109/104240/1330/2822/20/
043100/20121109/104307/1330/1001/20/
043100/20121109/104309/1330/184/20/
043100/20121109/104314/1330/1000/20/
043100/20121109/104344/1330/1847/20/
043100/20121109/104435/1325/116/10/
043100/20121109/104454/1325/801/10/
043100/20121109/104505/1325/1601/10/
043100/20121109/104538/1335/10829/20/
043100/20121109/104610/1330/358/10/
043100/20121109/104644/1330/246/20/
043100/20121109/104709/1330/81/20/
043100/20121109/104709/1335/193/20/
043100/20121109/104723/1325/1487/10/
043100/20121109/104746/1325/190/10/
043100/20121109/104949/1325/435/10/
043100/20121109/105244/1330/2055/20/
043100/20121109/105400/1325/2303/10/
043100/20121109/105423/1325/201/10/
043100/20121109/105522/1325/1744/10/
043100/20121109/105553/1330/201/20/
043100/20121109/105601/1325/2000/10/
043100/20121109/105659/1325/4277/10/
043100/20121109/105744/1325/761/10/
043100/20121109/105814/1325/7000/10/
043100/20121109/105827/1325/2985/10/
043100/20121109/105827/1325/1100/10/
043100/20121109/105858/1325/905/10/
043100/20121109/105901/1325/140/20/
043100/20121109/105903/1325/105/20/
043100/20121109/105910/1325/649/10/
043100/20121109/105910/1320/34974/10/
043100/20121109/105917/1330/1075/20/
043100/20121109/105927/1325/152/20/
043100/20121109/105949/1325/14365/20/
043100/20121109/105951/1325/657/10/
043100/20121109/110102/1320/517/10/
043100/20121109/110235/1320/360/10/
043100/20121109/110328/1320/484/10/
043100/20121109/110334/1320/8300/10/
043100/20121109/110344/1320/200/20/
043100/20121109/110352/1320/200/20/
043100/20121109/110355/1320/310/20/
043100/20121109/110400/1320/200/20/
043100/20121109/110402/1320/500/20/
043100/20121109/110408/1320/1109/20/
043100/20121109/110422/1320/204/10/
043100/20121109/110654/1320/2180/10/
043100/20121109/110740/1320/1641/10/
043100/20121109/110843/1320/1624/10/
043100/20121109/111016/1320/701/10/
043100/20121109/111045/1320/255/10/
043100/20121109/111121/1320/1953/10/
043100/20121109/111216/1325/2022/20/
043100/20121109/111250/1325/107/20/
043100/20121109/111315/1325/764/20/
043100/20121109/111318/1325/500/20/
043100/20121109/111332/1320/2206/10/
043100/20121109/111413/1325/5060/20/
043100/20121109/111413/1325/300/20/
043100/20121109/111415/1325/180/20/
043100/20121109/111417/1325/1000/20/
043100/20121109/111422/1325/754/20/
043100/20121109/111424/1325/754/20/
043100/20121109/111432/1320/200/10/
043100/20121109/111532/1325/221/20/
043100/20121109/111559/1325/1063/20/
043100/20121109/111611/1320/825/10/
043100/20121109/111617/1325/323/20/
043100/20121109/111632/1325/6744/20/
043100/20121109/111721/1325/1882/20/
043100/20121109/111724/1325/2000/20/
043100/20121109/111730/1325/1000/20/
043100/20121109/111741/1325/420/20/
043100/20121109/111744/1325/2364/20/
043100/20121109/111745/1325/100/20/
043100/20121109/111812/1325/90/20/
043100/20121109/111923/1330/1037/20/
043100/20121109/112011/1330/5002/20/
043100/20121109/112038/1325/1132/10/
043100/20121109/112038/1320/1390/10/
043100/20121109/112322/1325/2086/10/
043100/20121109/112329/1325/500/10/
043100/20121109/112342/1325/101/10/
043100/20121109/112357/1325/4501/10/
043100/20121109/112417/1325/8704/10/
043100/20121109/112520/1325/201/10/
043100/20121109/112548/1325/162/10/
043100/20121109/112620/1325/3541/10/
043100/20121109/112805/1325/2512/10/
043100/20121109/112922/1330/350/20/
043100/20121109/113103/1330/100/20/
043100/20121109/113106/1330/100/20/
043100/20121109/113240/1330/153/20/
043100/20121109/113307/1325/1000/10/
043100/20121109/113544/1325/7076/10/
043100/20121109/113756/1325/6806/10/
043100/20121109/113808/1325/417/10/
043100/20121109/113842/1325/88/20/
043100/20121109/113850/1325/912/10/
043100/20121109/113855/1325/166/20/
043100/20121109/113903/1325/2184/20/
043100/20121109/113936/1325/914/10/
043100/20121109/114204/1330/231/20/
043100/20121109/114207/1325/1000/10/
043100/20121109/114300/1325/100/10/
043100/20121109/114315/1325/100/10/
043100/20121109/114442/1325/5777/10/
043100/20121109/114448/1325/300/10/
043100/20121109/114536/1325/310/10/
043100/20121109/114545/1325/100/10/
043100/20121109/114551/1325/334/10/
043100/20121109/114654/1325/7490/10/
043100/20121109/114654/1320/2511/10/
043100/20121109/114715/1320/101/10/
043100/20121109/114818/1325/261/10/
043100/20121109/114827/1325/100/10/
043100/20121109/114837/1325/2380/10/
043100/20121109/114847/1325/230/20/
043100/20121109/114855/1325/140/20/
043100/20121109/114917/1325/320/20/
043100/20121109/114946/1325/141/20/
043100/20121109/115014/1325/141/20/
043100/20121109/115017/1325/100/20/
043100/20121109/115045/1325/141/20/
043100/20121109/115244/1325/820/20/
043100/20121109/115315/1325/1565/20/
043100/20121109/115331/1325/570/20/
043100/20121109/115340/1325/1070/20/
043100/20121109/115348/1320/774/10/
043100/20121109/115427/1325/170/20/
043100/20121109/115444/1325/1000/20/
043100/20121109/115511/1325/3214/20/
043100/20121109/115522/1325/200/20/
043100/20121109/115523/1325/283/20/
043100/20121109/115559/1325/211/10/
043100/20121109/115610/1325/200/10/
043100/20121109/115710/1325/1584/10/
043100/20121109/115713/1325/1735/10/
043100/20121109/115744/1325/1000/10/
043100/20121109/115902/1325/1001/10/
043100/20121109/115951/1325/301/10/
043100/20121109/120153/1325/2700/20/
043100/20121109/120243/1325/112/20/
043100/20121109/120312/1325/511/20/
043100/20121109/120335/1320/101/10/
043100/20121109/120346/1325/200/20/
043100/20121109/120410/1325/1541/20/
043100/20121109/120413/1325/740/10/
043100/20121109/120627/1330/517/20/
043100/20121109/120728/1330/100/20/
043100/20121109/120759/1325/5305/10/
043100/20121109/120806/1325/3002/20/
043100/20121109/120811/1325/755/20/
043100/20121109/120813/1325/754/20/
043100/20121109/120815/1325/754/20/
043100/20121109/120816/1325/700/20/
043100/20121109/121631/1325/110/10/
043100/20121109/121651/1325/8001/10/
043100/20121109/121654/1325/2473/10/
043100/20121109/121732/1325/200/20/
043100/20121109/122006/1325/159/20/
043100/20121109/122046/1325/151/20/
043100/20121109/122120/1320/659/10/
043100/20121109/122154/1325/231/20/
043100/20121109/122220/1325/754/20/
043100/20121109/122235/1325/788/20/
043100/20121109/122255/1325/401/20/
043100/20121109/122256/1325/500/20/
043100/20121109/122323/1320/684/10/
043100/20121109/122346/1325/502/20/
043100/20121109/122349/1325/693/20/
043100/20121109/122609/1325/1741/20/
043100/20121109/122622/1320/200/10/
043100/20121109/122707/1325/118/20/
043100/20121109/122914/1320/829/10/
043100/20121109/122950/1325/101/20/
043100/20121109/123308/1325/114/20/
043100/20121109/123317/1320/2650/10/
043100/20121109/123408/1325/100/20/
043100/20121109/123503/1325/1000/20/
043100/20121109/123642/1320/300/10/
043100/20121109/123646/1320/22860/10/
043100/20121109/123718/1325/565/20/
043100/20121109/123820/1325/460/20/
043100/20121109/124008/1320/2059/10/
043100/20121109/124014/1320/970/10/
043100/20121109/124032/1320/2270/10/
043100/20121109/124045/1320/446/10/
043100/20121109/124116/1320/1050/10/
043100/20121109/124130/1320/3530/10/
043100/20121109/124141/1325/100/20/
043100/20121109/124431/1325/9300/20/
043100/20121109/124452/1325/111/20/
043100/20121109/124645/1320/2682/10/
043100/20121109/124734/1320/2800/10/
043100/20121109/124735/1320/401/10/
043100/20121109/124743/1320/345/10/
043100/20121109/124944/1325/1001/20/
043100/20121109/124952/1325/3010/20/
043100/20121109/125257/1325/605/10/
043100/20121109/125327/1325/190/10/
043100/20121109/125418/1325/1700/10/
043100/20121109/125448/1325/136/10/
043100/20121109/125532/1325/855/10/
043100/20121109/125538/1325/112/10/
043100/20121109/125613/1325/200/10/
043100/20121109/125640/1325/10396/10/
043100/20121109/125654/1325/220/20/
043100/20121109/125716/1325/10000/20/
043100/20121109/125754/1325/1400/20/
043100/20121109/125811/1325/285/20/
043100/20121109/125831/1325/100/20/
043100/20121109/125844/1325/355/20/
043100/20121109/130044/1325/2202/10/
043100/20121109/130157/1325/3141/10/
043100/20121109/130217/1325/1611/10/
043100/20121109/130242/1325/2500/20/
043100/20121109/130242/1325/2179/20/
043100/20121109/130623/1330/2023/20/
043100/20121109/130706/1330/3000/20/
043100/20121109/130905/1330/306/20/
043100/20121109/131052/1325/4367/10/
043100/20121109/131120/1325/968/10/
043100/20121109/131237/1325/1598/10/
043100/20121109/131257/1325/9484/10/
043100/20121109/131257/1320/14739/10/
043100/20121109/131338/1325/3447/20/
043100/20121109/131402/1325/180/10/
043100/20121109/131423/1325/1538/10/
043100/20121109/131519/1325/550/10/
043100/20121109/131617/1325/223/10/
043100/20121109/131622/1325/1700/10/
043100/20121109/131646/1325/260/10/
043100/20121109/131650/1325/300/10/
043100/20121109/131700/1325/474/10/
043100/20121109/131701/1325/1000/20/
043100/20121109/131849/1325/1500/20/
043100/20121109/131943/1325/168/20/
043100/20121109/131944/1325/1000/20/
043100/20121109/132011/1325/90/20/
043100/20121109/132046/1325/661/20/
043100/20121109/132108/1325/100/20/
043100/20121109/132156/1330/385/20/
043100/20121109/132435/1330/1002/20/
043100/20121109/132507/1330/783/20/
043100/20121109/132636/1330/100/20/
043100/20121109/132750/1325/414/10/
043100/20121109/133335/1325/2122/10/
043100/20121109/133414/1325/2000/10/
043100/20121109/133443/1325/3809/10/
043100/20121109/133458/1325/90/10/
043100/20121109/133630/1325/119/10/
043100/20121109/133703/1325/10001/10/
043100/20121109/133739/1325/8866/10/
043100/20121109/133745/1325/600/10/
043100/20121109/133846/1325/10000/10/
043100/20121109/133850/1325/100/10/
043100/20121109/133908/1330/7350/20/
043100/20121109/134044/1325/1501/10/
043100/20121109/134154/1325/15000/10/
043100/20121109/134319/1325/101/10/
043100/20121109/134548/1325/233/10/
043100/20121109/134722/1325/199/10/
043100/20121109/134859/1330/1500/20/
043100/20121109/134933/1325/23125/10/
043100/20121109/135018/1330/833/20/
043100/20121109/135132/1330/140/20/
043100/20121109/135156/1325/4027/10/
043100/20121109/135227/1325/1008/10/
043100/20121109/135330/1325/128/10/
043100/20121109/135420/1330/6805/20/
043100/20121109/135430/1330/37593/20/
043100/20121109/135431/1330/5364/20/
043100/20121109/135431/1330/6000/20/
043100/20121109/135432/1330/11262/20/
043100/20121109/135447/1335/200/20/
043100/20121109/135457/1330/120/10/
043100/20121109/135524/1335/300/20/
043100/20121109/135535/1335/1008/20/
043100/20121109/135536/1335/1206/20/
043100/20121109/135541/1335/3056/20/
043100/20121109/135546/1335/200/20/
043100/20121109/135600/1335/500/20/
043100/20121109/135626/1335/100/20/
043100/20121109/135636/1335/10010/20/
043100/20121109/135637/1335/500/20/
043100/20121109/135643/1335/1000/20/
043100/20121109/135649/1335/2613/20/
043100/20121109/135650/1335/5000/10/
043100/20121109/135657/1335/889/10/
043100/20121109/135712/1335/101/20/
043100/20121109/135727/1330/150/10/
043100/20121109/135732/1335/100/20/
043100/20121109/135757/1330/319/10/
043100/20121109/135809/1330/19749/10/
043100/20121109/135825/1325/100/10/
043100/20121109/135959/1330/3001/20/
043100/20121109/140006/1330/2000/20/
043100/20121109/140018/1330/200/20/
043100/20121109/140107/1325/230/10/
043100/20121109/140225/1325/210/10/
043100/20121109/140321/1330/1000/20/
043100/20121109/140332/1325/3000/10/
043100/20121109/140440/1325/201/10/
043100/20121109/140448/1325/500/10/
043100/20121109/140508/1330/353/20/
043100/20121109/140557/1330/1012/20/
043100/20121109/140558/1330/320/20/
043100/20121109/140605/1325/300/10/
043100/20121109/140730/1330/555/20/
043100/20121109/140807/1330/178/20/
043100/20121109/140826/1330/200/20/
043100/20121109/140935/1330/82/20/
043100/20121109/141009/1325/278/10/
043100/20121109/141029/1330/1520/20/
043100/20121109/141101/1330/200/20/
043100/20121109/141136/1325/186/10/
043100/20121109/141215/1325/10041/10/
043100/20121109/141238/1325/5322/10/
043100/20121109/141241/1325/5000/10/
043100/20121109/141243/1325/1205/10/
043100/20121109/141250/1325/10001/10/
043100/20121109/141253/1325/11988/10/
043100/20121109/141253/1325/3000/10/
043100/20121109/141253/1325/1742/10/
043100/20121109/141253/1325/3018/20/
043100/20121109/141254/1325/982/10/
043100/20121109/141303/1325/151/20/
043100/20121109/141324/1320/4157/10/
043100/20121109/141357/1325/4749/20/
043100/20121109/141400/1325/5000/20/
043100/20121109/141412/1325/950/20/
043100/20121109/141413/1325/600/10/
043100/20121109/141413/1320/6200/10/
043100/20121109/141425/1320/200/10/
043100/20121109/141440/1320/300/10/
043100/20121109/141440/1320/5000/10/
043100/20121109/141443/1320/100/10/
043100/20121109/141444/1325/500/20/
043100/20121109/141504/1325/300/20/
043100/20121109/141517/1320/1500/10/
043100/20121109/141521/1320/100/10/
043100/20121109/141528/1320/6780/10/
043100/20121109/141530/1320/301/10/
043100/20121109/141540/1320/5000/10/
043100/20121109/141542/1320/300/10/
043100/20121109/141630/1320/2982/10/
043100/20121109/141637/1320/2000/10/
043100/20121109/141735/1320/158/10/
043100/20121109/141815/1325/114/20/
043100/20121109/141843/1325/161/20/
043100/20121109/141850/1320/7025/10/
043100/20121109/141926/1320/4450/10/
043100/20121109/141927/1320/4776/10/
043100/20121109/141943/1320/501/20/
043100/20121109/141958/1315/951/10/
043100/20121109/141958/1320/1000/20/
043100/20121109/141958/1320/100/20/
043100/20121109/142014/1320/5000/20/
043100/20121109/142022/1320/500/20/
043100/20121109/142025/1315/110/10/
043100/20121109/142029/1320/1000/20/
043100/20121109/142030/1315/100/10/
043100/20121109/142031/1320/100/20/
043100/20121109/142047/1320/1330/20/
043100/20121109/142103/1315/9400/10/
043100/20121109/142119/1315/7592/10/
043100/20121109/142155/1315/2000/10/
043100/20121109/142203/1315/3052/10/
043100/20121109/142205/1315/5000/10/
043100/20121109/142206/1315/501/10/
043100/20121109/142226/1320/1500/20/
043100/20121109/142231/1315/5000/10/
043100/20121109/142254/1315/2001/10/
043100/20121109/142345/1320/1077/20/
043100/20121109/142356/1320/5327/20/
043100/20121109/142407/1320/1500/10/
043100/20121109/142617/1320/192/10/
043100/20121109/142633/1320/13000/10/
043100/20121109/142653/1320/3032/10/
043100/20121109/142701/1320/1000/10/
043100/20121109/142810/1320/2976/10/
043100/20121109/142840/1315/231/10/
043100/20121109/142842/1320/100/20/
043100/20121109/142852/1320/2000/20/
043100/20121109/142855/1320/393/20/
043100/20121109/142858/1325/6805/20/
043100/20121109/142858/1330/8158/20/
043100/20121109/143016/1330/1009/20/
043100/20121109/143112/1320/5885/10/
043100/20121109/143125/1325/1295/20/
043100/20121109/143215/1320/2500/10/
043100/20121109/143245/1320/3001/10/
043100/20121109/143250/1325/295/20/
043100/20121109/143339/1325/200/20/
043100/20121109/143342/1325/10000/20/
043100/20121109/143414/1320/924/10/
043100/20121109/143449/1320/10000/10/
043100/20121109/143513/1320/669/10/
043100/20121109/143522/1320/1000/20/
043100/20121109/143546/1320/1881/20/
043100/20121109/143552/1320/2000/10/
043100/20121109/143607/1320/100/10/
043100/20121109/143614/1320/100/10/
043100/20121109/143619/1320/400/10/
043100/20121109/143730/1320/1518/10/
043100/20121109/143802/1320/200/10/
043100/20121109/143836/1320/3274/10/
043100/20121109/143843/1320/481/20/
043100/20121109/143908/1320/163/20/
043100/20121109/143947/1320/171/20/
043100/20121109/144042/1320/5069/20/
043100/20121109/144046/1320/1000/20/
043100/20121109/144048/1320/166/20/
043100/20121109/144104/1320/1000/10/
043100/20121109/144108/1320/2900/10/
043100/20121109/144138/1320/4852/10/
043100/20121109/144156/1320/401/10/
043100/20121109/144206/1320/281/10/
043100/20121109/144213/1320/1000/20/
043100/20121109/144233/1320/1000/20/
043100/20121109/144242/1320/219/20/
043100/20121109/144253/1320/281/10/
043100/20121109/144259/1320/1219/20/
043100/20121109/144330/1320/1000/10/
043100/20121109/144340/1320/1431/10/
043100/20121109/144345/1320/555/10/
043100/20121109/144355/1320/1001/10/
043100/20121109/144403/1320/598/10/
043100/20121109/144422/1320/531/10/
043100/20121109/144425/1320/700/10/
043100/20121109/144431/1320/300/10/
043100/20121109/144431/1325/1500/20/
043100/20121109/144434/1320/600/10/
043100/20121109/144436/1320/1300/10/
043100/20121109/144447/1320/1000/10/
043100/20121109/144452/1320/400/10/
043100/20121109/144506/1320/101/10/
043100/20121109/144544/1320/3452/10/
043100/20121109/144601/1325/151/20/
043100/20121109/144624/1320/433/10/
043100/20121109/144637/1320/365/10/
043100/20121109/144721/1320/502/10/
043100/20121109/144739/1320/599/10/
043100/20121109/144745/1320/11000/10/
043100/20121109/144747/1320/1720/10/
043100/20121109/144751/1320/1127/10/
043100/20121109/144751/1315/1873/10/
043100/20121109/144814/1320/6501/20/
043100/20121109/144814/1320/1500/10/
043100/20121109/144816/1320/820/10/
043100/20121109/144823/1320/200/20/
043100/20121109/144828/1320/1000/20/
043100/20121109/144829/1320/890/20/
043100/20121109/144836/1320/83/20/
043100/20121109/144848/1320/485/20/
043100/20121109/144903/1315/1700/10/
043100/20121109/144921/1320/850/20/
043100/20121109/144923/1315/2364/10/
043100/20121109/144924/1315/167/10/
043100/20121109/144929/1315/307/10/
043100/20121109/144942/1320/3001/20/
043100/20121109/144947/1320/1000/20/
043100/20121109/144950/1320/2107/20/
043100/20121109/144952/1320/240/20/
043100/20121109/144954/1320/2699/20/
043100/20121109/150000/1315/131964/10/
