043100/20121030/90000/1385/35271/20/
043100/20121030/90000/1385/5776/20/
043100/20121030/90002/1385/1000/20/
043100/20121030/90004/1380/1500/10/
043100/20121030/90005/1380/1500/10/
043100/20121030/90006/1385/1750/20/
043100/20121030/90007/1385/500/20/
043100/20121030/90011/1385/5555/20/
043100/20121030/90011/1385/448/20/
043100/20121030/90011/1380/1137/10/
043100/20121030/90015/1385/300/20/
043100/20121030/90020/1380/5055/10/
043100/20121030/90023/1380/4131/10/
043100/20121030/90028/1380/1009/10/
043100/20121030/90030/1380/100/10/
043100/20121030/90030/1380/90/10/
043100/20121030/90035/1385/3000/20/
043100/20121030/90042/1380/152/10/
043100/20121030/90043/1385/5262/20/
043100/20121030/90046/1385/10000/20/
043100/20121030/90049/1385/2913/20/
043100/20121030/90051/1385/2561/20/
043100/20121030/90054/1385/110/10/
043100/20121030/90056/1385/1229/10/
043100/20121030/90058/1385/147/20/
043100/20121030/90058/1390/12904/20/
043100/20121030/90058/1395/5943/20/
043100/20121030/90100/1395/725/20/
043100/20121030/90103/1395/3474/20/
043100/20121030/90104/1395/210/20/
043100/20121030/90105/1395/500/20/
043100/20121030/90106/1395/716/20/
043100/20121030/90108/1390/500/20/
043100/20121030/90108/1395/500/20/
043100/20121030/90110/1395/1057/20/
043100/20121030/90111/1390/500/20/
043100/20121030/90113/1390/82/20/
043100/20121030/90114/1390/104/20/
043100/20121030/90114/1390/1002/20/
043100/20121030/90115/1390/82/20/
043100/20121030/90116/1390/639/20/
043100/20121030/90118/1390/2408/20/
043100/20121030/90118/1390/1755/20/
043100/20121030/90119/1390/1004/10/
043100/20121030/90121/1390/4365/10/
043100/20121030/90123/1390/909/20/
043100/20121030/90123/1395/11204/20/
043100/20121030/90125/1395/1186/20/
043100/20121030/90125/1395/6838/20/
043100/20121030/90129/1390/2014/20/
043100/20121030/90129/1390/151/20/
043100/20121030/90129/1385/16955/10/
043100/20121030/90130/1390/433/20/
043100/20121030/90130/1390/1844/20/
043100/20121030/90133/1390/151/20/
043100/20121030/90135/1390/1506/20/
043100/20121030/90139/1390/154/20/
043100/20121030/90142/1390/2921/20/
043100/20121030/90144/1390/182/20/
043100/20121030/90151/1390/81/20/
043100/20121030/90154/1385/783/10/
043100/20121030/90155/1385/5000/10/
043100/20121030/90155/1385/1926/10/
043100/20121030/90157/1385/82/20/
043100/20121030/90205/1385/1020/20/
043100/20121030/90205/1385/516/20/
043100/20121030/90215/1390/566/20/
043100/20121030/90220/1390/19388/20/
043100/20121030/90224/1390/110/10/
043100/20121030/90224/1390/10000/10/
043100/20121030/90225/1390/1703/10/
043100/20121030/90230/1390/297/20/
043100/20121030/90232/1390/203/10/
043100/20121030/90234/1390/500/20/
043100/20121030/90240/1390/5475/20/
043100/20121030/90241/1390/300/20/
043100/20121030/90241/1390/6779/20/
043100/20121030/90242/1385/850/10/
043100/20121030/90256/1390/1014/20/
043100/20121030/90306/1390/814/20/
043100/20121030/90313/1390/176/20/
043100/20121030/90319/1385/2500/10/
043100/20121030/90320/1390/100/20/
043100/20121030/90320/1385/500/10/
043100/20121030/90321/1390/350/20/
043100/20121030/90322/1385/681/10/
043100/20121030/90322/1385/10000/10/
043100/20121030/90323/1385/6645/10/
043100/20121030/90340/1380/2452/10/
043100/20121030/90341/1380/239/10/
043100/20121030/90341/1380/8000/10/
043100/20121030/90342/1380/2250/10/
043100/20121030/90343/1380/2234/10/
043100/20121030/90343/1380/2223/10/
043100/20121030/90344/1380/908/10/
043100/20121030/90344/1380/2300/10/
043100/20121030/90344/1380/5000/10/
043100/20121030/90344/1380/1000/10/
043100/20121030/90345/1380/1406/10/
043100/20121030/90345/1380/2000/10/
043100/20121030/90345/1380/181/10/
043100/20121030/90350/1380/220/10/
043100/20121030/90354/1385/724/20/
043100/20121030/90357/1380/600/10/
043100/20121030/90359/1380/506/10/
043100/20121030/90401/1380/8006/10/
043100/20121030/90403/1380/150/10/
043100/20121030/90405/1380/1000/10/
043100/20121030/90406/1380/620/10/
043100/20121030/90407/1375/2692/10/
043100/20121030/90408/1380/100/20/
043100/20121030/90412/1380/88/20/
043100/20121030/90414/1375/2826/10/
043100/20121030/90414/1380/700/20/
043100/20121030/90414/1385/300/20/
043100/20121030/90418/1380/301/10/
043100/20121030/90420/1380/499/20/
043100/20121030/90423/1380/1001/10/
043100/20121030/90424/1380/293/20/
043100/20121030/90428/1380/112/20/
043100/20121030/90429/1375/1500/10/
043100/20121030/90434/1375/2541/10/
043100/20121030/90442/1375/100/10/
043100/20121030/90444/1375/2000/10/
043100/20121030/90445/1375/700/10/
043100/20121030/90446/1375/1500/10/
043100/20121030/90447/1375/1616/10/
043100/20121030/90450/1370/100/10/
043100/20121030/90455/1370/300/10/
043100/20121030/90456/1370/1000/10/
043100/20121030/90459/1370/200/10/
043100/20121030/90501/1370/1000/10/
043100/20121030/90504/1370/100/10/
043100/20121030/90506/1370/229/10/
043100/20121030/90507/1370/137/10/
043100/20121030/90513/1375/2600/20/
043100/20121030/90515/1370/14500/10/
043100/20121030/90515/1375/866/20/
043100/20121030/90516/1375/9628/20/
043100/20121030/90517/1375/372/10/
043100/20121030/90517/1370/2628/10/
043100/20121030/90520/1380/2677/20/
043100/20121030/90523/1380/100/20/
043100/20121030/90541/1380/149/20/
043100/20121030/90545/1380/347/20/
043100/20121030/90555/1375/1807/10/
043100/20121030/90604/1375/338/10/
043100/20121030/90607/1375/6644/10/
043100/20121030/90610/1375/1364/10/
043100/20121030/90614/1375/1486/20/
043100/20121030/90620/1375/5257/10/
043100/20121030/90627/1375/500/10/
043100/20121030/90628/1375/700/10/
043100/20121030/90648/1375/5251/10/
043100/20121030/90648/1375/2043/10/
043100/20121030/90652/1375/1001/10/
043100/20121030/90702/1375/301/10/
043100/20121030/90705/1375/4195/10/
043100/20121030/90705/1370/10712/10/
043100/20121030/90705/1365/2023/10/
043100/20121030/90713/1365/1000/10/
043100/20121030/90723/1370/126/10/
043100/20121030/90737/1370/299/10/
043100/20121030/90738/1375/1592/20/
043100/20121030/90740/1375/185/20/
043100/20121030/90748/1380/12956/20/
043100/20121030/90748/1380/500/20/
043100/20121030/90750/1385/13920/20/
043100/20121030/90754/1390/4000/20/
043100/20121030/90756/1390/5244/20/
043100/20121030/90756/1390/803/20/
043100/20121030/90758/1390/2000/20/
043100/20121030/90758/1390/4300/20/
043100/20121030/90759/1390/6847/20/
043100/20121030/90759/1390/200/20/
043100/20121030/90800/1390/19702/20/
043100/20121030/90800/1390/1289/20/
043100/20121030/90801/1390/13467/20/
043100/20121030/90802/1390/2000/20/
043100/20121030/90803/1380/2911/10/
043100/20121030/90803/1375/949/10/
043100/20121030/90825/1385/200/10/
043100/20121030/90830/1385/300/20/
043100/20121030/90831/1385/1800/20/
043100/20121030/90835/1385/215/20/
043100/20121030/90836/1385/3895/20/
043100/20121030/90852/1390/310/20/
043100/20121030/90855/1390/276/20/
043100/20121030/90900/1385/108/10/
043100/20121030/90905/1385/2921/10/
043100/20121030/90906/1385/100/20/
043100/20121030/90907/1385/172/20/
043100/20121030/90921/1385/11454/20/
043100/20121030/90921/1390/307/20/
043100/20121030/90930/1390/857/20/
043100/20121030/90934/1390/1042/20/
043100/20121030/90939/1390/138/20/
043100/20121030/90941/1390/8251/20/
043100/20121030/90942/1390/2336/10/
043100/20121030/90946/1390/511/10/
043100/20121030/90946/1390/751/20/
043100/20121030/90949/1390/1026/20/
043100/20121030/90958/1390/351/20/
043100/20121030/90958/1390/719/20/
043100/20121030/90959/1390/97/20/
043100/20121030/91000/1390/3124/20/
043100/20121030/91004/1395/15021/20/
043100/20121030/91005/1395/11215/20/
043100/20121030/91005/1400/46447/20/
043100/20121030/91010/1400/102/20/
043100/20121030/91011/1400/1390/20/
043100/20121030/91011/1400/610/10/
043100/20121030/91012/1400/440/20/
043100/20121030/91019/1400/5071/20/
043100/20121030/91019/1400/1527/20/
043100/20121030/91019/1405/3727/20/
043100/20121030/91026/1405/3435/20/
043100/20121030/91027/1405/201/20/
043100/20121030/91030/1400/300/10/
043100/20121030/91034/1405/82/20/
043100/20121030/91034/1405/1003/20/
043100/20121030/91036/1405/138/20/
043100/20121030/91037/1405/1002/20/
043100/20121030/91039/1405/16780/20/
043100/20121030/91039/1405/3614/20/
043100/20121030/91040/1405/700/20/
043100/20121030/91040/1410/2306/20/
043100/20121030/91040/1405/1359/10/
043100/20121030/91041/1405/347/10/
043100/20121030/91042/1410/261/20/
043100/20121030/91042/1405/3075/10/
043100/20121030/91043/1410/4400/20/
043100/20121030/91045/1410/83/20/
043100/20121030/91047/1410/86/20/
043100/20121030/91048/1410/1035/20/
043100/20121030/91049/1410/412/20/
043100/20121030/91050/1410/498/20/
043100/20121030/91051/1410/704/20/
043100/20121030/91052/1410/95/20/
043100/20121030/91052/1410/6333/20/
043100/20121030/91053/1410/135/20/
043100/20121030/91054/1410/1009/20/
043100/20121030/91055/1410/1024/20/
043100/20121030/91056/1405/1957/10/
043100/20121030/91059/1400/12828/10/
043100/20121030/91103/1400/85/20/
043100/20121030/91105/1400/110/20/
043100/20121030/91106/1400/3829/20/
043100/20121030/91108/1400/756/20/
043100/20121030/91110/1400/88/20/
043100/20121030/91110/1400/385/20/
043100/20121030/91110/1400/716/20/
043100/20121030/91110/1400/510/20/
043100/20121030/91110/1400/9002/20/
043100/20121030/91111/1400/728/20/
043100/20121030/91112/1400/1565/20/
043100/20121030/91112/1400/12243/20/
043100/20121030/91112/1400/5016/10/
043100/20121030/91114/1405/120/20/
043100/20121030/91114/1400/765/10/
043100/20121030/91115/1405/90/20/
043100/20121030/91115/1400/1004/10/
043100/20121030/91116/1405/1512/20/
043100/20121030/91117/1405/90/20/
043100/20121030/91119/1405/270/20/
043100/20121030/91120/1400/354/10/
043100/20121030/91121/1400/1382/10/
043100/20121030/91123/1400/654/20/
043100/20121030/91123/1400/1384/20/
043100/20121030/91125/1395/88/10/
043100/20121030/91127/1400/358/20/
043100/20121030/91128/1400/8177/20/
043100/20121030/91129/1400/1665/20/
043100/20121030/91130/1400/1006/20/
043100/20121030/91130/1400/1800/20/
043100/20121030/91131/1400/139/20/
043100/20121030/91132/1400/1141/20/
043100/20121030/91133/1400/2009/20/
043100/20121030/91135/1400/388/20/
043100/20121030/91135/1400/7764/20/
043100/20121030/91140/1400/400/10/
043100/20121030/91141/1405/1000/20/
043100/20121030/91146/1405/153/20/
043100/20121030/91147/1405/271/20/
043100/20121030/91147/1405/3980/20/
043100/20121030/91148/1405/140/20/
043100/20121030/91148/1405/236/20/
043100/20121030/91148/1405/14991/20/
043100/20121030/91149/1405/3571/20/
043100/20121030/91151/1405/5073/20/
043100/20121030/91152/1405/106/20/
043100/20121030/91152/1405/1910/20/
043100/20121030/91154/1405/1000/20/
043100/20121030/91156/1405/971/20/
043100/20121030/91156/1405/2786/20/
043100/20121030/91158/1400/157/10/
043100/20121030/91200/1405/200/20/
043100/20121030/91201/1405/537/20/
043100/20121030/91202/1405/100/20/
043100/20121030/91203/1405/400/20/
043100/20121030/91204/1405/500/20/
043100/20121030/91205/1405/9677/20/
043100/20121030/91211/1405/545/20/
043100/20121030/91211/1405/300/20/
043100/20121030/91214/1405/250/20/
043100/20121030/91214/1400/3800/10/
043100/20121030/91216/1405/866/20/
043100/20121030/91222/1405/550/20/
043100/20121030/91224/1405/500/20/
043100/20121030/91225/1405/17729/20/
043100/20121030/91225/1410/9580/20/
043100/20121030/91231/1410/2990/20/
043100/20121030/91235/1405/1024/10/
043100/20121030/91237/1405/9922/10/
043100/20121030/91241/1405/1975/20/
043100/20121030/91242/1410/937/20/
043100/20121030/91243/1405/519/10/
043100/20121030/91243/1405/20000/10/
043100/20121030/91245/1405/2214/10/
043100/20121030/91247/1405/101/20/
043100/20121030/91250/1405/1950/20/
043100/20121030/91256/1410/2598/20/
043100/20121030/91300/1410/1775/20/
043100/20121030/91303/1410/1078/20/
043100/20121030/91305/1410/1420/20/
043100/20121030/91306/1410/2554/20/
043100/20121030/91306/1410/101/20/
043100/20121030/91307/1410/726/20/
043100/20121030/91307/1410/326/20/
043100/20121030/91307/1410/1000/20/
043100/20121030/91311/1410/495/20/
043100/20121030/91313/1410/442/20/
043100/20121030/91315/1405/420/10/
043100/20121030/91317/1410/1000/20/
043100/20121030/91321/1410/100/20/
043100/20121030/91323/1410/5661/20/
043100/20121030/91323/1405/9677/10/
043100/20121030/91325/1405/1290/10/
043100/20121030/91325/1405/2000/10/
043100/20121030/91327/1410/100/20/
043100/20121030/91327/1405/200/10/
043100/20121030/91327/1405/1300/10/
043100/20121030/91327/1405/1262/10/
043100/20121030/91330/1405/3054/10/
043100/20121030/91332/1405/143/20/
043100/20121030/91332/1405/550/20/
043100/20121030/91334/1405/1688/20/
043100/20121030/91334/1405/312/10/
043100/20121030/91335/1405/100/20/
043100/20121030/91336/1405/533/20/
043100/20121030/91343/1400/158/10/
043100/20121030/91347/1400/1200/10/
043100/20121030/91348/1400/573/10/
043100/20121030/91348/1400/6513/10/
043100/20121030/91349/1400/781/10/
043100/20121030/91351/1400/1014/10/
043100/20121030/91354/1400/1023/10/
043100/20121030/91354/1400/4491/10/
043100/20121030/91358/1400/301/20/
043100/20121030/91400/1400/161/20/
043100/20121030/91401/1395/90/10/
043100/20121030/91401/1395/1000/10/
043100/20121030/91403/1395/300/10/
043100/20121030/91407/1395/300/10/
043100/20121030/91419/1400/276/20/
043100/20121030/91422/1400/1001/20/
043100/20121030/91426/1400/5000/20/
043100/20121030/91428/1400/2016/20/
043100/20121030/91428/1400/626/20/
043100/20121030/91430/1400/190/20/
043100/20121030/91430/1400/1500/20/
043100/20121030/91431/1400/110/20/
043100/20121030/91435/1395/1074/10/
043100/20121030/91439/1400/1000/20/
043100/20121030/91443/1395/101/10/
043100/20121030/91448/1395/4128/10/
043100/20121030/91452/1395/2500/10/
043100/20121030/91500/1395/226/10/
043100/20121030/91503/1400/200/20/
043100/20121030/91525/1395/215/10/
043100/20121030/91538/1395/302/10/
043100/20121030/91547/1400/5006/20/
043100/20121030/91549/1395/1402/10/
043100/20121030/91549/1395/5966/10/
043100/20121030/91553/1395/1264/20/
043100/20121030/91555/1395/2000/20/
043100/20121030/91557/1390/1000/10/
043100/20121030/91600/1395/100/20/
043100/20121030/91601/1395/714/20/
043100/20121030/91612/1395/1604/20/
043100/20121030/91612/1395/406/10/
043100/20121030/91621/1395/558/20/
043100/20121030/91622/1395/1330/20/
043100/20121030/91629/1395/101/20/
043100/20121030/91629/1395/2364/20/
043100/20121030/91632/1395/500/10/
043100/20121030/91653/1395/610/10/
043100/20121030/91655/1395/1640/10/
043100/20121030/91703/1390/211/10/
043100/20121030/91711/1390/550/10/
043100/20121030/91716/1390/300/10/
043100/20121030/91725/1390/1001/10/
043100/20121030/91732/1390/1700/10/
043100/20121030/91743/1395/1552/20/
043100/20121030/91745/1390/3000/10/
043100/20121030/91752/1390/945/10/
043100/20121030/91756/1395/1126/20/
043100/20121030/91801/1395/100/20/
043100/20121030/91807/1395/1000/20/
043100/20121030/91808/1395/1010/20/
043100/20121030/91808/1395/875/20/
043100/20121030/91824/1395/89/20/
043100/20121030/91829/1395/101/20/
043100/20121030/91832/1390/3360/10/
043100/20121030/91834/1395/8351/20/
043100/20121030/91835/1395/1400/20/
043100/20121030/91842/1390/1301/10/
043100/20121030/91849/1395/529/20/
043100/20121030/91853/1390/2000/10/
043100/20121030/91853/1395/3601/20/
043100/20121030/91854/1390/706/10/
043100/20121030/91856/1390/161/10/
043100/20121030/91858/1390/920/10/
043100/20121030/91858/1395/360/20/
043100/20121030/91906/1395/403/20/
043100/20121030/91908/1395/8000/20/
043100/20121030/91911/1395/176/20/
043100/20121030/91917/1395/281/20/
043100/20121030/91920/1395/1001/20/
043100/20121030/91929/1395/191/20/
043100/20121030/91941/1395/7195/20/
043100/20121030/91942/1395/100/20/
043100/20121030/91945/1390/1773/10/
043100/20121030/92010/1395/100/20/
043100/20121030/92016/1390/124/10/
043100/20121030/92025/1395/3932/20/
043100/20121030/92031/1395/111/20/
043100/20121030/92032/1395/11780/20/
043100/20121030/92036/1395/511/20/
043100/20121030/92037/1395/640/20/
043100/20121030/92038/1395/3618/20/
043100/20121030/92041/1395/1587/20/
043100/20121030/92042/1395/1000/20/
043100/20121030/92044/1395/5000/20/
043100/20121030/92046/1395/207/20/
043100/20121030/92048/1395/661/10/
043100/20121030/92109/1400/1541/20/
043100/20121030/92118/1400/228/20/
043100/20121030/92134/1395/12774/10/
043100/20121030/92146/1390/308/10/
043100/20121030/92152/1395/510/20/
043100/20121030/92214/1390/162/10/
043100/20121030/92240/1390/1020/10/
043100/20121030/92301/1390/1730/10/
043100/20121030/92303/1390/4005/10/
043100/20121030/92304/1390/6000/10/
043100/20121030/92305/1390/2255/10/
043100/20121030/92305/1390/875/10/
043100/20121030/92305/1390/270/10/
043100/20121030/92307/1390/2010/10/
043100/20121030/92307/1390/3984/10/
043100/20121030/92307/1390/5358/10/
043100/20121030/92308/1390/1959/10/
043100/20121030/92308/1390/6137/10/
043100/20121030/92309/1390/2000/10/
043100/20121030/92310/1390/1533/10/
043100/20121030/92312/1390/20014/10/
043100/20121030/92314/1390/107/10/
043100/20121030/92315/1390/647/10/
043100/20121030/92316/1390/4013/10/
043100/20121030/92316/1390/5000/10/
043100/20121030/92318/1390/5764/10/
043100/20121030/92319/1390/832/10/
043100/20121030/92320/1395/420/20/
043100/20121030/92321/1390/682/10/
043100/20121030/92321/1390/979/10/
043100/20121030/92333/1390/1013/20/
043100/20121030/92340/1385/2002/10/
043100/20121030/92342/1385/1418/10/
043100/20121030/92342/1385/1515/10/
043100/20121030/92350/1385/151/10/
043100/20121030/92359/1385/559/10/
043100/20121030/92403/1385/3560/10/
043100/20121030/92426/1385/168/20/
043100/20121030/92438/1385/758/20/
043100/20121030/92439/1385/220/10/
043100/20121030/92441/1385/255/20/
043100/20121030/92443/1385/1798/10/
043100/20121030/92443/1380/3204/10/
043100/20121030/92501/1385/374/10/
043100/20121030/92511/1385/200/10/
043100/20121030/92530/1385/910/10/
043100/20121030/92545/1385/1081/10/
043100/20121030/92547/1385/1863/10/
043100/20121030/92614/1385/331/20/
043100/20121030/92619/1385/149/20/
043100/20121030/92630/1385/497/20/
043100/20121030/92635/1385/1131/20/
043100/20121030/92635/1385/700/20/
043100/20121030/92638/1385/200/20/
043100/20121030/92638/1385/10000/20/
043100/20121030/92639/1385/336/20/
043100/20121030/92648/1385/228/10/
043100/20121030/92653/1385/937/10/
043100/20121030/92708/1385/5986/10/
043100/20121030/92720/1385/2060/20/
043100/20121030/92723/1385/601/20/
043100/20121030/92727/1385/102/20/
043100/20121030/92732/1385/2856/20/
043100/20121030/92733/1385/3453/20/
043100/20121030/92733/1385/202/20/
043100/20121030/92739/1385/1016/20/
043100/20121030/92742/1385/3107/20/
043100/20121030/92744/1385/313/10/
043100/20121030/92745/1385/1696/10/
043100/20121030/92754/1380/1245/10/
043100/20121030/92804/1385/111/20/
043100/20121030/92805/1385/3002/20/
043100/20121030/92811/1380/1305/10/
043100/20121030/92811/1380/1830/10/
043100/20121030/92839/1380/10414/10/
043100/20121030/92851/1380/10000/10/
043100/20121030/92851/1380/381/10/
043100/20121030/92852/1380/3450/10/
043100/20121030/92854/1380/1250/10/
043100/20121030/92902/1380/200/10/
043100/20121030/92906/1380/500/10/
043100/20121030/92908/1380/500/10/
043100/20121030/92909/1380/380/10/
043100/20121030/92912/1380/1000/10/
043100/20121030/92915/1380/1780/10/
043100/20121030/92918/1380/601/10/
043100/20121030/92928/1380/764/10/
043100/20121030/92949/1380/81/20/
043100/20121030/92951/1375/140/10/
043100/20121030/92953/1375/2503/10/
043100/20121030/93010/1380/108/20/
043100/20121030/93017/1375/435/10/
043100/20121030/93037/1375/1066/10/
043100/20121030/93052/1375/162/10/
043100/20121030/93056/1375/1001/10/
043100/20121030/93057/1375/2052/10/
043100/20121030/93059/1375/1279/10/
043100/20121030/93100/1375/10001/10/
043100/20121030/93101/1375/298/10/
043100/20121030/93104/1375/280/10/
043100/20121030/93104/1375/500/10/
043100/20121030/93106/1375/400/10/
043100/20121030/93106/1375/259/10/
043100/20121030/93108/1375/500/10/
043100/20121030/93128/1375/739/10/
043100/20121030/93138/1375/871/10/
043100/20121030/93147/1375/300/10/
043100/20121030/93151/1375/222/20/
043100/20121030/93154/1375/6595/20/
043100/20121030/93201/1375/3502/10/
043100/20121030/93257/1375/1070/10/
043100/20121030/93258/1375/173/10/
043100/20121030/93303/1375/300/10/
043100/20121030/93321/1380/103/20/
043100/20121030/93336/1375/215/10/
043100/20121030/93338/1380/553/20/
043100/20121030/93349/1375/10024/10/
043100/20121030/93356/1375/16921/10/
043100/20121030/93358/1375/160/10/
043100/20121030/93400/1375/194/10/
043100/20121030/93406/1375/313/20/
043100/20121030/93412/1370/106/10/
043100/20121030/93412/1370/7000/10/
043100/20121030/93412/1370/438/10/
043100/20121030/93412/1370/2000/10/
043100/20121030/93414/1370/1500/10/
043100/20121030/93415/1370/876/10/
043100/20121030/93415/1370/299/10/
043100/20121030/93415/1370/2593/10/
043100/20121030/93417/1370/1000/10/
043100/20121030/93422/1370/2634/10/
043100/20121030/93424/1370/500/20/
043100/20121030/93425/1370/2338/20/
043100/20121030/93425/1370/3223/20/
043100/20121030/93425/1370/8344/20/
043100/20121030/93432/1370/628/10/
043100/20121030/93439/1375/110/20/
043100/20121030/93500/1370/200/10/
043100/20121030/93502/1370/108/10/
043100/20121030/93504/1370/589/10/
043100/20121030/93509/1370/1000/20/
043100/20121030/93511/1370/908/20/
043100/20121030/93514/1365/1000/10/
043100/20121030/93518/1370/130/20/
043100/20121030/93529/1370/1000/10/
043100/20121030/93559/1375/501/20/
043100/20121030/93559/1375/3000/20/
043100/20121030/93603/1375/6034/20/
043100/20121030/93613/1375/140/10/
043100/20121030/93613/1375/685/10/
043100/20121030/93638/1380/1218/20/
043100/20121030/93639/1380/573/20/
043100/20121030/93654/1380/113/20/
043100/20121030/93715/1375/7428/10/
043100/20121030/93715/1370/3399/10/
043100/20121030/93720/1375/500/20/
043100/20121030/93725/1375/1685/20/
043100/20121030/93731/1375/100/20/
043100/20121030/93810/1370/804/10/
043100/20121030/93811/1370/6941/10/
043100/20121030/93812/1370/399/10/
043100/20121030/93819/1375/81/20/
043100/20121030/93845/1375/201/20/
043100/20121030/93849/1370/400/10/
043100/20121030/93855/1370/708/10/
043100/20121030/93900/1370/8150/10/
043100/20121030/93906/1370/2000/20/
043100/20121030/93908/1370/1636/20/
043100/20121030/93918/1375/1001/20/
043100/20121030/93940/1370/500/10/
043100/20121030/93958/1375/501/20/
043100/20121030/94005/1375/1000/20/
043100/20121030/94025/1375/226/20/
043100/20121030/94036/1375/3000/20/
043100/20121030/94055/1375/1422/20/
043100/20121030/94115/1375/653/20/
043100/20121030/94115/1380/374/20/
043100/20121030/94127/1370/140/10/
043100/20121030/94132/1370/501/10/
043100/20121030/94142/1380/137/20/
043100/20121030/94152/1370/157/10/
043100/20121030/94155/1370/87/10/
043100/20121030/94210/1375/519/10/
043100/20121030/94210/1370/181/10/
043100/20121030/94230/1375/221/10/
043100/20121030/94230/1370/7915/10/
043100/20121030/94242/1375/226/10/
043100/20121030/94305/1375/410/10/
043100/20121030/94311/1375/142/10/
043100/20121030/94340/1375/501/20/
043100/20121030/94400/1370/706/10/
043100/20121030/94416/1370/17848/10/
043100/20121030/94419/1375/200/20/
043100/20121030/94427/1370/301/10/
043100/20121030/94438/1370/100/20/
043100/20121030/94439/1370/2072/20/
043100/20121030/94459/1370/701/10/
043100/20121030/94501/1370/165/10/
043100/20121030/94508/1375/1189/20/
043100/20121030/94512/1375/1005/20/
043100/20121030/94518/1370/305/10/
043100/20121030/94522/1375/2834/20/
043100/20121030/94609/1375/121/10/
043100/20121030/94612/1375/803/10/
043100/20121030/94619/1375/300/10/
043100/20121030/94622/1375/2167/10/
043100/20121030/94728/1375/14396/20/
043100/20121030/94734/1375/103/20/
043100/20121030/94740/1375/175/20/
043100/20121030/94751/1375/88/20/
043100/20121030/94820/1380/267/20/
043100/20121030/94836/1380/120/20/
043100/20121030/94842/1375/920/10/
043100/20121030/94904/1375/2215/10/
043100/20121030/94912/1375/350/10/
043100/20121030/94919/1375/2510/10/
043100/20121030/94923/1375/1598/10/
043100/20121030/94924/1375/8800/10/
043100/20121030/94925/1375/210/10/
043100/20121030/95011/1380/144/20/
043100/20121030/95050/1375/881/10/
043100/20121030/95053/1375/1251/10/
043100/20121030/95144/1375/2703/10/
043100/20121030/95147/1375/85/10/
043100/20121030/95147/1375/6500/10/
043100/20121030/95205/1375/4567/10/
043100/20121030/95211/1375/3040/10/
043100/20121030/95217/1375/3041/10/
043100/20121030/95223/1375/1030/10/
043100/20121030/95253/1375/950/10/
043100/20121030/95301/1375/409/10/
043100/20121030/95310/1380/130/20/
043100/20121030/95311/1380/117/20/
043100/20121030/95313/1380/122/20/
043100/20121030/95314/1380/125/20/
043100/20121030/95316/1380/122/20/
043100/20121030/95317/1380/125/20/
043100/20121030/95318/1380/121/20/
043100/20121030/95319/1380/121/20/
043100/20121030/95322/1380/82/20/
043100/20121030/95325/1375/81/10/
043100/20121030/95326/1380/90/20/
043100/20121030/95329/1380/87/20/
043100/20121030/95332/1380/91/20/
043100/20121030/95332/1380/201/20/
043100/20121030/95335/1380/83/20/
043100/20121030/95338/1380/87/20/
043100/20121030/95342/1380/81/20/
043100/20121030/95344/1380/87/20/
043100/20121030/95349/1380/81/20/
043100/20121030/95353/1380/82/20/
043100/20121030/95357/1380/90/20/
043100/20121030/95358/1380/90/20/
043100/20121030/95359/1375/81/10/
043100/20121030/95400/1380/86/20/
043100/20121030/95402/1380/89/20/
043100/20121030/95403/1380/90/20/
043100/20121030/95404/1380/180/20/
043100/20121030/95405/1380/5436/20/
043100/20121030/95406/1380/5424/20/
043100/20121030/95406/1380/5000/20/
043100/20121030/95406/1380/6000/20/
043100/20121030/95406/1380/3000/20/
043100/20121030/95406/1380/2517/20/
043100/20121030/95408/1385/91/20/
043100/20121030/95410/1385/90/20/
043100/20121030/95410/1380/1012/10/
043100/20121030/95411/1385/89/20/
043100/20121030/95412/1385/378/20/
043100/20121030/95413/1385/81/20/
043100/20121030/95414/1385/86/20/
043100/20121030/95416/1380/81/10/
043100/20121030/95417/1385/90/20/
043100/20121030/95417/1385/1842/20/
043100/20121030/95418/1385/87/20/
043100/20121030/95419/1385/1423/20/
043100/20121030/95419/1385/252/20/
043100/20121030/95420/1385/1514/20/
043100/20121030/95420/1385/1504/20/
043100/20121030/95422/1385/89/20/
043100/20121030/95423/1385/81/20/
043100/20121030/95424/1385/1013/20/
043100/20121030/95424/1385/525/20/
043100/20121030/95425/1385/90/20/
043100/20121030/95426/1385/90/20/
043100/20121030/95427/1385/1685/20/
043100/20121030/95428/1385/89/20/
043100/20121030/95428/1385/5000/20/
043100/20121030/95428/1385/10012/20/
043100/20121030/95429/1385/496/20/
043100/20121030/95429/1385/1514/20/
043100/20121030/95429/1385/1012/20/
043100/20121030/95430/1385/103/20/
043100/20121030/95430/1385/1013/20/
043100/20121030/95431/1385/1699/20/
043100/20121030/95432/1385/5080/10/
043100/20121030/95433/1385/314/10/
043100/20121030/95434/1390/90/20/
043100/20121030/95435/1390/88/20/
043100/20121030/95436/1390/90/20/
043100/20121030/95438/1390/82/20/
043100/20121030/95438/1390/125/20/
043100/20121030/95440/1390/82/20/
043100/20121030/95441/1390/91/20/
043100/20121030/95443/1390/555/20/
043100/20121030/95444/1390/90/20/
043100/20121030/95445/1390/91/20/
043100/20121030/95447/1390/90/20/
043100/20121030/95447/1385/2869/10/
043100/20121030/95448/1390/4064/20/
043100/20121030/95448/1385/4627/10/
043100/20121030/95449/1385/1643/20/
043100/20121030/95450/1385/504/20/
043100/20121030/95451/1385/568/20/
043100/20121030/95452/1385/2065/20/
043100/20121030/95453/1385/90/20/
043100/20121030/95454/1385/2346/20/
043100/20121030/95455/1385/81/20/
043100/20121030/95455/1385/124/20/
043100/20121030/95456/1385/85/20/
043100/20121030/95456/1385/551/20/
043100/20121030/95458/1385/119/20/
043100/20121030/95458/1385/946/20/
043100/20121030/95500/1385/91/20/
043100/20121030/95500/1385/887/20/
043100/20121030/95501/1390/89/20/
043100/20121030/95501/1385/255/10/
043100/20121030/95503/1390/90/20/
043100/20121030/95503/1385/515/10/
043100/20121030/95504/1390/81/20/
043100/20121030/95506/1390/91/20/
043100/20121030/95507/1390/82/20/
043100/20121030/95509/1390/87/20/
043100/20121030/95510/1390/86/20/
043100/20121030/95510/1390/113/20/
043100/20121030/95510/1390/104/20/
043100/20121030/95513/1390/85/20/
043100/20121030/95517/1390/91/20/
043100/20121030/95519/1390/170/20/
043100/20121030/95521/1390/85/20/
043100/20121030/95523/1390/89/20/
043100/20121030/95525/1390/86/20/
043100/20121030/95527/1390/81/20/
043100/20121030/95531/1385/10053/10/
043100/20121030/95531/1385/9118/10/
043100/20121030/95534/1385/5062/20/
043100/20121030/95539/1385/86/20/
043100/20121030/95542/1385/82/20/
043100/20121030/95544/1385/89/20/
043100/20121030/95546/1385/164/20/
043100/20121030/95547/1385/83/20/
043100/20121030/95548/1385/83/20/
043100/20121030/95549/1385/83/20/
043100/20121030/95550/1385/5059/20/
043100/20121030/95557/1380/81/10/
043100/20121030/95605/1380/3254/10/
043100/20121030/95605/1380/573/10/
043100/20121030/95606/1380/9905/10/
043100/20121030/95609/1380/87/20/
043100/20121030/95611/1380/156/20/
043100/20121030/95613/1380/6586/20/
043100/20121030/95615/1385/91/20/
043100/20121030/95618/1380/279/10/
043100/20121030/95619/1380/230/10/
043100/20121030/95619/1380/299/20/
043100/20121030/95622/1385/81/20/
043100/20121030/95624/1380/269/10/
043100/20121030/95627/1385/91/20/
043100/20121030/95629/1385/81/20/
043100/20121030/95632/1385/81/20/
043100/20121030/95634/1380/242/10/
043100/20121030/95636/1385/144/20/
043100/20121030/95639/1380/81/10/
043100/20121030/95641/1385/81/20/
043100/20121030/95644/1385/84/20/
043100/20121030/95650/1385/82/20/
043100/20121030/95654/1385/87/20/
043100/20121030/95654/1385/509/20/
043100/20121030/95702/1385/85/20/
043100/20121030/95704/1385/771/20/
043100/20121030/95708/1385/86/20/
043100/20121030/95714/1385/83/20/
043100/20121030/95717/1385/2682/20/
043100/20121030/95719/1385/1529/20/
043100/20121030/95720/1385/297/20/
043100/20121030/95721/1385/578/20/
043100/20121030/95722/1385/2006/20/
043100/20121030/95725/1385/3015/20/
043100/20121030/95725/1385/152/20/
043100/20121030/95727/1385/4341/20/
043100/20121030/95728/1385/5034/20/
043100/20121030/95730/1385/5000/10/
043100/20121030/95741/1385/11514/10/
043100/20121030/95803/1380/1030/10/
043100/20121030/95803/1380/100/10/
043100/20121030/95818/1380/1000/10/
043100/20121030/95825/1380/1469/10/
043100/20121030/95833/1380/1501/10/
043100/20121030/95835/1380/4343/10/
043100/20121030/95837/1380/279/10/
043100/20121030/95855/1385/81/20/
043100/20121030/95906/1385/101/20/
043100/20121030/95908/1385/100/20/
043100/20121030/95954/1380/198/10/
043100/20121030/100000/1385/21463/20/
043100/20121030/100000/1390/1038/20/
043100/20121030/100001/1380/800/10/
043100/20121030/100036/1385/146/20/
043100/20121030/100039/1385/916/20/
043100/20121030/100043/1385/201/10/
043100/20121030/100046/1390/82/20/
043100/20121030/100050/1385/1515/20/
043100/20121030/100124/1385/101/20/
043100/20121030/100128/1385/500/20/
043100/20121030/100134/1380/5235/10/
043100/20121030/100210/1385/611/20/
043100/20121030/100229/1380/216/10/
043100/20121030/100241/1380/4036/10/
043100/20121030/100244/1385/100/20/
043100/20121030/100300/1380/406/10/
043100/20121030/100304/1385/500/20/
043100/20121030/100309/1380/2400/10/
043100/20121030/100314/1380/100/10/
043100/20121030/100328/1385/500/20/
043100/20121030/100329/1380/100/10/
043100/20121030/100335/1380/258/10/
043100/20121030/100335/1380/104/10/
043100/20121030/100344/1385/509/20/
043100/20121030/100344/1380/2887/10/
043100/20121030/100351/1380/101/10/
043100/20121030/100359/1385/501/20/
043100/20121030/100417/1380/600/10/
043100/20121030/100440/1385/1571/20/
043100/20121030/100440/1385/304/20/
043100/20121030/100514/1380/1578/10/
043100/20121030/100535/1385/91/20/
043100/20121030/100536/1385/100/20/
043100/20121030/100537/1380/1030/10/
043100/20121030/100600/1385/456/20/
043100/20121030/100611/1380/1800/10/
043100/20121030/100624/1380/300/10/
043100/20121030/100631/1380/3999/10/
043100/20121030/100648/1380/813/10/
043100/20121030/100654/1380/108/10/
043100/20121030/100657/1385/1006/20/
043100/20121030/100704/1385/303/20/
043100/20121030/100742/1385/201/20/
043100/20121030/100854/1385/100/20/
043100/20121030/100906/1385/93/20/
043100/20121030/100914/1380/1013/10/
043100/20121030/100918/1380/544/10/
043100/20121030/100928/1380/220/10/
043100/20121030/101001/1380/760/10/
043100/20121030/101006/1380/3190/10/
043100/20121030/101006/1380/810/20/
043100/20121030/101028/1380/1556/20/
043100/20121030/101103/1375/5024/10/
043100/20121030/101116/1375/22485/10/
043100/20121030/101226/1375/500/10/
043100/20121030/101250/1380/211/20/
043100/20121030/101257/1375/767/10/
043100/20121030/101326/1380/3931/20/
043100/20121030/101334/1380/3346/10/
043100/20121030/101350/1380/3001/10/
043100/20121030/101426/1385/203/20/
043100/20121030/101448/1380/293/10/
043100/20121030/101448/1380/302/10/
043100/20121030/101458/1380/1577/10/
043100/20121030/101500/1380/591/10/
043100/20121030/101504/1380/100/10/
043100/20121030/101510/1380/1201/10/
043100/20121030/101543/1385/1001/20/
043100/20121030/101546/1380/5000/10/
043100/20121030/101614/1385/143/20/
043100/20121030/101715/1380/2401/10/
043100/20121030/101717/1385/200/20/
043100/20121030/101737/1380/455/10/
043100/20121030/101751/1380/1454/10/
043100/20121030/101751/1375/878/10/
043100/20121030/101833/1375/1219/10/
043100/20121030/101834/1380/100/20/
043100/20121030/101904/1375/5524/10/
043100/20121030/101904/1375/173/10/
043100/20121030/101911/1375/334/10/
043100/20121030/101952/1375/10324/10/
043100/20121030/101952/1370/3010/10/
043100/20121030/102013/1375/522/20/
043100/20121030/102023/1375/1480/20/
043100/20121030/102045/1375/2415/10/
043100/20121030/102129/1375/282/10/
043100/20121030/102222/1375/1068/10/
043100/20121030/102243/1375/590/20/
043100/20121030/102245/1375/1862/20/
043100/20121030/102253/1375/234/20/
043100/20121030/102253/1375/1140/20/
043100/20121030/102312/1375/460/10/
043100/20121030/102319/1375/1584/10/
043100/20121030/102331/1375/115/20/
043100/20121030/102351/1375/886/20/
043100/20121030/102352/1370/230/10/
043100/20121030/102434/1370/111/10/
043100/20121030/102437/1375/3500/20/
043100/20121030/102503/1375/1021/10/
043100/20121030/102508/1375/110/20/
043100/20121030/102624/1375/1055/20/
043100/20121030/102628/1375/3860/20/
043100/20121030/102632/1375/434/20/
043100/20121030/103001/1375/1370/10/
043100/20121030/103036/1370/3080/10/
043100/20121030/103101/1370/100/10/
043100/20121030/103146/1370/234/10/
043100/20121030/103153/1370/800/10/
043100/20121030/103200/1370/222/10/
043100/20121030/103202/1370/30323/10/
043100/20121030/103203/1370/1000/10/
043100/20121030/103203/1370/11301/10/
043100/20121030/103216/1375/122/20/
043100/20121030/103253/1375/201/20/
043100/20121030/103318/1375/10001/20/
043100/20121030/103319/1375/1800/20/
043100/20121030/103321/1375/5000/20/
043100/20121030/103342/1375/120/20/
043100/20121030/103349/1375/200/20/
043100/20121030/103352/1370/1050/10/
043100/20121030/103437/1370/4512/10/
043100/20121030/103504/1370/6366/10/
043100/20121030/103615/1370/141/10/
043100/20121030/103645/1370/6680/10/
043100/20121030/103645/1370/267/10/
043100/20121030/103650/1370/700/10/
043100/20121030/103656/1370/2387/10/
043100/20121030/103710/1370/101/20/
043100/20121030/103714/1365/18994/10/
043100/20121030/103715/1370/953/20/
043100/20121030/103729/1365/102/10/
043100/20121030/103735/1365/5432/10/
043100/20121030/103737/1365/1500/10/
043100/20121030/103753/1365/4012/10/
043100/20121030/103829/1370/1027/20/
043100/20121030/103843/1370/93/20/
043100/20121030/103847/1370/100/20/
043100/20121030/103847/1370/7558/20/
043100/20121030/103905/1375/352/20/
043100/20121030/104013/1375/10016/20/
043100/20121030/104016/1375/3189/20/
043100/20121030/104017/1375/185/10/
043100/20121030/104023/1375/3686/10/
043100/20121030/104025/1375/2413/10/
043100/20121030/104107/1380/6605/20/
043100/20121030/104144/1380/2003/20/
043100/20121030/104227/1375/100/10/
043100/20121030/104304/1375/153/10/
043100/20121030/104404/1375/535/10/
043100/20121030/104418/1375/162/10/
043100/20121030/104433/1375/2625/10/
043100/20121030/104525/1375/1004/10/
043100/20121030/104531/1380/509/20/
043100/20121030/104605/1380/100/20/
043100/20121030/104611/1380/2581/20/
043100/20121030/104620/1375/242/10/
043100/20121030/104636/1375/508/10/
043100/20121030/104832/1375/7042/10/
043100/20121030/104842/1375/442/10/
043100/20121030/104858/1375/104/10/
043100/20121030/104947/1370/1187/10/
043100/20121030/105112/1375/355/20/
043100/20121030/105127/1375/3000/20/
043100/20121030/105235/1375/382/20/
043100/20121030/105426/1375/91/20/
043100/20121030/105446/1370/501/10/
043100/20121030/105546/1375/689/20/
043100/20121030/105556/1375/87/20/
043100/20121030/105624/1370/911/10/
043100/20121030/105629/1370/656/10/
043100/20121030/105648/1375/104/20/
043100/20121030/105739/1370/2552/10/
043100/20121030/105800/1370/778/10/
043100/20121030/105857/1375/215/20/
043100/20121030/110012/1370/81/10/
043100/20121030/110015/1370/15033/10/
043100/20121030/110016/1365/4300/10/
043100/20121030/110038/1365/190/10/
043100/20121030/110128/1365/5850/10/
043100/20121030/110130/1365/500/10/
043100/20121030/110132/1365/155/10/
043100/20121030/110132/1365/104/10/
043100/20121030/110132/1365/5040/10/
043100/20121030/110132/1360/14804/10/
043100/20121030/110133/1360/5559/10/
043100/20121030/110153/1365/120/20/
043100/20121030/110216/1365/121/20/
043100/20121030/110218/1365/301/20/
043100/20121030/110229/1365/105/20/
043100/20121030/110229/1365/100/20/
043100/20121030/110235/1365/110/20/
043100/20121030/110238/1365/112/20/
043100/20121030/110241/1365/3195/20/
043100/20121030/110242/1365/805/10/
043100/20121030/110245/1365/100/20/
043100/20121030/110250/1365/100/20/
043100/20121030/110251/1365/100/20/
043100/20121030/110256/1365/110/20/
043100/20121030/110340/1365/1234/20/
043100/20121030/110342/1365/200/20/
043100/20121030/110450/1365/240/20/
043100/20121030/110500/1360/1984/10/
043100/20121030/110523/1365/709/20/
043100/20121030/110538/1365/6489/20/
043100/20121030/110540/1365/235/10/
043100/20121030/110547/1365/507/10/
043100/20121030/110548/1370/200/20/
043100/20121030/110602/1365/2809/10/
043100/20121030/110606/1365/82/20/
043100/20121030/110609/1365/2179/20/
043100/20121030/110614/1365/1740/10/
043100/20121030/110621/1365/662/20/
043100/20121030/110622/1365/2709/20/
043100/20121030/110633/1365/594/10/
043100/20121030/110635/1365/4559/20/
043100/20121030/110640/1365/302/20/
043100/20121030/110647/1365/1001/10/
043100/20121030/110700/1365/501/20/
043100/20121030/110726/1365/1687/10/
043100/20121030/110838/1365/1514/10/
043100/20121030/110845/1365/500/10/
043100/20121030/110921/1365/131/10/
043100/20121030/110921/1365/500/10/
043100/20121030/111036/1365/820/10/
043100/20121030/111100/1365/2000/10/
043100/20121030/111102/1365/2634/10/
043100/20121030/111104/1365/157/10/
043100/20121030/111110/1365/820/10/
043100/20121030/111113/1365/1045/10/
043100/20121030/111330/1370/104/20/
043100/20121030/111353/1365/400/10/
043100/20121030/111356/1370/100/20/
043100/20121030/111457/1365/435/10/
043100/20121030/111457/1360/565/10/
043100/20121030/111458/1360/4780/10/
043100/20121030/111509/1360/1500/10/
043100/20121030/111516/1360/4733/10/
043100/20121030/111516/1360/2007/10/
043100/20121030/111520/1365/232/20/
043100/20121030/111639/1365/1003/10/
043100/20121030/111725/1370/104/20/
043100/20121030/111943/1365/96/10/
043100/20121030/112042/1365/155/10/
043100/20121030/112052/1365/1001/10/
043100/20121030/112140/1365/832/20/
043100/20121030/112312/1360/4781/10/
043100/20121030/112329/1360/1308/10/
043100/20121030/112409/1365/5126/20/
043100/20121030/112514/1365/1559/10/
043100/20121030/112718/1365/239/10/
043100/20121030/112859/1370/1002/20/
043100/20121030/112952/1365/163/10/
043100/20121030/113005/1370/504/20/
043100/20121030/113037/1365/5038/10/
043100/20121030/113037/1365/175/10/
043100/20121030/113049/1365/332/10/
043100/20121030/113121/1370/203/20/
043100/20121030/113127/1365/117/10/
043100/20121030/113145/1370/1001/20/
043100/20121030/113155/1365/352/10/
043100/20121030/113212/1370/1002/20/
043100/20121030/113337/1370/391/20/
043100/20121030/113459/1365/368/10/
043100/20121030/113513/1365/500/10/
043100/20121030/113620/1370/172/20/
043100/20121030/113706/1370/1028/20/
043100/20121030/113731/1365/228/10/
043100/20121030/113737/1370/104/20/
043100/20121030/113749/1370/114/20/
043100/20121030/113756/1370/100/20/
043100/20121030/113802/1370/108/20/
043100/20121030/113804/1370/4305/20/
043100/20121030/113805/1370/3003/20/
043100/20121030/113808/1370/3007/20/
043100/20121030/113808/1370/102/20/
043100/20121030/113810/1370/105/20/
043100/20121030/113814/1370/5139/20/
043100/20121030/113854/1375/269/20/
043100/20121030/113916/1375/226/20/
043100/20121030/114017/1375/164/20/
043100/20121030/114136/1370/111/10/
043100/20121030/114228/1370/126/20/
043100/20121030/114233/1370/151/20/
043100/20121030/114340/1365/7043/10/
043100/20121030/114347/1365/3609/10/
043100/20121030/114413/1360/100/10/
043100/20121030/114434/1365/4501/20/
043100/20121030/114437/1365/312/20/
043100/20121030/114437/1365/163/10/
043100/20121030/114618/1365/1527/10/
043100/20121030/114629/1365/904/20/
043100/20121030/114856/1370/101/20/
043100/20121030/114915/1370/100/20/
043100/20121030/115120/1370/304/20/
043100/20121030/115144/1370/400/20/
043100/20121030/115316/1370/406/20/
043100/20121030/115416/1365/200/10/
043100/20121030/115450/1365/13694/10/
043100/20121030/115515/1365/2900/20/
043100/20121030/115559/1365/188/20/
043100/20121030/115642/1360/2906/10/
043100/20121030/115718/1365/119/20/
043100/20121030/115739/1365/500/20/
043100/20121030/115747/1360/1500/10/
043100/20121030/115809/1365/501/20/
043100/20121030/115821/1360/4362/10/
043100/20121030/120002/1360/197/10/
043100/20121030/120050/1365/2895/20/
043100/20121030/120053/1365/88/20/
043100/20121030/120058/1360/1520/10/
043100/20121030/120219/1360/391/10/
043100/20121030/120324/1365/81/20/
043100/20121030/120347/1365/1001/20/
043100/20121030/120349/1365/800/20/
043100/20121030/120359/1365/111/20/
043100/20121030/120400/1365/829/20/
043100/20121030/120515/1365/777/20/
043100/20121030/120516/1365/100/20/
043100/20121030/120519/1365/2541/20/
043100/20121030/120520/1365/1660/10/
043100/20121030/120546/1365/201/20/
043100/20121030/120554/1365/105/20/
043100/20121030/120558/1365/100/20/
043100/20121030/120623/1365/2045/20/
043100/20121030/120902/1365/1780/10/
043100/20121030/121036/1365/1204/10/
043100/20121030/121111/1365/1001/10/
043100/20121030/121129/1370/4320/20/
043100/20121030/121143/1370/575/20/
043100/20121030/121157/1370/764/20/
043100/20121030/121357/1370/13156/20/
043100/20121030/121402/1375/81/20/
043100/20121030/121443/1375/1000/20/
043100/20121030/121627/1375/776/20/
043100/20121030/121637/1375/3000/20/
043100/20121030/121926/1370/3878/10/
043100/20121030/121944/1375/102/20/
043100/20121030/122041/1375/6233/20/
043100/20121030/122043/1375/168/10/
043100/20121030/122051/1375/2894/10/
043100/20121030/122124/1375/222/20/
043100/20121030/122228/1375/500/20/
043100/20121030/122232/1375/1000/20/
043100/20121030/122300/1375/100/20/
043100/20121030/122404/1370/5007/10/
043100/20121030/122411/1370/1000/10/
043100/20121030/122413/1370/10001/10/
043100/20121030/122413/1370/251/10/
043100/20121030/122414/1370/849/10/
043100/20121030/122417/1370/1700/10/
043100/20121030/122420/1370/328/10/
043100/20121030/122533/1365/1920/10/
043100/20121030/122639/1370/774/20/
043100/20121030/122642/1370/229/10/
043100/20121030/122731/1370/205/20/
043100/20121030/122906/1365/4409/10/
043100/20121030/122906/1360/14591/10/
043100/20121030/122926/1360/1204/10/
043100/20121030/122947/1360/198/10/
043100/20121030/123142/1360/85/10/
043100/20121030/123231/1365/1646/20/
043100/20121030/123433/1360/496/10/
043100/20121030/123458/1365/101/20/
043100/20121030/123531/1365/1001/20/
043100/20121030/123538/1365/3000/20/
043100/20121030/123549/1360/36164/10/
043100/20121030/123719/1360/2057/10/
043100/20121030/123730/1360/140/10/
043100/20121030/123730/1360/151/10/
043100/20121030/123733/1360/1000/10/
043100/20121030/123745/1355/3000/10/
043100/20121030/123746/1355/3000/10/
043100/20121030/123806/1355/221/10/
043100/20121030/123834/1355/3404/10/
043100/20121030/123840/1355/1010/10/
043100/20121030/124013/1355/10149/10/
043100/20121030/124034/1355/11031/10/
043100/20121030/124108/1360/620/20/
043100/20121030/124112/1355/3001/10/
043100/20121030/124112/1355/531/10/
043100/20121030/124112/1355/3000/10/
043100/20121030/124114/1360/180/20/
043100/20121030/124117/1355/3541/10/
043100/20121030/124122/1350/164/10/
043100/20121030/124123/1350/3000/10/
043100/20121030/124144/1355/100/20/
043100/20121030/124145/1350/18000/10/
043100/20121030/124148/1350/2051/10/
043100/20121030/124157/1355/140/20/
043100/20121030/124203/1355/100/20/
043100/20121030/124208/1355/100/20/
043100/20121030/124228/1355/7003/20/
043100/20121030/124229/1355/500/20/
043100/20121030/124233/1355/156/20/
043100/20121030/124236/1355/361/10/
043100/20121030/124248/1355/130/20/
043100/20121030/124250/1355/1500/20/
043100/20121030/124251/1350/400/10/
043100/20121030/124308/1355/1670/20/
043100/20121030/124328/1355/97/10/
043100/20121030/124334/1355/263/10/
043100/20121030/124353/1355/1148/20/
043100/20121030/124412/1350/3019/10/
043100/20121030/124414/1350/1000/10/
043100/20121030/124422/1350/1018/10/
043100/20121030/124430/1350/5012/10/
043100/20121030/124442/1350/81/10/
043100/20121030/124505/1355/141/20/
043100/20121030/124532/1350/39653/10/
043100/20121030/124532/1345/3477/10/
043100/20121030/124537/1345/4227/10/
043100/20121030/124551/1345/5062/10/
043100/20121030/124605/1345/1643/10/
043100/20121030/124605/1350/1000/20/
043100/20121030/124611/1350/1002/20/
043100/20121030/124618/1350/1003/20/
043100/20121030/124618/1350/4498/20/
043100/20121030/124619/1350/1002/10/
043100/20121030/124636/1350/5243/20/
043100/20121030/124708/1350/149/10/
043100/20121030/124710/1350/1400/10/
043100/20121030/124710/1355/1400/20/
043100/20121030/124722/1355/10977/20/
043100/20121030/124722/1360/13582/20/
043100/20121030/124741/1360/1666/10/
043100/20121030/124741/1350/1340/10/
043100/20121030/124859/1350/1072/10/
043100/20121030/124908/1350/3200/10/
043100/20121030/124924/1350/85/10/
043100/20121030/125052/1355/637/20/
043100/20121030/125105/1355/139/20/
043100/20121030/125137/1355/209/20/
043100/20121030/125228/1350/1010/10/
043100/20121030/125229/1350/5001/10/
043100/20121030/125231/1350/1616/10/
043100/20121030/125239/1350/1001/20/
043100/20121030/125247/1350/421/20/
043100/20121030/125250/1350/500/20/
043100/20121030/125253/1350/253/10/
043100/20121030/125355/1350/1828/10/
043100/20121030/125435/1355/2206/20/
043100/20121030/125516/1350/206/10/
043100/20121030/125517/1350/5001/10/
043100/20121030/125523/1355/5377/20/
043100/20121030/125537/1350/6718/10/
043100/20121030/125548/1350/102/20/
043100/20121030/125549/1350/182/20/
043100/20121030/125551/1350/160/10/
043100/20121030/125552/1350/500/10/
043100/20121030/125556/1350/160/10/
043100/20121030/125559/1350/101/20/
043100/20121030/125634/1350/126/20/
043100/20121030/125643/1350/102/20/
043100/20121030/125646/1350/5925/20/
043100/20121030/125702/1350/179/20/
043100/20121030/125720/1350/197/20/
043100/20121030/125723/1350/200/20/
043100/20121030/125755/1350/3412/20/
043100/20121030/125802/1350/1561/10/
043100/20121030/125827/1350/109/20/
043100/20121030/125830/1350/1932/20/
043100/20121030/125838/1350/92/20/
043100/20121030/125845/1350/1008/20/
043100/20121030/125848/1350/528/20/
043100/20121030/125848/1350/644/10/
043100/20121030/125901/1350/1174/10/
043100/20121030/125950/1345/1481/10/
043100/20121030/130022/1345/103/10/
043100/20121030/130029/1345/360/10/
043100/20121030/130035/1345/460/10/
043100/20121030/130105/1345/36003/10/
043100/20121030/130107/1345/10000/10/
043100/20121030/130110/1345/648/10/
043100/20121030/130110/1345/9000/10/
043100/20121030/130111/1345/3000/10/
043100/20121030/130111/1345/3395/10/
043100/20121030/130113/1340/5001/10/
043100/20121030/130113/1340/1300/10/
043100/20121030/130115/1340/4000/10/
043100/20121030/130129/1340/5001/10/
043100/20121030/130130/1340/11200/10/
043100/20121030/130131/1340/24562/10/
043100/20121030/130139/1335/4000/10/
043100/20121030/130148/1335/312/10/
043100/20121030/130152/1335/138/10/
043100/20121030/130159/1335/351/10/
043100/20121030/130204/1335/5000/10/
043100/20121030/130205/1335/15000/10/
043100/20121030/130206/1335/127/10/
043100/20121030/130208/1335/1130/10/
043100/20121030/130209/1335/1072/10/
043100/20121030/130210/1330/217/10/
043100/20121030/130210/1330/1000/10/
043100/20121030/130212/1335/1050/20/
043100/20121030/130213/1335/798/20/
043100/20121030/130218/1335/2161/10/
043100/20121030/130259/1340/2531/20/
043100/20121030/130424/1345/1041/20/
043100/20121030/130506/1340/4694/10/
043100/20121030/130506/1335/7865/10/
043100/20121030/130534/1335/201/10/
043100/20121030/130546/1340/201/20/
043100/20121030/130600/1335/6167/10/
043100/20121030/130604/1335/1457/10/
043100/20121030/130604/1330/543/10/
043100/20121030/130610/1335/645/20/
043100/20121030/130613/1335/1356/10/
043100/20121030/130626/1330/3759/10/
043100/20121030/130627/1330/18137/10/
043100/20121030/130632/1330/1114/10/
043100/20121030/130637/1330/9015/10/
043100/20121030/130642/1330/6948/10/
043100/20121030/130642/1330/5022/10/
043100/20121030/130644/1330/1004/10/
043100/20121030/130646/1330/108/10/
043100/20121030/130652/1330/514/10/
043100/20121030/130702/1335/81/20/
043100/20121030/130703/1330/1617/10/
043100/20121030/130703/1330/7880/10/
043100/20121030/130709/1325/1018/10/
043100/20121030/130713/1325/216/10/
043100/20121030/130713/1325/2240/10/
043100/20121030/130714/1325/1441/10/
043100/20121030/130721/1325/4461/10/
043100/20121030/130724/1320/10010/10/
043100/20121030/130728/1320/507/10/
043100/20121030/130736/1320/1000/10/
043100/20121030/130740/1325/101/20/
043100/20121030/130743/1325/3745/20/
043100/20121030/130746/1325/1880/20/
043100/20121030/130748/1325/2927/20/
043100/20121030/130751/1330/503/20/
043100/20121030/130751/1330/100/20/
043100/20121030/130813/1330/133/20/
043100/20121030/130827/1325/1500/10/
043100/20121030/130831/1325/9467/10/
043100/20121030/130903/1325/1627/20/
043100/20121030/130905/1320/929/10/
043100/20121030/130907/1325/5000/20/
043100/20121030/130908/1325/922/20/
043100/20121030/130917/1325/2030/20/
043100/20121030/130918/1325/200/20/
043100/20121030/130918/1325/302/20/
043100/20121030/130918/1325/100/20/
043100/20121030/130918/1325/5848/20/
043100/20121030/130919/1330/120/20/
043100/20121030/130938/1325/251/10/
043100/20121030/130944/1325/1143/10/
043100/20121030/131041/1330/262/20/
043100/20121030/131042/1325/1500/10/
043100/20121030/131120/1325/2395/10/
043100/20121030/131126/1325/709/10/
043100/20121030/131132/1325/2015/10/
043100/20121030/131137/1325/283/10/
043100/20121030/131143/1330/502/20/
043100/20121030/131158/1325/4531/10/
043100/20121030/131159/1330/1001/20/
043100/20121030/131220/1325/5841/10/
043100/20121030/131221/1325/153/10/
043100/20121030/131252/1325/1060/10/
043100/20121030/131254/1325/1411/10/
043100/20121030/131300/1325/5017/10/
043100/20121030/131308/1325/1013/10/
043100/20121030/131311/1325/109/10/
043100/20121030/131350/1330/278/20/
043100/20121030/131417/1330/834/20/
043100/20121030/131426/1330/10687/20/
043100/20121030/131442/1335/1007/20/
043100/20121030/131502/1335/969/20/
043100/20121030/131513/1335/822/20/
043100/20121030/131518/1335/85/20/
043100/20121030/131530/1335/4013/20/
043100/20121030/131534/1335/1861/20/
043100/20121030/131551/1340/104/20/
043100/20121030/131608/1335/1889/10/
043100/20121030/131610/1335/1234/10/
043100/20121030/131610/1330/4458/10/
043100/20121030/131708/1335/3051/20/
043100/20121030/131717/1335/3887/20/
043100/20121030/131746/1340/4366/20/
043100/20121030/131750/1340/201/10/
043100/20121030/131803/1340/2001/10/
043100/20121030/131809/1340/100/10/
043100/20121030/131828/1340/922/10/
043100/20121030/131835/1340/137/20/
043100/20121030/131837/1335/200/10/
043100/20121030/131928/1335/442/10/
043100/20121030/131941/1335/1006/10/
043100/20121030/132026/1335/1164/10/
043100/20121030/132126/1335/6427/10/
043100/20121030/132131/1330/12000/10/
043100/20121030/132137/1330/3442/10/
043100/20121030/132207/1325/10001/10/
043100/20121030/132215/1330/101/20/
043100/20121030/132222/1325/393/10/
043100/20121030/132228/1325/292/20/
043100/20121030/132229/1325/744/10/
043100/20121030/132229/1320/4256/10/
043100/20121030/132233/1330/101/20/
043100/20121030/132242/1330/100/20/
043100/20121030/132328/1320/150/10/
043100/20121030/132339/1330/101/20/
043100/20121030/132449/1325/286/10/
043100/20121030/132455/1325/320/10/
043100/20121030/132455/1320/8619/10/
043100/20121030/132455/1315/1061/10/
043100/20121030/132501/1330/702/20/
043100/20121030/132502/1325/2833/10/
043100/20121030/132521/1325/4411/10/
043100/20121030/132528/1325/490/10/
043100/20121030/132529/1325/400/10/
043100/20121030/132535/1325/169/10/
043100/20121030/132535/1320/1053/10/
043100/20121030/132535/1315/8779/10/
043100/20121030/132543/1315/12362/10/
043100/20121030/132543/1315/1662/20/
043100/20121030/132638/1320/1058/20/
043100/20121030/132640/1315/6300/10/
043100/20121030/132643/1310/3001/10/
043100/20121030/132644/1315/1000/20/
043100/20121030/132646/1315/1002/20/
043100/20121030/132702/1310/95/10/
043100/20121030/132708/1315/1533/20/
043100/20121030/132711/1315/127/20/
043100/20121030/132713/1315/733/20/
043100/20121030/132714/1315/290/10/
043100/20121030/132715/1310/2010/10/
043100/20121030/132715/1315/210/20/
043100/20121030/132717/1315/2000/10/
043100/20121030/132718/1315/1001/10/
043100/20121030/132721/1315/203/20/
043100/20121030/132731/1310/148/10/
043100/20121030/132732/1310/1518/10/
043100/20121030/132736/1310/200/10/
043100/20121030/132739/1310/418/10/
043100/20121030/132744/1315/322/20/
043100/20121030/132744/1310/88/10/
043100/20121030/132752/1315/5001/20/
043100/20121030/132759/1315/89/20/
043100/20121030/132800/1315/655/20/
043100/20121030/132816/1315/2156/10/
043100/20121030/132824/1320/502/20/
043100/20121030/132825/1320/200/20/
043100/20121030/132841/1320/103/20/
043100/20121030/132847/1320/81/20/
043100/20121030/132850/1315/1000/10/
043100/20121030/132903/1320/5740/20/
043100/20121030/132911/1325/201/20/
043100/20121030/132919/1320/1761/10/
043100/20121030/132921/1320/1196/10/
043100/20121030/132922/1320/500/10/
043100/20121030/132922/1320/893/10/
043100/20121030/132924/1320/102/20/
043100/20121030/132927/1320/303/20/
043100/20121030/132932/1320/169/20/
043100/20121030/132936/1320/893/20/
043100/20121030/132939/1320/4131/10/
043100/20121030/133002/1315/12973/10/
043100/20121030/133002/1310/11770/10/
043100/20121030/133018/1315/533/20/
043100/20121030/133025/1315/171/20/
043100/20121030/133026/1315/99/20/
043100/20121030/133032/1320/6759/20/
043100/20121030/133032/1325/2243/20/
043100/20121030/133049/1320/770/10/
043100/20121030/133100/1320/84/10/
043100/20121030/133105/1320/644/10/
043100/20121030/133105/1315/4756/10/
043100/20121030/133149/1320/1279/10/
043100/20121030/133207/1320/1017/20/
043100/20121030/133209/1320/372/20/
043100/20121030/133214/1320/502/20/
043100/20121030/133222/1320/102/20/
043100/20121030/133232/1315/13625/10/
043100/20121030/133237/1310/801/10/
043100/20121030/133244/1315/1028/20/
043100/20121030/133255/1320/84/20/
043100/20121030/133315/1320/3078/20/
043100/20121030/133344/1325/6508/20/
043100/20121030/133401/1325/1001/10/
043100/20121030/133404/1325/1430/10/
043100/20121030/133517/1330/82/20/
043100/20121030/133537/1330/123/20/
043100/20121030/133611/1325/235/10/
043100/20121030/133752/1330/214/20/
043100/20121030/133829/1330/1019/20/
043100/20121030/133833/1325/3172/10/
043100/20121030/133947/1330/2537/20/
043100/20121030/133952/1330/146/20/
043100/20121030/133959/1330/731/20/
043100/20121030/134016/1330/359/20/
043100/20121030/134031/1330/778/20/
043100/20121030/134033/1330/1502/20/
043100/20121030/134034/1330/505/10/
043100/20121030/134037/1330/495/10/
043100/20121030/134116/1325/208/10/
043100/20121030/134248/1325/3678/10/
043100/20121030/134254/1325/1077/10/
043100/20121030/134256/1325/1696/10/
043100/20121030/134346/1330/769/20/
043100/20121030/134354/1330/655/20/
043100/20121030/134359/1325/1910/10/
043100/20121030/134405/1325/4675/10/
043100/20121030/134430/1320/510/10/
043100/20121030/134535/1325/410/20/
043100/20121030/134711/1325/84/20/
043100/20121030/134748/1325/184/20/
043100/20121030/134802/1320/8152/10/
043100/20121030/134827/1320/868/10/
043100/20121030/134827/1315/12468/10/
043100/20121030/134834/1315/2000/10/
043100/20121030/134850/1320/464/20/
043100/20121030/134856/1320/500/20/
043100/20121030/134912/1320/500/20/
043100/20121030/134949/1325/2539/20/
043100/20121030/134952/1330/4001/20/
043100/20121030/135029/1325/8551/10/
043100/20121030/135035/1320/4876/10/
043100/20121030/135049/1325/101/20/
043100/20121030/135057/1325/3096/20/
043100/20121030/135103/1330/101/20/
043100/20121030/135111/1325/700/10/
043100/20121030/135121/1330/147/20/
043100/20121030/135122/1330/106/20/
043100/20121030/135126/1330/100/20/
043100/20121030/135140/1330/118/20/
043100/20121030/135143/1325/2002/10/
043100/20121030/135152/1330/100/20/
043100/20121030/135221/1330/123/20/
043100/20121030/135233/1325/1001/10/
043100/20121030/135334/1330/1093/20/
043100/20121030/135335/1330/100/20/
043100/20121030/135352/1330/300/20/
043100/20121030/135445/1330/2061/20/
043100/20121030/135541/1330/423/20/
043100/20121030/135603/1330/819/20/
043100/20121030/135630/1330/200/20/
043100/20121030/135704/1325/10239/10/
043100/20121030/135704/1320/5661/10/
043100/20121030/135704/1315/18234/10/
043100/20121030/135704/1310/26459/10/
043100/20121030/135738/1320/2031/20/
043100/20121030/135816/1320/6213/10/
043100/20121030/135843/1320/777/10/
043100/20121030/135851/1320/91/10/
043100/20121030/135855/1320/1025/10/
043100/20121030/135858/1320/966/10/
043100/20121030/135928/1320/3001/10/
043100/20121030/135951/1320/501/10/
043100/20121030/135955/1320/2633/10/
043100/20121030/135957/1320/201/10/
043100/20121030/135958/1320/500/10/
043100/20121030/140259/1325/1225/20/
043100/20121030/140422/1325/312/20/
043100/20121030/140506/1320/6064/10/
043100/20121030/140506/1315/4936/10/
043100/20121030/140658/1320/1728/20/
043100/20121030/140708/1320/400/20/
043100/20121030/140717/1320/905/20/
043100/20121030/140722/1320/98/10/
043100/20121030/140724/1320/262/20/
043100/20121030/140729/1320/2000/20/
043100/20121030/140731/1320/640/10/
043100/20121030/140735/1320/366/10/
043100/20121030/140753/1320/1071/20/
043100/20121030/140832/1320/103/20/
043100/20121030/140846/1320/1000/20/
043100/20121030/140912/1315/954/10/
043100/20121030/140916/1315/9000/10/
043100/20121030/140920/1315/6488/10/
043100/20121030/140923/1315/107/20/
043100/20121030/140930/1315/100/20/
043100/20121030/140930/1315/100/20/
043100/20121030/140933/1315/144/20/
043100/20121030/140933/1310/500/10/
043100/20121030/140941/1315/81/20/
043100/20121030/140942/1315/646/20/
043100/20121030/140948/1315/539/20/
043100/20121030/140948/1315/9218/20/
043100/20121030/140951/1315/804/10/
043100/20121030/141005/1315/160/10/
043100/20121030/141025/1315/700/10/
043100/20121030/141027/1315/3001/10/
043100/20121030/141030/1315/7007/10/
043100/20121030/141038/1315/576/10/
043100/20121030/141046/1315/1000/10/
043100/20121030/141107/1315/4950/10/
043100/20121030/141130/1315/101/20/
043100/20121030/141136/1315/100/20/
043100/20121030/141136/1315/4850/20/
043100/20121030/141145/1315/583/10/
043100/20121030/141145/1315/5679/20/
043100/20121030/141154/1310/4849/10/
043100/20121030/141214/1315/133/20/
043100/20121030/141222/1310/380/10/
043100/20121030/141226/1315/133/20/
043100/20121030/141227/1315/5000/20/
043100/20121030/141228/1315/137/20/
043100/20121030/141229/1315/133/20/
043100/20121030/141232/1315/1237/20/
043100/20121030/141233/1315/5570/20/
043100/20121030/141233/1315/2290/20/
043100/20121030/141233/1315/133/20/
043100/20121030/141233/1315/133/20/
043100/20121030/141234/1315/133/20/
043100/20121030/141235/1315/1215/20/
043100/20121030/141250/1320/90/20/
043100/20121030/141310/1320/266/20/
043100/20121030/141319/1320/1236/20/
043100/20121030/141320/1320/500/20/
043100/20121030/141339/1320/310/20/
043100/20121030/141340/1320/110/20/
043100/20121030/141352/1320/134/20/
043100/20121030/141353/1320/1000/20/
043100/20121030/141402/1320/104/20/
043100/20121030/141421/1320/108/20/
043100/20121030/141437/1320/678/20/
043100/20121030/141456/1320/104/20/
043100/20121030/141456/1320/981/20/
043100/20121030/141520/1320/306/20/
043100/20121030/141532/1320/2027/20/
043100/20121030/141533/1320/1282/10/
043100/20121030/141534/1320/601/10/
043100/20121030/141536/1320/407/20/
043100/20121030/141539/1320/272/20/
043100/20121030/141623/1325/1462/20/
043100/20121030/141626/1320/1344/10/
043100/20121030/141653/1320/3496/10/
043100/20121030/141731/1320/5047/10/
043100/20121030/141733/1320/1237/10/
043100/20121030/141734/1320/1575/10/
043100/20121030/141738/1320/267/20/
043100/20121030/141801/1320/6024/10/
043100/20121030/141804/1320/230/20/
043100/20121030/141818/1320/1888/20/
043100/20121030/141818/1320/300/20/
043100/20121030/141822/1320/402/20/
043100/20121030/141823/1320/162/20/
043100/20121030/141826/1320/5003/10/
043100/20121030/141826/1320/2237/10/
043100/20121030/141827/1320/2638/20/
043100/20121030/141847/1325/1829/20/
043100/20121030/141848/1325/151/20/
043100/20121030/141852/1325/16325/20/
043100/20121030/141854/1325/937/10/
043100/20121030/141904/1325/1796/10/
043100/20121030/141910/1320/8430/10/
043100/20121030/141916/1320/986/20/
043100/20121030/141918/1320/804/20/
043100/20121030/141919/1320/118/20/
043100/20121030/141921/1320/625/20/
043100/20121030/141922/1320/469/20/
043100/20121030/141925/1320/182/20/
043100/20121030/141947/1320/1018/10/
043100/20121030/142003/1320/574/20/
043100/20121030/142003/1320/727/20/
043100/20121030/142021/1325/101/20/
043100/20121030/142042/1320/8500/10/
043100/20121030/142043/1320/400/10/
043100/20121030/142044/1320/701/10/
043100/20121030/142048/1325/5000/20/
043100/20121030/142109/1325/7010/20/
043100/20121030/142117/1325/1399/10/
043100/20121030/142129/1325/232/20/
043100/20121030/142132/1325/3390/20/
043100/20121030/142137/1325/1591/10/
043100/20121030/142147/1325/335/20/
043100/20121030/142213/1325/1677/10/
043100/20121030/142215/1325/392/20/
043100/20121030/142215/1330/1114/20/
043100/20121030/142226/1325/7503/20/
043100/20121030/142227/1325/500/20/
043100/20121030/142227/1330/4542/20/
043100/20121030/142301/1330/5079/20/
043100/20121030/142301/1330/300/20/
043100/20121030/142302/1330/12000/20/
043100/20121030/142302/1330/989/20/
043100/20121030/142302/1330/144/20/
043100/20121030/142302/1330/6000/20/
043100/20121030/142302/1330/3759/20/
043100/20121030/142302/1330/502/20/
043100/20121030/142303/1330/5075/20/
043100/20121030/142303/1330/2255/20/
043100/20121030/142303/1330/3759/20/
043100/20121030/142303/1330/387/20/
043100/20121030/142303/1330/5075/20/
043100/20121030/142303/1330/1606/20/
043100/20121030/142305/1325/3071/10/
043100/20121030/142305/1320/1930/10/
043100/20121030/142318/1335/1685/20/
043100/20121030/142318/1335/200/20/
043100/20121030/142319/1335/11844/20/
043100/20121030/142322/1340/10880/20/
043100/20121030/142323/1340/100/10/
043100/20121030/142324/1340/6000/10/
043100/20121030/142324/1340/2151/10/
043100/20121030/142325/1340/102/10/
043100/20121030/142325/1340/2151/10/
043100/20121030/142325/1340/1500/10/
043100/20121030/142326/1340/210/20/
043100/20121030/142327/1340/3001/20/
043100/20121030/142329/1340/206/20/
043100/20121030/142332/1340/6023/20/
043100/20121030/142336/1345/1039/20/
043100/20121030/142339/1345/6566/20/
043100/20121030/142339/1345/2143/20/
043100/20121030/142339/1345/979/20/
043100/20121030/142340/1345/10001/20/
043100/20121030/142344/1345/3900/20/
043100/20121030/142345/1345/100/20/
043100/20121030/142347/1340/144/10/
043100/20121030/142348/1345/883/20/
043100/20121030/142350/1345/1000/20/
043100/20121030/142352/1340/11118/10/
043100/20121030/142353/1340/569/20/
043100/20121030/142357/1340/120/20/
043100/20121030/142359/1340/2000/20/
043100/20121030/142404/1340/6451/20/
043100/20121030/142428/1345/1008/20/
043100/20121030/142430/1345/15344/20/
043100/20121030/142430/1350/656/20/
043100/20121030/142433/1350/1885/20/
043100/20121030/142450/1345/113/20/
043100/20121030/142451/1345/476/20/
043100/20121030/142459/1340/101/10/
043100/20121030/142500/1340/1000/10/
043100/20121030/142501/1340/2000/10/
043100/20121030/142502/1340/2776/10/
043100/20121030/142503/1340/638/10/
043100/20121030/142505/1340/1885/10/
043100/20121030/142505/1345/502/20/
043100/20121030/142506/1340/1309/10/
043100/20121030/142507/1340/1964/10/
043100/20121030/142507/1340/1265/20/
043100/20121030/142508/1340/224/10/
043100/20121030/142509/1340/101/20/
043100/20121030/142514/1340/698/20/
043100/20121030/142514/1345/4130/20/
043100/20121030/142515/1345/172/10/
043100/20121030/142516/1340/828/20/
043100/20121030/142528/1345/1041/10/
043100/20121030/142530/1345/1073/10/
043100/20121030/142531/1345/82/10/
043100/20121030/142535/1350/649/20/
043100/20121030/142546/1340/8661/10/
043100/20121030/142548/1340/262/10/
043100/20121030/142549/1340/5001/10/
043100/20121030/142551/1340/500/10/
043100/20121030/142556/1340/830/10/
043100/20121030/142600/1340/2164/20/
043100/20121030/142601/1340/336/10/
043100/20121030/142601/1335/2164/10/
043100/20121030/142638/1335/7038/10/
043100/20121030/142639/1335/1000/20/
043100/20121030/142650/1335/14836/20/
043100/20121030/142700/1340/1001/20/
043100/20121030/142704/1340/647/20/
043100/20121030/142715/1345/554/20/
043100/20121030/142739/1345/1075/20/
043100/20121030/142741/1345/5103/20/
043100/20121030/142743/1345/304/20/
043100/20121030/142745/1345/764/20/
043100/20121030/142748/1350/502/20/
043100/20121030/142752/1350/4219/20/
043100/20121030/142753/1350/3000/20/
043100/20121030/142753/1350/29779/20/
043100/20121030/142753/1355/33527/20/
043100/20121030/142756/1360/11604/20/
043100/20121030/142807/1365/110/20/
043100/20121030/142807/1360/7000/10/
043100/20121030/142809/1365/1074/20/
043100/20121030/142811/1365/358/20/
043100/20121030/142814/1365/3200/20/
043100/20121030/142814/1360/2000/10/
043100/20121030/142814/1360/96/10/
043100/20121030/142817/1360/188/10/
043100/20121030/142817/1360/100/20/
043100/20121030/142820/1360/1265/20/
043100/20121030/142825/1360/3315/20/
043100/20121030/142832/1360/235/20/
043100/20121030/142833/1360/591/20/
043100/20121030/142835/1360/3089/10/
043100/20121030/142835/1360/1000/20/
043100/20121030/142838/1360/1000/20/
043100/20121030/142840/1360/1000/20/
043100/20121030/142841/1360/3265/20/
043100/20121030/142841/1360/10800/20/
043100/20121030/142842/1365/3265/20/
043100/20121030/142845/1365/19014/20/
043100/20121030/142850/1365/3265/20/
043100/20121030/142851/1365/1002/20/
043100/20121030/142852/1360/266/10/
043100/20121030/142855/1365/695/20/
043100/20121030/142856/1365/3003/20/
043100/20121030/142856/1365/2001/20/
043100/20121030/142857/1365/328/20/
043100/20121030/142857/1365/702/20/
043100/20121030/142858/1365/2915/20/
043100/20121030/142858/1365/500/20/
043100/20121030/142858/1365/1192/20/
043100/20121030/142905/1370/2016/20/
043100/20121030/142908/1370/1008/20/
043100/20121030/142909/1370/1000/20/
043100/20121030/142910/1370/5004/20/
043100/20121030/142912/1370/1003/20/
043100/20121030/142915/1370/1238/20/
043100/20121030/142916/1370/107/20/
043100/20121030/142917/1370/258/20/
043100/20121030/142918/1365/9969/10/
043100/20121030/142919/1365/4980/10/
043100/20121030/142922/1365/1182/10/
043100/20121030/142927/1365/409/10/
043100/20121030/142927/1365/300/10/
043100/20121030/142927/1365/125/10/
043100/20121030/142933/1365/109/20/
043100/20121030/142935/1360/5955/10/
043100/20121030/142935/1365/246/20/
043100/20121030/142937/1360/2504/10/
043100/20121030/142940/1360/987/10/
043100/20121030/142942/1355/2150/10/
043100/20121030/142946/1360/106/20/
043100/20121030/142947/1355/1501/10/
043100/20121030/142949/1360/232/20/
043100/20121030/142949/1360/1688/20/
043100/20121030/142953/1360/2006/10/
043100/20121030/142956/1360/507/10/
043100/20121030/142958/1365/258/20/
043100/20121030/143004/1365/4465/20/
043100/20121030/143007/1360/1312/10/
043100/20121030/143009/1365/102/20/
043100/20121030/143011/1365/3004/20/
043100/20121030/143015/1365/674/20/
043100/20121030/143018/1360/1207/10/
043100/20121030/143022/1365/116/20/
043100/20121030/143032/1365/315/20/
043100/20121030/143036/1365/1008/20/
043100/20121030/143046/1365/1131/20/
043100/20121030/143047/1360/4213/10/
043100/20121030/143048/1360/4643/20/
043100/20121030/143055/1355/531/10/
043100/20121030/143103/1355/3015/10/
043100/20121030/143104/1355/546/10/
043100/20121030/143110/1360/5810/20/
043100/20121030/143113/1360/4021/20/
043100/20121030/143113/1360/465/20/
043100/20121030/143116/1360/693/20/
043100/20121030/143119/1355/656/10/
043100/20121030/143124/1355/1011/10/
043100/20121030/143127/1360/15213/20/
043100/20121030/143131/1360/1510/20/
043100/20121030/143135/1360/12978/20/
043100/20121030/143136/1360/7144/20/
043100/20121030/143136/1360/2858/10/
043100/20121030/143208/1360/277/20/
043100/20121030/143218/1355/691/10/
043100/20121030/143220/1355/4356/10/
043100/20121030/143221/1355/500/10/
043100/20121030/143222/1355/788/10/
043100/20121030/143222/1355/200/10/
043100/20121030/143224/1355/363/10/
043100/20121030/143224/1350/637/10/
043100/20121030/143232/1350/10001/10/
043100/20121030/143233/1350/565/10/
043100/20121030/143233/1350/5486/20/
043100/20121030/143236/1350/1235/20/
043100/20121030/143239/1355/3496/20/
043100/20121030/143239/1350/1000/20/
043100/20121030/143244/1355/435/20/
043100/20121030/143248/1345/104/10/
043100/20121030/143301/1350/387/20/
043100/20121030/143301/1345/112/10/
043100/20121030/143306/1345/512/10/
043100/20121030/143315/1350/512/20/
043100/20121030/143332/1350/301/20/
043100/20121030/143337/1350/2029/20/
043100/20121030/143347/1350/1030/20/
043100/20121030/143348/1350/500/20/
043100/20121030/143349/1350/209/20/
043100/20121030/143359/1355/3000/20/
043100/20121030/143359/1355/2214/20/
043100/20121030/143412/1350/8374/10/
043100/20121030/143420/1350/1696/20/
043100/20121030/143422/1350/2709/10/
043100/20121030/143441/1345/2264/10/
043100/20121030/143452/1345/1030/10/
043100/20121030/143453/1345/5215/10/
043100/20121030/143453/1340/21963/10/
043100/20121030/143453/1340/2822/20/
043100/20121030/143505/1335/3000/10/
043100/20121030/143526/1345/1092/20/
043100/20121030/143536/1345/2501/20/
043100/20121030/143537/1340/20139/10/
043100/20121030/143537/1340/3167/20/
043100/20121030/143541/1340/4565/10/
043100/20121030/143545/1340/252/10/
043100/20121030/143555/1340/149/10/
043100/20121030/143603/1340/116/10/
043100/20121030/143608/1340/522/10/
043100/20121030/143610/1340/500/10/
043100/20121030/143612/1340/111/10/
043100/20121030/143617/1340/389/20/
043100/20121030/143626/1345/330/20/
043100/20121030/143639/1340/1800/10/
043100/20121030/143645/1340/5815/10/
043100/20121030/143648/1340/685/20/
043100/20121030/143650/1340/315/10/
043100/20121030/143651/1335/8400/10/
043100/20121030/143653/1335/89/10/
043100/20121030/143659/1335/1900/10/
043100/20121030/143701/1335/2912/10/
043100/20121030/143702/1335/1427/10/
043100/20121030/143703/1335/3633/20/
043100/20121030/143727/1335/1512/10/
043100/20121030/143727/1335/3589/20/
043100/20121030/143736/1335/500/10/
043100/20121030/143807/1340/751/20/
043100/20121030/143814/1340/3461/20/
043100/20121030/143825/1340/1540/10/
043100/20121030/143831/1340/1016/20/
043100/20121030/143851/1335/1073/10/
043100/20121030/143903/1335/1960/10/
043100/20121030/143912/1340/10000/20/
043100/20121030/143929/1335/200/10/
043100/20121030/143934/1340/2000/20/
043100/20121030/143938/1340/714/20/
043100/20121030/143939/1340/95/10/
043100/20121030/143959/1340/163/10/
043100/20121030/144003/1340/589/10/
043100/20121030/144009/1340/1061/10/
043100/20121030/144031/1340/101/10/
043100/20121030/144047/1345/611/20/
043100/20121030/144108/1340/10082/10/
043100/20121030/144108/1340/82/10/
043100/20121030/144109/1340/3000/10/
043100/20121030/144111/1340/87/10/
043100/20121030/144126/1340/900/10/
043100/20121030/144127/1340/500/10/
043100/20121030/144135/1340/5000/10/
043100/20121030/144136/1340/1243/10/
043100/20121030/144138/1340/2000/20/
043100/20121030/144138/1340/1831/20/
043100/20121030/144150/1345/17393/20/
043100/20121030/144151/1345/1630/20/
043100/20121030/144153/1345/89/10/
043100/20121030/144200/1350/1000/20/
043100/20121030/144208/1340/5000/10/
043100/20121030/144209/1340/700/10/
043100/20121030/144237/1345/129/10/
043100/20121030/144247/1345/2711/10/
043100/20121030/144317/1345/2060/10/
043100/20121030/144322/1345/2866/10/
043100/20121030/144324/1345/4550/10/
043100/20121030/144325/1350/15858/20/
043100/20121030/144325/1355/34162/20/
043100/20121030/144330/1345/1403/10/
043100/20121030/144352/1350/500/20/
043100/20121030/144357/1345/500/10/
043100/20121030/144409/1350/372/20/
043100/20121030/144410/1350/5555/20/
043100/20121030/144411/1350/1500/20/
043100/20121030/144412/1350/1452/20/
043100/20121030/144413/1355/8000/20/
043100/20121030/144415/1355/3000/20/
043100/20121030/144416/1355/5050/20/
043100/20121030/144416/1355/3000/20/
043100/20121030/144417/1355/24473/20/
043100/20121030/144417/1355/120/20/
043100/20121030/144418/1355/3510/20/
043100/20121030/144425/1355/130/10/
043100/20121030/144430/1360/359/20/
043100/20121030/144431/1360/19442/20/
043100/20121030/144432/1360/120/20/
043100/20121030/144432/1360/9302/20/
043100/20121030/144436/1360/401/10/
043100/20121030/144441/1360/110/10/
043100/20121030/144441/1360/3530/10/
043100/20121030/144444/1360/487/20/
043100/20121030/144445/1360/2000/20/
043100/20121030/144449/1360/1000/20/
043100/20121030/144449/1360/10000/20/
043100/20121030/144451/1360/1100/20/
043100/20121030/144452/1360/11356/20/
043100/20121030/144452/1365/2400/20/
043100/20121030/144454/1360/1790/10/
043100/20121030/144457/1360/2848/20/
043100/20121030/144457/1360/150/20/
043100/20121030/144458/1360/803/20/
043100/20121030/144459/1360/3706/20/
043100/20121030/144500/1360/100/20/
043100/20121030/144509/1360/2576/20/
043100/20121030/144510/1360/500/20/
043100/20121030/144515/1355/487/10/
043100/20121030/144515/1360/1800/20/
043100/20121030/144520/1360/735/20/
043100/20121030/144525/1360/3000/20/
043100/20121030/144526/1360/252/20/
043100/20121030/144529/1355/100/10/
043100/20121030/144533/1355/372/10/
043100/20121030/144534/1355/2000/10/
043100/20121030/144534/1355/7000/10/
043100/20121030/144535/1355/5555/10/
043100/20121030/144535/1355/20000/10/
043100/20121030/144535/1355/7765/10/
043100/20121030/144536/1350/2177/10/
043100/20121030/144536/1350/6883/20/
043100/20121030/144541/1345/240/10/
043100/20121030/144548/1350/1000/10/
043100/20121030/144551/1355/11972/20/
043100/20121030/144602/1355/12725/20/
043100/20121030/144606/1360/1013/20/
043100/20121030/144607/1360/4309/20/
043100/20121030/144609/1360/8018/10/
043100/20121030/144611/1360/513/10/
043100/20121030/144612/1365/1002/20/
043100/20121030/144613/1360/3000/10/
043100/20121030/144614/1360/1504/10/
043100/20121030/144614/1360/7704/10/
043100/20121030/144615/1360/84/20/
043100/20121030/144615/1360/3954/20/
043100/20121030/144615/1365/2311/20/
043100/20121030/144616/1355/1012/10/
043100/20121030/144616/1355/1990/20/
043100/20121030/144622/1365/983/20/
043100/20121030/144639/1360/5032/20/
043100/20121030/144640/1360/287/20/
043100/20121030/144647/1360/2654/20/
043100/20121030/144650/1360/226/20/
043100/20121030/144652/1360/83/20/
043100/20121030/144654/1360/621/20/
043100/20121030/144657/1360/12080/20/
043100/20121030/144659/1360/204/20/
043100/20121030/144700/1360/3003/20/
043100/20121030/144700/1360/355/20/
043100/20121030/144707/1365/123/20/
043100/20121030/144713/1365/760/20/
043100/20121030/144718/1365/1557/20/
043100/20121030/144719/1365/300/20/
043100/20121030/144720/1365/2939/20/
043100/20121030/144732/1360/2003/10/
043100/20121030/144745/1365/2024/20/
043100/20121030/144805/1365/1147/20/
043100/20121030/144808/1365/911/20/
043100/20121030/144809/1365/1002/20/
043100/20121030/144810/1360/1080/10/
043100/20121030/144811/1360/6584/10/
043100/20121030/144811/1355/3420/10/
043100/20121030/144832/1360/974/20/
043100/20121030/144851/1365/1324/20/
043100/20121030/144857/1365/543/20/
043100/20121030/144901/1365/730/20/
043100/20121030/144902/1360/689/10/
043100/20121030/144903/1365/5000/20/
043100/20121030/144904/1365/1000/20/
043100/20121030/144914/1365/2065/20/
043100/20121030/144918/1360/13013/10/
043100/20121030/144918/1360/6260/10/
043100/20121030/144920/1360/14895/20/
043100/20121030/144921/1360/2027/10/
043100/20121030/144923/1365/3760/20/
043100/20121030/144931/1365/1694/20/
043100/20121030/144932/1360/100/10/
043100/20121030/144934/1365/17034/20/
043100/20121030/144935/1360/14184/10/
043100/20121030/144939/1360/1010/10/
043100/20121030/144941/1365/9178/20/
043100/20121030/144942/1365/1632/10/
043100/20121030/144942/1360/327/10/
043100/20121030/144944/1360/7754/10/
043100/20121030/144944/1360/1435/10/
043100/20121030/144953/1355/4963/10/
043100/20121030/144953/1355/2519/20/
043100/20121030/144954/1355/684/20/
043100/20121030/144955/1355/1000/20/
043100/20121030/150000/1360/225660/10/
