007110/20121030/90000/818/23780/10/
007110/20121030/90220/818/9830/10/
007110/20121030/90221/818/170/20/
007110/20121030/90241/801/1840/10/
007110/20121030/90241/800/450/10/
007110/20121030/90301/803/600/10/
007110/20121030/90328/804/110/10/
007110/20121030/90328/803/1640/10/
007110/20121030/90328/802/2260/10/
007110/20121030/90328/801/2090/10/
007110/20121030/90328/800/3900/10/
007110/20121030/90339/801/110/10/
007110/20121030/90359/802/5020/10/
007110/20121030/90359/801/2110/10/
007110/20121030/90359/800/2890/10/
007110/20121030/90420/803/350/10/
007110/20121030/90435/803/5000/10/
007110/20121030/90513/805/200/10/
007110/20121030/90513/804/1000/10/
007110/20121030/90513/803/6260/10/
007110/20121030/90513/803/4850/20/
007110/20121030/90516/803/4850/10/
007110/20121030/90516/802/150/10/
007110/20121030/90536/803/2000/10/
007110/20121030/90836/808/660/10/
007110/20121030/90836/807/4340/10/
007110/20121030/90932/808/300/10/
007110/20121030/90932/807/4710/10/
007110/20121030/91052/808/810/10/
007110/20121030/91052/807/4190/10/
007110/20121030/91112/815/170/20/
007110/20121030/91146/808/3630/10/
007110/20121030/91146/807/3980/10/
007110/20121030/91156/807/1020/10/
007110/20121030/91156/805/110/10/
007110/20121030/91156/804/1710/10/
007110/20121030/91156/803/160/10/
007110/20121030/91236/807/1010/10/
007110/20121030/91303/805/2120/10/
007110/20121030/91322/807/700/10/
007110/20121030/91322/805/300/10/
007110/20121030/91348/807/12390/20/
007110/20121030/91418/809/210/20/
007110/20121030/91430/809/300/20/
007110/20121030/91430/809/1300/20/
007110/20121030/91439/810/2000/20/
007110/20121030/91445/809/100/10/
007110/20121030/91445/807/5000/10/
007110/20121030/91452/807/200/20/
007110/20121030/91452/807/10200/20/
007110/20121030/91648/810/370/20/
007110/20121030/91655/811/180/20/
007110/20121030/91722/810/540/10/
007110/20121030/91738/810/300/20/
007110/20121030/91751/810/1000/20/
007110/20121030/91755/810/160/20/
007110/20121030/91827/812/500/20/
007110/20121030/91845/812/100/20/
007110/20121030/91902/810/120/10/
007110/20121030/91911/810/100/10/
007110/20121030/91914/810/100/10/
007110/20121030/91917/810/100/10/
007110/20121030/92010/811/290/10/
007110/20121030/92022/811/5000/10/
007110/20121030/92029/811/3000/10/
007110/20121030/92035/812/630/20/
007110/20121030/92045/812/370/10/
007110/20121030/92101/813/810/20/
007110/20121030/92200/813/5000/20/
007110/20121030/92324/813/170/20/
007110/20121030/92345/813/240/10/
007110/20121030/92355/812/300/10/
007110/20121030/92401/813/370/20/
007110/20121030/92418/812/4890/10/
007110/20121030/92418/811/2710/10/
007110/20121030/92418/810/530/10/
007110/20121030/92418/808/1040/10/
007110/20121030/92418/807/3340/10/
007110/20121030/92547/814/3480/20/
007110/20121030/92627/814/1000/10/
007110/20121030/92635/814/640/10/
007110/20121030/92642/814/150/10/
007110/20121030/92904/814/140/20/
007110/20121030/92924/814/2010/20/
007110/20121030/92946/814/500/20/
007110/20121030/92949/814/100/20/
007110/20121030/92953/814/120/20/
007110/20121030/93027/814/110/20/
007110/20121030/93027/814/280/20/
007110/20121030/93036/815/5910/20/
007110/20121030/93109/815/1000/10/
007110/20121030/93111/815/1000/10/
007110/20121030/93321/816/300/10/
007110/20121030/93406/818/1000/20/
007110/20121030/93412/816/1420/10/
007110/20121030/93549/822/110/20/
007110/20121030/93635/822/1020/20/
007110/20121030/93654/822/510/20/
007110/20121030/93901/822/320/20/
007110/20121030/93943/824/110/20/
007110/20121030/94003/824/2390/20/
007110/20121030/94020/825/580/20/
007110/20121030/94022/825/110/20/
007110/20121030/94031/827/130/20/
007110/20121030/94042/827/1030/20/
007110/20121030/94103/827/100/20/
007110/20121030/94125/828/510/20/
007110/20121030/94128/829/130/20/
007110/20121030/94151/829/730/20/
007110/20121030/94205/829/640/10/
007110/20121030/94215/829/2790/10/
007110/20121030/94223/829/200/20/
007110/20121030/94305/829/3000/20/
007110/20121030/94329/831/90/20/
007110/20121030/94415/831/990/20/
007110/20121030/94430/833/1030/20/
007110/20121030/94445/833/290/10/
007110/20121030/95025/826/140/10/
007110/20121030/95025/824/200/10/
007110/20121030/95043/831/1730/20/
007110/20121030/95053/831/2270/10/
007110/20121030/95718/830/90/20/
007110/20121030/100038/827/10010/10/
007110/20121030/100110/827/1700/10/
007110/20121030/100252/827/500/10/
007110/20121030/100252/829/360/20/
007110/20121030/100252/830/9640/20/
007110/20121030/100342/830/2330/20/
007110/20121030/100413/833/90/20/
007110/20121030/100515/833/620/20/
007110/20121030/100532/833/900/20/
007110/20121030/100618/834/90/20/
007110/20121030/100622/834/860/20/
007110/20121030/100631/835/2030/20/
007110/20121030/100644/835/160/20/
007110/20121030/100644/836/1290/20/
007110/20121030/100644/837/3000/20/
007110/20121030/100654/839/140/20/
007110/20121030/100712/840/250/20/
007110/20121030/100724/840/1380/20/
007110/20121030/100733/841/100/20/
007110/20121030/100738/841/1400/20/
007110/20121030/100738/842/100/20/
007110/20121030/100741/842/100/20/
007110/20121030/100744/842/100/20/
007110/20121030/100749/842/6290/20/
007110/20121030/100813/843/110/20/
007110/20121030/100830/843/90/20/
007110/20121030/100910/843/90/20/
007110/20121030/100924/848/90/20/
007110/20121030/100942/848/100/20/
007110/20121030/101018/847/400/20/
007110/20121030/101046/847/130/10/
007110/20121030/101046/848/2530/20/
007110/20121030/101147/841/1000/10/
007110/20121030/101149/845/2000/20/
007110/20121030/101240/841/2010/10/
007110/20121030/101256/841/190/10/
007110/20121030/101256/840/1870/10/
007110/20121030/101345/840/260/10/
007110/20121030/101404/840/1140/10/
007110/20121030/101419/842/400/10/
007110/20121030/101436/840/860/10/
007110/20121030/101443/842/620/20/
007110/20121030/101443/842/440/10/
007110/20121030/101453/843/150/20/
007110/20121030/101524/843/920/10/
007110/20121030/101557/842/8980/10/
007110/20121030/101835/838/1000/10/
007110/20121030/101939/841/90/20/
007110/20121030/102001/840/2750/10/
007110/20121030/102047/840/360/10/
007110/20121030/102114/840/990/10/
007110/20121030/102121/842/500/20/
007110/20121030/102135/840/1710/10/
007110/20121030/102221/840/550/20/
007110/20121030/102343/840/90/20/
007110/20121030/102428/840/90/20/
007110/20121030/102501/838/300/10/
007110/20121030/102501/837/1330/10/
007110/20121030/102501/836/230/10/
007110/20121030/102501/835/920/10/
007110/20121030/102556/840/1670/20/
007110/20121030/102606/840/500/10/
007110/20121030/102627/840/7020/10/
007110/20121030/102749/841/90/20/
007110/20121030/102913/840/2220/10/
007110/20121030/103414/839/550/20/
007110/20121030/103630/838/100/10/
007110/20121030/103650/837/100/10/
007110/20121030/103823/836/480/10/
007110/20121030/103823/835/440/10/
007110/20121030/103823/834/2590/10/
007110/20121030/103823/833/2050/10/
007110/20121030/103914/833/90/20/
007110/20121030/103939/832/490/10/
007110/20121030/103939/830/1930/10/
007110/20121030/104030/830/120/20/
007110/20121030/104031/829/160/10/
007110/20121030/104124/830/4360/10/
007110/20121030/104308/830/170/20/
007110/20121030/104308/833/100/20/
007110/20121030/104337/832/1000/10/
007110/20121030/104408/833/200/20/
007110/20121030/104425/832/120/10/
007110/20121030/104611/833/4000/20/
007110/20121030/104810/833/100/20/
007110/20121030/105231/832/550/20/
007110/20121030/105827/829/1510/10/
007110/20121030/105827/828/120/10/
007110/20121030/105827/827/2310/10/
007110/20121030/105827/826/1290/10/
007110/20121030/105827/825/1760/10/
007110/20121030/105828/825/3010/20/
007110/20121030/110007/824/1200/10/
007110/20121030/110346/831/400/20/
007110/20121030/110921/826/3010/10/
007110/20121030/111040/826/90/10/
007110/20121030/111203/826/490/10/
007110/20121030/111311/825/220/10/
007110/20121030/111311/823/410/10/
007110/20121030/111508/826/1000/20/
007110/20121030/111547/824/300/10/
007110/20121030/111547/823/680/10/
007110/20121030/111620/823/240/20/
007110/20121030/111704/822/120/10/
007110/20121030/111715/822/880/20/
007110/20121030/111718/821/1000/10/
007110/20121030/111802/822/240/10/
007110/20121030/112014/826/110/20/
007110/20121030/112416/827/90/20/
007110/20121030/112432/828/90/20/
007110/20121030/112439/828/90/20/
007110/20121030/112518/829/120/20/
007110/20121030/112520/829/730/10/
007110/20121030/112753/829/200/20/
007110/20121030/113006/825/130/10/
007110/20121030/113006/824/2160/10/
007110/20121030/113006/823/410/10/
007110/20121030/113254/825/1500/10/
007110/20121030/113445/829/90/20/
007110/20121030/113704/825/220/10/
007110/20121030/113934/830/90/20/
007110/20121030/113952/830/100/20/
007110/20121030/114046/830/100/20/
007110/20121030/114120/832/100/20/
007110/20121030/114149/832/1500/20/
007110/20121030/114203/835/100/20/
007110/20121030/114330/834/950/20/
007110/20121030/115115/833/200/20/
007110/20121030/115115/833/920/10/
007110/20121030/115523/833/180/20/
007110/20121030/115816/833/2050/20/
007110/20121030/115847/833/1000/20/
007110/20121030/120756/833/780/20/
007110/20121030/120826/833/460/20/
007110/20121030/121106/830/90/10/
007110/20121030/121611/832/1440/20/
007110/20121030/121624/832/100/20/
007110/20121030/121714/832/970/20/
007110/20121030/121843/833/1030/20/
007110/20121030/122052/833/120/20/
007110/20121030/122148/834/480/20/
007110/20121030/122148/835/500/20/
007110/20121030/122148/836/220/20/
007110/20121030/122532/836/210/20/
007110/20121030/122621/836/690/20/
007110/20121030/122643/836/340/20/
007110/20121030/122935/836/850/20/
007110/20121030/122941/836/1500/10/
007110/20121030/123105/837/90/20/
007110/20121030/123113/836/200/10/
007110/20121030/123143/836/4930/10/
007110/20121030/123310/837/90/20/
007110/20121030/123319/836/90/10/
007110/20121030/123334/836/2070/10/
007110/20121030/123348/836/90/10/
007110/20121030/123649/836/280/10/
007110/20121030/123739/836/2000/10/
007110/20121030/123759/836/100/10/
007110/20121030/124145/835/170/10/
007110/20121030/124206/834/1480/10/
007110/20121030/124904/833/1000/20/
007110/20121030/125006/833/3000/20/
007110/20121030/125218/831/890/10/
007110/20121030/125246/831/2110/20/
007110/20121030/125315/833/2000/20/
007110/20121030/125323/833/7850/20/
007110/20121030/125501/830/4000/10/
007110/20121030/125957/831/980/10/
007110/20121030/130206/830/140/10/
007110/20121030/130258/830/220/10/
007110/20121030/130540/833/820/20/
007110/20121030/130947/830/1040/10/
007110/20121030/131147/833/19040/20/
007110/20121030/131246/828/200/10/
007110/20121030/131322/828/2900/10/
007110/20121030/131634/833/710/20/
007110/20121030/131922/834/230/20/
007110/20121030/131942/834/1800/20/
007110/20121030/132015/831/450/10/
007110/20121030/133315/829/1050/10/
007110/20121030/133800/829/500/10/
007110/20121030/134106/829/2340/10/
007110/20121030/134202/829/660/20/
007110/20121030/134357/830/300/10/
007110/20121030/134404/830/16610/10/
007110/20121030/134550/830/300/10/
007110/20121030/135506/831/100/10/
007110/20121030/135552/831/1000/20/
007110/20121030/135707/831/1000/20/
007110/20121030/135806/831/910/20/
007110/20121030/140323/832/110/20/
007110/20121030/140609/832/430/20/
007110/20121030/140927/832/820/10/
007110/20121030/141219/832/230/20/
007110/20121030/141219/833/19770/20/
007110/20121030/141257/833/450/20/
007110/20121030/141257/835/8250/20/
007110/20121030/141317/835/470/20/
007110/20121030/141457/836/6370/20/
007110/20121030/141929/835/3730/20/
007110/20121030/141957/835/740/20/
007110/20121030/142108/835/6000/20/
007110/20121030/142141/835/100/20/
007110/20121030/142449/835/1060/20/
007110/20121030/142640/835/190/10/
007110/20121030/143711/835/510/20/
007110/20121030/143718/835/100/20/
007110/20121030/143750/835/1500/20/
007110/20121030/143854/835/170/20/
007110/20121030/144241/832/2070/10/
007110/20121030/144517/834/90/20/
007110/20121030/144636/834/620/20/
007110/20121030/144930/832/140/10/
007110/20121030/144930/831/280/10/
007110/20121030/144930/830/630/10/
007110/20121030/150000/828/9650/10/
