007110/20130320/90340/910/530/10/
007110/20130320/90340/909/2230/10/
007110/20130320/90340/903/260/10/
007110/20130320/90552/914/130/20/
007110/20130320/90816/906/160/10/
007110/20130320/90816/905/670/10/
007110/20130320/91109/906/1800/10/
007110/20130320/91338/910/520/20/
007110/20130320/91339/910/1910/20/
007110/20130320/91436/910/120/10/
007110/20130320/91450/910/3000/20/
007110/20130320/91506/910/910/20/
007110/20130320/91533/910/90/10/
007110/20130320/91543/912/100/20/
007110/20130320/91747/912/1170/20/
007110/20130320/91747/913/1100/20/
007110/20130320/91747/914/450/20/
007110/20130320/91747/915/2330/20/
007110/20130320/91913/914/110/20/
007110/20130320/92021/914/130/20/
007110/20130320/92021/915/3360/20/
007110/20130320/92026/915/1940/10/
007110/20130320/92029/915/690/10/
007110/20130320/92048/915/4720/20/
007110/20130320/92113/915/630/10/
007110/20130320/92140/915/2250/10/
007110/20130320/92254/911/180/10/
007110/20130320/92332/914/1030/20/
007110/20130320/92332/915/2000/20/
007110/20130320/92441/911/3000/10/
007110/20130320/92552/910/2130/10/
007110/20130320/92552/909/2100/10/
007110/20130320/92552/908/2140/10/
007110/20130320/92552/907/1050/10/
007110/20130320/92552/906/2600/10/
007110/20130320/92653/906/3020/10/
007110/20130320/92908/907/730/10/
007110/20130320/92951/907/1030/10/
007110/20130320/93052/906/1250/10/
007110/20130320/93110/906/240/10/
007110/20130320/93145/906/100/20/
007110/20130320/93210/905/1820/10/
007110/20130320/93210/903/210/10/
007110/20130320/93647/905/270/10/
007110/20130320/93728/904/3640/10/
007110/20130320/93728/903/2130/10/
007110/20130320/93749/903/1950/10/
007110/20130320/93804/903/7220/10/
007110/20130320/93804/902/7780/10/
007110/20130320/93849/902/1020/10/
007110/20130320/93900/902/240/10/
007110/20130320/93914/902/1760/20/
007110/20130320/93945/902/270/10/
007110/20130320/94000/901/790/10/
007110/20130320/94016/904/90/20/
007110/20130320/94514/902/140/10/
007110/20130320/94553/902/1020/10/
007110/20130320/94606/901/110/10/
007110/20130320/94609/901/7920/10/
007110/20130320/94627/901/110/20/
007110/20130320/94751/901/1010/10/
007110/20130320/94842/902/7100/10/
007110/20130320/94848/901/11270/10/
007110/20130320/94853/900/16480/10/
007110/20130320/94857/900/1000/20/
007110/20130320/94913/900/350/20/
007110/20130320/95009/900/560/20/
007110/20130320/95036/900/550/20/
007110/20130320/95041/899/1380/10/
007110/20130320/95107/900/2050/20/
007110/20130320/95202/900/110/10/
007110/20130320/95221/901/300/20/
007110/20130320/95224/901/2800/20/
007110/20130320/95224/902/2200/20/
007110/20130320/95237/902/700/20/
007110/20130320/95324/905/100/20/
007110/20130320/95417/904/300/20/
007110/20130320/95438/904/100/10/
007110/20130320/95509/904/100/10/
007110/20130320/95618/904/100/20/
007110/20130320/95715/904/790/20/
007110/20130320/95715/905/4210/20/
007110/20130320/95732/905/2000/20/
007110/20130320/95756/905/430/20/
007110/20130320/100300/906/130/20/
007110/20130320/100544/904/140/10/
007110/20130320/100639/903/110/10/
007110/20130320/100639/902/920/10/
007110/20130320/100639/901/270/10/
007110/20130320/101118/901/2000/10/
007110/20130320/101813/905/1630/20/
007110/20130320/101837/905/440/10/
007110/20130320/102035/905/90/10/
007110/20130320/102126/906/300/20/
007110/20130320/102236/906/120/20/
007110/20130320/102629/905/110/10/
007110/20130320/102705/905/400/20/
007110/20130320/102911/905/120/10/
007110/20130320/103253/905/1000/10/
007110/20130320/103440/905/880/10/
007110/20130320/103440/904/2710/10/
007110/20130320/103440/903/1410/10/
007110/20130320/104217/905/110/10/
007110/20130320/104317/905/90/20/
007110/20130320/104318/904/110/10/
007110/20130320/104406/904/500/20/
007110/20130320/104429/904/3000/20/
007110/20130320/104515/904/730/20/
007110/20130320/104515/905/290/20/
007110/20130320/104521/905/520/20/
007110/20130320/104521/907/590/20/
007110/20130320/104521/908/90/20/
007110/20130320/105359/906/1150/10/
007110/20130320/105919/905/350/10/
007110/20130320/110836/905/410/10/
007110/20130320/111245/905/500/10/
007110/20130320/111245/904/510/10/
007110/20130320/111507/905/5010/10/
007110/20130320/111847/905/6110/10/
007110/20130320/111934/904/3140/10/
007110/20130320/111934/903/22790/10/
007110/20130320/111934/902/15090/10/
007110/20130320/112447/903/10090/10/
007110/20130320/112447/902/5820/10/
007110/20130320/112537/905/1010/20/
007110/20130320/112620/905/240/20/
007110/20130320/112620/907/8150/20/
007110/20130320/112632/907/3000/10/
007110/20130320/112709/907/200/20/
007110/20130320/112752/902/500/10/
007110/20130320/112907/908/1000/20/
007110/20130320/113345/907/3320/20/
007110/20130320/113356/907/750/10/
007110/20130320/113401/903/310/10/
007110/20130320/113531/907/760/20/
007110/20130320/113531/908/4240/20/
007110/20130320/113945/907/2000/10/
007110/20130320/114504/904/330/10/
007110/20130320/114723/904/100/10/
007110/20130320/121046/906/240/20/
007110/20130320/122023/904/1020/10/
007110/20130320/122429/905/110/20/
007110/20130320/122512/904/460/10/
007110/20130320/122948/905/1000/20/
007110/20130320/123356/904/1010/10/
007110/20130320/123356/903/1220/10/
007110/20130320/123356/902/1440/10/
007110/20130320/123356/901/6440/10/
007110/20130320/123605/901/2200/10/
007110/20130320/123754/901/600/10/
007110/20130320/123951/901/1240/10/
007110/20130320/124021/901/3820/10/
007110/20130320/124030/900/840/10/
007110/20130320/124101/900/1040/10/
007110/20130320/124114/900/1000/10/
007110/20130320/124136/900/300/10/
007110/20130320/124143/900/20000/10/
007110/20130320/124144/900/8560/10/
007110/20130320/124154/899/7000/10/
007110/20130320/124207/900/90/20/
007110/20130320/124220/899/1600/10/
007110/20130320/124231/899/3400/10/
007110/20130320/124321/900/450/20/
007110/20130320/124336/899/380/10/
007110/20130320/124429/900/2060/20/
007110/20130320/124431/900/960/20/
007110/20130320/124431/901/1180/20/
007110/20130320/124857/901/1680/10/
007110/20130320/125114/901/3590/10/
007110/20130320/125132/901/6290/20/
007110/20130320/125147/901/1000/10/
007110/20130320/125246/901/300/10/
007110/20130320/125450/901/200/10/
007110/20130320/125548/901/270/10/
007110/20130320/125608/900/10000/10/
007110/20130320/125653/901/340/10/
007110/20130320/125710/901/770/10/
007110/20130320/125710/900/3230/10/
007110/20130320/125758/901/900/10/
007110/20130320/130002/901/280/10/
007110/20130320/130002/901/1540/10/
007110/20130320/130019/901/1500/20/
007110/20130320/130117/901/1030/20/
007110/20130320/130316/901/100/20/
007110/20130320/130342/900/25320/10/
007110/20130320/130342/899/14680/10/
007110/20130320/130349/902/2500/20/
007110/20130320/130514/900/1010/10/
007110/20130320/130514/899/8990/10/
007110/20130320/130602/899/5000/10/
007110/20130320/130617/900/900/20/
007110/20130320/130853/901/820/10/
007110/20130320/130904/901/380/10/
007110/20130320/130904/900/1870/10/
007110/20130320/131013/900/3000/20/
007110/20130320/131230/899/10000/10/
007110/20130320/131252/900/170/20/
007110/20130320/131315/900/110/20/
007110/20130320/131343/900/350/20/
007110/20130320/131404/900/720/20/
007110/20130320/131728/902/110/20/
007110/20130320/131855/902/100/20/
007110/20130320/132100/901/110/10/
007110/20130320/132114/900/1020/10/
007110/20130320/132539/901/2020/10/
007110/20130320/132853/901/1420/10/
007110/20130320/132853/900/4070/10/
007110/20130320/132912/899/750/10/
007110/20130320/133122/899/3810/10/
007110/20130320/133122/899/1170/10/
007110/20130320/133143/899/1000/10/
007110/20130320/133158/899/1000/10/
007110/20130320/133158/899/2030/10/
007110/20130320/133322/898/3210/10/
007110/20130320/133411/897/1010/10/
007110/20130320/133504/897/3120/10/
007110/20130320/133537/898/300/20/
007110/20130320/133543/898/100/20/
007110/20130320/133601/897/170/10/
007110/20130320/133612/898/1000/20/
007110/20130320/133710/898/500/20/
007110/20130320/133740/898/100/20/
007110/20130320/133800/897/400/10/
007110/20130320/133800/897/1760/10/
007110/20130320/133813/897/1860/10/
007110/20130320/133826/897/1000/20/
007110/20130320/133837/897/1030/20/
007110/20130320/133858/896/780/10/
007110/20130320/133929/897/1510/20/
007110/20130320/133937/897/1000/20/
007110/20130320/134018/897/1110/20/
007110/20130320/134047/897/490/20/
007110/20130320/134120/897/6060/10/
007110/20130320/134133/897/500/20/
007110/20130320/134210/897/130/20/
007110/20130320/134339/897/2030/20/
007110/20130320/134449/896/1000/10/
007110/20130320/134604/897/360/20/
007110/20130320/134630/897/1250/20/
007110/20130320/134738/897/750/10/
007110/20130320/134757/897/210/10/
007110/20130320/135024/898/310/20/
007110/20130320/135140/897/200/10/
007110/20130320/135147/896/3830/10/
007110/20130320/135150/896/4900/10/
007110/20130320/135248/896/1400/10/
007110/20130320/135258/896/2530/10/
007110/20130320/135309/896/470/20/
007110/20130320/135333/896/2540/10/
007110/20130320/135333/895/460/10/
007110/20130320/135341/895/9570/10/
007110/20130320/135354/895/360/20/
007110/20130320/135357/894/2020/10/
007110/20130320/135448/894/350/10/
007110/20130320/135449/895/4700/20/
007110/20130320/135454/895/1000/20/
007110/20130320/135523/895/360/20/
007110/20130320/135557/895/100/20/
007110/20130320/135623/895/230/20/
007110/20130320/140157/896/1230/10/
007110/20130320/140157/895/3790/10/
007110/20130320/140206/895/1000/10/
007110/20130320/140309/895/1700/10/
007110/20130320/140313/894/1000/10/
007110/20130320/140336/895/300/20/
007110/20130320/140340/894/19200/10/
007110/20130320/140359/894/270/10/
007110/20130320/140401/893/3130/10/
007110/20130320/140401/892/2200/10/
007110/20130320/140401/891/4670/10/
007110/20130320/140424/891/3510/10/
007110/20130320/140530/894/220/20/
007110/20130320/140602/894/1010/20/
007110/20130320/140612/894/150/20/
007110/20130320/140621/894/660/20/
007110/20130320/140656/893/2050/10/
007110/20130320/140748/892/2520/10/
007110/20130320/140750/891/560/10/
007110/20130320/140803/891/3050/10/
007110/20130320/140827/891/1950/20/
007110/20130320/140841/891/90/10/
007110/20130320/140841/890/910/10/
007110/20130320/140841/890/1300/10/
007110/20130320/140859/890/6100/10/
007110/20130320/141036/891/210/10/
007110/20130320/141042/891/400/10/
007110/20130320/141047/891/400/10/
007110/20130320/141048/891/120/10/
007110/20130320/141113/891/2590/10/
007110/20130320/141119/890/600/10/
007110/20130320/141124/890/1000/10/
007110/20130320/141133/891/110/20/
007110/20130320/141136/890/1810/10/
007110/20130320/141148/890/280/10/
007110/20130320/141149/890/300/10/
007110/20130320/141157/890/1000/10/
007110/20130320/141208/890/250/10/
007110/20130320/141220/890/530/10/
007110/20130320/141304/890/500/10/
007110/20130320/141417/890/1110/20/
007110/20130320/141502/889/1900/10/
007110/20130320/141502/888/1110/10/
007110/20130320/141504/891/3370/20/
007110/20130320/141528/891/1000/20/
007110/20130320/141542/891/100/20/
007110/20130320/141701/891/100/20/
007110/20130320/141743/891/180/20/
007110/20130320/141746/890/1000/10/
007110/20130320/141814/890/2850/10/
007110/20130320/141814/889/150/10/
007110/20130320/141829/889/5000/10/
007110/20130320/141835/889/270/10/
007110/20130320/141930/889/2410/10/
007110/20130320/141935/889/400/20/
007110/20130320/141936/889/100/20/
007110/20130320/141947/888/4800/10/
007110/20130320/141952/888/100/20/
007110/20130320/142014/888/1140/20/
007110/20130320/142014/888/280/20/
007110/20130320/142022/887/2750/10/
007110/20130320/142027/887/250/20/
007110/20130320/142037/887/1310/10/
007110/20130320/142037/886/7350/10/
007110/20130320/142037/885/9350/10/
007110/20130320/142053/885/100/10/
007110/20130320/142158/888/1130/20/
007110/20130320/142205/886/2000/10/
007110/20130320/142220/888/390/20/
007110/20130320/142220/889/1610/20/
007110/20130320/142250/888/460/10/
007110/20130320/142306/888/620/10/
007110/20130320/142339/888/300/20/
007110/20130320/142423/887/1000/10/
007110/20130320/142423/886/1300/10/
007110/20130320/142437/888/890/20/
007110/20130320/142450/888/140/10/
007110/20130320/142507/887/3410/10/
007110/20130320/142537/887/280/10/
007110/20130320/142537/886/4400/10/
007110/20130320/142537/885/3490/10/
007110/20130320/142547/887/1400/10/
007110/20130320/142547/885/600/10/
007110/20130320/142720/885/12510/10/
007110/20130320/142827/885/410/10/
007110/20130320/142843/885/180/10/
007110/20130320/142843/885/310/10/
007110/20130320/142900/884/5050/10/
007110/20130320/142904/884/500/10/
007110/20130320/142908/884/500/10/
007110/20130320/142909/884/900/10/
007110/20130320/142917/884/430/10/
007110/20130320/142920/884/100/20/
007110/20130320/142945/883/10000/10/
007110/20130320/142957/884/470/20/
007110/20130320/143007/885/2230/20/
007110/20130320/143043/885/2060/20/
007110/20130320/143108/885/130/20/
007110/20130320/143155/885/300/20/
007110/20130320/143215/885/240/20/
007110/20130320/143241/885/1480/10/
007110/20130320/143245/885/100/20/
007110/20130320/143248/884/1740/10/
007110/20130320/143253/884/200/20/
007110/20130320/143257/884/1500/10/
007110/20130320/143302/885/100/20/
007110/20130320/143326/885/380/10/
007110/20130320/143344/885/960/10/
007110/20130320/143347/885/160/10/
007110/20130320/143401/884/870/10/
007110/20130320/143413/886/650/20/
007110/20130320/143430/886/2000/20/
007110/20130320/143511/884/5030/10/
007110/20130320/143622/884/2030/10/
007110/20130320/143639/884/3470/10/
007110/20130320/143646/884/2160/10/
007110/20130320/143646/883/5850/10/
007110/20130320/143646/882/11990/10/
007110/20130320/143656/883/4830/10/
007110/20130320/143656/882/2330/10/
007110/20130320/143656/881/12850/10/
007110/20130320/143804/884/620/20/
007110/20130320/143835/884/170/20/
007110/20130320/143858/884/100/20/
007110/20130320/143920/882/4550/10/
007110/20130320/143920/881/5830/10/
007110/20130320/144057/884/3030/20/
007110/20130320/144145/882/4000/10/
007110/20130320/144146/882/2500/10/
007110/20130320/144219/882/2100/10/
007110/20130320/144244/884/3350/20/
007110/20130320/144336/884/2200/10/
007110/20130320/144343/884/550/10/
007110/20130320/144347/884/100/20/
007110/20130320/144404/884/330/20/
007110/20130320/144433/882/5000/10/
007110/20130320/144448/883/200/10/
007110/20130320/144448/882/800/10/
007110/20130320/144510/882/20510/10/
007110/20130320/144607/882/3700/10/
007110/20130320/144622/882/13310/10/
007110/20130320/144622/881/26690/10/
007110/20130320/144652/881/7500/10/
007110/20130320/144707/882/5000/10/
007110/20130320/144743/882/6060/10/
007110/20130320/144747/882/570/10/
007110/20130320/144756/882/200/10/
007110/20130320/144805/883/200/20/
007110/20130320/144811/883/2010/20/
007110/20130320/144820/883/360/20/
007110/20130320/144900/883/140/10/
007110/20130320/144934/882/4900/10/
007110/20130320/144946/884/4780/20/
007110/20130320/144957/884/220/10/
007110/20130320/144957/882/200/10/
007110/20130320/144957/881/5450/10/
007110/20130320/150000/884/14060/10/
