007110/20121213/90000/788/7790/20/
007110/20121213/90049/787/270/20/
007110/20121213/90215/787/2060/20/
007110/20121213/90437/787/1000/20/
007110/20121213/90510/782/1330/10/
007110/20121213/90659/783/200/10/
007110/20121213/90702/783/1200/10/
007110/20121213/90759/783/100/20/
007110/20121213/91008/783/110/20/
007110/20121213/91015/783/790/20/
007110/20121213/91041/783/200/10/
007110/20121213/91103/786/420/20/
007110/20121213/91254/786/1980/20/
007110/20121213/91300/787/890/20/
007110/20121213/91308/787/100/20/
007110/20121213/91309/787/1410/20/
007110/20121213/91310/787/200/10/
007110/20121213/91329/787/790/10/
007110/20121213/91403/787/90/20/
007110/20121213/91404/787/6120/20/
007110/20121213/91521/787/7410/20/
007110/20121213/91521/788/6210/20/
007110/20121213/91532/788/1380/10/
007110/20121213/91547/788/600/20/
007110/20121213/91553/788/100/20/
007110/20121213/91630/788/120/20/
007110/20121213/91659/789/160/20/
007110/20121213/91704/789/3000/20/
007110/20121213/91721/789/100/20/
007110/20121213/92024/787/1200/10/
007110/20121213/92027/787/800/10/
007110/20121213/92113/786/1000/20/
007110/20121213/92125/786/100/20/
007110/20121213/92230/783/1000/10/
007110/20121213/92401/783/100/10/
007110/20121213/92426/786/1700/20/
007110/20121213/92532/786/300/10/
007110/20121213/92701/784/900/10/
007110/20121213/92830/786/600/20/
007110/20121213/92916/784/550/10/
007110/20121213/93037/786/5000/20/
007110/20121213/93218/784/240/10/
007110/20121213/93218/782/680/10/
007110/20121213/93310/786/5080/20/
007110/20121213/93336/781/970/10/
007110/20121213/93406/781/1000/10/
007110/20121213/94433/781/600/10/
007110/20121213/95522/784/710/20/
007110/20121213/95616/784/1000/20/
007110/20121213/100111/782/200/10/
007110/20121213/100550/782/1000/10/
007110/20121213/101147/783/810/10/
007110/20121213/101152/783/200/20/
007110/20121213/101258/783/3900/10/
007110/20121213/101400/783/1100/20/
007110/20121213/101651/784/880/20/
007110/20121213/101956/784/300/20/
007110/20121213/102112/784/150/20/
007110/20121213/102523/783/1050/10/
007110/20121213/102902/783/1470/10/
007110/20121213/102946/782/1000/10/
007110/20121213/103435/783/200/20/
007110/20121213/103513/782/2000/10/
007110/20121213/103524/782/400/10/
007110/20121213/103800/782/1440/10/
007110/20121213/103928/783/4420/20/
007110/20121213/104317/783/4470/10/
007110/20121213/104750/783/1650/10/
007110/20121213/105005/783/120/10/
007110/20121213/105235/783/170/20/
007110/20121213/105449/782/1530/10/
007110/20121213/105530/781/200/10/
007110/20121213/105539/782/470/20/
007110/20121213/105643/782/280/20/
007110/20121213/105718/782/100/20/
007110/20121213/105741/782/400/20/
007110/20121213/110134/782/150/20/
007110/20121213/110228/782/100/10/
007110/20121213/110228/781/3420/10/
007110/20121213/110418/780/2740/10/
007110/20121213/110627/780/6060/10/
007110/20121213/110708/779/4520/10/
007110/20121213/110708/778/3080/10/
007110/20121213/110708/777/16090/10/
007110/20121213/110708/776/12520/10/
007110/20121213/111103/777/1000/10/
007110/20121213/111233/777/1530/10/
007110/20121213/111247/777/1010/10/
007110/20121213/111349/776/1760/10/
007110/20121213/111414/776/5000/10/
007110/20121213/111620/779/1580/20/
007110/20121213/111620/780/2250/20/
007110/20121213/111810/780/160/20/
007110/20121213/111915/780/100/20/
007110/20121213/112420/780/100/20/
007110/20121213/112709/780/180/20/
007110/20121213/112731/780/100/20/
007110/20121213/112735/779/100/10/
007110/20121213/112735/778/200/10/
007110/20121213/112735/777/400/10/
007110/20121213/112735/776/5580/10/
007110/20121213/112735/775/8820/10/
007110/20121213/112900/776/210/10/
007110/20121213/112900/775/1080/10/
007110/20121213/114050/780/410/20/
007110/20121213/114110/780/12420/20/
007110/20121213/114506/780/100/10/
007110/20121213/114506/778/500/10/
007110/20121213/114506/777/1420/10/
007110/20121213/121217/781/1010/20/
007110/20121213/121232/781/460/20/
007110/20121213/121232/783/1000/20/
007110/20121213/121232/784/1540/20/
007110/20121213/121247/784/3330/20/
007110/20121213/121247/784/3170/10/
007110/20121213/121255/784/3000/20/
007110/20121213/123928/782/870/20/
007110/20121213/124031/782/280/10/
007110/20121213/124250/783/5030/20/
007110/20121213/124314/783/570/10/
007110/20121213/124353/783/980/20/
007110/20121213/124353/784/4020/20/
007110/20121213/124426/784/100/20/
007110/20121213/124655/784/3870/20/
007110/20121213/124851/784/110/20/
007110/20121213/125140/784/2930/20/
007110/20121213/125224/785/550/20/
007110/20121213/125234/785/400/20/
007110/20121213/125234/785/500/20/
007110/20121213/125234/785/700/20/
007110/20121213/125325/785/240/20/
007110/20121213/125613/785/3030/20/
007110/20121213/125625/785/100/20/
007110/20121213/125636/785/3780/20/
007110/20121213/125636/786/6230/20/
007110/20121213/125830/786/3370/20/
007110/20121213/125830/787/150/20/
007110/20121213/125925/787/120/20/
007110/20121213/125929/787/100/20/
007110/20121213/130023/787/170/20/
007110/20121213/130123/786/2000/10/
007110/20121213/130123/787/100/20/
007110/20121213/130158/786/270/10/
007110/20121213/130359/785/2000/10/
007110/20121213/130521/786/1670/20/
007110/20121213/130623/786/800/20/
007110/20121213/130721/786/1440/20/
007110/20121213/130836/787/570/20/
007110/20121213/131407/787/550/20/
007110/20121213/131423/787/650/20/
007110/20121213/131429/787/2060/20/
007110/20121213/131651/786/1420/10/
007110/20121213/131721/786/840/10/
007110/20121213/131739/786/1540/10/
007110/20121213/131813/786/960/20/
007110/20121213/132027/787/90/20/
007110/20121213/132230/787/330/20/
007110/20121213/132326/787/410/20/
007110/20121213/132636/786/2740/10/
007110/20121213/133225/785/5000/10/
007110/20121213/133258/785/1070/10/
007110/20121213/133455/785/170/10/
007110/20121213/133946/784/2040/10/
007110/20121213/134536/785/620/20/
007110/20121213/135617/784/460/10/
007110/20121213/140140/783/360/10/
007110/20121213/140352/783/160/10/
007110/20121213/140541/782/1240/10/
007110/20121213/140602/782/250/10/
007110/20121213/140623/781/3000/10/
007110/20121213/140629/781/230/10/
007110/20121213/140659/781/270/20/
007110/20121213/140804/781/260/20/
007110/20121213/140839/781/3370/20/
007110/20121213/140853/782/110/20/
007110/20121213/141401/784/1560/20/
007110/20121213/141401/785/3470/20/
007110/20121213/142114/782/100/10/
007110/20121213/142809/784/420/20/
007110/20121213/142908/784/90/20/
007110/20121213/142936/784/100/20/
007110/20121213/143112/784/90/20/
007110/20121213/143241/784/200/20/
007110/20121213/143508/783/1000/10/
007110/20121213/144337/781/3270/10/
007110/20121213/144417/783/250/20/
007110/20121213/144451/783/680/20/
007110/20121213/144553/783/320/10/
007110/20121213/144553/781/560/10/
007110/20121213/144805/783/160/20/
007110/20121213/150000/784/13820/10/
