007110/20130314/90000/925/240/20/
007110/20130314/90244/926/110/10/
007110/20130314/90358/926/2920/20/
007110/20130314/90658/925/9080/10/
007110/20130314/90725/925/4000/10/
007110/20130314/90800/926/990/10/
007110/20130314/90822/926/1560/10/
007110/20130314/90833/926/1200/20/
007110/20130314/90845/925/3000/10/
007110/20130314/91042/925/5010/10/
007110/20130314/91214/925/100/10/
007110/20130314/91244/926/240/20/
007110/20130314/91332/925/3910/10/
007110/20130314/91425/927/100/20/
007110/20130314/91458/927/290/20/
007110/20130314/91554/927/100/10/
007110/20130314/91739/926/1000/10/
007110/20130314/91750/926/280/10/
007110/20130314/91750/925/2720/10/
007110/20130314/91913/925/2000/10/
007110/20130314/92049/925/620/10/
007110/20130314/92138/925/5000/10/
007110/20130314/92208/925/3670/10/
007110/20130314/92533/925/420/10/
007110/20130314/92547/923/450/10/
007110/20130314/93201/924/540/10/
007110/20130314/93522/923/720/10/
007110/20130314/94633/925/150/20/
007110/20130314/95147/925/390/10/
007110/20130314/95452/925/420/20/
007110/20130314/95452/926/110/20/
007110/20130314/95452/927/400/20/
007110/20130314/95452/928/2520/20/
007110/20130314/95452/928/1550/10/
007110/20130314/95523/929/3630/20/
007110/20130314/95523/930/6370/20/
007110/20130314/95618/930/1980/20/
007110/20130314/95625/930/2000/10/
007110/20130314/95653/931/830/20/
007110/20130314/95728/930/1000/10/
007110/20130314/100146/925/3040/10/
007110/20130314/100253/925/340/10/
007110/20130314/100253/923/2180/10/
007110/20130314/100253/922/550/10/
007110/20130314/102425/928/90/20/
007110/20130314/102454/927/100/20/
007110/20130314/102550/924/100/10/
007110/20130314/102550/923/900/10/
007110/20130314/102724/923/2330/10/
007110/20130314/102734/922/2670/10/
007110/20130314/102800/922/1800/10/
007110/20130314/102813/922/3000/20/
007110/20130314/102822/922/640/20/
007110/20130314/103407/922/3000/10/
007110/20130314/103526/922/600/10/
007110/20130314/103526/921/3000/10/
007110/20130314/103654/920/5010/10/
007110/20130314/104215/919/1070/10/
007110/20130314/104342/919/1550/10/
007110/20130314/104354/919/1000/20/
007110/20130314/104407/919/980/20/
007110/20130314/104725/923/1010/20/
007110/20130314/105301/919/1110/10/
007110/20130314/105431/919/300/10/
007110/20130314/105818/919/660/10/
007110/20130314/110144/919/210/10/
007110/20130314/110219/918/1430/10/
007110/20130314/110314/919/100/10/
007110/20130314/110419/917/1160/10/
007110/20130314/110419/916/1170/10/
007110/20130314/110430/916/110/20/
007110/20130314/111009/920/90/20/
007110/20130314/111045/920/130/20/
007110/20130314/111045/920/1340/10/
007110/20130314/111835/922/140/20/
007110/20130314/111835/923/580/20/
007110/20130314/111835/924/490/20/
007110/20130314/111835/925/1830/20/
007110/20130314/111947/925/1000/20/
007110/20130314/112239/925/970/20/
007110/20130314/112239/925/1450/10/
007110/20130314/112656/925/500/20/
007110/20130314/112657/925/100/20/
007110/20130314/112818/925/2840/20/
007110/20130314/112830/925/2000/20/
007110/20130314/112847/925/1000/20/
007110/20130314/112950/926/1050/20/
007110/20130314/113018/926/100/20/
007110/20130314/113024/926/100/20/
007110/20130314/113031/926/100/20/
007110/20130314/113037/926/100/20/
007110/20130314/113041/926/1000/20/
007110/20130314/113044/926/100/20/
007110/20130314/113049/926/100/20/
007110/20130314/113116/926/150/20/
007110/20130314/113122/926/100/20/
007110/20130314/113130/926/110/20/
007110/20130314/113149/926/130/20/
007110/20130314/113155/926/1000/20/
007110/20130314/113200/926/100/20/
007110/20130314/113210/926/110/20/
007110/20130314/113300/926/110/20/
007110/20130314/113316/926/500/20/
007110/20130314/113318/926/100/20/
007110/20130314/113340/926/1050/20/
007110/20130314/113414/926/150/20/
007110/20130314/113415/927/180/20/
007110/20130314/113445/927/90/20/
007110/20130314/113723/925/3030/10/
007110/20130314/113859/926/1500/10/
007110/20130314/114142/927/110/20/
007110/20130314/114243/926/2450/10/
007110/20130314/114348/923/90/10/
007110/20130314/114404/922/180/10/
007110/20130314/114416/922/180/10/
007110/20130314/114505/922/2650/10/
007110/20130314/114505/921/4110/10/
007110/20130314/114505/920/7030/10/
007110/20130314/114544/920/1110/20/
007110/20130314/114547/920/1000/20/
007110/20130314/114654/920/730/20/
007110/20130314/115228/920/750/10/
007110/20130314/115438/923/800/20/
007110/20130314/120634/923/290/20/
007110/20130314/120755/924/2480/20/
007110/20130314/120834/924/490/20/
007110/20130314/121149/922/3000/10/
007110/20130314/121342/925/90/20/
007110/20130314/121952/922/220/10/
007110/20130314/121952/921/2610/10/
007110/20130314/124222/924/1040/20/
007110/20130314/124413/924/1010/10/
007110/20130314/124446/921/290/10/
007110/20130314/124524/920/710/10/
007110/20130314/124704/925/170/20/
007110/20130314/124913/925/100/20/
007110/20130314/125747/924/190/10/
007110/20130314/130206/924/110/20/
007110/20130314/130206/925/4400/20/
007110/20130314/130313/925/2000/20/
007110/20130314/130811/924/100/10/
007110/20130314/131845/923/450/10/
007110/20130314/131944/922/1000/10/
007110/20130314/132324/925/2720/20/
007110/20130314/132527/922/1000/10/
007110/20130314/132829/924/110/20/
007110/20130314/132906/924/200/20/
007110/20130314/132942/924/180/20/
007110/20130314/133010/925/2010/20/
007110/20130314/133037/926/670/20/
007110/20130314/133049/926/100/10/
007110/20130314/133316/926/110/20/
007110/20130314/133336/927/3010/20/
007110/20130314/133412/927/100/20/
007110/20130314/133446/926/100/20/
007110/20130314/133653/922/210/10/
007110/20130314/133854/922/220/10/
007110/20130314/134454/923/1030/10/
007110/20130314/134454/922/480/10/
007110/20130314/134705/926/1170/20/
007110/20130314/135110/927/1980/20/
007110/20130314/135151/927/7690/20/
007110/20130314/135227/927/100/20/
007110/20130314/135533/927/500/20/
007110/20130314/140634/927/2690/20/
007110/20130314/140652/927/470/20/
007110/20130314/140907/927/240/20/
007110/20130314/140907/928/2190/20/
007110/20130314/140907/929/2110/20/
007110/20130314/141544/929/4000/20/
007110/20130314/142104/927/650/10/
007110/20130314/142223/926/400/10/
007110/20130314/142326/927/120/20/
007110/20130314/142548/927/90/20/
007110/20130314/142831/926/790/10/
007110/20130314/143104/926/2650/10/
007110/20130314/143152/926/1950/20/
007110/20130314/143328/928/100/20/
007110/20130314/144216/928/120/20/
007110/20130314/144301/928/1710/20/
007110/20130314/144301/929/2050/20/
007110/20130314/144301/930/1070/20/
007110/20130314/144321/930/180/10/
007110/20130314/144527/930/250/20/
007110/20130314/144536/931/1030/20/
007110/20130314/144546/931/1850/20/
007110/20130314/144546/932/1020/20/
007110/20130314/144546/933/1680/20/
007110/20130314/144546/934/450/20/
007110/20130314/144632/934/4200/20/
007110/20130314/144702/934/380/20/
007110/20130314/144706/934/500/20/
007110/20130314/144844/930/300/10/
007110/20130314/144932/931/120/10/
007110/20130314/144956/930/1020/10/
007110/20130314/144958/930/160/10/
007110/20130314/144958/928/230/10/
007110/20130314/144958/927/1610/10/
007110/20130314/150000/932/5240/20/
