007110/20121126/90000/775/3790/10/
007110/20121126/90019/775/3600/10/
007110/20121126/90144/775/200/10/
007110/20121126/90331/776/1000/10/
007110/20121126/90331/775/1000/10/
007110/20121126/90441/776/100/20/
007110/20121126/90609/777/2030/10/
007110/20121126/90609/776/2870/10/
007110/20121126/90645/776/200/10/
007110/20121126/90654/776/1830/10/
007110/20121126/90655/776/6600/20/
007110/20121126/90732/777/870/10/
007110/20121126/91043/783/980/20/
007110/20121126/91050/783/90/10/
007110/20121126/91148/783/100/20/
007110/20121126/91200/783/730/10/
007110/20121126/91223/783/3070/10/
007110/20121126/91230/783/200/10/
007110/20121126/91336/783/510/10/
007110/20121126/91339/783/200/10/
007110/20121126/91401/783/500/10/
007110/20121126/91523/783/330/10/
007110/20121126/91641/780/710/10/
007110/20121126/91820/777/2080/10/
007110/20121126/91820/777/5690/20/
007110/20121126/91910/777/2350/10/
007110/20121126/91921/777/440/20/
007110/20121126/91947/777/2000/10/
007110/20121126/91953/777/600/10/
007110/20121126/91953/776/2630/10/
007110/20121126/92130/777/460/10/
007110/20121126/92402/777/900/10/
007110/20121126/92953/782/110/20/
007110/20121126/92953/783/400/20/
007110/20121126/93109/782/2030/20/
007110/20121126/93109/783/970/20/
007110/20121126/93111/783/510/20/
007110/20121126/93137/784/960/20/
007110/20121126/93218/784/3560/10/
007110/20121126/93304/784/1020/20/
007110/20121126/93318/784/5440/20/
007110/20121126/93611/786/1050/20/
007110/20121126/93618/786/100/10/
007110/20121126/93631/788/770/20/
007110/20121126/93631/789/650/20/
007110/20121126/93632/789/2160/20/
007110/20121126/93638/790/100/20/
007110/20121126/93644/790/500/20/
007110/20121126/93658/790/120/20/
007110/20121126/93703/789/3500/20/
007110/20121126/93725/790/1000/20/
007110/20121126/93729/790/1420/20/
007110/20121126/93807/792/3090/20/
007110/20121126/93807/793/910/20/
007110/20121126/93833/791/600/20/
007110/20121126/94001/791/1000/20/
007110/20121126/94016/791/200/10/
007110/20121126/94022/791/100/10/
007110/20121126/94023/792/1200/20/
007110/20121126/94024/791/500/10/
007110/20121126/94030/791/200/10/
007110/20121126/94046/791/200/20/
007110/20121126/94054/791/800/20/
007110/20121126/94054/792/500/20/
007110/20121126/94510/787/200/10/
007110/20121126/94511/787/600/10/
007110/20121126/94511/786/610/10/
007110/20121126/94528/786/400/10/
007110/20121126/94537/786/90/10/
007110/20121126/94642/785/130/10/
007110/20121126/94822/786/130/10/
007110/20121126/94929/786/180/10/
007110/20121126/94944/785/3520/10/
007110/20121126/95006/785/2760/10/
007110/20121126/95035/785/240/20/
007110/20121126/95159/786/510/20/
007110/20121126/95238/786/180/20/
007110/20121126/95527/786/300/20/
007110/20121126/95656/786/130/20/
007110/20121126/95657/786/150/20/
007110/20121126/95732/786/330/20/
007110/20121126/100056/786/550/20/
007110/20121126/100341/787/110/20/
007110/20121126/100441/787/560/20/
007110/20121126/100544/788/200/20/
007110/20121126/101001/788/310/20/
007110/20121126/101057/788/190/10/
007110/20121126/101118/787/3000/10/
007110/20121126/101142/787/110/10/
007110/20121126/101159/787/100/10/
007110/20121126/101214/787/200/10/
007110/20121126/101251/787/100/10/
007110/20121126/102103/786/90/10/
007110/20121126/102116/785/580/10/
007110/20121126/102116/784/4500/10/
007110/20121126/102337/784/1880/10/
007110/20121126/102527/783/140/10/
007110/20121126/102527/782/2030/10/
007110/20121126/102527/781/180/10/
007110/20121126/102527/780/2330/10/
007110/20121126/102547/780/1080/10/
007110/20121126/102555/780/100/20/
007110/20121126/102740/784/260/10/
007110/20121126/102750/784/200/10/
007110/20121126/102907/784/100/20/
007110/20121126/103340/787/2000/20/
007110/20121126/103407/788/100/20/
007110/20121126/103551/788/1070/20/
007110/20121126/103609/787/5000/10/
007110/20121126/103842/788/100/20/
007110/20121126/104015/788/1920/20/
007110/20121126/104054/784/3180/10/
007110/20121126/104054/781/1840/10/
007110/20121126/104156/781/530/10/
007110/20121126/104505/782/110/10/
007110/20121126/104744/782/210/10/
007110/20121126/105623/782/1000/10/
007110/20121126/105739/782/1500/10/
007110/20121126/110050/782/1200/10/
007110/20121126/110659/784/3030/10/
007110/20121126/111243/784/1600/20/
007110/20121126/111432/785/100/20/
007110/20121126/111509/784/330/10/
007110/20121126/112147/785/500/20/
007110/20121126/112304/785/500/20/
007110/20121126/112406/784/950/10/
007110/20121126/112611/785/580/20/
007110/20121126/112639/785/420/20/
007110/20121126/112759/784/1000/10/
007110/20121126/113220/785/2460/10/
007110/20121126/113426/785/1000/20/
007110/20121126/113506/785/140/20/
007110/20121126/113510/784/2000/10/
007110/20121126/113544/784/2000/10/
007110/20121126/113826/784/500/10/
007110/20121126/114123/784/590/10/
007110/20121126/114210/784/600/10/
007110/20121126/114232/783/100/10/
007110/20121126/114357/785/90/20/
007110/20121126/115506/785/4000/20/
007110/20121126/115747/785/650/10/
007110/20121126/120201/786/130/20/
007110/20121126/120543/786/500/20/
007110/20121126/121043/785/1000/10/
007110/20121126/121600/785/1500/10/
007110/20121126/121638/786/1400/20/
007110/20121126/121655/787/100/20/
007110/20121126/121752/787/800/20/
007110/20121126/121823/787/1120/20/
007110/20121126/122000/787/500/10/
007110/20121126/122121/787/1000/10/
007110/20121126/122339/785/450/10/
007110/20121126/122435/784/2000/10/
007110/20121126/122706/784/570/10/
007110/20121126/122809/788/200/20/
007110/20121126/122938/785/620/10/
007110/20121126/122950/785/2380/10/
007110/20121126/122959/784/620/10/
007110/20121126/123320/784/530/10/
007110/20121126/123341/783/600/10/
007110/20121126/123822/783/2820/10/
007110/20121126/124753/783/530/10/
007110/20121126/124816/782/100/10/
007110/20121126/124832/782/1600/10/
007110/20121126/124854/781/730/10/
007110/20121126/125016/782/2500/10/
007110/20121126/125421/785/310/20/
007110/20121126/125504/781/3240/10/
007110/20121126/125536/780/930/10/
007110/20121126/125542/780/2100/10/
007110/20121126/125712/780/200/10/
007110/20121126/130023/785/1010/20/
007110/20121126/130035/785/1000/20/
007110/20121126/130045/780/2500/10/
007110/20121126/130047/785/100/20/
007110/20121126/130055/785/100/20/
007110/20121126/130215/785/520/20/
007110/20121126/130253/785/1000/20/
007110/20121126/130312/785/200/20/
007110/20121126/130407/785/110/20/
007110/20121126/130941/785/1020/20/
007110/20121126/131042/785/670/20/
007110/20121126/132133/781/710/10/
007110/20121126/132506/782/2960/20/
007110/20121126/132717/783/1030/20/
007110/20121126/132800/784/90/20/
007110/20121126/132802/784/90/20/
007110/20121126/132807/784/90/20/
007110/20121126/132810/784/130/20/
007110/20121126/132816/784/90/20/
007110/20121126/132822/784/90/20/
007110/20121126/132827/784/90/20/
007110/20121126/132831/784/90/20/
007110/20121126/132835/784/90/20/
007110/20121126/132840/784/90/20/
007110/20121126/132845/785/90/20/
007110/20121126/132850/785/90/20/
007110/20121126/132855/785/90/20/
007110/20121126/132859/785/90/20/
007110/20121126/132903/784/90/20/
007110/20121126/132908/784/90/20/
007110/20121126/132912/785/90/20/
007110/20121126/132917/785/90/20/
007110/20121126/132928/785/510/20/
007110/20121126/133032/785/1580/20/
007110/20121126/133219/783/630/10/
007110/20121126/133219/782/870/10/
007110/20121126/133544/785/540/20/
007110/20121126/133606/785/5650/20/
007110/20121126/133909/786/260/20/
007110/20121126/134010/786/1970/20/
007110/20121126/134116/787/2200/20/
007110/20121126/134200/788/2930/20/
007110/20121126/134213/788/1510/20/
007110/20121126/134219/789/90/20/
007110/20121126/134225/789/90/20/
007110/20121126/134229/789/90/20/
007110/20121126/134235/789/90/20/
007110/20121126/134236/789/2010/20/
007110/20121126/134239/789/130/20/
007110/20121126/134244/790/90/20/
007110/20121126/134244/789/1180/10/
007110/20121126/134244/787/1350/10/
007110/20121126/134315/790/1420/20/
007110/20121126/134449/789/100/20/
007110/20121126/134548/787/1400/10/
007110/20121126/134559/786/1080/10/
007110/20121126/134618/785/550/10/
007110/20121126/134639/785/1010/10/
007110/20121126/134817/788/110/20/
007110/20121126/134817/789/100/20/
007110/20121126/135425/789/2210/20/
007110/20121126/135953/785/4400/10/
007110/20121126/140138/786/1500/10/
007110/20121126/140204/786/1500/10/
007110/20121126/140204/785/3000/10/
007110/20121126/140715/785/190/10/
007110/20121126/140715/784/410/10/
007110/20121126/140715/783/160/10/
007110/20121126/140957/783/440/10/
007110/20121126/141152/782/760/10/
007110/20121126/141213/783/100/20/
007110/20121126/141333/783/150/20/
007110/20121126/141557/783/1000/10/
007110/20121126/141836/783/3040/10/
007110/20121126/142009/783/90/10/
007110/20121126/142148/784/90/10/
007110/20121126/142333/783/90/10/
007110/20121126/142347/784/90/20/
007110/20121126/142435/785/90/10/
007110/20121126/142613/785/90/10/
007110/20121126/142739/785/90/10/
007110/20121126/143014/784/160/10/
007110/20121126/143107/784/90/20/
007110/20121126/143124/784/90/20/
007110/20121126/143126/784/110/20/
007110/20121126/143132/784/130/20/
007110/20121126/143149/784/90/20/
007110/20121126/143206/784/90/20/
007110/20121126/143221/784/90/20/
007110/20121126/143237/784/90/20/
007110/20121126/143246/784/430/20/
007110/20121126/143304/785/90/20/
007110/20121126/143322/785/90/20/
007110/20121126/143340/785/90/20/
007110/20121126/143436/784/540/10/
007110/20121126/143553/784/1150/10/
007110/20121126/143612/783/3000/10/
007110/20121126/143844/782/1440/10/
007110/20121126/144032/782/100/10/
007110/20121126/144032/781/3200/10/
007110/20121126/144359/783/710/20/
007110/20121126/144437/783/570/20/
007110/20121126/144439/783/100/20/
007110/20121126/144531/782/1020/10/
007110/20121126/144611/782/140/20/
007110/20121126/144630/782/840/20/
007110/20121126/144645/783/1120/20/
007110/20121126/144645/784/4710/20/
007110/20121126/144710/782/500/10/
007110/20121126/144818/782/240/10/
007110/20121126/144822/782/380/10/
007110/20121126/144958/782/6170/20/
007110/20121126/150000/781/11700/10/
