007110/20130329/90000/917/2510/20/
007110/20130329/90019/917/220/20/
007110/20130329/90157/913/1000/10/
007110/20130329/90232/913/500/10/
007110/20130329/90342/913/300/10/
007110/20130329/90427/913/300/10/
007110/20130329/90427/912/1570/10/
007110/20130329/90534/912/680/10/
007110/20130329/90545/912/3060/20/
007110/20130329/90702/916/310/20/
007110/20130329/90730/916/2000/20/
007110/20130329/90752/917/260/20/
007110/20130329/90755/916/1100/10/
007110/20130329/90803/917/2070/20/
007110/20130329/91008/919/850/20/
007110/20130329/91106/919/700/20/
007110/20130329/91317/919/4200/20/
007110/20130329/91317/920/3490/20/
007110/20130329/91317/922/2320/20/
007110/20130329/91457/919/1320/10/
007110/20130329/91841/920/110/20/
007110/20130329/91929/917/1420/10/
007110/20130329/92025/917/170/10/
007110/20130329/92025/916/5700/10/
007110/20130329/92218/916/1500/10/
007110/20130329/92319/919/710/20/
007110/20130329/92525/919/940/20/
007110/20130329/92531/919/2170/20/
007110/20130329/92607/918/700/20/
007110/20130329/92607/919/300/20/
007110/20130329/92623/919/1510/20/
007110/20130329/92658/919/1900/20/
007110/20130329/92718/920/1260/20/
007110/20130329/92753/921/1650/10/
007110/20130329/92753/922/1020/10/
007110/20130329/92753/923/1140/10/
007110/20130329/92753/924/220/20/
007110/20130329/92859/924/700/20/
007110/20130329/93125/924/90/20/
007110/20130329/93329/919/2010/10/
007110/20130329/93407/919/100/10/
007110/20130329/93912/919/100/10/
007110/20130329/93920/917/2770/10/
007110/20130329/93922/917/2760/10/
007110/20130329/93929/917/240/20/
007110/20130329/93930/917/760/10/
007110/20130329/94005/917/1800/20/
007110/20130329/94606/917/1010/10/
007110/20130329/94712/917/850/10/
007110/20130329/94817/917/90/10/
007110/20130329/94830/922/360/20/
007110/20130329/94905/918/270/10/
007110/20130329/94905/917/1730/10/
007110/20130329/95136/917/490/10/
007110/20130329/95258/916/2010/10/
007110/20130329/95338/921/1000/20/
007110/20130329/95350/921/100/10/
007110/20130329/95938/916/510/10/
007110/20130329/95938/915/3210/10/
007110/20130329/95948/915/100/20/
007110/20130329/100015/915/1060/20/
007110/20130329/100027/915/140/20/
007110/20130329/100102/915/160/10/
007110/20130329/100127/915/140/20/
007110/20130329/101051/917/650/10/
007110/20130329/101051/916/1420/10/
007110/20130329/101142/916/1000/10/
007110/20130329/101207/916/100/10/
007110/20130329/101416/916/100/10/
007110/20130329/101730/916/570/10/
007110/20130329/101730/915/1430/10/
007110/20130329/101834/918/620/10/
007110/20130329/102144/919/920/20/
007110/20130329/102650/917/3580/10/
007110/20130329/102819/920/1000/20/
007110/20130329/103052/920/200/20/
007110/20130329/103150/920/3000/20/
007110/20130329/103348/920/1500/20/
007110/20130329/103434/920/100/20/
007110/20130329/103601/920/1040/20/
007110/20130329/103658/920/170/20/
007110/20130329/103822/917/5000/10/
007110/20130329/104023/917/4020/10/
007110/20130329/104405/917/3470/10/
007110/20130329/104607/917/150/20/
007110/20130329/104708/916/10000/10/
007110/20130329/105046/916/100/10/
007110/20130329/105046/915/6300/10/
007110/20130329/105046/914/7820/10/
007110/20130329/105046/913/5780/10/
007110/20130329/105136/917/90/20/
007110/20130329/105747/916/4000/20/
007110/20130329/105751/917/1640/20/
007110/20130329/105802/918/500/20/
007110/20130329/105806/919/3700/20/
007110/20130329/105821/919/300/10/
007110/20130329/105832/919/360/20/
007110/20130329/110006/918/1000/10/
007110/20130329/110015/918/1910/10/
007110/20130329/110026/918/590/10/
007110/20130329/110325/917/2000/10/
007110/20130329/110403/917/200/10/
007110/20130329/110442/917/160/10/
007110/20130329/110444/917/180/20/
007110/20130329/110910/917/220/20/
007110/20130329/111526/917/100/10/
007110/20130329/111647/917/700/20/
007110/20130329/111858/917/130/20/
007110/20130329/111955/917/140/20/
007110/20130329/112029/917/200/20/
007110/20130329/112337/916/330/10/
007110/20130329/112337/915/3860/10/
007110/20130329/112601/915/2250/10/
007110/20130329/112601/914/1930/10/
007110/20130329/113627/915/200/10/
007110/20130329/113748/916/100/10/
007110/20130329/113748/915/400/10/
007110/20130329/115405/915/150/10/
007110/20130329/120029/915/6710/10/
007110/20130329/121342/915/750/10/
007110/20130329/121352/915/2010/10/
007110/20130329/121515/915/710/10/
007110/20130329/121518/915/1920/20/
007110/20130329/121616/916/280/20/
007110/20130329/121717/916/1210/20/
007110/20130329/121733/916/670/20/
007110/20130329/121925/917/130/20/
007110/20130329/121935/917/3920/20/
007110/20130329/121935/918/1080/20/
007110/20130329/121942/918/150/20/
007110/20130329/121949/918/880/10/
007110/20130329/122131/919/210/20/
007110/20130329/122311/919/1980/20/
007110/20130329/122341/919/1700/20/
007110/20130329/122343/919/530/20/
007110/20130329/122457/919/110/10/
007110/20130329/122520/919/450/10/
007110/20130329/122535/920/1050/20/
007110/20130329/122554/920/1000/20/
007110/20130329/122625/920/9520/20/
007110/20130329/122645/920/1510/10/
007110/20130329/123237/919/2630/10/
007110/20130329/123421/920/110/20/
007110/20130329/124127/916/1570/10/
007110/20130329/124127/915/810/10/
007110/20130329/124127/914/5190/10/
007110/20130329/124901/916/90/10/
007110/20130329/125815/917/270/10/
007110/20130329/125815/915/100/10/
007110/20130329/130841/917/100/20/
007110/20130329/130922/915/700/10/
007110/20130329/131503/917/2900/20/
007110/20130329/131732/918/1060/20/
007110/20130329/132107/918/170/10/
007110/20130329/132107/917/2190/10/
007110/20130329/132205/916/560/10/
007110/20130329/132212/916/90/20/
007110/20130329/132958/919/350/20/
007110/20130329/133236/919/2710/20/
007110/20130329/133455/919/1050/10/
007110/20130329/133907/918/1060/10/
007110/20130329/134142/918/1000/10/
007110/20130329/134217/917/1120/10/
007110/20130329/134338/917/4430/20/
007110/20130329/134648/917/320/10/
007110/20130329/134909/917/690/20/
007110/20130329/135210/917/300/10/
007110/20130329/135249/916/970/10/
007110/20130329/135320/916/740/20/
007110/20130329/135536/916/120/10/
007110/20130329/135918/916/100/10/
007110/20130329/141027/916/90/10/
007110/20130329/141106/915/110/10/
007110/20130329/141142/915/1310/10/
007110/20130329/141153/915/3000/20/
007110/20130329/141315/914/3020/10/
007110/20130329/141322/914/200/10/
007110/20130329/141332/914/340/10/
007110/20130329/141516/914/8000/10/
007110/20130329/141753/914/360/20/
007110/20130329/141754/914/350/20/
007110/20130329/141808/914/350/20/
007110/20130329/141811/914/300/20/
007110/20130329/141817/914/370/20/
007110/20130329/141823/914/100/10/
007110/20130329/141833/915/100/20/
007110/20130329/142139/915/910/10/
007110/20130329/142231/915/360/10/
007110/20130329/143114/915/810/10/
007110/20130329/143422/915/120/10/
007110/20130329/143422/914/890/10/
007110/20130329/143812/916/400/10/
007110/20130329/143812/915/2000/10/
007110/20130329/143812/914/130/10/
007110/20130329/143827/914/2400/10/
007110/20130329/144211/917/1110/20/
007110/20130329/144250/917/940/20/
007110/20130329/144331/917/170/10/
007110/20130329/144605/916/940/10/
007110/20130329/144605/914/1960/10/
007110/20130329/144623/914/2730/10/
007110/20130329/144623/913/280/10/
007110/20130329/144754/913/10630/10/
007110/20130329/144811/912/3000/10/
007110/20130329/144852/913/200/20/
007110/20130329/144914/913/890/20/
007110/20130329/144923/913/1000/20/
007110/20130329/144938/913/1280/20/
007110/20130329/150000/915/4630/20/
