007110/20130228/90000/957/580/10/
007110/20130228/90006/957/7000/10/
007110/20130228/90014/957/1940/10/
007110/20130228/90041/957/3010/10/
007110/20130228/90048/957/500/10/
007110/20130228/90049/957/300/10/
007110/20130228/90118/957/150/10/
007110/20130228/90118/955/1570/10/
007110/20130228/90124/955/130/10/
007110/20130228/90124/954/9870/10/
007110/20130228/90137/954/3810/10/
007110/20130228/90137/954/1970/20/
007110/20130228/90140/953/500/10/
007110/20130228/90148/953/2000/10/
007110/20130228/90210/958/90/20/
007110/20130228/90303/957/90/20/
007110/20130228/90511/955/490/10/
007110/20130228/90521/955/130/10/
007110/20130228/90535/955/1950/10/
007110/20130228/90541/955/100/20/
007110/20130228/90553/954/3000/10/
007110/20130228/90559/955/200/20/
007110/20130228/90600/954/820/10/
007110/20130228/90623/953/1010/10/
007110/20130228/90628/953/1000/10/
007110/20130228/90639/953/1490/10/
007110/20130228/90643/952/3370/10/
007110/20130228/90643/951/890/10/
007110/20130228/90712/953/400/20/
007110/20130228/90719/951/7870/10/
007110/20130228/90719/950/10810/10/
007110/20130228/90809/951/290/20/
007110/20130228/90836/951/200/20/
007110/20130228/90855/951/160/10/
007110/20130228/90918/951/1070/10/
007110/20130228/90928/951/430/20/
007110/20130228/90952/951/1000/20/
007110/20130228/90958/951/270/20/
007110/20130228/91006/951/200/20/
007110/20130228/91032/951/550/20/
007110/20130228/91034/951/980/20/
007110/20130228/91041/951/1000/10/
007110/20130228/91157/951/3900/10/
007110/20130228/91204/951/100/20/
007110/20130228/91210/951/400/10/
007110/20130228/91223/951/600/20/
007110/20130228/91228/951/400/10/
007110/20130228/91231/951/200/20/
007110/20130228/91241/951/310/20/
007110/20130228/91257/951/90/20/
007110/20130228/91302/951/110/10/
007110/20130228/91315/951/460/20/
007110/20130228/91315/951/430/20/
007110/20130228/91315/953/400/20/
007110/20130228/91316/950/3580/10/
007110/20130228/91316/949/2070/10/
007110/20130228/91349/949/370/10/
007110/20130228/91349/948/2500/10/
007110/20130228/91458/950/500/10/
007110/20130228/91501/949/2160/10/
007110/20130228/91502/949/100/20/
007110/20130228/91502/948/5100/10/
007110/20130228/91504/950/100/20/
007110/20130228/91515/950/120/20/
007110/20130228/91526/950/320/20/
007110/20130228/91537/950/110/20/
007110/20130228/91545/952/190/20/
007110/20130228/91546/950/120/10/
007110/20130228/91546/948/760/10/
007110/20130228/91546/947/720/10/
007110/20130228/91803/952/320/20/
007110/20130228/91813/949/4060/10/
007110/20130228/91813/948/1500/10/
007110/20130228/91854/948/870/10/
007110/20130228/91932/954/100/20/
007110/20130228/91932/955/640/20/
007110/20130228/91932/956/260/20/
007110/20130228/92111/950/1000/10/
007110/20130228/92230/956/870/20/
007110/20130228/92230/957/180/20/
007110/20130228/92543/956/340/20/
007110/20130228/92637/956/110/20/
007110/20130228/92707/956/4840/20/
007110/20130228/92728/956/100/10/
007110/20130228/92729/956/1060/10/
007110/20130228/92909/956/940/20/
007110/20130228/92913/957/4470/20/
007110/20130228/92938/957/4000/10/
007110/20130228/92945/957/1700/10/
007110/20130228/93213/953/1110/10/
007110/20130228/93349/953/350/10/
007110/20130228/93444/955/500/10/
007110/20130228/93511/955/210/20/
007110/20130228/93543/955/90/20/
007110/20130228/93543/956/6700/20/
007110/20130228/93543/957/4360/20/
007110/20130228/93618/953/500/10/
007110/20130228/93722/956/1030/20/
007110/20130228/93722/957/4000/20/
007110/20130228/93906/957/1000/20/
007110/20130228/94033/957/100/20/
007110/20130228/94134/957/520/20/
007110/20130228/94209/957/1590/20/
007110/20130228/94300/957/110/10/
007110/20130228/94302/955/3040/10/
007110/20130228/94325/954/2000/10/
007110/20130228/94332/954/100/10/
007110/20130228/94333/954/1000/10/
007110/20130228/94342/954/500/10/
007110/20130228/94504/954/6000/10/
007110/20130228/94506/954/450/10/
007110/20130228/94529/954/890/10/
007110/20130228/94619/954/500/10/
007110/20130228/94619/954/1710/10/
007110/20130228/94619/953/1290/10/
007110/20130228/94707/953/1900/10/
007110/20130228/94756/953/2970/10/
007110/20130228/94829/953/1000/20/
007110/20130228/94848/952/1100/10/
007110/20130228/95033/953/2030/10/
007110/20130228/95134/955/2580/20/
007110/20130228/95134/957/2420/20/
007110/20130228/95509/957/3000/20/
007110/20130228/95838/957/2000/20/
007110/20130228/95936/957/5080/20/
007110/20130228/95952/957/2000/10/
007110/20130228/95955/958/200/20/
007110/20130228/100039/957/2920/10/
007110/20130228/100135/954/4330/10/
007110/20130228/100143/954/1150/10/
007110/20130228/100215/953/140/10/
007110/20130228/100404/954/120/20/
007110/20130228/100532/954/1640/20/
007110/20130228/100653/954/3820/10/
007110/20130228/100921/953/500/10/
007110/20130228/100931/953/3080/10/
007110/20130228/101353/954/300/10/
007110/20130228/101421/954/9690/10/
007110/20130228/101421/953/310/10/
007110/20130228/101546/953/100/10/
007110/20130228/101635/955/700/20/
007110/20130228/101752/955/310/20/
007110/20130228/102115/955/300/20/
007110/20130228/102246/955/550/20/
007110/20130228/102306/955/100/20/
007110/20130228/102339/955/1090/20/
007110/20130228/102444/955/150/20/
007110/20130228/102518/955/1100/20/
007110/20130228/102555/956/1050/20/
007110/20130228/102555/957/950/20/
007110/20130228/102615/957/110/20/
007110/20130228/102638/957/200/20/
007110/20130228/102653/957/300/20/
007110/20130228/102715/957/100/20/
007110/20130228/102940/957/5000/20/
007110/20130228/103018/957/200/20/
007110/20130228/103028/957/100/20/
007110/20130228/103036/957/550/20/
007110/20130228/103411/957/240/20/
007110/20130228/103422/957/200/20/
007110/20130228/103658/957/1910/20/
007110/20130228/103824/957/90/20/
007110/20130228/103848/957/300/10/
007110/20130228/103852/958/100/20/
007110/20130228/103857/958/250/20/
007110/20130228/103920/958/4100/20/
007110/20130228/103928/958/100/20/
007110/20130228/103950/958/1000/20/
007110/20130228/104046/958/280/20/
007110/20130228/104101/958/2400/20/
007110/20130228/104124/958/2500/10/
007110/20130228/104223/959/860/20/
007110/20130228/104434/959/100/20/
007110/20130228/104522/958/510/10/
007110/20130228/104522/957/4280/10/
007110/20130228/104522/956/1910/10/
007110/20130228/104522/955/3010/10/
007110/20130228/104522/954/3380/10/
007110/20130228/104810/959/270/20/
007110/20130228/104931/958/1000/10/
007110/20130228/104948/959/90/20/
007110/20130228/104955/958/110/10/
007110/20130228/105018/958/500/10/
007110/20130228/105117/959/2600/20/
007110/20130228/105118/957/160/10/
007110/20130228/105118/956/120/10/
007110/20130228/105118/955/220/10/
007110/20130228/105447/958/1810/20/
007110/20130228/105517/959/100/20/
007110/20130228/105544/959/100/20/
007110/20130228/105606/959/400/20/
007110/20130228/105615/959/200/20/
007110/20130228/105621/959/1000/20/
007110/20130228/105626/959/4010/20/
007110/20130228/105644/958/1030/20/
007110/20130228/105719/958/1050/20/
007110/20130228/105721/958/1000/20/
007110/20130228/105756/958/1020/20/
007110/20130228/105811/958/110/20/
007110/20130228/105941/957/1020/10/
007110/20130228/105950/958/130/20/
007110/20130228/110012/958/2000/20/
007110/20130228/110027/958/200/20/
007110/20130228/110040/958/3520/20/
007110/20130228/110058/958/110/20/
007110/20130228/110059/958/2930/20/
007110/20130228/110334/957/580/10/
007110/20130228/110341/957/800/10/
007110/20130228/110452/957/3820/10/
007110/20130228/110515/957/1290/20/
007110/20130228/110622/958/760/20/
007110/20130228/110629/958/3500/20/
007110/20130228/110639/958/100/20/
007110/20130228/110659/958/300/20/
007110/20130228/110716/958/300/20/
007110/20130228/110721/958/8000/20/
007110/20130228/110842/959/380/20/
007110/20130228/110907/959/1000/20/
007110/20130228/111033/959/1060/20/
007110/20130228/111111/958/300/10/
007110/20130228/111116/958/4000/10/
007110/20130228/111219/958/980/10/
007110/20130228/111303/958/1600/10/
007110/20130228/111357/958/1610/10/
007110/20130228/111646/958/260/10/
007110/20130228/111708/959/1010/20/
007110/20130228/111850/959/100/20/
007110/20130228/111856/959/4050/20/
007110/20130228/111856/959/7540/20/
007110/20130228/111918/960/530/20/
007110/20130228/111938/960/2000/20/
007110/20130228/111940/960/130/20/
007110/20130228/111950/959/1400/10/
007110/20130228/111953/960/310/20/
007110/20130228/112133/959/2000/10/
007110/20130228/112158/959/2860/10/
007110/20130228/112334/960/290/20/
007110/20130228/112354/960/5270/20/
007110/20130228/112354/960/2790/20/
007110/20130228/112421/960/310/20/
007110/20130228/112421/961/700/20/
007110/20130228/112432/960/400/10/
007110/20130228/112547/961/1020/20/
007110/20130228/112547/961/7400/20/
007110/20130228/112706/962/280/20/
007110/20130228/112724/962/1000/20/
007110/20130228/112724/962/4930/20/
007110/20130228/112735/963/710/20/
007110/20130228/112751/963/1000/20/
007110/20130228/112752/963/2940/20/
007110/20130228/112815/964/530/20/
007110/20130228/112820/964/120/20/
007110/20130228/112823/964/1780/20/
007110/20130228/112836/964/690/10/
007110/20130228/112847/964/150/20/
007110/20130228/112905/965/200/20/
007110/20130228/112908/964/100/10/
007110/20130228/112913/964/790/10/
007110/20130228/112919/964/210/20/
007110/20130228/112940/965/1270/20/
007110/20130228/113038/966/250/20/
007110/20130228/113044/966/1780/10/
007110/20130228/113048/966/1240/20/
007110/20130228/113048/967/3110/20/
007110/20130228/113048/968/650/20/
007110/20130228/113109/968/1240/20/
007110/20130228/113114/968/200/20/
007110/20130228/113124/969/3230/20/
007110/20130228/113124/970/1780/20/
007110/20130228/113126/970/10000/20/
007110/20130228/113130/969/630/10/
007110/20130228/113132/969/2370/20/
007110/20130228/113132/970/1100/20/
007110/20130228/113138/970/6810/10/
007110/20130228/113142/970/160/20/
007110/20130228/113144/970/1000/20/
007110/20130228/113145/970/1000/20/
007110/20130228/113210/970/1030/20/
007110/20130228/113241/967/2140/10/
007110/20130228/113339/965/2150/10/
007110/20130228/113346/965/530/10/
007110/20130228/113349/965/1000/10/
007110/20130228/113352/965/230/10/
007110/20130228/113439/965/200/10/
007110/20130228/113445/967/1040/20/
007110/20130228/113445/967/290/20/
007110/20130228/113450/967/500/20/
007110/20130228/113536/967/230/20/
007110/20130228/113536/969/280/20/
007110/20130228/113600/969/570/20/
007110/20130228/113614/970/2170/20/
007110/20130228/113623/970/4000/10/
007110/20130228/113624/971/100/20/
007110/20130228/113641/971/1000/20/
007110/20130228/113644/971/910/20/
007110/20130228/113646/971/180/10/
007110/20130228/113646/970/830/10/
007110/20130228/113651/972/1340/20/
007110/20130228/113721/970/1010/10/
007110/20130228/113743/970/1150/10/
007110/20130228/113754/970/1050/20/
007110/20130228/113813/970/150/10/
007110/20130228/113822/970/1000/20/
007110/20130228/113844/971/280/20/
007110/20130228/113849/970/400/10/
007110/20130228/113915/970/610/10/
007110/20130228/113915/969/1430/10/
007110/20130228/114002/970/2210/20/
007110/20130228/114011/971/3000/20/
007110/20130228/114036/971/3000/20/
007110/20130228/114038/971/610/20/
007110/20130228/114107/971/1040/10/
007110/20130228/114200/972/4830/20/
007110/20130228/114218/971/1000/10/
007110/20130228/114221/971/1340/10/
007110/20130228/114235/971/5000/20/
007110/20130228/114249/970/300/10/
007110/20130228/114255/971/230/20/
007110/20130228/114321/971/320/20/
007110/20130228/114328/970/100/10/
007110/20130228/114331/971/1000/20/
007110/20130228/114408/970/7100/10/
007110/20130228/114412/970/2540/10/
007110/20130228/114418/969/1050/10/
007110/20130228/114426/969/150/10/
007110/20130228/114549/970/1020/20/
007110/20130228/114555/969/910/10/
007110/20130228/114612/969/960/20/
007110/20130228/114700/969/150/20/
007110/20130228/114700/970/1830/20/
007110/20130228/114744/969/2000/20/
007110/20130228/114839/966/210/10/
007110/20130228/115021/969/260/20/
007110/20130228/115201/966/110/10/
007110/20130228/115305/966/110/10/
007110/20130228/115446/968/500/20/
007110/20130228/115538/968/100/20/
007110/20130228/115609/966/90/10/
007110/20130228/115616/968/300/20/
007110/20130228/115632/966/2000/10/
007110/20130228/115647/966/1000/10/
007110/20130228/115658/966/500/10/
007110/20130228/115742/966/300/10/
007110/20130228/115842/964/1000/10/
007110/20130228/120125/964/1010/10/
007110/20130228/120359/966/280/20/
007110/20130228/120530/967/390/20/
007110/20130228/120648/964/1580/10/
007110/20130228/121007/965/100/10/
007110/20130228/121213/964/170/10/
007110/20130228/121459/965/610/20/
007110/20130228/121517/967/400/20/
007110/20130228/121734/968/3430/20/
007110/20130228/121829/968/440/20/
007110/20130228/121847/967/1000/10/
007110/20130228/121916/968/1000/20/
007110/20130228/121942/967/1500/10/
007110/20130228/121949/968/610/20/
007110/20130228/122035/968/90/10/
007110/20130228/122049/968/3420/20/
007110/20130228/122105/969/200/20/
007110/20130228/122139/969/2790/20/
007110/20130228/122205/969/770/20/
007110/20130228/122247/968/2290/10/
007110/20130228/122248/969/400/20/
007110/20130228/122258/969/1420/20/
007110/20130228/122309/968/1960/10/
007110/20130228/122420/968/1000/10/
007110/20130228/122426/969/200/20/
007110/20130228/122438/969/100/20/
007110/20130228/122442/969/1070/20/
007110/20130228/122555/968/430/20/
007110/20130228/122621/968/280/10/
007110/20130228/122653/968/320/20/
007110/20130228/122830/969/2100/20/
007110/20130228/123003/968/400/10/
007110/20130228/123046/968/540/10/
007110/20130228/123046/967/210/10/
007110/20130228/123722/969/450/20/
007110/20130228/124021/968/1280/10/
007110/20130228/124026/968/530/10/
007110/20130228/124108/969/200/20/
007110/20130228/124109/969/1940/20/
007110/20130228/124135/970/4000/20/
007110/20130228/124145/970/4000/20/
007110/20130228/124203/970/500/20/
007110/20130228/124250/970/1000/20/
007110/20130228/124250/969/3060/10/
007110/20130228/124250/968/220/10/
007110/20130228/124333/970/4000/20/
007110/20130228/124416/970/90/10/
007110/20130228/124430/970/500/10/
007110/20130228/124521/970/580/10/
007110/20130228/124537/970/130/20/
007110/20130228/124557/970/160/20/
007110/20130228/124653/970/100/10/
007110/20130228/124805/970/2050/10/
007110/20130228/124830/970/500/10/
007110/20130228/124844/970/130/10/
007110/20130228/125035/970/350/20/
007110/20130228/125211/970/430/10/
007110/20130228/125218/970/430/10/
007110/20130228/125225/970/340/10/
007110/20130228/125234/969/1990/10/
007110/20130228/125234/968/3010/10/
007110/20130228/125441/968/1750/10/
007110/20130228/125938/968/2060/20/
007110/20130228/130357/968/510/10/
007110/20130228/130435/968/120/10/
007110/20130228/130719/969/770/20/
007110/20130228/130731/969/1220/10/
007110/20130228/130752/968/350/10/
007110/20130228/130820/968/2800/10/
007110/20130228/130907/967/90/10/
007110/20130228/130909/967/1910/10/
007110/20130228/130936/966/1200/10/
007110/20130228/131348/967/100/20/
007110/20130228/131410/966/500/10/
007110/20130228/131418/966/820/10/
007110/20130228/131451/965/2030/10/
007110/20130228/131613/965/480/10/
007110/20130228/131618/965/570/20/
007110/20130228/131619/965/280/10/
007110/20130228/131622/965/540/20/
007110/20130228/131646/964/4430/10/
007110/20130228/131744/965/170/20/
007110/20130228/131924/965/630/20/
007110/20130228/132039/966/520/20/
007110/20130228/132057/966/1000/20/
007110/20130228/132126/965/1520/10/
007110/20130228/132202/964/1480/10/
007110/20130228/132224/964/1020/10/
007110/20130228/132638/964/2070/10/
007110/20130228/132713/964/450/10/
007110/20130228/132713/963/570/10/
007110/20130228/132736/963/570/10/
007110/20130228/132811/963/520/10/
007110/20130228/132907/964/90/20/
007110/20130228/132912/964/340/20/
007110/20130228/132949/965/1020/20/
007110/20130228/132949/965/1000/10/
007110/20130228/133003/966/450/20/
007110/20130228/133149/967/890/10/
007110/20130228/133149/968/10280/20/
007110/20130228/133225/969/1530/20/
007110/20130228/133234/969/3000/20/
007110/20130228/133301/969/1000/20/
007110/20130228/133310/969/500/20/
007110/20130228/133321/969/750/20/
007110/20130228/133402/969/1430/20/
007110/20130228/133404/969/4520/20/
007110/20130228/133411/970/5000/20/
007110/20130228/133423/970/500/20/
007110/20130228/133427/970/500/20/
007110/20130228/133429/970/6960/20/
007110/20130228/133430/970/4850/20/
007110/20130228/133451/971/150/20/
007110/20130228/133454/971/7000/20/
007110/20130228/133454/970/100/10/
007110/20130228/133504/971/330/20/
007110/20130228/133543/972/15380/20/
007110/20130228/133559/971/1000/10/
007110/20130228/133634/972/190/20/
007110/20130228/133644/972/690/20/
007110/20130228/133720/973/2010/20/
007110/20130228/133721/973/1000/20/
007110/20130228/133837/972/180/10/
007110/20130228/133933/971/2120/10/
007110/20130228/134008/971/1010/20/
007110/20130228/134030/971/580/10/
007110/20130228/134125/970/5860/10/
007110/20130228/134237/971/160/20/
007110/20130228/134239/971/1000/20/
007110/20130228/134648/971/5050/20/
007110/20130228/134902/971/1000/20/
007110/20130228/135005/971/2380/20/
007110/20130228/135049/972/6880/20/
007110/20130228/135149/972/310/20/
007110/20130228/135304/972/940/20/
007110/20130228/135353/972/5820/20/
007110/20130228/135438/973/4000/20/
007110/20130228/135439/973/3890/20/
007110/20130228/135442/974/4000/20/
007110/20130228/135443/974/4000/20/
007110/20130228/135443/974/4000/20/
007110/20130228/135444/974/240/20/
007110/20130228/135447/975/4000/20/
007110/20130228/135447/975/4000/20/
007110/20130228/135449/975/4000/20/
007110/20130228/135450/975/4000/20/
007110/20130228/135455/975/510/20/
007110/20130228/135455/975/2460/20/
007110/20130228/135501/976/9860/20/
007110/20130228/135517/977/2030/20/
007110/20130228/135540/977/1690/20/
007110/20130228/135608/976/3000/20/
007110/20130228/135639/976/2140/20/
007110/20130228/135644/976/950/20/
007110/20130228/135650/976/220/10/
007110/20130228/135654/976/1780/20/
007110/20130228/135656/976/220/10/
007110/20130228/135707/976/970/20/
007110/20130228/135716/976/1000/20/
007110/20130228/135718/976/1000/20/
007110/20130228/135724/976/2340/20/
007110/20130228/135732/976/500/20/
007110/20130228/135735/976/470/20/
007110/20130228/135735/977/530/20/
007110/20130228/135752/976/2450/10/
007110/20130228/135801/976/790/20/
007110/20130228/135806/976/1960/20/
007110/20130228/135812/977/3000/20/
007110/20130228/135814/977/5120/20/
007110/20130228/135847/977/2000/20/
007110/20130228/135848/977/1000/20/
007110/20130228/135852/977/3000/20/
007110/20130228/135854/977/780/20/
007110/20130228/135855/978/6460/20/
007110/20130228/135900/978/3540/10/
007110/20130228/135901/978/340/20/
007110/20130228/135901/978/1120/20/
007110/20130228/135901/979/690/20/
007110/20130228/135908/979/1200/20/
007110/20130228/135911/977/160/10/
007110/20130228/135914/979/2500/20/
007110/20130228/135915/979/3960/20/
007110/20130228/135916/980/5010/20/
007110/20130228/135925/980/3010/20/
007110/20130228/135928/980/7620/20/
007110/20130228/135930/981/1090/20/
007110/20130228/135930/982/910/20/
007110/20130228/135931/982/2000/20/
007110/20130228/135931/982/2000/20/
007110/20130228/135931/982/1450/20/
007110/20130228/135931/983/570/20/
007110/20130228/135932/983/2000/20/
007110/20130228/135932/983/2000/20/
007110/20130228/135932/983/730/20/
007110/20130228/135935/984/2080/20/
007110/20130228/135935/984/2020/20/
007110/20130228/135935/984/1310/20/
007110/20130228/135936/985/100/20/
007110/20130228/135936/985/4060/20/
007110/20130228/135937/986/100/20/
007110/20130228/135937/985/100/20/
007110/20130228/135940/985/100/20/
007110/20130228/135941/985/190/20/
007110/20130228/135942/986/100/20/
007110/20130228/135943/985/100/10/
007110/20130228/135944/986/250/20/
007110/20130228/135944/987/90/20/
007110/20130228/135945/986/660/10/
007110/20130228/135947/988/2830/20/
007110/20130228/135947/989/5310/20/
007110/20130228/135948/990/100/20/
007110/20130228/135950/989/8620/10/
007110/20130228/135954/989/6220/10/
007110/20130228/135954/989/630/10/
007110/20130228/135954/989/150/10/
007110/20130228/135955/990/10000/20/
007110/20130228/135955/989/3010/10/
007110/20130228/135959/990/7020/20/
007110/20130228/140001/990/3210/20/
007110/20130228/140002/990/100/10/
007110/20130228/140002/990/4790/10/
007110/20130228/140004/990/600/10/
007110/20130228/140008/991/310/20/
007110/20130228/140009/991/100/20/
007110/20130228/140010/991/90/20/
007110/20130228/140013/991/1930/20/
007110/20130228/140013/992/2000/20/
007110/20130228/140013/991/5020/10/
007110/20130228/140013/992/2000/20/
007110/20130228/140014/992/2020/20/
007110/20130228/140014/992/1020/20/
007110/20130228/140017/993/2000/20/
007110/20130228/140018/993/2000/20/
007110/20130228/140018/992/100/10/
007110/20130228/140018/993/2000/20/
007110/20130228/140019/992/4880/10/
007110/20130228/140022/992/1000/20/
007110/20130228/140024/992/200/20/
007110/20130228/140025/992/500/20/
007110/20130228/140025/991/6630/10/
007110/20130228/140026/991/810/20/
007110/20130228/140026/992/510/20/
007110/20130228/140030/992/600/10/
007110/20130228/140032/992/100/10/
007110/20130228/140034/992/90/20/
007110/20130228/140036/992/2000/10/
007110/20130228/140037/992/140/10/
007110/20130228/140037/990/260/10/
007110/20130228/140040/990/1000/10/
007110/20130228/140040/989/1500/10/
007110/20130228/140057/989/220/10/
007110/20130228/140058/989/200/10/
007110/20130228/140108/989/610/10/
007110/20130228/140141/986/890/10/
007110/20130228/140144/986/1000/10/
007110/20130228/140146/986/300/10/
007110/20130228/140147/986/1000/10/
007110/20130228/140149/986/1600/10/
007110/20130228/140154/985/300/10/
007110/20130228/140159/985/400/10/
007110/20130228/140205/985/670/10/
007110/20130228/140224/984/2710/10/
007110/20130228/140224/983/100/10/
007110/20130228/140245/981/2420/10/
007110/20130228/140250/980/240/10/
007110/20130228/140254/980/1000/10/
007110/20130228/140310/980/380/10/
007110/20130228/140311/980/4540/10/
007110/20130228/140319/980/3010/20/
007110/20130228/140334/980/250/20/
007110/20130228/140342/980/2820/20/
007110/20130228/140343/981/500/20/
007110/20130228/140354/981/2050/20/
007110/20130228/140354/981/3120/20/
007110/20130228/140419/981/2110/10/
007110/20130228/140425/981/1890/20/
007110/20130228/140425/983/570/20/
007110/20130228/140425/984/1000/20/
007110/20130228/140425/986/300/20/
007110/20130228/140425/987/1180/20/
007110/20130228/140425/988/2000/20/
007110/20130228/140425/989/7600/20/
007110/20130228/140425/990/560/20/
007110/20130228/140427/990/13190/10/
007110/20130228/140504/989/920/20/
007110/20130228/140504/990/14470/20/
007110/20130228/140504/991/2000/20/
007110/20130228/140504/992/10070/20/
007110/20130228/140504/992/2540/10/
007110/20130228/140505/990/1620/10/
007110/20130228/140506/990/380/10/
007110/20130228/140519/989/2510/10/
007110/20130228/140519/990/12920/10/
007110/20130228/140529/993/2000/20/
007110/20130228/140531/993/3000/20/
007110/20130228/140532/993/14040/20/
007110/20130228/140533/994/2000/20/
007110/20130228/140536/994/500/20/
007110/20130228/140538/994/700/20/
007110/20130228/140538/994/700/20/
007110/20130228/140539/994/700/20/
007110/20130228/140539/994/700/20/
007110/20130228/140539/994/700/20/
007110/20130228/140540/994/700/20/
007110/20130228/140540/994/720/20/
007110/20130228/140540/994/710/20/
007110/20130228/140541/994/710/20/
007110/20130228/140541/994/710/20/
007110/20130228/140542/994/700/20/
007110/20130228/140542/994/710/20/
007110/20130228/140542/994/600/20/
007110/20130228/140542/994/710/20/
007110/20130228/140543/994/730/20/
007110/20130228/140543/994/700/20/
007110/20130228/140543/994/710/20/
007110/20130228/140544/994/3900/20/
007110/20130228/140547/993/930/10/
007110/20130228/140548/994/190/20/
007110/20130228/140548/995/330/20/
007110/20130228/140559/993/640/20/
007110/20130228/140623/990/2070/20/
007110/20130228/140630/990/1010/20/
007110/20130228/140631/990/6990/20/
007110/20130228/140632/992/100/20/
007110/20130228/140638/992/100/10/
007110/20130228/140638/992/740/10/
007110/20130228/140639/993/500/20/
007110/20130228/140641/991/520/20/
007110/20130228/140643/991/480/20/
007110/20130228/140643/993/1330/20/
007110/20130228/140643/994/210/20/
007110/20130228/140700/993/2610/20/
007110/20130228/140700/994/250/20/
007110/20130228/140711/993/650/20/
007110/20130228/140711/994/4980/20/
007110/20130228/140718/994/220/20/
007110/20130228/140718/994/300/20/
007110/20130228/140727/994/2750/20/
007110/20130228/140730/993/4380/20/
007110/20130228/140747/992/1230/10/
007110/20130228/140747/991/180/10/
007110/20130228/140751/993/3800/20/
007110/20130228/140807/992/510/10/
007110/20130228/140817/991/6480/10/
007110/20130228/140817/990/3600/10/
007110/20130228/140819/990/4700/10/
007110/20130228/140821/990/2170/10/
007110/20130228/140826/990/740/20/
007110/20130228/140845/990/1400/20/
007110/20130228/140908/990/7000/20/
007110/20130228/140909/990/22590/10/
007110/20130228/140912/990/2420/10/
007110/20130228/140941/990/2530/20/
007110/20130228/140943/990/300/10/
007110/20130228/140945/990/7170/10/
007110/20130228/140947/990/920/20/
007110/20130228/140952/990/5610/20/
007110/20130228/141003/990/600/10/
007110/20130228/141004/990/500/10/
007110/20130228/141005/990/5000/10/
007110/20130228/141006/990/1290/10/
007110/20130228/141035/990/4430/20/
007110/20130228/141042/990/4000/10/
007110/20130228/141049/990/1600/10/
007110/20130228/141133/989/1460/10/
007110/20130228/141154/988/290/10/
007110/20130228/141211/986/7050/10/
007110/20130228/141213/986/4720/10/
007110/20130228/141233/986/1700/20/
007110/20130228/141243/986/100/10/
007110/20130228/141255/986/270/10/
007110/20130228/141303/986/2940/10/
007110/20130228/141325/986/170/10/
007110/20130228/141347/987/500/20/
007110/20130228/141357/987/680/20/
007110/20130228/141420/988/920/20/
007110/20130228/141421/987/420/10/
007110/20130228/141421/986/1080/10/
007110/20130228/141426/988/90/20/
007110/20130228/141433/988/990/20/
007110/20130228/141455/988/700/10/
007110/20130228/141501/989/210/20/
007110/20130228/141501/989/910/20/
007110/20130228/141533/988/1010/10/
007110/20130228/141538/988/280/10/
007110/20130228/141601/988/2060/10/
007110/20130228/141626/988/400/10/
007110/20130228/141658/988/1000/10/
007110/20130228/141703/988/480/10/
007110/20130228/141713/988/700/20/
007110/20130228/141720/988/200/20/
007110/20130228/141741/986/2000/10/
007110/20130228/141751/986/340/10/
007110/20130228/141758/986/200/20/
007110/20130228/141810/985/200/10/
007110/20130228/141816/985/1000/10/
007110/20130228/141822/985/1210/10/
007110/20130228/141825/985/130/10/
007110/20130228/141827/985/100/10/
007110/20130228/141910/985/1000/10/
007110/20130228/141930/985/1000/10/
007110/20130228/142002/986/440/20/
007110/20130228/142025/986/600/10/
007110/20130228/142025/985/430/10/
007110/20130228/142125/986/1440/10/
007110/20130228/142125/985/410/10/
007110/20130228/142224/986/1050/20/
007110/20130228/142243/986/200/20/
007110/20130228/142249/985/780/10/
007110/20130228/142316/986/100/10/
007110/20130228/142419/986/1110/10/
007110/20130228/142419/985/740/10/
007110/20130228/142455/985/1010/10/
007110/20130228/142503/985/190/10/
007110/20130228/142540/985/500/10/
007110/20130228/142609/985/180/10/
007110/20130228/142609/984/1000/10/
007110/20130228/142629/983/1530/10/
007110/20130228/142629/982/2200/10/
007110/20130228/142629/981/2000/10/
007110/20130228/142629/980/4080/10/
007110/20130228/142629/980/100/20/
007110/20130228/142635/980/100/20/
007110/20130228/142724/980/1010/10/
007110/20130228/142734/980/480/10/
007110/20130228/142905/980/490/10/
007110/20130228/143003/980/360/10/
007110/20130228/143017/979/410/10/
007110/20130228/143017/978/800/10/
007110/20130228/143017/977/1100/10/
007110/20130228/143017/976/1030/10/
007110/20130228/143017/974/1030/10/
007110/20130228/143017/973/2000/10/
007110/20130228/143017/972/2030/10/
007110/20130228/143017/971/3620/10/
007110/20130228/143017/970/14590/10/
007110/20130228/143020/970/1000/20/
007110/20130228/143020/970/3480/20/
007110/20130228/143036/980/520/20/
007110/20130228/143048/970/720/10/
007110/20130228/143118/971/500/10/
007110/20130228/143256/977/450/20/
007110/20130228/143313/977/580/10/
007110/20130228/143324/977/110/20/
007110/20130228/143412/977/1320/20/
007110/20130228/143417/980/3110/20/
007110/20130228/143433/983/180/20/
007110/20130228/143435/980/1040/10/
007110/20130228/143509/984/100/20/
007110/20130228/143512/984/100/20/
007110/20130228/143515/984/100/20/
007110/20130228/143519/984/510/20/
007110/20130228/143527/984/2240/20/
007110/20130228/143559/984/180/20/
007110/20130228/143839/982/100/10/
007110/20130228/144003/980/500/10/
007110/20130228/144036/982/1040/20/
007110/20130228/144042/982/250/10/
007110/20130228/144115/982/100/20/
007110/20130228/144148/981/1020/10/
007110/20130228/144148/980/1910/10/
007110/20130228/144225/980/4960/10/
007110/20130228/144336/980/1080/20/
007110/20130228/144338/980/120/20/
007110/20130228/144345/980/210/20/
007110/20130228/144400/980/8000/20/
007110/20130228/144401/980/330/20/
007110/20130228/144413/980/350/20/
007110/20130228/144433/980/260/10/
007110/20130228/144440/978/1000/10/
007110/20130228/144443/977/4510/10/
007110/20130228/144452/975/1000/10/
007110/20130228/144452/974/1200/10/
007110/20130228/144452/973/1020/10/
007110/20130228/144452/972/1010/10/
007110/20130228/144452/971/3570/10/
007110/20130228/144459/970/6080/10/
007110/20130228/144505/970/5020/20/
007110/20130228/144506/970/3910/20/
007110/20130228/144511/970/1090/10/
007110/20130228/144512/970/510/20/
007110/20130228/144514/970/1000/20/
007110/20130228/144515/970/400/20/
007110/20130228/144520/970/1000/20/
007110/20130228/144525/969/2000/10/
007110/20130228/144538/969/8670/10/
007110/20130228/144538/968/2010/10/
007110/20130228/144538/968/2010/20/
007110/20130228/144539/968/400/20/
007110/20130228/144539/968/100/20/
007110/20130228/144540/968/1000/20/
007110/20130228/144540/968/570/20/
007110/20130228/144540/970/430/20/
007110/20130228/144541/970/1000/20/
007110/20130228/144608/968/300/10/
007110/20130228/144614/968/300/20/
007110/20130228/144639/968/510/10/
007110/20130228/144658/970/1010/20/
007110/20130228/144727/970/6940/20/
007110/20130228/144729/970/1610/20/
007110/20130228/144749/971/150/20/
007110/20130228/144751/971/1400/20/
007110/20130228/144808/971/530/20/
007110/20130228/144817/971/1000/20/
007110/20130228/144819/971/1000/20/
007110/20130228/144821/971/1700/20/
007110/20130228/144825/971/240/20/
007110/20130228/144834/971/1000/20/
007110/20130228/144840/971/250/20/
007110/20130228/144841/975/130/20/
007110/20130228/144841/976/200/20/
007110/20130228/144841/977/680/20/
007110/20130228/144923/973/1020/10/
007110/20130228/150000/976/40790/10/
