007110/20130205/90132/975/47930/20/
007110/20130205/90132/975/840/20/
007110/20130205/90134/974/200/10/
007110/20130205/90147/974/250/10/
007110/20130205/90149/973/1000/10/
007110/20130205/90156/972/3000/10/
007110/20130205/90200/972/830/10/
007110/20130205/90201/971/90/10/
007110/20130205/90203/971/970/10/
007110/20130205/90204/971/720/10/
007110/20130205/90204/970/280/10/
007110/20130205/90205/970/750/10/
007110/20130205/90208/970/4000/10/
007110/20130205/90208/970/6080/10/
007110/20130205/90208/970/8000/10/
007110/20130205/90209/970/2010/10/
007110/20130205/90210/970/5000/10/
007110/20130205/90211/970/250/10/
007110/20130205/90212/970/1010/10/
007110/20130205/90213/970/250/10/
007110/20130205/90216/970/1410/10/
007110/20130205/90223/970/100/20/
007110/20130205/90224/970/6100/20/
007110/20130205/90228/970/820/20/
007110/20130205/90230/970/1570/20/
007110/20130205/90239/970/4000/10/
007110/20130205/90305/970/720/10/
007110/20130205/90308/970/3930/10/
007110/20130205/90308/969/560/10/
007110/20130205/90315/968/1700/10/
007110/20130205/90323/968/450/10/
007110/20130205/90323/967/13400/10/
007110/20130205/90323/966/16970/10/
007110/20130205/90323/966/2040/10/
007110/20130205/90325/968/100/10/
007110/20130205/90325/966/2000/10/
007110/20130205/90328/966/250/20/
007110/20130205/90335/962/150/10/
007110/20130205/90341/961/790/10/
007110/20130205/90341/960/460/10/
007110/20130205/90341/958/200/10/
007110/20130205/90341/958/550/10/
007110/20130205/90343/958/1000/10/
007110/20130205/90343/958/250/10/
007110/20130205/90344/958/2440/20/
007110/20130205/90349/956/900/10/
007110/20130205/90357/956/700/10/
007110/20130205/90358/956/1560/10/
007110/20130205/90359/956/360/20/
007110/20130205/90400/956/1000/20/
007110/20130205/90400/956/1080/20/
007110/20130205/90403/956/2970/10/
007110/20130205/90408/956/340/20/
007110/20130205/90410/956/150/20/
007110/20130205/90410/956/3000/20/
007110/20130205/90411/953/100/10/
007110/20130205/90411/952/5780/10/
007110/20130205/90411/956/2000/20/
007110/20130205/90412/952/210/10/
007110/20130205/90417/953/190/10/
007110/20130205/90420/954/2300/10/
007110/20130205/90420/953/810/10/
007110/20130205/90420/952/860/10/
007110/20130205/90420/952/8280/10/
007110/20130205/90420/951/10010/10/
007110/20130205/90420/950/20280/10/
007110/20130205/90426/950/500/20/
007110/20130205/90431/950/1000/20/
007110/20130205/90431/950/5000/20/
007110/20130205/90432/950/1000/20/
007110/20130205/90433/950/1000/20/
007110/20130205/90436/950/270/20/
007110/20130205/90436/950/350/20/
007110/20130205/90436/950/350/20/
007110/20130205/90436/950/350/20/
007110/20130205/90436/950/570/20/
007110/20130205/90443/950/100/20/
007110/20130205/90443/950/940/20/
007110/20130205/90446/950/1120/10/
007110/20130205/90456/951/1040/10/
007110/20130205/90457/953/2450/20/
007110/20130205/90521/954/100/10/
007110/20130205/90531/954/290/20/
007110/20130205/90536/954/5000/10/
007110/20130205/90537/954/110/10/
007110/20130205/90614/956/2620/10/
007110/20130205/90617/956/1320/20/
007110/20130205/90619/956/450/20/
007110/20130205/90620/955/1640/10/
007110/20130205/90621/955/1360/20/
007110/20130205/90621/956/3490/20/
007110/20130205/90622/956/1000/20/
007110/20130205/90623/956/100/20/
007110/20130205/90625/956/1050/20/
007110/20130205/90628/956/100/10/
007110/20130205/90647/956/500/10/
007110/20130205/90653/959/500/20/
007110/20130205/90653/960/500/20/
007110/20130205/90656/956/650/10/
007110/20130205/90718/956/10000/10/
007110/20130205/90759/960/5010/20/
007110/20130205/90759/960/2010/20/
007110/20130205/90800/960/1000/10/
007110/20130205/90818/965/90/20/
007110/20130205/90821/965/1000/20/
007110/20130205/90823/965/1570/20/
007110/20130205/90823/966/1930/20/
007110/20130205/90832/965/490/10/
007110/20130205/90833/966/1000/20/
007110/20130205/90841/965/850/10/
007110/20130205/90841/960/200/10/
007110/20130205/90843/966/1660/20/
007110/20130205/90852/966/2340/10/
007110/20130205/90901/966/2000/20/
007110/20130205/90910/966/1000/20/
007110/20130205/90927/966/3000/20/
007110/20130205/90933/966/1080/20/
007110/20130205/90942/966/5000/20/
007110/20130205/90956/966/100/20/
007110/20130205/90957/966/10350/20/
007110/20130205/91007/966/1000/20/
007110/20130205/91010/966/1000/20/
007110/20130205/91011/966/500/20/
007110/20130205/91016/966/200/20/
007110/20130205/91024/966/630/20/
007110/20130205/91035/966/200/10/
007110/20130205/91046/967/200/20/
007110/20130205/91113/967/790/10/
007110/20130205/91131/966/1020/10/
007110/20130205/91136/966/1150/10/
007110/20130205/91138/966/3810/20/
007110/20130205/91138/967/1190/20/
007110/20130205/91143/967/1000/20/
007110/20130205/91148/967/620/10/
007110/20130205/91211/967/90/20/
007110/20130205/91213/967/790/20/
007110/20130205/91220/967/140/20/
007110/20130205/91225/967/1880/10/
007110/20130205/91242/967/120/20/
007110/20130205/91242/969/740/20/
007110/20130205/91255/969/780/20/
007110/20130205/91255/970/2100/20/
007110/20130205/91301/970/150/10/
007110/20130205/91310/967/2920/20/
007110/20130205/91320/971/90/20/
007110/20130205/91320/972/150/20/
007110/20130205/91320/974/260/20/
007110/20130205/91328/974/410/20/
007110/20130205/91331/974/200/20/
007110/20130205/91408/973/310/20/
007110/20130205/91436/973/1750/20/
007110/20130205/91445/973/1290/10/
007110/20130205/91526/972/3500/20/
007110/20130205/91528/972/800/10/
007110/20130205/91534/972/7200/10/
007110/20130205/91539/972/2800/20/
007110/20130205/91539/973/2010/20/
007110/20130205/91539/974/1250/20/
007110/20130205/91539/975/1980/20/
007110/20130205/91555/974/1020/20/
007110/20130205/91602/974/320/20/
007110/20130205/91634/973/1400/10/
007110/20130205/91634/972/2640/10/
007110/20130205/91642/972/360/10/
007110/20130205/91642/971/4180/10/
007110/20130205/91644/971/460/20/
007110/20130205/91644/970/2070/10/
007110/20130205/91644/969/2930/10/
007110/20130205/91720/972/400/20/
007110/20130205/91720/973/100/20/
007110/20130205/91724/969/1870/10/
007110/20130205/91724/968/1040/10/
007110/20130205/91724/967/1090/10/
007110/20130205/91826/967/790/10/
007110/20130205/91856/970/120/20/
007110/20130205/91927/970/3380/20/
007110/20130205/91934/970/2810/10/
007110/20130205/91950/967/2390/10/
007110/20130205/91959/966/2160/10/
007110/20130205/91959/965/5200/10/
007110/20130205/91959/964/2640/10/
007110/20130205/92003/964/1030/10/
007110/20130205/92012/964/1630/10/
007110/20130205/92029/964/3720/10/
007110/20130205/92029/963/280/10/
007110/20130205/92041/964/180/20/
007110/20130205/92152/968/130/20/
007110/20130205/92316/966/240/10/
007110/20130205/92336/966/100/10/
007110/20130205/92340/967/100/20/
007110/20130205/92342/966/1000/10/
007110/20130205/92406/966/1000/10/
007110/20130205/92406/965/4010/10/
007110/20130205/92420/965/1000/10/
007110/20130205/92421/965/1000/10/
007110/20130205/92440/965/900/10/
007110/20130205/92441/965/7950/10/
007110/20130205/92443/965/100/20/
007110/20130205/92446/965/200/20/
007110/20130205/92448/965/1000/20/
007110/20130205/92455/965/1000/20/
007110/20130205/92456/965/100/20/
007110/20130205/92457/965/100/20/
007110/20130205/92458/967/150/20/
007110/20130205/92520/965/3070/10/
007110/20130205/92522/965/500/20/
007110/20130205/92530/965/1910/20/
007110/20130205/92542/965/100/10/
007110/20130205/92550/967/100/20/
007110/20130205/92552/967/860/20/
007110/20130205/92552/968/1140/20/
007110/20130205/92612/968/710/20/
007110/20130205/92644/968/2000/20/
007110/20130205/92645/968/140/20/
007110/20130205/92707/968/420/20/
007110/20130205/92731/966/3110/10/
007110/20130205/92745/966/1890/20/
007110/20130205/92759/966/170/10/
007110/20130205/92809/965/9350/10/
007110/20130205/92809/964/2050/10/
007110/20130205/92817/964/1350/10/
007110/20130205/92817/963/6750/10/
007110/20130205/92817/961/5580/10/
007110/20130205/92817/960/1150/10/
007110/20130205/92818/960/800/10/
007110/20130205/92844/968/100/20/
007110/20130205/92928/965/1030/20/
007110/20130205/92930/965/3970/20/
007110/20130205/92937/968/100/20/
007110/20130205/92955/965/1050/10/
007110/20130205/93012/965/120/10/
007110/20130205/93041/965/4000/10/
007110/20130205/93110/965/900/20/
007110/20130205/93115/962/510/10/
007110/20130205/93115/961/5960/10/
007110/20130205/93115/960/13530/10/
007110/20130205/93145/960/2190/10/
007110/20130205/93156/960/500/10/
007110/20130205/93208/960/640/10/
007110/20130205/93219/960/2190/10/
007110/20130205/93244/959/100/10/
007110/20130205/93254/960/6550/20/
007110/20130205/93256/960/500/20/
007110/20130205/93257/960/100/20/
007110/20130205/93305/960/170/20/
007110/20130205/93311/960/5000/20/
007110/20130205/93314/959/100/10/
007110/20130205/93319/960/1000/20/
007110/20130205/93325/960/200/20/
007110/20130205/93330/960/5000/20/
007110/20130205/93340/960/150/20/
007110/20130205/93351/960/90/20/
007110/20130205/93355/960/500/20/
007110/20130205/93358/960/2050/20/
007110/20130205/93359/960/1400/20/
007110/20130205/93359/960/200/20/
007110/20130205/93400/960/500/20/
007110/20130205/93400/960/2400/20/
007110/20130205/93405/964/110/20/
007110/20130205/93409/960/9350/10/
007110/20130205/93410/960/5740/20/
007110/20130205/93412/964/90/20/
007110/20130205/93512/960/1210/10/
007110/20130205/93524/960/100/10/
007110/20130205/93538/960/100/10/
007110/20130205/93706/965/90/20/
007110/20130205/93757/964/100/10/
007110/20130205/93757/962/2040/10/
007110/20130205/93809/961/4650/10/
007110/20130205/93809/960/8960/10/
007110/20130205/93818/960/350/20/
007110/20130205/93823/960/1040/20/
007110/20130205/93831/960/110/10/
007110/20130205/93831/960/100/10/
007110/20130205/93835/960/90/10/
007110/20130205/93836/960/1240/10/
007110/20130205/93844/959/450/10/
007110/20130205/93918/959/400/10/
007110/20130205/93929/962/100/20/
007110/20130205/93941/959/5000/10/
007110/20130205/94015/959/1000/10/
007110/20130205/94047/959/300/10/
007110/20130205/94100/959/1630/10/
007110/20130205/94112/958/3500/10/
007110/20130205/94112/957/500/10/
007110/20130205/94124/959/650/20/
007110/20130205/94139/959/140/10/
007110/20130205/94143/959/220/10/
007110/20130205/94155/959/1780/20/
007110/20130205/94239/959/100/10/
007110/20130205/94250/960/1090/20/
007110/20130205/94250/962/12910/20/
007110/20130205/94331/959/180/10/
007110/20130205/94339/960/1000/20/
007110/20130205/94438/959/650/10/
007110/20130205/94438/958/3090/10/
007110/20130205/94438/957/5030/10/
007110/20130205/94444/957/1000/10/
007110/20130205/94535/957/1050/10/
007110/20130205/94542/957/500/10/
007110/20130205/94603/959/100/20/
007110/20130205/94633/958/540/10/
007110/20130205/94657/960/90/20/
007110/20130205/94713/958/6000/10/
007110/20130205/94713/957/4040/10/
007110/20130205/94812/958/830/10/
007110/20130205/94814/957/1570/10/
007110/20130205/94821/957/520/10/
007110/20130205/94832/957/1480/20/
007110/20130205/94838/957/1310/10/
007110/20130205/94844/957/550/10/
007110/20130205/94848/957/1690/10/
007110/20130205/94857/957/290/20/
007110/20130205/94858/957/450/20/
007110/20130205/94859/957/170/20/
007110/20130205/94911/958/100/20/
007110/20130205/94921/957/580/10/
007110/20130205/94923/957/100/20/
007110/20130205/94924/957/380/20/
007110/20130205/94936/958/200/20/
007110/20130205/94943/958/130/20/
007110/20130205/94943/960/870/20/
007110/20130205/95018/960/1060/20/
007110/20130205/95036/958/120/10/
007110/20130205/95036/957/5500/10/
007110/20130205/95101/957/2050/10/
007110/20130205/95107/960/700/20/
007110/20130205/95145/958/5000/10/
007110/20130205/95209/958/510/20/
007110/20130205/95226/958/310/20/
007110/20130205/95321/957/3210/10/
007110/20130205/95408/956/1390/10/
007110/20130205/95408/955/610/10/
007110/20130205/95430/955/170/10/
007110/20130205/95433/955/4460/10/
007110/20130205/95450/954/3660/10/
007110/20130205/95450/953/840/10/
007110/20130205/95455/955/540/20/
007110/20130205/95455/955/2460/10/
007110/20130205/95456/953/320/10/
007110/20130205/95456/952/2450/10/
007110/20130205/95535/952/340/10/
007110/20130205/95548/952/650/10/
007110/20130205/95556/951/90/10/
007110/20130205/95600/951/3540/10/
007110/20130205/95601/950/1010/10/
007110/20130205/95601/951/310/20/
007110/20130205/95605/952/260/20/
007110/20130205/95606/951/1510/10/
007110/20130205/95612/951/90/10/
007110/20130205/95615/951/4470/10/
007110/20130205/95622/951/90/10/
007110/20130205/95629/950/90/10/
007110/20130205/95631/950/10030/10/
007110/20130205/95635/950/12040/10/
007110/20130205/95635/950/33590/10/
007110/20130205/95635/949/3050/10/
007110/20130205/95637/949/100/10/
007110/20130205/95637/948/1010/10/
007110/20130205/95637/947/100/10/
007110/20130205/95637/946/310/10/
007110/20130205/95637/945/490/10/
007110/20130205/95650/945/210/10/
007110/20130205/95652/946/100/10/
007110/20130205/95705/947/1080/10/
007110/20130205/95710/947/460/10/
007110/20130205/95726/951/360/10/
007110/20130205/95732/951/100/10/
007110/20130205/95734/952/100/20/
007110/20130205/95735/951/600/10/
007110/20130205/95739/951/1000/20/
007110/20130205/95746/952/90/20/
007110/20130205/95746/950/100/10/
007110/20130205/95750/950/130/20/
007110/20130205/95751/950/3870/10/
007110/20130205/95805/949/100/10/
007110/20130205/95842/951/700/20/
007110/20130205/95844/952/100/20/
007110/20130205/95849/952/630/20/
007110/20130205/95907/951/110/20/
007110/20130205/95921/951/110/20/
007110/20130205/100030/950/630/20/
007110/20130205/100031/950/2330/10/
007110/20130205/100040/950/3020/20/
007110/20130205/100042/949/2000/10/
007110/20130205/100053/950/1450/20/
007110/20130205/100053/949/1000/10/
007110/20130205/100058/950/850/20/
007110/20130205/100135/950/720/10/
007110/20130205/100135/950/100/10/
007110/20130205/100138/950/1000/20/
007110/20130205/100154/950/2010/20/
007110/20130205/100156/950/230/20/
007110/20130205/100212/951/2010/20/
007110/20130205/100216/950/1000/10/
007110/20130205/100217/951/1280/20/
007110/20130205/100221/951/1220/10/
007110/20130205/100230/950/980/10/
007110/20130205/100230/949/9060/10/
007110/20130205/100233/948/13040/10/
007110/20130205/100238/947/960/10/
007110/20130205/100238/947/9240/10/
007110/20130205/100239/948/12690/20/
007110/20130205/100239/950/2020/20/
007110/20130205/100239/951/21400/10/
007110/20130205/100242/951/3540/10/
007110/20130205/100249/951/2480/10/
007110/20130205/100249/951/100/10/
007110/20130205/100250/951/5000/10/
007110/20130205/100255/951/11080/10/
007110/20130205/100259/952/100/20/
007110/20130205/100259/951/1500/10/
007110/20130205/100302/952/100/20/
007110/20130205/100307/951/10860/10/
007110/20130205/100310/951/2400/10/
007110/20130205/100321/951/1260/20/
007110/20130205/100349/951/18610/10/
007110/20130205/100354/951/140/10/
007110/20130205/100359/950/100/10/
007110/20130205/100401/949/100/10/
007110/20130205/100401/948/1490/10/
007110/20130205/100414/948/8170/10/
007110/20130205/100414/948/130/10/
007110/20130205/100417/948/400/20/
007110/20130205/100418/947/10000/10/
007110/20130205/100422/948/2380/20/
007110/20130205/100442/948/630/10/
007110/20130205/100450/948/2800/20/
007110/20130205/100454/948/1490/10/
007110/20130205/100458/948/5000/10/
007110/20130205/100626/950/5210/20/
007110/20130205/100643/950/1630/10/
007110/20130205/100646/950/100/10/
007110/20130205/100648/950/100/10/
007110/20130205/100650/950/300/10/
007110/20130205/100653/950/500/10/
007110/20130205/100736/948/90/10/
007110/20130205/100737/948/670/10/
007110/20130205/100746/947/4760/10/
007110/20130205/100746/946/140/10/
007110/20130205/100753/948/630/20/
007110/20130205/100800/946/1050/10/
007110/20130205/100801/947/100/20/
007110/20130205/100802/947/100/20/
007110/20130205/100807/946/5050/10/
007110/20130205/100811/946/2010/10/
007110/20130205/100811/946/100/10/
007110/20130205/100813/946/4720/10/
007110/20130205/100813/945/25280/10/
007110/20130205/100814/945/12300/10/
007110/20130205/100816/945/5000/10/
007110/20130205/100823/945/450/10/
007110/20130205/100825/944/600/10/
007110/20130205/100835/944/90/20/
007110/20130205/100849/943/740/10/
007110/20130205/100849/942/340/10/
007110/20130205/100853/942/2010/10/
007110/20130205/100854/942/2000/10/
007110/20130205/100854/942/1440/10/
007110/20130205/100859/942/3440/20/
007110/20130205/100900/941/5140/10/
007110/20130205/100904/942/320/20/
007110/20130205/100909/941/8340/10/
007110/20130205/100909/941/680/20/
007110/20130205/100909/942/2320/20/
007110/20130205/100911/940/510/10/
007110/20130205/100912/941/100/20/
007110/20130205/100915/941/2470/20/
007110/20130205/100915/941/990/10/
007110/20130205/100918/941/8340/10/
007110/20130205/100924/941/520/10/
007110/20130205/100924/941/2000/10/
007110/20130205/100927/941/1810/10/
007110/20130205/100932/942/110/20/
007110/20130205/100932/942/100/20/
007110/20130205/100932/942/740/20/
007110/20130205/100933/942/2340/10/
007110/20130205/100933/941/7660/10/
007110/20130205/100945/941/180/10/
007110/20130205/100952/941/750/10/
007110/20130205/101001/943/100/20/
007110/20130205/101002/942/2000/10/
007110/20130205/101003/943/650/20/
007110/20130205/101012/942/440/10/
007110/20130205/101013/943/620/20/
007110/20130205/101018/943/610/20/
007110/20130205/101024/943/300/10/
007110/20130205/101024/942/700/10/
007110/20130205/101025/942/580/10/
007110/20130205/101025/941/420/10/
007110/20130205/101041/943/500/20/
007110/20130205/101051/944/130/20/
007110/20130205/101057/944/2010/20/
007110/20130205/101059/944/3000/20/
007110/20130205/101100/944/1240/20/
007110/20130205/101104/944/690/10/
007110/20130205/101126/945/90/20/
007110/20130205/101136/945/560/20/
007110/20130205/101139/945/1070/20/
007110/20130205/101159/947/1020/20/
007110/20130205/101222/947/1020/10/
007110/20130205/101222/945/100/10/
007110/20130205/101222/944/700/10/
007110/20130205/101222/943/560/10/
007110/20130205/101222/942/3640/10/
007110/20130205/101309/943/90/10/
007110/20130205/101315/943/90/10/
007110/20130205/101322/943/90/10/
007110/20130205/101338/943/90/10/
007110/20130205/101346/943/90/10/
007110/20130205/101543/945/90/20/
007110/20130205/101554/944/2110/10/
007110/20130205/101600/945/450/20/
007110/20130205/101607/945/130/10/
007110/20130205/101616/944/1230/10/
007110/20130205/101616/943/8700/10/
007110/20130205/101616/942/23150/10/
007110/20130205/101616/941/21570/10/
007110/20130205/101616/940/21970/10/
007110/20130205/101616/940/8000/10/
007110/20130205/101618/940/4840/10/
007110/20130205/101625/940/11730/10/
007110/20130205/101626/940/620/10/
007110/20130205/101633/940/870/10/
007110/20130205/101634/940/340/10/
007110/20130205/101636/940/500/20/
007110/20130205/101639/940/500/20/
007110/20130205/101647/939/210/10/
007110/20130205/101728/939/90/20/
007110/20130205/101734/939/100/20/
007110/20130205/101741/939/100/20/
007110/20130205/101745/939/100/20/
007110/20130205/101746/939/100/20/
007110/20130205/101800/939/200/20/
007110/20130205/101807/939/150/20/
007110/20130205/101827/940/930/20/
007110/20130205/101831/940/90/20/
007110/20130205/101836/939/500/10/
007110/20130205/101925/940/9160/20/
007110/20130205/101950/940/1930/10/
007110/20130205/101950/939/2430/10/
007110/20130205/101950/938/2900/10/
007110/20130205/101950/937/2640/10/
007110/20130205/101950/936/11020/10/
007110/20130205/101950/935/3430/10/
007110/20130205/102032/940/1010/10/
007110/20130205/102034/940/10000/10/
007110/20130205/102059/941/570/10/
007110/20130205/102059/940/440/10/
007110/20130205/102101/941/90/20/
007110/20130205/102102/945/100/20/
007110/20130205/102132/945/750/20/
007110/20130205/102134/945/1000/20/
007110/20130205/102136/945/370/20/
007110/20130205/102138/945/680/10/
007110/20130205/102140/945/1000/20/
007110/20130205/102144/945/1000/20/
007110/20130205/102148/945/1000/20/
007110/20130205/102207/944/2000/20/
007110/20130205/102211/944/290/20/
007110/20130205/102223/944/210/20/
007110/20130205/102231/945/3150/20/
007110/20130205/102242/945/1000/10/
007110/20130205/102327/946/2010/20/
007110/20130205/102327/947/2220/20/
007110/20130205/102327/948/3830/20/
007110/20130205/102400/948/2000/20/
007110/20130205/102407/948/500/20/
007110/20130205/102411/945/1000/10/
007110/20130205/102446/948/180/20/
007110/20130205/102449/948/320/10/
007110/20130205/102511/948/290/20/
007110/20130205/102511/949/2010/20/
007110/20130205/102511/950/2220/20/
007110/20130205/102517/948/500/20/
007110/20130205/102600/946/5000/10/
007110/20130205/102619/950/100/20/
007110/20130205/102625/950/390/20/
007110/20130205/102625/950/1710/10/
007110/20130205/102726/950/2260/20/
007110/20130205/102727/950/540/10/
007110/20130205/102804/950/110/10/
007110/20130205/102806/948/190/10/
007110/20130205/102845/948/540/10/
007110/20130205/102926/948/1390/10/
007110/20130205/103006/948/140/10/
007110/20130205/103006/947/2860/10/
007110/20130205/103034/947/1000/10/
007110/20130205/103050/948/1000/10/
007110/20130205/103109/947/1620/10/
007110/20130205/103117/947/1000/10/
007110/20130205/103155/947/320/10/
007110/20130205/103155/946/760/10/
007110/20130205/103219/947/1030/10/
007110/20130205/103245/947/1050/10/
007110/20130205/103315/949/1000/20/
007110/20130205/103325/949/390/20/
007110/20130205/103336/949/3000/20/
007110/20130205/103348/950/1010/20/
007110/20130205/103352/949/2100/10/
007110/20130205/103400/949/510/10/
007110/20130205/103551/949/1020/10/
007110/20130205/103617/950/1540/20/
007110/20130205/103637/950/5000/20/
007110/20130205/103641/950/1000/20/
007110/20130205/103647/950/1050/20/
007110/20130205/103647/950/1050/20/
007110/20130205/103716/950/1880/20/
007110/20130205/103719/951/7400/20/
007110/20130205/103726/951/560/10/
007110/20130205/103731/950/300/10/
007110/20130205/103740/951/130/20/
007110/20130205/103740/952/3080/20/
007110/20130205/103748/952/910/10/
007110/20130205/103750/952/460/20/
007110/20130205/103750/954/260/20/
007110/20130205/103752/954/200/10/
007110/20130205/103759/955/120/20/
007110/20130205/103759/956/880/20/
007110/20130205/103801/956/630/20/
007110/20130205/103802/957/1410/20/
007110/20130205/103802/957/1340/10/
007110/20130205/103802/956/2170/10/
007110/20130205/103802/954/3080/10/
007110/20130205/103802/950/1460/10/
007110/20130205/103802/949/2950/10/
007110/20130205/103803/958/1000/20/
007110/20130205/103833/957/810/20/
007110/20130205/103840/957/120/20/
007110/20130205/103840/957/210/20/
007110/20130205/103843/957/1080/10/
007110/20130205/103843/957/2730/10/
007110/20130205/103843/958/610/20/
007110/20130205/103843/959/1920/20/
007110/20130205/103844/957/500/10/
007110/20130205/103844/958/750/10/
007110/20130205/103844/958/350/10/
007110/20130205/103845/958/1540/10/
007110/20130205/103845/957/460/10/
007110/20130205/103848/957/730/10/
007110/20130205/103854/957/250/10/
007110/20130205/103856/957/100/10/
007110/20130205/103857/958/1000/20/
007110/20130205/103857/958/200/10/
007110/20130205/103901/958/1800/10/
007110/20130205/103902/958/510/20/
007110/20130205/103903/958/760/20/
007110/20130205/103903/959/1250/20/
007110/20130205/103912/958/400/10/
007110/20130205/103912/959/2540/20/
007110/20130205/103912/960/4950/20/
007110/20130205/103914/958/200/10/
007110/20130205/103922/959/100/20/
007110/20130205/103922/960/1910/20/
007110/20130205/103924/960/800/20/
007110/20130205/103927/960/440/20/
007110/20130205/103927/960/560/10/
007110/20130205/103928/960/100/20/
007110/20130205/103928/961/4380/20/
007110/20130205/103935/961/1000/20/
007110/20130205/103947/960/1000/10/
007110/20130205/103952/960/100/20/
007110/20130205/104005/960/290/20/
007110/20130205/104008/960/390/10/
007110/20130205/104009/959/2000/10/
007110/20130205/104011/960/100/20/
007110/20130205/104028/960/950/20/
007110/20130205/104043/959/3040/10/
007110/20130205/104050/958/110/10/
007110/20130205/104059/958/150/10/
007110/20130205/104103/958/790/10/
007110/20130205/104103/957/2210/10/
007110/20130205/104129/957/930/10/
007110/20130205/104134/958/270/20/
007110/20130205/104145/959/160/20/
007110/20130205/104147/959/1860/20/
007110/20130205/104206/960/1500/20/
007110/20130205/104228/959/150/10/
007110/20130205/104234/959/100/20/
007110/20130205/104235/960/1790/20/
007110/20130205/104238/961/1200/10/
007110/20130205/104238/962/11800/20/
007110/20130205/104241/962/100/20/
007110/20130205/104243/962/950/20/
007110/20130205/104245/962/100/10/
007110/20130205/104247/962/780/10/
007110/20130205/104250/962/170/10/
007110/20130205/104252/962/1040/20/
007110/20130205/104253/961/1000/10/
007110/20130205/104254/961/300/20/
007110/20130205/104300/961/220/20/
007110/20130205/104302/961/1960/10/
007110/20130205/104322/960/120/20/
007110/20130205/104350/960/3270/20/
007110/20130205/104350/960/5170/10/
007110/20130205/104400/958/4150/10/
007110/20130205/104453/960/400/20/
007110/20130205/104505/958/4000/10/
007110/20130205/104512/958/1370/10/
007110/20130205/104518/958/100/10/
007110/20130205/104528/958/220/20/
007110/20130205/104559/957/90/10/
007110/20130205/104608/958/100/20/
007110/20130205/104705/958/800/20/
007110/20130205/104705/960/200/20/
007110/20130205/104722/957/3110/10/
007110/20130205/104722/956/2040/10/
007110/20130205/104730/956/420/10/
007110/20130205/104736/955/2110/10/
007110/20130205/104736/955/1470/20/
007110/20130205/104745/960/5000/20/
007110/20130205/104823/960/110/20/
007110/20130205/104828/960/4670/20/
007110/20130205/104845/960/450/20/
007110/20130205/104845/961/550/20/
007110/20130205/104853/961/460/20/
007110/20130205/104907/962/1010/20/
007110/20130205/104919/963/1000/20/
007110/20130205/104921/963/230/20/
007110/20130205/104921/964/270/20/
007110/20130205/104928/964/100/20/
007110/20130205/104946/964/90/20/
007110/20130205/105033/962/3710/20/
007110/20130205/105042/962/300/20/
007110/20130205/105139/961/2620/10/
007110/20130205/105202/960/780/10/
007110/20130205/105243/960/220/10/
007110/20130205/105448/960/920/20/
007110/20130205/105511/957/1500/10/
007110/20130205/105646/957/330/10/
007110/20130205/105733/959/100/20/
007110/20130205/105733/957/530/10/
007110/20130205/105733/955/5290/10/
007110/20130205/105828/955/1040/10/
007110/20130205/105939/955/1090/10/
007110/20130205/105939/954/1930/10/
007110/20130205/105939/953/1000/10/
007110/20130205/105939/952/1810/10/
007110/20130205/110001/955/850/10/
007110/20130205/110011/955/1000/10/
007110/20130205/110117/957/1000/20/
007110/20130205/110125/955/900/10/
007110/20130205/110126/957/100/20/
007110/20130205/110139/957/200/10/
007110/20130205/110203/957/210/10/
007110/20130205/110203/955/1200/10/
007110/20130205/110212/955/270/10/
007110/20130205/110212/953/1490/10/
007110/20130205/110218/953/1470/10/
007110/20130205/110218/952/1140/10/
007110/20130205/110218/951/6660/10/
007110/20130205/110218/950/23310/10/
007110/20130205/110252/950/340/10/
007110/20130205/110301/950/2090/10/
007110/20130205/110301/950/2910/20/
007110/20130205/110326/950/1150/10/
007110/20130205/110343/950/780/20/
007110/20130205/110405/950/460/10/
007110/20130205/110405/949/450/10/
007110/20130205/110448/956/90/20/
007110/20130205/110459/951/90/10/
007110/20130205/110507/951/90/10/
007110/20130205/110518/952/90/10/
007110/20130205/110613/955/470/20/
007110/20130205/110613/956/2360/20/
007110/20130205/110617/957/1010/20/
007110/20130205/110711/958/11930/20/
007110/20130205/110730/959/140/20/
007110/20130205/110734/959/860/20/
007110/20130205/110742/962/1060/20/
007110/20130205/110832/961/200/20/
007110/20130205/110840/961/100/20/
007110/20130205/110911/959/750/10/
007110/20130205/111002/959/450/10/
007110/20130205/111041/960/500/20/
007110/20130205/111041/961/3000/20/
007110/20130205/111048/961/410/10/
007110/20130205/111225/959/1100/10/
007110/20130205/111302/958/170/10/
007110/20130205/111446/958/730/20/
007110/20130205/112133/957/100/10/
007110/20130205/112135/957/950/20/
007110/20130205/112304/958/1610/20/
007110/20130205/112327/958/460/10/
007110/20130205/112327/957/440/10/
007110/20130205/112535/958/220/10/
007110/20130205/112535/957/2300/10/
007110/20130205/112546/956/120/10/
007110/20130205/112618/957/2280/10/
007110/20130205/112621/957/210/10/
007110/20130205/112641/957/210/10/
007110/20130205/112749/957/1050/10/
007110/20130205/112819/957/3060/10/
007110/20130205/112828/958/2250/20/
007110/20130205/112847/958/510/10/
007110/20130205/112853/958/400/10/
007110/20130205/112859/958/1370/10/
007110/20130205/112902/958/710/10/
007110/20130205/112920/958/350/20/
007110/20130205/112930/958/4860/10/
007110/20130205/112934/958/140/20/
007110/20130205/112951/959/110/20/
007110/20130205/112952/958/5000/10/
007110/20130205/113013/958/180/20/
007110/20130205/113015/957/660/10/
007110/20130205/113034/958/1300/20/
007110/20130205/113127/959/1200/20/
007110/20130205/113136/959/100/10/
007110/20130205/113230/960/4010/20/
007110/20130205/113249/961/2100/20/
007110/20130205/113254/962/5030/20/
007110/20130205/113300/962/990/20/
007110/20130205/113307/963/1010/20/
007110/20130205/113309/963/3300/20/
007110/20130205/113313/963/1540/10/
007110/20130205/113322/964/5800/20/
007110/20130205/113322/965/3100/20/
007110/20130205/113322/966/4400/20/
007110/20130205/113356/963/160/10/
007110/20130205/113356/963/840/20/
007110/20130205/113356/966/1400/20/
007110/20130205/113356/967/960/20/
007110/20130205/113409/967/2130/20/
007110/20130205/113411/968/5260/20/
007110/20130205/113412/967/2000/10/
007110/20130205/113413/967/2000/10/
007110/20130205/113414/967/2000/10/
007110/20130205/113415/967/1870/10/
007110/20130205/113459/962/1080/10/
007110/20130205/113507/962/940/20/
007110/20130205/113524/962/150/10/
007110/20130205/113700/963/2240/10/
007110/20130205/113730/965/370/20/
007110/20130205/113730/966/8400/20/
007110/20130205/113747/967/2020/20/
007110/20130205/113748/967/1000/20/
007110/20130205/113750/966/8870/10/
007110/20130205/113752/966/1130/20/
007110/20130205/113757/967/200/20/
007110/20130205/113800/967/130/20/
007110/20130205/113803/967/360/20/
007110/20130205/113807/967/710/10/
007110/20130205/113810/967/210/20/
007110/20130205/113811/967/150/20/
007110/20130205/113811/968/2260/20/
007110/20130205/113814/969/130/20/
007110/20130205/113818/969/3550/20/
007110/20130205/113818/970/1460/20/
007110/20130205/113826/970/500/20/
007110/20130205/113831/970/2000/20/
007110/20130205/113832/970/1340/20/
007110/20130205/113832/970/620/20/
007110/20130205/113833/970/1110/10/
007110/20130205/113836/970/3000/10/
007110/20130205/113837/970/3000/10/
007110/20130205/113837/970/3700/10/
007110/20130205/113841/970/180/20/
007110/20130205/113856/968/690/10/
007110/20130205/113856/966/6200/10/
007110/20130205/113923/969/100/20/
007110/20130205/113947/970/5050/20/
007110/20130205/114010/970/1020/20/
007110/20130205/114022/970/2120/20/
007110/20130205/114029/970/1670/20/
007110/20130205/114036/970/9680/10/
007110/20130205/114043/970/530/10/
007110/20130205/114044/970/1000/10/
007110/20130205/114116/970/460/10/
007110/20130205/114202/968/3130/10/
007110/20130205/114225/968/1320/10/
007110/20130205/114233/967/2230/10/
007110/20130205/114235/967/1830/10/
007110/20130205/114239/967/120/20/
007110/20130205/114250/966/100/10/
007110/20130205/114250/965/210/10/
007110/20130205/114254/964/510/10/
007110/20130205/114308/965/1020/20/
007110/20130205/114309/965/260/20/
007110/20130205/114310/967/250/20/
007110/20130205/114334/966/3040/20/
007110/20130205/114339/968/120/20/
007110/20130205/114418/966/700/10/
007110/20130205/114420/966/100/20/
007110/20130205/114420/966/250/20/
007110/20130205/114505/966/8120/10/
007110/20130205/114630/967/220/20/
007110/20130205/114648/966/1140/10/
007110/20130205/114659/965/1090/10/
007110/20130205/114702/964/1640/10/
007110/20130205/114702/963/610/10/
007110/20130205/114702/962/770/10/
007110/20130205/114721/962/520/20/
007110/20130205/114726/962/100/20/
007110/20130205/114727/962/500/20/
007110/20130205/114728/962/490/20/
007110/20130205/114729/966/100/20/
007110/20130205/115121/963/320/10/
007110/20130205/115142/963/700/20/
007110/20130205/115402/964/990/10/
007110/20130205/115431/963/5750/10/
007110/20130205/115514/962/4250/10/
007110/20130205/115522/962/850/10/
007110/20130205/115529/961/4920/10/
007110/20130205/115529/960/90/10/
007110/20130205/115537/960/2720/10/
007110/20130205/115540/959/400/10/
007110/20130205/115544/960/300/20/
007110/20130205/115556/965/270/20/
007110/20130205/115556/960/1410/10/
007110/20130205/115602/960/530/20/
007110/20130205/115603/960/500/20/
007110/20130205/115603/960/1080/20/
007110/20130205/115605/965/100/20/
007110/20130205/115619/965/110/20/
007110/20130205/115840/961/140/10/
007110/20130205/115915/961/110/20/
007110/20130205/120020/961/520/10/
007110/20130205/120020/960/1160/10/
007110/20130205/120120/960/2300/10/
007110/20130205/120202/959/3670/10/
007110/20130205/120221/959/370/20/
007110/20130205/120244/959/1220/10/
007110/20130205/120244/958/3780/10/
007110/20130205/120253/958/1000/10/
007110/20130205/120254/958/500/10/
007110/20130205/120304/958/90/10/
007110/20130205/120305/958/2570/20/
007110/20130205/120500/961/120/10/
007110/20130205/121019/960/230/10/
007110/20130205/121415/960/340/20/
007110/20130205/121433/960/3220/10/
007110/20130205/121519/959/1050/10/
007110/20130205/121520/959/2740/10/
007110/20130205/121714/959/950/10/
007110/20130205/122006/960/280/20/
007110/20130205/122006/961/890/20/
007110/20130205/122006/962/1050/20/
007110/20130205/122133/963/1170/10/
007110/20130205/122518/963/1660/20/
007110/20130205/122629/963/5460/10/
007110/20130205/122629/960/3900/10/
007110/20130205/122847/961/1000/10/
007110/20130205/122847/960/500/10/
007110/20130205/123023/962/3000/20/
007110/20130205/123118/960/4000/10/
007110/20130205/123140/960/3320/10/
007110/20130205/123140/959/1680/10/
007110/20130205/123144/959/9010/10/
007110/20130205/123144/958/10550/10/
007110/20130205/123208/958/440/20/
007110/20130205/123836/960/2050/10/
007110/20130205/123836/958/1480/10/
007110/20130205/124211/959/1480/10/
007110/20130205/124211/958/9680/10/
007110/20130205/124211/957/1840/10/
007110/20130205/124355/960/1080/20/
007110/20130205/124434/961/1330/20/
007110/20130205/124441/962/1000/20/
007110/20130205/124447/962/3770/20/
007110/20130205/124505/965/620/20/
007110/20130205/124508/965/500/10/
007110/20130205/124513/965/500/10/
007110/20130205/124522/965/500/10/
007110/20130205/124533/966/340/20/
007110/20130205/124533/967/90/20/
007110/20130205/124533/968/1200/20/
007110/20130205/124535/968/370/10/
007110/20130205/124545/966/500/20/
007110/20130205/124551/966/800/20/
007110/20130205/124556/968/200/20/
007110/20130205/124607/968/200/20/
007110/20130205/124633/968/550/20/
007110/20130205/124652/968/200/20/
007110/20130205/124700/968/230/20/
007110/20130205/124757/968/110/20/
007110/20130205/124812/967/180/10/
007110/20130205/124833/966/1000/10/
007110/20130205/124835/966/660/10/
007110/20130205/124836/966/660/10/
007110/20130205/124836/966/660/10/
007110/20130205/124836/966/660/10/
007110/20130205/124837/966/1770/10/
007110/20130205/124840/966/1610/20/
007110/20130205/124855/966/13550/10/
007110/20130205/124904/965/660/10/
007110/20130205/124909/965/660/10/
007110/20130205/124912/965/120/10/
007110/20130205/124915/965/480/10/
007110/20130205/124937/965/1040/10/
007110/20130205/125307/963/500/10/
007110/20130205/125418/963/2120/10/
007110/20130205/125511/963/4000/10/
007110/20130205/125647/963/390/10/
007110/20130205/125703/963/2800/10/
007110/20130205/125703/962/190/10/
007110/20130205/125712/962/2260/10/
007110/20130205/125714/962/230/20/
007110/20130205/125739/961/3510/10/
007110/20130205/125746/961/2940/10/
007110/20130205/125747/961/100/20/
007110/20130205/125754/961/860/20/
007110/20130205/125801/960/100/10/
007110/20130205/125811/961/4580/20/
007110/20130205/130229/964/15560/20/
007110/20130205/130243/964/270/10/
007110/20130205/130246/967/100/20/
007110/20130205/130247/968/90/20/
007110/20130205/130248/968/2080/20/
007110/20130205/130249/968/90/20/
007110/20130205/130250/968/90/20/
007110/20130205/130251/968/90/20/
007110/20130205/130252/968/120/20/
007110/20130205/130253/969/100/20/
007110/20130205/130254/969/90/20/
007110/20130205/130254/969/100/20/
007110/20130205/130255/969/90/20/
007110/20130205/130255/969/1430/20/
007110/20130205/130255/970/3700/20/
007110/20130205/130256/970/90/10/
007110/20130205/130257/971/90/20/
007110/20130205/130258/971/100/20/
007110/20130205/130259/970/90/10/
007110/20130205/130259/971/320/20/
007110/20130205/130259/971/90/20/
007110/20130205/130300/971/900/20/
007110/20130205/130301/972/90/20/
007110/20130205/130302/972/100/20/
007110/20130205/130302/971/90/10/
007110/20130205/130303/972/90/20/
007110/20130205/130304/972/2590/20/
007110/20130205/130305/973/90/20/
007110/20130205/130305/973/90/20/
007110/20130205/130306/973/90/20/
007110/20130205/130307/972/90/10/
007110/20130205/130307/973/1460/20/
007110/20130205/130307/974/1500/20/
007110/20130205/130307/975/1550/20/
007110/20130205/130308/976/90/20/
007110/20130205/130310/976/90/20/
007110/20130205/130311/976/90/20/
007110/20130205/130312/976/90/20/
007110/20130205/130313/976/1840/20/
007110/20130205/130313/976/90/20/
007110/20130205/130314/976/90/20/
007110/20130205/130315/975/90/10/
007110/20130205/130315/976/90/20/
007110/20130205/130316/976/90/20/
007110/20130205/130317/976/90/20/
007110/20130205/130318/976/90/20/
007110/20130205/130319/976/100/20/
007110/20130205/130319/976/90/20/
007110/20130205/130320/973/90/10/
007110/20130205/130321/975/90/20/
007110/20130205/130322/975/90/20/
007110/20130205/130323/975/100/20/
007110/20130205/130323/975/90/20/
007110/20130205/130324/975/90/20/
007110/20130205/130325/976/90/20/
007110/20130205/130326/972/90/10/
007110/20130205/130327/975/90/20/
007110/20130205/130327/975/5050/20/
007110/20130205/130328/975/90/20/
007110/20130205/130328/975/90/20/
007110/20130205/130330/975/100/20/
007110/20130205/130331/975/90/20/
007110/20130205/130331/975/1180/20/
007110/20130205/130332/975/90/20/
007110/20130205/130333/975/90/20/
007110/20130205/130334/972/870/10/
007110/20130205/130334/971/490/10/
007110/20130205/130334/975/90/20/
007110/20130205/130335/971/90/10/
007110/20130205/130336/975/100/20/
007110/20130205/130337/971/90/10/
007110/20130205/130338/975/90/20/
007110/20130205/130340/972/90/10/
007110/20130205/130340/975/100/20/
007110/20130205/130341/974/90/20/
007110/20130205/130343/974/100/20/
007110/20130205/130343/974/900/20/
007110/20130205/130344/975/90/20/
007110/20130205/130345/975/1720/20/
007110/20130205/130346/975/290/20/
007110/20130205/130346/974/90/10/
007110/20130205/130347/975/90/20/
007110/20130205/130349/974/90/10/
007110/20130205/130349/975/100/20/
007110/20130205/130350/975/90/20/
007110/20130205/130351/975/2470/20/
007110/20130205/130352/976/90/20/
007110/20130205/130352/976/4100/20/
007110/20130205/130353/976/90/10/
007110/20130205/130354/977/100/20/
007110/20130205/130354/977/100/20/
007110/20130205/130355/978/90/20/
007110/20130205/130356/977/90/10/
007110/20130205/130357/978/100/20/
007110/20130205/130358/977/90/20/
007110/20130205/130359/977/90/20/
007110/20130205/130400/977/90/20/
007110/20130205/130401/977/90/20/
007110/20130205/130402/977/90/20/
007110/20130205/130402/977/90/20/
007110/20130205/130403/977/370/20/
007110/20130205/130403/977/3190/20/
007110/20130205/130404/978/1680/20/
007110/20130205/130405/978/90/20/
007110/20130205/130406/978/100/20/
007110/20130205/130406/978/520/20/
007110/20130205/130406/978/1350/20/
007110/20130205/130407/979/100/20/
007110/20130205/130407/979/1010/20/
007110/20130205/130408/979/90/20/
007110/20130205/130409/980/90/20/
007110/20130205/130410/980/180/20/
007110/20130205/130410/980/9930/20/
007110/20130205/130410/980/17600/20/
007110/20130205/130411/979/1030/20/
007110/20130205/130411/981/170/20/
007110/20130205/130411/982/260/20/
007110/20130205/130412/983/90/20/
007110/20130205/130412/983/90/20/
007110/20130205/130413/982/420/10/
007110/20130205/130413/980/1600/20/
007110/20130205/130414/984/90/20/
007110/20130205/130414/985/90/20/
007110/20130205/130416/985/90/20/
007110/20130205/130416/985/90/20/
007110/20130205/130417/985/100/20/
007110/20130205/130418/984/90/20/
007110/20130205/130419/984/90/20/
007110/20130205/130420/984/90/20/
007110/20130205/130420/984/3690/20/
007110/20130205/130420/985/350/20/
007110/20130205/130421/984/90/10/
007110/20130205/130422/985/90/20/
007110/20130205/130423/984/90/10/
007110/20130205/130423/984/2180/10/
007110/20130205/130424/980/140/10/
007110/20130205/130424/980/90/20/
007110/20130205/130425/980/100/20/
007110/20130205/130426/980/90/20/
007110/20130205/130427/980/90/20/
007110/20130205/130428/980/90/20/
007110/20130205/130429/980/100/20/
007110/20130205/130430/980/90/20/
007110/20130205/130431/980/90/20/
007110/20130205/130432/980/100/20/
007110/20130205/130432/980/1560/20/
007110/20130205/130432/983/280/20/
007110/20130205/130432/984/4800/20/
007110/20130205/130432/985/2380/20/
007110/20130205/130432/980/1010/10/
007110/20130205/130433/985/90/20/
007110/20130205/130434/985/90/20/
007110/20130205/130435/985/90/20/
007110/20130205/130436/985/90/20/
007110/20130205/130437/980/90/10/
007110/20130205/130437/980/1360/10/
007110/20130205/130438/985/90/20/
007110/20130205/130439/980/90/10/
007110/20130205/130440/985/2050/20/
007110/20130205/130440/985/90/20/
007110/20130205/130441/985/90/20/
007110/20130205/130442/985/2300/20/
007110/20130205/130442/985/90/20/
007110/20130205/130443/985/5050/20/
007110/20130205/130444/985/90/20/
007110/20130205/130445/985/90/20/
007110/20130205/130447/985/90/20/
007110/20130205/130447/985/5010/20/
007110/20130205/130448/985/90/20/
007110/20130205/130449/985/100/20/
007110/20130205/130450/980/90/10/
007110/20130205/130451/985/90/20/
007110/20130205/130452/985/90/20/
007110/20130205/130453/985/1060/20/
007110/20130205/130453/985/560/20/
007110/20130205/130455/984/90/20/
007110/20130205/130456/980/90/10/
007110/20130205/130458/984/90/20/
007110/20130205/130500/984/90/20/
007110/20130205/130502/984/90/20/
007110/20130205/130503/984/90/20/
007110/20130205/130504/983/90/20/
007110/20130205/130506/983/90/20/
007110/20130205/130508/983/90/20/
007110/20130205/130510/983/90/20/
007110/20130205/130511/983/100/20/
007110/20130205/130512/983/100/20/
007110/20130205/130513/983/90/20/
007110/20130205/130514/983/90/20/
007110/20130205/130515/983/90/20/
007110/20130205/130516/981/90/10/
007110/20130205/130517/983/100/20/
007110/20130205/130519/983/90/20/
007110/20130205/130519/981/490/10/
007110/20130205/130519/980/1390/10/
007110/20130205/130520/983/90/20/
007110/20130205/130521/983/100/20/
007110/20130205/130522/983/90/20/
007110/20130205/130522/980/110/10/
007110/20130205/130523/980/940/10/
007110/20130205/130524/980/90/20/
007110/20130205/130525/979/90/10/
007110/20130205/130526/980/100/20/
007110/20130205/130527/980/90/20/
007110/20130205/130528/980/90/20/
007110/20130205/130529/980/90/20/
007110/20130205/130530/980/100/20/
007110/20130205/130531/980/90/20/
007110/20130205/130531/980/100/20/
007110/20130205/130532/978/90/10/
007110/20130205/130533/980/100/20/
007110/20130205/130534/980/820/20/
007110/20130205/130534/980/90/20/
007110/20130205/130535/980/90/20/
007110/20130205/130537/978/90/10/
007110/20130205/130538/980/410/20/
007110/20130205/130538/980/90/20/
007110/20130205/130539/980/90/20/
007110/20130205/130540/980/90/20/
007110/20130205/130541/980/90/20/
007110/20130205/130542/980/100/20/
007110/20130205/130543/979/90/10/
007110/20130205/130544/980/90/20/
007110/20130205/130545/980/90/20/
007110/20130205/130545/980/500/20/
007110/20130205/130546/980/90/20/
007110/20130205/130547/980/100/20/
007110/20130205/130548/980/90/20/
007110/20130205/130549/980/90/20/
007110/20130205/130551/980/90/20/
007110/20130205/130552/980/90/20/
007110/20130205/130553/980/90/20/
007110/20130205/130554/980/1520/20/
007110/20130205/130555/982/90/20/
007110/20130205/130555/980/1610/10/
007110/20130205/130556/980/100/20/
007110/20130205/130556/979/560/10/
007110/20130205/130557/979/90/20/
007110/20130205/130558/979/90/20/
007110/20130205/130600/979/90/20/
007110/20130205/130600/978/630/10/
007110/20130205/130601/978/4390/10/
007110/20130205/130601/977/5550/10/
007110/20130205/130603/977/90/20/
007110/20130205/130604/976/4610/10/
007110/20130205/130605/976/110/20/
007110/20130205/130607/974/90/10/
007110/20130205/130611/974/90/10/
007110/20130205/130614/974/170/10/
007110/20130205/130614/973/3360/10/
007110/20130205/130614/972/20000/10/
007110/20130205/130616/970/1360/10/
007110/20130205/130620/972/1140/20/
007110/20130205/130627/971/120/10/
007110/20130205/130629/970/200/10/
007110/20130205/130629/970/810/10/
007110/20130205/130629/968/2060/10/
007110/20130205/130633/968/470/10/
007110/20130205/130646/969/330/10/
007110/20130205/130651/970/120/20/
007110/20130205/130700/970/380/10/
007110/20130205/130706/970/500/20/
007110/20130205/130707/970/120/20/
007110/20130205/130727/970/2190/10/
007110/20130205/130747/970/3780/10/
007110/20130205/130753/969/1940/10/
007110/20130205/130755/969/2640/10/
007110/20130205/130756/969/2050/10/
007110/20130205/130757/969/120/10/
007110/20130205/130758/969/850/10/
007110/20130205/130758/969/1920/10/
007110/20130205/130758/968/5860/10/
007110/20130205/130802/968/3000/10/
007110/20130205/130808/968/3920/10/
007110/20130205/130827/968/90/20/
007110/20130205/130836/970/160/10/
007110/20130205/131023/972/3480/10/
007110/20130205/131023/971/1520/10/
007110/20130205/131028/971/600/20/
007110/20130205/131048/971/320/20/
007110/20130205/131100/970/300/20/
007110/20130205/131105/970/11190/20/
007110/20130205/131107/970/150/10/
007110/20130205/131113/971/110/20/
007110/20130205/131125/975/510/20/
007110/20130205/131125/975/170/10/
007110/20130205/131155/971/1530/10/
007110/20130205/131155/970/520/10/
007110/20130205/131206/968/300/10/
007110/20130205/131316/968/2630/10/
007110/20130205/131316/967/100/10/
007110/20130205/131316/966/100/10/
007110/20130205/131316/965/150/10/
007110/20130205/131316/964/480/10/
007110/20130205/131316/963/530/10/
007110/20130205/131322/964/210/10/
007110/20130205/131322/963/1150/10/
007110/20130205/131322/962/7950/10/
007110/20130205/131339/964/5320/10/
007110/20130205/131339/963/6170/10/
007110/20130205/131339/962/3690/10/
007110/20130205/131419/970/90/20/
007110/20130205/131456/970/120/20/
007110/20130205/131457/970/100/20/
007110/20130205/131458/970/100/20/
007110/20130205/131553/965/1400/10/
007110/20130205/131553/964/1390/10/
007110/20130205/131553/963/3210/10/
007110/20130205/131620/964/510/10/
007110/20130205/131626/963/100/10/
007110/20130205/131642/964/270/20/
007110/20130205/131702/963/1870/10/
007110/20130205/131702/962/7510/10/
007110/20130205/131702/961/7640/10/
007110/20130205/132000/963/370/10/
007110/20130205/132034/964/520/20/
007110/20130205/132043/964/600/20/
007110/20130205/132047/964/720/20/
007110/20130205/132050/964/300/20/
007110/20130205/132306/964/140/10/
007110/20130205/132306/963/3470/10/
007110/20130205/132306/962/540/10/
007110/20130205/132515/967/2550/20/
007110/20130205/132515/968/2480/20/
007110/20130205/132516/968/3750/10/
007110/20130205/132629/968/3140/20/
007110/20130205/132652/969/410/20/
007110/20130205/132735/971/150/20/
007110/20130205/132954/970/2000/20/
007110/20130205/133023/970/200/20/
007110/20130205/133038/971/470/20/
007110/20130205/133053/972/1020/20/
007110/20130205/133126/971/1000/10/
007110/20130205/133131/971/500/10/
007110/20130205/133131/971/200/10/
007110/20130205/133132/971/4300/10/
007110/20130205/133201/971/310/20/
007110/20130205/133202/970/820/10/
007110/20130205/133224/970/1770/10/
007110/20130205/133234/970/4670/10/
007110/20130205/133236/970/610/10/
007110/20130205/133241/970/250/10/
007110/20130205/133339/970/270/10/
007110/20130205/133423/969/3140/10/
007110/20130205/133435/969/1080/10/
007110/20130205/133447/969/1680/10/
007110/20130205/133447/969/4050/10/
007110/20130205/133448/966/2000/10/
007110/20130205/133922/967/640/10/
007110/20130205/134016/967/4790/10/
007110/20130205/134121/967/720/10/
007110/20130205/134219/970/410/20/
007110/20130205/134432/970/340/20/
007110/20130205/134443/970/2000/20/
007110/20130205/134616/969/200/20/
007110/20130205/134623/969/500/10/
007110/20130205/134631/970/1610/20/
007110/20130205/134647/970/1000/20/
007110/20130205/134649/970/260/20/
007110/20130205/134706/970/570/20/
007110/20130205/134707/970/300/10/
007110/20130205/135113/968/3380/10/
007110/20130205/135142/968/210/20/
007110/20130205/135159/968/470/20/
007110/20130205/135218/967/1730/10/
007110/20130205/135218/966/1120/10/
007110/20130205/135218/965/150/10/
007110/20130205/135224/965/250/10/
007110/20130205/135429/969/2240/20/
007110/20130205/135429/970/850/20/
007110/20130205/135850/967/910/10/
007110/20130205/135905/966/210/10/
007110/20130205/135905/965/4590/10/
007110/20130205/135918/965/1000/10/
007110/20130205/135928/965/4220/10/
007110/20130205/135935/965/1480/10/
007110/20130205/135935/965/1000/10/
007110/20130205/135951/965/4630/10/
007110/20130205/135953/965/260/10/
007110/20130205/135953/967/90/20/
007110/20130205/140327/965/1040/10/
007110/20130205/140515/966/1140/10/
007110/20130205/140515/965/1640/10/
007110/20130205/140515/964/110/10/
007110/20130205/140515/963/2120/10/
007110/20130205/140531/964/500/10/
007110/20130205/140531/963/2500/10/
007110/20130205/140537/969/100/20/
007110/20130205/140614/965/110/20/
007110/20130205/140657/965/890/20/
007110/20130205/140659/965/160/10/
007110/20130205/140704/963/2280/10/
007110/20130205/140712/962/4740/10/
007110/20130205/140717/962/2540/10/
007110/20130205/140729/961/120/10/
007110/20130205/140749/961/500/10/
007110/20130205/140834/964/100/20/
007110/20130205/140837/962/780/10/
007110/20130205/140841/962/2740/10/
007110/20130205/140843/962/890/20/
007110/20130205/140905/963/1000/10/
007110/20130205/140920/963/700/20/
007110/20130205/140943/963/380/10/
007110/20130205/140943/962/740/10/
007110/20130205/141033/965/510/20/
007110/20130205/141033/968/210/20/
007110/20130205/141033/969/1710/20/
007110/20130205/141033/970/3030/20/
007110/20130205/141033/970/730/10/
007110/20130205/141529/970/1010/20/
007110/20130205/141529/971/2730/20/
007110/20130205/141540/972/1000/20/
007110/20130205/141546/972/700/20/
007110/20130205/141558/973/3020/20/
007110/20130205/141558/974/3010/20/
007110/20130205/141602/974/2000/10/
007110/20130205/141602/974/500/10/
007110/20130205/141612/974/4470/10/
007110/20130205/141651/972/100/10/
007110/20130205/141651/971/2860/10/
007110/20130205/141702/971/6000/10/
007110/20130205/141835/971/410/10/
007110/20130205/142154/973/100/20/
007110/20130205/142322/970/120/10/
007110/20130205/142427/970/350/20/
007110/20130205/142442/969/100/10/
007110/20130205/142442/967/1000/10/
007110/20130205/142456/967/90/10/
007110/20130205/142456/966/1000/10/
007110/20130205/142456/965/1200/10/
007110/20130205/142456/964/100/10/
007110/20130205/142456/963/310/10/
007110/20130205/142618/970/100/10/
007110/20130205/142717/971/900/20/
007110/20130205/142919/972/3020/20/
007110/20130205/142922/972/230/20/
007110/20130205/142922/972/100/20/
007110/20130205/142950/972/550/20/
007110/20130205/142951/972/1030/20/
007110/20130205/142957/972/990/20/
007110/20130205/143055/972/1170/10/
007110/20130205/143121/972/110/10/
007110/20130205/143128/972/100/10/
007110/20130205/143152/972/150/10/
007110/20130205/143152/971/2870/10/
007110/20130205/143246/971/100/10/
007110/20130205/143342/973/530/20/
007110/20130205/143406/973/170/20/
007110/20130205/143417/973/110/20/
007110/20130205/143440/972/990/10/
007110/20130205/143544/971/2190/10/
007110/20130205/143608/971/4010/10/
007110/20130205/143610/971/2000/10/
007110/20130205/143651/972/150/10/
007110/20130205/143655/972/170/20/
007110/20130205/143712/971/300/10/
007110/20130205/143722/971/10050/10/
007110/20130205/143730/971/1560/10/
007110/20130205/143731/970/5000/10/
007110/20130205/143830/971/1000/20/
007110/20130205/143951/971/2430/20/
007110/20130205/144034/971/200/20/
007110/20130205/144040/970/5000/10/
007110/20130205/144044/970/1330/10/
007110/20130205/144121/970/4010/20/
007110/20130205/144137/970/5000/20/
007110/20130205/144141/970/500/20/
007110/20130205/144146/970/380/20/
007110/20130205/144207/970/420/10/
007110/20130205/144212/970/500/20/
007110/20130205/144220/970/3000/20/
007110/20130205/144255/970/100/20/
007110/20130205/144255/970/210/20/
007110/20130205/144342/971/90/20/
007110/20130205/144345/970/290/10/
007110/20130205/144408/970/3010/10/
007110/20130205/144412/970/90/10/
007110/20130205/144450/969/540/10/
007110/20130205/144452/969/1500/20/
007110/20130205/144454/969/200/20/
007110/20130205/144528/968/210/10/
007110/20130205/144531/968/2510/10/
007110/20130205/144534/967/4320/10/
007110/20130205/144604/966/4400/10/
007110/20130205/144606/966/36600/10/
007110/20130205/144617/966/1300/20/
007110/20130205/144630/964/3220/10/
007110/20130205/144630/963/1790/10/
007110/20130205/144655/963/1000/10/
007110/20130205/144702/965/1000/20/
007110/20130205/144711/963/3680/10/
007110/20130205/144711/962/1060/10/
007110/20130205/144719/966/110/20/
007110/20130205/144722/966/1000/20/
007110/20130205/144800/964/1200/10/
007110/20130205/144823/963/8880/10/
007110/20130205/144824/963/200/20/
007110/20130205/144829/964/260/20/
007110/20130205/144901/964/240/10/
007110/20130205/144927/965/200/10/
007110/20130205/144927/964/170/10/
007110/20130205/144932/964/4710/10/
007110/20130205/144946/965/360/20/
007110/20130205/144957/964/10020/10/
007110/20130205/150000/962/39870/10/
