007110/20130128/90000/940/103320/10/
007110/20130128/90003/950/11210/20/
007110/20130128/90004/952/8090/10/
007110/20130128/90004/940/16360/10/
007110/20130128/90008/941/200/10/
007110/20130128/90009/941/2990/10/
007110/20130128/90009/940/12320/10/
007110/20130128/90009/939/5630/10/
007110/20130128/90009/938/7100/10/
007110/20130128/90017/955/540/20/
007110/20130128/90019/955/1460/20/
007110/20130128/90028/957/260/20/
007110/20130128/90030/955/1010/10/
007110/20130128/90035/945/90/10/
007110/20130128/90043/945/2930/10/
007110/20130128/90043/941/1000/10/
007110/20130128/90043/940/5070/10/
007110/20130128/90046/941/500/10/
007110/20130128/90048/953/110/20/
007110/20130128/90112/950/520/20/
007110/20130128/90112/951/1550/20/
007110/20130128/90112/952/780/20/
007110/20130128/90112/954/3180/20/
007110/20130128/90118/954/140/10/
007110/20130128/90119/954/500/10/
007110/20130128/90119/954/510/10/
007110/20130128/90122/954/1000/10/
007110/20130128/90124/954/10290/10/
007110/20130128/90127/943/200/10/
007110/20130128/90130/950/1000/20/
007110/20130128/90138/947/950/20/
007110/20130128/90143/950/100/20/
007110/20130128/90149/944/90/10/
007110/20130128/90149/943/970/10/
007110/20130128/90155/944/530/10/
007110/20130128/90155/943/600/10/
007110/20130128/90201/944/2410/10/
007110/20130128/90201/943/12360/10/
007110/20130128/90201/942/3020/10/
007110/20130128/90209/942/7580/10/
007110/20130128/90218/943/100/20/
007110/20130128/90225/942/1250/10/
007110/20130128/90225/941/4140/10/
007110/20130128/90230/940/1870/10/
007110/20130128/90231/941/1280/20/
007110/20130128/90236/941/1000/20/
007110/20130128/90236/941/630/20/
007110/20130128/90236/941/4710/20/
007110/20130128/90237/942/100/20/
007110/20130128/90238/941/3500/10/
007110/20130128/90241/942/100/20/
007110/20130128/90251/943/9890/20/
007110/20130128/90252/941/630/10/
007110/20130128/90305/942/510/10/
007110/20130128/90307/947/280/20/
007110/20130128/90309/943/140/10/
007110/20130128/90319/943/690/10/
007110/20130128/90320/943/300/10/
007110/20130128/90322/943/1010/10/
007110/20130128/90325/949/290/20/
007110/20130128/90334/950/110/20/
007110/20130128/90343/950/550/20/
007110/20130128/90351/950/4540/20/
007110/20130128/90354/950/100/20/
007110/20130128/90359/950/2000/20/
007110/20130128/90404/950/490/20/
007110/20130128/90408/950/6090/10/
007110/20130128/90415/949/850/20/
007110/20130128/90417/949/670/20/
007110/20130128/90426/949/340/10/
007110/20130128/90426/946/260/10/
007110/20130128/90442/947/1000/10/
007110/20130128/90442/946/2300/10/
007110/20130128/90443/946/390/10/
007110/20130128/90447/949/150/20/
007110/20130128/90453/949/100/10/
007110/20130128/90510/950/320/10/
007110/20130128/90514/950/890/20/
007110/20130128/90529/950/1120/10/
007110/20130128/90529/950/1000/20/
007110/20130128/90535/949/880/10/
007110/20130128/90545/946/1630/10/
007110/20130128/90545/945/2770/10/
007110/20130128/90545/944/2660/10/
007110/20130128/90550/945/1000/20/
007110/20130128/90550/944/1620/10/
007110/20130128/90550/943/6000/10/
007110/20130128/90550/942/1080/10/
007110/20130128/90550/941/1300/10/
007110/20130128/90553/944/330/20/
007110/20130128/90553/945/2610/20/
007110/20130128/90554/946/2060/10/
007110/20130128/90554/941/800/10/
007110/20130128/90554/940/1630/10/
007110/20130128/90600/945/1010/10/
007110/20130128/90600/941/3000/10/
007110/20130128/90600/941/100/20/
007110/20130128/90600/941/15340/20/
007110/20130128/90602/941/850/10/
007110/20130128/90605/941/360/10/
007110/20130128/90617/945/1010/20/
007110/20130128/90637/944/1030/20/
007110/20130128/90637/945/9970/20/
007110/20130128/90638/941/500/10/
007110/20130128/90642/944/630/20/
007110/20130128/90642/945/1250/20/
007110/20130128/90646/945/910/20/
007110/20130128/90647/945/90/10/
007110/20130128/90648/945/110/20/
007110/20130128/90657/945/1420/10/
007110/20130128/90657/945/680/20/
007110/20130128/90712/945/1500/10/
007110/20130128/90720/945/500/20/
007110/20130128/90729/945/350/10/
007110/20130128/90731/945/1000/10/
007110/20130128/90746/946/230/20/
007110/20130128/90747/946/820/20/
007110/20130128/90747/947/180/20/
007110/20130128/90752/947/1000/20/
007110/20130128/90757/947/2600/20/
007110/20130128/90801/947/120/20/
007110/20130128/90808/947/1000/20/
007110/20130128/90812/947/2340/20/
007110/20130128/90817/947/2660/10/
007110/20130128/90817/945/1150/10/
007110/20130128/90817/943/2010/10/
007110/20130128/90817/942/4930/10/
007110/20130128/90817/941/600/10/
007110/20130128/90907/947/100/20/
007110/20130128/90922/947/1450/20/
007110/20130128/90925/947/500/10/
007110/20130128/90927/948/1000/20/
007110/20130128/90942/948/120/20/
007110/20130128/90957/948/150/20/
007110/20130128/90958/947/2000/10/
007110/20130128/91001/948/1000/20/
007110/20130128/91015/947/420/10/
007110/20130128/91021/947/1000/20/
007110/20130128/91039/947/960/20/
007110/20130128/91039/947/160/20/
007110/20130128/91043/947/3840/10/
007110/20130128/91053/946/150/10/
007110/20130128/91054/946/640/10/
007110/20130128/91115/946/500/10/
007110/20130128/91121/946/1120/10/
007110/20130128/91121/945/1880/10/
007110/20130128/91124/945/100/10/
007110/20130128/91134/945/3070/10/
007110/20130128/91134/944/1930/10/
007110/20130128/91137/946/2520/20/
007110/20130128/91141/945/1000/20/
007110/20130128/91141/946/2410/20/
007110/20130128/91153/946/1000/20/
007110/20130128/91209/946/220/20/
007110/20130128/91241/946/90/10/
007110/20130128/91254/947/2660/20/
007110/20130128/91313/947/1070/10/
007110/20130128/91313/948/3000/20/
007110/20130128/91314/948/7510/20/
007110/20130128/91316/948/220/10/
007110/20130128/91316/947/1770/10/
007110/20130128/91316/946/3530/10/
007110/20130128/91316/945/12490/10/
007110/20130128/91316/945/1990/20/
007110/20130128/91318/944/1000/10/
007110/20130128/91322/944/5010/10/
007110/20130128/91341/949/210/20/
007110/20130128/91346/949/960/20/
007110/20130128/91415/947/210/10/
007110/20130128/91415/946/2410/10/
007110/20130128/91419/947/2370/10/
007110/20130128/91428/947/1400/10/
007110/20130128/91438/947/380/20/
007110/20130128/91438/949/3940/20/
007110/20130128/91451/949/270/20/
007110/20130128/91453/949/230/10/
007110/20130128/91509/946/9100/10/
007110/20130128/91512/946/650/10/
007110/20130128/91512/945/12660/10/
007110/20130128/91518/945/10000/20/
007110/20130128/91519/945/6690/20/
007110/20130128/91534/948/300/20/
007110/20130128/91549/945/160/10/
007110/20130128/91553/945/1900/10/
007110/20130128/91636/948/290/20/
007110/20130128/91657/948/870/20/
007110/20130128/91714/948/140/20/
007110/20130128/91735/947/1230/10/
007110/20130128/91738/948/4000/20/
007110/20130128/91741/948/310/20/
007110/20130128/91743/948/410/10/
007110/20130128/91743/947/3350/10/
007110/20130128/91810/946/5050/10/
007110/20130128/91816/945/230/10/
007110/20130128/91817/945/2630/10/
007110/20130128/91817/944/370/10/
007110/20130128/91823/944/1000/10/
007110/20130128/91824/946/600/20/
007110/20130128/91835/946/1400/20/
007110/20130128/91845/946/930/10/
007110/20130128/91923/946/4170/10/
007110/20130128/91943/946/90/20/
007110/20130128/92009/945/1000/10/
007110/20130128/92016/945/2090/10/
007110/20130128/92028/945/110/20/
007110/20130128/92048/944/6520/10/
007110/20130128/92048/943/10230/10/
007110/20130128/92054/943/1000/20/
007110/20130128/92108/943/1000/20/
007110/20130128/92112/942/180/10/
007110/20130128/92123/943/1000/20/
007110/20130128/92133/942/2770/10/
007110/20130128/92133/941/10130/10/
007110/20130128/92133/940/17100/10/
007110/20130128/92143/941/110/10/
007110/20130128/92143/943/200/20/
007110/20130128/92148/941/2880/10/
007110/20130128/92150/942/300/20/
007110/20130128/92150/943/540/20/
007110/20130128/92156/943/2020/10/
007110/20130128/92206/943/90/10/
007110/20130128/92235/943/1090/20/
007110/20130128/92247/945/1030/20/
007110/20130128/92306/945/520/20/
007110/20130128/92330/943/2000/10/
007110/20130128/92346/945/10600/20/
007110/20130128/92349/945/10000/20/
007110/20130128/92355/945/580/20/
007110/20130128/92400/943/330/10/
007110/20130128/92403/945/1820/20/
007110/20130128/92416/945/120/10/
007110/20130128/92424/945/180/10/
007110/20130128/92424/943/6660/10/
007110/20130128/92424/942/6600/10/
007110/20130128/92424/941/8670/10/
007110/20130128/92424/940/16990/10/
007110/20130128/92429/940/900/20/
007110/20130128/92500/945/90/20/
007110/20130128/92517/942/5850/10/
007110/20130128/92517/941/39700/10/
007110/20130128/92517/940/100/10/
007110/20130128/92518/940/100/20/
007110/20130128/92521/940/4280/20/
007110/20130128/92556/941/5110/10/
007110/20130128/92556/940/14900/10/
007110/20130128/92557/940/300/10/
007110/20130128/92558/940/1420/10/
007110/20130128/92600/940/100/20/
007110/20130128/92601/940/7180/20/
007110/20130128/92615/940/3410/10/
007110/20130128/92632/940/19650/10/
007110/20130128/92702/939/2060/10/
007110/20130128/92702/940/4380/20/
007110/20130128/92704/939/1180/10/
007110/20130128/92708/939/250/10/
007110/20130128/92716/939/1260/10/
007110/20130128/92720/939/210/20/
007110/20130128/92723/938/7950/10/
007110/20130128/92726/939/510/10/
007110/20130128/92732/939/960/20/
007110/20130128/92732/939/300/20/
007110/20130128/92733/938/1050/10/
007110/20130128/92733/939/500/20/
007110/20130128/92734/938/3010/10/
007110/20130128/92734/938/1000/20/
007110/20130128/92738/938/540/20/
007110/20130128/92741/938/110/20/
007110/20130128/92741/938/1010/20/
007110/20130128/92744/938/100/20/
007110/20130128/92744/938/2020/20/
007110/20130128/92745/938/590/20/
007110/20130128/92751/937/300/10/
007110/20130128/92804/939/770/20/
007110/20130128/92813/938/6690/10/
007110/20130128/92827/938/900/10/
007110/20130128/92836/939/330/20/
007110/20130128/92840/940/460/20/
007110/20130128/92847/938/210/10/
007110/20130128/92852/938/1020/10/
007110/20130128/92928/942/90/20/
007110/20130128/92953/941/4000/10/
007110/20130128/93015/941/6320/10/
007110/20130128/93019/941/230/10/
007110/20130128/93019/940/10290/10/
007110/20130128/93024/942/180/20/
007110/20130128/93026/940/7810/10/
007110/20130128/93051/941/120/10/
007110/20130128/93051/940/900/10/
007110/20130128/93055/940/490/10/
007110/20130128/93101/942/210/20/
007110/20130128/93105/941/120/10/
007110/20130128/93105/940/900/10/
007110/20130128/93119/941/100/10/
007110/20130128/93119/940/900/10/
007110/20130128/93134/941/140/10/
007110/20130128/93134/940/4860/10/
007110/20130128/93138/941/100/10/
007110/20130128/93140/941/100/20/
007110/20130128/93153/941/100/20/
007110/20130128/93200/941/90/10/
007110/20130128/93200/941/100/20/
007110/20130128/93216/940/2010/10/
007110/20130128/93232/941/510/20/
007110/20130128/93235/940/6880/10/
007110/20130128/93237/940/100/20/
007110/20130128/93244/940/8380/20/
007110/20130128/93250/940/320/10/
007110/20130128/93301/940/1700/10/
007110/20130128/93303/940/300/20/
007110/20130128/93307/940/710/10/
007110/20130128/93323/939/3800/10/
007110/20130128/93330/939/200/20/
007110/20130128/93342/940/640/20/
007110/20130128/93354/940/190/20/
007110/20130128/93402/940/110/20/
007110/20130128/93402/940/3980/20/
007110/20130128/93407/941/19510/20/
007110/20130128/93416/942/100/20/
007110/20130128/93416/942/2930/20/
007110/20130128/93421/943/590/20/
007110/20130128/93434/945/120/20/
007110/20130128/93456/945/210/20/
007110/20130128/93505/946/90/20/
007110/20130128/93518/946/910/20/
007110/20130128/93520/946/2000/20/
007110/20130128/93523/946/1040/20/
007110/20130128/93526/946/310/20/
007110/20130128/93605/946/190/20/
007110/20130128/93610/946/140/20/
007110/20130128/93610/947/680/20/
007110/20130128/93610/948/1650/20/
007110/20130128/93610/949/720/20/
007110/20130128/93619/949/150/20/
007110/20130128/93623/949/590/20/
007110/20130128/93659/945/230/10/
007110/20130128/93738/945/500/20/
007110/20130128/93739/945/300/20/
007110/20130128/93740/945/1700/20/
007110/20130128/93805/945/890/10/
007110/20130128/93805/943/3110/10/
007110/20130128/93805/942/2170/10/
007110/20130128/93805/941/8430/10/
007110/20130128/93805/940/8120/10/
007110/20130128/93845/947/510/20/
007110/20130128/93930/941/700/10/
007110/20130128/94107/946/1040/20/
007110/20130128/94224/943/300/10/
007110/20130128/94234/946/450/20/
007110/20130128/94326/946/1000/20/
007110/20130128/94327/944/760/10/
007110/20130128/94401/945/110/20/
007110/20130128/94401/946/370/20/
007110/20130128/94431/944/260/10/
007110/20130128/94447/943/350/10/
007110/20130128/94504/943/690/10/
007110/20130128/94504/942/3370/10/
007110/20130128/94504/941/1010/10/
007110/20130128/94509/941/2020/10/
007110/20130128/94638/943/2620/10/
007110/20130128/94638/942/1440/10/
007110/20130128/94651/943/200/20/
007110/20130128/94658/944/430/20/
007110/20130128/94755/943/140/10/
007110/20130128/94815/945/1540/20/
007110/20130128/94930/945/520/10/
007110/20130128/94934/943/2230/10/
007110/20130128/94934/942/2400/10/
007110/20130128/95341/945/170/20/
007110/20130128/95358/945/500/20/
007110/20130128/95405/945/1000/20/
007110/20130128/95429/945/160/20/
007110/20130128/95437/946/1010/20/
007110/20130128/95439/946/4380/20/
007110/20130128/95442/946/760/20/
007110/20130128/95444/946/240/10/
007110/20130128/95446/946/210/20/
007110/20130128/95448/946/500/20/
007110/20130128/95453/947/10060/20/
007110/20130128/95453/947/6650/20/
007110/20130128/95453/946/1030/20/
007110/20130128/95457/948/200/20/
007110/20130128/95457/948/1410/10/
007110/20130128/95502/949/5030/20/
007110/20130128/95537/950/800/20/
007110/20130128/95540/950/1000/10/
007110/20130128/95548/950/210/10/
007110/20130128/95548/949/190/10/
007110/20130128/95551/946/200/10/
007110/20130128/95551/945/1800/10/
007110/20130128/95807/949/180/20/
007110/20130128/95842/947/100/10/
007110/20130128/95932/949/1350/20/
007110/20130128/95950/950/2010/20/
007110/20130128/100023/951/2010/20/
007110/20130128/100109/950/140/10/
007110/20130128/100111/951/100/20/
007110/20130128/100112/951/500/20/
007110/20130128/100117/951/1010/10/
007110/20130128/100140/951/1000/10/
007110/20130128/100153/951/100/10/
007110/20130128/100213/950/450/10/
007110/20130128/100220/950/790/10/
007110/20130128/100221/950/3900/10/
007110/20130128/100227/950/390/10/
007110/20130128/100228/950/960/10/
007110/20130128/100229/950/100/10/
007110/20130128/100238/950/280/10/
007110/20130128/100245/949/100/10/
007110/20130128/100252/949/200/10/
007110/20130128/100334/949/2770/10/
007110/20130128/100334/948/3950/10/
007110/20130128/100401/948/1190/10/
007110/20130128/100401/947/700/10/
007110/20130128/100414/947/520/10/
007110/20130128/100414/946/4680/10/
007110/20130128/100428/951/4550/20/
007110/20130128/100436/951/100/10/
007110/20130128/100440/951/4000/10/
007110/20130128/100449/951/1000/10/
007110/20130128/100452/951/380/10/
007110/20130128/100523/950/100/10/
007110/20130128/100523/947/200/10/
007110/20130128/100631/950/320/10/
007110/20130128/100634/949/200/10/
007110/20130128/100649/950/1570/20/
007110/20130128/100650/950/3170/20/
007110/20130128/100655/950/1230/10/
007110/20130128/100659/950/2020/10/
007110/20130128/100659/950/1390/10/
007110/20130128/100659/949/4760/10/
007110/20130128/100718/948/6000/10/
007110/20130128/100725/948/3850/20/
007110/20130128/100752/951/1620/20/
007110/20130128/100752/952/4380/20/
007110/20130128/100752/953/5190/20/
007110/20130128/100752/954/1750/20/
007110/20130128/100758/954/13290/20/
007110/20130128/100800/954/170/10/
007110/20130128/100801/954/700/20/
007110/20130128/100805/954/100/20/
007110/20130128/100846/954/850/20/
007110/20130128/100847/954/220/20/
007110/20130128/100847/955/1780/20/
007110/20130128/100910/955/300/20/
007110/20130128/100911/955/1200/20/
007110/20130128/100922/955/300/20/
007110/20130128/101047/951/150/10/
007110/20130128/101231/954/380/20/
007110/20130128/101237/953/100/20/
007110/20130128/101302/953/400/20/
007110/20130128/101328/954/2730/20/
007110/20130128/101341/955/1010/20/
007110/20130128/101341/955/2900/20/
007110/20130128/101342/955/5090/20/
007110/20130128/101342/956/1920/20/
007110/20130128/101342/957/1120/20/
007110/20130128/101342/958/1700/20/
007110/20130128/101342/959/170/20/
007110/20130128/101353/959/1000/20/
007110/20130128/101406/959/1000/20/
007110/20130128/101423/957/1520/20/
007110/20130128/101450/957/490/20/
007110/20130128/101450/958/480/20/
007110/20130128/101533/956/250/10/
007110/20130128/101536/956/810/10/
007110/20130128/101539/955/8850/10/
007110/20130128/101602/955/1000/10/
007110/20130128/101613/956/190/20/
007110/20130128/101634/956/100/10/
007110/20130128/101649/957/710/10/
007110/20130128/101655/956/660/10/
007110/20130128/101655/955/7340/10/
007110/20130128/101718/957/400/20/
007110/20130128/101723/957/590/20/
007110/20130128/101727/957/630/10/
007110/20130128/101739/955/6350/10/
007110/20130128/101739/954/1880/10/
007110/20130128/101846/954/190/20/
007110/20130128/101859/954/250/10/
007110/20130128/101935/952/180/10/
007110/20130128/101935/951/120/10/
007110/20130128/102056/953/1130/10/
007110/20130128/102056/952/430/10/
007110/20130128/102127/952/1790/10/
007110/20130128/102135/952/240/20/
007110/20130128/102155/952/580/10/
007110/20130128/102158/952/550/20/
007110/20130128/102158/952/1580/20/
007110/20130128/102309/954/1170/20/
007110/20130128/102313/955/170/20/
007110/20130128/102357/956/920/20/
007110/20130128/102407/956/1100/20/
007110/20130128/102423/956/580/20/
007110/20130128/102424/956/530/20/
007110/20130128/102453/956/1500/10/
007110/20130128/102526/956/1070/20/
007110/20130128/102534/957/320/20/
007110/20130128/102545/957/530/20/
007110/20130128/102548/957/2730/20/
007110/20130128/102552/957/950/20/
007110/20130128/102553/958/300/20/
007110/20130128/102555/958/820/20/
007110/20130128/102556/959/370/20/
007110/20130128/102617/957/1060/10/
007110/20130128/102631/959/230/20/
007110/20130128/102632/957/6210/10/
007110/20130128/102639/959/180/20/
007110/20130128/102647/959/220/20/
007110/20130128/102655/959/110/20/
007110/20130128/102658/958/370/10/
007110/20130128/102702/959/90/20/
007110/20130128/102722/959/3000/20/
007110/20130128/102723/959/1330/20/
007110/20130128/102723/958/9000/10/
007110/20130128/102732/959/630/20/
007110/20130128/102736/959/2020/20/
007110/20130128/102736/959/1430/20/
007110/20130128/102736/960/1350/20/
007110/20130128/102737/961/310/20/
007110/20130128/102740/962/100/20/
007110/20130128/102740/963/110/20/
007110/20130128/102742/964/200/20/
007110/20130128/102813/962/360/20/
007110/20130128/102822/963/600/20/
007110/20130128/102822/964/4420/20/
007110/20130128/102828/964/2010/20/
007110/20130128/102840/963/1000/20/
007110/20130128/102857/963/1010/10/
007110/20130128/102901/962/100/10/
007110/20130128/102904/963/2530/20/
007110/20130128/102931/963/100/20/
007110/20130128/102934/963/430/10/
007110/20130128/102937/963/160/20/
007110/20130128/102943/963/200/20/
007110/20130128/102953/963/180/20/
007110/20130128/102953/964/600/20/
007110/20130128/102959/964/4420/20/
007110/20130128/102959/965/23000/20/
007110/20130128/102959/966/110/20/
007110/20130128/103002/965/1000/10/
007110/20130128/103021/965/8010/10/
007110/20130128/103023/965/1000/10/
007110/20130128/103028/965/570/10/
007110/20130128/103032/965/1010/20/
007110/20130128/103035/965/100/20/
007110/20130128/103038/965/890/20/
007110/20130128/103044/963/1000/10/
007110/20130128/103046/963/1860/10/
007110/20130128/103051/963/1140/20/
007110/20130128/103100/964/250/20/
007110/20130128/103110/964/750/10/
007110/20130128/103111/964/1050/20/
007110/20130128/103115/965/3920/20/
007110/20130128/103116/964/300/10/
007110/20130128/103118/965/2000/20/
007110/20130128/103125/965/510/20/
007110/20130128/103134/967/1120/20/
007110/20130128/103135/968/100/20/
007110/20130128/103149/969/1010/20/
007110/20130128/103151/969/190/20/
007110/20130128/103152/970/5790/20/
007110/20130128/103152/969/980/10/
007110/20130128/103152/971/960/20/
007110/20130128/103157/968/100/10/
007110/20130128/103208/968/3000/10/
007110/20130128/103214/970/550/10/
007110/20130128/103215/970/300/10/
007110/20130128/103215/969/1000/10/
007110/20130128/103215/968/3150/10/
007110/20130128/103217/968/490/20/
007110/20130128/103217/967/880/10/
007110/20130128/103240/967/320/20/
007110/20130128/103240/968/110/20/
007110/20130128/103248/970/2000/20/
007110/20130128/103259/970/1000/20/
007110/20130128/103312/968/1570/10/
007110/20130128/103316/967/270/10/
007110/20130128/103323/967/120/10/
007110/20130128/103324/967/810/10/
007110/20130128/103330/967/100/20/
007110/20130128/103331/966/200/10/
007110/20130128/103334/966/440/10/
007110/20130128/103343/967/120/20/
007110/20130128/103403/968/1000/20/
007110/20130128/103404/968/450/20/
007110/20130128/103409/969/100/20/
007110/20130128/103432/969/1380/20/
007110/20130128/103435/969/3000/10/
007110/20130128/103438/969/680/10/
007110/20130128/103445/969/1000/20/
007110/20130128/103446/968/1330/10/
007110/20130128/103454/968/2000/10/
007110/20130128/103455/968/2000/10/
007110/20130128/103456/968/1590/10/
007110/20130128/103500/967/1520/10/
007110/20130128/103525/966/140/10/
007110/20130128/103525/966/1000/10/
007110/20130128/103528/966/1370/10/
007110/20130128/103528/965/5610/10/
007110/20130128/103535/965/4280/10/
007110/20130128/103609/966/2350/10/
007110/20130128/103614/965/140/10/
007110/20130128/103615/966/2500/20/
007110/20130128/103637/966/500/20/
007110/20130128/103638/965/200/10/
007110/20130128/103644/965/530/10/
007110/20130128/103646/965/2900/10/
007110/20130128/103713/965/250/20/
007110/20130128/103719/962/3280/10/
007110/20130128/103719/960/1720/10/
007110/20130128/103821/961/470/10/
007110/20130128/103836/961/610/10/
007110/20130128/103842/961/4440/20/
007110/20130128/103908/961/3000/10/
007110/20130128/103916/961/590/10/
007110/20130128/103926/961/100/20/
007110/20130128/103953/961/100/20/
007110/20130128/104054/961/100/10/
007110/20130128/104131/961/2330/10/
007110/20130128/104156/960/1500/10/
007110/20130128/104228/961/1740/10/
007110/20130128/104230/961/1480/20/
007110/20130128/104234/961/540/20/
007110/20130128/104252/961/530/10/
007110/20130128/104313/963/1010/20/
007110/20130128/104347/962/1200/20/
007110/20130128/104347/963/800/20/
007110/20130128/104357/963/1990/20/
007110/20130128/104457/964/470/20/
007110/20130128/104549/963/100/10/
007110/20130128/104627/961/6010/10/
007110/20130128/104725/961/120/10/
007110/20130128/104734/961/370/10/
007110/20130128/104745/962/140/20/
007110/20130128/104821/963/480/20/
007110/20130128/104903/964/1400/20/
007110/20130128/104903/965/12310/20/
007110/20130128/104918/966/290/20/
007110/20130128/104928/965/3260/10/
007110/20130128/104936/965/6000/10/
007110/20130128/104936/965/650/10/
007110/20130128/104944/965/3000/20/
007110/20130128/104946/965/670/20/
007110/20130128/105020/966/180/10/
007110/20130128/105020/965/4130/10/
007110/20130128/105036/965/3000/20/
007110/20130128/105058/965/1480/20/
007110/20130128/105102/965/550/10/
007110/20130128/105122/965/260/10/
007110/20130128/105201/965/710/10/
007110/20130128/105207/965/370/20/
007110/20130128/105233/965/500/20/
007110/20130128/105249/965/350/10/
007110/20130128/105253/965/650/10/
007110/20130128/105334/963/3610/10/
007110/20130128/105334/962/6330/10/
007110/20130128/105334/961/940/10/
007110/20130128/105357/964/150/20/
007110/20130128/105619/963/150/20/
007110/20130128/105620/961/240/10/
007110/20130128/105627/962/500/20/
007110/20130128/105650/962/1050/10/
007110/20130128/105739/963/110/10/
007110/20130128/105817/962/470/10/
007110/20130128/105817/961/1530/10/
007110/20130128/105957/964/610/20/
007110/20130128/110044/963/300/10/
007110/20130128/110058/964/210/20/
007110/20130128/110144/963/230/10/
007110/20130128/110147/963/200/10/
007110/20130128/110158/965/100/20/
007110/20130128/110200/963/2950/10/
007110/20130128/110221/963/3000/20/
007110/20130128/110300/964/570/20/
007110/20130128/110453/964/1040/10/
007110/20130128/110506/964/430/10/
007110/20130128/110522/965/90/20/
007110/20130128/110527/963/150/10/
007110/20130128/110538/963/1050/10/
007110/20130128/110558/963/700/10/
007110/20130128/110558/964/600/20/
007110/20130128/110616/963/500/20/
007110/20130128/110639/963/570/10/
007110/20130128/110639/962/3300/10/
007110/20130128/110648/962/1130/20/
007110/20130128/110655/962/870/10/
007110/20130128/110706/961/1780/10/
007110/20130128/110716/961/1910/10/
007110/20130128/110716/960/3090/10/
007110/20130128/110718/960/12410/10/
007110/20130128/110725/960/10000/10/
007110/20130128/110727/960/1320/10/
007110/20130128/110737/960/2520/10/
007110/20130128/110816/960/100/10/
007110/20130128/110816/959/1900/10/
007110/20130128/110820/959/1150/10/
007110/20130128/110827/959/1750/10/
007110/20130128/110835/958/1000/10/
007110/20130128/110836/958/1210/10/
007110/20130128/110836/957/1830/10/
007110/20130128/110900/957/1000/10/
007110/20130128/110906/957/1110/10/
007110/20130128/111008/958/150/10/
007110/20130128/111027/957/730/10/
007110/20130128/111048/957/1730/10/
007110/20130128/111116/957/600/20/
007110/20130128/111119/956/3010/10/
007110/20130128/111230/957/2000/20/
007110/20130128/111237/957/2000/20/
007110/20130128/111240/957/1650/20/
007110/20130128/111328/957/300/10/
007110/20130128/111335/957/100/10/
007110/20130128/111338/957/470/10/
007110/20130128/111343/957/300/20/
007110/20130128/111354/959/100/20/
007110/20130128/111447/957/200/10/
007110/20130128/111507/957/2000/10/
007110/20130128/111519/957/1020/10/
007110/20130128/111531/957/920/10/
007110/20130128/111555/957/2550/10/
007110/20130128/111644/957/90/20/
007110/20130128/111649/957/3400/20/
007110/20130128/111755/958/110/20/
007110/20130128/111806/958/310/10/
007110/20130128/111822/957/1650/10/
007110/20130128/111822/956/6350/10/
007110/20130128/111826/956/4500/10/
007110/20130128/111934/957/4870/10/
007110/20130128/111934/956/130/10/
007110/20130128/111956/956/400/10/
007110/20130128/112021/956/190/10/
007110/20130128/112028/956/950/10/
007110/20130128/112041/955/6940/10/
007110/20130128/112048/954/500/10/
007110/20130128/112100/955/650/20/
007110/20130128/112104/954/320/10/
007110/20130128/112120/954/5180/10/
007110/20130128/112130/954/1000/10/
007110/20130128/112131/954/490/10/
007110/20130128/112135/954/1000/10/
007110/20130128/112140/955/2050/20/
007110/20130128/112215/955/140/10/
007110/20130128/112303/955/740/10/
007110/20130128/112328/958/3070/20/
007110/20130128/112333/959/2420/20/
007110/20130128/112523/963/2580/20/
007110/20130128/112529/963/1000/10/
007110/20130128/112534/963/500/10/
007110/20130128/112537/963/1000/10/
007110/20130128/112548/963/1590/10/
007110/20130128/112923/960/110/10/
007110/20130128/112939/960/100/10/
007110/20130128/112940/963/500/20/
007110/20130128/113219/960/130/10/
007110/20130128/113249/963/3110/20/
007110/20130128/113311/962/1300/10/
007110/20130128/113345/963/1100/20/
007110/20130128/113452/963/150/20/
007110/20130128/113524/962/1110/10/
007110/20130128/113557/963/2080/20/
007110/20130128/113627/963/1950/20/
007110/20130128/113700/963/340/20/
007110/20130128/113706/963/380/10/
007110/20130128/113728/964/500/20/
007110/20130128/113836/964/1280/20/
007110/20130128/113922/964/270/20/
007110/20130128/113957/963/2600/10/
007110/20130128/114014/964/3000/20/
007110/20130128/114029/964/500/20/
007110/20130128/114056/965/6600/20/
007110/20130128/114127/964/1250/20/
007110/20130128/114127/965/3750/20/
007110/20130128/114153/965/280/20/
007110/20130128/114155/965/3780/20/
007110/20130128/114155/966/100/20/
007110/20130128/114155/967/2900/20/
007110/20130128/114248/967/460/20/
007110/20130128/114309/966/110/10/
007110/20130128/114310/966/90/10/
007110/20130128/114331/966/150/10/
007110/20130128/114409/966/4950/20/
007110/20130128/114420/966/3470/10/
007110/20130128/114549/966/320/20/
007110/20130128/114551/966/100/20/
007110/20130128/114552/966/100/20/
007110/20130128/114553/966/100/20/
007110/20130128/114554/966/100/20/
007110/20130128/114556/966/590/20/
007110/20130128/114608/966/1000/20/
007110/20130128/114612/965/10210/10/
007110/20130128/114635/964/1000/10/
007110/20130128/114739/963/370/10/
007110/20130128/114832/963/1100/10/
007110/20130128/114922/963/4000/10/
007110/20130128/114958/964/180/20/
007110/20130128/115000/963/2000/10/
007110/20130128/115151/963/17530/10/
007110/20130128/115237/962/1000/10/
007110/20130128/115246/962/1000/10/
007110/20130128/115246/961/2540/10/
007110/20130128/115307/961/150/10/
007110/20130128/115445/961/1800/10/
007110/20130128/115508/961/780/20/
007110/20130128/115508/963/1220/20/
007110/20130128/115526/963/5000/20/
007110/20130128/115527/963/19820/20/
007110/20130128/115542/963/1000/10/
007110/20130128/115627/964/4720/20/
007110/20130128/115627/965/2990/20/
007110/20130128/115635/965/1030/20/
007110/20130128/120041/965/1480/20/
007110/20130128/120138/965/110/20/
007110/20130128/120245/965/1100/20/
007110/20130128/120600/965/1510/20/
007110/20130128/120709/965/300/20/
007110/20130128/120750/965/4500/20/
007110/20130128/120832/965/990/20/
007110/20130128/120842/965/3600/20/
007110/20130128/120853/965/100/20/
007110/20130128/120854/965/200/20/
007110/20130128/120854/965/100/20/
007110/20130128/120855/965/100/20/
007110/20130128/120856/965/100/20/
007110/20130128/120857/965/100/20/
007110/20130128/120857/965/100/20/
007110/20130128/120911/965/1000/20/
007110/20130128/120912/965/100/20/
007110/20130128/120913/964/500/10/
007110/20130128/120935/964/1000/10/
007110/20130128/121049/964/540/10/
007110/20130128/121109/964/800/10/
007110/20130128/121143/964/1050/10/
007110/20130128/121159/965/570/20/
007110/20130128/121237/964/1220/10/
007110/20130128/121310/963/780/10/
007110/20130128/121320/963/5680/10/
007110/20130128/121324/963/2660/10/
007110/20130128/121405/963/370/20/
007110/20130128/121511/963/300/10/
007110/20130128/121529/963/8060/10/
007110/20130128/121634/963/1000/20/
007110/20130128/121950/963/170/20/
007110/20130128/122049/962/1000/10/
007110/20130128/122226/962/320/10/
007110/20130128/122231/962/500/10/
007110/20130128/122317/963/800/20/
007110/20130128/122417/963/1800/20/
007110/20130128/122850/962/200/10/
007110/20130128/123216/962/7870/10/
007110/20130128/123250/962/2000/20/
007110/20130128/123253/961/1200/10/
007110/20130128/123301/962/130/20/
007110/20130128/123521/962/1000/10/
007110/20130128/123545/964/150/20/
007110/20130128/123545/965/1340/20/
007110/20130128/123655/962/5880/10/
007110/20130128/123655/961/4170/10/
007110/20130128/123833/963/5810/10/
007110/20130128/123833/962/12000/10/
007110/20130128/123833/961/2920/10/
007110/20130128/123909/965/1540/20/
007110/20130128/124011/964/500/20/
007110/20130128/124208/964/400/20/
007110/20130128/124230/964/310/20/
007110/20130128/124250/964/500/10/
007110/20130128/124417/964/1460/10/
007110/20130128/124530/964/4270/10/
007110/20130128/124605/964/730/20/
007110/20130128/124755/964/1030/10/
007110/20130128/124948/965/330/20/
007110/20130128/124956/964/1500/10/
007110/20130128/125016/964/150/10/
007110/20130128/125045/965/5000/20/
007110/20130128/125107/965/640/20/
007110/20130128/125151/965/310/10/
007110/20130128/125251/965/280/10/
007110/20130128/125323/966/440/20/
007110/20130128/125407/966/160/20/
007110/20130128/125422/966/430/10/
007110/20130128/125546/967/340/20/
007110/20130128/125554/967/960/20/
007110/20130128/125625/968/2050/20/
007110/20130128/125629/968/150/20/
007110/20130128/125637/968/1000/10/
007110/20130128/125650/969/20000/20/
007110/20130128/125802/969/2290/20/
007110/20130128/125815/970/4000/20/
007110/20130128/125816/970/20000/20/
007110/20130128/125816/970/11440/20/
007110/20130128/125817/970/3930/20/
007110/20130128/125817/971/6070/20/
007110/20130128/125817/971/700/20/
007110/20130128/125820/971/500/10/
007110/20130128/125823/971/500/20/
007110/20130128/125825/972/1920/20/
007110/20130128/125833/973/580/20/
007110/20130128/125833/973/500/20/
007110/20130128/125834/973/550/20/
007110/20130128/125837/974/100/20/
007110/20130128/125854/974/90/20/
007110/20130128/125901/973/1220/10/
007110/20130128/125938/973/2020/20/
007110/20130128/125943/974/2790/20/
007110/20130128/125943/975/10240/20/
007110/20130128/125947/975/240/20/
007110/20130128/125953/976/540/20/
007110/20130128/125954/976/790/20/
007110/20130128/130000/976/120/10/
007110/20130128/130004/975/19770/10/
007110/20130128/130012/975/240/20/
007110/20130128/130012/976/280/20/
007110/20130128/130015/975/2000/20/
007110/20130128/130019/976/510/20/
007110/20130128/130022/976/120/20/
007110/20130128/130023/976/380/10/
007110/20130128/130033/977/1030/20/
007110/20130128/130035/976/1020/10/
007110/20130128/130036/977/400/20/
007110/20130128/130037/977/310/20/
007110/20130128/130048/977/3010/20/
007110/20130128/130051/977/1250/20/
007110/20130128/130052/977/1010/10/
007110/20130128/130100/977/8760/10/
007110/20130128/130100/976/160/10/
007110/20130128/130100/975/1100/10/
007110/20130128/130109/977/120/20/
007110/20130128/130110/975/150/10/
007110/20130128/130126/977/200/20/
007110/20130128/130141/977/1030/20/
007110/20130128/130159/977/570/20/
007110/20130128/130202/977/580/20/
007110/20130128/130202/978/1670/20/
007110/20130128/130210/976/500/10/
007110/20130128/130245/976/1230/10/
007110/20130128/130256/976/2010/10/
007110/20130128/130259/976/1490/10/
007110/20130128/130305/976/1000/10/
007110/20130128/130305/976/2000/10/
007110/20130128/130305/976/830/10/
007110/20130128/130305/975/2170/10/
007110/20130128/130314/975/4000/10/
007110/20130128/130317/975/490/10/
007110/20130128/130337/975/360/20/
007110/20130128/130346/975/1950/20/
007110/20130128/130359/974/1790/10/
007110/20130128/130359/973/1450/10/
007110/20130128/130438/971/160/10/
007110/20130128/130438/967/530/10/
007110/20130128/130438/965/390/10/
007110/20130128/130439/972/370/20/
007110/20130128/130449/972/2300/10/
007110/20130128/130459/972/3780/20/
007110/20130128/130504/966/90/10/
007110/20130128/130536/966/1000/10/
007110/20130128/130630/969/1050/10/
007110/20130128/130630/968/460/10/
007110/20130128/130653/969/760/20/
007110/20130128/130722/969/2390/10/
007110/20130128/130739/970/400/20/
007110/20130128/130803/970/5080/10/
007110/20130128/130812/970/480/10/
007110/20130128/130820/970/620/10/
007110/20130128/130831/970/1000/10/
007110/20130128/130833/972/330/20/
007110/20130128/130841/972/390/20/
007110/20130128/130842/970/3200/10/
007110/20130128/130847/970/1870/10/
007110/20130128/130852/970/2000/10/
007110/20130128/130914/970/570/10/
007110/20130128/130943/971/720/10/
007110/20130128/130943/970/350/10/
007110/20130128/131008/970/1200/10/
007110/20130128/131025/970/500/10/
007110/20130128/131057/971/100/20/
007110/20130128/131132/971/1030/10/
007110/20130128/131142/971/200/10/
007110/20130128/131228/971/800/20/
007110/20130128/131251/972/410/20/
007110/20130128/131257/972/250/20/
007110/20130128/131309/972/3630/20/
007110/20130128/131359/972/430/10/
007110/20130128/131359/971/6280/10/
007110/20130128/131359/970/630/10/
007110/20130128/131603/970/510/10/
007110/20130128/131612/970/6340/10/
007110/20130128/131612/969/2060/10/
007110/20130128/131612/968/5000/10/
007110/20130128/131612/967/1850/10/
007110/20130128/131612/966/2600/10/
007110/20130128/131612/965/5000/10/
007110/20130128/131612/964/5990/10/
007110/20130128/131613/963/5930/10/
007110/20130128/131613/962/6830/10/
007110/20130128/131613/961/8120/10/
007110/20130128/131619/973/210/20/
007110/20130128/131645/962/2430/10/
007110/20130128/131722/970/110/20/
007110/20130128/131802/970/200/20/
007110/20130128/131841/970/100/20/
007110/20130128/131930/966/840/10/
007110/20130128/131930/965/350/10/
007110/20130128/132207/966/2640/10/
007110/20130128/132207/965/5340/10/
007110/20130128/132207/964/2030/10/
007110/20130128/132344/969/170/20/
007110/20130128/132544/966/450/10/
007110/20130128/133001/966/840/20/
007110/20130128/133014/966/970/20/
007110/20130128/133139/969/1030/20/
007110/20130128/133139/970/21000/20/
007110/20130128/133144/970/180/20/
007110/20130128/133204/972/2450/20/
007110/20130128/133239/970/370/20/
007110/20130128/133302/970/350/20/
007110/20130128/133302/971/2650/20/
007110/20130128/133315/970/4000/20/
007110/20130128/133316/970/500/20/
007110/20130128/133337/971/560/20/
007110/20130128/133348/972/1120/20/
007110/20130128/133358/972/1600/20/
007110/20130128/133407/972/410/10/
007110/20130128/133408/972/600/20/
007110/20130128/133408/973/830/20/
007110/20130128/133440/974/190/20/
007110/20130128/133442/973/520/10/
007110/20130128/133447/973/540/10/
007110/20130128/133532/974/980/20/
007110/20130128/133543/975/2000/20/
007110/20130128/133549/975/5000/20/
007110/20130128/133551/975/500/20/
007110/20130128/133552/975/3200/20/
007110/20130128/133601/975/890/10/
007110/20130128/133608/975/480/20/
007110/20130128/133611/974/6000/10/
007110/20130128/133614/974/500/10/
007110/20130128/133614/974/2060/10/
007110/20130128/133629/974/4980/10/
007110/20130128/133655/974/900/20/
007110/20130128/133737/973/1000/10/
007110/20130128/133747/973/90/20/
007110/20130128/133826/973/180/20/
007110/20130128/133845/971/110/10/
007110/20130128/133856/971/1000/10/
007110/20130128/133904/971/1000/10/
007110/20130128/133907/971/100/10/
007110/20130128/133942/973/90/20/
007110/20130128/133953/972/360/10/
007110/20130128/133953/971/2530/10/
007110/20130128/133953/970/2110/10/
007110/20130128/133959/970/2000/10/
007110/20130128/134008/970/1000/10/
007110/20130128/134103/970/340/10/
007110/20130128/134125/970/790/10/
007110/20130128/134232/970/600/10/
007110/20130128/134423/968/3780/10/
007110/20130128/134441/968/5000/10/
007110/20130128/134717/968/200/10/
007110/20130128/134744/968/1610/10/
007110/20130128/134846/968/420/10/
007110/20130128/134846/967/140/10/
007110/20130128/134924/967/2010/10/
007110/20130128/135031/967/310/10/
007110/20130128/135240/966/290/10/
007110/20130128/135337/966/1000/10/
007110/20130128/135435/966/1000/10/
007110/20130128/135449/966/1400/10/
007110/20130128/135532/966/300/10/
007110/20130128/135546/966/1000/10/
007110/20130128/135556/966/410/10/
007110/20130128/135645/966/520/20/
007110/20130128/135810/966/1070/20/
007110/20130128/135828/966/2030/10/
007110/20130128/135832/966/2770/20/
007110/20130128/135844/966/100/10/
007110/20130128/135922/966/1050/10/
007110/20130128/135933/966/700/10/
007110/20130128/135943/966/300/20/
007110/20130128/135949/966/500/10/
007110/20130128/135953/967/100/20/
007110/20130128/140029/967/100/20/
007110/20130128/140129/968/100/10/
007110/20130128/140346/970/110/20/
007110/20130128/140525/967/700/10/
007110/20130128/140555/967/1860/10/
007110/20130128/140619/967/1000/10/
007110/20130128/140800/970/1020/20/
007110/20130128/140924/968/1000/10/
007110/20130128/140951/968/470/10/
007110/20130128/141011/967/1950/10/
007110/20130128/141043/966/2810/10/
007110/20130128/141114/965/2630/10/
007110/20130128/141151/965/500/10/
007110/20130128/141154/965/1840/10/
007110/20130128/141237/967/120/20/
007110/20130128/141242/967/880/20/
007110/20130128/141311/967/4130/10/
007110/20130128/141429/965/16300/10/
007110/20130128/141438/964/9240/10/
007110/20130128/141442/963/5100/10/
007110/20130128/141442/962/5150/10/
007110/20130128/141449/961/2000/10/
007110/20130128/141449/961/4320/10/
007110/20130128/141449/960/4830/10/
007110/20130128/141450/960/110/20/
007110/20130128/141459/960/1000/20/
007110/20130128/141507/959/330/10/
007110/20130128/141542/959/730/20/
007110/20130128/141542/960/270/20/
007110/20130128/141551/958/430/10/
007110/20130128/141553/958/100/20/
007110/20130128/141601/958/100/20/
007110/20130128/141605/958/100/20/
007110/20130128/141606/958/100/20/
007110/20130128/141632/957/2450/10/
007110/20130128/141634/957/1000/20/
007110/20130128/141638/957/720/20/
007110/20130128/141638/958/280/20/
007110/20130128/141657/958/1000/20/
007110/20130128/141723/957/610/10/
007110/20130128/141729/956/2150/10/
007110/20130128/141733/956/1730/10/
007110/20130128/141736/955/1460/10/
007110/20130128/141739/955/300/10/
007110/20130128/141741/955/700/10/
007110/20130128/141748/955/860/10/
007110/20130128/141749/955/1340/10/
007110/20130128/141910/957/600/20/
007110/20130128/141956/958/920/20/
007110/20130128/142014/958/430/10/
007110/20130128/142017/958/1040/20/
007110/20130128/142043/963/90/20/
007110/20130128/142158/958/280/10/
007110/20130128/142239/958/1050/10/
007110/20130128/142316/960/1000/20/
007110/20130128/142316/960/2000/10/
007110/20130128/142420/961/110/20/
007110/20130128/142519/961/90/20/
007110/20130128/142527/961/800/20/
007110/20130128/142619/960/3040/10/
007110/20130128/142620/960/1400/10/
007110/20130128/142633/961/360/20/
007110/20130128/142637/963/4620/20/
007110/20130128/142647/964/1740/20/
007110/20130128/142647/964/4410/10/
007110/20130128/143040/966/90/20/
007110/20130128/143215/965/510/20/
007110/20130128/143250/965/740/20/
007110/20130128/143251/965/280/10/
007110/20130128/143315/965/140/20/
007110/20130128/143332/963/710/10/
007110/20130128/143332/961/1390/10/
007110/20130128/143339/961/590/20/
007110/20130128/143514/965/90/20/
007110/20130128/143518/965/90/20/
007110/20130128/143549/963/920/10/
007110/20130128/143610/963/200/10/
007110/20130128/143617/962/5110/10/
007110/20130128/143633/961/200/10/
007110/20130128/143633/961/300/10/
007110/20130128/143638/962/400/20/
007110/20130128/143706/964/610/20/
007110/20130128/143744/962/1000/10/
007110/20130128/143842/962/410/10/
007110/20130128/143913/962/350/10/
007110/20130128/143947/962/1150/10/
007110/20130128/143947/962/3000/10/
007110/20130128/144020/961/1340/10/
007110/20130128/144023/961/680/10/
007110/20130128/144045/961/390/20/
007110/20130128/144050/961/340/20/
007110/20130128/144128/963/350/20/
007110/20130128/144140/961/1610/10/
007110/20130128/144140/961/1850/10/
007110/20130128/144144/963/150/10/
007110/20130128/144144/960/2250/10/
007110/20130128/144242/964/1360/20/
007110/20130128/144318/965/1010/20/
007110/20130128/144327/965/1900/20/
007110/20130128/144359/965/1020/20/
007110/20130128/144441/965/1060/20/
007110/20130128/144456/963/90/10/
007110/20130128/144504/963/9000/10/
007110/20130128/144520/963/800/10/
007110/20130128/144524/964/560/20/
007110/20130128/144555/963/90/10/
007110/20130128/144605/963/390/10/
007110/20130128/144605/962/4610/10/
007110/20130128/144614/962/3890/10/
007110/20130128/144614/961/2110/10/
007110/20130128/144632/961/830/10/
007110/20130128/144646/961/160/10/
007110/20130128/144715/961/1280/20/
007110/20130128/144743/963/1620/10/
007110/20130128/144802/964/1610/20/
007110/20130128/144846/962/500/10/
007110/20130128/144846/961/570/10/
007110/20130128/144848/961/670/10/
007110/20130128/144853/960/2400/10/
007110/20130128/144859/958/90/10/
007110/20130128/144911/960/3010/10/
007110/20130128/144922/961/1010/10/
007110/20130128/144922/960/1000/10/
007110/20130128/144923/964/3110/20/
007110/20130128/144934/961/6000/10/
007110/20130128/144934/961/3020/10/
007110/20130128/144941/960/1350/10/
007110/20130128/144944/960/1660/20/
007110/20130128/144948/960/2010/10/
007110/20130128/144948/960/3910/10/
007110/20130128/144948/959/230/10/
007110/20130128/144948/958/2160/10/
007110/20130128/144948/957/580/10/
007110/20130128/144948/956/1580/10/
007110/20130128/144953/963/1020/20/
007110/20130128/144953/963/490/10/
007110/20130128/144955/960/1010/10/
007110/20130128/150000/955/105290/10/
