007110/20130315/90359/936/570/20/
007110/20130315/90450/932/120/10/
007110/20130315/90602/934/550/20/
007110/20130315/90632/934/100/10/
007110/20130315/90701/934/520/20/
007110/20130315/90854/935/100/20/
007110/20130315/91031/934/460/20/
007110/20130315/91053/934/1190/20/
007110/20130315/91301/934/930/20/
007110/20130315/91352/934/420/20/
007110/20130315/91447/934/220/20/
007110/20130315/91458/932/1040/10/
007110/20130315/91547/934/780/20/
007110/20130315/91547/932/3650/10/
007110/20130315/91622/931/100/10/
007110/20130315/91622/930/100/10/
007110/20130315/91622/929/100/10/
007110/20130315/91622/928/90/10/
007110/20130315/91843/928/100/10/
007110/20130315/92010/928/3000/10/
007110/20130315/92807/930/1710/10/
007110/20130315/92905/929/510/10/
007110/20130315/92905/928/1130/10/
007110/20130315/92905/927/1010/10/
007110/20130315/92905/926/2170/10/
007110/20130315/92905/925/1520/10/
007110/20130315/93026/925/1520/10/
007110/20130315/93026/924/3150/10/
007110/20130315/93026/923/5330/10/
007110/20130315/93048/923/3250/10/
007110/20130315/93048/922/170/10/
007110/20130315/93048/921/1270/10/
007110/20130315/93055/929/1090/20/
007110/20130315/93055/931/940/20/
007110/20130315/93224/929/140/20/
007110/20130315/93225/929/200/20/
007110/20130315/93225/930/500/20/
007110/20130315/93225/930/5300/10/
007110/20130315/93436/930/700/20/
007110/20130315/94756/930/5440/20/
007110/20130315/94756/930/3560/10/
007110/20130315/95035/928/910/10/
007110/20130315/95107/928/90/20/
007110/20130315/95736/929/200/10/
007110/20130315/95846/925/6000/10/
007110/20130315/95959/930/1560/20/
007110/20130315/100134/926/2010/10/
007110/20130315/100240/930/1000/20/
007110/20130315/100321/930/100/10/
007110/20130315/100323/930/390/10/
007110/20130315/100525/930/440/20/
007110/20130315/100604/930/170/20/
007110/20130315/100825/930/500/10/
007110/20130315/101042/930/1520/20/
007110/20130315/101150/929/500/20/
007110/20130315/101150/930/3480/20/
007110/20130315/101250/930/1010/10/
007110/20130315/101407/928/1500/10/
007110/20130315/101432/928/510/20/
007110/20130315/101449/928/1220/20/
007110/20130315/101509/928/100/20/
007110/20130315/101639/928/880/20/
007110/20130315/101746/928/1010/20/
007110/20130315/101921/927/1650/10/
007110/20130315/101921/927/1610/10/
007110/20130315/102011/926/1570/10/
007110/20130315/102111/925/600/10/
007110/20130315/102200/925/1300/10/
007110/20130315/102200/924/1160/10/
007110/20130315/102200/923/3920/10/
007110/20130315/102759/924/3280/10/
007110/20130315/102822/924/1990/10/
007110/20130315/103155/924/3390/10/
007110/20130315/103258/924/1370/10/
007110/20130315/103444/924/630/10/
007110/20130315/103444/923/8250/10/
007110/20130315/103445/923/120/20/
007110/20130315/103626/923/120/20/
007110/20130315/103638/923/100/20/
007110/20130315/103646/923/500/20/
007110/20130315/103738/923/1500/20/
007110/20130315/103840/923/1310/20/
007110/20130315/103900/923/110/20/
007110/20130315/104118/923/3080/20/
007110/20130315/104136/923/6130/20/
007110/20130315/104202/923/2020/20/
007110/20130315/104232/923/1100/20/
007110/20130315/104451/922/8280/10/
007110/20130315/104454/922/1230/20/
007110/20130315/104510/921/18290/10/
007110/20130315/104520/922/10460/20/
007110/20130315/104520/923/7540/20/
007110/20130315/104531/923/470/20/
007110/20130315/104818/922/5150/10/
007110/20130315/104856/921/3540/10/
007110/20130315/104859/922/280/20/
007110/20130315/104918/921/3130/10/
007110/20130315/104939/920/40000/10/
007110/20130315/104939/920/5210/10/
007110/20130315/105303/920/1000/10/
007110/20130315/105443/922/100/20/
007110/20130315/105647/922/1350/20/
007110/20130315/105930/922/810/20/
007110/20130315/105941/922/1000/20/
007110/20130315/110045/922/100/20/
007110/20130315/110054/922/300/20/
007110/20130315/110101/922/1000/20/
007110/20130315/110141/922/2940/20/
007110/20130315/110220/922/220/20/
007110/20130315/110442/923/100/20/
007110/20130315/111232/922/180/10/
007110/20130315/111453/922/2000/10/
007110/20130315/112817/923/90/20/
007110/20130315/112940/923/2000/20/
007110/20130315/113106/923/100/20/
007110/20130315/113608/923/2070/20/
007110/20130315/113818/923/90/20/
007110/20130315/113829/923/500/20/
007110/20130315/113846/923/2000/20/
007110/20130315/113854/923/1000/20/
007110/20130315/113908/923/1000/20/
007110/20130315/113928/923/3000/20/
007110/20130315/114437/923/620/10/
007110/20130315/114752/924/200/20/
007110/20130315/115045/923/650/10/
007110/20130315/115108/923/2000/10/
007110/20130315/115129/923/150/10/
007110/20130315/115348/923/110/10/
007110/20130315/115521/923/320/10/
007110/20130315/115533/923/1000/20/
007110/20130315/115553/922/7000/10/
007110/20130315/115614/922/850/10/
007110/20130315/115614/921/5990/10/
007110/20130315/115614/920/7160/10/
007110/20130315/115725/921/1100/10/
007110/20130315/115725/920/4160/10/
007110/20130315/121241/923/530/20/
007110/20130315/121706/923/700/20/
007110/20130315/121807/924/300/20/
007110/20130315/121836/923/300/10/
007110/20130315/121840/922/300/10/
007110/20130315/121844/922/300/10/
007110/20130315/121848/922/300/10/
007110/20130315/121852/922/200/10/
007110/20130315/121916/921/160/10/
007110/20130315/121916/920/3340/10/
007110/20130315/121935/920/100/10/
007110/20130315/122039/921/500/10/
007110/20130315/122831/921/650/10/
007110/20130315/123042/921/500/10/
007110/20130315/123102/920/5480/10/
007110/20130315/123156/920/1250/10/
007110/20130315/123316/920/2050/10/
007110/20130315/123316/919/130/10/
007110/20130315/124120/924/2460/20/
007110/20130315/124120/926/110/20/
007110/20130315/124120/927/490/20/
007110/20130315/124308/923/90/10/
007110/20130315/124308/920/1230/10/
007110/20130315/124544/926/90/20/
007110/20130315/124757/922/90/10/
007110/20130315/124757/921/830/10/
007110/20130315/124757/920/600/10/
007110/20130315/130038/922/160/10/
007110/20130315/130058/921/530/10/
007110/20130315/130432/925/1010/20/
007110/20130315/131419/925/1000/20/
007110/20130315/131431/925/1000/20/
007110/20130315/131444/925/1030/20/
007110/20130315/131446/924/100/10/
007110/20130315/131446/922/4490/10/
007110/20130315/131446/921/5560/10/
007110/20130315/131446/920/12090/10/
007110/20130315/131513/926/2010/20/
007110/20130315/131540/926/100/20/
007110/20130315/131540/927/1810/20/
007110/20130315/131540/928/1090/20/
007110/20130315/131555/928/910/20/
007110/20130315/131555/929/290/20/
007110/20130315/131608/929/600/20/
007110/20130315/131617/929/500/20/
007110/20130315/131624/923/180/10/
007110/20130315/131703/928/90/20/
007110/20130315/131832/929/3000/20/
007110/20130315/131845/929/230/20/
007110/20130315/131845/930/270/20/
007110/20130315/131902/930/200/20/
007110/20130315/131917/930/100/20/
007110/20130315/132150/930/2510/20/
007110/20130315/132212/930/220/20/
007110/20130315/132212/931/780/20/
007110/20130315/132232/931/200/20/
007110/20130315/132240/931/100/20/
007110/20130315/132624/930/400/20/
007110/20130315/132624/931/610/20/
007110/20130315/133157/930/510/20/
007110/20130315/133408/926/250/10/
007110/20130315/133408/925/620/10/
007110/20130315/133435/925/200/20/
007110/20130315/133458/925/210/20/
007110/20130315/133505/925/1460/20/
007110/20130315/133505/925/2260/20/
007110/20130315/133536/924/1430/10/
007110/20130315/133536/923/120/10/
007110/20130315/133536/922/550/10/
007110/20130315/133536/921/870/10/
007110/20130315/133536/920/2070/10/
007110/20130315/133658/920/2070/10/
007110/20130315/133658/920/1940/20/
007110/20130315/133708/920/160/20/
007110/20130315/133709/920/510/20/
007110/20130315/133713/920/1000/20/
007110/20130315/133714/920/100/20/
007110/20130315/133714/920/100/20/
007110/20130315/133718/920/1000/20/
007110/20130315/133719/920/100/20/
007110/20130315/133725/920/1000/20/
007110/20130315/133727/920/140/20/
007110/20130315/133729/920/5000/20/
007110/20130315/133730/920/2000/20/
007110/20130315/133732/920/100/20/
007110/20130315/133733/920/100/20/
007110/20130315/133733/920/1000/20/
007110/20130315/133743/920/1000/20/
007110/20130315/133745/920/100/20/
007110/20130315/133755/920/160/20/
007110/20130315/133813/920/1650/20/
007110/20130315/133815/920/400/20/
007110/20130315/133818/920/4720/20/
007110/20130315/133822/920/100/20/
007110/20130315/133824/920/2040/20/
007110/20130315/133826/920/500/20/
007110/20130315/134338/921/160/10/
007110/20130315/134338/920/210/10/
007110/20130315/134441/922/100/20/
007110/20130315/134509/921/1000/10/
007110/20130315/134509/922/100/20/
007110/20130315/134517/923/100/20/
007110/20130315/134625/923/100/10/
007110/20130315/134723/923/100/10/
007110/20130315/134740/922/3000/10/
007110/20130315/134740/921/100/10/
007110/20130315/134740/920/2900/10/
007110/20130315/134843/921/100/10/
007110/20130315/134927/921/610/10/
007110/20130315/135001/920/380/10/
007110/20130315/135034/920/1630/10/
007110/20130315/135126/924/100/20/
007110/20130315/135553/924/500/20/
007110/20130315/135632/924/550/20/
007110/20130315/135632/925/1270/20/
007110/20130315/135632/926/1170/20/
007110/20130315/135632/927/1140/20/
007110/20130315/135632/928/3160/20/
007110/20130315/135647/928/720/10/
007110/20130315/140124/923/1000/10/
007110/20130315/140526/923/2000/10/
007110/20130315/141153/922/3060/10/
007110/20130315/141446/922/540/10/
007110/20130315/141628/922/1240/10/
007110/20130315/141628/921/3470/10/
007110/20130315/141631/921/1000/10/
007110/20130315/141958/921/1100/10/
007110/20130315/143040/923/110/10/
007110/20130315/143347/923/1600/10/
007110/20130315/143429/922/250/10/
007110/20130315/143446/921/1000/10/
007110/20130315/143536/921/700/10/
007110/20130315/143539/921/300/10/
007110/20130315/143823/921/90/20/
007110/20130315/143929/921/100/20/
007110/20130315/144009/920/90/10/
007110/20130315/144134/921/330/10/
007110/20130315/144248/921/550/10/
007110/20130315/144422/922/1000/10/
007110/20130315/144430/922/500/10/
007110/20130315/144453/922/1500/10/
007110/20130315/144504/922/500/10/
007110/20130315/144547/922/2030/10/
007110/20130315/144628/922/1450/10/
007110/20130315/144628/921/1160/10/
007110/20130315/144726/921/340/10/
007110/20130315/144726/920/15660/10/
007110/20130315/144756/920/3040/10/
007110/20130315/144916/922/1030/20/
007110/20130315/144916/923/980/20/
007110/20130315/150000/923/12390/20/
