007110/20130307/90000/943/230/10/
007110/20130307/90023/943/1500/10/
007110/20130307/90028/943/2350/10/
007110/20130307/90032/943/1100/20/
007110/20130307/90046/943/100/20/
007110/20130307/90133/943/110/20/
007110/20130307/90300/943/130/20/
007110/20130307/90412/943/210/20/
007110/20130307/90442/941/100/10/
007110/20130307/90501/940/2000/10/
007110/20130307/90515/940/140/10/
007110/20130307/90518/940/120/20/
007110/20130307/90522/940/180/10/
007110/20130307/90522/938/1150/10/
007110/20130307/90538/938/2120/10/
007110/20130307/90647/938/460/10/
007110/20130307/90647/937/230/10/
007110/20130307/90647/936/1790/10/
007110/20130307/90647/935/720/10/
007110/20130307/90720/943/540/20/
007110/20130307/90742/943/400/20/
007110/20130307/90840/942/100/10/
007110/20130307/90912/938/200/10/
007110/20130307/90912/937/800/10/
007110/20130307/91056/940/1080/10/
007110/20130307/91056/939/950/10/
007110/20130307/91300/940/940/20/
007110/20130307/91345/940/410/10/
007110/20130307/91421/939/1000/10/
007110/20130307/91459/939/200/10/
007110/20130307/91606/939/1600/10/
007110/20130307/91620/938/1700/10/
007110/20130307/91706/939/1150/20/
007110/20130307/91732/938/210/10/
007110/20130307/91732/937/520/10/
007110/20130307/91805/937/260/20/
007110/20130307/91849/936/1080/10/
007110/20130307/91852/936/850/10/
007110/20130307/91905/935/1070/10/
007110/20130307/91915/935/510/10/
007110/20130307/91927/935/1000/10/
007110/20130307/91943/935/1240/10/
007110/20130307/92001/935/1760/20/
007110/20130307/92033/934/1000/10/
007110/20130307/92135/936/100/20/
007110/20130307/92135/937/5900/20/
007110/20130307/92205/937/1650/20/
007110/20130307/92415/937/100/20/
007110/20130307/92436/937/2990/20/
007110/20130307/92515/937/1620/10/
007110/20130307/92640/937/530/10/
007110/20130307/92645/938/500/20/
007110/20130307/92659/938/500/20/
007110/20130307/92851/937/150/10/
007110/20130307/93050/937/1360/10/
007110/20130307/93137/936/940/10/
007110/20130307/93215/936/1960/10/
007110/20130307/93230/935/6900/10/
007110/20130307/93254/935/620/10/
007110/20130307/93306/934/9740/10/
007110/20130307/93423/934/90/20/
007110/20130307/93453/934/3680/20/
007110/20130307/93532/935/1000/10/
007110/20130307/93551/935/310/20/
007110/20130307/93559/935/240/10/
007110/20130307/93559/934/2760/10/
007110/20130307/93810/935/2000/10/
007110/20130307/93948/935/320/10/
007110/20130307/94023/934/3900/10/
007110/20130307/94023/933/6100/10/
007110/20130307/94057/936/2000/20/
007110/20130307/94057/936/3000/10/
007110/20130307/94203/937/270/20/
007110/20130307/94217/937/140/20/
007110/20130307/94621/935/200/10/
007110/20130307/94625/935/1000/20/
007110/20130307/94912/935/110/20/
007110/20130307/95042/934/120/10/
007110/20130307/95042/933/2230/10/
007110/20130307/95112/935/100/20/
007110/20130307/95200/935/800/20/
007110/20130307/95522/935/190/20/
007110/20130307/95547/934/120/10/
007110/20130307/95547/933/2580/10/
007110/20130307/95618/933/1000/10/
007110/20130307/95634/933/1730/10/
007110/20130307/95756/932/4800/10/
007110/20130307/100038/931/5370/10/
007110/20130307/100045/931/2500/10/
007110/20130307/100406/935/370/20/
007110/20130307/100456/937/3020/20/
007110/20130307/100653/937/130/20/
007110/20130307/101026/937/370/20/
007110/20130307/101051/936/3000/10/
007110/20130307/101120/937/200/20/
007110/20130307/101146/938/2200/20/
007110/20130307/101231/938/500/10/
007110/20130307/101247/938/3580/10/
007110/20130307/101247/936/3440/10/
007110/20130307/101304/936/2000/10/
007110/20130307/101305/936/1850/10/
007110/20130307/101525/936/2150/20/
007110/20130307/101838/936/610/20/
007110/20130307/102052/936/170/20/
007110/20130307/102109/936/100/20/
007110/20130307/102433/935/160/10/
007110/20130307/102603/936/620/20/
007110/20130307/102621/936/340/20/
007110/20130307/102814/937/2000/20/
007110/20130307/102821/937/1000/10/
007110/20130307/102842/936/300/10/
007110/20130307/102953/937/210/20/
007110/20130307/102959/937/500/20/
007110/20130307/103002/936/470/10/
007110/20130307/103250/936/1500/10/
007110/20130307/103358/936/430/10/
007110/20130307/103552/937/7120/20/
007110/20130307/103627/937/5010/10/
007110/20130307/104022/937/1620/10/
007110/20130307/104104/936/1630/10/
007110/20130307/104125/936/2380/20/
007110/20130307/104125/937/630/20/
007110/20130307/104221/935/3070/10/
007110/20130307/104440/936/660/20/
007110/20130307/104533/936/2310/20/
007110/20130307/104856/936/1030/20/
007110/20130307/104944/937/500/20/
007110/20130307/105120/937/4600/20/
007110/20130307/105139/938/6930/20/
007110/20130307/105139/939/7040/20/
007110/20130307/105200/940/3030/20/
007110/20130307/105203/940/400/10/
007110/20130307/105315/940/1670/20/
007110/20130307/105326/941/2740/20/
007110/20130307/105329/942/1880/20/
007110/20130307/105333/942/170/20/
007110/20130307/105333/943/250/20/
007110/20130307/105335/943/2100/20/
007110/20130307/105414/943/1460/10/
007110/20130307/105424/943/530/20/
007110/20130307/105514/944/140/20/
007110/20130307/105816/945/920/20/
007110/20130307/105816/946/1100/20/
007110/20130307/110158/943/100/20/
007110/20130307/110200/944/1300/20/
007110/20130307/110218/944/300/20/
007110/20130307/110246/944/500/20/
007110/20130307/110409/943/100/10/
007110/20130307/110807/944/100/20/
007110/20130307/110818/944/100/20/
007110/20130307/110819/944/240/20/
007110/20130307/110824/944/630/10/
007110/20130307/110828/945/100/20/
007110/20130307/110837/945/100/20/
007110/20130307/110845/945/100/20/
007110/20130307/110854/945/100/20/
007110/20130307/110919/945/100/20/
007110/20130307/110930/945/100/20/
007110/20130307/110956/941/510/10/
007110/20130307/111727/940/150/10/
007110/20130307/111808/940/390/20/
007110/20130307/111842/940/260/20/
007110/20130307/112129/944/510/20/
007110/20130307/112610/937/8200/10/
007110/20130307/112610/936/12010/10/
007110/20130307/112611/936/6070/20/
007110/20130307/113438/940/5020/10/
007110/20130307/113931/940/500/20/
007110/20130307/114511/940/120/20/
007110/20130307/114959/939/100/20/
007110/20130307/115012/940/1580/20/
007110/20130307/115029/940/560/10/
007110/20130307/115037/943/200/20/
007110/20130307/115041/943/1230/20/
007110/20130307/115100/943/110/20/
007110/20130307/115137/944/100/20/
007110/20130307/115422/940/500/10/
007110/20130307/115550/940/12090/10/
007110/20130307/120218/940/130/10/
007110/20130307/120615/940/190/10/
007110/20130307/121201/940/500/20/
007110/20130307/121240/940/1470/20/
007110/20130307/121710/940/350/10/
007110/20130307/122121/940/370/10/
007110/20130307/123153/938/100/10/
007110/20130307/123432/937/140/10/
007110/20130307/123432/936/2800/10/
007110/20130307/123432/935/1570/10/
007110/20130307/123500/935/1230/10/
007110/20130307/123500/940/100/20/
007110/20130307/123532/940/100/20/
007110/20130307/124005/940/150/20/
007110/20130307/125653/939/280/20/
007110/20130307/130236/939/100/20/
007110/20130307/130430/939/830/20/
007110/20130307/130809/938/500/10/
007110/20130307/130943/938/500/10/
007110/20130307/131230/938/160/10/
007110/20130307/131302/938/300/10/
007110/20130307/131303/938/2100/20/
007110/20130307/131303/939/1670/20/
007110/20130307/131303/940/1830/20/
007110/20130307/131354/940/900/10/
007110/20130307/131406/940/90/10/
007110/20130307/131414/940/90/10/
007110/20130307/131429/940/530/10/
007110/20130307/131443/940/90/10/
007110/20130307/131447/941/210/20/
007110/20130307/131524/941/260/20/
007110/20130307/131627/940/7970/10/
007110/20130307/131702/940/90/10/
007110/20130307/131722/940/90/10/
007110/20130307/131821/940/24440/10/
007110/20130307/131829/940/1000/10/
007110/20130307/131831/940/9150/10/
007110/20130307/133402/938/140/10/
007110/20130307/133506/937/1360/10/
007110/20130307/133517/937/7480/10/
007110/20130307/133521/937/1160/10/
007110/20130307/133607/936/1290/10/
007110/20130307/133614/936/10000/10/
007110/20130307/133627/937/120/20/
007110/20130307/133723/936/5740/10/
007110/20130307/133931/937/230/20/
007110/20130307/134024/936/140/10/
007110/20130307/134121/936/2130/10/
007110/20130307/134306/935/14990/10/
007110/20130307/134344/936/6730/20/
007110/20130307/134632/936/800/20/
007110/20130307/134714/936/600/10/
007110/20130307/134805/936/5000/10/
007110/20130307/134846/936/3640/10/
007110/20130307/135042/935/1690/10/
007110/20130307/135128/935/5000/10/
007110/20130307/135146/935/9000/10/
007110/20130307/135153/935/770/10/
007110/20130307/135246/935/130/10/
007110/20130307/135249/935/1310/10/
007110/20130307/135454/937/500/20/
007110/20130307/135721/936/100/10/
007110/20130307/135726/935/620/10/
007110/20130307/135902/935/14190/10/
007110/20130307/135913/935/820/20/
007110/20130307/140020/935/400/10/
007110/20130307/140020/934/600/10/
007110/20130307/140129/939/110/20/
007110/20130307/140434/935/350/10/
007110/20130307/140434/934/3700/10/
007110/20130307/140715/935/220/10/
007110/20130307/140715/934/4620/10/
007110/20130307/140859/934/15470/10/
007110/20130307/140923/934/110/20/
007110/20130307/140957/934/260/20/
007110/20130307/141005/934/500/20/
007110/20130307/141011/934/200/20/
007110/20130307/141035/934/100/20/
007110/20130307/141043/934/230/20/
007110/20130307/141049/934/100/20/
007110/20130307/141337/934/480/10/
007110/20130307/141337/933/9600/10/
007110/20130307/141350/933/440/10/
007110/20130307/141923/935/320/10/
007110/20130307/141941/935/800/10/
007110/20130307/142447/936/120/20/
007110/20130307/142510/936/300/20/
007110/20130307/142852/936/1010/10/
007110/20130307/142916/935/2000/10/
007110/20130307/142925/935/140/10/
007110/20130307/143001/935/590/10/
007110/20130307/143001/934/1910/10/
007110/20130307/143226/934/2010/10/
007110/20130307/143258/938/100/20/
007110/20130307/143932/937/540/20/
007110/20130307/143932/938/1470/20/
007110/20130307/144014/938/560/20/
007110/20130307/144037/939/100/20/
007110/20130307/144039/935/220/10/
007110/20130307/144039/934/780/10/
007110/20130307/144208/934/320/10/
007110/20130307/144434/935/500/10/
007110/20130307/144434/934/4570/10/
007110/20130307/144520/938/990/20/
007110/20130307/144528/938/1000/10/
007110/20130307/144753/935/110/10/
007110/20130307/144826/934/1200/10/
007110/20130307/144857/936/1300/10/
007110/20130307/144901/936/100/10/
007110/20130307/144904/936/110/10/
007110/20130307/150000/939/9670/20/
