007110/20121114/90000/791/26000/10/
007110/20121114/90002/800/700/20/
007110/20121114/90340/801/710/10/
007110/20121114/90416/801/310/20/
007110/20121114/90439/801/100/10/
007110/20121114/90455/801/220/20/
007110/20121114/90556/802/870/10/
007110/20121114/90602/802/140/20/
007110/20121114/90656/805/580/10/
007110/20121114/90757/802/2010/10/
007110/20121114/90817/802/1850/10/
007110/20121114/90849/802/180/20/
007110/20121114/90907/804/150/20/
007110/20121114/90921/804/350/10/
007110/20121114/90929/804/90/20/
007110/20121114/91128/805/1520/20/
007110/20121114/91209/805/550/10/
007110/20121114/91209/804/150/10/
007110/20121114/91209/802/930/10/
007110/20121114/91253/805/950/10/
007110/20121114/91316/807/400/20/
007110/20121114/91347/802/150/10/
007110/20121114/92013/804/1510/10/
007110/20121114/92537/803/3010/10/
007110/20121114/92613/802/2010/10/
007110/20121114/92829/802/540/10/
007110/20121114/92843/802/500/10/
007110/20121114/92926/802/860/10/
007110/20121114/93016/801/2000/10/
007110/20121114/93034/801/320/10/
007110/20121114/93052/800/2450/10/
007110/20121114/93144/800/600/20/
007110/20121114/93159/796/800/10/
007110/20121114/93159/795/200/10/
007110/20121114/93241/800/2980/10/
007110/20121114/93336/800/2890/10/
007110/20121114/93355/800/1130/10/
007110/20121114/93445/800/300/20/
007110/20121114/93504/797/2000/10/
007110/20121114/93559/797/810/10/
007110/20121114/93609/797/400/10/
007110/20121114/93718/797/650/10/
007110/20121114/93740/797/1000/10/
007110/20121114/93908/797/540/10/
007110/20121114/93924/797/940/10/
007110/20121114/93937/797/510/20/
007110/20121114/93947/796/1340/10/
007110/20121114/93947/794/1330/10/
007110/20121114/93948/797/100/20/
007110/20121114/94001/797/100/10/
007110/20121114/94006/797/1780/10/
007110/20121114/94017/797/1220/10/
007110/20121114/94058/798/500/20/
007110/20121114/94245/798/250/20/
007110/20121114/94256/797/2500/20/
007110/20121114/94259/796/150/10/
007110/20121114/94259/795/10070/10/
007110/20121114/94259/794/5780/10/
007110/20121114/94344/793/4000/10/
007110/20121114/94359/792/6660/10/
007110/20121114/94359/791/3340/10/
007110/20121114/94409/791/860/10/
007110/20121114/94409/790/19700/10/
007110/20121114/94420/790/1000/20/
007110/20121114/94433/790/3200/20/
007110/20121114/94529/794/860/20/
007110/20121114/94937/794/500/10/
007110/20121114/95116/792/1810/10/
007110/20121114/95132/791/3000/10/
007110/20121114/95201/791/4100/10/
007110/20121114/95232/791/1020/20/
007110/20121114/95303/791/980/20/
007110/20121114/95331/791/410/10/
007110/20121114/95406/791/110/10/
007110/20121114/95452/791/610/10/
007110/20121114/95504/790/1750/10/
007110/20121114/95509/790/730/10/
007110/20121114/95510/789/1460/10/
007110/20121114/95516/790/100/20/
007110/20121114/95536/788/4250/10/
007110/20121114/95726/789/750/10/
007110/20121114/95739/788/4000/10/
007110/20121114/95853/787/1450/10/
007110/20121114/95853/786/2430/10/
007110/20121114/95853/785/890/10/
007110/20121114/95910/787/840/10/
007110/20121114/95914/787/300/10/
007110/20121114/95936/787/700/10/
007110/20121114/95944/787/650/10/
007110/20121114/100042/787/850/20/
007110/20121114/100042/791/90/20/
007110/20121114/100042/792/1210/20/
007110/20121114/100042/798/750/20/
007110/20121114/100042/802/1450/20/
007110/20121114/100145/800/500/20/
007110/20121114/100145/802/1500/20/
007110/20121114/100209/802/3000/20/
007110/20121114/100709/799/900/20/
007110/20121114/101026/790/210/10/
007110/20121114/101047/790/4800/10/
007110/20121114/101047/790/1830/20/
007110/20121114/101530/792/130/10/
007110/20121114/101530/790/450/10/
007110/20121114/101530/788/1300/10/
007110/20121114/101530/787/1290/10/
007110/20121114/101530/786/3540/10/
007110/20121114/101530/785/2910/10/
007110/20121114/101530/784/1530/10/
007110/20121114/101530/783/1190/10/
007110/20121114/101530/782/2130/10/
007110/20121114/101530/781/8530/10/
007110/20121114/101708/795/100/20/
007110/20121114/101818/797/1520/20/
007110/20121114/102120/785/1100/10/
007110/20121114/102120/783/1580/10/
007110/20121114/102120/782/1310/10/
007110/20121114/102120/781/680/10/
007110/20121114/102127/781/4200/10/
007110/20121114/102127/780/5800/10/
007110/20121114/102546/792/90/20/
007110/20121114/102857/786/290/10/
007110/20121114/103025/786/2100/10/
007110/20121114/103045/786/6700/10/
007110/20121114/103057/786/500/10/
007110/20121114/103123/786/700/10/
007110/20121114/103150/787/200/10/
007110/20121114/103247/785/2580/10/
007110/20121114/104117/787/3080/10/
007110/20121114/104153/786/550/10/
007110/20121114/104233/786/1400/10/
007110/20121114/104255/785/4120/10/
007110/20121114/104454/784/1010/10/
007110/20121114/104655/785/1000/10/
007110/20121114/104711/785/500/20/
007110/20121114/105207/790/110/20/
007110/20121114/105518/790/3320/20/
007110/20121114/110329/791/160/10/
007110/20121114/111516/790/2460/10/
007110/20121114/111516/789/7590/10/
007110/20121114/111617/789/2410/10/
007110/20121114/111646/788/200/10/
007110/20121114/111700/788/250/20/
007110/20121114/111810/789/590/20/
007110/20121114/111944/789/430/10/
007110/20121114/111944/788/370/10/
007110/20121114/111948/788/630/20/
007110/20121114/111948/787/2040/20/
007110/20121114/111949/787/420/20/
007110/20121114/112559/791/100/20/
007110/20121114/112930/787/1110/10/
007110/20121114/112930/786/2560/10/
007110/20121114/112930/785/960/10/
007110/20121114/113249/785/5000/10/
007110/20121114/113558/786/500/20/
007110/20121114/113606/786/500/20/
007110/20121114/114009/786/100/10/
007110/20121114/114404/786/470/10/
007110/20121114/114447/786/340/10/
007110/20121114/114503/786/4400/10/
007110/20121114/114514/786/2740/20/
007110/20121114/114626/786/13660/10/
007110/20121114/114626/785/15700/10/
007110/20121114/114626/784/990/10/
007110/20121114/114626/783/12390/10/
007110/20121114/114626/782/20050/10/
007110/20121114/114626/781/19930/10/
007110/20121114/114626/780/18180/10/
007110/20121114/114647/780/1000/10/
007110/20121114/114909/781/2730/10/
007110/20121114/115032/785/350/20/
007110/20121114/115053/785/1260/20/
007110/20121114/115209/782/90/10/
007110/20121114/115834/785/190/20/
007110/20121114/115841/785/500/20/
007110/20121114/115909/785/200/20/
007110/20121114/120254/785/100/20/
007110/20121114/120330/785/200/20/
007110/20121114/120356/785/500/20/
007110/20121114/120639/784/290/10/
007110/20121114/120639/785/240/20/
007110/20121114/120855/787/2840/20/
007110/20121114/120950/788/650/20/
007110/20121114/121003/790/120/20/
007110/20121114/121029/790/570/20/
007110/20121114/122042/788/510/20/
007110/20121114/122054/789/1500/20/
007110/20121114/122128/789/990/20/
007110/20121114/122301/790/310/20/
007110/20121114/122433/790/1930/10/
007110/20121114/122904/790/100/10/
007110/20121114/122913/791/300/20/
007110/20121114/123225/791/180/20/
007110/20121114/123443/790/330/10/
007110/20121114/123516/790/100/10/
007110/20121114/123630/790/110/10/
007110/20121114/123727/790/3690/10/
007110/20121114/123915/791/290/20/
007110/20121114/124257/790/2010/10/
007110/20121114/124432/790/1000/10/
007110/20121114/124911/790/2000/10/
007110/20121114/125523/791/150/20/
007110/20121114/125726/791/800/20/
007110/20121114/130503/792/90/20/
007110/20121114/130724/792/130/20/
007110/20121114/131130/791/560/10/
007110/20121114/131154/791/540/10/
007110/20121114/131155/791/100/20/
007110/20121114/131324/790/10000/10/
007110/20121114/131426/791/2360/20/
007110/20121114/131426/792/2140/20/
007110/20121114/131648/791/100/20/
007110/20121114/131714/790/1870/10/
007110/20121114/131949/790/100/20/
007110/20121114/132313/789/590/10/
007110/20121114/132313/788/1120/10/
007110/20121114/132313/787/8290/10/
007110/20121114/132352/787/1170/10/
007110/20121114/132352/786/5430/10/
007110/20121114/132352/785/1400/10/
007110/20121114/133144/789/130/20/
007110/20121114/133201/790/90/20/
007110/20121114/133500/789/810/20/
007110/20121114/133500/790/5030/20/
007110/20121114/133502/790/160/10/
007110/20121114/133635/791/160/20/
007110/20121114/133714/791/1000/20/
007110/20121114/134442/791/1770/20/
007110/20121114/135222/790/140/10/
007110/20121114/135618/788/740/10/
007110/20121114/135649/786/110/10/
007110/20121114/140059/789/300/10/
007110/20121114/140113/786/1000/10/
007110/20121114/140510/789/200/20/
007110/20121114/140814/788/570/10/
007110/20121114/140851/787/2040/10/
007110/20121114/141343/787/540/10/
007110/20121114/141343/786/1780/10/
007110/20121114/141413/786/3420/10/
007110/20121114/141620/786/210/10/
007110/20121114/141620/785/3240/10/
007110/20121114/141650/785/20000/10/
007110/20121114/141824/785/5010/10/
007110/20121114/142042/789/120/20/
007110/20121114/142145/786/150/10/
007110/20121114/142145/785/4850/10/
007110/20121114/142233/786/1000/10/
007110/20121114/142328/788/100/20/
007110/20121114/142432/786/140/10/
007110/20121114/142633/786/1600/10/
007110/20121114/142636/786/3800/10/
007110/20121114/142732/785/850/10/
007110/20121114/142802/785/90/10/
007110/20121114/142850/784/2000/10/
007110/20121114/142934/784/470/10/
007110/20121114/143343/784/520/10/
007110/20121114/143409/784/2320/10/
007110/20121114/143413/784/600/20/
007110/20121114/143426/784/1690/20/
007110/20121114/143523/785/300/20/
007110/20121114/143528/785/1000/20/
007110/20121114/143543/784/130/10/
007110/20121114/143557/785/3760/20/
007110/20121114/143724/785/6000/10/
007110/20121114/144303/788/640/20/
007110/20121114/144303/789/2470/20/
007110/20121114/144303/790/7300/20/
007110/20121114/144314/790/2790/10/
007110/20121114/144314/790/6810/10/
007110/20121114/144412/790/1270/20/
007110/20121114/144417/790/3730/10/
007110/20121114/144656/789/510/20/
007110/20121114/144656/790/3490/20/
007110/20121114/144818/785/300/10/
007110/20121114/144838/785/1810/10/
007110/20121114/144838/784/2170/10/
007110/20121114/144838/783/6020/10/
007110/20121114/144849/783/660/10/
007110/20121114/144849/782/5790/10/
007110/20121114/144849/781/3550/10/
007110/20121114/144916/781/2020/10/
007110/20121114/144941/781/2010/10/
007110/20121114/150000/780/38300/10/
