007110/20130326/90000/865/2500/20/
007110/20130326/90053/863/510/10/
007110/20130326/90212/861/2030/10/
007110/20130326/90212/860/980/10/
007110/20130326/90222/860/400/10/
007110/20130326/90227/863/320/20/
007110/20130326/90300/863/3480/20/
007110/20130326/90301/863/1000/10/
007110/20130326/90322/864/4000/20/
007110/20130326/90329/864/270/10/
007110/20130326/90332/864/500/10/
007110/20130326/90337/865/3100/20/
007110/20130326/90355/865/880/20/
007110/20130326/90421/864/1110/10/
007110/20130326/90508/866/340/20/
007110/20130326/90602/866/220/20/
007110/20130326/90614/867/2010/20/
007110/20130326/90638/867/820/20/
007110/20130326/90646/867/100/20/
007110/20130326/90648/867/190/20/
007110/20130326/90712/867/420/10/
007110/20130326/90719/867/150/20/
007110/20130326/90727/868/2760/20/
007110/20130326/90741/869/2010/20/
007110/20130326/90807/868/430/10/
007110/20130326/90808/868/200/20/
007110/20130326/90822/868/420/20/
007110/20130326/90831/868/410/10/
007110/20130326/90839/868/300/20/
007110/20130326/90844/868/290/20/
007110/20130326/90907/868/720/10/
007110/20130326/90908/868/100/20/
007110/20130326/90922/868/1000/20/
007110/20130326/91012/868/680/20/
007110/20130326/91017/869/2320/20/
007110/20130326/91023/870/6460/20/
007110/20130326/91028/871/2210/20/
007110/20130326/91100/871/410/20/
007110/20130326/91104/872/990/20/
007110/20130326/91121/872/220/20/
007110/20130326/91126/873/2820/20/
007110/20130326/91129/872/510/10/
007110/20130326/91130/872/1240/20/
007110/20130326/91134/872/120/20/
007110/20130326/91135/872/140/20/
007110/20130326/91140/874/1230/20/
007110/20130326/91144/875/1230/20/
007110/20130326/91152/875/510/20/
007110/20130326/91158/876/800/20/
007110/20130326/91159/876/100/10/
007110/20130326/91205/876/3400/20/
007110/20130326/91210/874/2000/20/
007110/20130326/91223/875/500/20/
007110/20130326/91231/875/1740/20/
007110/20130326/91235/876/4750/20/
007110/20130326/91242/877/2000/20/
007110/20130326/91247/876/2010/10/
007110/20130326/91253/878/3370/20/
007110/20130326/91254/877/3000/20/
007110/20130326/91305/878/510/20/
007110/20130326/91315/878/2000/20/
007110/20130326/91315/879/200/20/
007110/20130326/91316/879/1190/20/
007110/20130326/91321/879/3010/20/
007110/20130326/91321/880/2000/20/
007110/20130326/91323/880/2530/20/
007110/20130326/91325/881/90/20/
007110/20130326/91327/880/600/10/
007110/20130326/91329/880/2700/10/
007110/20130326/91331/881/1240/20/
007110/20130326/91334/881/3010/10/
007110/20130326/91334/880/2000/10/
007110/20130326/91336/881/500/10/
007110/20130326/91341/882/2010/20/
007110/20130326/91346/883/2020/20/
007110/20130326/91346/883/1510/20/
007110/20130326/91350/883/560/10/
007110/20130326/91350/883/100/10/
007110/20130326/91350/884/1510/20/
007110/20130326/91350/885/930/20/
007110/20130326/91352/886/2010/20/
007110/20130326/91353/885/2010/10/
007110/20130326/91358/885/90/10/
007110/20130326/91401/885/480/10/
007110/20130326/91405/885/500/20/
007110/20130326/91413/884/400/20/
007110/20130326/91417/884/2760/20/
007110/20130326/91417/885/4190/20/
007110/20130326/91417/886/2640/20/
007110/20130326/91422/884/390/20/
007110/20130326/91429/884/110/20/
007110/20130326/91452/883/100/10/
007110/20130326/91516/883/470/10/
007110/20130326/91516/883/100/20/
007110/20130326/91516/884/2230/20/
007110/20130326/91517/885/1430/20/
007110/20130326/91517/884/670/10/
007110/20130326/91517/882/450/10/
007110/20130326/91517/881/3870/10/
007110/20130326/91610/884/180/20/
007110/20130326/91615/884/640/20/
007110/20130326/91616/884/1000/10/
007110/20130326/91617/881/3690/10/
007110/20130326/91617/880/2920/10/
007110/20130326/91619/884/660/20/
007110/20130326/91619/885/3890/20/
007110/20130326/91623/885/100/10/
007110/20130326/91623/885/440/10/
007110/20130326/91635/884/110/10/
007110/20130326/91643/884/450/20/
007110/20130326/91701/883/2050/10/
007110/20130326/91709/883/790/10/
007110/20130326/91735/884/470/20/
007110/20130326/91746/883/390/10/
007110/20130326/91749/884/330/20/
007110/20130326/91752/883/3000/10/
007110/20130326/91756/883/100/10/
007110/20130326/91802/883/500/10/
007110/20130326/91807/883/700/20/
007110/20130326/91811/883/3000/10/
007110/20130326/91828/883/1010/10/
007110/20130326/91843/882/200/10/
007110/20130326/91854/882/1870/10/
007110/20130326/91903/881/170/10/
007110/20130326/91924/880/10030/10/
007110/20130326/91929/880/960/10/
007110/20130326/91933/880/610/10/
007110/20130326/91934/880/100/10/
007110/20130326/91934/880/9000/10/
007110/20130326/91938/880/2580/10/
007110/20130326/91941/880/1590/10/
007110/20130326/91941/877/90/10/
007110/20130326/91941/873/1690/10/
007110/20130326/91941/872/1630/10/
007110/20130326/91959/881/210/20/
007110/20130326/91959/882/1230/20/
007110/20130326/91959/883/570/20/
007110/20130326/92103/882/200/20/
007110/20130326/92122/882/420/20/
007110/20130326/92305/881/120/20/
007110/20130326/92327/880/100/10/
007110/20130326/92331/880/200/10/
007110/20130326/92338/880/1210/10/
007110/20130326/92349/876/1100/10/
007110/20130326/92500/879/150/10/
007110/20130326/92525/880/510/20/
007110/20130326/92628/879/2030/10/
007110/20130326/92646/879/720/10/
007110/20130326/92740/879/1490/10/
007110/20130326/92807/879/1190/10/
007110/20130326/92820/879/320/20/
007110/20130326/92842/879/2740/10/
007110/20130326/92842/878/1030/10/
007110/20130326/93020/878/1000/10/
007110/20130326/93105/878/340/20/
007110/20130326/93409/878/1010/20/
007110/20130326/93450/879/90/20/
007110/20130326/93548/880/2200/20/
007110/20130326/93628/880/360/10/
007110/20130326/93741/880/440/10/
007110/20130326/93756/880/1000/20/
007110/20130326/93907/879/220/20/
007110/20130326/94228/880/240/20/
007110/20130326/94246/880/1560/20/
007110/20130326/94246/881/2090/20/
007110/20130326/94246/882/2930/20/
007110/20130326/94246/883/1500/20/
007110/20130326/94246/884/1000/20/
007110/20130326/94316/884/1620/20/
007110/20130326/94319/884/100/10/
007110/20130326/94328/885/1260/20/
007110/20130326/94352/884/180/10/
007110/20130326/94417/885/110/20/
007110/20130326/94425/885/110/20/
007110/20130326/94452/884/300/10/
007110/20130326/94633/884/310/20/
007110/20130326/94701/880/1210/10/
007110/20130326/94825/879/350/10/
007110/20130326/95126/883/1210/20/
007110/20130326/95225/882/370/20/
007110/20130326/95225/883/2420/20/
007110/20130326/95402/882/210/20/
007110/20130326/95432/882/290/10/
007110/20130326/95815/882/310/20/
007110/20130326/100039/882/5630/20/
007110/20130326/100048/882/370/10/
007110/20130326/100245/882/4000/20/
007110/20130326/100321/882/150/20/
007110/20130326/100437/881/870/10/
007110/20130326/100458/881/1130/10/
007110/20130326/100458/880/380/10/
007110/20130326/100547/880/920/10/
007110/20130326/100635/879/710/10/
007110/20130326/100911/880/90/20/
007110/20130326/101131/879/100/10/
007110/20130326/101139/878/180/10/
007110/20130326/101218/878/570/20/
007110/20130326/101232/877/140/10/
007110/20130326/101255/876/550/10/
007110/20130326/101321/876/150/20/
007110/20130326/101417/877/270/20/
007110/20130326/101417/878/740/20/
007110/20130326/101620/878/610/20/
007110/20130326/101620/880/450/20/
007110/20130326/101717/880/2510/10/
007110/20130326/101725/880/200/10/
007110/20130326/101805/880/240/10/
007110/20130326/101939/875/110/10/
007110/20130326/102638/878/120/10/
007110/20130326/102704/877/120/10/
007110/20130326/102704/876/420/10/
007110/20130326/102704/875/2420/10/
007110/20130326/102704/874/220/10/
007110/20130326/102704/873/720/10/
007110/20130326/102704/872/100/10/
007110/20130326/102743/872/1140/10/
007110/20130326/103254/876/500/10/
007110/20130326/103600/876/2300/10/
007110/20130326/103600/875/5400/10/
007110/20130326/103718/876/3200/10/
007110/20130326/103730/876/800/20/
007110/20130326/103843/876/1560/10/
007110/20130326/103953/876/320/10/
007110/20130326/104046/876/620/10/
007110/20130326/104519/878/3040/20/
007110/20130326/104642/877/330/10/
007110/20130326/104647/877/5510/10/
007110/20130326/104716/877/1490/20/
007110/20130326/104740/877/510/10/
007110/20130326/104824/878/100/10/
007110/20130326/105818/878/90/20/
007110/20130326/110025/878/1960/10/
007110/20130326/110028/878/9060/10/
007110/20130326/110057/878/950/20/
007110/20130326/110057/879/1170/20/
007110/20130326/110223/877/1140/10/
007110/20130326/110231/877/1860/10/
007110/20130326/110244/877/640/20/
007110/20130326/110244/879/360/20/
007110/20130326/111021/877/100/10/
007110/20130326/111123/876/500/10/
007110/20130326/111214/876/210/10/
007110/20130326/111216/876/5150/10/
007110/20130326/111513/876/200/20/
007110/20130326/111533/877/3990/10/
007110/20130326/111542/877/870/10/
007110/20130326/111700/875/100/20/
007110/20130326/111724/875/580/10/
007110/20130326/111726/875/960/10/
007110/20130326/111819/875/520/10/
007110/20130326/111929/875/1050/10/
007110/20130326/112212/876/120/10/
007110/20130326/112638/874/90/10/
007110/20130326/113218/874/430/10/
007110/20130326/113242/874/9370/10/
007110/20130326/113253/874/6000/20/
007110/20130326/113324/874/140/20/
007110/20130326/113706/876/500/10/
007110/20130326/113725/876/450/10/
007110/20130326/113823/876/730/10/
007110/20130326/114127/876/500/20/
007110/20130326/114519/876/1640/10/
007110/20130326/115022/874/1070/10/
007110/20130326/115131/874/320/10/
007110/20130326/115914/875/420/20/
007110/20130326/120038/875/170/20/
007110/20130326/120050/875/460/20/
007110/20130326/120059/875/540/10/
007110/20130326/120059/874/3460/10/
007110/20130326/120214/875/470/10/
007110/20130326/120234/875/1290/10/
007110/20130326/120530/875/270/10/
007110/20130326/120834/874/420/10/
007110/20130326/120933/874/440/10/
007110/20130326/120957/874/1000/10/
007110/20130326/121012/874/500/10/
007110/20130326/121035/874/340/10/
007110/20130326/121130/874/230/10/
007110/20130326/121227/874/660/10/
007110/20130326/121829/874/1000/10/
007110/20130326/122031/873/170/10/
007110/20130326/122133/875/860/20/
007110/20130326/122139/876/20650/20/
007110/20130326/122146/873/200/10/
007110/20130326/122232/874/3000/10/
007110/20130326/122521/874/730/10/
007110/20130326/124617/874/1800/10/
007110/20130326/124926/874/240/10/
007110/20130326/124948/874/1000/10/
007110/20130326/125229/874/870/10/
007110/20130326/125407/874/680/20/
007110/20130326/125423/874/200/10/
007110/20130326/125431/874/230/10/
007110/20130326/125538/876/160/20/
007110/20130326/130058/875/160/20/
007110/20130326/130127/874/1970/10/
007110/20130326/130235/873/1060/10/
007110/20130326/130302/873/1880/10/
007110/20130326/130330/874/2000/20/
007110/20130326/130437/874/880/20/
007110/20130326/131011/876/110/20/
007110/20130326/132049/876/1000/20/
007110/20130326/132453/875/700/20/
007110/20130326/132530/875/9310/10/
007110/20130326/134146/874/1790/10/
007110/20130326/134914/874/820/10/
007110/20130326/135106/876/720/20/
007110/20130326/135116/875/100/10/
007110/20130326/135212/874/470/10/
007110/20130326/135409/874/560/10/
007110/20130326/135801/875/200/10/
007110/20130326/140035/874/1110/10/
007110/20130326/140412/874/580/10/
007110/20130326/140506/873/360/10/
007110/20130326/140644/875/110/20/
007110/20130326/140714/873/2000/10/
007110/20130326/140810/873/580/10/
007110/20130326/140839/873/1000/10/
007110/20130326/140939/873/3000/10/
007110/20130326/141312/873/100/10/
007110/20130326/141413/873/650/10/
007110/20130326/141515/873/290/10/
007110/20130326/141559/874/490/20/
007110/20130326/141619/874/2050/10/
007110/20130326/141717/874/460/10/
007110/20130326/141726/874/2580/20/
007110/20130326/141759/875/200/20/
007110/20130326/141841/874/1970/10/
007110/20130326/141946/873/2050/10/
007110/20130326/142003/872/3050/10/
007110/20130326/142401/874/600/20/
007110/20130326/142517/874/150/10/
007110/20130326/143121/874/100/10/
007110/20130326/143518/873/810/10/
007110/20130326/143605/873/300/10/
007110/20130326/143809/874/190/10/
007110/20130326/143852/874/100/10/
007110/20130326/144019/874/160/20/
007110/20130326/144304/874/840/20/
007110/20130326/144454/875/6280/20/
007110/20130326/144556/875/100/10/
007110/20130326/144836/877/1630/20/
007110/20130326/144916/877/2500/20/
007110/20130326/144927/877/2000/20/
007110/20130326/144927/877/1710/20/
007110/20130326/150000/877/9180/20/
