015020/20130214/90001/568/30680/10/
015020/20130214/90019/572/370/10/
015020/20130214/90039/577/610/20/
015020/20130214/90039/581/4400/20/
015020/20130214/90121/571/170/10/
015020/20130214/90153/570/2340/10/
015020/20130214/90357/571/260/10/
015020/20130214/90357/570/750/10/
015020/20130214/90614/571/610/10/
015020/20130214/90727/572/1040/10/
015020/20130214/90739/572/1000/10/
015020/20130214/90748/572/130/10/
015020/20130214/90857/573/940/20/
015020/20130214/90857/576/90/20/
015020/20130214/90909/577/130/20/
015020/20130214/90919/577/100/20/
015020/20130214/90926/577/610/20/
015020/20130214/91819/576/920/10/
015020/20130214/92023/573/2930/10/
015020/20130214/92105/573/940/10/
015020/20130214/92220/573/470/20/
015020/20130214/92223/573/500/20/
015020/20130214/92600/575/1070/20/
015020/20130214/92801/576/3030/20/
015020/20130214/92806/573/2200/10/
015020/20130214/92821/576/2340/20/
015020/20130214/93019/576/280/10/
015020/20130214/93131/575/330/10/
015020/20130214/93131/574/290/10/
015020/20130214/93418/577/1020/20/
015020/20130214/93444/577/7140/20/
015020/20130214/93451/577/180/20/
015020/20130214/93457/577/150/20/
015020/20130214/93538/576/7500/10/
015020/20130214/93600/576/400/10/
015020/20130214/93803/575/180/10/
015020/20130214/93803/574/1860/10/
015020/20130214/93803/573/11410/10/
015020/20130214/93803/572/1550/10/
015020/20130214/94255/572/1480/10/
015020/20130214/94355/572/2170/10/
015020/20130214/94411/572/1000/10/
015020/20130214/94413/572/2000/10/
015020/20130214/94629/574/1940/20/
015020/20130214/94651/574/100/20/
015020/20130214/95633/574/110/20/
015020/20130214/95658/574/100/20/
015020/20130214/95727/572/2900/10/
015020/20130214/95736/572/100/20/
015020/20130214/95811/572/900/10/
015020/20130214/95850/573/1000/20/
015020/20130214/101054/572/150/10/
015020/20130214/101710/572/900/10/
015020/20130214/101844/572/8700/10/
015020/20130214/101937/573/300/20/
015020/20130214/102028/572/8700/10/
015020/20130214/102110/573/300/10/
015020/20130214/102126/572/1100/10/
015020/20130214/102418/572/3580/10/
015020/20130214/102418/571/14270/10/
015020/20130214/102445/571/120/10/
015020/20130214/102905/571/2810/10/
015020/20130214/102905/570/4390/10/
015020/20130214/102959/570/1530/10/
015020/20130214/103021/570/3170/10/
015020/20130214/103028/572/430/20/
015020/20130214/103250/571/100/10/
015020/20130214/103250/570/3700/10/
015020/20130214/103813/572/240/20/
015020/20130214/103822/570/9230/10/
015020/20130214/103943/569/1000/10/
015020/20130214/103943/568/2200/10/
015020/20130214/103955/567/1500/10/
015020/20130214/104008/567/700/20/
015020/20130214/104156/567/2070/10/
015020/20130214/104227/567/1530/10/
015020/20130214/104227/565/2300/10/
015020/20130214/104229/565/300/20/
015020/20130214/104247/565/500/20/
015020/20130214/104249/565/200/20/
015020/20130214/104252/565/2940/20/
015020/20130214/105103/567/120/10/
015020/20130214/105200/567/500/10/
015020/20130214/105237/567/710/10/
015020/20130214/105340/568/3050/20/
015020/20130214/105418/568/6010/10/
015020/20130214/105506/568/100/10/
015020/20130214/105520/568/1000/10/
015020/20130214/105948/569/520/10/
015020/20130214/110106/570/100/10/
015020/20130214/110112/570/2240/10/
015020/20130214/110218/569/1500/10/
015020/20130214/110534/568/4400/10/
015020/20130214/110718/568/2000/10/
015020/20130214/111002/570/400/20/
015020/20130214/111022/570/860/20/
015020/20130214/111105/570/140/10/
015020/20130214/111411/569/490/10/
015020/20130214/111443/569/1500/10/
015020/20130214/111542/569/100/10/
015020/20130214/111739/570/500/20/
015020/20130214/111747/570/500/20/
015020/20130214/111801/570/400/20/
015020/20130214/112417/571/2240/20/
015020/20130214/112500/572/100/20/
015020/20130214/112559/572/100/20/
015020/20130214/112602/572/1000/20/
015020/20130214/112633/572/1000/20/
015020/20130214/112640/572/100/20/
015020/20130214/112900/572/150/10/
015020/20130214/112900/571/2780/10/
015020/20130214/112900/569/3630/10/
015020/20130214/112900/568/11250/10/
015020/20130214/112900/567/7830/10/
015020/20130214/113852/568/110/10/
015020/20130214/113904/567/3150/10/
015020/20130214/113925/566/4450/10/
015020/20130214/114340/566/3100/10/
015020/20130214/115501/570/520/20/
015020/20130214/115514/570/90/20/
015020/20130214/115547/571/260/20/
015020/20130214/115819/571/2560/10/
015020/20130214/115835/571/700/10/
015020/20130214/115901/571/840/10/
015020/20130214/120005/571/660/20/
015020/20130214/120351/571/140/10/
015020/20130214/120854/571/1000/10/
015020/20130214/121232/572/210/20/
015020/20130214/121421/572/1150/20/
015020/20130214/123435/570/120/20/
015020/20130214/123453/571/290/10/
015020/20130214/123805/569/980/10/
015020/20130214/124127/569/1510/10/
015020/20130214/124131/569/580/10/
015020/20130214/124626/570/4080/20/
015020/20130214/124705/570/700/20/
015020/20130214/124938/569/3770/10/
015020/20130214/124938/568/2510/10/
015020/20130214/124938/567/2010/10/
015020/20130214/124938/566/1530/10/
015020/20130214/124938/565/3190/10/
015020/20130214/124943/566/400/10/
015020/20130214/124943/565/9600/10/
015020/20130214/124945/565/700/10/
015020/20130214/125126/568/1010/10/
015020/20130214/125150/565/660/10/
015020/20130214/130141/566/520/10/
015020/20130214/130308/569/530/20/
015020/20130214/130451/569/150/20/
015020/20130214/130520/569/120/20/
015020/20130214/130627/568/360/10/
015020/20130214/130643/568/210/10/
015020/20130214/130859/569/160/20/
015020/20130214/131025/570/100/20/
015020/20130214/131408/570/9050/20/
015020/20130214/131431/571/200/20/
015020/20130214/131630/572/570/20/
015020/20130214/131920/570/2800/10/
015020/20130214/131936/573/400/20/
015020/20130214/132149/570/100/10/
015020/20130214/132930/570/120/10/
015020/20130214/132930/568/630/10/
015020/20130214/132930/566/2120/10/
015020/20130214/132930/565/12130/10/
015020/20130214/133734/571/120/20/
015020/20130214/134245/571/120/20/
015020/20130214/134247/571/100/20/
015020/20130214/134249/571/100/20/
015020/20130214/134355/571/500/20/
015020/20130214/134602/571/1080/20/
015020/20130214/134602/572/500/20/
015020/20130214/134603/572/8430/10/
015020/20130214/134923/573/7030/20/
015020/20130214/135301/572/100/20/
015020/20130214/140426/570/420/20/
015020/20130214/140640/568/1910/10/
015020/20130214/140926/569/390/10/
015020/20130214/141416/568/320/10/
015020/20130214/141651/569/1420/20/
015020/20130214/141833/568/1460/10/
015020/20130214/141851/568/500/20/
015020/20130214/141924/568/500/10/
015020/20130214/141924/567/750/10/
015020/20130214/142231/568/1000/10/
015020/20130214/142518/568/90/10/
015020/20130214/142654/569/440/10/
015020/20130214/142746/570/2000/20/
015020/20130214/143653/570/1180/20/
015020/20130214/143938/570/370/20/
015020/20130214/144057/571/100/20/
015020/20130214/144152/571/100/20/
015020/20130214/144208/571/200/20/
015020/20130214/144226/571/500/20/
015020/20130214/144319/571/380/20/
015020/20130214/144330/571/1000/20/
015020/20130214/144358/571/100/20/
015020/20130214/144412/571/100/20/
015020/20130214/144458/571/1120/20/
015020/20130214/144553/570/110/20/
015020/20130214/144731/570/90/20/
015020/20130214/144744/570/100/20/
015020/20130214/144820/570/100/20/
015020/20130214/144845/568/1180/10/
015020/20130214/150000/569/5760/10/
