015020/20130307/90000/579/420/20/
015020/20130307/90002/570/2000/10/
015020/20130307/90030/570/1000/10/
015020/20130307/90037/570/100/10/
015020/20130307/90045/562/120/10/
015020/20130307/90045/560/490/10/
015020/20130307/90114/560/340/10/
015020/20130307/90116/560/550/10/
015020/20130307/90139/567/3680/20/
015020/20130307/90142/567/1320/10/
015020/20130307/90154/562/1000/10/
015020/20130307/90154/561/650/10/
015020/20130307/90155/567/300/20/
015020/20130307/90238/563/170/10/
015020/20130307/90242/566/300/20/
015020/20130307/90242/563/1370/10/
015020/20130307/90305/563/830/10/
015020/20130307/90410/566/340/20/
015020/20130307/90431/567/4190/20/
015020/20130307/90530/575/300/20/
015020/20130307/90554/575/900/20/
015020/20130307/90625/575/10070/20/
015020/20130307/90637/570/300/20/
015020/20130307/90649/570/100/20/
015020/20130307/90650/570/200/20/
015020/20130307/90657/570/400/20/
015020/20130307/90707/569/960/10/
015020/20130307/90742/569/1160/10/
015020/20130307/90742/569/6930/20/
015020/20130307/90750/568/4830/10/
015020/20130307/90806/568/170/20/
015020/20130307/90847/575/250/20/
015020/20130307/90847/577/160/20/
015020/20130307/90929/576/360/20/
015020/20130307/90946/570/140/10/
015020/20130307/91016/570/820/10/
015020/20130307/91121/570/4810/10/
015020/20130307/91124/570/920/10/
015020/20130307/91139/570/3000/10/
015020/20130307/91202/572/110/20/
015020/20130307/91216/571/560/10/
015020/20130307/91216/570/3300/10/
015020/20130307/91338/570/1000/10/
015020/20130307/91339/570/2680/10/
015020/20130307/91354/568/2610/10/
015020/20130307/91410/567/1000/10/
015020/20130307/91522/567/590/20/
015020/20130307/91522/566/1440/10/
015020/20130307/91548/566/200/10/
015020/20130307/91552/566/2340/10/
015020/20130307/91553/566/1020/10/
015020/20130307/91558/566/1000/20/
015020/20130307/91558/566/6980/20/
015020/20130307/91619/566/110/10/
015020/20130307/91620/566/100/10/
015020/20130307/91629/566/3430/10/
015020/20130307/91648/566/530/10/
015020/20130307/91720/567/90/20/
015020/20130307/91741/567/260/20/
015020/20130307/91847/566/970/10/
015020/20130307/91850/566/290/10/
015020/20130307/91907/565/5000/10/
015020/20130307/91925/565/320/10/
015020/20130307/91950/565/1000/10/
015020/20130307/91954/566/710/20/
015020/20130307/92248/566/170/10/
015020/20130307/92248/565/1040/10/
015020/20130307/92300/565/2890/10/
015020/20130307/92312/565/3500/10/
015020/20130307/92316/565/1330/10/
015020/20130307/92423/565/870/10/
015020/20130307/92642/565/2070/10/
015020/20130307/92838/565/90/10/
015020/20130307/92838/564/1910/10/
015020/20130307/92840/564/1820/10/
015020/20130307/92840/563/1740/10/
015020/20130307/93402/563/2510/10/
015020/20130307/93402/562/6930/10/
015020/20130307/93402/561/2550/10/
015020/20130307/93430/560/2050/10/
015020/20130307/93504/561/500/10/
015020/20130307/93517/560/3430/10/
015020/20130307/93657/560/4380/10/
015020/20130307/93711/560/160/20/
015020/20130307/93734/560/1000/20/
015020/20130307/93741/560/310/20/
015020/20130307/93818/560/190/10/
015020/20130307/93818/557/640/10/
015020/20130307/93822/557/300/10/
015020/20130307/93937/559/760/10/
015020/20130307/93937/558/1140/10/
015020/20130307/94015/558/1860/10/
015020/20130307/94015/558/2050/20/
015020/20130307/94142/559/190/10/
015020/20130307/94157/562/100/20/
015020/20130307/94316/559/2220/10/
015020/20130307/94348/559/100/20/
015020/20130307/94400/559/100/20/
015020/20130307/94432/558/1000/10/
015020/20130307/94539/558/1490/10/
015020/20130307/94539/557/4350/10/
015020/20130307/94539/556/3390/10/
015020/20130307/94539/555/2260/10/
015020/20130307/94553/555/800/10/
015020/20130307/94619/555/1120/10/
015020/20130307/94739/556/830/10/
015020/20130307/94739/555/1170/10/
015020/20130307/94828/555/1960/10/
015020/20130307/94828/554/3930/10/
015020/20130307/94935/554/1000/10/
015020/20130307/94949/556/340/20/
015020/20130307/94958/558/250/20/
015020/20130307/95143/555/260/10/
015020/20130307/95143/554/340/10/
015020/20130307/95801/556/2660/10/
015020/20130307/95801/554/1260/10/
015020/20130307/95900/555/1010/10/
015020/20130307/95901/555/1300/20/
015020/20130307/100054/555/200/10/
015020/20130307/100227/557/100/10/
015020/20130307/100227/556/100/10/
015020/20130307/100227/555/790/10/
015020/20130307/100414/555/2870/10/
015020/20130307/100414/555/440/20/
015020/20130307/100501/556/100/10/
015020/20130307/100501/555/240/10/
015020/20130307/100551/555/2070/10/
015020/20130307/100649/555/1290/10/
015020/20130307/100649/555/240/20/
015020/20130307/100804/558/120/20/
015020/20130307/100822/555/3240/10/
015020/20130307/100822/554/6620/10/
015020/20130307/100822/553/2300/10/
015020/20130307/100822/552/4600/10/
015020/20130307/100822/551/5200/10/
015020/20130307/100822/550/17380/10/
015020/20130307/100941/555/1040/10/
015020/20130307/101006/555/4400/10/
015020/20130307/101008/555/1000/10/
015020/20130307/101028/555/900/10/
015020/20130307/101113/555/300/10/
015020/20130307/101149/555/1580/10/
015020/20130307/101211/555/1000/20/
015020/20130307/101301/555/9640/20/
015020/20130307/101331/555/1000/20/
015020/20130307/101639/554/430/10/
015020/20130307/101749/553/100/10/
015020/20130307/101749/552/270/10/
015020/20130307/101941/553/1470/10/
015020/20130307/102013/552/180/10/
015020/20130307/102023/553/220/20/
015020/20130307/102036/553/300/10/
015020/20130307/102114/553/100/10/
015020/20130307/102220/553/500/10/
015020/20130307/102328/552/1350/10/
015020/20130307/102328/551/1150/10/
015020/20130307/102446/551/500/10/
015020/20130307/102652/551/2250/10/
015020/20130307/102700/551/900/10/
015020/20130307/102802/551/1000/10/
015020/20130307/103014/551/3000/10/
015020/20130307/103204/551/3750/10/
015020/20130307/103204/550/8250/10/
015020/20130307/103326/551/2000/10/
015020/20130307/103326/550/4410/10/
015020/20130307/103338/550/3000/10/
015020/20130307/103540/551/2000/10/
015020/20130307/103638/550/810/10/
015020/20130307/103811/553/110/20/
015020/20130307/103938/551/510/10/
015020/20130307/104327/551/3190/10/
015020/20130307/104418/550/7600/10/
015020/20130307/104430/549/5500/10/
015020/20130307/104430/548/23700/10/
015020/20130307/104430/545/5000/10/
015020/20130307/104430/544/370/10/
015020/20130307/104430/543/6010/10/
015020/20130307/104430/542/500/10/
015020/20130307/104430/541/6810/10/
015020/20130307/104614/549/90/20/
015020/20130307/104726/549/1000/20/
015020/20130307/104752/549/200/20/
015020/20130307/104808/549/310/10/
015020/20130307/104819/550/230/20/
015020/20130307/104839/550/820/20/
015020/20130307/104843/550/7180/20/
015020/20130307/104856/550/3710/10/
015020/20130307/104951/553/200/20/
015020/20130307/105043/552/120/20/
015020/20130307/105046/547/2000/10/
015020/20130307/105046/546/8000/10/
015020/20130307/105327/548/160/10/
015020/20130307/105413/548/1030/20/
015020/20130307/105501/548/250/20/
015020/20130307/105541/548/220/10/
015020/20130307/105550/548/850/20/
015020/20130307/105603/548/5030/10/
015020/20130307/105625/548/460/10/
015020/20130307/105921/549/100/20/
015020/20130307/105946/549/160/10/
015020/20130307/110432/551/100/20/
015020/20130307/110503/550/120/10/
015020/20130307/110841/549/160/10/
015020/20130307/110846/549/800/20/
015020/20130307/111045/548/160/10/
015020/20130307/111103/548/160/20/
015020/20130307/111142/547/920/10/
015020/20130307/111216/547/320/10/
015020/20130307/111351/547/310/10/
015020/20130307/111351/546/1200/10/
015020/20130307/111351/545/2080/10/
015020/20130307/111351/544/2010/10/
015020/20130307/111351/543/3040/10/
015020/20130307/111351/542/4830/10/
015020/20130307/111351/541/7210/10/
015020/20130307/111416/544/160/10/
015020/20130307/111416/542/3010/10/
015020/20130307/111416/541/2230/10/
015020/20130307/111455/545/960/20/
015020/20130307/111534/545/870/20/
015020/20130307/111603/546/200/20/
015020/20130307/111638/546/100/10/
015020/20130307/111727/547/90/20/
015020/20130307/111906/547/380/20/
015020/20130307/111917/547/330/10/
015020/20130307/111919/547/2140/10/
015020/20130307/111928/546/360/10/
015020/20130307/111933/545/390/10/
015020/20130307/111933/544/440/10/
015020/20130307/111933/543/4310/10/
015020/20130307/111934/543/1860/20/
015020/20130307/111941/542/1510/10/
015020/20130307/112014/547/160/20/
015020/20130307/112018/547/100/20/
015020/20130307/112025/547/100/20/
015020/20130307/112050/545/90/20/
015020/20130307/112135/545/190/10/
015020/20130307/112224/545/1380/20/
015020/20130307/112249/547/120/20/
015020/20130307/112250/546/1330/10/
015020/20130307/112254/547/120/20/
015020/20130307/112303/547/180/20/
015020/20130307/112307/547/100/20/
015020/20130307/112311/547/500/20/
015020/20130307/112314/547/100/20/
015020/20130307/112337/547/100/20/
015020/20130307/112339/547/500/20/
015020/20130307/112342/547/100/20/
015020/20130307/112344/546/2160/10/
015020/20130307/112344/545/6120/10/
015020/20130307/112409/545/3720/10/
015020/20130307/112411/545/100/10/
015020/20130307/112412/545/100/10/
015020/20130307/112412/545/100/10/
015020/20130307/112416/545/2430/10/
015020/20130307/112426/545/100/10/
015020/20130307/112426/545/100/10/
015020/20130307/112427/545/100/10/
015020/20130307/112427/545/100/10/
015020/20130307/112428/545/100/10/
015020/20130307/112428/545/100/10/
015020/20130307/112429/545/100/10/
015020/20130307/112617/546/1190/20/
015020/20130307/112631/546/500/10/
015020/20130307/112746/546/1650/10/
015020/20130307/112805/546/1690/10/
015020/20130307/112805/545/2400/10/
015020/20130307/112816/545/910/20/
015020/20130307/112944/545/100/10/
015020/20130307/112946/545/110/20/
015020/20130307/112947/545/100/10/
015020/20130307/113002/546/100/20/
015020/20130307/113020/545/250/10/
015020/20130307/113246/545/740/10/
015020/20130307/113253/545/2020/10/
015020/20130307/113446/545/2890/10/
015020/20130307/113517/544/100/10/
015020/20130307/113517/544/100/10/
015020/20130307/113518/544/100/10/
015020/20130307/113518/544/100/10/
015020/20130307/113519/544/100/10/
015020/20130307/113520/544/100/10/
015020/20130307/113520/544/100/10/
015020/20130307/113521/544/100/10/
015020/20130307/113521/544/100/10/
015020/20130307/113531/545/100/20/
015020/20130307/113700/545/1340/20/
015020/20130307/113711/545/660/10/
015020/20130307/113727/545/500/20/
015020/20130307/113859/546/3010/20/
015020/20130307/114004/546/120/10/
015020/20130307/114052/547/200/20/
015020/20130307/114201/547/2000/20/
015020/20130307/114205/547/1000/20/
015020/20130307/114225/547/1880/20/
015020/20130307/114225/548/6090/20/
015020/20130307/114327/548/2000/10/
015020/20130307/114426/548/400/10/
015020/20130307/114501/548/570/10/
015020/20130307/114621/548/310/10/
015020/20130307/115310/549/170/20/
015020/20130307/115330/547/500/10/
015020/20130307/115330/546/500/10/
015020/20130307/120429/547/180/10/
015020/20130307/120430/547/100/10/
015020/20130307/120430/547/100/10/
015020/20130307/120431/547/100/10/
015020/20130307/120431/547/100/10/
015020/20130307/120432/547/100/10/
015020/20130307/120432/547/100/10/
015020/20130307/120517/548/500/20/
015020/20130307/120854/548/100/20/
015020/20130307/120922/548/150/20/
015020/20130307/121219/548/2010/20/
015020/20130307/121358/547/970/10/
015020/20130307/121701/547/1420/10/
015020/20130307/121814/547/1000/10/
015020/20130307/122028/546/3910/10/
015020/20130307/122028/545/8510/10/
015020/20130307/122028/544/5220/10/
015020/20130307/122028/543/7760/10/
015020/20130307/122028/542/7030/10/
015020/20130307/122028/541/3060/10/
015020/20130307/122157/546/100/10/
015020/20130307/122303/547/90/20/
015020/20130307/122326/546/110/10/
015020/20130307/122410/545/130/10/
015020/20130307/122410/544/300/10/
015020/20130307/122410/543/1100/10/
015020/20130307/122523/545/90/10/
015020/20130307/122534/542/2830/10/
015020/20130307/122535/542/170/20/
015020/20130307/122602/542/5010/10/
015020/20130307/122602/542/1000/20/
015020/20130307/122719/543/90/10/
015020/20130307/122719/542/2920/10/
015020/20130307/122719/541/15650/10/
015020/20130307/122719/540/14260/10/
015020/20130307/123012/542/890/10/
015020/20130307/123255/542/2000/10/
015020/20130307/123547/543/1200/10/
015020/20130307/123547/542/410/10/
015020/20130307/123547/541/140/10/
015020/20130307/123640/541/500/10/
015020/20130307/123810/541/650/10/
015020/20130307/123810/540/4050/10/
015020/20130307/123810/539/130/10/
015020/20130307/124057/540/1000/10/
015020/20130307/124416/541/1490/10/
015020/20130307/124416/541/7520/20/
015020/20130307/124513/542/610/20/
015020/20130307/124600/544/210/20/
015020/20130307/124822/545/140/20/
015020/20130307/125416/543/100/10/
015020/20130307/125418/543/480/10/
015020/20130307/125418/542/1070/10/
015020/20130307/125418/540/950/10/
015020/20130307/125706/544/100/20/
015020/20130307/130739/542/230/10/
015020/20130307/130916/542/850/10/
015020/20130307/130934/542/5000/10/
015020/20130307/131208/542/1700/10/
015020/20130307/131624/541/160/10/
015020/20130307/131629/541/590/10/
015020/20130307/131629/540/310/10/
015020/20130307/131706/540/2390/10/
015020/20130307/131753/540/1200/10/
015020/20130307/131957/541/130/10/
015020/20130307/132009/542/130/20/
015020/20130307/132025/541/570/10/
015020/20130307/132439/542/1930/10/
015020/20130307/132457/542/3000/20/
015020/20130307/132732/542/100/20/
015020/20130307/132754/541/14020/10/
015020/20130307/133120/542/200/10/
015020/20130307/133243/541/110/10/
015020/20130307/133256/542/4060/10/
015020/20130307/133257/541/8040/10/
015020/20130307/133315/541/1000/20/
015020/20130307/133355/541/3330/20/
015020/20130307/133414/541/220/20/
015020/20130307/133421/540/210/10/
015020/20130307/133422/541/1100/20/
015020/20130307/133505/541/2070/20/
015020/20130307/133523/540/110/10/
015020/20130307/133535/540/1170/10/
015020/20130307/133605/541/9800/20/
015020/20130307/133612/540/9170/10/
015020/20130307/133627/540/830/20/
015020/20130307/133726/540/1090/10/
015020/20130307/133726/539/1270/10/
015020/20130307/133947/539/700/10/
015020/20130307/133952/539/8330/10/
015020/20130307/133952/538/620/10/
015020/20130307/134124/539/100/10/
015020/20130307/134124/538/1550/10/
015020/20130307/134138/538/1480/10/
015020/20130307/134138/538/520/20/
015020/20130307/134154/541/1260/20/
015020/20130307/135230/542/1830/10/
015020/20130307/135239/542/3380/10/
015020/20130307/135239/541/2180/10/
015020/20130307/135801/541/1440/10/
015020/20130307/135857/543/260/20/
015020/20130307/135857/544/1250/20/
015020/20130307/135914/541/2390/10/
015020/20130307/135922/544/190/20/
015020/20130307/135922/545/1680/20/
015020/20130307/135922/546/1130/20/
015020/20130307/140117/545/500/20/
015020/20130307/140117/546/540/20/
015020/20130307/140117/547/960/20/
015020/20130307/140152/544/500/20/
015020/20130307/140200/544/500/10/
015020/20130307/140245/542/450/10/
015020/20130307/140453/543/400/20/
015020/20130307/140514/543/100/10/
015020/20130307/140514/542/1520/10/
015020/20130307/140529/541/2630/10/
015020/20130307/140529/540/2510/10/
015020/20130307/140646/541/1010/10/
015020/20130307/140646/540/820/10/
015020/20130307/140713/540/500/10/
015020/20130307/140713/540/500/10/
015020/20130307/140713/540/500/10/
015020/20130307/140713/540/180/10/
015020/20130307/140714/540/320/20/
015020/20130307/141851/541/650/10/
015020/20130307/141851/540/1120/10/
015020/20130307/141851/539/940/10/
015020/20130307/142107/544/110/20/
015020/20130307/142404/540/570/10/
015020/20130307/142404/539/1610/10/
015020/20130307/143208/539/1550/10/
015020/20130307/143208/538/3380/10/
015020/20130307/143530/539/4690/10/
015020/20130307/143530/538/3310/10/
015020/20130307/143550/538/430/10/
015020/20130307/143550/537/6310/10/
015020/20130307/143558/542/2450/20/
015020/20130307/143558/542/2510/10/
015020/20130307/143710/541/300/20/
015020/20130307/143710/542/280/20/
015020/20130307/143758/542/2590/20/
015020/20130307/143758/542/2000/20/
015020/20130307/143944/542/2030/20/
015020/20130307/144019/538/1510/10/
015020/20130307/144445/540/540/20/
015020/20130307/144452/540/100/20/
015020/20130307/144457/540/100/20/
015020/20130307/144502/540/300/20/
015020/20130307/144531/540/100/20/
015020/20130307/144542/540/100/20/
015020/20130307/144546/540/240/20/
015020/20130307/144546/540/100/20/
015020/20130307/144611/540/100/20/
015020/20130307/144611/540/1000/20/
015020/20130307/144613/540/100/20/
015020/20130307/144627/540/100/20/
015020/20130307/144631/540/100/20/
015020/20130307/144814/540/4280/20/
015020/20130307/144902/541/90/20/
015020/20130307/144913/541/110/20/
015020/20130307/144920/541/90/20/
015020/20130307/144924/541/1710/20/
015020/20130307/144938/542/250/20/
015020/20130307/144943/542/970/20/
015020/20130307/144950/542/1010/20/
015020/20130307/150000/539/17290/20/
