015020/20121221/90000/489/2740/10/
015020/20121221/90002/489/12410/10/
015020/20121221/90009/488/2590/20/
015020/20121221/90009/489/3360/20/
015020/20121221/90012/489/3380/10/
015020/20121221/90016/489/940/10/
015020/20121221/90018/489/500/10/
015020/20121221/90020/489/4000/10/
015020/20121221/90032/489/1000/10/
015020/20121221/90101/490/1480/20/
015020/20121221/90104/489/8020/10/
015020/20121221/90112/495/3450/20/
015020/20121221/90138/489/2370/10/
015020/20121221/90141/489/1500/10/
015020/20121221/90219/490/100/10/
015020/20121221/90227/490/140/10/
015020/20121221/90232/490/500/10/
015020/20121221/90246/494/520/20/
015020/20121221/90246/495/870/20/
015020/20121221/90313/490/2600/10/
015020/20121221/90313/489/400/10/
015020/20121221/90318/489/250/10/
015020/20121221/90321/489/120/10/
015020/20121221/90327/489/5060/10/
015020/20121221/90327/489/5000/10/
015020/20121221/90333/489/100/10/
015020/20121221/90334/489/100/10/
015020/20121221/90345/489/5430/20/
015020/20121221/90346/489/7240/10/
015020/20121221/90351/489/210/20/
015020/20121221/90356/489/1620/20/
015020/20121221/90459/486/1300/10/
015020/20121221/90504/486/1040/10/
015020/20121221/90524/486/100/10/
015020/20121221/90524/486/6000/10/
015020/20121221/90541/485/100/10/
015020/20121221/90548/485/750/10/
015020/20121221/90556/485/4000/10/
015020/20121221/90557/485/3000/10/
015020/20121221/90559/485/2200/10/
015020/20121221/90601/481/100/10/
015020/20121221/90601/480/100/10/
015020/20121221/90614/480/100/10/
015020/20121221/90617/479/1100/10/
015020/20121221/90617/478/170/10/
015020/20121221/90636/478/930/10/
015020/20121221/90636/477/330/10/
015020/20121221/90715/478/110/10/
015020/20121221/90715/477/860/10/
015020/20121221/90812/477/330/10/
015020/20121221/90853/478/120/10/
015020/20121221/90853/477/1480/10/
015020/20121221/90905/477/1800/10/
015020/20121221/90920/477/5280/20/
015020/20121221/90940/477/700/10/
015020/20121221/90940/476/1100/10/
015020/20121221/90940/475/1100/10/
015020/20121221/90940/474/1100/10/
015020/20121221/90940/473/710/10/
015020/20121221/90949/473/3000/10/
015020/20121221/91002/473/460/10/
015020/20121221/91002/472/180/10/
015020/20121221/91002/471/750/10/
015020/20121221/91002/471/1350/10/
015020/20121221/91002/470/100/10/
015020/20121221/91002/469/100/10/
015020/20121221/91002/468/100/10/
015020/20121221/91002/467/100/10/
015020/20121221/91002/466/220/10/
015020/20121221/91012/473/1500/10/
015020/20121221/91033/473/100/10/
015020/20121221/91034/473/1460/10/
015020/20121221/91226/473/3040/20/
015020/20121221/91227/474/6430/20/
015020/20121221/91302/474/300/10/
015020/20121221/91312/474/580/20/
015020/20121221/91331/479/450/20/
015020/20121221/91348/474/1500/10/
015020/20121221/91433/474/130/10/
015020/20121221/91538/471/2890/10/
015020/20121221/91538/470/500/10/
015020/20121221/91538/469/780/10/
015020/20121221/91538/467/830/10/
015020/20121221/91702/469/2200/10/
015020/20121221/91702/468/2310/10/
015020/20121221/91711/468/690/10/
015020/20121221/91711/467/700/10/
015020/20121221/91720/467/400/10/
015020/20121221/91733/468/3710/10/
015020/20121221/91733/468/3290/20/
015020/20121221/91735/468/3290/10/
015020/20121221/91735/468/2770/20/
015020/20121221/91827/468/740/10/
015020/20121221/91827/467/2760/10/
015020/20121221/91846/467/10350/10/
015020/20121221/91846/466/7080/10/
015020/20121221/92115/465/5800/10/
015020/20121221/92128/465/500/20/
015020/20121221/92154/465/1570/20/
015020/20121221/92244/466/130/10/
015020/20121221/92244/465/470/10/
015020/20121221/92407/468/1000/10/
015020/20121221/92407/467/1000/10/
015020/20121221/92653/469/100/20/
015020/20121221/92714/469/100/20/
015020/20121221/92729/469/480/20/
015020/20121221/92741/470/1000/20/
015020/20121221/92755/469/500/10/
015020/20121221/92809/470/5000/20/
015020/20121221/92810/470/2100/20/
015020/20121221/92811/470/2000/20/
015020/20121221/92833/470/90/20/
015020/20121221/92842/470/100/20/
015020/20121221/92844/470/410/20/
015020/20121221/92942/470/2020/20/
015020/20121221/92943/470/11510/20/
015020/20121221/92946/470/10020/20/
015020/20121221/92950/470/6940/20/
015020/20121221/93009/469/390/10/
015020/20121221/93030/472/90/20/
015020/20121221/93031/472/190/20/
015020/20121221/93100/474/920/20/
015020/20121221/93110/474/90/20/
015020/20121221/93122/479/250/20/
015020/20121221/93122/480/760/20/
015020/20121221/93137/480/1150/20/
015020/20121221/93243/474/240/10/
015020/20121221/93252/474/550/10/
015020/20121221/93545/470/190/10/
015020/20121221/93545/469/2880/10/
015020/20121221/93820/469/1700/10/
015020/20121221/93820/468/1040/10/
015020/20121221/93820/467/700/10/
015020/20121221/93931/468/1000/10/
015020/20121221/94044/469/300/10/
015020/20121221/94112/469/800/10/
015020/20121221/94205/469/1540/20/
015020/20121221/94241/468/100/10/
015020/20121221/94241/467/4420/10/
015020/20121221/94335/467/1230/10/
015020/20121221/94335/466/6030/10/
015020/20121221/94342/465/6160/10/
015020/20121221/94405/465/100/20/
015020/20121221/94511/465/400/20/
015020/20121221/94523/464/1250/10/
015020/20121221/94529/464/960/10/
015020/20121221/94645/463/1150/10/
015020/20121221/94704/463/100/20/
015020/20121221/94711/463/100/20/
015020/20121221/94728/463/190/20/
015020/20121221/94737/462/3040/10/
015020/20121221/94750/462/2000/10/
015020/20121221/94909/463/4720/20/
015020/20121221/94943/465/110/20/
015020/20121221/95037/463/700/10/
015020/20121221/95037/462/230/10/
015020/20121221/95132/465/180/20/
015020/20121221/95134/463/5000/10/
015020/20121221/95321/463/2040/10/
015020/20121221/95454/465/90/20/
015020/20121221/95652/464/140/10/
015020/20121221/95652/464/290/10/
015020/20121221/95719/465/180/10/
015020/20121221/95805/466/580/20/
015020/20121221/95827/466/90/20/
015020/20121221/95853/466/10590/20/
015020/20121221/95937/468/190/20/
015020/20121221/95954/469/90/20/
015020/20121221/95955/469/2000/20/
015020/20121221/95958/468/120/10/
015020/20121221/100016/469/520/20/
015020/20121221/100034/469/1300/20/
015020/20121221/100034/470/3700/20/
015020/20121221/100049/470/770/20/
015020/20121221/100100/470/230/10/
015020/20121221/100114/470/4030/20/
015020/20121221/100115/470/9210/20/
015020/20121221/100135/473/510/20/
015020/20121221/100143/472/500/20/
015020/20121221/100159/472/90/20/
015020/20121221/100213/472/180/20/
015020/20121221/100216/472/6300/20/
015020/20121221/100222/473/190/10/
015020/20121221/100420/476/120/20/
015020/20121221/100424/476/380/10/
015020/20121221/100429/473/510/10/
015020/20121221/100548/474/2070/10/
015020/20121221/100618/473/6220/10/
015020/20121221/100620/473/1000/10/
015020/20121221/100629/473/4000/10/
015020/20121221/100642/473/14900/10/
015020/20121221/100643/473/2000/10/
015020/20121221/100644/473/5000/10/
015020/20121221/100750/473/1400/10/
015020/20121221/101534/469/2320/10/
015020/20121221/101609/469/460/10/
015020/20121221/101806/468/2520/10/
015020/20121221/101806/467/1500/10/
015020/20121221/101806/466/2560/10/
015020/20121221/102512/470/340/20/
015020/20121221/103101/469/100/20/
015020/20121221/103101/468/1000/10/
015020/20121221/103141/467/1300/10/
015020/20121221/103154/466/670/10/
015020/20121221/103306/466/3780/10/
015020/20121221/103323/466/950/10/
015020/20121221/103323/465/8050/10/
015020/20121221/103511/465/1770/10/
015020/20121221/103511/464/8230/10/
015020/20121221/103645/465/330/10/
015020/20121221/103923/465/1100/10/
015020/20121221/103939/465/810/10/
015020/20121221/104019/467/170/20/
015020/20121221/104059/467/100/10/
015020/20121221/104232/465/3000/10/
015020/20121221/104321/465/930/10/
015020/20121221/104326/465/400/20/
015020/20121221/104444/465/500/20/
015020/20121221/104539/464/160/10/
015020/20121221/104710/464/170/10/
015020/20121221/105201/465/390/20/
015020/20121221/105303/468/760/20/
015020/20121221/105350/468/160/10/
015020/20121221/105853/470/1030/20/
015020/20121221/105904/470/1000/20/
015020/20121221/105934/470/700/20/
015020/20121221/110107/470/4090/20/
015020/20121221/110211/470/910/10/
015020/20121221/110218/470/720/20/
015020/20121221/110244/471/280/20/
015020/20121221/110302/471/310/20/
015020/20121221/110302/472/690/20/
015020/20121221/110310/472/530/20/
015020/20121221/110314/473/1000/20/
015020/20121221/110314/473/6350/20/
015020/20121221/110338/474/1030/20/
015020/20121221/110409/474/140/20/
015020/20121221/110544/474/1480/20/
015020/20121221/110707/477/1140/20/
015020/20121221/110801/478/290/20/
015020/20121221/110823/478/210/20/
015020/20121221/110823/479/240/20/
015020/20121221/110835/479/1010/20/
015020/20121221/110848/479/280/20/
015020/20121221/110850/480/90/20/
015020/20121221/110900/480/1500/20/
015020/20121221/110904/480/120/20/
015020/20121221/110906/480/1030/20/
015020/20121221/110906/480/2390/20/
015020/20121221/110951/481/1150/20/
015020/20121221/110952/481/100/20/
015020/20121221/111017/481/220/10/
015020/20121221/111022/481/90/10/
015020/20121221/111023/482/590/20/
015020/20121221/111032/482/1620/10/
015020/20121221/111103/483/100/10/
015020/20121221/111103/482/2000/10/
015020/20121221/111125/481/1200/10/
015020/20121221/111128/482/290/20/
015020/20121221/111157/486/1050/20/
015020/20121221/111211/488/640/20/
015020/20121221/111211/488/8340/10/
015020/20121221/111218/488/5000/20/
015020/20121221/111237/487/1960/20/
015020/20121221/111321/484/1760/10/
015020/20121221/111333/484/1000/20/
015020/20121221/111437/480/170/10/
015020/20121221/111437/479/1670/10/
015020/20121221/111447/471/1990/10/
015020/20121221/111452/470/1990/10/
015020/20121221/111454/470/1280/10/
015020/20121221/111726/479/150/20/
015020/20121221/111733/479/2890/20/
015020/20121221/111834/478/340/20/
015020/20121221/111945/477/190/20/
015020/20121221/111958/477/90/10/
015020/20121221/112024/473/7150/20/
015020/20121221/112250/472/400/10/
015020/20121221/112256/472/300/10/
015020/20121221/112327/472/130/10/
015020/20121221/112350/472/1200/10/
015020/20121221/112350/472/4800/20/
015020/20121221/112509/475/140/20/
015020/20121221/112551/482/1010/20/
015020/20121221/112551/483/2140/20/
015020/20121221/112551/485/1730/20/
015020/20121221/112551/486/3010/20/
015020/20121221/112649/485/100/20/
015020/20121221/112649/486/400/20/
015020/20121221/112704/486/510/20/
015020/20121221/112712/485/500/20/
015020/20121221/112729/485/220/20/
015020/20121221/112843/481/1020/10/
015020/20121221/112952/481/860/10/
015020/20121221/113143/481/600/10/
015020/20121221/113524/479/620/10/
015020/20121221/113536/478/5000/10/
015020/20121221/113607/479/200/10/
015020/20121221/113749/477/260/10/
015020/20121221/113801/477/90/10/
015020/20121221/113843/478/180/10/
015020/20121221/113843/477/630/10/
015020/20121221/114225/477/5430/10/
015020/20121221/114228/477/1050/20/
015020/20121221/114308/476/2790/10/
015020/20121221/114315/477/220/20/
015020/20121221/114448/477/500/10/
015020/20121221/115022/477/680/10/
015020/20121221/115022/476/6210/10/
015020/20121221/115022/475/3000/10/
015020/20121221/115022/474/3130/10/
015020/20121221/115338/473/2440/10/
015020/20121221/115338/472/2430/20/
015020/20121221/115956/473/500/10/
015020/20121221/121022/473/1780/20/
015020/20121221/121031/473/400/20/
015020/20121221/121122/473/670/20/
015020/20121221/121125/473/220/20/
015020/20121221/122006/481/1050/20/
015020/20121221/123209/476/1190/10/
015020/20121221/123211/480/100/20/
015020/20121221/123244/480/1880/20/
015020/20121221/123353/481/920/20/
015020/20121221/123356/476/140/10/
015020/20121221/123542/482/900/20/
015020/20121221/123612/477/700/10/
015020/20121221/123612/476/1300/10/
015020/20121221/123910/482/270/20/
015020/20121221/124120/477/1010/10/
015020/20121221/124341/477/200/10/
015020/20121221/124723/477/1270/10/
015020/20121221/124723/476/1700/10/
015020/20121221/124723/475/1030/10/
015020/20121221/124752/476/220/10/
015020/20121221/124814/475/100/10/
015020/20121221/125416/476/90/10/
015020/20121221/130240/477/500/10/
015020/20121221/130443/477/5000/10/
015020/20121221/130853/477/280/10/
015020/20121221/131029/478/1570/20/
015020/20121221/131113/478/2000/10/
015020/20121221/131157/477/1350/10/
015020/20121221/131157/476/10140/10/
015020/20121221/131248/476/700/10/
015020/20121221/131418/476/1920/10/
015020/20121221/131545/476/450/10/
015020/20121221/131852/476/1470/10/
015020/20121221/131852/475/530/10/
015020/20121221/132009/476/1840/10/
015020/20121221/132010/476/160/20/
015020/20121221/132047/476/410/10/
015020/20121221/132356/478/1000/20/
015020/20121221/132404/476/1320/10/
015020/20121221/132451/475/2680/10/
015020/20121221/132454/475/570/20/
015020/20121221/132504/475/210/20/
015020/20121221/133050/476/100/20/
015020/20121221/133216/476/100/20/
015020/20121221/133220/475/100/10/
015020/20121221/133453/474/820/10/
015020/20121221/133645/474/500/10/
015020/20121221/133735/474/1000/10/
015020/20121221/133812/474/860/10/
015020/20121221/133820/473/3000/10/
015020/20121221/134235/473/1000/10/
015020/20121221/134329/473/2100/10/
015020/20121221/134729/473/150/10/
015020/20121221/135105/474/670/20/
015020/20121221/135126/473/2000/10/
015020/20121221/135221/472/760/10/
015020/20121221/135241/471/360/10/
015020/20121221/135320/473/210/20/
015020/20121221/135336/474/1540/20/
015020/20121221/135406/475/3460/20/
015020/20121221/135409/476/420/20/
015020/20121221/135409/476/420/20/
015020/20121221/135409/476/420/20/
015020/20121221/135410/476/420/20/
015020/20121221/135410/476/420/20/
015020/20121221/135411/476/420/20/
015020/20121221/135411/476/2010/20/
015020/20121221/135411/476/990/10/
015020/20121221/135412/477/2000/20/
015020/20121221/135509/478/1400/20/
015020/20121221/135520/479/2000/20/
015020/20121221/135526/478/1020/10/
015020/20121221/135614/480/1080/20/
015020/20121221/135616/480/1000/20/
015020/20121221/135618/480/1870/20/
015020/20121221/135636/481/230/20/
015020/20121221/135714/481/1860/20/
015020/20121221/135748/483/660/20/
015020/20121221/135748/484/350/20/
015020/20121221/135755/481/520/10/
015020/20121221/135755/480/1000/10/
015020/20121221/135756/483/4470/20/
015020/20121221/135756/484/2560/20/
015020/20121221/135759/484/890/20/
015020/20121221/135824/484/1000/20/
015020/20121221/135832/484/390/20/
015020/20121221/135832/485/1010/20/
015020/20121221/135832/486/850/20/
015020/20121221/135832/488/1090/20/
015020/20121221/135838/480/1000/10/
015020/20121221/135855/480/1010/10/
015020/20121221/135858/485/990/20/
015020/20121221/135858/485/5010/10/
015020/20121221/135859/485/3000/20/
015020/20121221/135900/485/1000/20/
015020/20121221/135901/485/1000/20/
015020/20121221/135904/480/460/10/
015020/20121221/135907/486/1020/20/
015020/20121221/135908/486/1990/20/
015020/20121221/135913/488/1580/20/
015020/20121221/135916/487/5040/10/
015020/20121221/135917/488/1060/20/
015020/20121221/135920/489/90/20/
015020/20121221/135921/489/1400/20/
015020/20121221/135922/489/140/20/
015020/20121221/135924/489/90/20/
015020/20121221/135924/490/4400/20/
015020/20121221/135925/490/5030/20/
015020/20121221/135927/490/4060/20/
015020/20121221/135928/490/2020/20/
015020/20121221/135929/490/3030/20/
015020/20121221/135930/490/550/20/
015020/20121221/135931/490/810/20/
015020/20121221/135931/490/5000/20/
015020/20121221/135932/490/3990/20/
015020/20121221/135933/490/130/10/
015020/20121221/135935/491/150/20/
015020/20121221/135936/490/1010/10/
015020/20121221/135937/490/800/10/
015020/20121221/135942/488/1040/10/
015020/20121221/135944/487/460/10/
015020/20121221/140001/487/7690/20/
015020/20121221/140016/489/950/20/
015020/20121221/140024/483/280/10/
015020/20121221/140032/489/440/20/
015020/20121221/140033/490/3010/20/
015020/20121221/140142/485/1650/10/
015020/20121221/140209/484/1510/10/
015020/20121221/140210/484/2780/10/
015020/20121221/140210/484/2000/10/
015020/20121221/140211/484/4020/10/
015020/20121221/140211/483/2000/10/
015020/20121221/140218/483/2100/10/
015020/20121221/140218/482/260/10/
015020/20121221/140223/482/740/10/
015020/20121221/140226/482/1260/20/
015020/20121221/140230/482/3000/20/
015020/20121221/140415/483/1010/10/
015020/20121221/140422/483/1000/10/
015020/20121221/140506/483/960/10/
015020/20121221/140547/482/900/10/
015020/20121221/140711/482/410/10/
015020/20121221/140715/482/2010/10/
015020/20121221/140715/481/1280/10/
015020/20121221/140836/481/730/10/
015020/20121221/141007/481/280/20/
015020/20121221/141039/481/530/10/
015020/20121221/141127/484/320/20/
015020/20121221/141253/483/500/20/
015020/20121221/141253/484/370/20/
015020/20121221/141301/484/2280/20/
015020/20121221/141354/484/1000/20/
015020/20121221/141417/481/260/10/
015020/20121221/141457/483/500/20/
015020/20121221/141457/484/1510/20/
015020/20121221/141511/484/500/20/
015020/20121221/141513/484/1750/20/
015020/20121221/141513/485/3240/20/
015020/20121221/141516/486/490/20/
015020/20121221/141529/485/1870/10/
015020/20121221/141542/487/800/20/
015020/20121221/141543/487/900/20/
015020/20121221/141543/488/4960/20/
015020/20121221/141543/489/1200/20/
015020/20121221/141554/487/1480/20/
015020/20121221/141609/487/4000/10/
015020/20121221/141619/487/1010/20/
015020/20121221/141633/487/1500/20/
015020/20121221/141704/486/1000/10/
015020/20121221/141748/485/130/20/
015020/20121221/141808/481/770/10/
015020/20121221/141811/481/1030/10/
015020/20121221/142025/485/5770/20/
015020/20121221/142034/485/2280/10/
015020/20121221/142035/485/790/10/
015020/20121221/142035/485/3550/10/
015020/20121221/142123/482/1000/10/
015020/20121221/142353/482/450/10/
015020/20121221/142355/485/1000/20/
015020/20121221/142425/482/1730/10/
015020/20121221/142520/481/2160/10/
015020/20121221/142821/482/1500/10/
015020/20121221/142836/482/540/10/
015020/20121221/143009/482/1040/20/
015020/20121221/143034/481/3760/10/
015020/20121221/143034/480/3930/10/
015020/20121221/143111/480/300/10/
015020/20121221/143112/480/670/10/
015020/20121221/143232/477/1410/10/
015020/20121221/143232/477/4080/20/
015020/20121221/143237/480/2000/20/
015020/20121221/143321/480/90/20/
015020/20121221/143338/481/1480/10/
015020/20121221/143342/481/2000/10/
015020/20121221/143348/481/1870/10/
015020/20121221/143807/481/1490/10/
015020/20121221/144246/478/500/10/
015020/20121221/144433/480/1030/20/
015020/20121221/144455/481/990/20/
015020/20121221/144513/478/1020/10/
015020/20121221/144513/477/3500/10/
015020/20121221/144513/476/930/10/
015020/20121221/144642/480/2020/10/
015020/20121221/144848/481/850/20/
015020/20121221/144905/481/110/10/
015020/20121221/144917/481/900/20/
015020/20121221/144922/481/100/10/
015020/20121221/150000/481/11040/20/
