015020/20121128/90000/532/6260/10/
015020/20121128/90108/532/2010/10/
015020/20121128/90130/532/2000/10/
015020/20121128/90133/532/900/10/
015020/20121128/90140/532/1720/20/
015020/20121128/90144/531/1300/10/
015020/20121128/90147/531/4680/10/
015020/20121128/90155/530/2090/20/
015020/20121128/90214/530/910/10/
015020/20121128/90214/527/100/10/
015020/20121128/90217/527/1540/10/
015020/20121128/90337/528/1380/10/
015020/20121128/90404/531/5000/20/
015020/20121128/90410/532/200/20/
015020/20121128/90430/532/620/20/
015020/20121128/90435/532/180/20/
015020/20121128/90508/532/1000/20/
015020/20121128/90517/533/1000/20/
015020/20121128/90524/532/1000/10/
015020/20121128/90538/534/500/20/
015020/20121128/90550/535/5440/20/
015020/20121128/90559/536/1000/20/
015020/20121128/90600/536/1000/20/
015020/20121128/90607/537/1000/20/
015020/20121128/90617/537/1000/20/
015020/20121128/90617/538/1010/20/
015020/20121128/90617/539/250/20/
015020/20121128/90648/536/1040/10/
015020/20121128/90706/536/200/10/
015020/20121128/90821/535/1000/10/
015020/20121128/90821/535/2000/10/
015020/20121128/90906/534/2000/10/
015020/20121128/90908/535/1000/20/
015020/20121128/90908/535/3760/10/
015020/20121128/90909/534/500/10/
015020/20121128/90931/535/1000/20/
015020/20121128/90940/535/1000/10/
015020/20121128/90950/535/500/10/
015020/20121128/91038/532/160/10/
015020/20121128/91038/530/3500/10/
015020/20121128/91038/529/1340/10/
015020/20121128/91224/529/90/10/
015020/20121128/91303/529/4760/10/
015020/20121128/91333/529/120/10/
015020/20121128/91501/533/1010/10/
015020/20121128/91514/533/170/10/
015020/20121128/91516/533/100/20/
015020/20121128/91549/533/800/20/
015020/20121128/91600/530/2000/10/
015020/20121128/91643/530/400/10/
015020/20121128/91645/530/690/10/
015020/20121128/91645/529/1620/10/
015020/20121128/91655/529/1200/10/
015020/20121128/92106/530/730/10/
015020/20121128/92133/530/2000/10/
015020/20121128/92352/530/8000/10/
015020/20121128/92356/530/1000/10/
015020/20121128/92401/530/2630/10/
015020/20121128/92441/530/3960/10/
015020/20121128/92549/530/2840/10/
015020/20121128/92554/530/7000/10/
015020/20121128/92637/531/90/10/
015020/20121128/92744/530/1190/10/
015020/20121128/92848/531/850/20/
015020/20121128/92918/531/810/10/
015020/20121128/92918/530/230/10/
015020/20121128/92924/530/5000/10/
015020/20121128/93005/530/160/10/
015020/20121128/93100/533/380/20/
015020/20121128/93109/533/100/20/
015020/20121128/93110/533/9380/20/
015020/20121128/93129/533/100/20/
015020/20121128/93150/533/2210/20/
015020/20121128/93200/533/1280/20/
015020/20121128/93238/532/1000/10/
015020/20121128/93249/532/1000/10/
015020/20121128/93307/533/2160/20/
015020/20121128/93316/533/1110/20/
015020/20121128/93319/533/3360/20/
015020/20121128/93323/533/2000/20/
015020/20121128/93327/533/5000/20/
015020/20121128/93355/534/1000/20/
015020/20121128/93357/535/710/20/
015020/20121128/93359/535/26890/20/
015020/20121128/93413/536/110/20/
015020/20121128/93417/536/110/20/
015020/20121128/93419/536/310/20/
015020/20121128/93429/536/520/20/
015020/20121128/93431/536/110/20/
015020/20121128/93431/536/1000/20/
015020/20121128/93437/536/110/20/
015020/20121128/93444/536/520/20/
015020/20121128/93446/536/100/10/
015020/20121128/93446/535/11220/10/
015020/20121128/93503/537/530/20/
015020/20121128/93512/537/470/20/
015020/20121128/93512/538/440/20/
015020/20121128/93533/538/110/20/
015020/20121128/93542/536/1000/10/
015020/20121128/93542/538/1440/20/
015020/20121128/93553/538/1100/20/
015020/20121128/93556/538/100/20/
015020/20121128/93605/538/2170/10/
015020/20121128/93718/536/170/20/
015020/20121128/93919/535/6640/10/
015020/20121128/93949/536/90/20/
015020/20121128/93952/535/3710/10/
015020/20121128/94050/533/460/10/
015020/20121128/94052/535/2840/20/
015020/20121128/94119/535/140/20/
015020/20121128/94208/533/510/10/
015020/20121128/94218/533/2000/10/
015020/20121128/94452/537/90/20/
015020/20121128/94553/536/90/10/
015020/20121128/94556/534/2000/10/
015020/20121128/94903/535/1000/20/
015020/20121128/94906/533/210/10/
015020/20121128/94913/535/1470/10/
015020/20121128/95034/549/3000/10/
015020/20121128/95034/550/9340/20/
015020/20121128/95136/544/110/20/
015020/20121128/95143/544/110/20/
015020/20121128/95204/543/100/20/
015020/20121128/95220/539/1770/10/
015020/20121128/95228/538/3810/10/
015020/20121128/95241/538/250/10/
015020/20121128/95249/537/2030/10/
015020/20121128/95305/537/800/20/
015020/20121128/95318/537/2200/10/
015020/20121128/95323/537/5000/10/
015020/20121128/95339/537/750/10/
015020/20121128/95414/537/110/10/
015020/20121128/95420/537/900/10/
015020/20121128/95434/536/220/10/
015020/20121128/95444/535/2050/10/
015020/20121128/95503/535/2000/20/
015020/20121128/95556/533/420/10/
015020/20121128/95600/533/260/20/
015020/20121128/95639/533/1410/10/
015020/20121128/95657/533/2900/10/
015020/20121128/95717/539/200/20/
015020/20121128/95951/534/2010/10/
015020/20121128/100012/532/2500/10/
015020/20121128/100033/532/500/20/
015020/20121128/100613/536/540/20/
015020/20121128/100622/533/3000/10/
015020/20121128/100722/533/3000/10/
015020/20121128/100909/534/550/10/
015020/20121128/100955/533/3720/10/
015020/20121128/101127/533/3030/10/
015020/20121128/101152/533/4000/10/
015020/20121128/101215/535/730/20/
015020/20121128/101215/537/1860/20/
015020/20121128/101222/537/110/10/
015020/20121128/101553/533/90/10/
015020/20121128/101553/532/2500/10/
015020/20121128/101601/532/2220/20/
015020/20121128/101607/533/2780/10/
015020/20121128/101638/532/200/10/
015020/20121128/101700/533/720/20/
015020/20121128/101851/534/440/10/
015020/20121128/102029/534/170/10/
015020/20121128/102042/533/200/10/
015020/20121128/102253/533/2910/10/
015020/20121128/102300/533/2440/10/
015020/20121128/102320/533/500/10/
015020/20121128/102409/533/830/10/
015020/20121128/102619/531/200/10/
015020/20121128/102645/531/2290/10/
015020/20121128/102723/530/1720/10/
015020/20121128/102841/530/770/10/
015020/20121128/102943/530/2400/10/
015020/20121128/103044/530/150/10/
015020/20121128/103541/530/950/10/
015020/20121128/103615/530/120/10/
015020/20121128/103640/530/5880/10/
015020/20121128/103743/530/1000/10/
015020/20121128/103838/530/1660/10/
015020/20121128/103843/530/1570/10/
015020/20121128/104024/530/90/10/
015020/20121128/104137/530/1290/10/
015020/20121128/104238/529/130/10/
015020/20121128/104249/529/2000/10/
015020/20121128/104258/529/2000/10/
015020/20121128/104306/529/2000/10/
015020/20121128/104314/529/1730/10/
015020/20121128/104343/528/680/10/
015020/20121128/104358/528/3270/10/
015020/20121128/104358/528/710/10/
015020/20121128/104401/528/500/10/
015020/20121128/104429/528/660/10/
015020/20121128/104521/528/1340/20/
015020/20121128/104610/529/1130/10/
015020/20121128/104610/528/1870/10/
015020/20121128/104637/529/1200/10/
015020/20121128/104637/528/800/10/
015020/20121128/104659/528/2000/10/
015020/20121128/104711/528/2000/10/
015020/20121128/104720/528/3000/10/
015020/20121128/105148/529/190/10/
015020/20121128/105220/529/360/20/
015020/20121128/105646/529/420/10/
015020/20121128/105703/529/6280/10/
015020/20121128/105747/528/11530/10/
015020/20121128/105757/526/800/10/
015020/20121128/105851/526/100/10/
015020/20121128/105929/528/7060/20/
015020/20121128/105949/529/2000/10/
015020/20121128/105951/529/1000/20/
015020/20121128/110006/529/570/20/
015020/20121128/110200/528/2580/10/
015020/20121128/110336/528/510/10/
015020/20121128/110543/528/5870/10/
015020/20121128/110553/527/2250/10/
015020/20121128/110631/527/1190/10/
015020/20121128/110647/527/1240/20/
015020/20121128/110713/527/1000/10/
015020/20121128/110741/529/2050/10/
015020/20121128/110823/529/950/10/
015020/20121128/110828/527/1220/10/
015020/20121128/110828/526/14100/10/
015020/20121128/110929/529/3740/20/
015020/20121128/111130/529/1000/10/
015020/20121128/111130/530/630/20/
015020/20121128/111148/530/370/10/
015020/20121128/111202/530/9290/20/
015020/20121128/111405/531/560/20/
015020/20121128/111429/529/130/10/
015020/20121128/111556/530/310/10/
015020/20121128/111556/529/1700/10/
015020/20121128/111810/531/100/20/
015020/20121128/111843/530/2000/10/
015020/20121128/111933/530/200/20/
015020/20121128/112039/530/1000/10/
015020/20121128/112040/531/6250/20/
015020/20121128/112124/532/3770/20/
015020/20121128/112138/532/2500/20/
015020/20121128/112143/532/2000/20/
015020/20121128/112148/532/450/20/
015020/20121128/112201/533/10000/20/
015020/20121128/112201/535/16960/20/
015020/20121128/112213/535/500/20/
015020/20121128/112304/535/2000/20/
015020/20121128/112323/535/500/20/
015020/20121128/112556/537/90/20/
015020/20121128/112649/535/540/20/
015020/20121128/112703/532/1000/10/
015020/20121128/112712/532/200/10/
015020/20121128/112807/532/680/10/
015020/20121128/112807/531/2920/10/
015020/20121128/112813/531/6000/10/
015020/20121128/112829/535/200/20/
015020/20121128/112849/534/100/20/
015020/20121128/112900/534/100/20/
015020/20121128/112911/534/200/20/
015020/20121128/112926/534/100/20/
015020/20121128/113119/534/1000/20/
015020/20121128/113504/534/580/20/
015020/20121128/113527/534/100/20/
015020/20121128/113643/534/630/20/
015020/20121128/113710/535/1000/20/
015020/20121128/113749/535/120/20/
015020/20121128/113827/535/3730/20/
015020/20121128/114028/535/200/20/
015020/20121128/114150/535/160/20/
015020/20121128/114229/533/2030/10/
015020/20121128/114229/532/2770/10/
015020/20121128/114342/535/120/20/
015020/20121128/114419/535/100/20/
015020/20121128/114446/533/150/10/
015020/20121128/114503/533/350/20/
015020/20121128/114549/532/1000/10/
015020/20121128/114553/532/120/10/
015020/20121128/114553/531/16610/20/
015020/20121128/114620/531/500/20/
015020/20121128/114625/531/730/20/
015020/20121128/114717/531/4270/10/
015020/20121128/114753/531/5790/20/
015020/20121128/114803/531/710/10/
015020/20121128/114810/531/9290/20/
015020/20121128/114853/531/17090/10/
015020/20121128/114857/531/6660/20/
015020/20121128/114905/531/500/20/
015020/20121128/114914/531/300/20/
015020/20121128/114926/531/200/20/
015020/20121128/114944/531/500/20/
015020/20121128/114955/531/200/20/
015020/20121128/115004/531/100/20/
015020/20121128/115045/531/420/20/
015020/20121128/115200/530/230/10/
015020/20121128/115239/530/500/10/
015020/20121128/115306/530/7600/10/
015020/20121128/115345/530/660/10/
015020/20121128/115436/529/1000/10/
015020/20121128/115436/528/5310/10/
015020/20121128/115436/527/2530/10/
015020/20121128/115436/526/11890/10/
015020/20121128/115436/525/6570/10/
015020/20121128/115516/533/310/20/
015020/20121128/115803/532/300/20/
015020/20121128/115820/532/500/20/
015020/20121128/115848/532/200/20/
015020/20121128/120010/532/100/20/
015020/20121128/120041/531/120/20/
015020/20121128/120107/532/10080/20/
015020/20121128/120207/531/150/20/
015020/20121128/120244/532/150/20/
015020/20121128/120338/532/100/20/
015020/20121128/120357/528/2070/10/
015020/20121128/120411/528/100/20/
015020/20121128/120419/528/100/20/
015020/20121128/120437/527/1670/10/
015020/20121128/120444/527/16990/10/
015020/20121128/120455/527/100/20/
015020/20121128/120508/527/100/20/
015020/20121128/120516/532/150/20/
015020/20121128/120525/532/100/20/
015020/20121128/120707/526/6950/10/
015020/20121128/120754/531/100/20/
015020/20121128/120813/532/100/20/
015020/20121128/120931/530/90/10/
015020/20121128/120943/532/90/20/
015020/20121128/120947/530/230/10/
015020/20121128/121018/532/90/20/
015020/20121128/121046/530/280/10/
015020/20121128/121254/530/110/20/
015020/20121128/121310/530/100/20/
015020/20121128/121315/530/100/20/
015020/20121128/121319/530/100/20/
015020/20121128/121324/530/100/20/
015020/20121128/121328/530/100/20/
015020/20121128/121333/530/100/20/
015020/20121128/121338/530/100/20/
015020/20121128/121353/529/2400/20/
015020/20121128/121402/529/100/20/
015020/20121128/121404/529/110/20/
015020/20121128/121416/529/100/20/
015020/20121128/121422/529/110/20/
015020/20121128/121429/529/100/20/
015020/20121128/121432/529/90/20/
015020/20121128/121434/529/100/20/
015020/20121128/121439/528/3510/10/
015020/20121128/121446/529/100/20/
015020/20121128/121508/529/150/20/
015020/20121128/121521/529/100/20/
015020/20121128/121559/530/170/20/
015020/20121128/121603/530/300/20/
015020/20121128/121608/530/200/20/
015020/20121128/121615/530/200/20/
015020/20121128/121626/530/100/20/
015020/20121128/121640/530/9000/20/
015020/20121128/121646/530/300/20/
015020/20121128/121647/530/500/20/
015020/20121128/121957/530/120/10/
015020/20121128/122211/531/1740/20/
015020/20121128/122214/530/100/10/
015020/20121128/122228/531/200/20/
015020/20121128/122239/531/200/20/
015020/20121128/122325/531/1000/20/
015020/20121128/122356/532/100/20/
015020/20121128/122811/531/170/10/
015020/20121128/122939/532/11270/20/
015020/20121128/123326/532/100/20/
015020/20121128/123331/532/100/20/
015020/20121128/123335/532/100/20/
015020/20121128/123339/532/100/20/
015020/20121128/123343/532/100/20/
015020/20121128/123349/532/100/20/
015020/20121128/123354/533/100/20/
015020/20121128/123359/533/100/20/
015020/20121128/123404/533/100/20/
015020/20121128/123409/533/100/20/
015020/20121128/123447/533/100/20/
015020/20121128/123452/533/100/20/
015020/20121128/123457/533/100/20/
015020/20121128/123501/533/100/20/
015020/20121128/123502/533/10310/20/
015020/20121128/123515/534/100/20/
015020/20121128/123520/534/100/20/
015020/20121128/123523/534/100/20/
015020/20121128/123524/534/100/20/
015020/20121128/123530/534/100/20/
015020/20121128/123540/534/300/20/
015020/20121128/123700/534/150/20/
015020/20121128/123701/534/200/20/
015020/20121128/123709/534/100/20/
015020/20121128/123712/534/100/20/
015020/20121128/123721/534/100/20/
015020/20121128/123729/534/100/20/
015020/20121128/123738/534/100/20/
015020/20121128/123743/534/100/20/
015020/20121128/123743/534/110/20/
015020/20121128/123746/534/100/20/
015020/20121128/123750/534/100/20/
015020/20121128/123813/534/780/20/
015020/20121128/123853/534/100/20/
015020/20121128/123856/534/1480/20/
015020/20121128/123939/535/260/20/
015020/20121128/123947/535/660/20/
015020/20121128/123953/535/640/20/
015020/20121128/123956/535/260/20/
015020/20121128/123956/535/100/20/
015020/20121128/124015/535/100/20/
015020/20121128/124045/535/1080/20/
015020/20121128/124048/535/8080/20/
015020/20121128/124049/535/1000/20/
015020/20121128/124128/535/100/20/
015020/20121128/124241/534/100/10/
015020/20121128/124301/534/100/20/
015020/20121128/124301/535/11160/20/
015020/20121128/124308/535/100/20/
015020/20121128/124313/535/100/20/
015020/20121128/124316/535/100/20/
015020/20121128/124319/535/100/20/
015020/20121128/124320/535/300/20/
015020/20121128/124322/535/100/20/
015020/20121128/124324/535/400/20/
015020/20121128/124324/535/100/20/
015020/20121128/124327/535/100/20/
015020/20121128/124328/535/300/20/
015020/20121128/124330/535/100/20/
015020/20121128/124333/535/100/20/
015020/20121128/124336/535/4970/20/
015020/20121128/124336/536/10830/20/
015020/20121128/124358/536/180/10/
015020/20121128/124524/536/2040/20/
015020/20121128/124558/536/120/10/
015020/20121128/124608/536/4880/10/
015020/20121128/124913/534/360/10/
015020/20121128/124913/533/3650/10/
015020/20121128/125117/533/1300/10/
015020/20121128/125117/532/10500/10/
015020/20121128/125134/532/990/20/
015020/20121128/125154/532/100/10/
015020/20121128/125442/532/9010/10/
015020/20121128/125442/531/4760/10/
015020/20121128/125515/532/100/10/
015020/20121128/125636/532/3000/10/
015020/20121128/125830/532/100/10/
015020/20121128/125941/534/150/20/
015020/20121128/125945/534/100/20/
015020/20121128/125948/534/100/20/
015020/20121128/125952/534/100/20/
015020/20121128/125955/534/100/20/
015020/20121128/125959/534/100/20/
015020/20121128/130006/535/100/20/
015020/20121128/130011/536/100/20/
015020/20121128/130014/536/100/20/
015020/20121128/130018/536/100/20/
015020/20121128/130023/536/100/20/
015020/20121128/130112/536/100/20/
015020/20121128/130126/536/100/20/
015020/20121128/130137/533/990/10/
015020/20121128/130148/536/90/20/
015020/20121128/130203/536/100/20/
015020/20121128/130500/536/4270/20/
015020/20121128/130508/536/2510/10/
015020/20121128/130556/536/5000/10/
015020/20121128/130604/537/5200/20/
015020/20121128/130604/538/3280/20/
015020/20121128/130604/539/1520/20/
015020/20121128/130928/538/6410/20/
015020/20121128/130947/538/330/10/
015020/20121128/130951/538/2960/10/
015020/20121128/131048/538/500/10/
015020/20121128/131101/538/870/10/
015020/20121128/131225/538/2110/20/
015020/20121128/131242/538/800/10/
015020/20121128/131259/538/750/10/
015020/20121128/131323/538/6000/10/
015020/20121128/131324/538/350/10/
015020/20121128/131340/538/1150/20/
015020/20121128/131352/538/190/10/
015020/20121128/131405/538/1660/10/
015020/20121128/131410/538/1340/20/
015020/20121128/131411/538/1500/10/
015020/20121128/131412/539/1860/20/
015020/20121128/131441/538/160/10/
015020/20121128/131522/537/770/10/
015020/20121128/131601/537/100/10/
015020/20121128/131608/537/130/10/
015020/20121128/131608/536/1500/10/
015020/20121128/131738/539/110/20/
015020/20121128/132256/539/4840/20/
015020/20121128/132318/539/5000/10/
015020/20121128/132354/539/160/10/
015020/20121128/132827/539/5240/20/
015020/20121128/132933/538/1470/20/
015020/20121128/133340/538/500/20/
015020/20121128/133341/539/1000/20/
015020/20121128/133413/538/590/10/
015020/20121128/133417/537/2570/10/
015020/20121128/133612/537/4950/10/
015020/20121128/133619/537/300/10/
015020/20121128/133627/537/1000/10/
015020/20121128/133711/537/1370/10/
015020/20121128/133749/537/160/10/
015020/20121128/133840/537/90/10/
015020/20121128/133933/538/100/20/
015020/20121128/133942/536/310/10/
015020/20121128/134115/537/2490/20/
015020/20121128/134115/538/490/20/
015020/20121128/134136/538/2030/20/
015020/20121128/134143/537/2000/10/
015020/20121128/134147/538/2430/20/
015020/20121128/134205/538/1000/10/
015020/20121128/134233/539/3000/20/
015020/20121128/134430/539/1740/20/
015020/20121128/134610/539/290/10/
015020/20121128/134704/539/750/20/
015020/20121128/134717/539/260/10/
015020/20121128/134748/538/5200/10/
015020/20121128/134753/539/240/20/
015020/20121128/134801/539/760/10/
015020/20121128/134826/539/240/20/
015020/20121128/134916/539/1520/10/
015020/20121128/134931/539/3500/10/
015020/20121128/135053/538/300/10/
015020/20121128/135101/538/450/10/
015020/20121128/135121/538/260/10/
015020/20121128/135220/538/500/10/
015020/20121128/135412/537/190/10/
015020/20121128/135413/537/210/10/
015020/20121128/135413/532/190/10/
015020/20121128/135628/538/1600/20/
015020/20121128/135644/539/770/20/
015020/20121128/135645/539/1000/20/
015020/20121128/135657/538/4000/10/
015020/20121128/135739/539/100/20/
015020/20121128/135927/539/2380/20/
015020/20121128/135955/539/700/10/
015020/20121128/140034/538/280/20/
015020/20121128/140102/538/2720/10/
015020/20121128/140127/539/800/20/
015020/20121128/140127/540/960/20/
015020/20121128/140139/540/3730/20/
015020/20121128/140139/541/10500/20/
015020/20121128/140139/541/3770/10/
015020/20121128/140211/538/2000/10/
015020/20121128/140230/541/300/20/
015020/20121128/140345/541/140/20/
015020/20121128/140350/539/2000/10/
015020/20121128/140433/539/600/10/
015020/20121128/140505/538/2000/10/
015020/20121128/140505/537/5800/10/
015020/20121128/140734/537/2100/10/
015020/20121128/140742/536/280/10/
015020/20121128/140742/535/290/10/
015020/20121128/140742/533/600/10/
015020/20121128/140823/537/7760/20/
015020/20121128/140836/537/170/10/
015020/20121128/140843/537/2000/10/
015020/20121128/140944/539/6070/20/
015020/20121128/140951/539/3740/10/
015020/20121128/140956/540/9000/20/
015020/20121128/140956/541/8000/20/
015020/20121128/141005/541/2880/20/
015020/20121128/141009/541/120/10/
015020/20121128/141110/540/3000/20/
015020/20121128/141136/540/1000/20/
015020/20121128/141249/540/510/10/
015020/20121128/141257/540/490/20/
015020/20121128/141310/540/1000/20/
015020/20121128/141319/540/1000/20/
015020/20121128/141434/539/380/10/
015020/20121128/141434/538/100/10/
015020/20121128/141612/540/990/20/
015020/20121128/141619/540/2500/20/
015020/20121128/141651/540/640/20/
015020/20121128/141754/540/100/20/
015020/20121128/141804/540/1010/20/
015020/20121128/141813/540/100/20/
015020/20121128/141819/540/100/20/
015020/20121128/141824/540/100/20/
015020/20121128/141828/540/100/20/
015020/20121128/141832/540/100/20/
015020/20121128/141837/540/100/20/
015020/20121128/141840/540/4140/20/
015020/20121128/141852/540/400/10/
015020/20121128/141938/540/200/20/
015020/20121128/141955/540/3950/20/
015020/20121128/142024/540/950/10/
015020/20121128/142057/540/200/20/
015020/20121128/142057/541/2100/20/
015020/20121128/142101/541/7470/20/
015020/20121128/142101/542/10040/20/
015020/20121128/142101/542/2490/10/
015020/20121128/142108/543/5500/20/
015020/20121128/142114/543/3000/20/
015020/20121128/142121/543/10000/20/
015020/20121128/142122/543/7410/20/
015020/20121128/142122/544/17590/20/
015020/20121128/142132/544/29010/20/
015020/20121128/142134/544/5540/20/
015020/20121128/142136/544/1790/20/
015020/20121128/142148/544/6000/20/
015020/20121128/142206/543/100/20/
015020/20121128/142214/544/100/20/
015020/20121128/142218/544/220/20/
015020/20121128/142218/543/220/10/
015020/20121128/142222/544/180/20/
015020/20121128/142241/543/1000/10/
015020/20121128/142242/544/1000/20/
015020/20121128/142248/544/1620/20/
015020/20121128/142249/544/10000/20/
015020/20121128/142250/544/2230/20/
015020/20121128/142256/545/2030/20/
015020/20121128/142259/545/2000/20/
015020/20121128/142303/545/240/20/
015020/20121128/142304/545/130/20/
015020/20121128/142305/545/300/10/
015020/20121128/142309/547/970/20/
015020/20121128/142321/547/1040/20/
015020/20121128/142321/548/3260/20/
015020/20121128/142321/549/11000/20/
015020/20121128/142321/550/34740/20/
015020/20121128/142326/550/2350/20/
015020/20121128/142331/550/100/20/
015020/20121128/142334/550/100/20/
015020/20121128/142335/550/290/20/
015020/20121128/142336/550/950/20/
015020/20121128/142337/550/1150/20/
015020/20121128/142337/551/2850/20/
015020/20121128/142337/551/5580/20/
015020/20121128/142337/552/2750/20/
015020/20121128/142339/552/9720/20/
015020/20121128/142339/554/180/20/
015020/20121128/142339/555/11410/20/
015020/20121128/142349/556/180/20/
015020/20121128/142353/556/860/20/
015020/20121128/142354/557/100/20/
015020/20121128/142356/551/120/10/
015020/20121128/142404/556/130/20/
015020/20121128/142413/555/260/20/
015020/20121128/142424/555/1740/20/
015020/20121128/142424/556/2200/20/
015020/20121128/142424/557/6060/20/
015020/20121128/142424/555/500/20/
015020/20121128/142425/555/750/20/
015020/20121128/142425/557/2990/20/
015020/20121128/142425/557/1430/20/
015020/20121128/142430/558/2080/20/
015020/20121128/142432/558/960/20/
015020/20121128/142432/559/5000/20/
015020/20121128/142432/560/2820/20/
015020/20121128/142432/561/2500/10/
015020/20121128/142432/565/11510/10/
015020/20121128/142433/566/500/20/
015020/20121128/142433/567/500/20/
015020/20121128/142433/568/500/20/
015020/20121128/142433/569/2590/20/
015020/20121128/142433/570/5910/20/
015020/20121128/142433/565/510/10/
015020/20121128/142435/568/190/20/
015020/20121128/142440/568/2790/20/
015020/20121128/142445/567/230/20/
015020/20121128/142445/568/370/20/
015020/20121128/142447/566/3840/10/
015020/20121128/142447/566/1160/20/
015020/20121128/142447/566/2680/10/
015020/20121128/142447/565/8770/10/
015020/20121128/142448/568/740/20/
015020/20121128/142448/569/260/20/
015020/20121128/142448/565/620/10/
015020/20121128/142451/565/380/20/
015020/20121128/142453/565/2000/10/
015020/20121128/142456/565/3040/10/
015020/20121128/142458/565/500/10/
015020/20121128/142501/565/4020/20/
015020/20121128/142504/565/5480/20/
015020/20121128/142506/565/2010/10/
015020/20121128/142508/565/510/10/
015020/20121128/142510/565/1000/10/
015020/20121128/142510/565/500/10/
015020/20121128/142511/565/2000/10/
015020/20121128/142512/565/2180/10/
015020/20121128/142526/562/10060/10/
015020/20121128/142531/562/1070/10/
015020/20121128/142531/562/360/10/
015020/20121128/142536/563/1000/20/
015020/20121128/142537/565/6020/20/
015020/20121128/142539/565/10380/20/
015020/20121128/142541/566/1620/20/
015020/20121128/142544/566/90/20/
015020/20121128/142544/566/290/20/
015020/20121128/142545/566/1130/10/
015020/20121128/142549/566/110/20/
015020/20121128/142549/565/100/10/
015020/20121128/142554/565/1330/20/
015020/20121128/142555/565/350/20/
015020/20121128/142557/563/260/10/
015020/20121128/142601/565/170/20/
015020/20121128/142610/565/500/20/
015020/20121128/142611/565/500/20/
015020/20121128/142620/563/110/10/
015020/20121128/142625/565/110/20/
015020/20121128/142629/564/880/10/
015020/20121128/142629/563/30040/10/
015020/20121128/142629/561/2580/10/
015020/20121128/142631/561/250/10/
015020/20121128/142633/561/3050/10/
015020/20121128/142635/564/90/20/
015020/20121128/142640/561/1730/10/
015020/20121128/142642/560/4060/10/
015020/20121128/142642/561/8270/20/
015020/20121128/142642/564/11730/20/
015020/20121128/142643/564/20000/20/
015020/20121128/142645/563/500/20/
015020/20121128/142651/563/3500/20/
015020/20121128/142651/564/16550/20/
015020/20121128/142651/564/4170/20/
015020/20121128/142651/564/20000/20/
015020/20121128/142654/564/120/20/
015020/20121128/142656/564/500/20/
015020/20121128/142659/563/100/20/
015020/20121128/142700/563/1000/20/
015020/20121128/142701/563/300/20/
015020/20121128/142703/563/1080/20/
015020/20121128/142704/563/1000/20/
015020/20121128/142704/564/1000/20/
015020/20121128/142704/564/160/20/
015020/20121128/142705/564/1000/20/
015020/20121128/142705/564/1000/20/
015020/20121128/142706/564/1070/20/
015020/20121128/142707/564/260/20/
015020/20121128/142708/564/400/20/
015020/20121128/142709/564/3040/20/
015020/20121128/142709/565/13630/20/
015020/20121128/142712/566/1620/20/
015020/20121128/142713/564/100/20/
015020/20121128/142713/564/2430/20/
015020/20121128/142713/566/13320/20/
015020/20121128/142714/567/200/20/
015020/20121128/142715/567/5310/20/
015020/20121128/142716/568/110/20/
015020/20121128/142717/568/500/20/
015020/20121128/142717/568/3200/20/
015020/20121128/142718/568/1000/20/
015020/20121128/142718/568/390/20/
015020/20121128/142718/569/500/20/
015020/20121128/142718/570/170/20/
015020/20121128/142721/570/140/20/
015020/20121128/142722/570/440/20/
015020/20121128/142732/568/120/10/
015020/20121128/142732/566/350/10/
015020/20121128/142732/566/87000/10/
015020/20121128/142733/566/5320/10/
015020/20121128/142733/566/2430/10/
015020/20121128/142736/566/100/20/
015020/20121128/142739/566/100/20/
015020/20121128/142742/563/3240/10/
015020/20121128/142743/563/140/10/
015020/20121128/142752/565/100/20/
015020/20121128/142752/565/3760/20/
015020/20121128/142753/565/790/20/
015020/20121128/142753/565/430/20/
015020/20121128/142753/566/9570/20/
015020/20121128/142753/566/200/20/
015020/20121128/142755/566/220/20/
015020/20121128/142755/566/1940/20/
015020/20121128/142755/566/200/20/
015020/20121128/142757/565/610/20/
015020/20121128/142757/565/460/10/
015020/20121128/142759/565/14540/20/
015020/20121128/142800/566/90/20/
015020/20121128/142801/566/90/20/
015020/20121128/142802/566/100/20/
015020/20121128/142803/566/220/20/
015020/20121128/142805/566/90/20/
015020/20121128/142806/566/1030/20/
015020/20121128/142807/568/100/20/
015020/20121128/142809/568/100/20/
015020/20121128/142811/567/90/20/
015020/20121128/142811/567/360/20/
015020/20121128/142813/567/90/20/
015020/20121128/142814/566/9340/10/
015020/20121128/142817/566/90/20/
015020/20121128/142819/566/160/20/
015020/20121128/142823/563/120/10/
015020/20121128/142827/563/940/10/
015020/20121128/142827/561/4120/10/
015020/20121128/142827/560/25740/10/
015020/20121128/142829/556/5040/10/
015020/20121128/142831/555/470/10/
015020/20121128/142831/555/3260/10/
015020/20121128/142832/555/4570/10/
015020/20121128/142832/555/3260/10/
015020/20121128/142835/560/90/20/
015020/20121128/142839/555/110/10/
015020/20121128/142839/552/1560/10/
015020/20121128/142842/559/90/20/
015020/20121128/142846/559/90/20/
015020/20121128/142849/559/1010/20/
015020/20121128/142850/558/320/20/
015020/20121128/142854/558/90/20/
015020/20121128/142902/557/90/20/
015020/20121128/142906/555/5630/10/
015020/20121128/142907/556/4040/20/
015020/20121128/142907/555/1000/10/
015020/20121128/142909/555/360/10/
015020/20121128/142915/555/100/10/
015020/20121128/142919/556/420/20/
015020/20121128/142931/556/590/20/
015020/20121128/142935/556/480/10/
015020/20121128/142935/555/3550/10/
015020/20121128/142936/555/4090/10/
015020/20121128/142937/556/550/10/
015020/20121128/142947/556/540/10/
015020/20121128/142947/555/3060/10/
015020/20121128/142950/557/90/20/
015020/20121128/142954/557/100/20/
015020/20121128/142955/555/2000/10/
015020/20121128/142956/555/12250/10/
015020/20121128/143003/552/7770/10/
015020/20121128/143003/551/5780/10/
015020/20121128/143003/550/1100/10/
015020/20121128/143005/550/4130/10/
015020/20121128/143007/550/500/10/
015020/20121128/143020/551/2530/10/
015020/20121128/143053/555/1030/20/
015020/20121128/143115/556/1280/20/
015020/20121128/143115/557/740/20/
015020/20121128/143132/557/320/20/
015020/20121128/143140/557/1690/10/
015020/20121128/143157/557/1250/20/
015020/20121128/143210/557/3000/10/
015020/20121128/143229/557/780/10/
015020/20121128/143229/556/2000/10/
015020/20121128/143229/553/2020/10/
015020/20121128/143229/552/8240/10/
015020/20121128/143234/553/1940/10/
015020/20121128/143234/553/1960/10/
015020/20121128/143234/552/6990/10/
015020/20121128/143234/552/200/10/
015020/20121128/143237/552/3000/10/
015020/20121128/143242/552/7510/10/
015020/20121128/143249/552/1000/10/
015020/20121128/143253/552/1000/10/
015020/20121128/143253/552/1590/10/
015020/20121128/143303/556/740/20/
015020/20121128/143317/552/500/10/
015020/20121128/143318/552/860/10/
015020/20121128/143320/552/140/20/
015020/20121128/143337/552/860/10/
015020/20121128/143337/551/1440/10/
015020/20121128/143351/552/5440/10/
015020/20121128/143351/551/4560/10/
015020/20121128/143358/551/3630/10/
015020/20121128/143406/551/250/20/
015020/20121128/143417/550/360/10/
015020/20121128/143417/549/200/10/
015020/20121128/143417/548/2500/10/
015020/20121128/143417/551/500/20/
015020/20121128/143428/550/500/10/
015020/20121128/143453/551/580/20/
015020/20121128/143502/551/510/10/
015020/20121128/143512/551/500/10/
015020/20121128/143514/551/410/10/
015020/20121128/143525/551/390/20/
015020/20121128/143539/551/1010/10/
015020/20121128/143558/551/1500/10/
015020/20121128/143646/551/370/10/
015020/20121128/143658/551/1000/10/
015020/20121128/143659/551/500/10/
015020/20121128/143708/551/240/10/
015020/20121128/143711/550/4770/10/
015020/20121128/143713/550/10000/10/
015020/20121128/143714/550/2230/10/
015020/20121128/143714/549/1770/10/
015020/20121128/143753/549/190/10/
015020/20121128/143800/549/960/10/
015020/20121128/143803/548/1000/10/
015020/20121128/143831/547/1970/10/
015020/20121128/143831/546/860/10/
015020/20121128/143838/546/1000/10/
015020/20121128/143901/546/1570/10/
015020/20121128/143916/546/1000/10/
015020/20121128/143916/545/4000/10/
015020/20121128/143932/545/780/10/
015020/20121128/143941/545/2000/10/
015020/20121128/143959/546/920/10/
015020/20121128/144011/546/180/10/
015020/20121128/144011/545/9820/10/
015020/20121128/144015/545/2200/10/
015020/20121128/144024/545/3000/10/
015020/20121128/144028/545/3700/10/
015020/20121128/144046/545/1000/20/
015020/20121128/144055/545/790/20/
015020/20121128/144236/545/100/10/
015020/20121128/144240/544/770/10/
015020/20121128/144255/544/790/10/
015020/20121128/144315/543/100/10/
015020/20121128/144344/544/1500/20/
015020/20121128/144357/544/710/20/
015020/20121128/144403/543/1000/10/
015020/20121128/144405/543/6480/10/
015020/20121128/144405/542/2330/10/
015020/20121128/144405/541/11370/10/
015020/20121128/144405/540/9580/10/
015020/20121128/144422/540/100/20/
015020/20121128/144437/540/150/20/
015020/20121128/144508/539/150/10/
015020/20121128/144508/538/1070/10/
015020/20121128/144508/536/7950/10/
015020/20121128/144508/535/2360/10/
015020/20121128/144508/533/4390/10/
015020/20121128/144508/532/4570/10/
015020/20121128/144508/531/12170/10/
015020/20121128/144523/538/1010/10/
015020/20121128/144523/533/440/10/
015020/20121128/144630/537/170/10/
015020/20121128/144630/536/1830/10/
015020/20121128/144632/536/13030/10/
015020/20121128/144632/535/380/10/
015020/20121128/144632/534/100/10/
015020/20121128/144632/533/4160/10/
015020/20121128/144632/533/2330/20/
015020/20121128/144656/535/150/10/
015020/20121128/144656/534/270/10/
015020/20121128/144731/535/4520/10/
015020/20121128/144731/534/5930/10/
015020/20121128/144731/533/7460/10/
015020/20121128/144731/532/12090/10/
015020/20121128/144735/535/370/10/
015020/20121128/144743/535/1520/10/
015020/20121128/144743/534/8510/10/
015020/20121128/144757/534/1600/10/
015020/20121128/144757/532/3110/10/
015020/20121128/144757/531/6670/10/
015020/20121128/144757/530/9460/10/
015020/20121128/144855/536/90/20/
015020/20121128/144856/532/740/10/
015020/20121128/144921/537/3750/20/
015020/20121128/144921/538/3990/20/
015020/20121128/144921/539/2000/20/
015020/20121128/144921/540/5260/20/
015020/20121128/144945/532/1210/10/
015020/20121128/144955/538/490/20/
015020/20121128/144958/532/110/10/
015020/20121128/150000/534/26600/10/
