015020/20121217/90001/462/4450/10/
015020/20121217/90154/462/5010/10/
015020/20121217/90156/462/1000/10/
015020/20121217/90214/462/450/10/
015020/20121217/90452/464/120/10/
015020/20121217/90511/461/400/10/
015020/20121217/90527/460/5600/10/
015020/20121217/90612/459/400/10/
015020/20121217/90717/459/500/10/
015020/20121217/90819/458/940/10/
015020/20121217/91102/458/550/10/
015020/20121217/91102/457/2100/10/
015020/20121217/91102/456/500/10/
015020/20121217/91117/456/1900/10/
015020/20121217/91137/456/130/20/
015020/20121217/91138/455/2180/10/
015020/20121217/91216/456/3590/20/
015020/20121217/91857/457/650/10/
015020/20121217/91905/456/1930/10/
015020/20121217/91911/456/840/10/
015020/20121217/91918/456/1000/20/
015020/20121217/91919/456/670/20/
015020/20121217/92156/456/330/10/
015020/20121217/92208/455/3700/10/
015020/20121217/92208/454/1300/10/
015020/20121217/92308/456/500/20/
015020/20121217/92316/454/1000/10/
015020/20121217/92337/454/400/10/
015020/20121217/92434/453/1600/10/
015020/20121217/92509/452/2000/10/
015020/20121217/92906/459/120/20/
015020/20121217/93004/459/90/20/
015020/20121217/93332/457/100/10/
015020/20121217/93436/456/420/10/
015020/20121217/93634/455/200/10/
015020/20121217/93738/454/500/10/
015020/20121217/93858/453/1010/10/
015020/20121217/93935/453/1230/10/
015020/20121217/94030/452/1210/10/
015020/20121217/94053/453/720/10/
015020/20121217/94130/452/3020/10/
015020/20121217/94211/452/940/10/
015020/20121217/94211/451/2710/10/
015020/20121217/94221/450/4520/10/
015020/20121217/94229/449/6400/10/
015020/20121217/94229/448/300/10/
015020/20121217/94300/448/910/10/
015020/20121217/94302/448/90/10/
015020/20121217/94302/448/1000/20/
015020/20121217/94315/447/1010/10/
015020/20121217/94331/448/1420/20/
015020/20121217/94332/448/2590/10/
015020/20121217/94450/447/1190/10/
015020/20121217/94523/447/1020/20/
015020/20121217/94532/447/300/20/
015020/20121217/94604/446/1640/10/
015020/20121217/94620/447/260/20/
015020/20121217/94708/446/1140/10/
015020/20121217/94712/445/2610/10/
015020/20121217/94731/445/1050/20/
015020/20121217/94732/445/1500/20/
015020/20121217/94735/446/170/20/
015020/20121217/94750/445/1030/10/
015020/20121217/94750/445/1470/10/
015020/20121217/94758/445/1030/20/
015020/20121217/94814/445/680/10/
015020/20121217/94819/445/220/20/
015020/20121217/94852/445/1180/10/
015020/20121217/94926/445/1330/20/
015020/20121217/94926/446/1280/20/
015020/20121217/95041/445/440/20/
015020/20121217/95223/445/580/10/
015020/20121217/95350/444/2510/10/
015020/20121217/95612/445/430/20/
015020/20121217/95930/445/280/20/
015020/20121217/95936/446/1000/20/
015020/20121217/100109/446/100/20/
015020/20121217/100115/446/200/10/
015020/20121217/100129/446/410/20/
015020/20121217/100607/450/4350/10/
015020/20121217/100650/450/1460/20/
015020/20121217/102611/448/110/10/
015020/20121217/102611/447/120/10/
015020/20121217/102611/446/1630/10/
015020/20121217/102611/445/380/10/
015020/20121217/102705/445/1930/10/
015020/20121217/103309/446/250/20/
015020/20121217/105338/447/100/10/
015020/20121217/105338/446/1960/10/
015020/20121217/111114/447/90/10/
015020/20121217/111233/446/430/10/
015020/20121217/111515/446/2640/10/
015020/20121217/111515/445/1770/10/
015020/20121217/111531/445/190/20/
015020/20121217/111546/445/280/20/
015020/20121217/111621/444/3960/10/
015020/20121217/111703/444/1010/20/
015020/20121217/111846/445/220/20/
015020/20121217/111956/445/1140/10/
015020/20121217/112316/449/90/20/
015020/20121217/114219/448/850/10/
015020/20121217/114651/446/320/10/
015020/20121217/114655/444/200/10/
015020/20121217/114755/444/3840/10/
015020/20121217/114758/444/100/20/
015020/20121217/114823/444/1080/20/
015020/20121217/114925/444/700/10/
015020/20121217/114943/444/190/20/
015020/20121217/114947/444/3470/20/
015020/20121217/115040/444/3680/20/
015020/20121217/115158/447/90/20/
015020/20121217/115604/444/1560/10/
015020/20121217/115645/444/1040/20/
015020/20121217/115725/444/960/10/
015020/20121217/120723/447/100/20/
015020/20121217/120952/446/2000/10/
015020/20121217/121006/447/1000/20/
015020/20121217/121017/447/1000/20/
015020/20121217/121556/446/1000/10/
015020/20121217/121558/447/1000/20/
015020/20121217/121630/446/420/10/
015020/20121217/121850/446/430/10/
015020/20121217/122004/445/4790/10/
015020/20121217/122609/446/570/20/
015020/20121217/122609/447/1000/20/
015020/20121217/122706/447/950/10/
015020/20121217/123329/448/500/20/
015020/20121217/123401/449/500/20/
015020/20121217/123418/449/420/20/
015020/20121217/123840/449/1290/10/
015020/20121217/125159/449/100/20/
015020/20121217/125242/448/3960/10/
015020/20121217/125738/447/1480/10/
015020/20121217/125738/446/2650/10/
015020/20121217/125738/445/870/10/
015020/20121217/130243/448/4850/20/
015020/20121217/130302/449/5410/20/
015020/20121217/130336/450/6540/20/
015020/20121217/130734/450/1090/20/
015020/20121217/130734/451/1090/20/
015020/20121217/130747/451/1000/10/
015020/20121217/131205/446/100/10/
015020/20121217/132534/446/130/10/
015020/20121217/132841/449/560/20/
015020/20121217/132919/450/2980/20/
015020/20121217/133224/451/2570/20/
015020/20121217/133320/452/870/20/
015020/20121217/133328/452/430/20/
015020/20121217/134251/451/3010/10/
015020/20121217/134453/452/1000/10/
015020/20121217/135142/452/410/10/
015020/20121217/135142/451/1030/10/
015020/20121217/135142/450/6560/10/
015020/20121217/135237/450/440/10/
015020/20121217/135757/445/150/10/
015020/20121217/135813/448/8250/20/
015020/20121217/135910/448/170/20/
015020/20121217/140012/445/1040/10/
015020/20121217/140046/445/500/10/
015020/20121217/140117/444/1990/10/
015020/20121217/140145/444/100/10/
015020/20121217/140231/445/370/20/
015020/20121217/140311/445/170/20/
015020/20121217/140323/445/520/20/
015020/20121217/140402/445/90/20/
015020/20121217/140530/445/90/20/
015020/20121217/140600/449/130/20/
015020/20121217/140604/449/100/20/
015020/20121217/140608/449/100/20/
015020/20121217/140611/449/100/20/
015020/20121217/140614/449/90/20/
015020/20121217/140617/450/110/20/
015020/20121217/140834/449/100/20/
015020/20121217/140840/449/100/20/
015020/20121217/140846/449/100/20/
015020/20121217/140950/449/100/20/
015020/20121217/140955/449/100/20/
015020/20121217/140959/449/100/20/
015020/20121217/141003/449/100/20/
015020/20121217/141558/445/100/10/
015020/20121217/141603/444/100/10/
015020/20121217/141626/444/100/10/
015020/20121217/141629/444/100/10/
015020/20121217/141633/444/100/10/
015020/20121217/141637/444/100/10/
015020/20121217/141642/444/100/10/
015020/20121217/141902/444/430/10/
015020/20121217/142012/445/500/10/
015020/20121217/142812/445/130/10/
015020/20121217/142812/444/150/10/
015020/20121217/142842/444/2270/10/
015020/20121217/142905/444/460/20/
015020/20121217/142922/444/1030/10/
015020/20121217/142922/443/4050/10/
015020/20121217/143002/447/90/20/
015020/20121217/143913/444/3250/10/
015020/20121217/143944/444/700/10/
015020/20121217/144055/446/1470/20/
015020/20121217/144133/448/350/20/
015020/20121217/144228/449/320/20/
015020/20121217/144430/444/3590/10/
015020/20121217/144430/443/420/10/
015020/20121217/150000/448/9650/20/
