015020/20121106/90000/771/5630/10/
015020/20121106/90003/773/1070/20/
015020/20121106/90003/775/110/20/
015020/20121106/90003/778/200/20/
015020/20121106/90003/779/200/20/
015020/20121106/90003/780/1420/20/
015020/20121106/90018/773/2000/10/
015020/20121106/90018/771/4730/10/
015020/20121106/90018/770/5000/10/
015020/20121106/90022/770/250/20/
015020/20121106/90027/770/2000/20/
015020/20121106/90036/770/330/20/
015020/20121106/90044/768/200/10/
015020/20121106/90044/767/660/10/
015020/20121106/90044/765/1390/10/
015020/20121106/90048/770/130/20/
015020/20121106/90101/765/2600/10/
015020/20121106/90144/766/1080/10/
015020/20121106/90144/766/2000/10/
015020/20121106/90149/766/6920/10/
015020/20121106/90206/766/2080/10/
015020/20121106/90209/765/1970/10/
015020/20121106/90209/764/1000/10/
015020/20121106/90209/763/1340/10/
015020/20121106/90209/761/7640/10/
015020/20121106/90209/760/4710/10/
015020/20121106/90219/760/2000/20/
015020/20121106/90219/760/650/20/
015020/20121106/90220/760/300/20/
015020/20121106/90222/760/3460/20/
015020/20121106/90229/760/1000/10/
015020/20121106/90249/770/930/20/
015020/20121106/90249/778/1070/20/
015020/20121106/90313/762/520/10/
015020/20121106/90313/761/6990/10/
015020/20121106/90313/760/6070/10/
015020/20121106/90314/760/200/20/
015020/20121106/90314/760/3000/20/
015020/20121106/90314/760/840/20/
015020/20121106/90349/761/4580/10/
015020/20121106/90349/760/6180/10/
015020/20121106/90349/759/2750/10/
015020/20121106/90349/757/970/10/
015020/20121106/90349/754/2000/10/
015020/20121106/90349/753/4000/10/
015020/20121106/90349/752/7320/10/
015020/20121106/90349/751/5000/10/
015020/20121106/90349/750/11920/10/
015020/20121106/90432/762/580/10/
015020/20121106/90434/762/430/20/
015020/20121106/90500/762/90/10/
015020/20121106/90501/762/270/10/
015020/20121106/90523/762/5000/10/
015020/20121106/90527/762/1310/10/
015020/20121106/90533/762/120/10/
015020/20121106/90538/762/410/10/
015020/20121106/90543/761/510/10/
015020/20121106/90547/762/580/20/
015020/20121106/90600/763/2000/10/
015020/20121106/90612/763/3000/10/
015020/20121106/90617/763/1350/10/
015020/20121106/90618/762/3930/10/
015020/20121106/90650/761/5020/10/
015020/20121106/90650/760/4990/10/
015020/20121106/90713/760/550/20/
015020/20121106/90714/755/1000/10/
015020/20121106/90715/760/100/20/
015020/20121106/90720/755/230/10/
015020/20121106/90721/755/500/10/
015020/20121106/90732/756/3100/10/
015020/20121106/90736/756/1410/10/
015020/20121106/90736/755/7590/10/
015020/20121106/90746/756/750/10/
015020/20121106/90750/756/250/10/
015020/20121106/90809/755/140/10/
015020/20121106/90809/754/2030/10/
015020/20121106/90809/753/2100/10/
015020/20121106/90814/756/130/20/
015020/20121106/90817/753/1980/10/
015020/20121106/90817/752/1940/10/
015020/20121106/90817/752/700/10/
015020/20121106/90820/756/500/20/
015020/20121106/90821/756/350/20/
015020/20121106/90821/759/160/20/
015020/20121106/90912/758/5020/20/
015020/20121106/90925/758/310/20/
015020/20121106/90930/758/2010/10/
015020/20121106/90930/755/7060/10/
015020/20121106/90941/759/170/20/
015020/20121106/91008/758/1000/20/
015020/20121106/91009/759/7860/20/
015020/20121106/91009/760/1350/20/
015020/20121106/91022/760/1000/10/
015020/20121106/91034/760/2790/10/
015020/20121106/91035/760/210/20/
015020/20121106/91037/760/4900/10/
015020/20121106/91041/760/5390/10/
015020/20121106/91042/758/190/10/
015020/20121106/91047/760/1000/20/
015020/20121106/91049/760/100/20/
015020/20121106/91057/760/100/20/
015020/20121106/91058/760/270/20/
015020/20121106/91104/760/100/20/
015020/20121106/91128/760/640/20/
015020/20121106/91131/760/3410/10/
015020/20121106/91140/760/950/10/
015020/20121106/91147/760/500/20/
015020/20121106/91147/760/300/20/
015020/20121106/91152/759/2000/10/
015020/20121106/91223/759/1070/10/
015020/20121106/91229/759/1440/10/
015020/20121106/91229/758/1100/10/
015020/20121106/91238/758/2000/10/
015020/20121106/91256/760/1000/20/
015020/20121106/91257/758/3220/10/
015020/20121106/91257/757/5000/10/
015020/20121106/91257/756/5010/10/
015020/20121106/91257/755/2030/10/
015020/20121106/91302/760/330/20/
015020/20121106/91309/760/200/10/
015020/20121106/91310/760/200/10/
015020/20121106/91313/761/1000/20/
015020/20121106/91328/761/230/20/
015020/20121106/91330/761/1760/20/
015020/20121106/91341/760/510/10/
015020/20121106/91352/760/630/10/
015020/20121106/91434/761/2000/10/
015020/20121106/91454/761/3420/20/
015020/20121106/91459/761/1110/20/
015020/20121106/91500/761/920/10/
015020/20121106/91504/760/550/10/
015020/20121106/91505/761/1260/20/
015020/20121106/91508/761/90/10/
015020/20121106/91521/762/540/20/
015020/20121106/91524/762/110/20/
015020/20121106/91534/762/110/20/
015020/20121106/91538/762/590/20/
015020/20121106/91538/763/1660/20/
015020/20121106/91715/764/580/20/
015020/20121106/91715/765/470/20/
015020/20121106/91715/766/5250/20/
015020/20121106/91715/767/780/20/
015020/20121106/91752/767/3010/20/
015020/20121106/91800/767/6710/20/
015020/20121106/91933/767/920/10/
015020/20121106/91949/770/810/20/
015020/20121106/91951/770/600/10/
015020/20121106/91958/770/3610/10/
015020/20121106/92009/772/420/20/
015020/20121106/92134/767/1700/10/
015020/20121106/92142/767/6000/10/
015020/20121106/92144/767/1000/10/
015020/20121106/92145/767/450/10/
015020/20121106/92155/767/3430/10/
015020/20121106/92159/767/550/10/
015020/20121106/92309/770/1100/20/
015020/20121106/92313/767/1270/10/
015020/20121106/92331/767/2000/10/
015020/20121106/92348/767/110/20/
015020/20121106/92405/769/100/20/
015020/20121106/92512/766/560/10/
015020/20121106/92513/766/100/20/
015020/20121106/92545/765/570/10/
015020/20121106/92557/765/2360/10/
015020/20121106/92558/765/1570/10/
015020/20121106/92559/766/1760/20/
015020/20121106/92618/765/2520/10/
015020/20121106/92620/765/100/20/
015020/20121106/92627/765/380/20/
015020/20121106/92633/765/1010/10/
015020/20121106/92643/765/660/10/
015020/20121106/92645/765/1000/10/
015020/20121106/92656/765/430/10/
015020/20121106/92709/764/1500/10/
015020/20121106/92727/764/1860/10/
015020/20121106/92732/764/640/10/
015020/20121106/92740/763/2000/10/
015020/20121106/92741/763/250/10/
015020/20121106/92741/762/110/10/
015020/20121106/92750/762/2330/10/
015020/20121106/92806/762/1200/10/
015020/20121106/92807/762/1430/10/
015020/20121106/92810/762/2000/20/
015020/20121106/92814/762/3700/20/
015020/20121106/92828/762/1000/10/
015020/20121106/92927/763/1360/20/
015020/20121106/92927/764/640/20/
015020/20121106/92952/764/200/20/
015020/20121106/93044/764/2660/20/
015020/20121106/93104/764/2760/10/
015020/20121106/93140/764/580/10/
015020/20121106/93216/763/1630/10/
015020/20121106/93216/762/5210/10/
015020/20121106/93216/761/3200/10/
015020/20121106/93244/761/150/10/
015020/20121106/93251/761/2110/10/
015020/20121106/93251/760/3890/10/
015020/20121106/93254/760/4740/10/
015020/20121106/93309/760/2570/10/
015020/20121106/93330/760/3910/20/
015020/20121106/93331/760/1150/10/
015020/20121106/93341/760/9850/20/
015020/20121106/93402/761/230/20/
015020/20121106/93427/760/5000/10/
015020/20121106/93434/760/100/10/
015020/20121106/93452/760/90/10/
015020/20121106/93507/761/2880/20/
015020/20121106/93512/761/100/20/
015020/20121106/93515/761/2290/20/
015020/20121106/93623/761/3560/10/
015020/20121106/93623/760/1740/10/
015020/20121106/93628/760/680/10/
015020/20121106/93704/760/1040/10/
015020/20121106/93705/760/1000/10/
015020/20121106/93708/760/6870/10/
015020/20121106/93731/760/1000/10/
015020/20121106/93748/760/4160/10/
015020/20121106/93753/760/1370/10/
015020/20121106/93800/760/2290/10/
015020/20121106/93853/762/1310/20/
015020/20121106/93947/762/1720/20/
015020/20121106/93959/763/3220/20/
015020/20121106/94034/764/2010/20/
015020/20121106/94034/764/990/10/
015020/20121106/94034/763/1920/10/
015020/20121106/94034/765/3310/20/
015020/20121106/94034/766/1550/20/
015020/20121106/94117/766/380/10/
015020/20121106/94117/767/520/20/
015020/20121106/94121/766/500/20/
015020/20121106/94121/767/400/20/
015020/20121106/94200/763/1320/10/
015020/20121106/94200/762/1010/10/
015020/20121106/94200/761/2550/10/
015020/20121106/94200/760/690/10/
015020/20121106/94225/760/2000/10/
015020/20121106/94232/760/420/10/
015020/20121106/94244/760/2020/10/
015020/20121106/94245/760/2000/10/
015020/20121106/94319/760/3180/10/
015020/20121106/94443/761/170/20/
015020/20121106/94718/760/370/10/
015020/20121106/94733/763/230/20/
015020/20121106/94910/763/1000/20/
015020/20121106/95031/762/210/10/
015020/20121106/95033/762/290/10/
015020/20121106/95047/761/4010/10/
015020/20121106/95047/760/4160/10/
015020/20121106/95054/760/10460/10/
015020/20121106/95054/759/10190/10/
015020/20121106/95054/758/5830/10/
015020/20121106/95120/758/5000/10/
015020/20121106/95143/758/300/10/
015020/20121106/95144/758/2470/10/
015020/20121106/95144/758/500/10/
015020/20121106/95147/758/260/10/
015020/20121106/95147/757/4020/10/
015020/20121106/95147/757/6970/10/
015020/20121106/95153/757/500/10/
015020/20121106/95202/758/150/20/
015020/20121106/95227/758/210/10/
015020/20121106/95232/758/190/10/
015020/20121106/95245/757/1040/10/
015020/20121106/95255/757/300/20/
015020/20121106/95301/757/280/20/
015020/20121106/95304/757/730/20/
015020/20121106/95317/757/150/10/
015020/20121106/95320/757/620/10/
015020/20121106/95336/757/3460/20/
015020/20121106/95337/757/500/10/
015020/20121106/95351/757/300/10/
015020/20121106/95354/757/100/20/
015020/20121106/95401/756/290/10/
015020/20121106/95411/756/2960/10/
015020/20121106/95425/756/1000/20/
015020/20121106/95439/755/4000/10/
015020/20121106/95454/755/1500/10/
015020/20121106/95458/755/300/10/
015020/20121106/95502/755/2000/10/
015020/20121106/95504/755/1500/10/
015020/20121106/95522/755/2240/10/
015020/20121106/95539/755/1510/20/
015020/20121106/95541/755/150/20/
015020/20121106/95602/754/310/10/
015020/20121106/95604/754/10680/10/
015020/20121106/95609/754/1000/10/
015020/20121106/95610/754/260/10/
015020/20121106/95614/754/300/10/
015020/20121106/95624/754/2970/10/
015020/20121106/95624/753/12830/10/
015020/20121106/95624/752/9220/10/
015020/20121106/95632/752/1090/10/
015020/20121106/95633/752/6550/10/
015020/20121106/95635/753/500/10/
015020/20121106/95635/752/1500/10/
015020/20121106/95638/752/5520/10/
015020/20121106/95640/752/1800/10/
015020/20121106/95640/751/23280/10/
015020/20121106/95640/750/3180/10/
015020/20121106/95640/753/2000/20/
015020/20121106/95641/750/23590/10/
015020/20121106/95648/750/360/10/
015020/20121106/95657/752/300/20/
015020/20121106/95657/753/340/20/
015020/20121106/95717/752/410/10/
015020/20121106/95726/752/490/10/
015020/20121106/95730/751/10800/10/
015020/20121106/95735/751/300/10/
015020/20121106/95835/752/350/20/
015020/20121106/95840/752/770/20/
015020/20121106/95843/752/280/10/
015020/20121106/95851/752/130/20/
015020/20121106/95905/752/3060/20/
015020/20121106/95906/751/7710/10/
015020/20121106/95929/752/540/20/
015020/20121106/95939/752/190/20/
015020/20121106/95956/751/3350/10/
015020/20121106/95958/751/300/10/
015020/20121106/100007/751/980/10/
015020/20121106/100014/752/390/20/
015020/20121106/100016/751/780/10/
015020/20121106/100028/751/480/10/
015020/20121106/100047/750/380/10/
015020/20121106/100047/750/24740/10/
015020/20121106/100047/749/3720/10/
015020/20121106/100140/748/2040/10/
015020/20121106/100141/748/2430/10/
015020/20121106/100152/747/4960/10/
015020/20121106/100207/747/950/20/
015020/20121106/100211/747/2080/10/
015020/20121106/100213/747/100/20/
015020/20121106/100244/747/1560/10/
015020/20121106/100245/747/1840/10/
015020/20121106/100304/747/6780/10/
015020/20121106/100315/746/190/10/
015020/20121106/100319/746/990/10/
015020/20121106/100319/745/1240/10/
015020/20121106/100325/745/1280/10/
015020/20121106/100327/745/850/10/
015020/20121106/100327/745/1500/10/
015020/20121106/100330/745/150/10/
015020/20121106/100330/745/1000/10/
015020/20121106/100332/745/2000/10/
015020/20121106/100350/746/200/10/
015020/20121106/100356/746/2000/10/
015020/20121106/100415/746/2000/10/
015020/20121106/100429/746/1010/10/
015020/20121106/100435/747/230/10/
015020/20121106/100452/746/940/10/
015020/20121106/100452/747/500/20/
015020/20121106/100453/747/270/20/
015020/20121106/100544/749/180/20/
015020/20121106/100549/750/300/20/
015020/20121106/100552/750/2790/20/
015020/20121106/100603/751/4700/20/
015020/20121106/100603/752/15300/20/
015020/20121106/100603/752/360/20/
015020/20121106/100603/755/2410/20/
015020/20121106/100603/757/230/20/
015020/20121106/100623/756/630/20/
015020/20121106/100623/756/90/10/
015020/20121106/100625/755/420/20/
015020/20121106/100630/755/200/20/
015020/20121106/100638/755/500/20/
015020/20121106/100639/751/1880/10/
015020/20121106/100639/750/5110/10/
015020/20121106/100640/750/100/20/
015020/20121106/100645/750/300/20/
015020/20121106/100656/750/1700/20/
015020/20121106/100703/750/2020/10/
015020/20121106/100734/751/1000/10/
015020/20121106/100734/750/1000/10/
015020/20121106/100736/750/200/10/
015020/20121106/100743/750/200/10/
015020/20121106/100819/751/1300/10/
015020/20121106/100827/751/2200/10/
015020/20121106/100858/753/500/20/
015020/20121106/100916/753/510/10/
015020/20121106/100922/751/150/10/
015020/20121106/100925/751/1350/10/
015020/20121106/100925/750/2150/10/
015020/20121106/100930/750/5000/10/
015020/20121106/101007/751/310/20/
015020/20121106/101013/750/610/10/
015020/20121106/101017/749/1020/10/
015020/20121106/101105/749/420/20/
015020/20121106/101111/749/1090/10/
015020/20121106/101111/748/1710/10/
015020/20121106/101114/750/290/20/
015020/20121106/101144/753/510/20/
015020/20121106/101318/752/500/20/
015020/20121106/101435/750/420/10/
015020/20121106/101456/750/290/10/
015020/20121106/101456/749/2030/10/
015020/20121106/101456/748/2390/10/
015020/20121106/101516/748/2760/10/
015020/20121106/101538/747/4630/10/
015020/20121106/101605/747/800/10/
015020/20121106/101619/747/840/10/
015020/20121106/101626/752/8670/20/
015020/20121106/101626/753/2920/20/
015020/20121106/101758/748/1050/10/
015020/20121106/101758/747/6400/10/
015020/20121106/101758/746/3080/10/
015020/20121106/101758/745/18230/10/
015020/20121106/101819/745/6690/10/
015020/20121106/101825/745/100/10/
015020/20121106/101829/745/430/20/
015020/20121106/101958/746/1010/10/
015020/20121106/102025/747/15760/10/
015020/20121106/102028/746/3000/10/
015020/20121106/102043/749/1000/20/
015020/20121106/102043/746/1000/10/
015020/20121106/102128/747/1000/10/
015020/20121106/102141/749/2990/20/
015020/20121106/102155/749/1000/10/
015020/20121106/102212/749/650/10/
015020/20121106/102230/747/2500/10/
015020/20121106/102251/747/630/20/
015020/20121106/102319/749/4160/20/
015020/20121106/102321/749/150/20/
015020/20121106/102332/749/4520/10/
015020/20121106/102333/749/1600/10/
015020/20121106/102354/750/3010/20/
015020/20121106/102404/751/2000/20/
015020/20121106/102411/751/1000/10/
015020/20121106/102436/750/90/10/
015020/20121106/102436/749/210/10/
015020/20121106/102436/747/700/10/
015020/20121106/102436/747/90/10/
015020/20121106/102459/747/3000/10/
015020/20121106/102606/748/1000/10/
015020/20121106/102636/748/3000/10/
015020/20121106/102700/748/1000/20/
015020/20121106/102725/749/1000/20/
015020/20121106/102725/750/3500/20/
015020/20121106/102749/750/5000/10/
015020/20121106/102752/750/500/10/
015020/20121106/102850/749/320/10/
015020/20121106/102902/749/100/20/
015020/20121106/102913/749/500/20/
015020/20121106/102923/750/4690/20/
015020/20121106/102932/751/2410/20/
015020/20121106/103107/751/1100/10/
015020/20121106/103115/751/940/20/
015020/20121106/103137/752/740/20/
015020/20121106/103149/752/2910/20/
015020/20121106/103152/752/190/20/
015020/20121106/103205/752/180/20/
015020/20121106/103232/751/3130/10/
015020/20121106/103232/750/6870/10/
015020/20121106/103354/750/880/10/
015020/20121106/103429/750/2940/10/
015020/20121106/103529/750/770/10/
015020/20121106/103727/752/1030/20/
015020/20121106/103727/753/5060/20/
015020/20121106/103818/753/410/10/
015020/20121106/103827/753/2000/10/
015020/20121106/103830/753/900/10/
015020/20121106/103836/753/320/10/
015020/20121106/103839/753/200/10/
015020/20121106/103855/753/200/10/
015020/20121106/103902/754/1530/20/
015020/20121106/103902/755/1490/20/
015020/20121106/104017/753/310/10/
015020/20121106/104048/753/680/10/
015020/20121106/104100/753/300/20/
015020/20121106/104106/750/16750/20/
015020/20121106/104113/750/1000/20/
015020/20121106/104129/750/2000/20/
015020/20121106/104133/750/100/20/
015020/20121106/104134/750/2000/20/
015020/20121106/104137/750/100/20/
015020/20121106/104142/750/100/20/
015020/20121106/104148/750/100/20/
015020/20121106/104153/750/100/20/
015020/20121106/104155/750/620/20/
015020/20121106/104157/750/2000/20/
015020/20121106/104221/750/5890/20/
015020/20121106/104244/753/100/20/
015020/20121106/104324/753/300/20/
015020/20121106/104325/750/420/10/
015020/20121106/104344/750/330/10/
015020/20121106/104435/750/100/10/
015020/20121106/104533/750/230/10/
015020/20121106/104604/750/4120/10/
015020/20121106/104610/750/620/10/
015020/20121106/104743/750/5000/10/
015020/20121106/104807/750/290/10/
015020/20121106/104846/750/500/10/
015020/20121106/105010/750/200/10/
015020/20121106/105056/750/2400/10/
015020/20121106/105115/750/900/20/
015020/20121106/105128/750/890/20/
015020/20121106/105344/750/1510/10/
015020/20121106/105408/750/2020/10/
015020/20121106/105410/754/180/20/
015020/20121106/105410/755/500/20/
015020/20121106/105410/756/520/20/
015020/20121106/105555/750/5970/10/
015020/20121106/105601/750/2980/20/
015020/20121106/105636/750/200/10/
015020/20121106/105639/750/5000/10/
015020/20121106/105725/752/100/20/
015020/20121106/105735/754/1100/20/
015020/20121106/105735/757/8950/20/
015020/20121106/105736/751/10200/10/
015020/20121106/105745/751/700/10/
015020/20121106/105751/752/100/20/
015020/20121106/105932/753/210/10/
015020/20121106/105932/752/130/10/
015020/20121106/105932/751/4100/10/
015020/20121106/105932/750/3090/10/
015020/20121106/110045/750/4190/10/
015020/20121106/110207/749/1050/10/
015020/20121106/110231/749/8930/10/
015020/20121106/110242/749/870/20/
015020/20121106/110249/749/1000/10/
015020/20121106/110357/750/550/20/
015020/20121106/110420/750/1090/20/
015020/20121106/110442/750/100/20/
015020/20121106/110525/749/3050/10/
015020/20121106/110715/748/6240/10/
015020/20121106/110750/749/1000/10/
015020/20121106/110758/749/100/20/
015020/20121106/110810/749/100/20/
015020/20121106/110814/749/2040/20/
015020/20121106/110828/749/100/20/
015020/20121106/110852/748/2280/10/
015020/20121106/110900/748/100/20/
015020/20121106/110916/747/2620/10/
015020/20121106/110924/747/2410/10/
015020/20121106/110928/747/350/10/
015020/20121106/110938/747/5680/10/
015020/20121106/110944/747/1090/10/
015020/20121106/110959/747/220/10/
015020/20121106/111008/747/12900/10/
015020/20121106/111008/746/100/10/
015020/20121106/111022/747/100/10/
015020/20121106/111048/747/100/20/
015020/20121106/111100/746/8700/10/
015020/20121106/111129/746/3950/10/
015020/20121106/111151/747/300/20/
015020/20121106/111153/746/1500/10/
015020/20121106/111202/747/690/20/
015020/20121106/111215/747/3810/20/
015020/20121106/111244/748/1000/20/
015020/20121106/111245/748/1230/20/
015020/20121106/111255/750/1190/20/
015020/20121106/111314/750/840/20/
015020/20121106/111519/751/2310/10/
015020/20121106/111519/750/2010/10/
015020/20121106/111528/750/2070/10/
015020/20121106/111752/752/120/10/
015020/20121106/111829/752/120/10/
015020/20121106/111841/754/490/20/
015020/20121106/111841/755/4090/20/
015020/20121106/111841/756/110/20/
015020/20121106/111841/756/920/10/
015020/20121106/111850/756/500/10/
015020/20121106/111930/755/150/20/
015020/20121106/111934/753/2540/10/
015020/20121106/112035/752/330/10/
015020/20121106/112104/752/830/10/
015020/20121106/112143/755/130/20/
015020/20121106/112213/755/1020/20/
015020/20121106/112226/755/740/10/
015020/20121106/112233/756/710/20/
015020/20121106/112233/755/1260/10/
015020/20121106/112248/755/4000/10/
015020/20121106/112310/755/1200/20/
015020/20121106/112321/755/800/20/
015020/20121106/112321/756/500/20/
015020/20121106/112328/756/2280/10/
015020/20121106/112338/756/1000/10/
015020/20121106/112344/756/200/10/
015020/20121106/112348/756/220/10/
015020/20121106/112401/756/4000/20/
015020/20121106/112427/756/1000/20/
015020/20121106/112501/753/1010/10/
015020/20121106/112521/753/1070/10/
015020/20121106/112713/753/770/10/
015020/20121106/112719/753/120/20/
015020/20121106/112725/753/160/20/
015020/20121106/112730/753/500/10/
015020/20121106/112745/753/340/10/
015020/20121106/112803/752/5210/10/
015020/20121106/112838/751/5090/10/
015020/20121106/112913/750/5060/10/
015020/20121106/112913/749/4670/10/
015020/20121106/112913/748/300/10/
015020/20121106/113004/748/11780/10/
015020/20121106/113004/747/12700/10/
015020/20121106/113004/746/16450/10/
015020/20121106/113020/746/1970/10/
015020/20121106/113020/745/10030/10/
015020/20121106/113027/746/1390/10/
015020/20121106/113027/745/4720/10/
015020/20121106/113050/746/5000/10/
015020/20121106/113051/745/5000/10/
015020/20121106/113051/745/5000/10/
015020/20121106/113052/745/5000/10/
015020/20121106/113053/746/220/10/
015020/20121106/113053/745/4780/10/
015020/20121106/113054/745/4430/10/
015020/20121106/113139/746/500/10/
015020/20121106/113143/746/2170/10/
015020/20121106/113243/746/610/10/
015020/20121106/113539/750/1740/10/
015020/20121106/113601/750/270/10/
015020/20121106/113743/750/220/20/
015020/20121106/113827/750/500/10/
015020/20121106/113846/750/500/10/
015020/20121106/113850/750/100/10/
015020/20121106/114010/748/100/10/
015020/20121106/114104/748/260/10/
015020/20121106/114104/747/4740/10/
015020/20121106/114338/748/3310/10/
015020/20121106/114338/747/9890/10/
015020/20121106/114410/750/1000/20/
015020/20121106/114430/750/1000/10/
015020/20121106/114430/747/2500/10/
015020/20121106/114511/751/100/20/
015020/20121106/114534/751/120/20/
015020/20121106/114534/752/620/20/
015020/20121106/114534/753/670/20/
015020/20121106/114534/755/1590/20/
015020/20121106/114611/754/700/20/
015020/20121106/114639/754/100/20/
015020/20121106/114751/753/1500/20/
015020/20121106/114825/754/2000/20/
015020/20121106/114827/754/790/20/
015020/20121106/114850/753/3000/10/
015020/20121106/114851/753/5550/10/
015020/20121106/114854/748/5400/10/
015020/20121106/114908/753/1000/20/
015020/20121106/114913/748/190/10/
015020/20121106/115114/749/1800/10/
015020/20121106/115709/749/2000/10/
015020/20121106/115857/752/510/20/
015020/20121106/115948/750/510/10/
015020/20121106/120024/749/3200/10/
015020/20121106/120113/749/500/20/
015020/20121106/120143/749/100/20/
015020/20121106/120157/749/200/20/
015020/20121106/120443/750/410/20/
015020/20121106/120516/750/110/20/
015020/20121106/120543/750/1480/20/
015020/20121106/120607/750/630/10/
015020/20121106/120614/751/100/20/
015020/20121106/120623/750/5410/10/
015020/20121106/120641/750/7080/10/
015020/20121106/120646/750/200/10/
015020/20121106/120703/750/2490/10/
015020/20121106/121000/751/130/20/
015020/20121106/121158/749/1400/10/
015020/20121106/121207/749/480/10/
015020/20121106/121236/749/1000/20/
015020/20121106/121240/749/1000/20/
015020/20121106/121246/749/1000/20/
015020/20121106/121246/749/1330/20/
015020/20121106/121251/749/1000/20/
015020/20121106/121300/749/1000/20/
015020/20121106/121303/748/1000/10/
015020/20121106/121304/749/260/20/
015020/20121106/121306/749/1000/20/
015020/20121106/121313/749/1000/20/
015020/20121106/121317/749/1000/20/
015020/20121106/121322/749/440/20/
015020/20121106/121438/751/150/20/
015020/20121106/121450/751/400/20/
015020/20121106/121454/751/100/20/
015020/20121106/121455/751/100/20/
015020/20121106/121526/752/100/20/
015020/20121106/121618/751/1810/10/
015020/20121106/121651/750/240/10/
015020/20121106/121741/749/2520/10/
015020/20121106/121741/748/4770/10/
015020/20121106/121741/747/5800/10/
015020/20121106/121920/750/1000/20/
015020/20121106/122001/748/7000/10/
015020/20121106/122001/747/34530/10/
015020/20121106/122024/750/500/20/
015020/20121106/122125/750/100/20/
015020/20121106/122158/748/1000/10/
015020/20121106/122158/747/300/10/
015020/20121106/122212/750/680/20/
015020/20121106/122517/749/430/20/
015020/20121106/122529/749/4010/10/
015020/20121106/122658/749/150/10/
015020/20121106/122731/750/130/20/
015020/20121106/122757/750/5400/20/
015020/20121106/122806/750/1430/10/
015020/20121106/122832/750/1630/10/
015020/20121106/123247/748/2070/10/
015020/20121106/123354/748/610/10/
015020/20121106/123354/747/470/10/
015020/20121106/123512/749/2010/20/
015020/20121106/123512/750/36570/20/
015020/20121106/123845/751/210/10/
015020/20121106/123934/750/130/10/
015020/20121106/123934/750/170/10/
015020/20121106/123940/748/1340/10/
015020/20121106/124053/750/1500/20/
015020/20121106/124055/750/5490/20/
015020/20121106/124101/750/500/20/
015020/20121106/124130/750/1370/20/
015020/20121106/124147/752/90/20/
015020/20121106/124313/752/580/20/
015020/20121106/124326/753/1000/20/
015020/20121106/124338/753/100/20/
015020/20121106/124408/753/100/20/
015020/20121106/124412/752/140/10/
015020/20121106/124425/753/1000/20/
015020/20121106/124509/752/280/10/
015020/20121106/124554/753/150/20/
015020/20121106/124658/752/930/10/
015020/20121106/124803/752/1000/20/
015020/20121106/124851/752/740/20/
015020/20121106/124852/753/740/20/
015020/20121106/124852/754/260/20/
015020/20121106/125011/753/150/20/
015020/20121106/125037/753/750/20/
015020/20121106/125050/752/1500/10/
015020/20121106/125146/752/1290/10/
015020/20121106/125146/751/2800/10/
015020/20121106/125358/752/1050/10/
015020/20121106/125440/751/2410/10/
015020/20121106/125629/751/110/20/
015020/20121106/125928/750/100/10/
015020/20121106/130108/751/1500/10/
015020/20121106/130108/750/6260/10/
015020/20121106/130152/750/230/10/
015020/20121106/130202/750/5950/10/
015020/20121106/130218/750/2050/20/
015020/20121106/130249/750/500/10/
015020/20121106/130303/750/2000/10/
015020/20121106/130304/750/500/10/
015020/20121106/130319/750/170/10/
015020/20121106/130319/750/330/20/
015020/20121106/130413/751/1000/20/
015020/20121106/130440/750/700/10/
015020/20121106/130443/751/250/20/
015020/20121106/130443/752/560/20/
015020/20121106/130521/752/410/10/
015020/20121106/130848/751/2030/10/
015020/20121106/130848/750/5970/10/
015020/20121106/131134/750/1900/10/
015020/20121106/131153/750/250/20/
015020/20121106/131157/749/2000/10/
015020/20121106/131217/749/12580/10/
015020/20121106/131217/748/2090/10/
015020/20121106/131230/748/930/10/
015020/20121106/131256/748/790/10/
015020/20121106/131337/748/1010/10/
015020/20121106/131430/749/2370/10/
015020/20121106/131442/749/100/20/
015020/20121106/131452/748/2590/10/
015020/20121106/131452/747/2700/10/
015020/20121106/131508/747/2490/10/
015020/20121106/131741/748/850/10/
015020/20121106/131927/748/2310/10/
015020/20121106/132305/748/610/10/
015020/20121106/132457/748/6000/10/
015020/20121106/132505/750/5000/20/
015020/20121106/132509/748/1470/10/
015020/20121106/132509/747/590/10/
015020/20121106/132624/749/190/20/
015020/20121106/132624/750/1810/20/
015020/20121106/132651/750/2000/20/
015020/20121106/132736/748/150/10/
015020/20121106/132801/749/100/20/
015020/20121106/133107/749/130/10/
015020/20121106/133348/750/520/20/
015020/20121106/133402/749/120/10/
015020/20121106/133406/750/450/20/
015020/20121106/133724/751/90/20/
015020/20121106/133801/751/820/20/
015020/20121106/133912/751/3170/10/
015020/20121106/133912/749/2520/10/
015020/20121106/133912/748/7570/10/
015020/20121106/133912/747/11280/10/
015020/20121106/134019/751/110/20/
015020/20121106/134059/751/150/20/
015020/20121106/134226/750/130/10/
015020/20121106/134256/749/490/10/
015020/20121106/134314/749/1000/10/
015020/20121106/134317/750/320/20/
015020/20121106/134355/749/1000/10/
015020/20121106/134627/749/450/10/
015020/20121106/134724/749/210/10/
015020/20121106/134724/748/6790/10/
015020/20121106/134724/748/1500/10/
015020/20121106/135102/748/3500/10/
015020/20121106/135114/748/500/10/
015020/20121106/135117/750/1000/20/
015020/20121106/135211/750/500/20/
015020/20121106/135252/748/1320/10/
015020/20121106/135404/748/130/10/
015020/20121106/135500/748/300/10/
015020/20121106/135628/748/6620/10/
015020/20121106/135632/748/1460/10/
015020/20121106/135634/747/21240/10/
015020/20121106/135634/746/18680/10/
015020/20121106/135634/745/7550/10/
015020/20121106/135832/746/11350/10/
015020/20121106/135832/745/19650/10/
015020/20121106/135859/745/3310/10/
015020/20121106/135903/745/2500/20/
015020/20121106/135905/745/4190/20/
015020/20121106/135927/745/4000/10/
015020/20121106/140045/746/800/10/
015020/20121106/140045/745/5660/10/
015020/20121106/140048/745/1460/20/
015020/20121106/140240/745/1550/10/
015020/20121106/140310/745/1000/10/
015020/20121106/140348/745/1010/10/
015020/20121106/140506/746/140/10/
015020/20121106/140533/746/160/10/
015020/20121106/140547/746/910/20/
015020/20121106/140557/746/390/10/
015020/20121106/140615/746/610/20/
015020/20121106/140641/746/100/10/
015020/20121106/140750/746/90/10/
015020/20121106/140922/746/4210/10/
015020/20121106/140922/745/1090/10/
015020/20121106/141053/747/650/10/
015020/20121106/141105/747/360/10/
015020/20121106/141125/746/100/10/
015020/20121106/141130/746/2000/10/
015020/20121106/141144/746/500/10/
015020/20121106/141155/746/460/10/
015020/20121106/141159/746/1000/10/
015020/20121106/141200/746/940/10/
015020/20121106/141218/746/100/20/
015020/20121106/141248/746/1060/10/
015020/20121106/141255/746/450/10/
015020/20121106/141255/745/2830/10/
015020/20121106/141308/746/1500/20/
015020/20121106/141311/745/4210/10/
015020/20121106/141325/745/560/10/
015020/20121106/141338/745/4000/10/
015020/20121106/141344/745/180/10/
015020/20121106/141349/744/2000/10/
015020/20121106/141353/744/10000/10/
015020/20121106/141355/744/1500/10/
015020/20121106/141401/744/2000/10/
015020/20121106/141405/744/1170/10/
015020/20121106/141429/744/450/20/
015020/20121106/141440/744/2730/20/
015020/20121106/141448/744/480/10/
015020/20121106/141448/743/3520/10/
015020/20121106/141503/743/7370/10/
015020/20121106/141511/743/2640/10/
015020/20121106/141515/743/290/20/
015020/20121106/141522/743/600/20/
015020/20121106/141522/743/2070/20/
015020/20121106/141522/746/2930/20/
015020/20121106/141557/744/500/10/
015020/20121106/141644/744/420/20/
015020/20121106/141651/744/500/20/
015020/20121106/141652/744/740/20/
015020/20121106/141656/744/350/20/
015020/20121106/141656/744/290/20/
015020/20121106/141706/745/690/20/
015020/20121106/141727/744/1000/10/
015020/20121106/141802/745/3310/20/
015020/20121106/141802/746/3430/20/
015020/20121106/141814/746/960/10/
015020/20121106/141832/746/290/10/
015020/20121106/141837/746/2000/10/
015020/20121106/141933/747/860/20/
015020/20121106/141941/747/720/10/
015020/20121106/142003/747/300/20/
015020/20121106/142054/747/1010/10/
015020/20121106/142105/749/2300/20/
015020/20121106/142127/747/100/10/
015020/20121106/142130/749/200/20/
015020/20121106/142135/747/1500/10/
015020/20121106/142140/749/100/20/
015020/20121106/142147/749/2000/20/
015020/20121106/142207/749/760/20/
015020/20121106/142220/749/920/20/
015020/20121106/142229/749/100/20/
015020/20121106/142239/749/650/20/
015020/20121106/142257/749/530/20/
015020/20121106/142346/747/2640/10/
015020/20121106/142409/747/450/20/
015020/20121106/142422/747/200/20/
015020/20121106/142514/747/460/20/
015020/20121106/142533/747/220/20/
015020/20121106/142633/747/3040/20/
015020/20121106/142653/747/2060/10/
015020/20121106/142700/746/700/10/
015020/20121106/142705/747/900/20/
015020/20121106/142744/748/200/20/
015020/20121106/142802/748/400/10/
015020/20121106/142819/748/5910/10/
015020/20121106/142855/748/90/20/
015020/20121106/142920/748/340/10/
015020/20121106/142936/748/570/10/
015020/20121106/143009/747/250/10/
015020/20121106/143035/747/1000/10/
015020/20121106/143148/748/430/20/
015020/20121106/143218/748/1500/10/
015020/20121106/143244/748/2680/10/
015020/20121106/143313/748/320/20/
015020/20121106/143313/749/8450/20/
015020/20121106/143320/750/4360/20/
015020/20121106/143340/750/200/10/
015020/20121106/143351/750/440/10/
015020/20121106/143437/750/210/10/
015020/20121106/143501/749/1230/10/
015020/20121106/143501/748/3770/10/
015020/20121106/143533/748/700/10/
015020/20121106/143553/748/570/20/
015020/20121106/143604/748/3760/10/
015020/20121106/143738/748/10020/10/
015020/20121106/143741/748/2170/10/
015020/20121106/143819/747/2020/10/
015020/20121106/143822/747/1490/10/
015020/20121106/143822/746/350/10/
015020/20121106/143826/746/2630/10/
015020/20121106/143839/746/1000/10/
015020/20121106/143847/746/230/10/
015020/20121106/143850/746/1190/10/
015020/20121106/143850/745/5670/10/
015020/20121106/143856/745/2570/10/
015020/20121106/143911/745/3700/10/
015020/20121106/143911/745/1620/20/
015020/20121106/143942/745/3160/10/
015020/20121106/143943/744/14280/10/
015020/20121106/144010/743/2510/10/
015020/20121106/144014/744/500/20/
015020/20121106/144020/744/1500/20/
015020/20121106/144022/744/990/20/
015020/20121106/144022/745/6390/20/
015020/20121106/144043/745/560/10/
015020/20121106/144120/749/970/20/
015020/20121106/144323/746/1030/10/
015020/20121106/144432/745/850/10/
015020/20121106/144454/745/140/10/
015020/20121106/144501/745/2000/10/
015020/20121106/144507/745/2720/10/
015020/20121106/144518/745/840/10/
015020/20121106/144534/745/1690/10/
015020/20121106/144534/744/10840/10/
015020/20121106/144534/743/10710/10/
015020/20121106/144534/742/15180/10/
015020/20121106/144536/742/2600/20/
015020/20121106/144539/742/3290/20/
015020/20121106/144550/742/2020/20/
015020/20121106/144551/741/4630/10/
015020/20121106/144554/742/2000/20/
015020/20121106/144559/742/8670/20/
015020/20121106/144656/746/90/20/
015020/20121106/144706/746/140/20/
015020/20121106/144714/748/90/20/
015020/20121106/144727/748/1000/20/
015020/20121106/144809/746/170/10/
015020/20121106/144809/743/610/10/
015020/20121106/144928/747/350/20/
015020/20121106/144940/748/240/20/
015020/20121106/144942/747/160/10/
015020/20121106/144950/745/430/10/
015020/20121106/144952/744/620/10/
015020/20121106/150000/744/32280/10/
