015020/20130311/90000/600/40040/20/
015020/20130311/90006/599/100/20/
015020/20130311/90019/600/1010/20/
015020/20130311/90023/599/1760/20/
015020/20130311/90024/599/240/20/
015020/20130311/90025/599/2610/10/
015020/20130311/90026/599/850/10/
015020/20130311/90027/599/1300/10/
015020/20130311/90029/592/110/10/
015020/20130311/90029/591/890/10/
015020/20130311/90033/599/1600/20/
015020/20130311/90033/600/1130/20/
015020/20130311/90040/599/4400/20/
015020/20130311/90040/600/5600/20/
015020/20130311/90041/600/180/20/
015020/20130311/90041/601/150/20/
015020/20130311/90054/601/1520/20/
015020/20130311/90100/601/330/20/
015020/20130311/90109/600/1000/20/
015020/20130311/90118/600/3020/20/
015020/20130311/90123/600/2000/20/
015020/20130311/90127/600/530/20/
015020/20130311/90131/600/3710/20/
015020/20130311/90131/601/3870/20/
015020/20130311/90131/602/3700/20/
015020/20130311/90131/603/2000/20/
015020/20130311/90131/604/1000/20/
015020/20130311/90131/605/4600/20/
015020/20130311/90132/605/2210/10/
015020/20130311/90133/605/1980/10/
015020/20130311/90137/605/5000/10/
015020/20130311/90140/605/17990/10/
015020/20130311/90147/594/90/10/
015020/20130311/90149/605/4010/20/
015020/20130311/90154/594/2050/10/
015020/20130311/90154/593/950/10/
015020/20130311/90206/604/400/20/
015020/20130311/90218/603/370/20/
015020/20130311/90219/603/640/20/
015020/20130311/90223/604/890/20/
015020/20130311/90227/603/1000/20/
015020/20130311/90227/604/1960/20/
015020/20130311/90228/604/5000/20/
015020/20130311/90235/601/950/20/
015020/20130311/90248/601/400/10/
015020/20130311/90302/601/2150/10/
015020/20130311/90316/594/130/10/
015020/20130311/90320/594/6850/10/
015020/20130311/90326/594/750/20/
015020/20130311/90346/600/100/20/
015020/20130311/90418/601/110/20/
015020/20130311/90427/601/3000/20/
015020/20130311/90432/601/490/20/
015020/20130311/90437/603/90/20/
015020/20130311/90442/603/250/20/
015020/20130311/90443/603/5000/20/
015020/20130311/90444/603/2980/20/
015020/20130311/90452/603/5000/20/
015020/20130311/90453/603/14880/20/
015020/20130311/90500/604/420/20/
015020/20130311/90501/604/9170/20/
015020/20130311/90501/605/34230/20/
015020/20130311/90505/606/5600/20/
015020/20130311/90506/607/15800/20/
015020/20130311/90506/607/2720/20/
015020/20130311/90507/607/450/20/
015020/20130311/90507/607/1040/20/
015020/20130311/90508/607/7010/20/
015020/20130311/90510/607/4000/20/
015020/20130311/90510/607/5940/20/
015020/20130311/90511/607/2000/20/
015020/20130311/90515/606/3000/10/
015020/20130311/90519/606/2080/10/
015020/20130311/90523/607/3680/20/
015020/20130311/90523/607/7180/20/
015020/20130311/90524/608/300/20/
015020/20130311/90524/608/2000/20/
015020/20130311/90524/607/2060/10/
015020/20130311/90526/608/3200/20/
015020/20130311/90528/609/110/20/
015020/20130311/90529/608/150/10/
015020/20130311/90529/607/8750/10/
015020/20130311/90530/607/160/20/
015020/20130311/90530/607/300/20/
015020/20130311/90530/607/6080/20/
015020/20130311/90530/609/3920/20/
015020/20130311/90531/609/280/20/
015020/20130311/90531/609/980/20/
015020/20130311/90531/610/3940/20/
015020/20130311/90533/609/170/10/
015020/20130311/90533/607/100/10/
015020/20130311/90533/605/6600/10/
015020/20130311/90534/604/200/20/
015020/20130311/90535/604/1650/20/
015020/20130311/90538/604/300/20/
015020/20130311/90538/603/7200/10/
015020/20130311/90540/604/10000/20/
015020/20130311/90549/604/150/20/
015020/20130311/90553/604/160/20/
015020/20130311/90554/604/110/20/
015020/20130311/90558/604/110/20/
015020/20130311/90602/603/1000/10/
015020/20130311/90603/603/880/10/
015020/20130311/90606/604/2430/20/
015020/20130311/90606/608/1120/20/
015020/20130311/90608/603/90/20/
015020/20130311/90610/601/190/10/
015020/20130311/90633/602/220/10/
015020/20130311/90633/601/2040/10/
015020/20130311/90645/601/390/10/
015020/20130311/90651/596/4050/10/
015020/20130311/90721/599/150/20/
015020/20130311/90732/599/1500/20/
015020/20130311/90734/599/4000/10/
015020/20130311/90735/600/5270/20/
015020/20130311/90741/600/4300/20/
015020/20130311/90747/600/800/10/
015020/20130311/90748/599/7830/10/
015020/20130311/90800/600/120/20/
015020/20130311/90809/598/1910/10/
015020/20130311/90810/597/1680/20/
015020/20130311/90814/596/2590/10/
015020/20130311/90815/597/560/20/
015020/20130311/90822/597/1440/20/
015020/20130311/90828/600/3010/20/
015020/20130311/90851/600/170/20/
015020/20130311/90852/600/1110/20/
015020/20130311/90859/600/310/10/
015020/20130311/90902/599/90/10/
015020/20130311/90904/602/110/20/
015020/20130311/90918/602/3590/20/
015020/20130311/90920/602/5520/10/
015020/20130311/90922/603/3980/20/
015020/20130311/90922/603/110/20/
015020/20130311/90927/603/110/20/
015020/20130311/90937/602/560/10/
015020/20130311/90938/603/100/20/
015020/20130311/90941/603/1840/20/
015020/20130311/90943/603/100/20/
015020/20130311/90943/602/4000/10/
015020/20130311/90944/602/18280/10/
015020/20130311/90946/600/110/20/
015020/20130311/91000/599/100/10/
015020/20130311/91000/598/4930/10/
015020/20130311/91001/598/5020/10/
015020/20130311/91002/598/2700/10/
015020/20130311/91011/598/2330/10/
015020/20130311/91011/596/1450/10/
015020/20130311/91011/595/710/10/
015020/20130311/91016/595/5140/10/
015020/20130311/91037/595/110/10/
015020/20130311/91045/595/540/10/
015020/20130311/91045/595/1360/10/
015020/20130311/91103/597/110/10/
015020/20130311/91115/595/1030/10/
015020/20130311/91116/595/3700/10/
015020/20130311/91117/595/3960/10/
015020/20130311/91121/595/90/10/
015020/20130311/91124/596/1450/20/
015020/20130311/91124/596/1050/10/
015020/20130311/91148/597/5470/20/
015020/20130311/91154/597/350/10/
015020/20130311/91155/597/2130/10/
015020/20130311/91200/597/100/20/
015020/20130311/91203/597/820/20/
015020/20130311/91203/598/7640/20/
015020/20130311/91203/599/11000/20/
015020/20130311/91203/600/10540/20/
015020/20130311/91217/599/1050/20/
015020/20130311/91226/595/750/10/
015020/20130311/91230/595/4640/10/
015020/20130311/91230/595/180/20/
015020/20130311/91244/598/1030/10/
015020/20130311/91248/598/240/10/
015020/20130311/91250/598/1040/10/
015020/20130311/91259/598/1620/10/
015020/20130311/91302/598/500/20/
015020/20130311/91330/598/330/20/
015020/20130311/91339/598/260/20/
015020/20130311/91354/598/200/10/
015020/20130311/91354/595/1560/10/
015020/20130311/91405/599/710/20/
015020/20130311/91407/598/430/10/
015020/20130311/91422/598/970/20/
015020/20130311/91423/598/200/20/
015020/20130311/91423/599/1710/20/
015020/20130311/91424/600/2560/20/
015020/20130311/91428/600/520/10/
015020/20130311/91431/603/120/20/
015020/20130311/91431/598/2000/10/
015020/20130311/91431/597/1300/10/
015020/20130311/91447/603/13720/20/
015020/20130311/91447/604/16310/20/
015020/20130311/91449/604/2960/20/
015020/20130311/91451/604/1930/20/
015020/20130311/91457/605/1910/20/
015020/20130311/91457/607/2310/20/
015020/20130311/91506/607/2990/20/
015020/20130311/91506/608/8740/20/
015020/20130311/91507/608/5000/20/
015020/20130311/91507/608/15870/20/
015020/20130311/91507/608/3970/20/
015020/20130311/91508/608/8630/20/
015020/20130311/91510/608/110/20/
015020/20130311/91519/607/100/20/
015020/20130311/91523/608/1360/20/
015020/20130311/91525/608/310/20/
015020/20130311/91529/608/200/20/
015020/20130311/91530/609/100/20/
015020/20130311/91531/609/4890/20/
015020/20130311/91531/609/500/20/
015020/20130311/91532/609/1430/20/
015020/20130311/91532/610/9670/20/
015020/20130311/91532/611/1090/20/
015020/20130311/91534/612/1030/20/
015020/20130311/91534/612/200/20/
015020/20130311/91536/612/3010/20/
015020/20130311/91538/612/120/20/
015020/20130311/91539/612/640/20/
015020/20130311/91539/612/360/10/
015020/20130311/91541/612/100/20/
015020/20130311/91543/612/460/20/
015020/20130311/91545/611/2360/10/
015020/20130311/91545/610/2360/10/
015020/20130311/91551/610/2050/20/
015020/20130311/91552/609/2200/10/
015020/20130311/91557/610/940/20/
015020/20130311/91558/610/90/20/
015020/20130311/91600/610/2560/20/
015020/20130311/91603/611/100/20/
015020/20130311/91603/612/140/20/
015020/20130311/91604/610/690/10/
015020/20130311/91605/612/100/20/
015020/20130311/91609/611/120/20/
015020/20130311/91611/610/530/10/
015020/20130311/91613/611/1840/20/
015020/20130311/91615/611/560/20/
015020/20130311/91617/612/270/20/
015020/20130311/91617/613/2310/20/
015020/20130311/91618/613/100/20/
015020/20130311/91619/613/1300/20/
015020/20130311/91619/614/4110/20/
015020/20130311/91621/614/90/20/
015020/20130311/91622/614/1720/20/
015020/20130311/91622/615/17950/20/
015020/20130311/91623/612/1000/20/
015020/20130311/91623/615/2920/20/
015020/20130311/91626/614/90/20/
015020/20130311/91627/612/100/10/
015020/20130311/91630/614/100/20/
015020/20130311/91634/614/1140/20/
015020/20130311/91639/614/1390/20/
015020/20130311/91641/613/3650/10/
015020/20130311/91641/612/900/10/
015020/20130311/91641/611/450/10/
015020/20130311/91644/613/1030/10/
015020/20130311/91646/611/840/10/
015020/20130311/91646/610/1610/10/
015020/20130311/91646/609/550/10/
015020/20130311/91652/623/2030/20/
015020/20130311/91652/624/2150/20/
015020/20130311/91652/625/1250/20/
015020/20130311/91658/624/230/20/
015020/20130311/91702/613/3290/10/
015020/20130311/91702/612/3430/10/
015020/20130311/91702/611/140/10/
015020/20130311/91711/616/100/10/
015020/20130311/91711/615/770/10/
015020/20130311/91712/615/1690/10/
015020/20130311/91714/619/140/20/
015020/20130311/91714/620/120/20/
015020/20130311/91714/623/780/20/
015020/20130311/91720/620/500/20/
015020/20130311/91720/621/1400/20/
015020/20130311/91720/622/690/20/
015020/20130311/91723/622/1040/20/
015020/20130311/91723/623/1000/20/
015020/20130311/91724/622/3150/20/
015020/20130311/91724/623/250/20/
015020/20130311/91725/623/210/20/
015020/20130311/91725/622/3040/10/
015020/20130311/91725/622/400/20/
015020/20130311/91725/623/2400/20/
015020/20130311/91725/623/340/20/
015020/20130311/91726/624/1280/20/
015020/20130311/91726/624/1320/20/
015020/20130311/91727/623/1000/10/
015020/20130311/91727/624/3000/20/
015020/20130311/91730/624/2010/20/
015020/20130311/91731/624/120/20/
015020/20130311/91731/624/1600/20/
015020/20130311/91733/624/850/20/
015020/20130311/91733/623/3680/10/
015020/20130311/91734/623/160/20/
015020/20130311/91735/622/1090/10/
015020/20130311/91736/622/510/20/
015020/20130311/91736/623/6160/20/
015020/20130311/91736/624/5930/20/
015020/20130311/91739/621/1740/20/
015020/20130311/91741/623/90/20/
015020/20130311/91742/623/150/20/
015020/20130311/91744/623/100/20/
015020/20130311/91745/623/100/20/
015020/20130311/91746/623/100/20/
015020/20130311/91748/623/100/20/
015020/20130311/91748/623/200/20/
015020/20130311/91748/621/4650/10/
015020/20130311/91748/615/350/10/
015020/20130311/91750/623/100/20/
015020/20130311/91750/621/140/20/
015020/20130311/91751/621/100/20/
015020/20130311/91753/621/140/20/
015020/20130311/91753/621/100/20/
015020/20130311/91754/621/130/20/
015020/20130311/91757/620/100/20/
015020/20130311/91759/620/100/20/
015020/20130311/91803/620/130/20/
015020/20130311/91804/620/230/20/
015020/20130311/91805/620/110/20/
015020/20130311/91806/620/880/20/
015020/20130311/91807/621/150/20/
015020/20130311/91809/621/160/20/
015020/20130311/91810/620/100/10/
015020/20130311/91811/623/100/20/
015020/20130311/91812/620/120/10/
015020/20130311/91812/623/110/20/
015020/20130311/91814/623/110/20/
015020/20130311/91816/622/100/20/
015020/20130311/91819/620/130/20/
015020/20130311/91821/620/100/20/
015020/20130311/91823/620/150/20/
015020/20130311/91825/620/100/20/
015020/20130311/91825/620/100/20/
015020/20130311/91826/617/1040/10/
015020/20130311/91826/616/5010/10/
015020/20130311/91826/615/3960/10/
015020/20130311/91826/620/1220/20/
015020/20130311/91828/622/120/20/
015020/20130311/91828/620/8780/10/
015020/20130311/91829/619/200/20/
015020/20130311/91830/619/1080/20/
015020/20130311/91830/620/230/20/
015020/20130311/91830/620/100/20/
015020/20130311/91831/620/200/20/
015020/20130311/91832/620/5000/20/
015020/20130311/91833/620/100/20/
015020/20130311/91833/615/1000/10/
015020/20130311/91833/620/520/20/
015020/20130311/91834/620/200/20/
015020/20130311/91834/620/290/20/
015020/20130311/91836/620/400/20/
015020/20130311/91840/620/140/20/
015020/20130311/91840/620/100/20/
015020/20130311/91843/619/2120/20/
015020/20130311/91843/620/1100/20/
015020/20130311/91843/620/100/20/
015020/20130311/91844/620/10080/20/
015020/20130311/91846/619/130/10/
015020/20130311/91847/619/880/20/
015020/20130311/91847/620/100/20/
015020/20130311/91848/621/100/20/
015020/20130311/91848/621/300/20/
015020/20130311/91850/621/100/20/
015020/20130311/91852/620/130/10/
015020/20130311/91852/622/100/20/
015020/20130311/91852/622/190/20/
015020/20130311/91853/622/230/20/
015020/20130311/91854/622/130/20/
015020/20130311/91855/622/100/20/
015020/20130311/91856/622/100/20/
015020/20130311/91857/622/150/20/
015020/20130311/91858/622/220/20/
015020/20130311/91859/622/100/20/
015020/20130311/91900/621/100/10/
015020/20130311/91901/620/480/10/
015020/20130311/91902/620/120/20/
015020/20130311/91905/620/90/20/
015020/20130311/91907/617/160/10/
015020/20130311/91907/615/7620/10/
015020/20130311/91920/615/1000/20/
015020/20130311/91925/615/90/20/
015020/20130311/91928/615/1000/20/
015020/20130311/91932/615/130/20/
015020/20130311/92000/615/8360/10/
015020/20130311/92000/615/1700/10/
015020/20130311/92000/613/1230/10/
015020/20130311/92000/612/5700/10/
015020/20130311/92010/614/160/10/
015020/20130311/92022/616/1400/20/
015020/20130311/92024/614/870/10/
015020/20130311/92030/613/2020/10/
015020/20130311/92031/613/1400/10/
015020/20130311/92032/614/100/20/
015020/20130311/92034/614/100/20/
015020/20130311/92041/616/120/20/
015020/20130311/92042/616/750/20/
015020/20130311/92043/617/110/20/
015020/20130311/92046/617/100/20/
015020/20130311/92047/617/110/20/
015020/20130311/92053/617/510/20/
015020/20130311/92055/617/1630/20/
015020/20130311/92058/617/410/10/
015020/20130311/92058/618/540/20/
015020/20130311/92101/616/130/10/
015020/20130311/92106/619/1020/20/
015020/20130311/92106/620/7780/20/
015020/20130311/92107/620/100/20/
015020/20130311/92109/620/200/20/
015020/20130311/92112/618/1980/10/
015020/20130311/92119/620/270/20/
015020/20130311/92126/619/170/10/
015020/20130311/92126/618/1910/10/
015020/20130311/92128/620/100/20/
015020/20130311/92131/620/1000/20/
015020/20130311/92133/620/200/20/
015020/20130311/92141/620/100/20/
015020/20130311/92142/619/500/10/
015020/20130311/92143/619/140/10/
015020/20130311/92146/619/180/20/
015020/20130311/92151/618/120/10/
015020/20130311/92151/616/160/10/
015020/20130311/92151/615/470/10/
015020/20130311/92154/615/100/10/
015020/20130311/92154/618/100/20/
015020/20130311/92207/615/1760/10/
015020/20130311/92207/614/1590/10/
015020/20130311/92208/614/3920/10/
015020/20130311/92209/614/10000/10/
015020/20130311/92212/614/710/10/
015020/20130311/92212/614/200/10/
015020/20130311/92213/618/500/20/
015020/20130311/92230/615/2900/10/
015020/20130311/92230/614/4830/10/
015020/20130311/92230/612/1420/10/
015020/20130311/92230/611/5030/10/
015020/20130311/92230/610/10420/10/
015020/20130311/92230/610/5420/20/
015020/20130311/92259/615/400/20/
015020/20130311/92304/614/1000/20/
015020/20130311/92311/610/750/10/
015020/20130311/92314/610/4140/10/
015020/20130311/92315/610/4030/10/
015020/20130311/92315/609/1790/10/
015020/20130311/92323/613/460/20/
015020/20130311/92328/609/2440/10/
015020/20130311/92328/607/1030/10/
015020/20130311/92328/606/480/10/
015020/20130311/92402/606/1500/10/
015020/20130311/92407/606/710/10/
015020/20130311/92407/612/100/20/
015020/20130311/92420/607/2240/10/
015020/20130311/92420/606/7800/10/
015020/20130311/92436/606/10010/10/
015020/20130311/92442/607/300/10/
015020/20130311/92445/610/5500/20/
015020/20130311/92445/612/4500/20/
015020/20130311/92500/612/10000/20/
015020/20130311/92503/612/2000/20/
015020/20130311/92515/612/1080/20/
015020/20130311/92524/612/13340/20/
015020/20130311/92542/612/3940/10/
015020/20130311/92545/612/350/20/
015020/20130311/92611/611/550/10/
015020/20130311/92611/610/3340/10/
015020/20130311/92639/608/5870/10/
015020/20130311/92648/608/1020/20/
015020/20130311/92648/610/980/20/
015020/20130311/92651/610/2120/20/
015020/20130311/92651/613/100/20/
015020/20130311/92651/615/780/20/
015020/20130311/92709/615/100/20/
015020/20130311/92735/615/3550/20/
015020/20130311/92758/614/150/20/
015020/20130311/92758/615/350/20/
015020/20130311/92759/614/1000/10/
015020/20130311/92906/608/2470/10/
015020/20130311/92908/608/3030/10/
015020/20130311/92908/607/1970/10/
015020/20130311/92931/607/970/10/
015020/20130311/92945/605/4200/10/
015020/20130311/93000/604/300/10/
015020/20130311/93013/604/110/10/
015020/20130311/93013/603/1840/10/
015020/20130311/93013/602/120/10/
015020/20130311/93022/602/290/10/
015020/20130311/93022/601/1310/10/
015020/20130311/93022/600/15620/10/
015020/20130311/93032/600/17860/10/
015020/20130311/93033/600/880/20/
015020/20130311/93035/599/110/10/
015020/20130311/93035/598/4280/10/
015020/20130311/93035/600/560/10/
015020/20130311/93114/601/110/10/
015020/20130311/93128/601/8480/10/
015020/20130311/93129/601/210/20/
015020/20130311/93132/600/1110/10/
015020/20130311/93142/600/1060/20/
015020/20130311/93145/600/590/20/
015020/20130311/93145/601/410/20/
015020/20130311/93147/601/900/20/
015020/20130311/93150/601/100/10/
015020/20130311/93205/599/180/10/
015020/20130311/93213/599/1900/10/
015020/20130311/93214/599/220/10/
015020/20130311/93214/598/4780/10/
015020/20130311/93215/598/2070/10/
015020/20130311/93221/598/1360/20/
015020/20130311/93230/598/640/10/
015020/20130311/93230/597/2700/10/
015020/20130311/93243/600/130/10/
015020/20130311/93247/599/100/10/
015020/20130311/93247/599/6270/20/
015020/20130311/93249/600/420/20/
015020/20130311/93320/600/100/10/
015020/20130311/93355/598/3300/10/
015020/20130311/93355/597/670/10/
015020/20130311/93432/598/460/10/
015020/20130311/93445/598/150/20/
015020/20130311/93449/598/520/20/
015020/20130311/93450/597/430/10/
015020/20130311/93454/597/90/10/
015020/20130311/93500/597/2040/10/
015020/20130311/93506/597/9840/10/
015020/20130311/93506/597/1210/10/
015020/20130311/93509/598/500/20/
015020/20130311/93510/597/2800/10/
015020/20130311/93513/597/1200/10/
015020/20130311/93518/598/500/10/
015020/20130311/93523/597/500/10/
015020/20130311/93528/597/3440/10/
015020/20130311/93533/597/210/20/
015020/20130311/93544/598/270/20/
015020/20130311/93559/598/1060/10/
015020/20130311/93559/598/200/20/
015020/20130311/93600/598/110/20/
015020/20130311/93601/597/570/10/
015020/20130311/93613/598/90/20/
015020/20130311/93619/598/540/20/
015020/20130311/93620/598/160/20/
015020/20130311/93628/598/130/20/
015020/20130311/93633/598/3000/20/
015020/20130311/93656/598/90/20/
015020/20130311/93658/597/2540/10/
015020/20130311/93701/598/36030/20/
015020/20130311/93710/598/340/20/
015020/20130311/93725/600/1020/20/
015020/20130311/93737/600/130/20/
015020/20130311/93738/600/100/20/
015020/20130311/93740/600/100/20/
015020/20130311/93741/600/100/20/
015020/20130311/93743/600/100/20/
015020/20130311/93744/600/100/20/
015020/20130311/93745/600/100/20/
015020/20130311/93747/600/100/20/
015020/20130311/93748/600/100/20/
015020/20130311/93755/600/1000/20/
015020/20130311/93800/599/1460/10/
015020/20130311/93809/599/1060/10/
015020/20130311/93819/600/1000/20/
015020/20130311/93821/600/1000/20/
015020/20130311/93825/600/100/20/
015020/20130311/93902/600/690/20/
015020/20130311/93925/599/180/10/
015020/20130311/93950/599/1000/10/
015020/20130311/93953/599/210/10/
015020/20130311/93953/598/690/10/
015020/20130311/94010/598/400/10/
015020/20130311/94018/598/1150/20/
015020/20130311/94043/597/90/10/
015020/20130311/94057/597/100/10/
015020/20130311/94136/597/940/10/
015020/20130311/94136/596/2060/10/
015020/20130311/94218/596/1010/10/
015020/20130311/94316/597/2020/10/
015020/20130311/94338/596/4260/10/
015020/20130311/94338/595/32620/10/
015020/20130311/94338/594/2100/10/
015020/20130311/94338/593/20870/10/
015020/20130311/94344/593/90/20/
015020/20130311/94349/593/90/20/
015020/20130311/94358/592/140/10/
015020/20130311/94415/592/1520/10/
015020/20130311/94419/592/340/10/
015020/20130311/94419/591/2420/10/
015020/20130311/94419/590/260/10/
015020/20130311/94419/589/1290/10/
015020/20130311/94432/589/230/10/
015020/20130311/94436/589/480/10/
015020/20130311/94438/587/2000/10/
015020/20130311/94438/586/5000/10/
015020/20130311/94446/586/1940/10/
015020/20130311/94452/583/2160/10/
015020/20130311/94452/582/2490/10/
015020/20130311/94455/581/440/10/
015020/20130311/94457/581/4640/10/
015020/20130311/94457/580/4210/10/
015020/20130311/94506/576/380/10/
015020/20130311/94507/576/780/20/
015020/20130311/94550/579/1080/20/
015020/20130311/94554/579/100/10/
015020/20130311/94554/580/1560/20/
015020/20130311/94604/585/110/20/
015020/20130311/94606/585/500/20/
015020/20130311/94612/585/100/20/
015020/20130311/94612/585/1000/20/
015020/20130311/94616/580/850/10/
015020/20130311/94630/580/650/10/
015020/20130311/94706/585/2750/20/
015020/20130311/94716/585/1000/20/
015020/20130311/94726/585/2750/20/
015020/20130311/94737/585/760/10/
015020/20130311/94737/582/100/10/
015020/20130311/94815/585/1000/20/
015020/20130311/94844/585/110/20/
015020/20130311/94845/585/520/20/
015020/20130311/94906/585/3400/20/
015020/20130311/94908/585/1000/20/
015020/20130311/94913/584/130/10/
015020/20130311/94913/583/450/10/
015020/20130311/94931/585/970/10/
015020/20130311/95007/585/200/20/
015020/20130311/95017/586/4970/20/
015020/20130311/95021/586/1650/20/
015020/20130311/95040/586/1230/20/
015020/20130311/95043/585/1420/10/
015020/20130311/95044/585/700/10/
015020/20130311/95120/585/580/20/
015020/20130311/95143/588/220/20/
015020/20130311/95226/586/1000/10/
015020/20130311/95241/588/1530/20/
015020/20130311/95241/590/700/20/
015020/20130311/95241/592/1000/20/
015020/20130311/95241/593/1880/20/
015020/20130311/95244/593/110/20/
015020/20130311/95244/596/410/20/
015020/20130311/95336/594/1060/20/
015020/20130311/95337/594/560/10/
015020/20130311/95353/595/870/20/
015020/20130311/95353/596/1580/20/
015020/20130311/95353/597/2000/20/
015020/20130311/95353/599/2300/20/
015020/20130311/95353/600/3250/20/
015020/20130311/95507/593/160/10/
015020/20130311/95514/597/1000/20/
015020/20130311/95514/598/9000/20/
015020/20130311/95556/592/110/10/
015020/20130311/95628/592/200/10/
015020/20130311/95628/591/320/10/
015020/20130311/95648/591/490/10/
015020/20130311/95652/591/7220/10/
015020/20130311/95657/591/1000/20/
015020/20130311/95700/590/140/10/
015020/20130311/95702/591/13780/20/
015020/20130311/95716/591/1650/10/
015020/20130311/95718/591/4570/10/
015020/20130311/95728/591/430/20/
015020/20130311/95847/594/570/20/
015020/20130311/95848/593/100/10/
015020/20130311/95907/594/100/20/
015020/20130311/95909/594/1230/20/
015020/20130311/100016/597/400/20/
015020/20130311/100023/597/1000/20/
015020/20130311/100106/597/1000/20/
015020/20130311/100111/597/2000/20/
015020/20130311/100129/597/1000/20/
015020/20130311/100133/597/770/20/
015020/20130311/100210/597/290/20/
015020/20130311/100210/598/6710/20/
015020/20130311/100223/598/160/20/
015020/20130311/100242/598/610/20/
015020/20130311/100242/598/160/10/
015020/20130311/100321/599/3800/20/
015020/20130311/100349/595/1210/10/
015020/20130311/100349/594/1190/10/
015020/20130311/100624/595/810/10/
015020/20130311/100631/595/200/10/
015020/20130311/100637/598/300/20/
015020/20130311/100710/598/110/20/
015020/20130311/100737/598/1570/20/
015020/20130311/100822/598/2220/10/
015020/20130311/100844/598/1690/20/
015020/20130311/100846/598/1000/20/
015020/20130311/100923/598/500/20/
015020/20130311/100925/599/4690/20/
015020/20130311/101047/598/160/10/
015020/20130311/101121/596/1500/10/
015020/20130311/101133/596/3790/10/
015020/20130311/101225/596/1070/10/
015020/20130311/101321/596/2410/10/
015020/20130311/101326/596/320/10/
015020/20130311/101417/595/1630/10/
015020/20130311/101448/595/1000/20/
015020/20130311/101514/594/1000/10/
015020/20130311/101514/594/300/10/
015020/20130311/101521/595/330/20/
015020/20130311/101559/594/200/10/
015020/20130311/101722/594/1290/10/
015020/20130311/101740/594/700/10/
015020/20130311/101744/594/640/10/
015020/20130311/101746/594/690/10/
015020/20130311/101804/594/1000/20/
015020/20130311/101804/594/100/20/
015020/20130311/101811/594/790/20/
015020/20130311/101824/594/1210/10/
015020/20130311/101839/594/1000/20/
015020/20130311/101913/594/790/20/
015020/20130311/101927/595/2000/20/
015020/20130311/102100/595/230/20/
015020/20130311/102106/594/4000/10/
015020/20130311/102107/594/110/10/
015020/20130311/102114/594/1150/20/
015020/20130311/102122/593/4690/10/
015020/20130311/102149/594/310/20/
015020/20130311/102152/594/460/20/
015020/20130311/102239/594/200/10/
015020/20130311/102301/594/340/10/
015020/20130311/102324/594/100/20/
015020/20130311/102331/594/9000/20/
015020/20130311/102334/594/560/20/
015020/20130311/102345/594/440/10/
015020/20130311/102345/593/5310/10/
015020/20130311/102345/591/7000/10/
015020/20130311/102403/591/50000/20/
015020/20130311/102419/592/2350/10/
015020/20130311/102506/595/4660/20/
015020/20130311/102506/597/340/20/
015020/20130311/102507/597/4930/20/
015020/20130311/102514/600/5070/20/
015020/20130311/102528/592/120/10/
015020/20130311/102600/600/5760/20/
015020/20130311/102656/600/370/20/
015020/20130311/102656/601/1630/20/
015020/20130311/102728/601/370/20/
015020/20130311/102728/602/3250/20/
015020/20130311/102728/603/380/20/
015020/20130311/102734/603/90/20/
015020/20130311/102738/603/2000/20/
015020/20130311/102820/602/500/20/
015020/20130311/102820/602/1500/10/
015020/20130311/102835/603/3530/20/
015020/20130311/102835/604/14320/20/
015020/20130311/102835/605/22150/20/
015020/20130311/102835/600/100/10/
015020/20130311/102840/605/2050/20/
015020/20130311/102840/606/2950/20/
015020/20130311/102847/606/500/20/
015020/20130311/102849/606/1000/20/
015020/20130311/102909/605/770/20/
015020/20130311/102909/606/850/20/
015020/20130311/102910/606/1840/10/
015020/20130311/102921/607/350/20/
015020/20130311/102922/607/100/20/
015020/20130311/102922/608/3040/20/
015020/20130311/102931/607/2010/20/
015020/20130311/102937/607/350/20/
015020/20130311/102937/608/1650/20/
015020/20130311/103004/608/370/20/
015020/20130311/103011/608/1050/20/
015020/20130311/103015/608/1680/20/
015020/20130311/103015/608/420/10/
015020/20130311/103015/609/4420/20/
015020/20130311/103018/609/4990/20/
015020/20130311/103018/610/5010/20/
015020/20130311/103019/610/20000/20/
015020/20130311/103020/610/1040/20/
015020/20130311/103023/610/100/10/
015020/20130311/103024/611/150/20/
015020/20130311/103024/612/350/20/
015020/20130311/103027/612/150/20/
015020/20130311/103027/613/160/20/
015020/20130311/103027/614/690/20/
015020/20130311/103029/614/1260/20/
015020/20130311/103029/615/4310/20/
015020/20130311/103032/615/110/20/
015020/20130311/103035/615/500/20/
015020/20130311/103037/614/510/20/
015020/20130311/103039/614/490/20/
015020/20130311/103042/615/1040/20/
015020/20130311/103043/615/170/20/
015020/20130311/103043/615/140/20/
015020/20130311/103046/614/5000/10/
015020/20130311/103046/615/100/20/
015020/20130311/103054/613/5000/20/
015020/20130311/103054/614/5000/20/
015020/20130311/103054/615/3000/20/
015020/20130311/103058/612/120/20/
015020/20130311/103102/612/160/20/
015020/20130311/103114/614/550/20/
015020/20130311/103115/615/150/20/
015020/20130311/103118/615/550/20/
015020/20130311/103119/615/330/20/
015020/20130311/103119/615/500/20/
015020/20130311/103120/615/200/20/
015020/20130311/103125/615/3450/20/
015020/20130311/103125/615/420/10/
015020/20130311/103126/615/760/10/
015020/20130311/103128/616/280/20/
015020/20130311/103129/616/140/20/
015020/20130311/103130/616/200/20/
015020/20130311/103130/616/4920/20/
015020/20130311/103130/615/1000/10/
015020/20130311/103130/615/100/10/
015020/20130311/103132/615/1350/10/
015020/20130311/103153/614/130/20/
015020/20130311/103202/610/2230/10/
015020/20130311/103205/610/2000/20/
015020/20130311/103207/610/770/20/
015020/20130311/103214/610/3310/10/
015020/20130311/103217/609/200/10/
015020/20130311/103223/605/600/10/
015020/20130311/103223/610/90/20/
015020/20130311/103229/610/1390/20/
015020/20130311/103251/610/210/20/
015020/20130311/103252/610/1330/10/
015020/20130311/103306/610/1000/20/
015020/20130311/103311/605/100/10/
015020/20130311/103332/605/3480/10/
015020/20130311/103332/605/6520/20/
015020/20130311/103332/605/5000/20/
015020/20130311/103345/606/140/10/
015020/20130311/103403/606/4000/10/
015020/20130311/103427/606/380/20/
015020/20130311/103441/603/90/10/
015020/20130311/103445/606/1000/20/
015020/20130311/103450/606/1000/20/
015020/20130311/103512/606/3010/20/
015020/20130311/103528/606/1000/20/
015020/20130311/103536/606/150/20/
015020/20130311/103550/605/8750/10/
015020/20130311/103620/606/840/20/
015020/20130311/103639/607/120/20/
015020/20130311/103652/607/1000/20/
015020/20130311/103654/607/270/20/
015020/20130311/103658/607/840/20/
015020/20130311/103659/607/3010/20/
015020/20130311/103707/609/100/20/
015020/20130311/103708/610/1000/20/
015020/20130311/103713/610/90/20/
015020/20130311/103724/610/1000/20/
015020/20130311/103734/609/100/10/
015020/20130311/103741/608/1070/10/
015020/20130311/103741/607/3090/10/
015020/20130311/103819/606/340/10/
015020/20130311/103848/607/800/20/
015020/20130311/103920/607/100/20/
015020/20130311/103951/605/100/10/
015020/20130311/103954/605/11800/10/
015020/20130311/103956/605/1000/20/
015020/20130311/104018/605/10300/20/
015020/20130311/104055/607/1020/20/
015020/20130311/104149/608/110/20/
015020/20130311/104158/609/120/20/
015020/20130311/104159/609/930/20/
015020/20130311/104216/610/110/20/
015020/20130311/104224/610/100/20/
015020/20130311/104229/609/470/10/
015020/20130311/104232/609/190/20/
015020/20130311/104237/609/100/20/
015020/20130311/104239/609/240/20/
015020/20130311/104241/610/1000/20/
015020/20130311/104247/610/100/20/
015020/20130311/104255/610/110/20/
015020/20130311/104300/609/1000/10/
015020/20130311/104304/610/1000/20/
015020/20130311/104309/607/250/10/
015020/20130311/104309/604/360/10/
015020/20130311/104309/603/2110/10/
015020/20130311/104309/602/1170/10/
015020/20130311/104309/602/1400/20/
015020/20130311/104356/604/1020/10/
015020/20130311/104356/603/840/10/
015020/20130311/104356/601/2350/10/
015020/20130311/104356/600/9200/10/
015020/20130311/104441/600/1360/10/
015020/20130311/104441/599/1080/10/
015020/20130311/104441/598/1010/10/
015020/20130311/104441/597/1530/10/
015020/20130311/104441/596/610/10/
015020/20130311/104817/600/200/10/
015020/20130311/104817/599/130/10/
015020/20130311/104817/598/630/10/
015020/20130311/104817/597/350/10/
015020/20130311/104844/603/120/20/
015020/20130311/104845/603/1400/10/
015020/20130311/104850/603/120/10/
015020/20130311/104852/603/180/10/
015020/20130311/104915/598/140/10/
015020/20130311/104954/598/1000/10/
015020/20130311/105115/602/110/20/
015020/20130311/105130/601/100/10/
015020/20130311/105130/600/100/10/
015020/20130311/105130/598/2330/10/
015020/20130311/105130/597/2750/10/
015020/20130311/105130/596/480/10/
015020/20130311/105134/602/110/20/
015020/20130311/105134/603/390/20/
015020/20130311/105139/603/300/20/
015020/20130311/105147/602/100/20/
015020/20130311/105149/599/100/10/
015020/20130311/105149/598/100/10/
015020/20130311/105149/597/100/10/
015020/20130311/105149/596/250/10/
015020/20130311/105153/601/100/20/
015020/20130311/105245/597/500/10/
015020/20130311/105245/596/1920/10/
015020/20130311/105245/595/1090/10/
015020/20130311/105347/599/100/10/
015020/20130311/105347/598/100/10/
015020/20130311/105347/597/100/10/
015020/20130311/105347/596/100/10/
015020/20130311/105347/595/400/10/
015020/20130311/105347/594/4320/10/
015020/20130311/105347/593/650/10/
015020/20130311/105425/595/190/10/
015020/20130311/105426/595/120/10/
015020/20130311/105838/599/200/10/
015020/20130311/105901/600/110/20/
015020/20130311/105919/602/130/20/
015020/20130311/105924/602/500/20/
015020/20130311/105935/602/140/20/
015020/20130311/105937/602/500/10/
015020/20130311/110007/603/1160/20/
015020/20130311/110049/604/2050/20/
015020/20130311/110054/604/320/20/
015020/20130311/110054/605/1210/20/
015020/20130311/110054/606/6630/20/
015020/20130311/110124/606/500/20/
015020/20130311/110129/606/3110/20/
015020/20130311/110135/606/130/10/
015020/20130311/110219/606/500/20/
015020/20130311/110304/606/940/20/
015020/20130311/110333/606/330/20/
015020/20130311/110356/604/340/10/
015020/20130311/110400/604/660/10/
015020/20130311/110401/602/820/10/
015020/20130311/110401/600/970/10/
015020/20130311/110402/604/170/20/
015020/20130311/110503/604/670/20/
015020/20130311/110510/604/490/10/
015020/20130311/110622/601/1110/10/
015020/20130311/110622/600/2410/10/
015020/20130311/110741/605/120/20/
015020/20130311/110754/605/160/20/
015020/20130311/110754/606/440/20/
015020/20130311/110801/606/1000/20/
015020/20130311/110809/606/650/20/
015020/20130311/110944/607/90/20/
015020/20130311/110951/607/100/20/
015020/20130311/110953/606/330/10/
015020/20130311/110959/608/540/20/
015020/20130311/110959/609/470/20/
015020/20130311/111012/609/330/20/
015020/20130311/111012/610/710/20/
015020/20130311/111018/610/300/20/
015020/20130311/111020/610/830/20/
015020/20130311/111023/610/440/10/
015020/20130311/111023/609/1920/10/
015020/20130311/111039/610/490/20/
015020/20130311/111051/610/210/20/
015020/20130311/111051/611/860/20/
015020/20130311/111059/611/830/20/
015020/20130311/111103/611/210/20/
015020/20130311/111104/611/1270/20/
015020/20130311/111104/612/3980/20/
015020/20130311/111104/613/4750/20/
015020/20130311/111107/613/440/20/
015020/20130311/111117/613/180/20/
015020/20130311/111154/610/2240/10/
015020/20130311/111203/610/3320/10/
015020/20130311/111204/610/1000/10/
015020/20130311/111204/610/650/10/
015020/20130311/111204/610/720/10/
015020/20130311/111250/610/5010/20/
015020/20130311/111317/613/4710/20/
015020/20130311/111332/614/650/20/
015020/20130311/111336/613/170/10/
015020/20130311/111336/613/1000/10/
015020/20130311/111359/613/3540/20/
015020/20130311/111359/613/300/20/
015020/20130311/111359/614/3290/20/
015020/20130311/111359/615/1050/20/
015020/20130311/111404/613/510/20/
015020/20130311/111404/613/310/20/
015020/20130311/111422/613/3060/20/
015020/20130311/111427/612/540/10/
015020/20130311/111431/612/10000/20/
015020/20130311/111443/612/910/20/
015020/20130311/111443/613/100/20/
015020/20130311/111443/611/3310/10/
015020/20130311/111443/610/720/10/
015020/20130311/111515/614/5020/20/
015020/20130311/111537/614/1010/20/
015020/20130311/111542/614/1120/20/
015020/20130311/111552/614/2140/20/
015020/20130311/111552/615/3670/20/
015020/20130311/111556/616/11630/20/
015020/20130311/111556/617/3370/20/
015020/20130311/111606/617/2090/20/
015020/20130311/111606/618/6990/20/
015020/20130311/111606/619/13510/20/
015020/20130311/111606/620/25100/20/
015020/20130311/111607/620/8350/20/
015020/20130311/111612/620/4140/20/
015020/20130311/111613/619/3640/20/
015020/20130311/111622/620/7470/20/
015020/20130311/111622/620/500/20/
015020/20130311/111625/620/300/20/
015020/20130311/111625/620/90/20/
015020/20130311/111627/620/940/20/
015020/20130311/111631/617/90/10/
015020/20130311/111634/617/110/10/
015020/20130311/111639/619/1000/20/
015020/20130311/111648/617/180/10/
015020/20130311/111658/617/1000/10/
015020/20130311/111702/617/1000/10/
015020/20130311/111703/617/690/10/
015020/20130311/111713/615/90/10/
015020/20130311/111715/615/1000/10/
015020/20130311/111720/615/160/10/
015020/20130311/111749/615/100/20/
015020/20130311/111750/615/90/20/
015020/20130311/111754/614/1000/10/
015020/20130311/111759/615/940/20/
015020/20130311/111806/614/200/10/
015020/20130311/111815/617/90/20/
015020/20130311/111821/617/3610/20/
015020/20130311/111827/617/240/10/
015020/20130311/111828/617/2840/10/
015020/20130311/111828/617/680/10/
015020/20130311/111835/615/320/20/
015020/20130311/111857/617/4050/20/
015020/20130311/111911/618/5050/20/
015020/20130311/111911/619/15270/20/
015020/20130311/111925/620/170/20/
015020/20130311/111925/620/110/20/
015020/20130311/111931/620/210/20/
015020/20130311/111933/619/90/10/
015020/20130311/111935/619/650/20/
015020/20130311/111936/619/130/20/
015020/20130311/111938/619/170/20/
015020/20130311/111938/618/1000/10/
015020/20130311/111938/619/200/20/
015020/20130311/111938/619/220/20/
015020/20130311/111938/620/780/20/
015020/20130311/111942/619/500/10/
015020/20130311/111950/619/120/10/
015020/20130311/111950/619/240/10/
015020/20130311/112002/619/100/20/
015020/20130311/112019/618/1770/10/
015020/20130311/112040/618/2060/10/
015020/20130311/112046/619/510/20/
015020/20130311/112046/618/100/10/
015020/20130311/112111/617/620/10/
015020/20130311/112113/617/430/20/
015020/20130311/112113/619/970/20/
015020/20130311/112113/619/1620/10/
015020/20130311/112120/619/550/10/
015020/20130311/112123/619/140/20/
015020/20130311/112124/619/100/20/
015020/20130311/112130/619/250/20/
015020/20130311/112130/620/20430/20/
015020/20130311/112131/620/2010/20/
015020/20130311/112140/620/100/20/
015020/20130311/112140/620/480/20/
015020/20130311/112143/620/2050/20/
015020/20130311/112151/620/1080/20/
015020/20130311/112212/620/12760/20/
015020/20130311/112219/620/120/10/
015020/20130311/112228/621/1040/20/
015020/20130311/112237/621/1030/20/
015020/20130311/112237/622/2080/10/
015020/20130311/112240/623/90/20/
015020/20130311/112246/623/340/20/
015020/20130311/112246/622/1950/10/
015020/20130311/112248/620/100/10/
015020/20130311/112251/620/340/10/
015020/20130311/112319/620/120/20/
015020/20130311/112320/620/560/20/
015020/20130311/112344/622/1580/20/
015020/20130311/112344/623/1000/20/
015020/20130311/112351/621/180/10/
015020/20130311/112354/621/100/10/
015020/20130311/112355/620/110/10/
015020/20130311/112358/620/8010/10/
015020/20130311/112401/620/120/10/
015020/20130311/112410/622/990/20/
015020/20130311/112417/623/4030/20/
015020/20130311/112418/623/2680/20/
015020/20130311/112420/623/180/20/
015020/20130311/112421/623/170/20/
015020/20130311/112427/623/520/20/
015020/20130311/112434/623/1450/20/
015020/20130311/112434/624/200/20/
015020/20130311/112435/624/4640/20/
015020/20130311/112436/624/11950/20/
015020/20130311/112436/625/8050/20/
015020/20130311/112437/625/3000/20/
015020/20130311/112437/625/14820/20/
015020/20130311/112437/626/10000/20/
015020/20130311/112437/627/2600/20/
015020/20130311/112438/627/2000/20/
015020/20130311/112440/627/1410/20/
015020/20130311/112440/628/3590/20/
015020/20130311/112440/628/2880/20/
015020/20130311/112442/628/1520/20/
015020/20130311/112442/628/2000/20/
015020/20130311/112443/629/3520/20/
015020/20130311/112443/630/16480/20/
015020/20130311/112444/630/1240/20/
015020/20130311/112445/631/100/20/
015020/20130311/112447/631/310/10/
015020/20130311/112447/630/760/10/
015020/20130311/112449/630/3570/20/
015020/20130311/112449/632/1270/20/
015020/20130311/112449/633/170/20/
015020/20130311/112454/633/830/20/
015020/20130311/112454/635/190/20/
015020/20130311/112454/635/1010/20/
015020/20130311/112455/633/200/20/
015020/20130311/112455/635/310/20/
015020/20130311/112456/635/510/20/
015020/20130311/112457/635/100/20/
015020/20130311/112457/635/320/20/
015020/20130311/112458/635/4010/20/
015020/20130311/112458/635/500/20/
015020/20130311/112459/630/1030/10/
015020/20130311/112500/634/200/20/
015020/20130311/112501/634/500/20/
015020/20130311/112503/633/120/10/
015020/20130311/112503/634/1000/20/
015020/20130311/112504/634/2000/20/
015020/20130311/112505/633/100/10/
015020/20130311/112506/634/290/20/
015020/20130311/112507/633/1010/10/
015020/20130311/112508/633/1060/10/
015020/20130311/112508/633/1020/10/
015020/20130311/112510/630/3000/10/
015020/20130311/112510/630/1060/10/
015020/20130311/112519/633/560/20/
015020/20130311/112521/632/90/20/
015020/20130311/112524/632/140/20/
015020/20130311/112524/633/1760/20/
015020/20130311/112525/633/1020/20/
015020/20130311/112527/633/170/20/
015020/20130311/112527/633/130/20/
015020/20130311/112528/633/500/20/
015020/20130311/112529/633/210/20/
015020/20130311/112529/634/290/20/
015020/20130311/112530/634/120/20/
015020/20130311/112530/633/670/20/
015020/20130311/112531/633/200/20/
015020/20130311/112534/633/130/20/
015020/20130311/112536/633/100/20/
015020/20130311/112536/633/500/20/
015020/20130311/112539/633/90/20/
015020/20130311/112544/633/100/20/
015020/20130311/112545/633/3500/20/
015020/20130311/112548/634/280/20/
015020/20130311/112550/634/330/20/
015020/20130311/112551/634/160/20/
015020/20130311/112551/634/25290/20/
015020/20130311/112552/635/500/20/
015020/20130311/112552/634/1700/10/
015020/20130311/112552/633/5220/10/
015020/20130311/112553/633/560/20/
015020/20130311/112557/633/110/20/
015020/20130311/112600/633/3030/20/
015020/20130311/112601/633/120/20/
015020/20130311/112603/633/230/20/
015020/20130311/112605/633/250/20/
015020/20130311/112605/633/2430/20/
015020/20130311/112606/635/730/20/
015020/20130311/112607/635/130/20/
015020/20130311/112607/635/240/20/
015020/20130311/112608/635/200/20/
015020/20130311/112609/635/3420/20/
015020/20130311/112610/635/250/20/
015020/20130311/112611/635/100/20/
015020/20130311/112613/635/250/20/
015020/20130311/112614/635/230/20/
015020/20130311/112615/635/200/20/
015020/20130311/112616/635/170/20/
015020/20130311/112617/635/250/20/
015020/20130311/112618/635/150/20/
015020/20130311/112620/635/3000/20/
015020/20130311/112620/633/2830/10/
015020/20130311/112620/630/760/10/
015020/20130311/112620/629/5020/10/
015020/20130311/112620/627/330/10/
015020/20130311/112620/626/1130/10/
015020/20130311/112621/635/100/20/
015020/20130311/112628/634/170/20/
015020/20130311/112632/634/220/20/
015020/20130311/112633/634/110/20/
015020/20130311/112635/634/530/20/
015020/20130311/112635/634/110/20/
015020/20130311/112637/634/560/20/
015020/20130311/112638/634/400/20/
015020/20130311/112638/635/110/20/
015020/20130311/112638/635/550/20/
015020/20130311/112640/635/140/20/
015020/20130311/112641/634/90/20/
015020/20130311/112643/634/90/20/
015020/20130311/112648/634/170/20/
015020/20130311/112648/630/6300/20/
015020/20130311/112651/630/3020/20/
015020/20130311/112701/628/620/10/
015020/20130311/112707/633/90/20/
015020/20130311/112710/633/90/20/
015020/20130311/112710/633/90/20/
015020/20130311/112713/633/110/20/
015020/20130311/112716/634/100/20/
015020/20130311/112719/634/100/20/
015020/20130311/112722/634/180/20/
015020/20130311/112724/634/90/20/
015020/20130311/112724/634/8080/20/
015020/20130311/112727/630/440/10/
015020/20130311/112727/634/100/20/
015020/20130311/112728/634/5050/20/
015020/20130311/112730/634/550/20/
015020/20130311/112731/634/320/20/
015020/20130311/112731/635/180/20/
015020/20130311/112733/635/160/20/
015020/20130311/112736/635/100/20/
015020/20130311/112736/635/100/20/
015020/20130311/112738/635/5070/20/
015020/20130311/112739/635/110/20/
015020/20130311/112740/635/200/20/
015020/20130311/112742/635/9680/20/
015020/20130311/112743/636/4000/20/
015020/20130311/112743/636/5010/20/
015020/20130311/112743/635/1480/10/
015020/20130311/112744/635/2240/20/
015020/20130311/112744/636/390/20/
015020/20130311/112744/636/510/20/
015020/20130311/112746/636/120/20/
015020/20130311/112746/638/960/20/
015020/20130311/112747/636/1500/10/
015020/20130311/112747/635/4500/10/
015020/20130311/112747/634/410/10/
015020/20130311/112748/633/90/20/
015020/20130311/112749/633/2280/20/
015020/20130311/112750/633/1160/20/
015020/20130311/112751/633/1020/20/
015020/20130311/112754/633/6360/20/
015020/20130311/112754/633/1790/20/
015020/20130311/112755/633/90/20/
015020/20130311/112755/633/550/20/
015020/20130311/112759/633/330/20/
015020/20130311/112759/634/100/10/
015020/20130311/112759/633/1700/10/
015020/20130311/112759/632/650/10/
015020/20130311/112801/632/200/20/
015020/20130311/112806/631/980/10/
015020/20130311/112806/632/1560/20/
015020/20130311/112810/632/5000/20/
015020/20130311/112814/632/1000/20/
015020/20130311/112815/632/680/20/
015020/20130311/112815/636/1510/20/
015020/20130311/112828/634/4070/20/
015020/20130311/112836/634/170/20/
015020/20130311/112839/634/100/20/
015020/20130311/112839/634/660/20/
015020/20130311/112839/635/100/20/
015020/20130311/112840/634/4180/10/
015020/20130311/112840/634/850/20/
015020/20130311/112840/635/360/20/
015020/20130311/112840/636/1840/20/
015020/20130311/112843/636/100/20/
015020/20130311/112849/636/100/20/
015020/20130311/112852/636/6780/20/
015020/20130311/112853/636/320/20/
015020/20130311/112855/635/130/20/
015020/20130311/112857/635/810/20/
015020/20130311/112858/635/2730/20/
015020/20130311/112900/635/1080/20/
015020/20130311/112901/635/500/20/
015020/20130311/112902/635/250/20/
015020/20130311/112904/635/350/20/
015020/20130311/112905/635/1000/20/
015020/20130311/112906/635/500/20/
015020/20130311/112907/635/3100/20/
015020/20130311/112909/635/550/20/
015020/20130311/112910/635/1000/20/
015020/20130311/112911/636/110/20/
015020/20130311/112911/637/390/20/
015020/20130311/112913/637/90/20/
015020/20130311/112926/635/220/10/
015020/20130311/112931/635/360/10/
015020/20130311/112932/633/690/10/
015020/20130311/112932/633/1060/10/
015020/20130311/112932/631/750/10/
015020/20130311/112932/630/3190/10/
015020/20130311/112933/635/4180/20/
015020/20130311/112937/634/300/20/
015020/20130311/112954/631/1000/10/
015020/20130311/112959/632/7390/10/
015020/20130311/113000/632/13450/10/
015020/20130311/113000/632/2900/10/
015020/20130311/113001/633/110/20/
015020/20130311/113001/632/1990/10/
015020/20130311/113006/631/480/10/
015020/20130311/113006/630/1230/10/
015020/20130311/113007/630/2600/10/
015020/20130311/113008/630/2270/10/
015020/20130311/113017/629/3300/10/
015020/20130311/113017/628/6270/10/
015020/20130311/113017/627/20290/10/
015020/20130311/113021/626/2650/10/
015020/20130311/113021/624/1120/10/
015020/20130311/113021/623/420/10/
015020/20130311/113036/625/410/10/
015020/20130311/113045/627/120/20/
015020/20130311/113054/627/120/20/
015020/20130311/113056/627/160/20/
015020/20130311/113058/627/2170/20/
015020/20130311/113100/627/850/20/
015020/20130311/113100/627/120/20/
015020/20130311/113102/627/200/20/
015020/20130311/113104/627/300/20/
015020/20130311/113104/627/2100/20/
015020/20130311/113107/627/110/20/
015020/20130311/113139/627/180/20/
015020/20130311/113140/625/1140/10/
015020/20130311/113145/627/120/20/
015020/20130311/113147/627/770/20/
015020/20130311/113147/631/230/20/
015020/20130311/113149/631/130/20/
015020/20130311/113149/632/90/20/
015020/20130311/113149/633/330/20/
015020/20130311/113153/632/100/20/
015020/20130311/113155/631/90/20/
015020/20130311/113156/632/130/20/
015020/20130311/113210/631/300/20/
015020/20130311/113210/632/2010/20/
015020/20130311/113213/632/90/10/
015020/20130311/113215/632/910/10/
015020/20130311/113220/632/510/10/
015020/20130311/113220/632/610/10/
015020/20130311/113249/630/180/20/
015020/20130311/113249/631/1520/20/
015020/20130311/113255/631/480/20/
015020/20130311/113258/632/270/20/
015020/20130311/113305/633/100/20/
015020/20130311/113308/633/90/20/
015020/20130311/113312/633/1240/20/
015020/20130311/113313/633/1370/10/
015020/20130311/113316/633/600/20/
015020/20130311/113331/632/2000/20/
015020/20130311/113335/634/120/20/
015020/20130311/113336/634/100/20/
015020/20130311/113337/634/500/20/
015020/20130311/113338/634/430/20/
015020/20130311/113340/633/4000/10/
015020/20130311/113343/633/5000/20/
015020/20130311/113344/633/1000/20/
015020/20130311/113344/634/870/20/
015020/20130311/113344/635/3270/20/
015020/20130311/113344/635/500/10/
015020/20130311/113345/636/1080/20/
015020/20130311/113345/637/3920/20/
015020/20130311/113346/637/610/20/
015020/20130311/113348/637/500/20/
015020/20130311/113348/637/710/20/
015020/20130311/113348/638/1200/20/
015020/20130311/113350/639/5070/20/
015020/20130311/113350/639/4490/20/
015020/20130311/113350/640/13200/20/
015020/20130311/113350/641/2000/20/
015020/20130311/113351/641/540/20/
015020/20130311/113356/641/100/20/
015020/20130311/113357/640/1040/20/
015020/20130311/113357/641/300/20/
015020/20130311/113400/640/100/20/
015020/20130311/113401/640/270/20/
015020/20130311/113401/640/300/20/
015020/20130311/113402/640/1110/20/
015020/20130311/113402/641/250/20/
015020/20130311/113403/641/120/20/
015020/20130311/113403/641/620/20/
015020/20130311/113403/641/150/20/
015020/20130311/113404/641/6260/20/
015020/20130311/113405/642/4610/20/
015020/20130311/113405/642/1320/20/
015020/20130311/113406/642/510/20/
015020/20130311/113406/643/1020/20/
015020/20130311/113406/643/180/10/
015020/20130311/113407/644/90/20/
015020/20130311/113407/643/960/10/
015020/20130311/113407/642/1060/10/
015020/20130311/113408/644/100/20/
015020/20130311/113408/642/7830/10/
015020/20130311/113408/641/1080/10/
015020/20130311/113409/640/1000/20/
015020/20130311/113410/640/90/20/
015020/20130311/113410/644/140/20/
015020/20130311/113412/644/100/20/
015020/20130311/113413/640/320/10/
015020/20130311/113414/640/100/20/
015020/20130311/113414/640/200/20/
015020/20130311/113415/640/820/20/
015020/20130311/113417/640/6240/20/
015020/20130311/113421/640/100/20/
015020/20130311/113422/640/3700/20/
015020/20130311/113423/643/10040/20/
015020/20130311/113427/643/1880/20/
015020/20130311/113427/640/490/10/
015020/20130311/113429/640/1060/10/
015020/20130311/113431/644/1060/20/
015020/20130311/113431/644/270/20/
015020/20130311/113432/644/100/20/
015020/20130311/113432/644/270/20/
015020/20130311/113432/644/100/20/
015020/20130311/113433/644/10220/20/
015020/20130311/113433/644/1080/20/
015020/20130311/113434/644/270/20/
015020/20130311/113435/644/10060/20/
015020/20130311/113436/644/1920/20/
015020/20130311/113436/644/2000/20/
015020/20130311/113436/644/420/20/
015020/20130311/113436/644/2490/20/
015020/20130311/113437/645/100/20/
015020/20130311/113440/645/4040/20/
015020/20130311/113440/645/520/20/
015020/20130311/113442/645/90/20/
015020/20130311/113443/645/1420/20/
015020/20130311/113443/645/500/20/
015020/20130311/113446/644/7340/10/
015020/20130311/113446/645/7160/20/
015020/20130311/113446/646/2840/20/
015020/20130311/113446/646/90/20/
015020/20130311/113447/645/430/10/
015020/20130311/113449/646/3450/20/
015020/20130311/113449/647/1630/20/
015020/20130311/113450/647/90/20/
015020/20130311/113453/647/260/20/
015020/20130311/113455/647/1010/20/
015020/20130311/113456/647/140/20/
015020/20130311/113457/646/280/10/
015020/20130311/113458/647/4550/20/
015020/20130311/113458/648/120/20/
015020/20130311/113458/649/5330/20/
015020/20130311/113459/646/2260/10/
015020/20130311/113502/648/100/20/
015020/20130311/113504/648/1160/20/
015020/20130311/113505/648/840/10/
015020/20130311/113505/646/160/10/
015020/20130311/113505/648/3290/20/
015020/20130311/113505/649/4890/20/
015020/20130311/113507/648/140/20/
015020/20130311/113507/649/4450/20/
015020/20130311/113507/650/5410/20/
015020/20130311/113509/648/170/20/
015020/20130311/113510/648/850/20/
015020/20130311/113511/649/4150/10/
015020/20130311/113512/648/420/20/
015020/20130311/113512/649/1000/20/
015020/20130311/113517/649/640/10/
015020/20130311/113518/649/90/10/
015020/20130311/113519/649/2960/10/
015020/20130311/113520/650/10050/20/
015020/20130311/113520/650/5000/20/
015020/20130311/113521/649/300/10/
015020/20130311/113521/650/2900/20/
015020/20130311/113521/650/620/20/
015020/20130311/113522/650/5390/20/
015020/20130311/113522/650/1230/20/
015020/20130311/113522/650/250/20/
015020/20130311/113522/650/250/20/
015020/20130311/113524/650/1000/20/
015020/20130311/113525/650/200/20/
015020/20130311/113526/650/100/20/
015020/20130311/113530/649/2560/10/
015020/20130311/113531/649/230/10/
015020/20130311/113532/649/150/10/
015020/20130311/113533/649/260/10/
015020/20130311/113534/649/180/10/
015020/20130311/113534/649/6900/10/
015020/20130311/113534/650/120/20/
015020/20130311/113536/650/110/20/
015020/20130311/113536/649/2000/10/
015020/20130311/113539/649/2950/10/
015020/20130311/113539/647/1860/10/
015020/20130311/113539/646/190/10/
015020/20130311/113551/649/90/20/
015020/20130311/113557/648/1110/10/
015020/20130311/113557/648/250/10/
015020/20130311/113559/648/1890/10/
015020/20130311/113601/648/1230/10/
015020/20130311/113604/646/1480/10/
015020/20130311/113604/645/330/10/
015020/20130311/113604/644/5420/10/
015020/20130311/113615/644/4000/10/
015020/20130311/113617/648/1290/20/
015020/20130311/113617/649/1650/20/
015020/20130311/113617/650/24520/20/
015020/20130311/113617/651/11020/20/
015020/20130311/113617/653/160/20/
015020/20130311/113617/654/600/20/
015020/20130311/113617/644/160/10/
015020/20130311/113623/654/100/20/
015020/20130311/113629/652/100/20/
015020/20130311/113640/652/180/20/
015020/20130311/113641/652/100/20/
015020/20130311/113643/652/100/20/
015020/20130311/113644/652/100/20/
015020/20130311/113644/652/200/20/
015020/20130311/113645/652/100/20/
015020/20130311/113646/652/100/20/
015020/20130311/113646/652/100/20/
015020/20130311/113647/652/100/20/
015020/20130311/113648/652/100/20/
015020/20130311/113650/651/100/20/
015020/20130311/113700/651/240/20/
015020/20130311/113703/652/2100/20/
015020/20130311/113710/652/5470/20/
015020/20130311/113710/653/4000/20/
015020/20130311/113710/654/8870/20/
015020/20130311/113710/655/18800/20/
015020/20130311/113710/656/12600/20/
015020/20130311/113718/655/6030/20/
015020/20130311/113719/655/2000/20/
015020/20130311/113720/655/280/20/
015020/20130311/113721/653/100/10/
015020/20130311/113721/652/400/10/
015020/20130311/113723/654/1400/20/
015020/20130311/113724/654/600/20/
015020/20130311/113724/655/5500/20/
015020/20130311/113724/655/1610/20/
015020/20130311/113725/655/240/20/
015020/20130311/113725/656/760/20/
015020/20130311/113726/656/200/20/
015020/20130311/113727/656/19040/20/
015020/20130311/113728/656/4500/20/
015020/20130311/113730/656/1000/20/
015020/20130311/113730/655/100/20/
015020/20130311/113733/655/180/20/
015020/20130311/113734/656/300/20/
015020/20130311/113736/656/2040/20/
015020/20130311/113737/656/1300/20/
015020/20130311/113739/656/18320/20/
015020/20130311/113739/657/56520/20/
015020/20130311/113740/657/2000/20/
015020/20130311/113741/656/230/20/
015020/20130311/113742/656/1000/20/
015020/20130311/113743/656/100/20/
015020/20130311/113743/656/180/20/
015020/20130311/113744/656/100/20/
015020/20130311/113745/656/100/20/
015020/20130311/113746/656/500/20/
015020/20130311/113746/656/5120/20/
015020/20130311/113746/657/1940/20/
015020/20130311/113747/656/1950/20/
015020/20130311/113750/656/110/20/
015020/20130311/113757/656/500/20/
015020/20130311/113758/656/3010/20/
015020/20130311/113758/657/1190/20/
015020/20130311/113759/657/206710/20/
015020/20130311/113759/657/300/20/
015020/20130311/113800/657/1010/20/
015020/20130311/113800/657/2230/20/
015020/20130311/113800/657/1000/20/
015020/20130311/113800/657/1700/20/
015020/20130311/113800/657/1210/20/
015020/20130311/113800/657/3000/20/
015020/20130311/113800/657/30000/20/
015020/20130311/113800/657/810/20/
015020/20130311/113800/657/6000/20/
015020/20130311/113801/657/5440/20/
015020/20130311/113801/657/1000/20/
015020/20130311/113801/657/1000/20/
015020/20130311/113801/657/3520/20/
015020/20130311/113802/655/110/10/
015020/20130311/113802/657/2260/20/
015020/20130311/113802/657/20000/20/
015020/20130311/113802/657/10660/20/
015020/20130311/113802/657/5000/20/
015020/20130311/113802/657/1000/20/
015020/20130311/113803/657/1000/20/
015020/20130311/113803/657/440/20/
015020/20130311/113803/657/2000/20/
015020/20130311/113804/657/127210/20/
015020/20130311/113804/657/1020/10/
015020/20130311/113804/657/30000/10/
015020/20130311/113805/657/1000/10/
015020/20130311/113807/657/960/10/
015020/20130311/113807/657/2310/10/
015020/20130311/113808/657/1210/10/
015020/20130311/113808/657/1270/10/
015020/20130311/113808/655/1250/10/
015020/20130311/113809/653/220/10/
015020/20130311/113811/654/1580/20/
015020/20130311/113813/656/100/20/
015020/20130311/113816/656/10000/20/
015020/20130311/113816/656/1000/20/
015020/20130311/113817/656/100/20/
015020/20130311/113817/656/1210/20/
015020/20130311/113817/656/1400/20/
015020/20130311/113818/657/840/20/
015020/20130311/113821/657/3470/10/
015020/20130311/113824/657/4270/20/
015020/20130311/113825/657/1000/10/
015020/20130311/113827/657/730/10/
015020/20130311/113830/657/470/20/
015020/20130311/113833/657/100/10/
015020/20130311/113835/657/810/10/
015020/20130311/113836/657/1590/10/
015020/20130311/113836/657/510/20/
015020/20130311/113839/657/3650/10/
015020/20130311/113841/657/160/10/
015020/20130311/113841/657/1210/10/
015020/20130311/113841/657/170/10/
015020/20130311/113844/657/2560/20/
015020/20130311/113847/656/150/10/
015020/20130311/113849/657/1000/20/
015020/20130311/113901/657/320/20/
015020/20130311/113903/657/3510/20/
015020/20130311/113903/657/4890/20/
015020/20130311/113910/657/90/20/
015020/20130311/113910/657/1450/20/
015020/20130311/113912/657/1110/10/
015020/20130311/113912/657/590/10/
015020/20130311/113912/656/4710/10/
015020/20130311/113913/657/330/10/
015020/20130311/113913/655/2000/10/
015020/20130311/113917/657/1670/20/
015020/20130311/113923/657/120/10/
015020/20130311/113924/657/200/10/
015020/20130311/113924/657/8060/10/
015020/20130311/113931/657/310/10/
015020/20130311/113933/657/6030/10/
015020/20130311/113939/657/500/10/
015020/20130311/113942/657/1000/10/
015020/20130311/113951/657/7210/10/
015020/20130311/114007/657/1020/10/
015020/20130311/114016/657/100/10/
015020/20130311/114017/657/1850/10/
015020/20130311/114031/657/2020/10/
015020/20130311/114041/657/8960/10/
015020/20130311/114054/657/3080/10/
015020/20130311/114110/657/910/10/
015020/20130311/114116/657/200/10/
015020/20130311/114127/657/5000/10/
015020/20130311/114204/657/510/10/
015020/20130311/114247/657/810/10/
015020/20130311/114251/657/790/10/
015020/20130311/114319/657/460/10/
015020/20130311/114329/657/1600/10/
015020/20130311/114414/657/210/10/
015020/20130311/114419/657/4990/10/
015020/20130311/114519/657/10000/10/
015020/20130311/114550/657/1560/10/
015020/20130311/114555/657/250/10/
015020/20130311/114605/657/4000/10/
015020/20130311/114612/657/2500/10/
015020/20130311/114801/657/1000/10/
015020/20130311/114818/657/18210/10/
015020/20130311/114924/657/100/10/
015020/20130311/115103/657/1500/10/
015020/20130311/115242/657/370/10/
015020/20130311/115516/657/20040/10/
015020/20130311/115627/657/1000/10/
015020/20130311/115718/657/2000/10/
015020/20130311/115812/657/200/10/
015020/20130311/120100/657/2190/10/
015020/20130311/120125/657/2500/10/
015020/20130311/120301/657/230/10/
015020/20130311/121041/657/1260/10/
015020/20130311/121111/657/440/10/
015020/20130311/121359/657/1000/10/
015020/20130311/121805/657/1000/10/
015020/20130311/122044/657/300/10/
015020/20130311/122359/657/7100/10/
015020/20130311/122751/657/1500/10/
015020/20130311/123102/657/100/10/
015020/20130311/123613/657/200/10/
015020/20130311/124006/657/14000/10/
015020/20130311/124017/657/100/10/
015020/20130311/124733/657/11730/10/
015020/20130311/124824/657/4000/10/
015020/20130311/124913/657/290/10/
015020/20130311/125645/657/400/10/
015020/20130311/125759/657/700/10/
015020/20130311/125955/657/900/10/
015020/20130311/130014/657/500/10/
015020/20130311/130040/657/10500/10/
015020/20130311/130337/657/5810/10/
015020/20130311/130659/657/200/10/
015020/20130311/130812/657/4000/10/
015020/20130311/130828/657/200/10/
015020/20130311/131123/657/150/10/
015020/20130311/131436/657/6500/10/
015020/20130311/132027/657/10000/10/
015020/20130311/132621/657/1550/10/
015020/20130311/132810/657/250/10/
015020/20130311/133410/657/5000/10/
015020/20130311/133639/657/4000/10/
015020/20130311/134832/657/1560/10/
015020/20130311/140346/657/1000/10/
015020/20130311/140543/657/2000/10/
015020/20130311/141533/657/1010/10/
015020/20130311/142355/657/20000/10/
015020/20130311/142500/657/4000/10/
015020/20130311/142728/657/300/10/
015020/20130311/143558/657/110/10/
015020/20130311/144144/657/100/10/
015020/20130311/144832/657/20040/10/
015020/20130311/151000/657/150/10/
