015020/20121213/90000/448/90/10/
015020/20121213/90445/445/110/20/
015020/20121213/90630/444/3510/20/
015020/20121213/90633/444/500/10/
015020/20121213/90634/444/290/10/
015020/20121213/91140/439/5060/20/
015020/20121213/91153/440/1050/20/
015020/20121213/91157/440/2940/20/
015020/20121213/91250/442/4130/20/
015020/20121213/91314/442/870/20/
015020/20121213/91349/442/130/10/
015020/20121213/91446/442/500/10/
015020/20121213/91502/442/1820/10/
015020/20121213/91502/440/1680/10/
015020/20121213/91516/440/380/10/
015020/20121213/91536/440/620/20/
015020/20121213/91605/440/100/10/
015020/20121213/91612/440/200/10/
015020/20121213/91653/440/200/20/
015020/20121213/91655/440/200/10/
015020/20121213/91848/440/110/10/
015020/20121213/91954/440/90/10/
015020/20121213/92138/442/300/20/
015020/20121213/92431/440/420/10/
015020/20121213/92647/440/160/10/
015020/20121213/92911/440/480/10/
015020/20121213/92951/440/350/20/
015020/20121213/93021/440/170/20/
015020/20121213/93024/440/3300/10/
015020/20121213/93024/439/2700/10/
015020/20121213/93137/439/100/10/
015020/20121213/93435/439/280/10/
015020/20121213/93435/438/730/10/
015020/20121213/93648/440/1890/20/
015020/20121213/94220/439/540/10/
015020/20121213/94236/439/2000/10/
015020/20121213/94238/439/470/10/
015020/20121213/94446/439/530/10/
015020/20121213/94622/439/2210/10/
015020/20121213/94657/439/500/10/
015020/20121213/94740/439/340/10/
015020/20121213/94740/438/1660/10/
015020/20121213/95819/438/2080/10/
015020/20121213/100238/439/3000/10/
015020/20121213/100238/438/2940/10/
015020/20121213/100238/440/380/20/
015020/20121213/100641/440/260/20/
015020/20121213/100737/441/1070/20/
015020/20121213/101209/438/980/10/
015020/20121213/101330/440/10030/20/
015020/20121213/101404/442/100/20/
015020/20121213/101449/442/230/20/
015020/20121213/101554/440/4000/10/
015020/20121213/102425/441/520/20/
015020/20121213/102841/442/1010/20/
015020/20121213/103058/444/1740/20/
015020/20121213/103122/445/1050/20/
015020/20121213/103205/445/100/20/
015020/20121213/103205/446/1110/20/
015020/20121213/103205/448/850/20/
015020/20121213/103502/445/400/10/
015020/20121213/103615/444/1010/10/
015020/20121213/103723/445/1530/20/
015020/20121213/104028/444/2000/10/
015020/20121213/104147/444/290/10/
015020/20121213/104245/444/200/20/
015020/20121213/104311/444/210/10/
015020/20121213/104514/444/590/10/
015020/20121213/104539/443/670/10/
015020/20121213/104704/443/380/20/
015020/20121213/105334/443/950/20/
015020/20121213/105525/444/4410/20/
015020/20121213/105601/445/1000/20/
015020/20121213/105645/445/490/20/
015020/20121213/105741/445/510/20/
015020/20121213/105900/444/2010/10/
015020/20121213/105906/444/290/10/
015020/20121213/105917/444/3300/10/
015020/20121213/110109/444/2700/20/
015020/20121213/110148/444/3000/10/
015020/20121213/110204/444/1330/10/
015020/20121213/110757/444/2000/20/
015020/20121213/111036/444/800/20/
015020/20121213/111116/444/170/10/
015020/20121213/111233/444/1200/20/
015020/20121213/111328/445/90/20/
015020/20121213/111343/445/1920/20/
015020/20121213/111346/445/3050/20/
015020/20121213/111358/445/920/20/
015020/20121213/111409/445/1000/20/
015020/20121213/111415/445/1730/20/
015020/20121213/111641/445/150/20/
015020/20121213/112045/444/1750/10/
015020/20121213/112101/444/990/10/
015020/20121213/112149/443/1500/10/
015020/20121213/112149/442/1500/10/
015020/20121213/112346/444/90/20/
015020/20121213/112424/444/2000/20/
015020/20121213/112545/444/110/20/
015020/20121213/112551/444/250/20/
015020/20121213/112720/445/390/20/
015020/20121213/112720/448/3610/20/
015020/20121213/112951/448/4000/20/
015020/20121213/113212/448/410/10/
015020/20121213/113345/449/800/20/
015020/20121213/113359/448/380/20/
015020/20121213/113421/448/120/20/
015020/20121213/114219/449/340/20/
015020/20121213/114314/448/250/10/
015020/20121213/114314/447/230/10/
015020/20121213/114314/446/1020/10/
015020/20121213/114734/449/1080/20/
015020/20121213/114851/449/400/20/
015020/20121213/114909/450/1000/20/
015020/20121213/114935/450/230/20/
015020/20121213/114953/450/850/20/
015020/20121213/114958/450/610/20/
015020/20121213/115009/452/160/20/
015020/20121213/115141/450/1880/10/
015020/20121213/115147/450/180/20/
015020/20121213/115251/452/1970/20/
015020/20121213/115251/453/3080/20/
015020/20121213/115434/451/1080/10/
015020/20121213/115524/452/90/20/
015020/20121213/120105/449/600/10/
015020/20121213/120313/450/500/10/
015020/20121213/120322/450/510/10/
015020/20121213/120325/450/490/20/
015020/20121213/120433/450/330/10/
015020/20121213/120438/450/200/10/
015020/20121213/120502/450/510/10/
015020/20121213/120618/448/90/10/
015020/20121213/120628/448/90/10/
015020/20121213/120649/448/150/10/
015020/20121213/120659/448/370/10/
015020/20121213/120707/446/90/10/
015020/20121213/120710/448/500/20/
015020/20121213/120712/448/130/20/
015020/20121213/120740/448/370/10/
015020/20121213/120822/450/1650/20/
015020/20121213/120826/450/350/10/
015020/20121213/120834/450/660/20/
015020/20121213/121005/450/170/20/
015020/20121213/121005/451/4850/20/
015020/20121213/121012/451/5020/20/
015020/20121213/121045/448/90/10/
015020/20121213/121117/449/1020/10/
015020/20121213/121201/450/900/10/
015020/20121213/121222/450/140/20/
015020/20121213/121341/450/360/10/
015020/20121213/121503/450/500/20/
015020/20121213/121505/450/140/20/
015020/20121213/121633/450/540/20/
015020/20121213/121638/451/90/20/
015020/20121213/121703/451/100/20/
015020/20121213/121704/450/500/10/
015020/20121213/121758/450/110/10/
015020/20121213/121931/450/390/10/
015020/20121213/121943/450/110/20/
015020/20121213/122244/448/440/10/
015020/20121213/122432/448/180/10/
015020/20121213/122439/448/100/10/
015020/20121213/122447/448/150/10/
015020/20121213/122455/448/200/10/
015020/20121213/122646/447/390/10/
015020/20121213/122646/446/630/10/
015020/20121213/122646/445/130/10/
015020/20121213/122955/445/90/10/
015020/20121213/123203/448/530/10/
015020/20121213/123257/449/150/20/
015020/20121213/123257/450/4850/20/
015020/20121213/123305/450/140/20/
015020/20121213/123313/450/500/10/
015020/20121213/123334/450/360/10/
015020/20121213/123432/450/150/20/
015020/20121213/123457/450/560/20/
015020/20121213/123508/450/1000/20/
015020/20121213/123509/450/240/20/
015020/20121213/123952/446/90/10/
015020/20121213/124235/450/520/10/
015020/20121213/124248/450/550/20/
015020/20121213/124532/449/170/10/
015020/20121213/124616/449/110/10/
015020/20121213/124622/449/90/10/
015020/20121213/124640/451/1330/20/
015020/20121213/124640/452/1000/20/
015020/20121213/124647/452/200/10/
015020/20121213/124753/450/930/10/
015020/20121213/124838/450/900/10/
015020/20121213/124911/450/920/10/
015020/20121213/125141/450/5000/20/
015020/20121213/125205/450/580/10/
015020/20121213/130812/449/2020/20/
015020/20121213/130858/449/100/20/
015020/20121213/130858/450/4410/20/
015020/20121213/131323/450/1000/20/
015020/20121213/131333/450/1000/20/
015020/20121213/131340/450/880/20/
015020/20121213/131642/450/3030/20/
015020/20121213/131647/450/980/20/
015020/20121213/131932/451/3410/20/
015020/20121213/131938/451/1000/20/
015020/20121213/131939/451/230/20/
015020/20121213/131952/452/1020/20/
015020/20121213/131958/453/150/20/
015020/20121213/132048/454/200/20/
015020/20121213/132101/455/2320/20/
015020/20121213/132106/456/230/20/
015020/20121213/132112/456/140/20/
015020/20121213/132113/456/1000/20/
015020/20121213/132114/456/540/20/
015020/20121213/132114/457/460/20/
015020/20121213/132115/457/1000/20/
015020/20121213/132117/457/140/20/
015020/20121213/132117/458/860/20/
015020/20121213/132122/458/90/20/
015020/20121213/132142/458/180/20/
015020/20121213/132144/459/130/20/
015020/20121213/132154/459/170/20/
015020/20121213/132155/460/100/20/
015020/20121213/132201/460/2020/20/
015020/20121213/132209/461/90/20/
015020/20121213/132210/462/100/20/
015020/20121213/132212/462/4760/20/
015020/20121213/132216/462/150/20/
015020/20121213/132226/462/90/20/
015020/20121213/132236/461/130/20/
015020/20121213/132239/461/110/20/
015020/20121213/132240/461/120/20/
015020/20121213/132241/461/200/20/
015020/20121213/132242/461/110/20/
015020/20121213/132243/461/410/20/
015020/20121213/132243/462/110/20/
015020/20121213/132244/462/110/20/
015020/20121213/132257/462/90/20/
015020/20121213/132258/462/210/20/
015020/20121213/132304/462/90/20/
015020/20121213/132309/462/2140/20/
015020/20121213/132309/463/230/20/
015020/20121213/132309/464/5660/20/
015020/20121213/132312/464/90/20/
015020/20121213/132312/464/100/20/
015020/20121213/132314/464/120/20/
015020/20121213/132316/464/120/20/
015020/20121213/132317/465/110/20/
015020/20121213/132318/464/110/20/
015020/20121213/132325/464/90/20/
015020/20121213/132334/464/90/20/
015020/20121213/132334/464/100/20/
015020/20121213/132337/464/120/20/
015020/20121213/132337/464/110/20/
015020/20121213/132338/464/110/20/
015020/20121213/132340/464/110/20/
015020/20121213/132343/463/110/10/
015020/20121213/132349/463/90/20/
015020/20121213/132349/462/120/10/
015020/20121213/132357/462/90/20/
015020/20121213/132403/461/110/10/
015020/20121213/132403/460/1790/10/
015020/20121213/132408/460/110/20/
015020/20121213/132423/462/90/20/
015020/20121213/132539/459/1300/10/
015020/20121213/132616/459/90/20/
015020/20121213/132626/459/150/20/
015020/20121213/132715/459/5530/20/
015020/20121213/132715/462/1060/20/
015020/20121213/132715/463/2070/20/
015020/20121213/132720/463/120/20/
015020/20121213/132727/463/90/20/
015020/20121213/132732/463/90/20/
015020/20121213/132734/463/110/20/
015020/20121213/132735/463/110/20/
015020/20121213/132736/463/110/20/
015020/20121213/132745/463/90/20/
015020/20121213/132749/463/120/20/
015020/20121213/132753/463/130/20/
015020/20121213/132757/463/120/20/
015020/20121213/132800/463/120/20/
015020/20121213/132802/463/110/20/
015020/20121213/132803/463/110/20/
015020/20121213/132804/463/110/20/
015020/20121213/132818/463/160/20/
015020/20121213/132820/463/120/20/
015020/20121213/132821/463/110/20/
015020/20121213/132823/463/110/20/
015020/20121213/132828/463/120/20/
015020/20121213/132828/463/110/20/
015020/20121213/132829/463/110/20/
015020/20121213/132829/463/100/20/
015020/20121213/132830/463/110/20/
015020/20121213/132831/463/110/20/
015020/20121213/132841/463/90/20/
015020/20121213/132842/463/100/20/
015020/20121213/132843/463/110/20/
015020/20121213/132843/463/100/20/
015020/20121213/132843/463/110/20/
015020/20121213/132844/464/110/20/
015020/20121213/132844/464/110/20/
015020/20121213/132844/464/110/20/
015020/20121213/132845/464/110/20/
015020/20121213/132846/464/110/20/
015020/20121213/132847/464/110/20/
015020/20121213/132847/464/1030/20/
015020/20121213/132847/465/3470/20/
015020/20121213/132849/466/120/20/
015020/20121213/132850/466/110/20/
015020/20121213/132852/466/250/20/
015020/20121213/132853/466/210/20/
015020/20121213/132853/466/200/20/
015020/20121213/132854/466/210/20/
015020/20121213/132854/466/210/20/
015020/20121213/132855/466/210/20/
015020/20121213/132856/466/210/20/
015020/20121213/132856/466/210/20/
015020/20121213/132856/466/500/20/
015020/20121213/132857/466/660/20/
015020/20121213/132857/467/1330/20/
015020/20121213/132857/468/3200/20/
015020/20121213/132857/469/200/20/
015020/20121213/132857/468/1000/10/
015020/20121213/132858/469/2030/20/
015020/20121213/132900/469/130/20/
015020/20121213/132901/469/110/20/
015020/20121213/132901/469/110/20/
015020/20121213/132901/469/100/20/
015020/20121213/132905/469/90/20/
015020/20121213/132910/469/90/20/
015020/20121213/132911/469/220/20/
015020/20121213/132912/469/210/20/
015020/20121213/132912/469/210/20/
015020/20121213/132912/469/200/20/
015020/20121213/132913/469/210/20/
015020/20121213/132913/469/220/20/
015020/20121213/132914/469/220/20/
015020/20121213/132915/469/220/20/
015020/20121213/132916/469/1030/20/
015020/20121213/132916/470/4390/20/
015020/20121213/132917/470/210/20/
015020/20121213/132917/470/200/20/
015020/20121213/132917/470/210/20/
015020/20121213/132920/470/250/20/
015020/20121213/132920/470/1510/20/
015020/20121213/132920/471/130/20/
015020/20121213/132920/472/100/20/
015020/20121213/132920/473/100/20/
015020/20121213/132920/474/100/20/
015020/20121213/132920/475/1190/20/
015020/20121213/132922/475/240/20/
015020/20121213/132922/475/210/20/
015020/20121213/132923/475/220/20/
015020/20121213/132929/475/90/20/
015020/20121213/132930/475/1030/20/
015020/20121213/132933/475/2030/20/
015020/20121213/132934/470/90/10/
015020/20121213/132934/469/200/10/
015020/20121213/132935/469/90/20/
015020/20121213/132936/474/140/20/
015020/20121213/132936/474/110/20/
015020/20121213/132937/474/120/20/
015020/20121213/132938/474/110/20/
015020/20121213/132939/474/110/20/
015020/20121213/132940/474/110/20/
015020/20121213/132940/474/100/20/
015020/20121213/132940/474/110/20/
015020/20121213/132941/474/100/20/
015020/20121213/132941/474/490/20/
015020/20121213/132941/474/110/20/
015020/20121213/132942/473/1020/20/
015020/20121213/132942/474/1520/20/
015020/20121213/132942/475/110/20/
015020/20121213/132944/474/150/20/
015020/20121213/132944/474/100/20/
015020/20121213/132945/474/110/20/
015020/20121213/132945/475/100/20/
015020/20121213/132945/475/110/20/
015020/20121213/132946/473/120/20/
015020/20121213/132946/473/540/20/
015020/20121213/132946/473/100/20/
015020/20121213/132947/473/110/20/
015020/20121213/132952/473/90/20/
015020/20121213/132956/473/90/20/
015020/20121213/132959/473/950/20/
015020/20121213/133000/473/3180/10/
015020/20121213/133000/475/100/20/
015020/20121213/133000/475/110/20/
015020/20121213/133001/475/100/20/
015020/20121213/133001/475/120/20/
015020/20121213/133002/475/110/20/
015020/20121213/133002/474/110/20/
015020/20121213/133003/474/120/20/
015020/20121213/133004/475/110/20/
015020/20121213/133004/475/110/20/
015020/20121213/133005/474/110/20/
015020/20121213/133005/474/890/20/
015020/20121213/133005/475/1130/20/
015020/20121213/133006/475/110/20/
015020/20121213/133006/475/110/20/
015020/20121213/133006/475/110/20/
015020/20121213/133007/475/110/20/
015020/20121213/133008/475/270/20/
015020/20121213/133008/475/200/10/
015020/20121213/133008/475/120/10/
015020/20121213/133008/470/3900/10/
015020/20121213/133010/476/110/20/
015020/20121213/133011/476/120/20/
015020/20121213/133013/475/160/20/
015020/20121213/133013/475/140/20/
015020/20121213/133014/475/150/20/
015020/20121213/133015/475/140/20/
015020/20121213/133016/475/150/20/
015020/20121213/133017/475/140/20/
015020/20121213/133018/475/150/20/
015020/20121213/133023/475/90/20/
015020/20121213/133025/475/90/20/
015020/20121213/133027/475/90/20/
015020/20121213/133029/475/90/20/
015020/20121213/133031/475/90/20/
015020/20121213/133033/475/90/20/
015020/20121213/133034/470/100/10/
015020/20121213/133034/470/1000/20/
015020/20121213/133036/470/1540/20/
015020/20121213/133038/470/100/20/
015020/20121213/133038/470/450/20/
015020/20121213/133040/470/100/20/
015020/20121213/133041/470/100/20/
015020/20121213/133043/470/100/20/
015020/20121213/133043/470/510/20/
015020/20121213/133044/470/590/10/
015020/20121213/133051/469/1000/10/
015020/20121213/133053/469/540/10/
015020/20121213/133053/468/2400/10/
015020/20121213/133112/474/100/20/
015020/20121213/133114/474/100/20/
015020/20121213/133117/474/90/20/
015020/20121213/133120/474/90/20/
015020/20121213/133122/474/320/20/
015020/20121213/133129/474/170/20/
015020/20121213/133130/474/120/20/
015020/20121213/133130/474/110/20/
015020/20121213/133131/474/110/20/
015020/20121213/133132/475/110/20/
015020/20121213/133136/470/130/10/
015020/20121213/133137/470/100/20/
015020/20121213/133138/474/100/20/
015020/20121213/133140/474/110/20/
015020/20121213/133144/473/110/20/
015020/20121213/133147/473/100/20/
015020/20121213/133147/473/90/20/
015020/20121213/133148/474/100/20/
015020/20121213/133150/474/90/20/
015020/20121213/133155/474/90/20/
015020/20121213/133155/474/100/20/
015020/20121213/133156/474/110/20/
015020/20121213/133156/474/1350/20/
015020/20121213/133156/475/3180/20/
015020/20121213/133156/476/3720/20/
015020/20121213/133156/476/100/20/
015020/20121213/133157/476/120/20/
015020/20121213/133157/474/100/20/
015020/20121213/133157/474/110/20/
015020/20121213/133158/474/110/20/
015020/20121213/133158/474/560/20/
015020/20121213/133158/474/1120/20/
015020/20121213/133158/476/5520/20/
015020/20121213/133159/474/130/20/
015020/20121213/133159/474/3840/20/
015020/20121213/133200/474/120/20/
015020/20121213/133201/474/140/20/
015020/20121213/133202/474/120/20/
015020/20121213/133202/474/3560/20/
015020/20121213/133202/474/110/20/
015020/20121213/133202/474/2000/20/
015020/20121213/133202/476/110/20/
015020/20121213/133203/476/130/20/
015020/20121213/133203/476/140/20/
015020/20121213/133203/476/120/20/
015020/20121213/133204/476/110/20/
015020/20121213/133204/476/120/20/
015020/20121213/133204/476/120/20/
015020/20121213/133205/476/120/20/
015020/20121213/133205/476/120/20/
015020/20121213/133206/476/120/20/
015020/20121213/133206/476/120/20/
015020/20121213/133206/476/120/20/
015020/20121213/133207/476/120/20/
015020/20121213/133207/476/120/20/
015020/20121213/133208/476/220/20/
015020/20121213/133208/476/110/20/
015020/20121213/133208/476/130/20/
015020/20121213/133208/476/110/20/
015020/20121213/133209/476/120/20/
015020/20121213/133209/476/110/20/
015020/20121213/133210/476/130/20/
015020/20121213/133210/476/110/20/
015020/20121213/133210/476/120/20/
015020/20121213/133211/476/130/20/
015020/20121213/133211/476/110/20/
015020/20121213/133212/476/120/20/
015020/20121213/133212/476/120/20/
015020/20121213/133212/476/1150/20/
015020/20121213/133213/477/100/20/
015020/20121213/133213/478/130/20/
015020/20121213/133213/476/3950/10/
015020/20121213/133213/478/130/20/
015020/20121213/133214/478/120/20/
015020/20121213/133214/478/120/20/
015020/20121213/133215/478/120/20/
015020/20121213/133215/478/110/20/
015020/20121213/133217/478/140/20/
015020/20121213/133217/478/120/20/
015020/20121213/133218/478/160/20/
015020/20121213/133219/478/130/20/
015020/20121213/133219/478/130/20/
015020/20121213/133219/478/130/20/
015020/20121213/133220/476/1510/10/
015020/20121213/133220/478/130/20/
015020/20121213/133220/478/120/20/
015020/20121213/133221/478/130/20/
015020/20121213/133221/478/210/20/
015020/20121213/133221/478/130/20/
015020/20121213/133222/478/130/20/
015020/20121213/133222/478/120/20/
015020/20121213/133223/478/130/20/
015020/20121213/133223/478/120/20/
015020/20121213/133223/478/130/20/
015020/20121213/133224/478/410/20/
015020/20121213/133224/478/120/20/
015020/20121213/133224/478/140/20/
015020/20121213/133228/478/1080/20/
015020/20121213/133229/478/140/20/
015020/20121213/133229/478/130/20/
015020/20121213/133229/478/120/20/
015020/20121213/133230/478/130/20/
015020/20121213/133230/478/680/20/
015020/20121213/133230/478/130/20/
015020/20121213/133230/478/120/20/
015020/20121213/133231/478/140/20/
015020/20121213/133231/478/130/20/
015020/20121213/133232/478/140/20/
015020/20121213/133233/478/130/20/
015020/20121213/133233/478/130/20/
015020/20121213/133234/478/1010/20/
015020/20121213/133234/478/120/20/
015020/20121213/133234/476/160/10/
015020/20121213/133234/476/120/20/
015020/20121213/133235/476/130/20/
015020/20121213/133235/476/130/20/
015020/20121213/133236/476/120/20/
015020/20121213/133237/474/360/10/
015020/20121213/133237/470/3000/10/
015020/20121213/133238/470/1000/20/
015020/20121213/133241/470/3000/20/
015020/20121213/133242/470/2670/20/
015020/20121213/133248/470/690/10/
015020/20121213/133258/470/600/20/
015020/20121213/133258/469/200/10/
015020/20121213/133300/470/3710/20/
015020/20121213/133301/470/1290/10/
015020/20121213/133303/469/800/10/
015020/20121213/133323/469/3340/10/
015020/20121213/133323/469/540/10/
015020/20121213/133323/468/1150/10/
015020/20121213/133323/467/330/10/
015020/20121213/133325/470/2040/20/
015020/20121213/133326/473/100/20/
015020/20121213/133328/470/5010/10/
015020/20121213/133328/470/5000/10/
015020/20121213/133328/470/5000/10/
015020/20121213/133328/470/2970/10/
015020/20121213/133342/472/180/20/
015020/20121213/133343/472/120/20/
015020/20121213/133344/472/150/20/
015020/20121213/133347/472/130/20/
015020/20121213/133348/472/110/20/
015020/20121213/133356/469/1020/10/
015020/20121213/133404/471/160/20/
015020/20121213/133404/471/110/20/
015020/20121213/133405/471/100/20/
015020/20121213/133405/472/110/20/
015020/20121213/133405/471/110/20/
015020/20121213/133406/471/110/20/
015020/20121213/133421/470/90/20/
015020/20121213/133422/470/90/20/
015020/20121213/133433/470/90/20/
015020/20121213/133434/470/90/20/
015020/20121213/133437/470/90/20/
015020/20121213/133438/470/100/20/
015020/20121213/133440/470/90/20/
015020/20121213/133442/470/90/20/
015020/20121213/133452/469/90/20/
015020/20121213/133459/469/1250/20/
015020/20121213/133511/469/90/20/
015020/20121213/133515/469/140/20/
015020/20121213/133524/469/90/20/
015020/20121213/133533/468/90/20/
015020/20121213/133536/469/130/20/
015020/20121213/133536/469/100/20/
015020/20121213/133537/469/110/20/
015020/20121213/133538/469/110/20/
015020/20121213/133539/469/110/20/
015020/20121213/133540/469/110/20/
015020/20121213/133540/469/110/20/
015020/20121213/133541/469/110/20/
015020/20121213/133543/468/110/20/
015020/20121213/133543/468/110/20/
015020/20121213/133544/468/110/20/
015020/20121213/133545/468/110/20/
015020/20121213/133546/468/120/20/
015020/20121213/133547/468/110/20/
015020/20121213/133547/468/110/20/
015020/20121213/133548/468/110/20/
015020/20121213/133548/468/100/20/
015020/20121213/133549/468/110/20/
015020/20121213/133549/468/110/20/
015020/20121213/133550/468/110/20/
015020/20121213/133551/468/110/20/
015020/20121213/133551/468/110/20/
015020/20121213/133552/468/110/20/
015020/20121213/133553/469/110/20/
015020/20121213/133554/469/110/20/
015020/20121213/133554/469/110/20/
015020/20121213/133555/469/110/20/
015020/20121213/133603/465/620/10/
015020/20121213/133603/464/1000/10/
015020/20121213/133603/463/100/10/
015020/20121213/133603/462/3350/10/
015020/20121213/133603/462/1750/10/
015020/20121213/133603/461/310/10/
015020/20121213/133603/460/2940/10/
015020/20121213/133604/460/5000/10/
015020/20121213/133609/468/90/20/
015020/20121213/133612/468/90/20/
015020/20121213/133617/467/90/20/
015020/20121213/133621/467/100/20/
015020/20121213/133624/467/90/20/
015020/20121213/133625/462/210/10/
015020/20121213/133625/461/1310/10/
015020/20121213/133625/460/3480/10/
015020/20121213/133627/460/450/10/
015020/20121213/133627/460/4550/20/
015020/20121213/133630/460/4550/10/
015020/20121213/133632/460/450/20/
015020/20121213/133634/460/940/10/
015020/20121213/133636/460/170/10/
015020/20121213/133636/460/3660/20/
015020/20121213/133637/460/4000/20/
015020/20121213/133640/460/4000/20/
015020/20121213/133649/459/300/10/
015020/20121213/133651/460/1000/20/
015020/20121213/133709/460/1140/10/
015020/20121213/133749/459/550/10/
015020/20121213/133750/459/140/10/
015020/20121213/133805/458/1010/10/
015020/20121213/133829/459/250/20/
015020/20121213/133901/460/180/20/
015020/20121213/133901/460/1810/20/
015020/20121213/133902/460/190/10/
015020/20121213/133927/460/1500/20/
015020/20121213/134017/460/90/10/
015020/20121213/134105/462/90/20/
015020/20121213/134212/460/1220/10/
015020/20121213/134239/460/1010/20/
015020/20121213/134241/458/300/10/
015020/20121213/134243/458/190/10/
015020/20121213/134252/458/160/10/
015020/20121213/134301/458/4360/10/
015020/20121213/134324/460/1820/20/
015020/20121213/134339/460/800/10/
015020/20121213/134354/460/700/10/
015020/20121213/134403/460/100/10/
015020/20121213/134407/460/400/10/
015020/20121213/134438/460/100/20/
015020/20121213/134440/460/90/20/
015020/20121213/134515/460/1420/20/
015020/20121213/134515/461/490/20/
015020/20121213/134515/462/4260/20/
015020/20121213/134705/460/1510/20/
015020/20121213/134915/461/780/20/
015020/20121213/134945/460/1040/20/
015020/20121213/134945/461/1960/20/
015020/20121213/135055/461/1330/20/
015020/20121213/135114/461/400/10/
015020/20121213/135138/462/1000/20/
015020/20121213/135232/461/120/10/
015020/20121213/135232/459/1380/10/
015020/20121213/135319/459/4820/10/
015020/20121213/135358/458/600/10/
015020/20121213/135403/458/5050/10/
015020/20121213/135404/458/400/10/
015020/20121213/135419/457/1320/10/
015020/20121213/135439/457/200/10/
015020/20121213/135508/456/700/10/
015020/20121213/135509/456/440/10/
015020/20121213/135509/456/1170/20/
015020/20121213/135509/457/330/20/
015020/20121213/135526/457/800/20/
015020/20121213/135654/458/1000/20/
015020/20121213/135706/459/90/20/
015020/20121213/135827/457/3270/10/
015020/20121213/135834/458/1000/20/
015020/20121213/135847/458/980/20/
015020/20121213/135903/459/3390/20/
015020/20121213/135903/460/610/20/
015020/20121213/135910/460/890/20/
015020/20121213/135915/461/2000/20/
015020/20121213/135916/461/2400/10/
015020/20121213/135926/460/1160/20/
015020/20121213/140038/462/1560/20/
015020/20121213/140133/459/120/10/
015020/20121213/140152/462/90/20/
015020/20121213/140229/462/2270/20/
015020/20121213/140230/462/1720/20/
015020/20121213/140248/462/830/10/
015020/20121213/140253/462/450/10/
015020/20121213/140320/462/750/20/
015020/20121213/140320/462/3250/10/
015020/20121213/140405/463/320/20/
015020/20121213/140408/463/1100/20/
015020/20121213/140409/463/720/20/
015020/20121213/140422/464/300/20/
015020/20121213/140445/464/1720/20/
015020/20121213/140445/465/2280/20/
015020/20121213/140459/465/170/20/
015020/20121213/140459/465/100/10/
015020/20121213/140501/467/500/20/
015020/20121213/140503/467/400/20/
015020/20121213/140507/467/1010/20/
015020/20121213/140515/467/300/20/
015020/20121213/140518/467/820/20/
015020/20121213/140518/467/490/10/
015020/20121213/140520/467/1000/20/
015020/20121213/140520/467/510/20/
015020/20121213/140529/468/270/20/
015020/20121213/140534/468/1010/20/
015020/20121213/140537/468/2270/20/
015020/20121213/140537/469/1580/20/
015020/20121213/140545/468/3240/10/
015020/20121213/140546/468/4450/10/
015020/20121213/140548/470/2050/20/
015020/20121213/140555/470/150/20/
015020/20121213/140558/468/3000/10/
015020/20121213/140601/470/320/20/
015020/20121213/140605/470/310/20/
015020/20121213/140620/468/100/10/
015020/20121213/140637/470/1410/20/
015020/20121213/140648/468/460/10/
015020/20121213/140648/467/1550/10/
015020/20121213/140705/468/520/10/
015020/20121213/140709/468/200/20/
015020/20121213/140727/468/350/20/
015020/20121213/140729/467/300/10/
015020/20121213/140755/467/1220/20/
015020/20121213/140801/467/970/10/
015020/20121213/140916/465/900/10/
015020/20121213/140929/465/90/20/
015020/20121213/141040/463/100/10/
015020/20121213/141053/462/3050/10/
015020/20121213/141054/462/2230/10/
015020/20121213/141054/461/1100/10/
015020/20121213/141054/460/8550/10/
015020/20121213/141058/460/340/10/
015020/20121213/141101/460/2390/10/
015020/20121213/141228/461/170/20/
015020/20121213/141231/461/180/20/
015020/20121213/141231/462/720/20/
015020/20121213/141232/462/900/20/
015020/20121213/141320/462/150/20/
015020/20121213/141419/462/880/10/
015020/20121213/141428/465/110/20/
015020/20121213/141600/461/110/10/
015020/20121213/141600/460/1850/10/
015020/20121213/141621/460/900/10/
015020/20121213/141629/464/150/20/
015020/20121213/141724/463/1150/20/
015020/20121213/141724/464/850/20/
015020/20121213/141756/460/530/10/
015020/20121213/141821/463/510/20/
015020/20121213/141821/464/2200/20/
015020/20121213/141827/464/500/10/
015020/20121213/141829/464/140/10/
015020/20121213/141854/464/150/10/
015020/20121213/141952/460/1370/10/
015020/20121213/142127/460/530/10/
015020/20121213/142232/460/160/10/
015020/20121213/142258/460/1280/10/
015020/20121213/142331/460/200/10/
015020/20121213/142333/460/1000/10/
015020/20121213/142340/460/600/10/
015020/20121213/142434/460/1000/10/
015020/20121213/142439/460/810/10/
015020/20121213/142450/460/100/20/
015020/20121213/142517/460/90/20/
015020/20121213/142544/460/300/10/
015020/20121213/142550/460/200/10/
015020/20121213/142719/460/310/10/
015020/20121213/142719/459/690/10/
015020/20121213/142841/460/530/20/
015020/20121213/142849/460/400/10/
015020/20121213/142930/460/900/10/
015020/20121213/142955/460/900/10/
015020/20121213/143013/460/900/10/
015020/20121213/143013/458/100/10/
015020/20121213/143013/458/190/10/
015020/20121213/143425/460/900/10/
015020/20121213/143441/460/100/20/
015020/20121213/143603/460/800/10/
015020/20121213/143631/460/900/20/
015020/20121213/143648/460/150/20/
015020/20121213/143708/460/100/10/
015020/20121213/143742/460/650/10/
015020/20121213/143906/460/1100/10/
015020/20121213/143906/458/420/10/
015020/20121213/143939/460/500/10/
015020/20121213/144016/460/500/20/
015020/20121213/144107/461/1040/20/
015020/20121213/144354/461/90/20/
015020/20121213/144409/460/1000/10/
015020/20121213/144409/458/340/10/
015020/20121213/144432/457/5010/10/
015020/20121213/144617/461/660/20/
015020/20121213/144824/461/400/10/
015020/20121213/144830/458/1340/10/
015020/20121213/144836/458/1000/20/
015020/20121213/144838/458/310/20/
015020/20121213/144838/461/650/20/
015020/20121213/144922/464/140/20/
015020/20121213/144945/462/100/10/
015020/20121213/144945/461/150/10/
015020/20121213/144945/458/1000/10/
015020/20121213/144945/457/1000/10/
015020/20121213/144945/456/4340/10/
015020/20121213/144948/463/500/20/
015020/20121213/150000/463/5070/10/
