015020/20130206/90000/566/6890/10/
015020/20130206/90011/567/5000/10/
015020/20130206/90011/566/190/10/
015020/20130206/90025/566/5000/20/
015020/20130206/90036/566/300/20/
015020/20130206/90053/566/1050/20/
015020/20130206/90106/566/200/20/
015020/20130206/90123/566/1000/20/
015020/20130206/90123/566/1000/20/
015020/20130206/90124/566/100/20/
015020/20130206/90128/566/200/10/
015020/20130206/90134/566/880/20/
015020/20130206/90138/566/120/10/
015020/20130206/90138/565/160/10/
015020/20130206/90209/566/500/10/
015020/20130206/90217/570/8000/20/
015020/20130206/90217/566/500/10/
015020/20130206/90231/566/500/20/
015020/20130206/90340/568/1000/10/
015020/20130206/90352/571/5000/20/
015020/20130206/90429/568/550/10/
015020/20130206/90542/571/3420/20/
015020/20130206/90601/578/1020/20/
015020/20130206/90601/579/1000/20/
015020/20130206/90624/578/2000/20/
015020/20130206/90624/579/7630/20/
015020/20130206/90626/579/400/10/
015020/20130206/90637/578/2280/20/
015020/20130206/90637/578/4020/10/
015020/20130206/90723/573/1550/10/
015020/20130206/90723/572/3450/10/
015020/20130206/90913/574/300/10/
015020/20130206/90918/573/1000/10/
015020/20130206/90920/573/1000/10/
015020/20130206/90925/577/110/20/
015020/20130206/90952/577/1000/20/
015020/20130206/91045/574/1020/10/
015020/20130206/91045/573/1240/10/
015020/20130206/91103/573/2000/10/
015020/20130206/91116/572/1800/10/
015020/20130206/91132/572/1010/20/
015020/20130206/91146/571/260/10/
015020/20130206/91201/572/1470/10/
015020/20130206/91207/572/500/20/
015020/20130206/91226/571/100/10/
015020/20130206/91231/571/5720/10/
015020/20130206/91316/569/2000/10/
015020/20130206/91338/569/850/10/
015020/20130206/91344/569/3650/10/
015020/20130206/91346/569/530/10/
015020/20130206/91346/569/350/10/
015020/20130206/91356/569/1000/20/
015020/20130206/91359/569/100/20/
015020/20130206/91411/569/3210/20/
015020/20130206/91455/568/3000/10/
015020/20130206/91525/568/360/10/
015020/20130206/91538/568/470/20/
015020/20130206/91554/569/2730/20/
015020/20130206/91604/569/450/10/
015020/20130206/91604/568/4630/10/
015020/20130206/91614/568/7140/20/
015020/20130206/91616/568/1940/20/
015020/20130206/91622/568/1000/20/
015020/20130206/91630/568/120/20/
015020/20130206/91634/568/2000/20/
015020/20130206/91635/568/100/20/
015020/20130206/91637/568/200/20/
015020/20130206/91647/568/1000/20/
015020/20130206/91654/568/320/20/
015020/20130206/92124/569/1070/10/
015020/20130206/92157/571/3020/20/
015020/20130206/92235/571/2000/20/
015020/20130206/92421/571/2000/20/
015020/20130206/92441/571/800/20/
015020/20130206/92527/571/2000/20/
015020/20130206/92625/571/250/20/
015020/20130206/92710/569/3000/10/
015020/20130206/92721/569/500/10/
015020/20130206/92750/569/780/10/
015020/20130206/92832/569/850/10/
015020/20130206/92841/569/3600/10/
015020/20130206/92959/569/440/10/
015020/20130206/92959/568/9010/10/
015020/20130206/93012/568/8000/20/
015020/20130206/93034/568/100/20/
015020/20130206/93050/567/1020/10/
015020/20130206/93153/568/450/20/
015020/20130206/93156/568/90/20/
015020/20130206/93202/568/700/20/
015020/20130206/93219/567/2000/10/
015020/20130206/93250/568/1160/20/
015020/20130206/93252/567/1500/10/
015020/20130206/93312/567/2990/10/
015020/20130206/93353/568/3630/10/
015020/20130206/93353/567/5790/20/
015020/20130206/93403/566/2010/10/
015020/20130206/93524/567/90/20/
015020/20130206/93553/567/130/20/
015020/20130206/93621/567/320/20/
015020/20130206/93745/566/3210/10/
015020/20130206/93745/565/1870/10/
015020/20130206/93754/565/310/10/
015020/20130206/93834/566/100/20/
015020/20130206/93912/566/90/20/
015020/20130206/93923/566/1000/20/
015020/20130206/93941/566/1000/20/
015020/20130206/94011/566/1000/20/
015020/20130206/94022/566/1950/20/
015020/20130206/94411/567/1390/10/
015020/20130206/94411/566/690/10/
015020/20130206/94439/566/3760/10/
015020/20130206/94453/566/1240/20/
015020/20130206/94713/567/1500/10/
015020/20130206/94713/566/1530/10/
015020/20130206/94728/566/9730/10/
015020/20130206/94917/570/600/20/
015020/20130206/95258/570/1720/20/
015020/20130206/95308/570/300/10/
015020/20130206/95345/570/300/20/
015020/20130206/95354/571/10120/20/
015020/20130206/95459/571/2900/20/
015020/20130206/95500/571/30000/20/
015020/20130206/95503/571/200/20/
015020/20130206/95503/571/1000/20/
015020/20130206/95504/571/14940/20/
015020/20130206/95514/572/2200/20/
015020/20130206/95524/572/1400/10/
015020/20130206/95524/571/4600/10/
015020/20130206/95543/573/1330/20/
015020/20130206/95544/573/2870/20/
015020/20130206/95626/573/160/20/
015020/20130206/95645/572/200/10/
015020/20130206/95707/573/400/20/
015020/20130206/95710/572/3600/10/
015020/20130206/95710/571/1680/10/
015020/20130206/95719/571/100/20/
015020/20130206/95724/571/100/20/
015020/20130206/95729/571/13910/20/
015020/20130206/95749/573/140/20/
015020/20130206/95907/574/1110/20/
015020/20130206/95908/574/250/10/
015020/20130206/95910/574/600/10/
015020/20130206/95938/573/1000/10/
015020/20130206/100050/574/200/20/
015020/20130206/100055/574/2300/20/
015020/20130206/100101/574/210/10/
015020/20130206/100119/574/2970/20/
015020/20130206/100123/574/820/20/
015020/20130206/100135/575/500/20/
015020/20130206/100148/575/13000/20/
015020/20130206/100149/575/5220/20/
015020/20130206/100227/575/520/20/
015020/20130206/100229/575/180/10/
015020/20130206/100229/575/1820/20/
015020/20130206/100310/576/20650/20/
015020/20130206/100341/575/1500/10/
015020/20130206/100407/577/190/20/
015020/20130206/100417/577/100/10/
015020/20130206/100421/577/100/10/
015020/20130206/100616/577/2200/10/
015020/20130206/100619/577/4020/10/
015020/20130206/100635/577/640/10/
015020/20130206/100646/577/1000/10/
015020/20130206/100653/577/600/10/
015020/20130206/100700/577/400/10/
015020/20130206/100732/577/2000/10/
015020/20130206/100735/577/680/10/
015020/20130206/100755/577/320/20/
015020/20130206/100804/577/2000/10/
015020/20130206/100819/577/3780/20/
015020/20130206/100826/577/1000/20/
015020/20130206/101026/577/2060/20/
015020/20130206/101146/577/1160/20/
015020/20130206/101348/576/1210/10/
015020/20130206/101409/576/540/10/
015020/20130206/101416/576/1000/10/
015020/20130206/101509/576/1950/10/
015020/20130206/101946/576/600/10/
015020/20130206/101955/576/90/20/
015020/20130206/102001/576/2360/20/
015020/20130206/102105/576/530/20/
015020/20130206/102207/576/820/20/
015020/20130206/102211/576/100/20/
015020/20130206/102228/576/200/20/
015020/20130206/102245/576/4030/20/
015020/20130206/102251/576/340/20/
015020/20130206/102332/577/4950/20/
015020/20130206/102356/577/1000/20/
015020/20130206/102448/578/2000/20/
015020/20130206/102452/578/500/20/
015020/20130206/102454/578/500/20/
015020/20130206/102527/578/2070/20/
015020/20130206/102529/578/200/20/
015020/20130206/102534/578/5000/20/
015020/20130206/102538/578/500/20/
015020/20130206/102540/578/1000/20/
015020/20130206/102648/578/190/20/
015020/20130206/102713/578/500/10/
015020/20130206/102729/578/140/20/
015020/20130206/102759/578/4300/20/
015020/20130206/102904/578/1060/20/
015020/20130206/102945/578/15000/10/
015020/20130206/103018/579/440/20/
015020/20130206/103032/580/400/20/
015020/20130206/103047/580/520/20/
015020/20130206/103132/580/500/20/
015020/20130206/103145/580/90/20/
015020/20130206/103209/580/440/20/
015020/20130206/103259/580/5000/20/
015020/20130206/103352/580/1750/20/
015020/20130206/103406/581/1000/20/
015020/20130206/103406/581/3800/20/
015020/20130206/103426/584/1000/20/
015020/20130206/103428/584/1000/20/
015020/20130206/103428/584/1250/20/
015020/20130206/103437/585/11840/20/
015020/20130206/103439/585/1000/20/
015020/20130206/103441/585/1000/20/
015020/20130206/103441/585/1510/20/
015020/20130206/103514/585/1070/10/
015020/20130206/103515/585/800/10/
015020/20130206/103518/585/1700/20/
015020/20130206/103651/583/520/10/
015020/20130206/103817/583/1580/10/
015020/20130206/103832/582/2840/10/
015020/20130206/103832/581/760/10/
015020/20130206/103838/581/240/10/
015020/20130206/103844/580/13000/10/
015020/20130206/103845/580/1150/10/
015020/20130206/103912/580/460/10/
015020/20130206/103943/580/710/10/
015020/20130206/104059/583/430/20/
015020/20130206/104248/583/1010/20/
015020/20130206/104248/584/2700/20/
015020/20130206/105022/583/500/20/
015020/20130206/105114/581/670/10/
015020/20130206/105140/580/3620/10/
015020/20130206/105226/580/500/10/
015020/20130206/105444/580/3840/10/
015020/20130206/105619/583/3270/20/
015020/20130206/105619/584/4950/20/
015020/20130206/105632/584/1660/10/
015020/20130206/105858/581/340/10/
015020/20130206/105925/581/1360/20/
015020/20130206/110057/581/350/10/
015020/20130206/110238/584/1010/20/
015020/20130206/110408/580/6130/10/
015020/20130206/110525/580/1780/20/
015020/20130206/110525/580/2090/20/
015020/20130206/110941/583/820/20/
015020/20130206/112215/579/1360/10/
015020/20130206/112247/580/560/10/
015020/20130206/112255/580/2080/10/
015020/20130206/112443/580/380/20/
015020/20130206/112448/579/2700/10/
015020/20130206/112448/578/2060/10/
015020/20130206/112448/577/2230/10/
015020/20130206/112448/576/3040/10/
015020/20130206/112448/575/5810/10/
015020/20130206/112448/574/4170/10/
015020/20130206/112814/580/2000/20/
015020/20130206/112851/580/1510/10/
015020/20130206/112957/578/840/10/
015020/20130206/113101/578/1170/10/
015020/20130206/113101/577/760/10/
015020/20130206/113128/577/1700/10/
015020/20130206/113134/577/6790/10/
015020/20130206/113204/577/800/10/
015020/20130206/113214/577/200/20/
015020/20130206/113259/577/8000/10/
015020/20130206/113315/577/7000/10/
015020/20130206/113726/577/2320/10/
015020/20130206/113830/577/510/10/
015020/20130206/113831/577/1990/10/
015020/20130206/113933/576/2370/10/
015020/20130206/114049/575/3420/10/
015020/20130206/114100/575/200/20/
015020/20130206/114214/575/4670/10/
015020/20130206/114542/575/100/10/
015020/20130206/114708/579/700/20/
015020/20130206/114726/576/300/10/
015020/20130206/114904/576/6030/10/
015020/20130206/115056/576/5000/10/
015020/20130206/115423/576/5000/10/
015020/20130206/115941/580/410/20/
015020/20130206/120136/577/2000/10/
015020/20130206/120142/580/4060/20/
015020/20130206/120543/579/200/20/
015020/20130206/120611/579/200/10/
015020/20130206/120724/580/840/20/
015020/20130206/120745/580/350/20/
015020/20130206/120822/580/430/20/
015020/20130206/120857/580/90/20/
015020/20130206/121342/579/2680/10/
015020/20130206/121812/579/4650/10/
015020/20130206/122257/579/1380/10/
015020/20130206/122356/577/13240/10/
015020/20130206/122356/577/4260/20/
015020/20130206/122612/579/500/20/
015020/20130206/122624/579/600/10/
015020/20130206/123038/579/2230/20/
015020/20130206/123923/577/2120/10/
015020/20130206/123923/576/6880/10/
015020/20130206/123955/576/3000/10/
015020/20130206/124106/578/200/20/
015020/20130206/124148/577/90/20/
015020/20130206/124243/577/1600/20/
015020/20130206/124617/576/1240/10/
015020/20130206/124638/575/990/10/
015020/20130206/124755/576/2000/10/
015020/20130206/124939/576/1020/20/
015020/20130206/124956/576/100/20/
015020/20130206/125007/576/750/20/
015020/20130206/125131/576/1000/10/
015020/20130206/125903/578/1010/20/
015020/20130206/130100/580/4310/20/
015020/20130206/130111/580/190/20/
015020/20130206/130252/580/100/20/
015020/20130206/130312/579/1000/10/
015020/20130206/130436/580/100/20/
015020/20130206/130456/580/100/20/
015020/20130206/130542/579/100/20/
015020/20130206/130605/579/100/20/
015020/20130206/130629/579/100/20/
015020/20130206/131306/577/6400/10/
015020/20130206/131306/576/1010/10/
015020/20130206/131306/574/4690/10/
015020/20130206/131401/575/90/10/
015020/20130206/132212/576/2020/10/
015020/20130206/132340/576/1010/10/
015020/20130206/132437/576/2890/10/
015020/20130206/132525/576/110/20/
015020/20130206/132647/576/960/10/
015020/20130206/132658/576/4000/20/
015020/20130206/132707/576/240/20/
015020/20130206/132808/578/670/20/
015020/20130206/132808/579/530/20/
015020/20130206/133825/577/680/10/
015020/20130206/134351/577/480/10/
015020/20130206/134814/577/3430/10/
015020/20130206/134841/577/780/20/
015020/20130206/135159/577/4000/10/
015020/20130206/135338/577/2230/10/
015020/20130206/135506/577/5490/10/
015020/20130206/135658/578/4050/10/
015020/20130206/135711/578/100/20/
015020/20130206/135721/578/910/20/
015020/20130206/135732/578/1940/20/
015020/20130206/135814/579/1000/20/
015020/20130206/140240/578/2260/10/
015020/20130206/140352/578/2510/10/
015020/20130206/140446/577/4490/10/
015020/20130206/140912/577/210/10/
015020/20130206/141024/576/5000/10/
015020/20130206/141054/576/800/10/
015020/20130206/141136/575/6000/10/
015020/20130206/141136/574/400/10/
015020/20130206/141530/575/500/20/
015020/20130206/141640/576/210/20/
015020/20130206/141654/575/1000/10/
015020/20130206/141744/576/520/20/
015020/20130206/141825/576/470/20/
015020/20130206/142005/575/2930/10/
015020/20130206/142117/574/540/10/
015020/20130206/143035/576/200/20/
015020/20130206/143106/576/820/20/
015020/20130206/143330/575/5230/10/
015020/20130206/143330/574/14050/10/
015020/20130206/143330/573/3380/10/
015020/20130206/143502/573/10020/10/
015020/20130206/143858/578/510/20/
015020/20130206/144220/577/300/20/
015020/20130206/144350/575/790/10/
015020/20130206/144350/574/170/10/
015020/20130206/144418/574/2200/10/
015020/20130206/144515/574/2500/10/
015020/20130206/144516/574/1940/10/
015020/20130206/144651/574/1000/10/
015020/20130206/144822/574/8060/10/
015020/20130206/144832/574/1000/10/
015020/20130206/144856/574/2000/10/
015020/20130206/150000/581/22330/20/
