015020/20130201/90000/658/5920/10/
015020/20130201/90048/658/90/10/
015020/20130201/90048/656/1570/10/
015020/20130201/90149/665/1380/20/
015020/20130201/90149/666/210/20/
015020/20130201/90149/667/810/20/
015020/20130201/90149/667/6430/10/
015020/20130201/90423/659/700/10/
015020/20130201/90423/658/510/10/
015020/20130201/90423/657/1000/10/
015020/20130201/90423/656/5110/10/
015020/20130201/90423/655/3650/10/
015020/20130201/90508/656/120/10/
015020/20130201/90519/656/5040/10/
015020/20130201/90601/656/1500/10/
015020/20130201/90632/664/1200/20/
015020/20130201/90701/663/380/20/
015020/20130201/90701/664/1690/20/
015020/20130201/90701/664/2930/10/
015020/20130201/90712/664/200/10/
015020/20130201/90758/658/2300/10/
015020/20130201/90832/658/160/10/
015020/20130201/90952/658/1010/10/
015020/20130201/91022/658/100/10/
015020/20130201/91129/659/270/10/
015020/20130201/91129/658/1730/10/
015020/20130201/91324/658/770/10/
015020/20130201/91332/659/1000/20/
015020/20130201/91334/658/790/10/
015020/20130201/91400/658/370/10/
015020/20130201/91400/657/6200/10/
015020/20130201/91512/657/540/10/
015020/20130201/91543/656/5000/10/
015020/20130201/91550/656/150/10/
015020/20130201/91601/656/1000/10/
015020/20130201/91620/656/260/10/
015020/20130201/91620/655/3830/10/
015020/20130201/91647/655/610/10/
015020/20130201/91703/655/1450/10/
015020/20130201/91831/655/350/10/
015020/20130201/91853/655/660/10/
015020/20130201/91853/654/3000/10/
015020/20130201/91853/653/3300/10/
015020/20130201/91854/653/2370/20/
015020/20130201/91903/655/1000/10/
015020/20130201/91915/652/520/10/
015020/20130201/91926/652/5000/10/
015020/20130201/91951/652/2890/10/
015020/20130201/92050/652/2250/10/
015020/20130201/92103/652/2020/10/
015020/20130201/92103/651/5050/10/
015020/20130201/92103/650/720/10/
015020/20130201/92128/650/220/10/
015020/20130201/92203/651/1490/10/
015020/20130201/92415/651/460/10/
015020/20130201/92420/651/400/10/
015020/20130201/92441/651/530/10/
015020/20130201/92444/651/5750/10/
015020/20130201/92444/650/4470/10/
015020/20130201/92835/652/1000/10/
015020/20130201/92846/651/20010/10/
015020/20130201/92846/650/9990/10/
015020/20130201/92932/651/1530/10/
015020/20130201/92932/650/3000/10/
015020/20130201/92932/649/470/10/
015020/20130201/93015/650/150/10/
015020/20130201/93015/649/2780/10/
015020/20130201/93015/648/4300/10/
015020/20130201/93148/648/140/10/
015020/20130201/93338/649/1030/10/
015020/20130201/93338/648/1700/10/
015020/20130201/93338/647/1330/10/
015020/20130201/93436/648/1080/10/
015020/20130201/93437/648/1250/20/
015020/20130201/93515/648/2050/20/
015020/20130201/93521/648/100/20/
015020/20130201/93524/648/100/20/
015020/20130201/93529/648/100/20/
015020/20130201/93533/648/100/20/
015020/20130201/93536/648/1000/20/
015020/20130201/93540/648/100/20/
015020/20130201/93545/648/300/20/
015020/20130201/93547/648/300/20/
015020/20130201/93548/648/100/20/
015020/20130201/93558/648/170/20/
015020/20130201/93605/648/500/20/
015020/20130201/93606/648/100/20/
015020/20130201/93617/648/90/20/
015020/20130201/93623/648/290/20/
015020/20130201/93811/648/1960/10/
015020/20130201/93942/648/1050/20/
015020/20130201/93947/648/450/20/
015020/20130201/94005/651/2500/20/
015020/20130201/94031/651/110/20/
015020/20130201/94134/648/2570/10/
015020/20130201/94134/647/2450/10/
015020/20130201/94206/647/5000/10/
015020/20130201/94214/647/1670/10/
015020/20130201/94214/646/330/10/
015020/20130201/94424/647/1200/10/
015020/20130201/94432/647/3170/10/
015020/20130201/94514/647/5090/10/
015020/20130201/94525/647/100/20/
015020/20130201/94536/647/120/20/
015020/20130201/94539/647/1010/20/
015020/20130201/94539/646/6400/10/
015020/20130201/94610/647/90/20/
015020/20130201/94627/646/1050/10/
015020/20130201/94636/647/170/20/
015020/20130201/94735/647/3580/10/
015020/20130201/94944/647/710/10/
015020/20130201/95036/648/1040/10/
015020/20130201/95036/647/4850/10/
015020/20130201/95036/646/1860/10/
015020/20130201/95057/646/1000/10/
015020/20130201/95121/646/420/10/
015020/20130201/95144/648/670/20/
015020/20130201/95212/648/330/10/
015020/20130201/95253/648/670/20/
015020/20130201/95447/648/350/20/
015020/20130201/95448/648/1200/20/
015020/20130201/95509/648/450/20/
015020/20130201/95707/648/1000/10/
015020/20130201/95808/647/1040/10/
015020/20130201/95813/646/3620/10/
015020/20130201/95813/645/3770/10/
015020/20130201/95854/644/700/10/
015020/20130201/95930/644/700/10/
015020/20130201/100043/644/1200/10/
015020/20130201/100056/643/130/10/
015020/20130201/100056/642/1630/10/
015020/20130201/100150/643/1550/10/
015020/20130201/100236/643/940/10/
015020/20130201/100254/643/320/10/
015020/20130201/100338/643/1020/10/
015020/20130201/100345/643/2000/10/
015020/20130201/100352/643/620/10/
015020/20130201/100417/642/1380/10/
015020/20130201/100422/642/2000/10/
015020/20130201/100434/642/8000/10/
015020/20130201/100507/641/3900/10/
015020/20130201/100507/640/5700/10/
015020/20130201/100524/640/3720/10/
015020/20130201/100605/640/870/20/
015020/20130201/100614/640/100/20/
015020/20130201/100616/639/630/10/
015020/20130201/100616/639/670/10/
015020/20130201/100624/639/330/20/
015020/20130201/100639/639/1690/10/
015020/20130201/100736/640/950/20/
015020/20130201/100801/640/2010/20/
015020/20130201/100920/639/1030/10/
015020/20130201/100959/638/120/10/
015020/20130201/101012/638/890/10/
015020/20130201/101012/637/460/10/
015020/20130201/101044/637/540/10/
015020/20130201/101044/635/1440/10/
015020/20130201/101045/639/100/20/
015020/20130201/101125/637/330/10/
015020/20130201/101141/637/320/10/
015020/20130201/101141/636/560/10/
015020/20130201/101141/635/1300/10/
015020/20130201/101229/635/1000/10/
015020/20130201/101319/636/1300/10/
015020/20130201/101451/637/300/20/
015020/20130201/101516/637/350/20/
015020/20130201/101604/637/200/10/
015020/20130201/101634/636/2160/10/
015020/20130201/101647/636/2340/10/
015020/20130201/101718/636/2970/10/
015020/20130201/101732/635/3880/10/
015020/20130201/101737/635/1630/20/
015020/20130201/101750/635/1200/10/
015020/20130201/101750/636/2000/20/
015020/20130201/101758/636/240/10/
015020/20130201/101758/635/1890/10/
015020/20130201/102000/635/1450/10/
015020/20130201/102022/635/2240/10/
015020/20130201/102100/635/600/10/
015020/20130201/102117/635/2820/10/
015020/20130201/102124/635/3130/10/
015020/20130201/102153/635/5000/10/
015020/20130201/102157/635/2000/10/
015020/20130201/102208/635/3000/10/
015020/20130201/102224/635/1870/10/
015020/20130201/102317/635/130/20/
015020/20130201/102519/635/200/10/
015020/20130201/102618/636/2700/10/
015020/20130201/102733/637/500/10/
015020/20130201/102733/636/750/10/
015020/20130201/102851/635/3070/10/
015020/20130201/103006/635/2990/10/
015020/20130201/103021/638/1500/20/
015020/20130201/103109/635/2020/20/
015020/20130201/103111/635/2400/20/
015020/20130201/103351/636/730/10/
015020/20130201/103443/636/8580/10/
015020/20130201/103542/637/540/20/
015020/20130201/103707/639/1000/20/
015020/20130201/103731/639/2000/20/
015020/20130201/103735/639/1960/20/
015020/20130201/103855/641/1000/10/
015020/20130201/104008/641/630/10/
015020/20130201/104008/640/370/10/
015020/20130201/104013/640/5550/10/
015020/20130201/104050/640/450/20/
015020/20130201/104130/640/2000/10/
015020/20130201/104146/639/4340/10/
015020/20130201/104259/637/10080/10/
015020/20130201/104259/635/11000/10/
015020/20130201/104328/635/640/10/
015020/20130201/104527/635/3130/10/
015020/20130201/104544/635/710/10/
015020/20130201/104551/635/540/10/
015020/20130201/104601/635/500/10/
015020/20130201/104604/635/910/10/
015020/20130201/104609/635/500/10/
015020/20130201/104624/635/630/10/
015020/20130201/104624/634/1870/10/
015020/20130201/104823/635/160/10/
015020/20130201/104948/635/10000/10/
015020/20130201/105100/635/1180/10/
015020/20130201/105140/635/740/20/
015020/20130201/105209/635/350/10/
015020/20130201/105215/634/12980/10/
015020/20130201/105343/634/220/10/
015020/20130201/105509/634/2530/10/
015020/20130201/105536/634/200/20/
015020/20130201/105630/634/1500/10/
015020/20130201/110054/639/600/20/
015020/20130201/110130/639/420/10/
015020/20130201/110412/636/280/10/
015020/20130201/110412/635/1330/10/
015020/20130201/110452/635/8720/10/
015020/20130201/110515/635/1040/20/
015020/20130201/110544/635/240/20/
015020/20130201/110913/635/1190/10/
015020/20130201/110935/635/320/20/
015020/20130201/110949/635/490/20/
015020/20130201/111114/639/760/20/
015020/20130201/111114/640/730/20/
015020/20130201/111114/641/4410/20/
015020/20130201/111452/640/9010/20/
015020/20130201/111502/640/90/20/
015020/20130201/111526/640/160/20/
015020/20130201/111539/640/1350/20/
015020/20130201/111826/639/1000/20/
015020/20130201/111836/640/90/20/
015020/20130201/112107/640/19730/20/
015020/20130201/112210/641/2070/20/
015020/20130201/112217/641/360/20/
015020/20130201/112239/641/500/10/
015020/20130201/112239/640/500/10/
015020/20130201/112348/644/330/20/
015020/20130201/112352/644/3670/20/
015020/20130201/112416/644/330/10/
015020/20130201/112851/640/1510/10/
015020/20130201/113241/644/130/20/
015020/20130201/113304/644/510/20/
015020/20130201/113405/644/370/20/
015020/20130201/113426/645/160/20/
015020/20130201/113532/644/140/20/
015020/20130201/113600/644/190/20/
015020/20130201/113600/645/100/20/
015020/20130201/113646/644/170/10/
015020/20130201/113658/643/320/10/
015020/20130201/113659/643/720/10/
015020/20130201/113659/642/1000/10/
015020/20130201/113659/641/7280/10/
015020/20130201/113850/641/15760/10/
015020/20130201/113907/641/230/20/
015020/20130201/114107/643/290/20/
015020/20130201/114112/643/250/20/
015020/20130201/114114/640/1860/10/
015020/20130201/114146/644/1000/20/
015020/20130201/114205/644/510/10/
015020/20130201/114211/645/250/20/
015020/20130201/114216/642/1120/10/
015020/20130201/114445/645/130/20/
015020/20130201/114458/645/100/20/
015020/20130201/114637/646/1040/20/
015020/20130201/114810/645/1000/20/
015020/20130201/114830/646/930/20/
015020/20130201/115221/645/110/20/
015020/20130201/115252/645/500/20/
015020/20130201/115517/643/450/10/
015020/20130201/115517/642/1540/10/
015020/20130201/115813/640/1950/10/
015020/20130201/115813/638/750/10/
015020/20130201/120220/639/460/10/
015020/20130201/120231/639/2530/10/
015020/20130201/120236/639/470/20/
015020/20130201/120801/642/90/20/
015020/20130201/121450/642/100/20/
015020/20130201/122007/642/120/20/
015020/20130201/122213/642/120/20/
015020/20130201/122237/642/510/20/
015020/20130201/122310/642/100/20/
015020/20130201/122345/643/7330/20/
015020/20130201/122638/641/3230/10/
015020/20130201/122655/641/1520/20/
015020/20130201/122701/641/200/20/
015020/20130201/122727/641/1000/20/
015020/20130201/122747/641/390/20/
015020/20130201/122937/641/210/10/
015020/20130201/122952/641/1710/10/
015020/20130201/123025/641/1530/20/
015020/20130201/123109/641/260/20/
015020/20130201/123821/642/210/10/
015020/20130201/123834/641/880/10/
015020/20130201/123834/640/100/10/
015020/20130201/123834/639/180/10/
015020/20130201/124011/640/230/10/
015020/20130201/124301/640/1450/10/
015020/20130201/124301/640/110/20/
015020/20130201/124422/639/300/10/
015020/20130201/124549/640/590/20/
015020/20130201/124742/643/1360/20/
015020/20130201/124818/644/510/20/
015020/20130201/124850/643/7000/10/
015020/20130201/125112/641/570/10/
015020/20130201/125112/640/130/10/
015020/20130201/125207/640/470/10/
015020/20130201/125216/640/90/20/
015020/20130201/125330/644/6370/20/
015020/20130201/125330/645/4640/20/
015020/20130201/125340/645/870/20/
015020/20130201/125505/645/4780/20/
015020/20130201/125515/645/170/20/
015020/20130201/125626/645/2720/20/
015020/20130201/125632/645/560/20/
015020/20130201/125708/647/100/20/
015020/20130201/125723/647/4900/20/
015020/20130201/125732/648/1010/20/
015020/20130201/125802/647/100/10/
015020/20130201/125929/648/520/20/
015020/20130201/125940/648/980/20/
015020/20130201/130040/648/150/10/
015020/20130201/130122/649/90/20/
015020/20130201/130218/649/110/20/
015020/20130201/130256/649/100/20/
015020/20130201/130256/650/2590/20/
015020/20130201/130332/650/700/20/
015020/20130201/130338/650/1800/10/
015020/20130201/130456/645/2650/10/
015020/20130201/130849/649/100/20/
015020/20130201/131455/648/1010/10/
015020/20130201/131528/650/100/20/
015020/20130201/131535/649/200/10/
015020/20130201/131721/648/500/10/
015020/20130201/131730/648/520/10/
015020/20130201/131736/648/100/10/
015020/20130201/131747/648/100/10/
015020/20130201/131831/648/370/10/
015020/20130201/131831/647/1040/10/
015020/20130201/132526/648/1010/20/
015020/20130201/132553/648/1000/20/
015020/20130201/132601/648/200/20/
015020/20130201/132606/648/1000/20/
015020/20130201/132621/648/1000/20/
015020/20130201/132632/648/100/20/
015020/20130201/132641/648/1000/20/
015020/20130201/132646/648/210/20/
015020/20130201/132705/648/530/20/
015020/20130201/132731/649/1250/20/
015020/20130201/132806/649/710/20/
015020/20130201/132834/649/260/20/
015020/20130201/132855/650/740/20/
015020/20130201/132855/650/100/20/
015020/20130201/133009/648/200/10/
015020/20130201/133037/649/150/10/
015020/20130201/133054/649/1330/10/
015020/20130201/133121/650/100/20/
015020/20130201/133204/649/5000/10/
015020/20130201/133223/649/2550/10/
015020/20130201/133224/649/90/20/
015020/20130201/133428/648/1300/10/
015020/20130201/133428/647/1000/10/
015020/20130201/133428/646/3010/10/
015020/20130201/133428/645/14170/10/
015020/20130201/133452/645/3040/20/
015020/20130201/133510/645/490/20/
015020/20130201/134400/649/150/20/
015020/20130201/134525/649/1600/20/
015020/20130201/134609/649/160/20/
015020/20130201/134656/646/810/10/
015020/20130201/134709/646/620/10/
015020/20130201/134709/645/1150/10/
015020/20130201/134709/642/400/10/
015020/20130201/134958/642/150/10/
015020/20130201/135031/642/2690/10/
015020/20130201/135031/642/2310/20/
015020/20130201/135150/642/1140/10/
015020/20130201/135150/641/2000/10/
015020/20130201/135151/640/580/10/
015020/20130201/135153/641/100/20/
015020/20130201/135253/640/1000/10/
015020/20130201/135258/640/210/10/
015020/20130201/135319/640/1990/10/
015020/20130201/135319/639/2850/10/
015020/20130201/135319/639/12760/20/
015020/20130201/135719/640/650/10/
015020/20130201/135719/639/2350/10/
015020/20130201/135720/639/250/10/
015020/20130201/135848/640/290/10/
015020/20130201/135904/647/100/20/
015020/20130201/135907/640/200/10/
015020/20130201/140437/645/190/20/
015020/20130201/140440/645/90/20/
015020/20130201/140452/640/1060/10/
015020/20130201/140452/639/4080/10/
015020/20130201/140452/638/1290/10/
015020/20130201/140452/637/230/10/
015020/20130201/140519/638/120/10/
015020/20130201/140519/637/2260/10/
015020/20130201/140910/637/3000/10/
015020/20130201/141155/643/160/20/
015020/20130201/141233/643/830/20/
015020/20130201/141250/643/170/10/
015020/20130201/141751/644/220/20/
015020/20130201/141920/644/3000/20/
015020/20130201/142056/644/100/20/
015020/20130201/142131/644/100/20/
015020/20130201/142422/644/250/20/
015020/20130201/142439/644/100/20/
015020/20130201/142504/644/400/20/
015020/20130201/142621/644/1030/20/
015020/20130201/142738/644/700/20/
015020/20130201/142912/644/100/20/
015020/20130201/142913/644/250/20/
015020/20130201/142943/644/800/20/
015020/20130201/142949/643/1500/10/
015020/20130201/143000/643/5000/10/
015020/20130201/143014/643/590/10/
015020/20130201/143202/644/1720/20/
015020/20130201/143210/644/3990/10/
015020/20130201/143210/646/130/20/
015020/20130201/143220/646/900/20/
015020/20130201/143303/644/3000/10/
015020/20130201/143310/645/1000/10/
015020/20130201/143319/646/90/20/
015020/20130201/143350/646/6000/20/
015020/20130201/143433/645/1000/20/
015020/20130201/143433/646/1880/20/
015020/20130201/143433/647/820/20/
015020/20130201/143456/648/150/20/
015020/20130201/143528/648/500/20/
015020/20130201/143841/646/320/10/
015020/20130201/144041/644/430/10/
015020/20130201/144101/643/90/10/
015020/20130201/144142/642/1760/10/
015020/20130201/144142/641/1740/10/
015020/20130201/144338/641/1620/10/
015020/20130201/144406/641/850/10/
015020/20130201/144527/641/1060/10/
015020/20130201/144527/640/220/10/
015020/20130201/144527/639/100/10/
015020/20130201/144527/637/620/10/
015020/20130201/144635/637/1510/10/
015020/20130201/144701/637/1010/10/
015020/20130201/144911/638/120/10/
015020/20130201/144911/637/1400/10/
015020/20130201/144929/640/470/20/
015020/20130201/150000/633/83130/20/
