015020/20130104/90000/561/22240/10/
015020/20130104/90007/562/16800/20/
015020/20130104/90013/565/550/20/
015020/20130104/90041/565/430/20/
015020/20130104/90047/563/510/10/
015020/20130104/90048/563/1940/20/
015020/20130104/90110/562/2880/10/
015020/20130104/90111/562/6160/20/
015020/20130104/90117/561/5720/10/
015020/20130104/90117/559/2000/10/
015020/20130104/90117/558/2300/10/
015020/20130104/90125/558/2500/10/
015020/20130104/90125/557/11660/10/
015020/20130104/90126/557/210/20/
015020/20130104/90126/563/100/20/
015020/20130104/90126/564/4690/20/
015020/20130104/90136/562/1420/20/
015020/20130104/90145/562/720/20/
015020/20130104/90151/562/710/20/
015020/20130104/90154/563/190/20/
015020/20130104/90155/563/480/20/
015020/20130104/90155/561/530/10/
015020/20130104/90155/559/5000/10/
015020/20130104/90155/558/4490/10/
015020/20130104/90212/559/3010/10/
015020/20130104/90212/558/6230/10/
015020/20130104/90212/557/770/10/
015020/20130104/90227/560/110/10/
015020/20130104/90232/560/1640/10/
015020/20130104/90242/562/5630/20/
015020/20130104/90247/562/4020/20/
015020/20130104/90252/562/160/20/
015020/20130104/90259/563/520/20/
015020/20130104/90303/563/1010/20/
015020/20130104/90303/563/1000/20/
015020/20130104/90321/563/2680/20/
015020/20130104/90322/564/2000/20/
015020/20130104/90325/564/1000/20/
015020/20130104/90331/564/2350/20/
015020/20130104/90343/565/510/20/
015020/20130104/90347/565/2000/20/
015020/20130104/90349/565/100/20/
015020/20130104/90350/565/100/20/
015020/20130104/90351/565/420/20/
015020/20130104/90352/565/100/20/
015020/20130104/90353/565/200/20/
015020/20130104/90353/565/1000/10/
015020/20130104/90400/566/510/20/
015020/20130104/90400/568/1030/20/
015020/20130104/90400/569/5510/20/
015020/20130104/90400/570/960/20/
015020/20130104/90403/565/570/10/
015020/20130104/90422/565/550/10/
015020/20130104/90432/565/2680/10/
015020/20130104/90432/564/1000/10/
015020/20130104/90432/563/1820/10/
015020/20130104/90432/562/4500/10/
015020/20130104/90505/565/2060/20/
015020/20130104/90522/565/200/20/
015020/20130104/90531/565/320/10/
015020/20130104/90531/562/2600/10/
015020/20130104/90531/561/1960/10/
015020/20130104/90531/560/5960/10/
015020/20130104/90531/560/3670/20/
015020/20130104/90533/560/3260/10/
015020/20130104/90533/558/1280/10/
015020/20130104/90533/557/2730/10/
015020/20130104/90533/556/2040/10/
015020/20130104/90557/557/1670/10/
015020/20130104/90557/556/3790/10/
015020/20130104/90557/555/3050/10/
015020/20130104/90642/558/520/10/
015020/20130104/90707/562/5010/20/
015020/20130104/90722/562/130/20/
015020/20130104/90730/562/400/10/
015020/20130104/90730/562/510/10/
015020/20130104/90737/562/100/20/
015020/20130104/90743/560/750/10/
015020/20130104/90749/560/1160/10/
015020/20130104/90804/560/260/10/
015020/20130104/90804/559/2500/10/
015020/20130104/90804/558/7290/10/
015020/20130104/90818/559/400/10/
015020/20130104/90824/559/2380/10/
015020/20130104/90824/558/1590/10/
015020/20130104/90844/558/1370/10/
015020/20130104/90845/561/810/20/
015020/20130104/90854/558/1110/10/
015020/20130104/90854/557/1960/10/
015020/20130104/90904/558/4000/10/
015020/20130104/90929/558/1320/10/
015020/20130104/90943/557/2660/10/
015020/20130104/90952/557/4620/10/
015020/20130104/90952/556/3010/10/
015020/20130104/90956/557/530/20/
015020/20130104/90958/556/5130/10/
015020/20130104/91002/557/1150/10/
015020/20130104/91002/556/3770/10/
015020/20130104/91003/556/230/10/
015020/20130104/91013/556/100/10/
015020/20130104/91013/556/100/10/
015020/20130104/91013/556/2570/10/
015020/20130104/91013/555/10010/10/
015020/20130104/91014/556/100/20/
015020/20130104/91016/555/100/10/
015020/20130104/91037/555/1920/10/
015020/20130104/91038/555/120/10/
015020/20130104/91043/555/1010/20/
015020/20130104/91045/555/1330/20/
015020/20130104/91057/555/300/10/
015020/20130104/91107/556/200/20/
015020/20130104/91107/556/1000/20/
015020/20130104/91108/556/170/20/
015020/20130104/91133/556/830/10/
015020/20130104/91133/555/4910/10/
015020/20130104/91133/554/2740/10/
015020/20130104/91133/553/6550/10/
015020/20130104/91159/554/1500/10/
015020/20130104/91159/553/1080/10/
015020/20130104/91159/552/3920/10/
015020/20130104/91205/551/9010/10/
015020/20130104/91208/551/5930/10/
015020/20130104/91208/550/13370/10/
015020/20130104/91219/550/3000/20/
015020/20130104/91242/551/110/10/
015020/20130104/91242/550/1880/10/
015020/20130104/91244/550/5880/10/
015020/20130104/91244/549/3360/10/
015020/20130104/91244/548/6560/10/
015020/20130104/91249/549/370/10/
015020/20130104/91257/550/1610/10/
015020/20130104/91258/550/1510/10/
015020/20130104/91305/550/5000/20/
015020/20130104/91308/549/1380/10/
015020/20130104/91308/548/1330/10/
015020/20130104/91319/549/500/10/
015020/20130104/91319/548/3320/10/
015020/20130104/91319/547/1970/10/
015020/20130104/91329/548/380/10/
015020/20130104/91336/548/1260/10/
015020/20130104/91341/548/1200/10/
015020/20130104/91353/548/4980/10/
015020/20130104/91358/548/500/20/
015020/20130104/91358/548/10000/20/
015020/20130104/91359/548/600/20/
015020/20130104/91359/549/800/20/
015020/20130104/91359/550/3490/20/
015020/20130104/91359/550/5110/10/
015020/20130104/91359/547/3350/10/
015020/20130104/91405/549/2000/20/
015020/20130104/91412/548/1720/10/
015020/20130104/91415/548/670/20/
015020/20130104/91424/548/1000/10/
015020/20130104/91427/548/1300/10/
015020/20130104/91431/548/3700/20/
015020/20130104/91434/549/1000/20/
015020/20130104/91438/549/640/20/
015020/20130104/91441/549/100/10/
015020/20130104/91450/550/2920/10/
015020/20130104/91454/550/150/20/
015020/20130104/91455/550/1930/20/
015020/20130104/91455/551/1200/20/
015020/20130104/91501/550/100/10/
015020/20130104/91519/550/1310/10/
015020/20130104/91522/550/130/20/
015020/20130104/91522/551/220/20/
015020/20130104/91529/549/1000/10/
015020/20130104/91542/550/600/10/
015020/20130104/91542/549/3320/10/
015020/20130104/91542/548/3670/10/
015020/20130104/91604/549/220/10/
015020/20130104/91604/548/2730/10/
015020/20130104/91608/548/180/20/
015020/20130104/91616/548/180/10/
015020/20130104/91616/547/520/10/
015020/20130104/91625/548/400/10/
015020/20130104/91626/548/3220/10/
015020/20130104/91634/548/200/10/
015020/20130104/91641/550/5000/20/
015020/20130104/91656/548/5190/10/
015020/20130104/91658/548/1000/20/
015020/20130104/91701/548/2200/20/
015020/20130104/91714/548/5790/10/
015020/20130104/91714/547/4250/10/
015020/20130104/91723/547/500/10/
015020/20130104/91730/547/1340/10/
015020/20130104/91730/546/660/10/
015020/20130104/91734/549/650/20/
015020/20130104/91752/548/220/10/
015020/20130104/91752/547/2430/10/
015020/20130104/91752/546/10460/10/
015020/20130104/91752/545/2930/10/
015020/20130104/91759/545/11310/10/
015020/20130104/91759/544/1550/10/
015020/20130104/91809/544/6220/10/
015020/20130104/91811/544/4690/20/
015020/20130104/91858/545/100/10/
015020/20130104/91858/544/1900/10/
015020/20130104/91921/546/1000/20/
015020/20130104/91924/546/1000/20/
015020/20130104/91936/545/230/10/
015020/20130104/91945/546/650/20/
015020/20130104/91949/545/1970/10/
015020/20130104/91949/544/3030/10/
015020/20130104/91953/546/260/20/
015020/20130104/91953/547/5010/20/
015020/20130104/92017/545/1000/10/
015020/20130104/92020/547/130/20/
015020/20130104/92035/547/100/10/
015020/20130104/92039/545/300/10/
015020/20130104/92039/544/8200/10/
015020/20130104/92053/544/920/10/
015020/20130104/92054/544/4160/10/
015020/20130104/92116/546/1740/10/
015020/20130104/92116/545/4800/10/
015020/20130104/92128/546/650/20/
015020/20130104/92132/546/1000/20/
015020/20130104/92133/546/500/20/
015020/20130104/92134/545/4990/10/
015020/20130104/92135/546/1000/20/
015020/20130104/92136/545/5230/10/
015020/20130104/92138/545/680/20/
015020/20130104/92139/545/1000/20/
015020/20130104/92140/545/1000/20/
015020/20130104/92145/545/730/20/
015020/20130104/92146/545/1360/20/
015020/20130104/92153/545/1000/10/
015020/20130104/92154/546/4850/20/
015020/20130104/92154/547/2150/20/
015020/20130104/92203/547/6200/20/
015020/20130104/92206/548/1700/20/
015020/20130104/92206/549/4750/20/
015020/20130104/92208/549/3000/20/
015020/20130104/92208/549/3000/20/
015020/20130104/92209/549/3000/20/
015020/20130104/92209/549/3000/20/
015020/20130104/92209/549/2670/20/
015020/20130104/92214/550/7480/20/
015020/20130104/92216/551/280/20/
015020/20130104/92224/555/1080/20/
015020/20130104/92232/555/2000/20/
015020/20130104/92240/555/230/20/
015020/20130104/92259/554/140/20/
015020/20130104/92308/554/3360/20/
015020/20130104/92308/555/1800/20/
015020/20130104/92318/554/2500/20/
015020/20130104/92339/554/2510/20/
015020/20130104/92339/555/9650/20/
015020/20130104/92339/556/1040/20/
015020/20130104/92355/556/1530/20/
015020/20130104/92357/556/870/20/
015020/20130104/92400/556/130/10/
015020/20130104/92407/555/200/20/
015020/20130104/92409/555/560/20/
015020/20130104/92411/553/1050/10/
015020/20130104/92411/552/3330/10/
015020/20130104/92411/551/2120/10/
015020/20130104/92418/555/240/20/
015020/20130104/92418/556/760/20/
015020/20130104/92418/556/4130/20/
015020/20130104/92446/556/1580/20/
015020/20130104/92458/556/420/10/
015020/20130104/92500/553/300/10/
015020/20130104/92514/555/110/10/
015020/20130104/92553/555/9680/10/
015020/20130104/92600/555/2000/20/
015020/20130104/92609/554/90/10/
015020/20130104/92615/554/3920/20/
015020/20130104/92630/555/1780/20/
015020/20130104/92640/555/240/20/
015020/20130104/92641/556/2000/20/
015020/20130104/92648/558/2500/20/
015020/20130104/92649/558/520/20/
015020/20130104/92649/559/1010/20/
015020/20130104/92649/562/1470/20/
015020/20130104/92657/561/330/20/
015020/20130104/92657/562/960/20/
015020/20130104/92711/561/4930/20/
015020/20130104/92712/561/1370/10/
015020/20130104/92714/561/960/20/
015020/20130104/92715/561/2000/10/
015020/20130104/92717/561/590/10/
015020/20130104/92725/560/2000/20/
015020/20130104/92741/560/5010/20/
015020/20130104/92744/560/280/10/
015020/20130104/92748/561/2200/20/
015020/20130104/92750/560/1000/10/
015020/20130104/92756/561/2800/20/
015020/20130104/92808/561/1200/10/
015020/20130104/92808/560/3800/10/
015020/20130104/92811/560/1960/10/
015020/20130104/92812/560/3250/10/
015020/20130104/92812/558/100/10/
015020/20130104/92812/557/5000/10/
015020/20130104/92812/556/960/10/
015020/20130104/92812/555/2320/10/
015020/20130104/92822/560/100/10/
015020/20130104/92822/560/300/10/
015020/20130104/92842/559/200/20/
015020/20130104/92842/560/120/20/
015020/20130104/92859/556/4200/10/
015020/20130104/92859/555/9460/10/
015020/20130104/92859/554/8900/10/
015020/20130104/92859/553/6740/10/
015020/20130104/92903/553/6230/10/
015020/20130104/92935/554/320/10/
015020/20130104/92945/554/4560/10/
015020/20130104/92945/553/2800/10/
015020/20130104/92945/552/2430/10/
015020/20130104/92945/551/12880/10/
015020/20130104/92945/550/3580/10/
015020/20130104/93007/553/630/20/
015020/20130104/93024/553/140/20/
015020/20130104/93035/553/140/20/
015020/20130104/93048/553/3870/20/
015020/20130104/93106/555/200/10/
015020/20130104/93108/555/310/10/
015020/20130104/93116/555/500/20/
015020/20130104/93121/554/550/10/
015020/20130104/93121/553/7660/10/
015020/20130104/93121/552/3490/10/
015020/20130104/93121/551/2930/10/
015020/20130104/93207/552/1510/10/
015020/20130104/93207/551/4320/10/
015020/20130104/93246/551/930/10/
015020/20130104/93300/551/3000/10/
015020/20130104/93305/551/2260/10/
015020/20130104/93305/550/12940/10/
015020/20130104/93305/550/1910/20/
015020/20130104/93319/553/200/20/
015020/20130104/93319/554/2800/20/
015020/20130104/93404/553/400/20/
015020/20130104/93404/554/3600/20/
015020/20130104/93408/554/1000/20/
015020/20130104/93417/553/500/10/
015020/20130104/93417/551/5000/10/
015020/20130104/93417/550/4500/10/
015020/20130104/93425/554/330/20/
015020/20130104/93425/555/10940/20/
015020/20130104/93425/557/3020/20/
015020/20130104/93425/559/1200/20/
015020/20130104/93425/560/2880/20/
015020/20130104/93425/561/1720/20/
015020/20130104/93425/562/5200/20/
015020/20130104/93431/562/560/10/
015020/20130104/93435/562/350/10/
015020/20130104/93448/561/500/20/
015020/20130104/93522/560/500/20/
015020/20130104/93522/561/700/20/
015020/20130104/93612/560/1660/20/
015020/20130104/93634/557/630/10/
015020/20130104/93634/556/680/10/
015020/20130104/93708/560/1090/20/
015020/20130104/93717/560/2340/20/
015020/20130104/93719/560/1830/10/
015020/20130104/93742/560/500/20/
015020/20130104/93820/560/1000/20/
015020/20130104/93825/560/2310/20/
015020/20130104/93837/557/930/10/
015020/20130104/93858/559/160/20/
015020/20130104/93903/559/1340/20/
015020/20130104/93922/560/1870/20/
015020/20130104/93932/559/400/20/
015020/20130104/93951/559/500/20/
015020/20130104/94031/557/5000/10/
015020/20130104/94041/557/100/10/
015020/20130104/94056/557/2100/10/
015020/20130104/94056/556/1510/10/
015020/20130104/94105/556/100/10/
015020/20130104/94134/559/1880/20/
015020/20130104/94136/559/2650/20/
015020/20130104/94157/560/110/20/
015020/20130104/94204/561/5270/20/
015020/20130104/94230/561/820/10/
015020/20130104/94241/561/3580/20/
015020/20130104/94247/562/1210/20/
015020/20130104/94256/561/4010/10/
015020/20130104/94256/560/1110/10/
015020/20130104/94300/560/3760/10/
015020/20130104/94308/560/170/10/
015020/20130104/94324/560/1530/10/
015020/20130104/94353/558/3000/10/
015020/20130104/94358/560/100/20/
015020/20130104/94405/560/100/20/
015020/20130104/94413/558/2120/10/
015020/20130104/94510/558/4890/10/
015020/20130104/94518/558/1190/10/
015020/20130104/94518/557/810/10/
015020/20130104/94524/557/1000/10/
015020/20130104/94555/557/430/10/
015020/20130104/94613/557/1030/10/
015020/20130104/94637/559/200/20/
015020/20130104/94648/558/440/10/
015020/20130104/94649/558/1000/20/
015020/20130104/94656/557/2570/10/
015020/20130104/94746/557/2410/20/
015020/20130104/94901/556/4730/10/
015020/20130104/94920/556/680/10/
015020/20130104/94940/556/1160/10/
015020/20130104/94940/555/4310/10/
015020/20130104/94940/554/630/10/
015020/20130104/94956/554/650/10/
015020/20130104/95126/559/1830/20/
015020/20130104/95154/555/570/10/
015020/20130104/95216/560/1810/20/
015020/20130104/95303/560/2240/20/
015020/20130104/95319/559/3000/20/
015020/20130104/95319/560/2580/20/
015020/20130104/95332/560/4390/20/
015020/20130104/95335/560/1000/20/
015020/20130104/95335/560/780/20/
015020/20130104/95338/560/4000/20/
015020/20130104/95341/560/1570/20/
015020/20130104/95358/562/1010/20/
015020/20130104/95400/559/4000/10/
015020/20130104/95432/562/190/20/
015020/20130104/95434/562/800/20/
015020/20130104/95435/562/4550/20/
015020/20130104/95439/562/560/10/
015020/20130104/95440/562/100/10/
015020/20130104/95511/561/510/20/
015020/20130104/95525/561/1350/10/
015020/20130104/95548/560/130/10/
015020/20130104/95821/562/220/20/
015020/20130104/95836/561/3000/20/
015020/20130104/95836/562/530/20/
015020/20130104/95844/562/630/20/
015020/20130104/100042/560/110/10/
015020/20130104/100045/560/180/20/
015020/20130104/100049/560/120/20/
015020/20130104/100100/562/4940/20/
015020/20130104/100129/562/90/20/
015020/20130104/100147/562/750/20/
015020/20130104/100150/562/5790/20/
015020/20130104/100158/563/1040/20/
015020/20130104/100201/563/300/20/
015020/20130104/100202/563/300/20/
015020/20130104/100224/564/6610/20/
015020/20130104/100233/565/1040/20/
015020/20130104/100238/565/1960/20/
015020/20130104/100241/565/850/20/
015020/20130104/100248/565/1330/20/
015020/20130104/100250/565/100/20/
015020/20130104/100251/565/600/20/
015020/20130104/100252/565/400/10/
015020/20130104/100256/564/1740/10/
015020/20130104/100256/563/260/10/
015020/20130104/100311/564/4730/20/
015020/20130104/100400/564/1360/10/
015020/20130104/100403/564/250/10/
015020/20130104/100415/565/90/20/
015020/20130104/100431/565/990/20/
015020/20130104/100435/565/1000/10/
015020/20130104/100447/565/3170/20/
015020/20130104/100448/565/1000/10/
015020/20130104/100450/565/850/10/
015020/20130104/100456/565/1150/20/
015020/20130104/100509/565/3000/10/
015020/20130104/100511/565/550/10/
015020/20130104/100522/566/2700/20/
015020/20130104/100539/567/190/20/
015020/20130104/100540/567/250/20/
015020/20130104/100546/567/8130/20/
015020/20130104/100559/567/2850/10/
015020/20130104/100606/567/3330/20/
015020/20130104/100626/566/2690/10/
015020/20130104/100644/566/510/20/
015020/20130104/100650/566/1000/20/
015020/20130104/100651/566/1220/20/
015020/20130104/100652/566/200/10/
015020/20130104/100656/566/100/10/
015020/20130104/100657/566/3000/10/
015020/20130104/100657/566/2740/10/
015020/20130104/100657/567/100/20/
015020/20130104/100714/566/1140/20/
015020/20130104/100714/567/6940/20/
015020/20130104/100714/568/9530/20/
015020/20130104/100714/569/2390/20/
015020/20130104/100740/568/440/20/
015020/20130104/100745/568/1000/20/
015020/20130104/100746/568/1460/20/
015020/20130104/100748/568/500/20/
015020/20130104/100749/568/610/20/
015020/20130104/100755/568/1390/10/
015020/20130104/100815/568/1610/20/
015020/20130104/100815/569/390/20/
015020/20130104/100853/568/110/20/
015020/20130104/100916/568/530/10/
015020/20130104/100922/568/420/20/
015020/20130104/100938/568/150/20/
015020/20130104/100939/568/1800/20/
015020/20130104/101045/567/870/10/
015020/20130104/101047/567/1130/10/
015020/20130104/101047/566/2380/10/
015020/20130104/101111/566/100/20/
015020/20130104/101121/566/540/20/
015020/20130104/101122/564/150/10/
015020/20130104/101122/563/2850/10/
015020/20130104/101133/563/170/10/
015020/20130104/101200/563/6100/10/
015020/20130104/101200/562/390/10/
015020/20130104/101211/562/960/10/
015020/20130104/101211/561/1240/10/
015020/20130104/101211/560/670/10/
015020/20130104/101253/564/90/20/
015020/20130104/101256/564/2060/20/
015020/20130104/101258/564/3070/20/
015020/20130104/101300/564/380/20/
015020/20130104/101302/564/200/20/
015020/20130104/101302/564/590/20/
015020/20130104/101305/565/1050/20/
015020/20130104/101317/565/980/20/
015020/20130104/101322/568/210/20/
015020/20130104/101327/568/220/20/
015020/20130104/101328/568/200/20/
015020/20130104/101330/568/180/20/
015020/20130104/101331/568/170/20/
015020/20130104/101334/568/170/20/
015020/20130104/101340/568/190/20/
015020/20130104/101342/568/1830/20/
015020/20130104/101343/568/300/20/
015020/20130104/101357/568/1050/10/
015020/20130104/101359/568/980/10/
015020/20130104/101422/568/90/20/
015020/20130104/101424/568/1310/20/
015020/20130104/101430/568/490/10/
015020/20130104/101439/568/850/20/
015020/20130104/101440/568/1000/20/
015020/20130104/101453/568/810/20/
015020/20130104/101456/568/880/20/
015020/20130104/101456/569/4170/20/
015020/20130104/101458/569/760/20/
015020/20130104/101458/570/2770/20/
015020/20130104/101503/570/1730/20/
015020/20130104/101503/570/960/10/
015020/20130104/101510/570/130/10/
015020/20130104/101516/570/2390/10/
015020/20130104/101516/570/190/20/
015020/20130104/101516/571/230/20/
015020/20130104/101517/571/4790/20/
015020/20130104/101535/570/110/20/
015020/20130104/101544/570/300/20/
015020/20130104/101608/568/150/10/
015020/20130104/101608/567/900/10/
015020/20130104/101618/567/1190/10/
015020/20130104/101635/567/540/10/
015020/20130104/101635/566/990/10/
015020/20130104/101641/565/2820/20/
015020/20130104/101647/564/420/10/
015020/20130104/101650/564/1210/10/
015020/20130104/101736/564/3160/10/
015020/20130104/101803/567/5120/20/
015020/20130104/101808/568/500/20/
015020/20130104/101809/570/1000/20/
015020/20130104/101814/570/3020/20/
015020/20130104/101823/570/1260/20/
015020/20130104/101828/570/110/20/
015020/20130104/101834/570/560/20/
015020/20130104/101840/569/500/10/
015020/20130104/101846/569/800/20/
015020/20130104/101904/570/1060/20/
015020/20130104/101905/570/600/20/
015020/20130104/101911/571/1260/20/
015020/20130104/101917/572/1060/20/
015020/20130104/101919/572/1680/20/
015020/20130104/101923/572/1360/10/
015020/20130104/101927/571/680/10/
015020/20130104/101929/571/1500/20/
015020/20130104/101929/573/3170/20/
015020/20130104/101933/571/2040/10/
015020/20130104/101938/573/2160/20/
015020/20130104/101940/574/1200/20/
015020/20130104/101944/575/1100/20/
015020/20130104/101947/576/4480/20/
015020/20130104/101947/577/7550/20/
015020/20130104/101947/577/120/10/
015020/20130104/101951/577/500/10/
015020/20130104/101951/577/500/10/
015020/20130104/101952/578/4810/20/
015020/20130104/101953/578/2350/20/
015020/20130104/101955/578/2700/20/
015020/20130104/101956/578/4010/10/
015020/20130104/101958/578/3980/10/
015020/20130104/102000/578/1720/20/
015020/20130104/102001/578/300/20/
015020/20130104/102002/578/1250/20/
015020/20130104/102002/578/1760/20/
015020/20130104/102002/579/1240/20/
015020/20130104/102003/577/110/10/
015020/20130104/102003/574/730/10/
015020/20130104/102006/578/510/20/
015020/20130104/102006/579/720/20/
015020/20130104/102010/578/260/20/
015020/20130104/102016/577/200/20/
015020/20130104/102022/575/2010/10/
015020/20130104/102028/575/480/10/
015020/20130104/102028/575/140/20/
015020/20130104/102037/576/160/10/
015020/20130104/102037/575/240/10/
015020/20130104/102039/575/3000/10/
015020/20130104/102043/577/100/20/
015020/20130104/102044/575/1000/10/
015020/20130104/102046/575/2010/10/
015020/20130104/102047/575/2300/10/
015020/20130104/102047/575/180/10/
015020/20130104/102056/575/730/10/
015020/20130104/102102/575/2120/10/
015020/20130104/102102/574/2140/10/
015020/20130104/102102/573/3260/10/
015020/20130104/102106/576/100/20/
015020/20130104/102106/577/690/20/
015020/20130104/102106/578/1690/20/
015020/20130104/102106/578/1290/10/
015020/20130104/102106/575/100/10/
015020/20130104/102106/573/18030/10/
015020/20130104/102116/575/3000/20/
015020/20130104/102125/574/150/10/
015020/20130104/102125/573/4920/10/
015020/20130104/102127/573/1140/10/
015020/20130104/102127/570/420/10/
015020/20130104/102148/573/360/20/
015020/20130104/102153/573/600/20/
015020/20130104/102206/571/320/20/
015020/20130104/102210/571/100/20/
015020/20130104/102215/570/1790/10/
015020/20130104/102215/569/1500/10/
015020/20130104/102215/566/1580/10/
015020/20130104/102215/565/200/10/
015020/20130104/102215/564/2330/10/
015020/20130104/102215/563/200/10/
015020/20130104/102215/562/5700/10/
015020/20130104/102215/561/2000/10/
015020/20130104/102215/560/4710/10/
015020/20130104/102219/571/1630/20/
015020/20130104/102219/573/1000/20/
015020/20130104/102221/573/190/10/
015020/20130104/102235/572/2820/20/
015020/20130104/102235/573/500/20/
015020/20130104/102235/574/300/20/
015020/20130104/102235/575/9370/20/
015020/20130104/102235/579/2480/20/
015020/20130104/102323/575/3010/20/
015020/20130104/102323/576/2650/20/
015020/20130104/102358/572/170/10/
015020/20130104/102443/575/200/20/
015020/20130104/102449/575/440/10/
015020/20130104/102500/576/1010/20/
015020/20130104/102503/576/740/20/
015020/20130104/102505/576/730/10/
015020/20130104/102522/576/290/20/
015020/20130104/102524/576/1000/20/
015020/20130104/102548/576/320/20/
015020/20130104/102554/576/500/20/
015020/20130104/102602/576/180/20/
015020/20130104/102604/576/2250/10/
015020/20130104/102604/575/7960/10/
015020/20130104/102617/577/970/20/
015020/20130104/102624/577/100/20/
015020/20130104/102624/578/2660/20/
015020/20130104/102627/578/2010/20/
015020/20130104/102631/578/410/20/
015020/20130104/102634/578/2430/20/
015020/20130104/102634/579/1270/20/
015020/20130104/102634/580/3070/20/
015020/20130104/102634/580/680/20/
015020/20130104/102634/581/1250/20/
015020/20130104/102641/582/90/20/
015020/20130104/102642/582/1910/20/
015020/20130104/102642/583/90/20/
015020/20130104/102648/581/890/20/
015020/20130104/102648/582/980/20/
015020/20130104/102648/583/160/20/
015020/20130104/102653/583/90/20/
015020/20130104/102653/583/300/20/
015020/20130104/102654/583/2020/20/
015020/20130104/102709/580/510/20/
015020/20130104/102709/582/1500/20/
015020/20130104/102717/581/230/20/
015020/20130104/102718/581/3320/20/
015020/20130104/102718/582/15680/20/
015020/20130104/102734/581/620/20/
015020/20130104/102736/581/470/20/
015020/20130104/102746/581/1700/20/
015020/20130104/102748/581/2960/10/
015020/20130104/102749/581/370/10/
015020/20130104/102750/577/200/10/
015020/20130104/102813/578/110/10/
015020/20130104/102816/580/700/20/
015020/20130104/102816/581/2700/20/
015020/20130104/102829/579/230/20/
015020/20130104/102832/580/1000/20/
015020/20130104/102832/580/1000/10/
015020/20130104/102837/580/1030/10/
015020/20130104/102838/580/970/10/
015020/20130104/102844/579/170/10/
015020/20130104/102853/578/1270/10/
015020/20130104/102853/576/2030/10/
015020/20130104/102853/575/1700/10/
015020/20130104/102910/579/130/20/
015020/20130104/102928/579/170/10/
015020/20130104/102929/579/440/10/
015020/20130104/102948/576/4950/10/
015020/20130104/103026/574/440/10/
015020/20130104/103026/573/170/10/
015020/20130104/103049/575/100/10/
015020/20130104/103050/575/1900/10/
015020/20130104/103110/576/880/20/
015020/20130104/103131/578/1010/20/
015020/20130104/103150/578/90/10/
015020/20130104/103205/577/100/20/
015020/20130104/103205/578/2620/20/
015020/20130104/103205/579/2540/20/
015020/20130104/103205/580/770/20/
015020/20130104/103212/580/640/20/
015020/20130104/103227/580/4740/20/
015020/20130104/103230/580/340/10/
015020/20130104/103237/580/2000/20/
015020/20130104/103239/580/1810/20/
015020/20130104/103239/581/770/20/
015020/20130104/103343/578/120/20/
015020/20130104/103402/577/230/10/
015020/20130104/103402/576/2590/10/
015020/20130104/103402/574/290/10/
015020/20130104/103414/578/2770/10/
015020/20130104/103545/576/300/10/
015020/20130104/103549/576/1000/20/
015020/20130104/103550/576/2010/20/
015020/20130104/103555/578/2450/20/
015020/20130104/103555/579/2330/20/
015020/20130104/103601/579/510/20/
015020/20130104/103641/579/1920/20/
015020/20130104/103641/579/310/10/
015020/20130104/103647/579/1000/10/
015020/20130104/103656/580/90/20/
015020/20130104/103704/580/710/20/
015020/20130104/103716/579/1500/10/
015020/20130104/103718/579/2280/10/
015020/20130104/103718/579/690/10/
015020/20130104/103735/575/2000/10/
015020/20130104/103744/575/11220/10/
015020/20130104/103744/574/7330/10/
015020/20130104/103744/573/3570/10/
015020/20130104/103744/572/880/10/
015020/20130104/103856/575/8000/10/
015020/20130104/103857/575/190/10/
015020/20130104/103927/575/5510/20/
015020/20130104/103930/578/440/20/
015020/20130104/104003/578/2070/20/
015020/20130104/104008/578/910/10/
015020/20130104/104125/578/550/20/
015020/20130104/104235/578/2490/20/
015020/20130104/104246/578/1090/10/
015020/20130104/104416/575/160/10/
015020/20130104/104441/575/200/10/
015020/20130104/104515/575/570/10/
015020/20130104/104522/574/1000/10/
015020/20130104/104523/574/830/20/
015020/20130104/104533/574/300/20/
015020/20130104/104534/574/17870/20/
015020/20130104/104535/574/1460/10/
015020/20130104/104535/573/1420/10/
015020/20130104/104604/575/430/20/
015020/20130104/104615/577/100/20/
015020/20130104/104644/578/2870/20/
015020/20130104/104648/578/730/20/
015020/20130104/104655/578/430/10/
015020/20130104/104712/579/3790/20/
015020/20130104/104712/580/11020/20/
015020/20130104/104713/580/3440/20/
015020/20130104/104716/580/540/20/
015020/20130104/104718/580/500/20/
015020/20130104/104718/580/500/20/
015020/20130104/104719/580/560/20/
015020/20130104/104722/580/1460/10/
015020/20130104/104722/580/1990/10/
015020/20130104/104727/581/5000/20/
015020/20130104/104728/581/620/20/
015020/20130104/104730/581/380/10/
015020/20130104/104736/580/500/20/
015020/20130104/104743/580/22010/20/
015020/20130104/104745/580/1890/20/
015020/20130104/104745/580/1550/20/
015020/20130104/104817/582/100/20/
015020/20130104/104818/582/510/20/
015020/20130104/104821/582/430/10/
015020/20130104/104824/582/1870/20/
015020/20130104/104825/582/1000/20/
015020/20130104/104828/581/1920/20/
015020/20130104/104832/581/3000/20/
015020/20130104/104839/582/90/20/
015020/20130104/104843/581/840/10/
015020/20130104/104847/581/120/10/
015020/20130104/104854/583/9010/20/
015020/20130104/104856/583/1000/20/
015020/20130104/104900/583/100/20/
015020/20130104/104913/584/1230/20/
015020/20130104/104914/584/180/20/
015020/20130104/104920/585/1130/20/
015020/20130104/104921/586/3400/20/
015020/20130104/104922/586/2000/20/
015020/20130104/104922/586/5740/20/
015020/20130104/104922/587/2770/20/
015020/20130104/104922/588/11490/20/
015020/20130104/104923/588/710/20/
015020/20130104/104923/589/290/20/
015020/20130104/104925/589/16920/20/
015020/20130104/104926/589/1680/20/
015020/20130104/104930/589/1200/20/
015020/20130104/104932/588/5000/20/
015020/20130104/104932/589/5020/20/
015020/20130104/104933/589/4000/20/
015020/20130104/104934/589/700/20/
015020/20130104/104935/589/1170/20/
015020/20130104/104935/589/3000/20/
015020/20130104/104936/589/7050/20/
015020/20130104/104936/590/680/20/
015020/20130104/104936/589/1080/20/
015020/20130104/104937/589/2400/20/
015020/20130104/104937/589/10000/20/
015020/20130104/104937/589/2000/20/
015020/20130104/104937/589/790/20/
015020/20130104/104938/589/100/20/
015020/20130104/104938/589/3040/20/
015020/20130104/104938/590/90/20/
015020/20130104/104939/590/2300/20/
015020/20130104/104940/590/530/20/
015020/20130104/104940/591/490/20/
015020/20130104/104941/591/1690/20/
015020/20130104/104943/591/100/20/
015020/20130104/104944/591/210/20/
015020/20130104/104945/591/130/20/
015020/20130104/104945/589/330/10/
015020/20130104/104948/589/370/20/
015020/20130104/104948/591/980/20/
015020/20130104/104950/594/90/20/
015020/20130104/104950/591/200/10/
015020/20130104/104952/587/120/10/
015020/20130104/104952/587/1200/10/
015020/20130104/104953/587/3780/10/
015020/20130104/104955/587/510/20/
015020/20130104/104956/587/1000/20/
015020/20130104/104957/587/1360/20/
015020/20130104/105002/587/1590/20/
015020/20130104/105006/587/1320/20/
015020/20130104/105006/589/5690/20/
015020/20130104/105006/591/980/20/
015020/20130104/105006/592/560/20/
015020/20130104/105006/593/5900/20/
015020/20130104/105007/593/3080/10/
015020/20130104/105009/587/760/10/
015020/20130104/105009/586/340/10/
015020/20130104/105019/590/1750/10/
015020/20130104/105020/590/760/10/
015020/20130104/105021/590/2000/10/
015020/20130104/105021/592/100/20/
015020/20130104/105021/593/530/20/
015020/20130104/105021/594/720/20/
015020/20130104/105022/590/550/10/
015020/20130104/105025/590/230/20/
015020/20130104/105029/590/320/20/
015020/20130104/105029/593/500/20/
015020/20130104/105029/594/2070/20/
015020/20130104/105031/594/460/20/
015020/20130104/105045/592/910/20/
015020/20130104/105045/593/1150/20/
015020/20130104/105052/590/520/10/
015020/20130104/105052/590/590/10/
015020/20130104/105053/590/2360/20/
015020/20130104/105054/590/7860/10/
015020/20130104/105056/590/1040/10/
015020/20130104/105057/590/430/10/
015020/20130104/105058/590/1590/10/
015020/20130104/105058/590/4110/10/
015020/20130104/105059/590/1000/10/
015020/20130104/105103/590/760/10/
015020/20130104/105103/590/2510/10/
015020/20130104/105104/590/7600/10/
015020/20130104/105114/590/990/20/
015020/20130104/105114/592/660/20/
015020/20130104/105115/592/4010/10/
015020/20130104/105116/592/5560/10/
015020/20130104/105117/592/2460/20/
015020/20130104/105121/590/110/10/
015020/20130104/105124/592/670/20/
015020/20130104/105133/591/220/10/
015020/20130104/105133/590/800/10/
015020/20130104/105135/590/530/10/
015020/20130104/105147/590/120/20/
015020/20130104/105155/590/1690/20/
015020/20130104/105204/590/760/10/
015020/20130104/105207/590/1740/10/
015020/20130104/105214/590/820/10/
015020/20130104/105217/590/1270/10/
015020/20130104/105219/587/230/10/
015020/20130104/105219/586/2770/10/
015020/20130104/105219/585/110/10/
015020/20130104/105219/584/750/10/
015020/20130104/105225/589/230/20/
015020/20130104/105225/590/4120/20/
015020/20130104/105248/590/9880/20/
015020/20130104/105252/590/5120/10/
015020/20130104/105310/590/2000/20/
015020/20130104/105344/589/1990/20/
015020/20130104/105349/589/100/20/
015020/20130104/105358/589/1680/20/
015020/20130104/105412/589/280/10/
015020/20130104/105412/589/1810/10/
015020/20130104/105433/589/200/20/
015020/20130104/105447/588/1000/20/
015020/20130104/105455/588/1000/10/
015020/20130104/105458/588/1000/10/
015020/20130104/105526/585/220/10/
015020/20130104/105528/585/350/10/
015020/20130104/105538/584/1270/10/
015020/20130104/105538/583/110/10/
015020/20130104/105538/585/130/20/
015020/20130104/105541/585/1000/20/
015020/20130104/105541/588/2000/20/
015020/20130104/105559/588/700/20/
015020/20130104/105600/588/1850/10/
015020/20130104/105644/587/100/20/
015020/20130104/105648/588/2080/20/
015020/20130104/105649/588/500/20/
015020/20130104/105710/587/380/10/
015020/20130104/105714/587/120/20/
015020/20130104/105724/587/970/10/
015020/20130104/105724/586/4970/10/
015020/20130104/105724/585/9530/10/
015020/20130104/105728/585/5000/10/
015020/20130104/105743/585/2290/10/
015020/20130104/105747/584/1000/10/
015020/20130104/105804/583/1140/10/
015020/20130104/105823/581/950/10/
015020/20130104/105823/580/4050/10/
015020/20130104/105834/579/2000/10/
015020/20130104/105834/578/2100/10/
015020/20130104/105834/577/4470/10/
015020/20130104/105834/576/1500/10/
015020/20130104/105834/575/1500/10/
015020/20130104/105842/580/430/10/
015020/20130104/105853/580/200/10/
015020/20130104/105902/580/130/10/
015020/20130104/105908/580/210/10/
015020/20130104/105929/580/810/20/
015020/20130104/105947/580/200/20/
015020/20130104/105955/580/490/20/
015020/20130104/110013/582/200/20/
015020/20130104/110015/582/3000/20/
015020/20130104/110030/588/9600/20/
015020/20130104/110033/588/11000/20/
015020/20130104/110043/585/500/20/
015020/20130104/110044/585/1300/20/
015020/20130104/110130/586/2000/10/
015020/20130104/110136/586/1710/20/
015020/20130104/110138/586/1900/10/
015020/20130104/110145/588/90/20/
015020/20130104/110154/588/1140/20/
015020/20130104/110209/586/480/10/
015020/20130104/110218/586/2440/20/
015020/20130104/110228/587/210/20/
015020/20130104/110304/587/2000/10/
015020/20130104/110323/585/1000/10/
015020/20130104/110327/585/550/20/
015020/20130104/110327/587/940/20/
015020/20130104/110534/587/1360/20/
015020/20130104/110542/588/3360/20/
015020/20130104/110542/589/8500/20/
015020/20130104/110542/590/14660/20/
015020/20130104/110544/590/830/10/
015020/20130104/110552/590/2000/10/
015020/20130104/110559/590/650/10/
015020/20130104/110608/589/130/20/
015020/20130104/110635/590/1940/20/
015020/20130104/110637/590/380/20/
015020/20130104/110637/592/6400/20/
015020/20130104/110649/592/2370/20/
015020/20130104/110649/592/200/10/
015020/20130104/110650/593/1800/20/
015020/20130104/110654/593/1780/20/
015020/20130104/110656/593/2950/20/
015020/20130104/110702/594/530/20/
015020/20130104/110703/594/340/20/
015020/20130104/110704/594/2110/20/
015020/20130104/110705/594/870/20/
015020/20130104/110705/595/8270/20/
015020/20130104/110707/595/5510/20/
015020/20130104/110707/595/600/20/
015020/20130104/110708/595/200/20/
015020/20130104/110711/595/110/20/
015020/20130104/110711/595/2280/20/
015020/20130104/110711/595/150/20/
015020/20130104/110711/596/330/20/
015020/20130104/110711/597/240/20/
015020/20130104/110719/596/3000/20/
015020/20130104/110729/596/1900/20/
015020/20130104/110744/596/2040/20/
015020/20130104/110746/596/1180/10/
015020/20130104/110753/596/450/10/
015020/20130104/110753/594/550/10/
015020/20130104/110759/594/1000/10/
015020/20130104/110803/595/1070/20/
015020/20130104/110803/596/3470/20/
015020/20130104/110805/593/3020/10/
015020/20130104/110810/596/14820/20/
015020/20130104/110810/597/3260/20/
015020/20130104/110820/595/200/20/
015020/20130104/110820/596/150/20/
015020/20130104/110820/596/2670/20/
015020/20130104/110820/597/1100/20/
015020/20130104/110826/597/970/20/
015020/20130104/110831/597/2010/20/
015020/20130104/110833/597/120/20/
015020/20130104/110836/597/2200/20/
015020/20130104/110840/597/4480/20/
015020/20130104/110843/597/520/10/
015020/20130104/110845/597/1210/20/
015020/20130104/110853/597/2160/20/
015020/20130104/110855/597/2000/10/
015020/20130104/110858/597/2110/10/
015020/20130104/110858/597/890/10/
015020/20130104/110903/597/890/10/
015020/20130104/110905/597/7110/20/
015020/20130104/110905/597/1000/10/
015020/20130104/110910/597/4400/10/
015020/20130104/110911/597/4900/10/
015020/20130104/110911/597/2000/10/
015020/20130104/110911/597/4840/10/
015020/20130104/110920/597/420/20/
015020/20130104/110925/595/100/10/
015020/20130104/110926/595/5810/20/
015020/20130104/110926/597/440/20/
015020/20130104/110957/594/90/10/
015020/20130104/111011/594/380/20/
015020/20130104/111014/593/2030/10/
015020/20130104/111022/593/3810/10/
015020/20130104/111026/593/360/10/
015020/20130104/111026/591/290/10/
015020/20130104/111026/593/110/20/
015020/20130104/111026/596/8920/20/
015020/20130104/111040/591/740/10/
015020/20130104/111042/591/2960/10/
015020/20130104/111042/590/3040/10/
015020/20130104/111100/590/100/10/
015020/20130104/111113/590/3600/10/
015020/20130104/111126/590/410/10/
015020/20130104/111131/590/250/10/
015020/20130104/111133/590/400/20/
015020/20130104/111142/590/1040/20/
015020/20130104/111144/590/340/20/
015020/20130104/111144/594/1330/20/
015020/20130104/111155/590/400/10/
015020/20130104/111200/590/1000/10/
015020/20130104/111202/591/90/10/
015020/20130104/111202/590/440/10/
015020/20130104/111207/592/400/20/
015020/20130104/111218/590/1670/10/
015020/20130104/111218/588/370/10/
015020/20130104/111222/592/470/20/
015020/20130104/111224/588/400/10/
015020/20130104/111230/592/240/20/
015020/20130104/111243/592/150/10/
015020/20130104/111243/589/3020/10/
015020/20130104/111243/588/6530/10/
015020/20130104/111243/587/8010/10/
015020/20130104/111243/586/3210/10/
015020/20130104/111243/585/7790/10/
015020/20130104/111247/585/660/20/
015020/20130104/111256/585/400/10/
015020/20130104/111256/584/1000/10/
015020/20130104/111256/583/1330/10/
015020/20130104/111303/592/1000/20/
015020/20130104/111338/591/1000/20/
015020/20130104/111345/591/90/10/
015020/20130104/111403/591/530/20/
015020/20130104/111458/586/1640/10/
015020/20130104/111458/585/3900/10/
015020/20130104/111518/590/1450/20/
015020/20130104/111518/591/5200/20/
015020/20130104/111518/592/3360/20/
015020/20130104/111535/592/1360/20/
015020/20130104/111535/594/1000/20/
015020/20130104/111535/595/5990/20/
015020/20130104/111535/596/1650/20/
015020/20130104/111543/596/1000/20/
015020/20130104/111545/596/1300/20/
015020/20130104/111557/595/1000/10/
015020/20130104/111557/596/9000/20/
015020/20130104/111614/595/140/20/
015020/20130104/111614/596/8610/20/
015020/20130104/111614/597/1250/20/
015020/20130104/111629/596/8250/20/
015020/20130104/111629/597/1750/20/
015020/20130104/111634/596/5330/20/
015020/20130104/111659/595/160/20/
015020/20130104/111702/595/430/20/
015020/20130104/111728/588/160/10/
015020/20130104/111735/595/270/20/
015020/20130104/111806/594/500/20/
015020/20130104/111809/594/2500/20/
015020/20130104/111809/595/980/20/
015020/20130104/111846/594/220/20/
015020/20130104/111852/590/2600/10/
015020/20130104/111852/589/2790/10/
015020/20130104/111856/589/15650/10/
015020/20130104/111906/590/290/10/
015020/20130104/111906/589/4920/10/
015020/20130104/111908/589/1930/10/
015020/20130104/111937/593/290/20/
015020/20130104/111950/592/1530/10/
015020/20130104/111950/593/970/10/
015020/20130104/112001/593/340/10/
015020/20130104/112002/593/160/10/
015020/20130104/112024/591/1010/10/
015020/20130104/112024/589/2210/10/
015020/20130104/112024/588/1660/10/
015020/20130104/112024/587/2640/10/
015020/20130104/112024/586/4070/10/
015020/20130104/112024/586/930/10/
015020/20130104/112024/585/780/10/
015020/20130104/112032/585/500/10/
015020/20130104/112039/585/11350/10/
015020/20130104/112039/584/9130/10/
015020/20130104/112039/583/5720/10/
015020/20130104/112128/584/1240/10/
015020/20130104/112157/588/12740/20/
015020/20130104/112157/589/5130/20/
015020/20130104/112157/590/2990/20/
015020/20130104/112206/590/3000/10/
015020/20130104/112208/590/1400/10/
015020/20130104/112209/590/1810/10/
015020/20130104/112211/590/200/10/
015020/20130104/112212/590/6100/10/
015020/20130104/112220/590/1020/10/
015020/20130104/112220/590/500/10/
015020/20130104/112221/590/120/10/
015020/20130104/112318/590/450/20/
015020/20130104/112339/585/4540/10/
015020/20130104/112433/585/500/10/
015020/20130104/112520/585/2860/10/
015020/20130104/112539/585/2230/10/
015020/20130104/112542/585/3550/20/
015020/20130104/112556/585/1500/20/
015020/20130104/112610/585/1820/10/
015020/20130104/112615/585/110/10/
015020/20130104/112618/585/4800/10/
015020/20130104/112624/585/1720/10/
015020/20130104/112641/585/3000/10/
015020/20130104/112642/585/10000/10/
015020/20130104/112648/585/3040/10/
015020/20130104/112648/584/2230/10/
015020/20130104/112648/583/23750/10/
015020/20130104/112652/583/100/10/
015020/20130104/112714/583/1000/10/
015020/20130104/112726/583/110/10/
015020/20130104/112731/583/430/10/
015020/20130104/112734/583/1010/10/
015020/20130104/112741/584/1010/10/
015020/20130104/112746/583/1090/10/
015020/20130104/112748/583/1010/10/
015020/20130104/112755/583/1000/10/
015020/20130104/112804/583/1020/10/
015020/20130104/112804/583/4000/10/
015020/20130104/112811/583/1020/10/
015020/20130104/112818/583/660/10/
015020/20130104/112827/583/190/10/
015020/20130104/112835/583/540/10/
015020/20130104/112838/583/90/10/
015020/20130104/112900/585/140/20/
015020/20130104/112913/585/1090/10/
015020/20130104/112913/583/1080/10/
015020/20130104/112913/582/2650/10/
015020/20130104/112913/581/11460/10/
015020/20130104/112913/580/16700/10/
015020/20130104/112913/580/330/20/
015020/20130104/112913/580/1730/20/
015020/20130104/112923/580/330/20/
015020/20130104/112934/580/410/10/
015020/20130104/113008/580/5000/10/
015020/20130104/113009/580/2130/10/
015020/20130104/113022/580/1150/10/
015020/20130104/113053/580/1070/10/
015020/20130104/113053/579/150/10/
015020/20130104/113053/578/3790/10/
015020/20130104/113105/578/1580/10/
015020/20130104/113127/578/2410/10/
015020/20130104/113127/577/730/10/
015020/20130104/113130/577/1060/10/
015020/20130104/113131/577/3500/20/
015020/20130104/113419/584/90/20/
015020/20130104/113530/584/200/20/
015020/20130104/113625/583/2460/10/
015020/20130104/113636/582/9500/10/
015020/20130104/113641/582/450/10/
015020/20130104/113641/581/5210/10/
015020/20130104/113641/578/140/10/
015020/20130104/113747/583/2030/20/
015020/20130104/113747/584/1970/20/
015020/20130104/113804/580/3010/10/
015020/20130104/113804/579/3760/10/
015020/20130104/113833/579/2260/10/
015020/20130104/113833/578/5500/10/
015020/20130104/113926/579/300/10/
015020/20130104/113949/579/400/10/
015020/20130104/114011/579/300/10/
015020/20130104/114011/578/2700/10/
015020/20130104/114033/578/1510/10/
015020/20130104/114039/578/1040/10/
015020/20130104/114049/578/1920/10/
015020/20130104/114054/578/3010/10/
015020/20130104/114054/577/11810/10/
015020/20130104/114055/577/7190/10/
015020/20130104/114107/576/100/10/
015020/20130104/114110/575/90/10/
015020/20130104/114110/575/830/10/
015020/20130104/114110/575/140/10/
015020/20130104/114120/575/140/10/
015020/20130104/114120/574/3880/10/
015020/20130104/114120/573/1020/10/
015020/20130104/114123/573/300/10/
015020/20130104/114139/574/1410/10/
015020/20130104/114141/574/1590/10/
015020/20130104/114141/573/410/10/
015020/20130104/114143/574/300/10/
015020/20130104/114147/574/700/10/
015020/20130104/114147/574/200/20/
015020/20130104/114156/574/100/20/
015020/20130104/114209/574/1000/10/
015020/20130104/114222/574/500/10/
015020/20130104/114230/574/560/10/
015020/20130104/114256/574/740/10/
015020/20130104/114256/573/4190/10/
015020/20130104/114310/573/480/10/
015020/20130104/114310/572/2410/10/
015020/20130104/114319/572/290/10/
015020/20130104/114319/572/1140/10/
015020/20130104/114319/573/350/20/
015020/20130104/114320/573/1550/10/
015020/20130104/114320/572/1240/10/
015020/20130104/114332/572/1210/10/
015020/20130104/114332/572/4590/20/
015020/20130104/114338/572/2060/20/
015020/20130104/114339/573/2000/10/
015020/20130104/114350/573/3200/10/
015020/20130104/114354/572/100/10/
015020/20130104/114355/572/100/20/
015020/20130104/114357/572/200/20/
015020/20130104/114359/572/110/10/
015020/20130104/114359/572/500/20/
015020/20130104/114402/572/390/20/
015020/20130104/114410/573/790/20/
015020/20130104/114413/571/2170/10/
015020/20130104/114429/570/4010/10/
015020/20130104/114454/570/170/10/
015020/20130104/114456/570/400/20/
015020/20130104/114508/570/780/20/
015020/20130104/114523/570/1010/20/
015020/20130104/114528/571/280/20/
015020/20130104/114620/576/110/20/
015020/20130104/114718/572/2020/10/
015020/20130104/114757/576/14770/20/
015020/20130104/114757/580/2000/20/
015020/20130104/114757/581/500/20/
015020/20130104/114757/582/100/20/
015020/20130104/114757/583/2120/20/
015020/20130104/114757/584/3720/20/
015020/20130104/114757/585/1440/20/
015020/20130104/114759/573/290/10/
015020/20130104/114915/582/230/20/
015020/20130104/114924/582/2000/10/
015020/20130104/114927/582/1940/10/
015020/20130104/114930/582/400/10/
015020/20130104/115040/578/350/10/
015020/20130104/115059/578/2670/20/
015020/20130104/115126/584/90/20/
015020/20130104/115234/577/2130/10/
015020/20130104/115352/577/90/10/
015020/20130104/115405/577/2010/10/
015020/20130104/115513/576/510/10/
015020/20130104/115513/575/1000/10/
015020/20130104/115513/573/2500/10/
015020/20130104/115611/577/90/20/
015020/20130104/115845/580/90/10/
015020/20130104/115853/581/90/20/
015020/20130104/115909/583/100/20/
015020/20130104/115911/584/100/20/
015020/20130104/120020/582/210/20/
015020/20130104/120057/584/90/20/
015020/20130104/120109/577/100/10/
015020/20130104/120155/578/90/10/
015020/20130104/120155/577/3360/10/
015020/20130104/120435/575/520/10/
015020/20130104/120444/576/480/20/
015020/20130104/120459/575/2610/10/
015020/20130104/120546/575/5680/20/
015020/20130104/120551/575/1000/20/
015020/20130104/120610/573/3130/10/
015020/20130104/120748/574/850/20/
015020/20130104/120810/574/500/10/
015020/20130104/120819/573/1180/10/
015020/20130104/120847/573/2060/20/
015020/20130104/120848/573/1760/20/
015020/20130104/121039/575/710/20/
015020/20130104/121046/573/1350/10/
015020/20130104/121050/577/700/20/
015020/20130104/121102/575/1000/10/
015020/20130104/121102/573/580/10/
015020/20130104/121102/572/2320/10/
015020/20130104/121102/571/3800/10/
015020/20130104/121116/571/670/20/
015020/20130104/121117/571/200/20/
015020/20130104/121128/570/9510/10/
015020/20130104/121128/570/170/10/
015020/20130104/121146/571/360/20/
015020/20130104/121244/572/620/10/
015020/20130104/121258/572/620/10/
015020/20130104/121300/571/100/10/
015020/20130104/121308/571/1710/10/
015020/20130104/121310/570/2070/10/
015020/20130104/121310/570/850/10/
015020/20130104/121310/569/5430/10/
015020/20130104/121312/569/3720/20/
015020/20130104/121320/570/6760/10/
015020/20130104/121326/570/600/10/
015020/20130104/121331/570/720/10/
015020/20130104/121349/570/750/10/
015020/20130104/121406/568/1430/10/
015020/20130104/121413/567/2500/10/
015020/20130104/121424/568/570/20/
015020/20130104/121428/568/2170/10/
015020/20130104/121428/568/2320/10/
015020/20130104/121431/568/2000/20/
015020/20130104/121433/568/1000/20/
015020/20130104/121437/568/330/20/
015020/20130104/121447/568/1670/10/
015020/20130104/121454/568/470/20/
015020/20130104/121501/568/1500/10/
015020/20130104/121540/570/220/10/
015020/20130104/121559/570/160/10/
015020/20130104/121610/570/1500/10/
015020/20130104/121627/570/3000/10/
015020/20130104/121638/570/5100/10/
015020/20130104/121704/570/1550/10/
015020/20130104/121719/570/1470/10/
015020/20130104/121757/569/2270/10/
015020/20130104/121757/568/3220/10/
015020/20130104/121757/567/5080/10/
015020/20130104/121832/566/250/10/
015020/20130104/121835/567/2010/20/
015020/20130104/121837/566/4750/10/
015020/20130104/121840/566/4490/10/
015020/20130104/121848/566/600/10/
015020/20130104/121848/565/1500/10/
015020/20130104/121848/564/1920/10/
015020/20130104/121856/564/2580/10/
015020/20130104/121856/563/2440/10/
015020/20130104/121856/563/500/10/
015020/20130104/121858/563/1160/10/
015020/20130104/121901/563/2860/20/
015020/20130104/121913/563/3160/10/
015020/20130104/121913/562/6730/10/
015020/20130104/121913/560/3460/10/
015020/20130104/121913/561/5000/10/
015020/20130104/121923/562/810/10/
015020/20130104/121931/562/1560/10/
015020/20130104/121936/562/2000/20/
015020/20130104/121937/562/760/20/
015020/20130104/121940/562/1240/10/
015020/20130104/121943/561/820/10/
015020/20130104/121948/561/1260/10/
015020/20130104/121950/562/1260/20/
015020/20130104/121950/562/360/20/
015020/20130104/121952/561/1870/10/
015020/20130104/121955/562/790/20/
015020/20130104/122000/565/90/20/
015020/20130104/122015/565/280/20/
015020/20130104/122030/564/3460/20/
015020/20130104/122034/562/480/10/
015020/20130104/122047/562/2280/10/
015020/20130104/122050/562/240/10/
015020/20130104/122102/563/540/20/
015020/20130104/122103/562/500/10/
015020/20130104/122121/562/740/10/
015020/20130104/122126/561/3460/10/
015020/20130104/122130/562/1140/20/
015020/20130104/122134/561/4860/10/
015020/20130104/122149/561/1550/20/
015020/20130104/122153/561/2010/20/
015020/20130104/122157/561/140/20/
015020/20130104/122158/561/90/20/
015020/20130104/122158/561/170/10/
015020/20130104/122158/561/100/10/
015020/20130104/122205/561/1060/20/
015020/20130104/122207/560/2170/10/
015020/20130104/122210/560/4010/10/
015020/20130104/122210/560/2200/10/
015020/20130104/122221/561/1040/20/
015020/20130104/122254/562/90/20/
015020/20130104/122316/561/2720/10/
015020/20130104/122329/561/1190/20/
015020/20130104/122335/562/3520/20/
015020/20130104/122337/562/1000/20/
015020/20130104/122403/561/490/10/
015020/20130104/122421/561/550/10/
015020/20130104/122425/561/570/10/
015020/20130104/122439/562/870/20/
015020/20130104/122450/561/2960/10/
015020/20130104/122458/561/460/10/
015020/20130104/122504/561/310/10/
015020/20130104/122518/561/600/10/
015020/20130104/122518/560/23650/10/
015020/20130104/122529/560/2000/20/
015020/20130104/122536/559/7110/10/
015020/20130104/122537/559/540/20/
015020/20130104/122541/558/1130/10/
015020/20130104/122542/558/7160/10/
015020/20130104/122542/557/7130/10/
015020/20130104/122547/557/510/20/
015020/20130104/122604/556/1840/10/
015020/20130104/122604/555/240/10/
015020/20130104/122612/555/11640/10/
015020/20130104/122617/555/580/20/
015020/20130104/122618/555/140/20/
015020/20130104/122619/554/5000/10/
015020/20130104/122621/554/670/10/
015020/20130104/122622/554/240/10/
015020/20130104/122624/554/1270/10/
015020/20130104/122625/555/300/20/
015020/20130104/122626/554/1000/10/
015020/20130104/122632/555/100/20/
015020/20130104/122640/555/4290/20/
015020/20130104/122653/555/2010/10/
015020/20130104/122709/559/1200/20/
015020/20130104/122731/556/3000/10/
015020/20130104/122808/556/2250/10/
015020/20130104/122808/555/1300/10/
015020/20130104/122821/555/2300/10/
015020/20130104/122821/559/300/20/
015020/20130104/122856/559/240/20/
015020/20130104/122935/561/90/20/
015020/20130104/122935/562/960/20/
015020/20130104/122950/562/900/20/
015020/20130104/122952/559/1300/10/
015020/20130104/123028/562/3570/20/
015020/20130104/123048/562/980/20/
015020/20130104/123057/564/810/20/
015020/20130104/123058/564/3300/10/
015020/20130104/123058/564/5920/10/
015020/20130104/123136/562/1030/10/
015020/20130104/123229/563/100/20/
015020/20130104/123250/563/510/20/
015020/20130104/123305/562/6000/10/
015020/20130104/123307/563/480/20/
015020/20130104/123312/563/520/10/
015020/20130104/123316/564/1570/20/
015020/20130104/123316/565/1270/20/
015020/20130104/123316/566/170/20/
015020/20130104/123343/563/1490/10/
015020/20130104/123343/562/510/10/
015020/20130104/123359/562/1500/10/
015020/20130104/123359/559/1950/10/
015020/20130104/123359/558/7290/10/
015020/20130104/123410/558/2720/10/
015020/20130104/123410/557/3150/10/
015020/20130104/123410/556/4790/10/
015020/20130104/123410/555/4350/10/
015020/20130104/123431/556/1520/10/
015020/20130104/123431/555/1480/10/
015020/20130104/123439/562/500/20/
015020/20130104/123522/558/500/10/
015020/20130104/123554/558/3000/10/
015020/20130104/123619/558/510/10/
015020/20130104/123712/561/930/20/
015020/20130104/123712/562/150/20/
015020/20130104/123848/562/210/20/
015020/20130104/123853/562/520/20/
015020/20130104/123855/562/480/20/
015020/20130104/123855/563/660/20/
015020/20130104/123855/563/340/20/
015020/20130104/123855/564/3020/20/
015020/20130104/123856/565/1000/20/
015020/20130104/123859/564/1650/10/
015020/20130104/123912/562/250/10/
015020/20130104/123915/562/1510/10/
015020/20130104/123920/564/650/20/
015020/20130104/123932/566/2240/20/
015020/20130104/123943/566/2520/20/
015020/20130104/123943/567/510/20/
015020/20130104/124014/565/1030/10/
015020/20130104/124017/565/100/20/
015020/20130104/124022/565/710/20/
015020/20130104/124039/565/800/20/
015020/20130104/124039/565/1000/20/
015020/20130104/124043/565/930/20/
015020/20130104/124052/566/1110/20/
015020/20130104/124107/565/1400/10/
015020/20130104/124112/565/1010/20/
015020/20130104/124117/567/100/20/
015020/20130104/124119/565/290/10/
015020/20130104/124119/564/4710/10/
015020/20130104/124125/565/360/20/
015020/20130104/124145/565/1000/20/
015020/20130104/124145/565/640/20/
015020/20130104/124151/566/470/20/
015020/20130104/124202/566/1030/20/
015020/20130104/124214/565/2370/10/
015020/20130104/124217/565/500/10/
015020/20130104/124219/565/440/10/
015020/20130104/124231/565/160/10/
015020/20130104/124231/564/2130/10/
015020/20130104/124231/563/7710/10/
015020/20130104/124251/563/1000/10/
015020/20130104/124318/565/1010/20/
015020/20130104/124323/567/200/20/
015020/20130104/124333/567/1050/20/
015020/20130104/124333/568/2000/20/
015020/20130104/124346/569/1100/20/
015020/20130104/124358/570/790/20/
015020/20130104/124407/570/1800/20/
015020/20130104/124408/569/2020/10/
015020/20130104/124421/569/2000/20/
015020/20130104/124423/569/1060/10/
015020/20130104/124423/569/1940/10/
015020/20130104/124619/568/510/20/
015020/20130104/124619/569/5580/20/
015020/20130104/124619/570/2000/20/
015020/20130104/124623/570/1000/10/
015020/20130104/124640/570/360/10/
015020/20130104/124640/570/160/10/
015020/20130104/124720/570/7180/20/
015020/20130104/124818/566/2330/10/
015020/20130104/124851/566/2000/10/
015020/20130104/124943/567/500/10/
015020/20130104/124943/566/680/10/
015020/20130104/125010/567/170/10/
015020/20130104/125010/566/4830/10/
015020/20130104/125028/568/700/20/
015020/20130104/125028/569/300/20/
015020/20130104/125039/566/5000/10/
015020/20130104/125107/568/720/20/
015020/20130104/125116/568/2280/20/
015020/20130104/125124/569/440/20/
015020/20130104/125127/569/5220/20/
015020/20130104/125148/570/1010/20/
015020/20130104/125152/570/170/20/
015020/20130104/125220/571/500/20/
015020/20130104/125220/571/3820/10/
015020/20130104/125224/571/12670/10/
015020/20130104/125232/570/190/20/
015020/20130104/125235/572/1930/20/
015020/20130104/125235/573/2360/20/
015020/20130104/125235/574/1080/20/
015020/20130104/125257/574/7530/20/
015020/20130104/125257/575/4510/20/
015020/20130104/125358/575/130/20/
015020/20130104/125411/575/610/20/
015020/20130104/125419/573/1980/20/
015020/20130104/125426/573/2020/10/
015020/20130104/125431/574/7630/20/
015020/20130104/125433/574/120/20/
015020/20130104/125442/575/8620/20/
015020/20130104/125455/575/1000/10/
015020/20130104/125456/575/1500/10/
015020/20130104/125458/575/5220/10/
015020/20130104/125458/575/1230/10/
015020/20130104/125459/575/1720/10/
015020/20130104/125501/575/480/10/
015020/20130104/125502/575/440/10/
015020/20130104/125503/575/4000/10/
015020/20130104/125516/574/6660/10/
015020/20130104/125524/573/600/10/
015020/20130104/125545/573/1630/10/
015020/20130104/125545/572/2250/10/
015020/20130104/125545/571/2200/10/
015020/20130104/125613/572/1200/10/
015020/20130104/125650/572/400/10/
015020/20130104/125650/571/4100/10/
015020/20130104/125650/570/3600/10/
015020/20130104/125713/570/540/10/
015020/20130104/125713/569/1460/10/
015020/20130104/125757/570/1060/10/
015020/20130104/125759/570/3340/10/
015020/20130104/125809/570/100/10/
015020/20130104/125812/570/1060/10/
015020/20130104/125956/570/6930/10/
015020/20130104/130001/570/820/20/
015020/20130104/130010/569/1010/10/
015020/20130104/130037/569/170/10/
015020/20130104/130107/570/4120/20/
015020/20130104/130114/570/100/10/
015020/20130104/130140/571/2870/10/
015020/20130104/130206/573/1520/20/
015020/20130104/130315/574/1000/20/
015020/20130104/130330/575/510/20/
015020/20130104/130346/575/2000/20/
015020/20130104/130351/575/480/20/
015020/20130104/130353/576/420/20/
015020/20130104/130357/576/500/20/
015020/20130104/130402/576/480/20/
015020/20130104/130402/577/520/20/
015020/20130104/130413/577/7510/20/
015020/20130104/130418/577/3600/20/
015020/20130104/130420/577/1390/10/
015020/20130104/130428/577/4020/20/
015020/20130104/130433/577/2450/20/
015020/20130104/130438/577/7140/20/
015020/20130104/130459/577/3010/10/
015020/20130104/130500/577/6000/10/
015020/20130104/130502/577/4000/10/
015020/20130104/130508/577/1000/10/
015020/20130104/130509/577/2900/10/
015020/20130104/130532/576/680/20/
015020/20130104/130532/577/3100/20/
015020/20130104/130533/577/340/10/
015020/20130104/130548/577/790/10/
015020/20130104/130706/575/3100/10/
015020/20130104/130732/575/300/20/
015020/20130104/130732/574/1320/10/
015020/20130104/130732/573/4050/10/
015020/20130104/130747/573/680/10/
015020/20130104/130747/573/1530/10/
015020/20130104/130824/571/7260/10/
015020/20130104/130826/571/430/10/
015020/20130104/130918/571/550/10/
015020/20130104/130925/571/1000/20/
015020/20130104/130937/571/740/20/
015020/20130104/130955/571/270/10/
015020/20130104/130959/571/100/20/
015020/20130104/131052/574/790/20/
015020/20130104/131055/574/2430/10/
015020/20130104/131353/572/380/10/
015020/20130104/131431/572/740/10/
015020/20130104/131431/571/460/10/
015020/20130104/131441/571/1610/20/
015020/20130104/131528/571/1000/10/
015020/20130104/131528/570/2000/10/
015020/20130104/131637/574/1070/20/
015020/20130104/131653/576/520/20/
015020/20130104/131659/576/340/20/
015020/20130104/131659/577/90/20/
015020/20130104/131659/578/580/20/
015020/20130104/131659/579/330/20/
015020/20130104/131743/576/210/10/
015020/20130104/131753/576/1010/20/
015020/20130104/131755/576/110/20/
015020/20130104/131758/576/550/20/
015020/20130104/131801/576/370/20/
015020/20130104/131801/579/4880/20/
015020/20130104/131807/576/140/20/
015020/20130104/131818/576/100/20/
015020/20130104/131901/576/780/20/
015020/20130104/131928/576/100/10/
015020/20130104/131928/575/530/10/
015020/20130104/131928/573/1110/10/
015020/20130104/131928/572/770/10/
015020/20130104/132005/573/6000/10/
015020/20130104/132005/572/2640/10/
015020/20130104/132009/571/5250/10/
015020/20130104/132016/570/200/10/
015020/20130104/132047/572/1010/20/
015020/20130104/132048/572/8860/20/
015020/20130104/132055/577/590/20/
015020/20130104/132337/575/2030/10/
015020/20130104/132354/576/1000/10/
015020/20130104/132358/575/6150/10/
015020/20130104/132409/575/2640/20/
015020/20130104/132429/575/10000/10/
015020/20130104/132431/577/1210/20/
015020/20130104/132431/578/8790/20/
015020/20130104/132550/580/350/20/
015020/20130104/132552/580/750/20/
015020/20130104/132552/581/250/20/
015020/20130104/132621/580/1040/10/
015020/20130104/132621/580/9020/20/
015020/20130104/132621/581/1720/20/
015020/20130104/132621/582/1990/20/
015020/20130104/132627/580/200/20/
015020/20130104/132632/582/1300/20/
015020/20130104/132640/582/120/20/
015020/20130104/132645/582/2000/20/
015020/20130104/132647/582/3050/20/
015020/20130104/132649/582/4200/10/
015020/20130104/132650/582/4070/10/
015020/20130104/132650/581/210/10/
015020/20130104/132650/580/660/10/
015020/20130104/132653/580/1500/20/
015020/20130104/132721/577/90/10/
015020/20130104/132745/577/2100/10/
015020/20130104/132748/577/3000/20/
015020/20130104/132750/577/2920/20/
015020/20130104/132754/577/2000/20/
015020/20130104/132758/578/90/20/
015020/20130104/132758/580/5090/20/
015020/20130104/132804/580/690/20/
015020/20130104/132804/582/220/20/
015020/20130104/132804/583/1010/20/
015020/20130104/132804/584/12890/20/
015020/20130104/132814/583/280/20/
015020/20130104/132827/582/1440/20/
015020/20130104/133013/579/400/10/
015020/20130104/133025/579/90/20/
015020/20130104/133057/577/1020/10/
015020/20130104/133129/577/550/10/
015020/20130104/133142/577/3870/10/
015020/20130104/133159/577/4570/10/
015020/20130104/133159/576/290/10/
015020/20130104/133232/575/2810/10/
015020/20130104/133250/574/4160/10/
015020/20130104/133256/573/760/10/
015020/20130104/133259/573/2000/10/
015020/20130104/133347/573/1350/10/
015020/20130104/133354/573/440/10/
015020/20130104/133354/572/3340/10/
015020/20130104/133404/572/1100/20/
015020/20130104/133410/572/900/10/
015020/20130104/133410/571/900/10/
015020/20130104/133415/571/5000/10/
015020/20130104/133416/571/1020/10/
015020/20130104/133416/570/8920/10/
015020/20130104/133435/570/7190/10/
015020/20130104/133436/570/4290/10/
015020/20130104/133436/570/3560/10/
015020/20130104/133444/569/1400/10/
015020/20130104/133448/569/2900/10/
015020/20130104/133451/569/1830/20/
015020/20130104/133454/569/1620/20/
015020/20130104/133508/570/440/20/
015020/20130104/133509/570/1000/20/
015020/20130104/133554/570/3780/10/
015020/20130104/133554/569/5720/10/
015020/20130104/133554/568/4530/10/
015020/20130104/133747/574/470/10/
015020/20130104/133826/571/1780/10/
015020/20130104/133833/573/5000/20/
015020/20130104/133842/571/290/10/
015020/20130104/133842/570/500/10/
015020/20130104/133842/569/610/10/
015020/20130104/133842/568/930/10/
015020/20130104/133905/570/5000/10/
015020/20130104/133909/570/1080/20/
015020/20130104/134129/570/500/10/
015020/20130104/134152/569/1190/10/
015020/20130104/134152/568/810/10/
015020/20130104/134202/568/10790/10/
015020/20130104/134231/568/2370/20/
015020/20130104/134232/568/840/20/
015020/20130104/134232/572/280/20/
015020/20130104/134305/572/130/20/
015020/20130104/134419/570/2000/10/
015020/20130104/134519/570/260/10/
015020/20130104/134523/569/1500/10/
015020/20130104/134524/569/1360/10/
015020/20130104/134535/569/140/20/
015020/20130104/134535/569/360/10/
015020/20130104/134535/568/2440/10/
015020/20130104/134536/568/660/10/
015020/20130104/134536/567/1260/10/
015020/20130104/134536/566/2620/10/
015020/20130104/134536/565/10180/10/
015020/20130104/134611/566/480/10/
015020/20130104/134611/565/2080/10/
015020/20130104/134616/565/2000/20/
015020/20130104/134616/565/110/20/
015020/20130104/134617/565/1890/20/
015020/20130104/134731/569/1250/20/
015020/20130104/134836/569/750/20/
015020/20130104/134901/570/1260/20/
015020/20130104/134902/569/1000/10/
015020/20130104/134903/571/150/20/
015020/20130104/135002/570/900/10/
015020/20130104/135015/569/110/10/
015020/20130104/135028/570/5340/20/
015020/20130104/135042/569/1250/10/
015020/20130104/135105/569/16910/10/
015020/20130104/135152/569/180/20/
015020/20130104/135238/567/100/10/
015020/20130104/135312/567/9910/10/
015020/20130104/135322/567/17640/20/
015020/20130104/135324/567/14630/20/
015020/20130104/135325/567/5000/20/
015020/20130104/135326/567/510/20/
015020/20130104/135326/567/1400/20/
015020/20130104/135326/567/9960/20/
015020/20130104/135328/567/2810/20/
015020/20130104/135328/567/1000/20/
015020/20130104/135332/567/1000/20/
015020/20130104/135346/567/14930/20/
015020/20130104/135347/567/650/20/
015020/20130104/135359/567/140/10/
015020/20130104/135702/567/1890/10/
015020/20130104/135702/566/850/10/
015020/20130104/135702/565/2740/10/
015020/20130104/135702/564/2250/10/
015020/20130104/135702/563/4540/10/
015020/20130104/135702/562/2500/10/
015020/20130104/135702/561/1500/10/
015020/20130104/135820/567/240/20/
015020/20130104/135850/566/260/20/
015020/20130104/135915/564/800/10/
015020/20130104/135919/564/210/20/
015020/20130104/135959/563/2110/10/
015020/20130104/135959/562/4470/10/
015020/20130104/140005/566/210/20/
015020/20130104/140051/566/380/20/
015020/20130104/140228/566/170/20/
015020/20130104/140228/567/840/20/
015020/20130104/140253/566/390/20/
015020/20130104/140410/567/580/20/
015020/20130104/140429/567/490/10/
015020/20130104/140539/570/160/20/
015020/20130104/140615/570/1060/20/
015020/20130104/140636/570/90/20/
015020/20130104/140647/570/6040/20/
015020/20130104/140652/570/530/20/
015020/20130104/140729/569/300/10/
015020/20130104/140735/568/300/10/
015020/20130104/140740/568/290/10/
015020/20130104/140807/568/1620/10/
015020/20130104/140812/568/650/10/
015020/20130104/140836/568/920/20/
015020/20130104/140842/568/1070/10/
015020/20130104/140843/568/490/10/
015020/20130104/140845/568/1480/10/
015020/20130104/140845/568/640/10/
015020/20130104/140934/566/300/10/
015020/20130104/140944/566/1000/20/
015020/20130104/141005/565/90/10/
015020/20130104/141013/565/910/20/
015020/20130104/141041/565/90/10/
015020/20130104/141055/564/900/10/
015020/20130104/141055/563/4760/10/
015020/20130104/141120/563/300/10/
015020/20130104/141122/563/1970/10/
015020/20130104/141124/563/100/20/
015020/20130104/141127/563/2200/20/
015020/20130104/141128/563/400/20/
015020/20130104/141140/562/1690/10/
015020/20130104/141146/562/4020/10/
015020/20130104/141148/562/460/10/
015020/20130104/141148/561/5840/10/
015020/20130104/141148/560/15350/10/
015020/20130104/141148/560/3350/20/
015020/20130104/141218/560/530/10/
015020/20130104/141218/559/310/10/
015020/20130104/141227/559/800/10/
015020/20130104/141227/559/1000/10/
015020/20130104/141227/558/3710/10/
015020/20130104/141227/558/6400/20/
015020/20130104/141240/558/1280/10/
015020/20130104/141240/557/860/10/
015020/20130104/141242/557/2000/10/
015020/20130104/141245/557/300/10/
015020/20130104/141342/558/680/10/
015020/20130104/141513/560/720/10/
015020/20130104/141513/559/1890/10/
015020/20130104/141513/558/4420/10/
015020/20130104/141518/558/2480/20/
015020/20130104/141519/559/2520/10/
015020/20130104/141519/558/160/10/
015020/20130104/141546/559/4000/20/
015020/20130104/141559/563/7530/20/
015020/20130104/141608/563/120/20/
015020/20130104/141735/562/160/20/
015020/20130104/141750/562/300/20/
015020/20130104/141843/561/1060/10/
015020/20130104/141845/561/1420/10/
015020/20130104/141845/560/3480/10/
015020/20130104/141910/560/500/10/
015020/20130104/141923/560/660/10/
015020/20130104/141952/560/130/10/
015020/20130104/142115/560/15160/10/
015020/20130104/142115/559/1170/10/
015020/20130104/142115/558/3670/10/
015020/20130104/142227/558/3000/10/
015020/20130104/142232/558/2000/10/
015020/20130104/142244/558/9490/10/
015020/20130104/142249/558/200/10/
015020/20130104/142251/558/2840/10/
015020/20130104/142255/558/1220/10/
015020/20130104/142258/558/250/20/
015020/20130104/142302/557/2680/10/
015020/20130104/142307/557/3010/10/
015020/20130104/142309/557/5820/10/
015020/20130104/142313/557/260/20/
015020/20130104/142319/557/590/20/
015020/20130104/142319/558/5000/20/
015020/20130104/142327/558/1160/20/
015020/20130104/142332/558/1080/10/
015020/20130104/142336/558/1830/10/
015020/20130104/142342/558/1010/10/
015020/20130104/142343/558/1000/10/
015020/20130104/142345/558/420/10/
015020/20130104/142345/558/470/20/
015020/20130104/142347/558/1000/10/
015020/20130104/142349/558/3530/10/
015020/20130104/142349/557/1420/10/
015020/20130104/142349/556/10710/10/
015020/20130104/142354/556/1000/20/
015020/20130104/142355/556/1480/20/
015020/20130104/142404/556/4930/10/
015020/20130104/142411/556/2090/10/
015020/20130104/142415/556/500/20/
015020/20130104/142416/556/500/20/
015020/20130104/142417/556/980/20/
015020/20130104/142418/558/300/10/
015020/20130104/142418/556/1200/10/
015020/20130104/142419/556/2820/10/
015020/20130104/142419/555/2960/10/
015020/20130104/142526/560/270/20/
015020/20130104/142614/557/120/10/
015020/20130104/142635/557/1000/10/
015020/20130104/142638/557/280/10/
015020/20130104/142643/557/410/10/
015020/20130104/142645/557/500/20/
015020/20130104/142648/557/90/20/
015020/20130104/142652/556/3600/10/
015020/20130104/142708/556/10130/10/
015020/20130104/142724/555/4070/10/
015020/20130104/142739/558/810/10/
015020/20130104/142755/556/800/10/
015020/20130104/142757/556/200/10/
015020/20130104/142757/555/13310/10/
015020/20130104/142757/555/500/20/
015020/20130104/142801/554/2830/10/
015020/20130104/142807/555/620/20/
015020/20130104/142812/554/3000/10/
015020/20130104/142825/554/1000/10/
015020/20130104/142837/556/280/20/
015020/20130104/142839/555/1000/10/
015020/20130104/142843/556/220/20/
015020/20130104/142903/557/640/20/
015020/20130104/142903/558/200/20/
015020/20130104/142903/559/960/20/
015020/20130104/142903/560/1370/20/
015020/20130104/142907/560/2800/10/
015020/20130104/142913/561/760/20/
015020/20130104/142913/562/2240/20/
015020/20130104/142918/562/270/20/
015020/20130104/142921/562/100/20/
015020/20130104/142929/562/400/20/
015020/20130104/142932/562/680/20/
015020/20130104/142944/563/90/20/
015020/20130104/142947/563/1580/20/
015020/20130104/142954/563/1420/10/
015020/20130104/142957/563/1000/10/
015020/20130104/142958/563/220/10/
015020/20130104/142958/562/1000/10/
015020/20130104/143007/562/90/20/
015020/20130104/143012/562/90/20/
015020/20130104/143016/562/90/20/
015020/20130104/143019/562/210/20/
015020/20130104/143022/562/1290/20/
015020/20130104/143029/565/90/20/
015020/20130104/143037/564/230/20/
015020/20130104/143037/565/300/20/
015020/20130104/143047/564/200/20/
015020/20130104/143047/565/130/20/
015020/20130104/143109/564/110/20/
015020/20130104/143109/565/250/20/
015020/20130104/143155/562/310/10/
015020/20130104/143203/564/100/20/
015020/20130104/143234/564/160/20/
015020/20130104/143234/561/310/10/
015020/20130104/143234/560/1290/10/
015020/20130104/143242/559/370/10/
015020/20130104/143242/558/670/10/
015020/20130104/143242/557/1190/10/
015020/20130104/143242/556/660/10/
015020/20130104/143256/556/590/10/
015020/20130104/143305/563/100/20/
015020/20130104/143306/556/3000/10/
015020/20130104/143313/556/1000/10/
015020/20130104/143334/556/7190/10/
015020/20130104/143334/555/4100/10/
015020/20130104/143334/554/5110/10/
015020/20130104/143334/553/1240/10/
015020/20130104/143334/553/5910/10/
015020/20130104/143340/553/650/20/
015020/20130104/143352/562/130/20/
015020/20130104/143353/562/100/20/
015020/20130104/143425/560/160/20/
015020/20130104/143429/560/550/20/
015020/20130104/143443/560/330/10/
015020/20130104/143455/560/120/10/
015020/20130104/143507/560/880/20/
015020/20130104/143512/562/510/10/
015020/20130104/143512/563/1960/10/
015020/20130104/143512/565/1180/10/
015020/20130104/143512/566/2000/20/
015020/20130104/143519/560/120/10/
015020/20130104/143601/564/1000/20/
015020/20130104/143609/564/100/10/
015020/20130104/143626/565/1000/10/
015020/20130104/143703/565/2110/20/
015020/20130104/143709/565/970/10/
015020/20130104/143726/562/1000/10/
015020/20130104/143729/562/900/10/
015020/20130104/143755/562/140/10/
015020/20130104/143759/562/300/10/
015020/20130104/143806/562/500/10/
015020/20130104/143906/562/570/20/
015020/20130104/143911/562/500/10/
015020/20130104/143928/561/110/10/
015020/20130104/143941/561/420/20/
015020/20130104/143941/562/580/20/
015020/20130104/144003/562/540/20/
015020/20130104/144018/562/460/10/
015020/20130104/144018/561/200/10/
015020/20130104/144019/560/2010/10/
015020/20130104/144019/559/1030/10/
015020/20130104/144036/561/340/20/
015020/20130104/144039/561/660/10/
015020/20130104/144039/559/300/10/
015020/20130104/144039/558/140/10/
015020/20130104/144046/558/160/10/
015020/20130104/144134/564/3000/20/
015020/20130104/144240/563/4020/20/
015020/20130104/144311/562/520/20/
015020/20130104/144316/562/480/10/
015020/20130104/144316/558/210/10/
015020/20130104/144318/563/2630/20/
015020/20130104/144325/563/370/10/
015020/20130104/144334/563/480/10/
015020/20130104/144345/563/130/10/
015020/20130104/144354/563/2960/20/
015020/20130104/144437/562/5040/20/
015020/20130104/144459/559/350/10/
015020/20130104/144501/562/5000/20/
015020/20130104/144627/561/2110/10/
015020/20130104/144721/560/500/10/
015020/20130104/144734/560/510/10/
015020/20130104/144737/560/530/10/
015020/20130104/144746/560/1470/10/
015020/20130104/144751/559/1030/10/
015020/20130104/144751/558/3770/10/
015020/20130104/144751/557/4320/10/
015020/20130104/144751/556/880/10/
015020/20130104/144802/556/4630/10/
015020/20130104/144802/555/10010/10/
015020/20130104/144811/555/1000/20/
015020/20130104/144811/555/1500/20/
015020/20130104/144815/555/350/20/
015020/20130104/144823/555/440/10/
015020/20130104/144823/554/4730/10/
015020/20130104/144847/555/2890/10/
015020/20130104/144900/559/1000/20/
015020/20130104/144903/556/1000/10/
015020/20130104/144918/556/1000/10/
015020/20130104/144922/556/90/20/
015020/20130104/144922/555/5000/10/
015020/20130104/144929/556/7000/20/
015020/20130104/144933/555/3140/10/
015020/20130104/144933/556/110/20/
015020/20130104/144949/557/1000/10/
015020/20130104/144949/556/2400/10/
015020/20130104/144955/556/4110/10/
015020/20130104/144958/556/150/10/
015020/20130104/150000/560/42210/20/
