015020/20130114/90000/583/7740/20/
015020/20130114/90004/580/5000/20/
015020/20130114/90004/583/2530/20/
015020/20130114/90011/583/7470/10/
015020/20130114/90047/583/4000/20/
015020/20130114/90052/583/3000/20/
015020/20130114/90102/580/150/20/
015020/20130114/90119/580/100/20/
015020/20130114/90122/580/150/20/
015020/20130114/90131/580/100/20/
015020/20130114/90157/580/110/20/
015020/20130114/90203/580/1000/20/
015020/20130114/90205/580/1790/20/
015020/20130114/90216/580/1500/10/
015020/20130114/90220/580/1420/10/
015020/20130114/90228/577/110/10/
015020/20130114/90234/577/2890/20/
015020/20130114/90234/580/6400/20/
015020/20130114/90251/580/1520/20/
015020/20130114/90254/580/2000/20/
015020/20130114/90256/580/660/20/
015020/20130114/90258/580/340/10/
015020/20130114/90307/580/440/20/
015020/20130114/90307/580/650/20/
015020/20130114/90315/580/180/20/
015020/20130114/90334/580/270/20/
015020/20130114/90353/583/590/20/
015020/20130114/90404/583/110/20/
015020/20130114/90406/583/1020/20/
015020/20130114/90408/584/3690/20/
015020/20130114/90429/587/2540/20/
015020/20130114/90433/587/520/20/
015020/20130114/90433/588/230/20/
015020/20130114/90448/587/1050/20/
015020/20130114/90449/588/1780/20/
015020/20130114/90455/586/200/10/
015020/20130114/90455/586/1000/20/
015020/20130114/90459/586/100/20/
015020/20130114/90501/586/1000/20/
015020/20130114/90501/586/2000/20/
015020/20130114/90507/586/700/20/
015020/20130114/90509/586/210/10/
015020/20130114/90509/586/3190/10/
015020/20130114/90530/583/1390/10/
015020/20130114/90605/585/820/10/
015020/20130114/90614/586/200/20/
015020/20130114/90628/586/100/20/
015020/20130114/90632/586/400/20/
015020/20130114/90639/584/4890/10/
015020/20130114/90639/583/3110/10/
015020/20130114/90658/584/2280/10/
015020/20130114/90702/583/3930/10/
015020/20130114/90715/584/600/20/
015020/20130114/90724/584/2120/20/
015020/20130114/90727/584/1000/10/
015020/20130114/90728/584/5000/10/
015020/20130114/90734/585/3100/20/
015020/20130114/90749/585/1900/20/
015020/20130114/90749/585/1100/10/
015020/20130114/90749/584/900/10/
015020/20130114/90802/584/1980/10/
015020/20130114/90834/584/3110/10/
015020/20130114/90857/584/420/20/
015020/20130114/90918/585/660/20/
015020/20130114/90933/585/320/20/
015020/20130114/90935/585/3090/20/
015020/20130114/90941/585/1910/10/
015020/20130114/90941/584/3580/10/
015020/20130114/90941/583/480/10/
015020/20130114/90959/585/580/10/
015020/20130114/91051/584/2110/10/
015020/20130114/91054/585/1000/20/
015020/20130114/91057/585/340/10/
015020/20130114/91138/586/170/20/
015020/20130114/91158/585/2800/10/
015020/20130114/91206/586/1000/20/
015020/20130114/91216/586/170/20/
015020/20130114/91223/586/1890/20/
015020/20130114/91232/586/1000/20/
015020/20130114/91259/585/3180/10/
015020/20130114/91300/585/970/10/
015020/20130114/91321/585/2370/10/
015020/20130114/91331/585/580/10/
015020/20130114/91339/584/1320/10/
015020/20130114/91356/584/380/10/
015020/20130114/91406/585/180/20/
015020/20130114/91427/584/3630/10/
015020/20130114/91446/584/100/20/
015020/20130114/91451/584/900/20/
015020/20130114/91505/583/5000/10/
015020/20130114/91510/583/2030/10/
015020/20130114/91525/582/5000/10/
015020/20130114/91535/581/1120/10/
015020/20130114/91542/582/360/20/
015020/20130114/91545/582/700/10/
015020/20130114/91551/581/3880/10/
015020/20130114/91551/580/7220/10/
015020/20130114/91600/580/300/10/
015020/20130114/91600/579/5000/10/
015020/20130114/91600/578/6000/10/
015020/20130114/91600/577/10800/10/
015020/20130114/91604/577/690/20/
015020/20130114/91604/577/210/20/
015020/20130114/91612/577/790/10/
015020/20130114/91612/576/6510/10/
015020/20130114/91612/575/6300/10/
015020/20130114/91612/574/6400/10/
015020/20130114/91619/574/370/10/
015020/20130114/91639/574/870/10/
015020/20130114/91639/573/6130/10/
015020/20130114/91639/572/3000/10/
015020/20130114/91703/572/10000/10/
015020/20130114/91918/579/700/20/
015020/20130114/91918/580/320/20/
015020/20130114/92017/580/3090/20/
015020/20130114/92218/574/270/10/
015020/20130114/92218/573/4790/10/
015020/20130114/92255/573/1910/10/
015020/20130114/92255/572/8090/10/
015020/20130114/92416/575/510/20/
015020/20130114/92507/573/200/10/
015020/20130114/92507/572/7720/10/
015020/20130114/92507/571/840/10/
015020/20130114/92533/571/2160/10/
015020/20130114/92535/570/1620/10/
015020/20130114/92535/569/500/10/
015020/20130114/92535/566/380/10/
015020/20130114/92653/568/450/10/
015020/20130114/92719/575/1010/20/
015020/20130114/92816/578/1000/20/
015020/20130114/93338/572/620/20/
015020/20130114/93338/573/400/20/
015020/20130114/93407/570/590/10/
015020/20130114/93407/568/620/10/
015020/20130114/93532/568/100/10/
015020/20130114/93911/572/90/20/
015020/20130114/93941/572/300/20/
015020/20130114/94002/572/1200/10/
015020/20130114/94153/572/280/20/
015020/20130114/94159/570/110/10/
015020/20130114/94310/570/770/10/
015020/20130114/94312/570/2050/10/
015020/20130114/94317/569/1710/10/
015020/20130114/94343/569/1000/10/
015020/20130114/94348/569/1940/10/
015020/20130114/94359/569/2590/10/
015020/20130114/94431/569/1000/10/
015020/20130114/94921/570/230/20/
015020/20130114/95035/570/860/10/
015020/20130114/95127/570/100/10/
015020/20130114/95201/570/4310/10/
015020/20130114/95241/569/1210/10/
015020/20130114/95241/568/790/10/
015020/20130114/95334/569/8000/10/
015020/20130114/95334/568/7000/10/
015020/20130114/95445/570/260/20/
015020/20130114/95742/571/1010/20/
015020/20130114/95756/570/3750/10/
015020/20130114/95756/569/2250/10/
015020/20130114/95819/571/640/20/
015020/20130114/95836/571/200/10/
015020/20130114/100053/571/1160/10/
015020/20130114/100053/570/500/10/
015020/20130114/100100/570/1000/20/
015020/20130114/100118/570/450/20/
015020/20130114/100150/571/1000/10/
015020/20130114/100150/570/4290/10/
015020/20130114/100536/571/6970/10/
015020/20130114/100556/571/500/10/
015020/20130114/101001/571/3040/10/
015020/20130114/101146/573/410/20/
015020/20130114/101153/571/3400/10/
015020/20130114/101415/572/250/10/
015020/20130114/101700/574/1020/20/
015020/20130114/101807/575/1790/20/
015020/20130114/101917/575/1010/10/
015020/20130114/101921/575/320/10/
015020/20130114/101946/575/1930/10/
015020/20130114/102039/573/1010/20/
015020/20130114/102047/573/1030/20/
015020/20130114/102117/573/600/20/
015020/20130114/102121/573/4360/20/
015020/20130114/102134/573/1030/10/
015020/20130114/102145/573/970/20/
015020/20130114/102213/573/3500/10/
015020/20130114/102331/572/1000/10/
015020/20130114/102415/572/5540/10/
015020/20130114/102433/572/1470/10/
015020/20130114/102505/571/2000/10/
015020/20130114/102535/572/1290/20/
015020/20130114/102914/573/1000/10/
015020/20130114/103114/572/5050/10/
015020/20130114/103408/573/1430/10/
015020/20130114/103451/575/360/20/
015020/20130114/103506/573/400/10/
015020/20130114/103527/577/2550/20/
015020/20130114/103613/577/2970/20/
015020/20130114/103623/577/6310/10/
015020/20130114/103623/577/2780/10/
015020/20130114/103700/577/690/20/
015020/20130114/103718/577/1310/10/
015020/20130114/103900/577/1000/20/
015020/20130114/104319/574/160/10/
015020/20130114/104319/573/7530/10/
015020/20130114/104319/572/3590/10/
015020/20130114/104438/572/570/10/
015020/20130114/104718/572/310/10/
015020/20130114/104954/576/100/20/
015020/20130114/105109/575/1980/20/
015020/20130114/105116/575/100/20/
015020/20130114/105559/573/200/10/
015020/20130114/105648/573/200/10/
015020/20130114/105856/573/200/10/
015020/20130114/105936/573/1260/10/
015020/20130114/105936/572/630/10/
015020/20130114/110203/572/700/10/
015020/20130114/110236/575/90/20/
015020/20130114/110505/573/2700/20/
015020/20130114/110537/572/1490/10/
015020/20130114/110616/573/250/20/
015020/20130114/110632/572/830/10/
015020/20130114/110723/572/1540/10/
015020/20130114/110732/572/3000/10/
015020/20130114/111242/572/660/10/
015020/20130114/111249/571/1440/10/
015020/20130114/111258/571/8210/10/
015020/20130114/111258/570/6660/10/
015020/20130114/111316/570/290/10/
015020/20130114/111500/570/670/10/
015020/20130114/111502/570/1430/10/
015020/20130114/111756/572/1000/20/
015020/20130114/111851/572/6000/20/
015020/20130114/111851/573/10000/20/
015020/20130114/111851/574/1000/20/
015020/20130114/111851/575/4340/20/
015020/20130114/112318/572/1070/10/
015020/20130114/112419/571/2960/10/
015020/20130114/112455/571/1880/10/
015020/20130114/112731/570/20490/10/
015020/20130114/112731/569/990/10/
015020/20130114/112838/570/600/20/
015020/20130114/112906/570/5510/20/
015020/20130114/113137/570/500/10/
015020/20130114/113200/570/3140/10/
015020/20130114/113222/569/10000/10/
015020/20130114/113223/570/1800/20/
015020/20130114/113233/571/100/20/
015020/20130114/113450/569/5520/10/
015020/20130114/113450/568/11440/10/
015020/20130114/113451/568/3040/20/
015020/20130114/113538/568/500/10/
015020/20130114/113947/568/410/10/
015020/20130114/114339/568/1100/10/
015020/20130114/114339/567/5710/10/
015020/20130114/114421/567/9140/10/
015020/20130114/114423/567/400/10/
015020/20130114/114758/567/3240/10/
015020/20130114/114758/566/8760/10/
015020/20130114/114811/566/2880/10/
015020/20130114/114905/569/100/20/
015020/20130114/115125/569/360/20/
015020/20130114/115334/569/270/20/
015020/20130114/115532/570/1580/10/
015020/20130114/115628/569/3020/10/
015020/20130114/115727/569/940/10/
015020/20130114/115820/569/90/10/
015020/20130114/115852/570/2500/20/
015020/20130114/120116/571/3620/20/
015020/20130114/120116/572/990/20/
015020/20130114/120254/572/300/10/
015020/20130114/120415/571/1500/10/
015020/20130114/120620/573/3990/20/
015020/20130114/120651/574/540/20/
015020/20130114/121102/573/1290/20/
015020/20130114/121102/573/2530/10/
015020/20130114/121344/570/3160/10/
015020/20130114/121928/573/940/20/
015020/20130114/122508/570/2330/10/
015020/20130114/122715/569/910/10/
015020/20130114/122715/567/9400/10/
015020/20130114/122800/572/250/20/
015020/20130114/122954/568/500/10/
015020/20130114/123120/568/1020/10/
015020/20130114/123120/567/3980/10/
015020/20130114/123221/567/230/10/
015020/20130114/123545/572/1020/20/
015020/20130114/123545/573/2010/20/
015020/20130114/123642/572/3000/20/
015020/20130114/124151/568/1050/10/
015020/20130114/124151/567/5820/10/
015020/20130114/124151/566/2310/10/
015020/20130114/124341/567/6010/10/
015020/20130114/124358/567/230/20/
015020/20130114/124428/567/5520/20/
015020/20130114/125156/568/1760/10/
015020/20130114/125156/567/11070/10/
015020/20130114/125156/566/7900/10/
015020/20130114/125231/566/100/20/
015020/20130114/125247/566/500/20/
015020/20130114/125302/566/170/20/
015020/20130114/125701/568/100/10/
015020/20130114/125904/567/2030/10/
015020/20130114/130112/567/510/10/
015020/20130114/130141/566/490/10/
015020/20130114/130150/566/1000/10/
015020/20130114/130307/566/4000/10/
015020/20130114/130530/567/110/20/
015020/20130114/130542/566/500/10/
015020/20130114/130550/567/200/20/
015020/20130114/130644/567/920/20/
015020/20130114/130937/567/90/10/
015020/20130114/130950/567/190/20/
015020/20130114/131149/567/13000/10/
015020/20130114/131205/567/3250/10/
015020/20130114/131354/567/140/10/
015020/20130114/131408/567/2760/10/
015020/20130114/131519/566/7250/10/
015020/20130114/131519/565/7940/10/
015020/20130114/131608/565/4930/10/
015020/20130114/131608/564/2460/10/
015020/20130114/131609/564/100/10/
015020/20130114/131613/564/500/10/
015020/20130114/131716/565/860/10/
015020/20130114/131953/565/6430/10/
015020/20130114/132358/567/130/20/
015020/20130114/132401/566/1110/10/
015020/20130114/132429/567/90/20/
015020/20130114/132607/567/160/10/
015020/20130114/132622/566/870/10/
015020/20130114/132634/568/120/20/
015020/20130114/133104/567/330/10/
015020/20130114/133548/568/590/10/
015020/20130114/133646/568/150/10/
015020/20130114/133719/569/1400/20/
015020/20130114/133746/569/3190/20/
015020/20130114/133750/569/180/10/
015020/20130114/133824/569/110/10/
015020/20130114/133828/569/340/10/
015020/20130114/133848/569/700/10/
015020/20130114/133936/569/480/10/
015020/20130114/134503/568/1040/10/
015020/20130114/134511/568/260/10/
015020/20130114/134511/567/5360/10/
015020/20130114/134511/566/3390/10/
015020/20130114/134804/566/4010/10/
015020/20130114/134804/565/19610/10/
015020/20130114/135000/568/1020/20/
015020/20130114/135005/569/150/20/
015020/20130114/135211/566/820/10/
015020/20130114/135416/566/240/10/
015020/20130114/135919/566/580/10/
015020/20130114/140053/565/820/10/
015020/20130114/140133/566/3000/10/
015020/20130114/140148/566/240/10/
015020/20130114/140333/566/490/10/
015020/20130114/140430/566/100/10/
015020/20130114/140614/566/1000/10/
015020/20130114/140621/566/1000/10/
015020/20130114/140626/566/900/10/
015020/20130114/140630/566/1100/10/
015020/20130114/140734/566/1770/10/
015020/20130114/140829/566/370/10/
015020/20130114/140829/566/150/10/
015020/20130114/140829/565/10650/10/
015020/20130114/141131/565/1960/10/
015020/20130114/141131/564/7710/10/
015020/20130114/141143/563/230/10/
015020/20130114/141213/563/1030/10/
015020/20130114/141317/564/330/20/
015020/20130114/141511/563/3420/10/
015020/20130114/141755/564/100/10/
015020/20130114/141755/563/180/10/
015020/20130114/141900/564/500/10/
015020/20130114/142014/566/100/10/
015020/20130114/142014/566/480/10/
015020/20130114/142034/566/350/10/
015020/20130114/142036/566/1070/10/
015020/20130114/142055/567/980/20/
015020/20130114/142055/568/6500/20/
015020/20130114/142111/568/8920/10/
015020/20130114/142230/568/480/20/
015020/20130114/142353/568/1800/20/
015020/20130114/142415/569/490/20/
015020/20130114/142435/569/1000/20/
015020/20130114/142750/569/520/20/
015020/20130114/142938/568/3110/10/
015020/20130114/143058/566/1840/10/
015020/20130114/143058/565/1930/10/
015020/20130114/143456/567/430/20/
015020/20130114/143456/568/1580/20/
015020/20130114/143618/566/210/10/
015020/20130114/143631/565/200/10/
015020/20130114/143810/566/590/10/
015020/20130114/143810/566/4420/10/
015020/20130114/143910/565/430/10/
015020/20130114/143934/565/1000/10/
015020/20130114/143944/565/2000/10/
015020/20130114/143948/566/170/20/
015020/20130114/143948/568/1000/20/
015020/20130114/143948/570/830/20/
015020/20130114/144405/569/540/20/
015020/20130114/144502/566/2000/10/
015020/20130114/144642/566/1990/10/
015020/20130114/144659/566/5640/20/
015020/20130114/144851/569/170/20/
015020/20130114/144926/569/90/20/
015020/20130114/144928/568/700/10/
015020/20130114/144945/569/90/20/
015020/20130114/144959/568/1060/10/
015020/20130114/144959/568/240/10/
015020/20130114/150000/566/8010/10/
