015020/20130115/90010/563/310/10/
015020/20130115/90010/562/500/10/
015020/20130115/90010/561/3140/10/
015020/20130115/90103/562/270/10/
015020/20130115/90103/561/4030/10/
015020/20130115/90103/560/7880/10/
015020/20130115/90151/560/4780/10/
015020/20130115/90159/560/220/20/
015020/20130115/90206/560/2780/10/
015020/20130115/90210/560/210/20/
015020/20130115/90240/560/300/10/
015020/20130115/90240/559/510/10/
015020/20130115/90240/558/1010/10/
015020/20130115/90240/557/2380/10/
015020/20130115/90241/557/540/20/
015020/20130115/90739/568/370/20/
015020/20130115/90922/560/2870/10/
015020/20130115/90923/560/2260/20/
015020/20130115/91038/559/1510/10/
015020/20130115/91044/559/1120/10/
015020/20130115/91047/558/1410/10/
015020/20130115/91050/557/3000/10/
015020/20130115/91102/557/320/10/
015020/20130115/91105/557/560/10/
015020/20130115/91108/557/210/10/
015020/20130115/91122/556/2950/10/
015020/20130115/91149/556/1100/10/
015020/20130115/91151/556/1190/10/
015020/20130115/91200/556/2800/10/
015020/20130115/91300/557/2100/10/
015020/20130115/91300/556/900/10/
015020/20130115/91302/556/180/10/
015020/20130115/91314/556/2500/10/
015020/20130115/91315/556/110/10/
015020/20130115/91403/555/670/10/
015020/20130115/91427/555/1510/10/
015020/20130115/91440/545/1000/10/
015020/20130115/91440/544/870/10/
015020/20130115/91730/548/250/10/
015020/20130115/91807/550/1100/10/
015020/20130115/91807/548/1400/10/
015020/20130115/92019/555/910/20/
015020/20130115/92212/552/1160/10/
015020/20130115/92212/551/600/10/
015020/20130115/92224/550/1820/10/
015020/20130115/92229/551/250/20/
015020/20130115/92229/554/750/20/
015020/20130115/92304/550/1250/10/
015020/20130115/92320/550/7240/10/
015020/20130115/92339/550/2760/20/
015020/20130115/92434/550/5530/10/
015020/20130115/92434/549/4420/10/
015020/20130115/92434/548/8040/10/
015020/20130115/92434/547/7520/10/
015020/20130115/92434/546/2860/10/
015020/20130115/92434/545/10140/10/
015020/20130115/92435/545/6820/20/
015020/20130115/92446/545/100/20/
015020/20130115/92447/545/2000/20/
015020/20130115/92500/545/3000/20/
015020/20130115/92502/544/4000/10/
015020/20130115/92502/545/1000/20/
015020/20130115/92503/545/1000/20/
015020/20130115/92514/545/1000/20/
015020/20130115/92515/544/1890/10/
015020/20130115/92515/543/730/10/
015020/20130115/92519/543/1380/10/
015020/20130115/92529/543/100/20/
015020/20130115/92543/543/500/20/
015020/20130115/92544/543/500/20/
015020/20130115/92557/543/1000/20/
015020/20130115/92559/543/2520/20/
015020/20130115/92559/543/480/10/
015020/20130115/92559/542/860/10/
015020/20130115/92559/541/1160/10/
015020/20130115/92613/543/5120/10/
015020/20130115/92613/541/1400/10/
015020/20130115/92619/541/9720/10/
015020/20130115/92619/540/3280/10/
015020/20130115/92621/540/380/10/
015020/20130115/92626/540/3000/10/
015020/20130115/92627/540/1200/10/
015020/20130115/92635/540/2260/10/
015020/20130115/92638/540/700/10/
015020/20130115/92642/540/530/10/
015020/20130115/92643/540/250/20/
015020/20130115/92653/540/120/10/
015020/20130115/92654/540/1000/10/
015020/20130115/92709/541/3000/20/
015020/20130115/92714/541/1630/20/
015020/20130115/92717/541/370/10/
015020/20130115/92717/540/630/10/
015020/20130115/92804/541/13010/10/
015020/20130115/92820/541/2020/10/
015020/20130115/92821/541/4360/10/
015020/20130115/92823/541/520/20/
015020/20130115/92844/544/330/20/
015020/20130115/92847/541/2100/10/
015020/20130115/92943/544/170/20/
015020/20130115/92950/544/120/10/
015020/20130115/92957/542/130/10/
015020/20130115/93032/544/400/20/
015020/20130115/93056/545/3000/20/
015020/20130115/93113/545/1900/20/
015020/20130115/93114/545/2000/20/
015020/20130115/93116/544/640/10/
015020/20130115/93116/542/4760/10/
015020/20130115/93147/542/840/10/
015020/20130115/93155/545/1000/20/
015020/20130115/93304/545/1290/20/
015020/20130115/93313/545/1140/20/
015020/20130115/93316/545/800/20/
015020/20130115/93327/545/280/20/
015020/20130115/93340/545/5160/20/
015020/20130115/93405/545/4020/10/
015020/20130115/93514/545/3210/10/
015020/20130115/93514/544/310/10/
015020/20130115/93629/545/310/10/
015020/20130115/94038/550/1010/20/
015020/20130115/94228/547/1700/10/
015020/20130115/94533/548/700/10/
015020/20130115/94533/547/4850/10/
015020/20130115/94533/546/4430/10/
015020/20130115/94533/545/90/10/
015020/20130115/94748/546/2010/10/
015020/20130115/94817/546/200/20/
015020/20130115/94829/546/2000/20/
015020/20130115/94836/545/1000/10/
015020/20130115/94838/546/710/20/
015020/20130115/94906/546/2000/10/
015020/20130115/95004/546/35290/10/
015020/20130115/95004/545/10840/10/
015020/20130115/95224/545/550/20/
015020/20130115/95322/545/210/20/
015020/20130115/95403/545/840/10/
015020/20130115/95504/545/3090/10/
015020/20130115/95606/545/1000/10/
015020/20130115/95612/545/3770/10/
015020/20130115/95712/545/230/10/
015020/20130115/95726/545/1000/20/
015020/20130115/95805/545/670/20/
015020/20130115/95819/545/1000/20/
015020/20130115/95951/545/860/20/
015020/20130115/100003/545/1000/20/
015020/20130115/100011/545/360/20/
015020/20130115/100058/545/400/10/
015020/20130115/100123/545/710/10/
015020/20130115/100123/544/3790/10/
015020/20130115/100257/545/100/10/
015020/20130115/100257/544/1870/10/
015020/20130115/100257/543/4210/10/
015020/20130115/100257/542/3820/10/
015020/20130115/100349/542/1000/10/
015020/20130115/100416/542/1040/10/
015020/20130115/100555/543/1690/10/
015020/20130115/100555/542/8510/10/
015020/20130115/100555/541/5100/10/
015020/20130115/100626/541/9520/10/
015020/20130115/100626/540/64530/10/
015020/20130115/100635/540/1180/10/
015020/20130115/100653/540/4840/10/
015020/20130115/100653/539/2160/10/
015020/20130115/100712/540/1000/20/
015020/20130115/100724/540/1000/20/
015020/20130115/100726/540/170/20/
015020/20130115/100752/540/1360/10/
015020/20130115/100841/541/9970/10/
015020/20130115/100841/540/4350/10/
015020/20130115/100841/540/5680/20/
015020/20130115/100921/546/1000/20/
015020/20130115/101040/540/610/10/
015020/20130115/101144/541/300/10/
015020/20130115/101144/540/2860/10/
015020/20130115/101227/540/110/20/
015020/20130115/101300/540/2940/20/
015020/20130115/101301/540/130/20/
015020/20130115/101313/540/200/20/
015020/20130115/101314/540/130/20/
015020/20130115/101318/540/1700/20/
015020/20130115/101339/540/1630/20/
015020/20130115/101518/540/540/10/
015020/20130115/101538/541/2410/10/
015020/20130115/101538/540/6250/10/
015020/20130115/101539/540/500/20/
015020/20130115/101543/539/250/10/
015020/20130115/101559/540/500/20/
015020/20130115/101626/540/1040/20/
015020/20130115/101633/540/300/20/
015020/20130115/101637/540/500/20/
015020/20130115/101643/540/240/20/
015020/20130115/101647/540/3560/20/
015020/20130115/101707/539/1940/10/
015020/20130115/101734/539/140/10/
015020/20130115/101734/539/1000/10/
015020/20130115/101755/539/5000/10/
015020/20130115/101819/539/1970/10/
015020/20130115/101851/540/130/20/
015020/20130115/101924/540/660/20/
015020/20130115/101951/540/2000/20/
015020/20130115/101954/540/1700/20/
015020/20130115/102008/540/500/20/
015020/20130115/102010/540/500/20/
015020/20130115/102038/540/240/20/
015020/20130115/102049/540/280/10/
015020/20130115/102056/540/500/20/
015020/20130115/102208/540/150/20/
015020/20130115/102238/539/3920/10/
015020/20130115/102241/539/390/10/
015020/20130115/102338/539/320/20/
015020/20130115/102351/539/100/20/
015020/20130115/102408/539/190/20/
015020/20130115/102426/539/1140/20/
015020/20130115/102430/540/4200/20/
015020/20130115/103026/542/360/10/
015020/20130115/103359/542/110/20/
015020/20130115/103522/542/90/20/
015020/20130115/103643/542/1290/10/
015020/20130115/103731/542/9810/10/
015020/20130115/103838/542/190/20/
015020/20130115/103857/542/2000/20/
015020/20130115/103859/542/2860/10/
015020/20130115/103909/542/200/10/
015020/20130115/103954/542/1450/10/
015020/20130115/103954/541/2110/10/
015020/20130115/104015/541/1440/20/
015020/20130115/104033/541/3180/10/
015020/20130115/104202/541/4000/10/
015020/20130115/104259/541/890/10/
015020/20130115/104304/541/390/10/
015020/20130115/104802/543/510/20/
015020/20130115/104813/543/290/20/
015020/20130115/105049/542/1850/10/
015020/20130115/105145/543/4000/10/
015020/20130115/105159/543/1000/10/
015020/20130115/105235/543/2040/20/
015020/20130115/105316/542/1000/10/
015020/20130115/105425/542/3560/10/
015020/20130115/105440/542/1010/10/
015020/20130115/105524/542/3000/10/
015020/20130115/105557/543/90/20/
015020/20130115/105610/543/450/20/
015020/20130115/105640/542/270/10/
015020/20130115/105900/543/550/20/
015020/20130115/105900/544/260/20/
015020/20130115/105900/545/200/20/
015020/20130115/105908/545/1000/10/
015020/20130115/105914/545/1000/10/
015020/20130115/105932/546/1250/20/
015020/20130115/105932/547/680/20/
015020/20130115/110020/547/170/10/
015020/20130115/110200/547/100/20/
015020/20130115/110401/543/190/10/
015020/20130115/110401/542/1050/10/
015020/20130115/110401/541/360/10/
015020/20130115/110522/542/2820/10/
015020/20130115/110530/542/180/20/
015020/20130115/110638/542/450/10/
015020/20130115/110653/543/1700/10/
015020/20130115/110707/543/500/10/
015020/20130115/111317/544/1950/10/
015020/20130115/111343/544/880/20/
015020/20130115/111343/546/500/20/
015020/20130115/111403/546/3200/10/
015020/20130115/111408/546/420/10/
015020/20130115/111508/544/1000/10/
015020/20130115/111719/544/1000/10/
015020/20130115/112042/544/3000/10/
015020/20130115/112141/544/660/10/
015020/20130115/112146/544/1100/20/
015020/20130115/112147/544/240/20/
015020/20130115/112342/546/100/20/
015020/20130115/112429/546/1180/20/
015020/20130115/112712/547/510/20/
015020/20130115/112820/547/200/20/
015020/20130115/112931/547/140/20/
015020/20130115/112936/547/6000/10/
015020/20130115/112954/547/2620/10/
015020/20130115/113130/546/1820/10/
015020/20130115/113337/545/2000/10/
015020/20130115/113344/546/180/20/
015020/20130115/113422/545/4720/10/
015020/20130115/113422/544/4360/10/
015020/20130115/113422/543/3180/10/
015020/20130115/113508/543/3570/10/
015020/20130115/113616/543/4730/10/
015020/20130115/113616/542/16500/10/
015020/20130115/113616/541/18950/10/
015020/20130115/113633/540/9840/10/
015020/20130115/113716/540/600/10/
015020/20130115/113738/541/5500/10/
015020/20130115/113742/541/3900/20/
015020/20130115/113744/541/580/20/
015020/20130115/113855/544/1860/20/
015020/20130115/113907/545/400/10/
015020/20130115/113955/545/3960/20/
015020/20130115/113956/545/640/20/
015020/20130115/113959/545/2440/10/
015020/20130115/114056/545/880/10/
015020/20130115/114238/545/3100/20/
015020/20130115/114337/545/250/10/
015020/20130115/114521/544/2000/10/
015020/20130115/114959/544/3500/10/
015020/20130115/114959/543/8280/10/
015020/20130115/114959/542/8240/10/
015020/20130115/115013/542/440/10/
015020/20130115/115216/545/120/20/
015020/20130115/115216/546/880/20/
015020/20130115/115507/545/200/20/
015020/20130115/115708/543/1010/10/
015020/20130115/115708/542/2380/10/
015020/20130115/115708/541/2880/10/
015020/20130115/115831/542/1040/10/
015020/20130115/120242/542/270/10/
015020/20130115/120549/543/160/20/
015020/20130115/120758/543/1890/20/
015020/20130115/120821/544/1000/20/
015020/20130115/120907/543/11710/10/
015020/20130115/120950/542/1000/10/
015020/20130115/121052/542/500/20/
015020/20130115/121120/542/500/10/
015020/20130115/121120/541/1120/10/
015020/20130115/121549/543/290/20/
015020/20130115/122027/543/310/10/
015020/20130115/122128/543/190/20/
015020/20130115/122329/543/1000/10/
015020/20130115/122337/543/1500/20/
015020/20130115/122401/543/600/10/
015020/20130115/122412/543/1400/20/
015020/20130115/122424/544/100/20/
015020/20130115/122437/544/150/20/
015020/20130115/122442/544/500/20/
015020/20130115/122527/544/1010/20/
015020/20130115/122609/544/1000/20/
015020/20130115/122629/544/1240/20/
015020/20130115/122629/545/760/20/
015020/20130115/122924/543/3000/10/
015020/20130115/122956/543/600/10/
015020/20130115/123021/542/1530/10/
015020/20130115/123231/543/90/20/
015020/20130115/123234/542/200/10/
015020/20130115/123236/543/100/20/
015020/20130115/123306/543/5020/20/
015020/20130115/123356/545/540/20/
015020/20130115/123403/545/100/20/
015020/20130115/123731/545/1000/20/
015020/20130115/123957/543/950/10/
015020/20130115/124010/542/3550/10/
015020/20130115/124121/543/3060/20/
015020/20130115/124121/543/2990/20/
015020/20130115/124523/543/1150/10/
015020/20130115/124524/545/500/20/
015020/20130115/124752/545/1000/20/
015020/20130115/124953/545/4970/20/
015020/20130115/125007/545/400/20/
015020/20130115/125138/545/12220/20/
015020/20130115/125157/545/3680/10/
015020/20130115/125205/545/2000/10/
015020/20130115/125652/546/620/20/
015020/20130115/125733/547/1000/20/
015020/20130115/125755/548/160/20/
015020/20130115/125826/548/2840/20/
015020/20130115/125915/549/220/20/
015020/20130115/125930/550/250/20/
015020/20130115/130049/549/970/20/
015020/20130115/130151/548/170/10/
015020/20130115/130227/547/510/10/
015020/20130115/130227/546/7450/10/
015020/20130115/130229/546/9860/10/
015020/20130115/130237/546/390/10/
015020/20130115/130348/546/340/20/
015020/20130115/130401/546/660/10/
015020/20130115/130401/546/2340/20/
015020/20130115/130436/548/5730/20/
015020/20130115/130454/549/180/20/
015020/20130115/130455/549/130/20/
015020/20130115/130455/551/120/20/
015020/20130115/130455/551/130/20/
015020/20130115/130456/551/120/20/
015020/20130115/130456/551/120/20/
015020/20130115/130457/551/130/20/
015020/20130115/130457/552/120/20/
015020/20130115/130457/552/130/20/
015020/20130115/130458/552/120/20/
015020/20130115/130458/552/120/20/
015020/20130115/130459/552/130/20/
015020/20130115/130459/552/130/20/
015020/20130115/130459/552/120/20/
015020/20130115/130500/552/120/20/
015020/20130115/130500/552/120/20/
015020/20130115/130501/552/110/20/
015020/20130115/130501/552/130/20/
015020/20130115/130502/552/120/20/
015020/20130115/130502/552/120/20/
015020/20130115/130503/552/120/20/
015020/20130115/130503/552/130/20/
015020/20130115/130504/552/140/20/
015020/20130115/130504/552/130/20/
015020/20130115/130504/552/110/20/
015020/20130115/130504/552/130/20/
015020/20130115/130506/552/90/20/
015020/20130115/130507/552/90/20/
015020/20130115/130508/552/100/20/
015020/20130115/130509/548/90/10/
015020/20130115/130510/552/100/20/
015020/20130115/130510/548/90/10/
015020/20130115/130511/552/90/20/
015020/20130115/130512/548/90/10/
015020/20130115/130513/552/90/20/
015020/20130115/130513/552/2670/20/
015020/20130115/130513/553/250/20/
015020/20130115/130514/553/100/20/
015020/20130115/130515/553/90/20/
015020/20130115/130516/553/90/20/
015020/20130115/130516/553/100/20/
015020/20130115/130517/553/90/20/
015020/20130115/130518/553/1360/20/
015020/20130115/130519/554/90/20/
015020/20130115/130520/554/90/20/
015020/20130115/130521/554/90/20/
015020/20130115/130522/554/90/20/
015020/20130115/130522/554/100/20/
015020/20130115/130523/553/90/10/
015020/20130115/130523/554/90/20/
015020/20130115/130524/554/90/20/
015020/20130115/130525/553/90/10/
015020/20130115/130525/554/90/20/
015020/20130115/130526/554/90/20/
015020/20130115/130526/553/490/10/
015020/20130115/130527/553/90/20/
015020/20130115/130528/553/90/20/
015020/20130115/130528/553/180/20/
015020/20130115/130529/552/90/10/
015020/20130115/130530/553/90/20/
015020/20130115/130530/553/90/20/
015020/20130115/130531/554/90/20/
015020/20130115/130532/554/90/20/
015020/20130115/130533/553/90/10/
015020/20130115/130534/554/430/20/
015020/20130115/130535/554/90/20/
015020/20130115/130535/554/110/20/
015020/20130115/130535/554/140/20/
015020/20130115/130536/554/1030/20/
015020/20130115/130536/554/120/20/
015020/20130115/130536/554/150/20/
015020/20130115/130537/554/140/20/
015020/20130115/130537/554/110/20/
015020/20130115/130537/554/150/20/
015020/20130115/130537/554/140/20/
015020/20130115/130538/554/140/20/
015020/20130115/130538/554/150/20/
015020/20130115/130539/554/140/20/
015020/20130115/130539/554/160/20/
015020/20130115/130539/554/140/20/
015020/20130115/130540/554/550/20/
015020/20130115/130540/554/110/20/
015020/20130115/130540/554/140/20/
015020/20130115/130541/554/160/20/
015020/20130115/130541/554/140/20/
015020/20130115/130542/554/160/20/
015020/20130115/130542/554/160/20/
015020/20130115/130543/554/170/20/
015020/20130115/130543/554/130/20/
015020/20130115/130544/554/730/20/
015020/20130115/130544/554/120/20/
015020/20130115/130544/554/140/20/
015020/20130115/130544/554/4580/20/
015020/20130115/130545/557/140/20/
015020/20130115/130545/557/140/20/
015020/20130115/130546/557/150/20/
015020/20130115/130547/557/90/20/
015020/20130115/130547/557/170/20/
015020/20130115/130548/557/140/20/
015020/20130115/130548/557/150/20/
015020/20130115/130548/557/130/20/
015020/20130115/130549/557/160/20/
015020/20130115/130549/557/140/20/
015020/20130115/130550/557/510/20/
015020/20130115/130550/557/130/20/
015020/20130115/130550/557/140/20/
015020/20130115/130551/557/140/20/
015020/20130115/130551/557/150/20/
015020/20130115/130552/557/140/20/
015020/20130115/130552/557/160/20/
015020/20130115/130553/557/140/20/
015020/20130115/130553/557/810/20/
015020/20130115/130553/557/120/20/
015020/20130115/130553/557/150/20/
015020/20130115/130554/557/140/20/
015020/20130115/130554/557/470/20/
015020/20130115/130554/557/120/20/
015020/20130115/130554/557/3150/20/
015020/20130115/130554/558/500/20/
015020/20130115/130554/560/760/20/
015020/20130115/130555/560/130/20/
015020/20130115/130555/560/150/20/
015020/20130115/130556/554/90/10/
015020/20130115/130557/560/170/20/
015020/20130115/130557/560/140/20/
015020/20130115/130558/560/90/20/
015020/20130115/130559/554/90/10/
015020/20130115/130600/554/90/10/
015020/20130115/130601/560/90/20/
015020/20130115/130602/560/90/20/
015020/20130115/130602/560/90/20/
015020/20130115/130603/560/100/20/
015020/20130115/130604/555/90/10/
015020/20130115/130605/560/90/20/
015020/20130115/130606/555/90/10/
015020/20130115/130606/555/220/10/
015020/20130115/130606/554/830/10/
015020/20130115/130607/559/90/20/
015020/20130115/130609/559/90/20/
015020/20130115/130610/559/100/20/
015020/20130115/130610/559/100/20/
015020/20130115/130611/559/90/20/
015020/20130115/130612/558/90/20/
015020/20130115/130612/559/510/20/
015020/20130115/130613/559/100/20/
015020/20130115/130614/559/100/20/
015020/20130115/130615/558/90/20/
015020/20130115/130615/558/100/20/
015020/20130115/130616/558/90/20/
015020/20130115/130617/558/90/20/
015020/20130115/130618/558/2620/20/
015020/20130115/130618/559/460/20/
015020/20130115/130619/559/90/20/
015020/20130115/130619/555/90/10/
015020/20130115/130620/555/90/10/
015020/20130115/130621/559/90/20/
015020/20130115/130622/558/260/20/
015020/20130115/130623/558/90/20/
015020/20130115/130624/558/90/20/
015020/20130115/130624/558/110/20/
015020/20130115/130624/559/1790/20/
015020/20130115/130625/559/100/20/
015020/20130115/130626/559/100/20/
015020/20130115/130627/559/90/20/
015020/20130115/130627/555/90/10/
015020/20130115/130628/558/90/20/
015020/20130115/130629/558/90/20/
015020/20130115/130630/558/100/20/
015020/20130115/130631/558/90/20/
015020/20130115/130631/558/90/20/
015020/20130115/130632/558/100/20/
015020/20130115/130633/555/90/10/
015020/20130115/130634/555/90/10/
015020/20130115/130635/558/4900/20/
015020/20130115/130635/559/90/20/
015020/20130115/130636/559/100/20/
015020/20130115/130637/559/90/20/
015020/20130115/130638/558/90/10/
015020/20130115/130639/559/90/20/
015020/20130115/130640/559/90/20/
015020/20130115/130641/559/100/20/
015020/20130115/130642/559/90/20/
015020/20130115/130643/559/100/20/
015020/20130115/130643/559/510/20/
015020/20130115/130644/560/90/20/
015020/20130115/130644/559/180/10/
015020/20130115/130644/558/810/10/
015020/20130115/130645/560/90/20/
015020/20130115/130646/558/90/10/
015020/20130115/130647/559/90/20/
015020/20130115/130647/558/7740/10/
015020/20130115/130647/559/90/20/
015020/20130115/130648/559/90/20/
015020/20130115/130649/559/90/20/
015020/20130115/130650/559/710/20/
015020/20130115/130651/559/90/10/
015020/20130115/130651/560/90/20/
015020/20130115/130652/560/90/20/
015020/20130115/130653/560/90/20/
015020/20130115/130654/560/160/20/
015020/20130115/130654/559/1010/10/
015020/20130115/130655/559/90/10/
015020/20130115/130655/560/90/20/
015020/20130115/130656/560/100/20/
015020/20130115/130657/560/100/20/
015020/20130115/130658/560/90/20/
015020/20130115/130659/560/90/20/
015020/20130115/130700/560/90/20/
015020/20130115/130700/560/90/20/
015020/20130115/130701/560/90/20/
015020/20130115/130702/560/10710/20/
015020/20130115/130702/560/200/20/
015020/20130115/130703/559/90/10/
015020/20130115/130703/559/550/10/
015020/20130115/130704/560/90/20/
015020/20130115/130705/560/100/20/
015020/20130115/130705/560/1540/20/
015020/20130115/130706/560/100/20/
015020/20130115/130706/560/1390/20/
015020/20130115/130706/559/1980/10/
015020/20130115/130707/560/1030/20/
015020/20130115/130707/560/3460/20/
015020/20130115/130708/559/90/10/
015020/20130115/130709/560/130/20/
015020/20130115/130709/560/90/20/
015020/20130115/130710/560/2030/20/
015020/20130115/130710/560/3130/20/
015020/20130115/130711/561/90/20/
015020/20130115/130712/560/90/10/
015020/20130115/130712/561/500/20/
015020/20130115/130713/561/90/20/
015020/20130115/130714/561/100/20/
015020/20130115/130715/561/90/20/
015020/20130115/130715/561/90/20/
015020/20130115/130716/561/90/20/
015020/20130115/130717/561/90/20/
015020/20130115/130718/560/100/10/
015020/20130115/130719/561/90/20/
015020/20130115/130721/560/30050/10/
015020/20130115/130721/561/3290/20/
015020/20130115/130722/561/1630/20/
015020/20130115/130723/560/1310/10/
015020/20130115/130723/559/2250/10/
015020/20130115/130723/555/850/10/
015020/20130115/130725/561/90/20/
015020/20130115/130726/561/90/20/
015020/20130115/130727/561/90/20/
015020/20130115/130728/561/100/20/
015020/20130115/130729/561/100/20/
015020/20130115/130730/561/90/20/
015020/20130115/130731/556/90/10/
015020/20130115/130733/556/90/10/
015020/20130115/130733/560/190/20/
015020/20130115/130733/561/3230/20/
015020/20130115/130734/561/90/20/
015020/20130115/130735/557/90/10/
015020/20130115/130737/561/90/20/
015020/20130115/130738/561/90/20/
015020/20130115/130739/561/90/20/
015020/20130115/130740/561/90/20/
015020/20130115/130740/558/90/10/
015020/20130115/130740/561/500/10/
015020/20130115/130741/564/100/20/
015020/20130115/130742/563/100/20/
015020/20130115/130743/563/90/20/
015020/20130115/130744/561/90/10/
015020/20130115/130744/563/90/20/
015020/20130115/130745/563/90/20/
015020/20130115/130746/563/100/20/
015020/20130115/130747/563/90/20/
015020/20130115/130747/563/100/20/
015020/20130115/130748/563/100/20/
015020/20130115/130749/563/90/20/
015020/20130115/130750/563/100/20/
015020/20130115/130751/563/90/20/
015020/20130115/130751/563/90/20/
015020/20130115/130752/563/90/20/
015020/20130115/130753/563/90/20/
015020/20130115/130754/563/100/20/
015020/20130115/130755/562/100/20/
015020/20130115/130755/562/390/20/
015020/20130115/130755/563/120/20/
015020/20130115/130756/561/2980/10/
015020/20130115/130756/561/90/10/
015020/20130115/130757/563/90/20/
015020/20130115/130758/563/90/20/
015020/20130115/130759/563/90/20/
015020/20130115/130759/563/90/20/
015020/20130115/130800/563/90/20/
015020/20130115/130801/563/90/20/
015020/20130115/130802/563/90/20/
015020/20130115/130803/563/90/20/
015020/20130115/130804/563/100/20/
015020/20130115/130805/561/90/10/
015020/20130115/130805/563/90/20/
015020/20130115/130806/561/90/10/
015020/20130115/130807/561/920/10/
015020/20130115/130808/561/90/20/
015020/20130115/130810/561/90/20/
015020/20130115/130811/561/90/20/
015020/20130115/130812/557/90/10/
015020/20130115/130813/560/90/20/
015020/20130115/130814/560/90/20/
015020/20130115/130815/557/320/10/
015020/20130115/130815/556/11890/10/
015020/20130115/130815/554/1790/10/
015020/20130115/130816/554/90/10/
015020/20130115/130817/560/150/20/
015020/20130115/130820/560/90/20/
015020/20130115/130823/555/90/10/
015020/20130115/130825/559/90/20/
015020/20130115/130825/559/90/20/
015020/20130115/130827/559/90/20/
015020/20130115/130827/559/170/20/
015020/20130115/130828/559/90/20/
015020/20130115/130830/555/90/10/
015020/20130115/130832/558/90/20/
015020/20130115/130834/555/90/10/
015020/20130115/130835/555/1900/10/
015020/20130115/130835/554/3030/10/
015020/20130115/130835/553/1600/10/
015020/20130115/130835/552/2000/10/
015020/20130115/130835/552/1900/20/
015020/20130115/130840/549/100/10/
015020/20130115/130847/551/1000/10/
015020/20130115/130847/550/1060/10/
015020/20130115/130945/556/110/10/
015020/20130115/131000/556/90/20/
015020/20130115/131056/553/360/20/
015020/20130115/131056/552/3400/10/
015020/20130115/131058/552/500/10/
015020/20130115/131104/552/500/10/
015020/20130115/131109/552/200/10/
015020/20130115/131111/551/1320/10/
015020/20130115/131111/550/1100/10/
015020/20130115/131111/550/1980/20/
015020/20130115/131145/550/1000/10/
015020/20130115/131156/549/830/10/
015020/20130115/131225/549/580/10/
015020/20130115/131308/549/150/10/
015020/20130115/131336/549/870/10/
015020/20130115/131336/548/5320/10/
015020/20130115/131345/548/4510/20/
015020/20130115/131359/551/100/20/
015020/20130115/131606/549/260/20/
015020/20130115/131612/549/100/20/
015020/20130115/131621/551/90/20/
015020/20130115/131827/553/3100/20/
015020/20130115/131831/553/2380/10/
015020/20130115/132055/549/130/10/
015020/20130115/132111/549/2870/10/
015020/20130115/132120/549/910/20/
015020/20130115/132152/549/4040/10/
015020/20130115/132154/549/800/10/
015020/20130115/132310/549/1000/10/
015020/20130115/132354/549/1600/10/
015020/20130115/132617/548/660/10/
015020/20130115/132628/547/130/10/
015020/20130115/132843/547/1680/10/
015020/20130115/133042/547/360/10/
015020/20130115/133051/546/180/10/
015020/20130115/133115/546/2000/10/
015020/20130115/133207/546/490/10/
015020/20130115/133343/547/240/20/
015020/20130115/133346/546/2410/10/
015020/20130115/133346/545/590/10/
015020/20130115/133357/545/2040/10/
015020/20130115/133411/545/2460/20/
015020/20130115/133631/546/1000/10/
015020/20130115/133645/546/1000/10/
015020/20130115/133855/546/2000/10/
015020/20130115/134156/545/1080/10/
015020/20130115/134208/545/170/10/
015020/20130115/134222/546/2050/20/
015020/20130115/134631/545/4010/10/
015020/20130115/134755/546/2010/10/
015020/20130115/135159/546/530/10/
015020/20130115/135343/546/730/10/
015020/20130115/135402/546/210/10/
015020/20130115/135447/546/2610/10/
015020/20130115/135450/546/5000/20/
015020/20130115/135504/546/100/20/
015020/20130115/135516/546/2290/20/
015020/20130115/135522/546/210/10/
015020/20130115/135553/546/1000/20/
015020/20130115/135603/545/790/10/
015020/20130115/135613/546/270/20/
015020/20130115/135620/546/110/20/
015020/20130115/135703/545/640/10/
015020/20130115/135710/545/270/10/
015020/20130115/135717/545/1440/10/
015020/20130115/135717/544/8250/10/
015020/20130115/135719/544/1100/20/
015020/20130115/135942/544/1960/10/
015020/20130115/140055/544/100/20/
015020/20130115/140125/544/90/20/
015020/20130115/140136/544/2000/20/
015020/20130115/140139/544/200/20/
015020/20130115/140205/544/1000/20/
015020/20130115/140303/544/1570/20/
015020/20130115/140359/546/90/20/
015020/20130115/140405/546/90/20/
015020/20130115/140523/546/140/20/
015020/20130115/140612/544/460/10/
015020/20130115/140709/545/500/10/
015020/20130115/140758/546/330/20/
015020/20130115/140808/545/500/10/
015020/20130115/140906/545/500/10/
015020/20130115/140915/546/790/20/
015020/20130115/141101/545/1260/10/
015020/20130115/141150/545/750/10/
015020/20130115/141258/544/1650/10/
015020/20130115/141354/544/1490/10/
015020/20130115/141639/545/160/20/
015020/20130115/141950/544/3250/10/
015020/20130115/141951/545/3230/20/
015020/20130115/142030/545/3060/10/
015020/20130115/142053/545/1370/10/
015020/20130115/142330/544/200/10/
015020/20130115/142455/545/230/20/
015020/20130115/142644/545/100/20/
015020/20130115/142800/545/1020/20/
015020/20130115/142836/546/1000/20/
015020/20130115/142850/546/100/20/
015020/20130115/142939/546/3030/20/
015020/20130115/143404/544/340/20/
015020/20130115/143438/544/200/20/
015020/20130115/143506/544/1000/20/
015020/20130115/143525/544/500/20/
015020/20130115/143535/544/700/20/
015020/20130115/143548/544/150/20/
015020/20130115/143628/544/330/20/
015020/20130115/143903/544/1080/10/
015020/20130115/143959/544/260/10/
015020/20130115/144106/545/2840/20/
015020/20130115/144242/546/100/20/
015020/20130115/144249/546/1000/20/
015020/20130115/144258/546/1000/20/
015020/20130115/144308/546/1010/20/
015020/20130115/144315/546/1000/20/
015020/20130115/144321/546/1000/20/
015020/20130115/144328/546/1000/20/
015020/20130115/144336/546/100/20/
015020/20130115/144343/546/100/20/
015020/20130115/144348/546/100/20/
015020/20130115/144354/546/100/20/
015020/20130115/144409/546/180/20/
015020/20130115/144435/545/2540/10/
015020/20130115/144440/546/1010/20/
015020/20130115/144451/546/110/20/
015020/20130115/144603/546/2060/20/
015020/20130115/144620/546/340/20/
015020/20130115/144702/546/740/10/
015020/20130115/144827/546/450/10/
015020/20130115/144827/546/10000/10/
015020/20130115/144831/547/90/20/
015020/20130115/144832/547/540/20/
015020/20130115/144840/547/90/20/
015020/20130115/144844/547/90/20/
015020/20130115/144844/547/2000/20/
015020/20130115/144857/546/240/10/
015020/20130115/144902/546/1390/10/
015020/20130115/144907/545/2000/10/
015020/20130115/144927/545/3040/10/
015020/20130115/144930/545/90/20/
015020/20130115/144940/545/2050/20/
015020/20130115/144941/544/7430/10/
015020/20130115/144955/543/9070/10/
015020/20130115/144956/543/1000/20/
015020/20130115/150000/541/46020/10/
