015020/20121119/90000/602/46640/10/
015020/20121119/90002/605/1480/10/
015020/20121119/90004/605/3520/10/
015020/20121119/90004/604/290/10/
015020/20121119/90004/602/1690/10/
015020/20121119/90018/609/1550/20/
015020/20121119/90018/610/8450/20/
015020/20121119/90042/609/3440/20/
015020/20121119/90042/605/1180/10/
015020/20121119/90045/605/200/10/
015020/20121119/90058/606/210/10/
015020/20121119/90104/605/2050/10/
015020/20121119/90109/605/1400/20/
015020/20121119/90112/605/740/10/
015020/20121119/90112/604/5500/10/
015020/20121119/90112/603/50100/10/
015020/20121119/90112/602/1700/10/
015020/20121119/90118/605/560/10/
015020/20121119/90118/602/1900/10/
015020/20121119/90118/601/14740/10/
015020/20121119/90131/601/200/10/
015020/20121119/90145/601/800/10/
015020/20121119/90205/602/890/10/
015020/20121119/90205/601/1100/10/
015020/20121119/90208/601/2000/10/
015020/20121119/90210/601/4130/10/
015020/20121119/90219/601/1000/10/
015020/20121119/90219/601/2110/10/
015020/20121119/90234/601/3420/10/
015020/20121119/90246/601/180/10/
015020/20121119/90256/601/5600/10/
015020/20121119/90307/601/470/20/
015020/20121119/90308/601/550/10/
015020/20121119/90308/600/1670/10/
015020/20121119/90308/599/750/10/
015020/20121119/90325/600/260/10/
015020/20121119/90325/599/3020/10/
015020/20121119/90335/600/1060/10/
015020/20121119/90335/599/2450/10/
015020/20121119/90335/599/2140/20/
015020/20121119/90350/600/3000/10/
015020/20121119/90400/605/8270/20/
015020/20121119/90402/605/200/20/
015020/20121119/90403/605/1580/20/
015020/20121119/90404/605/2420/10/
015020/20121119/90404/600/4860/10/
015020/20121119/90404/599/2800/10/
015020/20121119/90414/600/3000/10/
015020/20121119/90414/599/530/10/
015020/20121119/90423/600/1060/10/
015020/20121119/90423/599/5510/10/
015020/20121119/90423/598/1730/10/
015020/20121119/90423/597/1170/10/
015020/20121119/90423/596/530/10/
015020/20121119/90437/601/300/10/
015020/20121119/90437/596/2920/10/
015020/20121119/90453/597/500/10/
015020/20121119/90453/596/6850/10/
015020/20121119/90453/596/2780/20/
015020/20121119/90454/596/240/10/
015020/20121119/90526/597/1560/10/
015020/20121119/90526/596/5990/10/
015020/20121119/90526/596/1710/20/
015020/20121119/90529/604/490/20/
015020/20121119/90533/596/2000/10/
015020/20121119/90533/596/3000/20/
015020/20121119/90614/603/310/20/
015020/20121119/90631/599/5050/10/
015020/20121119/90633/599/5010/20/
015020/20121119/90652/603/10340/20/
015020/20121119/90718/604/910/20/
015020/20121119/90735/604/8340/20/
015020/20121119/90740/604/1660/20/
015020/20121119/90740/605/2950/20/
015020/20121119/90748/605/2070/20/
015020/20121119/90749/605/200/10/
015020/20121119/90752/605/730/10/
015020/20121119/90756/605/170/10/
015020/20121119/90809/605/1090/20/
015020/20121119/90814/605/910/10/
015020/20121119/90852/605/5900/20/
015020/20121119/90859/605/1000/20/
015020/20121119/90904/603/420/10/
015020/20121119/90904/602/6230/10/
015020/20121119/90917/605/120/20/
015020/20121119/90932/605/500/20/
015020/20121119/90942/605/1480/20/
015020/20121119/91055/604/800/20/
015020/20121119/91057/602/100/10/
015020/20121119/91100/602/2970/10/
015020/20121119/91127/602/5100/10/
015020/20121119/91137/602/130/20/
015020/20121119/91155/602/9170/10/
015020/20121119/91155/601/840/10/
015020/20121119/91228/604/90/20/
015020/20121119/91252/603/1280/10/
015020/20121119/91252/602/1060/10/
015020/20121119/91301/602/7030/10/
015020/20121119/91303/602/2000/10/
015020/20121119/91320/604/5040/20/
015020/20121119/91352/603/940/10/
015020/20121119/91352/602/2950/10/
015020/20121119/91357/602/1610/20/
015020/20121119/91430/603/410/10/
015020/20121119/91439/602/4120/10/
015020/20121119/91454/603/4790/20/
015020/20121119/91501/603/500/10/
015020/20121119/91501/602/800/10/
015020/20121119/91505/602/140/10/
015020/20121119/91506/602/8270/10/
015020/20121119/91508/602/2370/10/
015020/20121119/91508/601/1230/10/
015020/20121119/91549/602/90/20/
015020/20121119/91555/602/1290/20/
015020/20121119/91559/603/900/20/
015020/20121119/91607/604/1230/20/
015020/20121119/91615/604/210/20/
015020/20121119/91616/604/10180/20/
015020/20121119/91631/605/100/20/
015020/20121119/91634/605/500/20/
015020/20121119/91649/604/540/10/
015020/20121119/91654/605/3540/20/
015020/20121119/91657/605/2760/20/
015020/20121119/91657/605/1100/20/
015020/20121119/91732/606/2030/20/
015020/20121119/91734/606/3800/20/
015020/20121119/91846/606/2080/20/
015020/20121119/91911/607/220/20/
015020/20121119/91913/607/100/20/
015020/20121119/91933/607/2800/20/
015020/20121119/91933/607/2230/10/
015020/20121119/91948/606/300/10/
015020/20121119/91950/606/150/20/
015020/20121119/91950/606/290/20/
015020/20121119/91958/606/410/10/
015020/20121119/92008/606/100/20/
015020/20121119/92024/606/130/20/
015020/20121119/92030/605/670/10/
015020/20121119/92044/605/690/10/
015020/20121119/92046/605/960/20/
015020/20121119/92100/605/170/20/
015020/20121119/92104/604/5250/10/
015020/20121119/92150/604/300/10/
015020/20121119/92152/604/300/10/
015020/20121119/92155/604/450/10/
015020/20121119/92155/603/1630/10/
015020/20121119/92159/605/660/20/
015020/20121119/92251/606/820/20/
015020/20121119/92251/607/580/20/
015020/20121119/92253/603/5940/10/
015020/20121119/92253/602/1950/10/
015020/20121119/92257/607/210/20/
015020/20121119/92304/607/2730/20/
015020/20121119/92304/608/330/20/
015020/20121119/92318/608/600/20/
015020/20121119/92403/607/460/20/
015020/20121119/92405/604/3940/10/
015020/20121119/92442/604/570/10/
015020/20121119/92443/605/100/20/
015020/20121119/92501/605/1130/20/
015020/20121119/92506/606/3510/20/
015020/20121119/92506/606/1500/10/
015020/20121119/92506/605/270/10/
015020/20121119/92506/604/2570/10/
015020/20121119/92506/603/3200/10/
015020/20121119/92506/602/760/10/
015020/20121119/92529/605/3630/10/
015020/20121119/92538/607/600/20/
015020/20121119/92550/607/250/20/
015020/20121119/92551/607/160/20/
015020/20121119/92551/608/750/20/
015020/20121119/92638/606/530/10/
015020/20121119/92657/606/1000/10/
015020/20121119/92731/607/610/10/
015020/20121119/92752/608/210/20/
015020/20121119/92753/608/790/20/
015020/20121119/92758/609/990/20/
015020/20121119/92823/610/5010/20/
015020/20121119/92824/610/1200/20/
015020/20121119/92831/611/960/20/
015020/20121119/92835/611/1020/10/
015020/20121119/92836/611/300/10/
015020/20121119/92843/612/3080/20/
015020/20121119/92843/613/9690/20/
015020/20121119/92843/613/2140/20/
015020/20121119/92844/613/170/20/
015020/20121119/92849/613/100/10/
015020/20121119/92850/614/3000/20/
015020/20121119/92852/615/1730/20/
015020/20121119/92855/615/300/20/
015020/20121119/92859/614/100/20/
015020/20121119/92903/615/1840/20/
015020/20121119/92905/615/100/20/
015020/20121119/92906/614/480/20/
015020/20121119/92912/614/500/20/
015020/20121119/92912/614/2020/20/
015020/20121119/92922/614/210/20/
015020/20121119/92925/614/1860/20/
015020/20121119/92927/614/1780/20/
015020/20121119/92935/615/5640/20/
015020/20121119/92939/617/12010/20/
015020/20121119/92949/616/3550/10/
015020/20121119/92949/616/9250/10/
015020/20121119/93010/620/110/20/
015020/20121119/93020/619/790/20/
015020/20121119/93020/620/210/20/
015020/20121119/93024/620/100/20/
015020/20121119/93027/620/600/20/
015020/20121119/93031/622/5000/20/
015020/20121119/93032/622/450/20/
015020/20121119/93032/622/2580/20/
015020/20121119/93040/623/100/20/
015020/20121119/93042/623/1210/20/
015020/20121119/93042/624/850/20/
015020/20121119/93044/624/2160/20/
015020/20121119/93104/626/210/10/
015020/20121119/93104/626/1710/10/
015020/20121119/93104/625/250/10/
015020/20121119/93113/627/90/20/
015020/20121119/93122/626/300/10/
015020/20121119/93128/627/1300/20/
015020/20121119/93134/627/720/10/
015020/20121119/93134/627/4180/20/
015020/20121119/93141/628/1110/20/
015020/20121119/93141/629/410/20/
015020/20121119/93141/629/11360/20/
015020/20121119/93204/633/90/20/
015020/20121119/93211/633/540/20/
015020/20121119/93215/630/520/10/
015020/20121119/93216/630/5000/10/
015020/20121119/93218/633/2120/20/
015020/20121119/93224/630/4880/10/
015020/20121119/93232/630/120/20/
015020/20121119/93236/633/350/20/
015020/20121119/93236/634/1000/20/
015020/20121119/93236/635/330/20/
015020/20121119/93256/634/1000/20/
015020/20121119/93256/635/3820/20/
015020/20121119/93258/635/110/20/
015020/20121119/93303/635/180/10/
015020/20121119/93309/633/550/10/
015020/20121119/93311/635/4870/20/
015020/20121119/93319/634/500/10/
015020/20121119/93343/637/1040/20/
015020/20121119/93345/635/470/10/
015020/20121119/93401/634/320/10/
015020/20121119/93402/635/500/20/
015020/20121119/93406/635/2970/20/
015020/20121119/93406/634/8680/10/
015020/20121119/93411/634/720/10/
015020/20121119/93413/633/1100/10/
015020/20121119/93414/633/1670/10/
015020/20121119/93415/633/3000/10/
015020/20121119/93416/633/10800/10/
015020/20121119/93421/633/800/10/
015020/20121119/93424/633/510/10/
015020/20121119/93426/633/470/10/
015020/20121119/93505/630/9180/10/
015020/20121119/93511/629/600/10/
015020/20121119/93511/627/110/10/
015020/20121119/93511/624/1170/10/
015020/20121119/93518/624/450/10/
015020/20121119/93520/630/110/20/
015020/20121119/93556/625/930/20/
015020/20121119/93622/625/2310/10/
015020/20121119/93624/625/700/20/
015020/20121119/93626/629/1810/20/
015020/20121119/93626/629/100/10/
015020/20121119/93629/629/120/10/
015020/20121119/93630/629/100/10/
015020/20121119/93632/630/1890/20/
015020/20121119/93649/630/900/10/
015020/20121119/93715/630/8660/10/
015020/20121119/93723/630/160/20/
015020/20121119/93736/629/300/10/
015020/20121119/93738/629/900/10/
015020/20121119/93740/629/860/10/
015020/20121119/93745/630/1280/20/
015020/20121119/93756/630/1000/10/
015020/20121119/93757/630/7720/10/
015020/20121119/93808/630/400/20/
015020/20121119/93836/630/1880/20/
015020/20121119/93839/629/660/10/
015020/20121119/93935/625/22340/10/
015020/20121119/93955/625/1760/20/
015020/20121119/93955/628/950/20/
015020/20121119/94016/624/1770/10/
015020/20121119/94044/624/570/10/
015020/20121119/94046/624/430/10/
015020/20121119/94051/625/130/20/
015020/20121119/94056/625/100/20/
015020/20121119/94118/623/480/10/
015020/20121119/94136/623/220/10/
015020/20121119/94136/622/1780/10/
015020/20121119/94142/622/170/10/
015020/20121119/94251/622/130/10/
015020/20121119/94311/621/270/10/
015020/20121119/94311/621/160/10/
015020/20121119/94313/621/1680/10/
015020/20121119/94320/620/840/10/
015020/20121119/94332/620/160/10/
015020/20121119/94344/620/100/10/
015020/20121119/94406/620/580/10/
015020/20121119/94434/619/360/20/
015020/20121119/94440/619/150/10/
015020/20121119/94459/619/310/20/
015020/20121119/94553/619/110/10/
015020/20121119/94601/619/180/20/
015020/20121119/94624/620/1020/20/
015020/20121119/94641/621/500/20/
015020/20121119/94701/622/870/20/
015020/20121119/94710/622/500/10/
015020/20121119/94711/624/150/20/
015020/20121119/94716/625/650/20/
015020/20121119/94722/625/480/20/
015020/20121119/94738/625/550/20/
015020/20121119/94753/627/100/20/
015020/20121119/94807/628/100/20/
015020/20121119/94815/628/3070/20/
015020/20121119/94817/628/300/10/
015020/20121119/94817/627/2510/10/
015020/20121119/94833/629/9000/20/
015020/20121119/94833/630/8420/20/
015020/20121119/94838/630/500/20/
015020/20121119/94842/630/510/20/
015020/20121119/94845/630/100/20/
015020/20121119/94847/630/2870/20/
015020/20121119/94853/632/210/20/
015020/20121119/94909/631/100/10/
015020/20121119/94930/633/100/20/
015020/20121119/94956/633/300/10/
015020/20121119/95014/633/100/10/
015020/20121119/95014/631/1930/10/
015020/20121119/95026/631/250/10/
015020/20121119/95308/633/140/20/
015020/20121119/95324/630/4300/10/
015020/20121119/95330/630/2000/10/
015020/20121119/95351/630/970/10/
015020/20121119/95411/630/190/10/
015020/20121119/95434/630/410/10/
015020/20121119/95512/630/5870/10/
015020/20121119/95533/630/380/20/
015020/20121119/95539/630/7170/20/
015020/20121119/95540/631/1000/20/
015020/20121119/95540/632/640/20/
015020/20121119/95644/632/1000/20/
015020/20121119/95804/630/140/20/
015020/20121119/95826/630/2810/20/
015020/20121119/95843/630/550/20/
015020/20121119/95907/630/250/10/
015020/20121119/95924/632/470/20/
015020/20121119/100013/632/550/20/
015020/20121119/100024/630/250/10/
015020/20121119/100024/629/2070/10/
015020/20121119/100024/628/1250/10/
015020/20121119/100225/631/4950/20/
015020/20121119/100247/630/5000/20/
015020/20121119/100345/629/3020/10/
015020/20121119/100355/630/500/20/
015020/20121119/100410/630/1700/20/
015020/20121119/100436/629/2440/10/
015020/20121119/100442/630/5410/20/
015020/20121119/100622/630/5070/20/
015020/20121119/100627/629/150/10/
015020/20121119/100704/629/130/10/
015020/20121119/100710/630/2300/20/
015020/20121119/100748/631/2020/20/
015020/20121119/100827/632/7990/20/
015020/20121119/100835/633/14010/20/
015020/20121119/100839/634/3000/20/
015020/20121119/100854/634/500/20/
015020/20121119/100855/634/4490/20/
015020/20121119/100915/634/250/10/
015020/20121119/100919/635/370/20/
015020/20121119/101016/634/360/20/
015020/20121119/101021/634/190/10/
015020/20121119/101031/634/310/20/
015020/20121119/101036/634/500/20/
015020/20121119/101040/634/500/10/
015020/20121119/101102/634/260/20/
015020/20121119/101333/634/490/20/
015020/20121119/101337/634/5000/20/
015020/20121119/101403/634/750/20/
015020/20121119/101403/635/2210/20/
015020/20121119/101426/635/100/10/
015020/20121119/101435/635/600/10/
015020/20121119/101443/635/100/10/
015020/20121119/101443/635/890/10/
015020/20121119/101508/635/1250/20/
015020/20121119/101508/636/750/20/
015020/20121119/101518/636/400/20/
015020/20121119/101653/635/590/20/
015020/20121119/101705/635/100/20/
015020/20121119/101707/635/190/10/
015020/20121119/101707/634/100/10/
015020/20121119/101707/633/150/10/
015020/20121119/101730/633/4740/10/
015020/20121119/101730/635/1000/20/
015020/20121119/101754/635/200/10/
015020/20121119/101757/636/1000/20/
015020/20121119/101807/636/3350/20/
015020/20121119/101814/636/4300/20/
015020/20121119/101814/636/2070/20/
015020/20121119/101827/636/340/10/
015020/20121119/101831/636/1060/20/
015020/20121119/101854/637/340/20/
015020/20121119/101921/638/700/20/
015020/20121119/101929/639/1000/20/
015020/20121119/101939/639/440/20/
015020/20121119/101939/640/3360/20/
015020/20121119/101950/640/1020/20/
015020/20121119/102003/639/200/10/
015020/20121119/102010/640/1720/20/
015020/20121119/102015/640/1000/10/
015020/20121119/102016/640/660/10/
015020/20121119/102023/641/1940/20/
015020/20121119/102025/641/2580/20/
015020/20121119/102048/641/200/10/
015020/20121119/102111/643/200/20/
015020/20121119/102133/643/1590/20/
015020/20121119/102133/645/550/20/
015020/20121119/102152/645/1360/20/
015020/20121119/102207/643/1100/10/
015020/20121119/102209/643/5970/10/
015020/20121119/102210/643/200/10/
015020/20121119/102221/643/360/20/
015020/20121119/102229/643/240/20/
015020/20121119/102238/643/90/10/
015020/20121119/102252/640/7820/10/
015020/20121119/102253/640/5000/10/
015020/20121119/102255/640/1820/10/
015020/20121119/102259/640/600/10/
015020/20121119/102259/640/3000/10/
015020/20121119/102309/640/2000/10/
015020/20121119/102320/640/200/10/
015020/20121119/102323/640/90/10/
015020/20121119/102419/637/500/10/
015020/20121119/102518/637/200/10/
015020/20121119/102524/637/2000/10/
015020/20121119/102530/637/750/10/
015020/20121119/102901/633/100/10/
015020/20121119/102921/633/1000/10/
015020/20121119/102921/632/160/10/
015020/20121119/102921/631/6250/10/
015020/20121119/102921/629/2200/10/
015020/20121119/103024/632/130/10/
015020/20121119/103024/629/1990/10/
015020/20121119/103107/629/8300/10/
015020/20121119/103107/628/1200/10/
015020/20121119/103220/630/5840/20/
015020/20121119/103302/630/1210/10/
015020/20121119/103302/629/530/10/
015020/20121119/103302/628/170/10/
015020/20121119/103351/630/2000/10/
015020/20121119/103605/632/200/10/
015020/20121119/103605/631/1940/10/
015020/20121119/103631/631/100/10/
015020/20121119/103646/631/2900/10/
015020/20121119/103713/631/2130/10/
015020/20121119/103740/631/2000/10/
015020/20121119/103747/631/1140/10/
015020/20121119/103847/630/200/10/
015020/20121119/103900/629/500/10/
015020/20121119/103942/629/1010/10/
015020/20121119/104025/629/1130/10/
015020/20121119/104357/629/1380/10/
015020/20121119/104357/628/120/10/
015020/20121119/104447/628/5010/10/
015020/20121119/104634/628/720/10/
015020/20121119/104657/628/3660/10/
015020/20121119/104657/628/6340/20/
015020/20121119/104843/628/1000/10/
015020/20121119/104843/627/640/10/
015020/20121119/105108/630/1050/20/
015020/20121119/105128/630/960/10/
015020/20121119/105418/628/450/10/
015020/20121119/105432/628/590/10/
015020/20121119/105449/627/470/10/
015020/20121119/105502/628/2500/10/
015020/20121119/105502/627/3120/10/
015020/20121119/105620/627/150/20/
015020/20121119/105633/627/1730/20/
015020/20121119/105714/626/1010/10/
015020/20121119/105716/626/4030/10/
015020/20121119/105716/625/970/10/
015020/20121119/105737/629/170/20/
015020/20121119/110123/629/280/20/
015020/20121119/110504/628/620/10/
015020/20121119/110514/628/500/10/
015020/20121119/110529/628/100/10/
015020/20121119/110548/628/130/20/
015020/20121119/110607/628/420/20/
015020/20121119/110814/628/580/10/
015020/20121119/111149/626/170/10/
015020/20121119/111155/626/590/10/
015020/20121119/111254/626/170/20/
015020/20121119/111349/628/590/20/
015020/20121119/111642/626/790/10/
015020/20121119/111659/626/220/20/
015020/20121119/111737/626/2620/10/
015020/20121119/111855/626/1790/10/
015020/20121119/111914/626/1230/20/
015020/20121119/112052/626/900/10/
015020/20121119/112309/626/440/10/
015020/20121119/112326/626/160/10/
015020/20121119/112335/626/990/10/
015020/20121119/112342/626/940/10/
015020/20121119/112342/625/560/10/
015020/20121119/112353/625/140/10/
015020/20121119/112403/625/3170/10/
015020/20121119/112403/624/330/10/
015020/20121119/112451/624/1560/10/
015020/20121119/112506/624/2300/10/
015020/20121119/112559/625/100/10/
015020/20121119/112559/624/2680/10/
015020/20121119/112604/624/1220/20/
015020/20121119/112702/625/2810/10/
015020/20121119/112702/625/2460/20/
015020/20121119/112709/628/2040/20/
015020/20121119/112709/629/1940/20/
015020/20121119/112709/630/830/20/
015020/20121119/112731/630/670/20/
015020/20121119/112738/630/380/20/
015020/20121119/112903/627/940/10/
015020/20121119/112903/626/3050/10/
015020/20121119/112903/625/4390/10/
015020/20121119/112903/624/950/10/
015020/20121119/112944/625/1290/10/
015020/20121119/113106/628/5010/20/
015020/20121119/113111/628/3800/20/
015020/20121119/113153/626/130/10/
015020/20121119/113201/628/3140/20/
015020/20121119/113209/629/2640/20/
015020/20121119/113348/629/110/20/
015020/20121119/113428/629/690/20/
015020/20121119/113428/630/1890/20/
015020/20121119/113452/631/1300/20/
015020/20121119/113736/630/560/10/
015020/20121119/114242/631/480/10/
015020/20121119/114446/633/690/10/
015020/20121119/114449/633/610/10/
015020/20121119/114614/631/740/10/
015020/20121119/114647/631/580/10/
015020/20121119/114729/631/1000/10/
015020/20121119/114738/631/1180/10/
015020/20121119/114738/631/2140/20/
015020/20121119/114836/633/3000/20/
015020/20121119/114935/633/310/20/
015020/20121119/114953/633/590/20/
015020/20121119/115007/633/100/20/
015020/20121119/115032/634/280/20/
015020/20121119/115050/633/1900/10/
015020/20121119/115059/632/90/10/
015020/20121119/115114/633/500/20/
015020/20121119/115131/634/300/20/
015020/20121119/115325/634/10790/20/
015020/20121119/115329/634/1210/20/
015020/20121119/115359/635/260/20/
015020/20121119/115426/635/3410/20/
015020/20121119/115440/636/200/20/
015020/20121119/115444/636/2500/20/
015020/20121119/115444/637/1250/20/
015020/20121119/115444/638/6350/20/
015020/20121119/115509/639/2030/20/
015020/20121119/115514/639/150/20/
015020/20121119/115521/639/4000/10/
015020/20121119/115527/639/1000/10/
015020/20121119/115529/639/400/10/
015020/20121119/115602/639/2070/10/
015020/20121119/115607/640/2290/20/
015020/20121119/115727/639/310/20/
015020/20121119/115857/639/800/20/
015020/20121119/115920/638/270/10/
015020/20121119/115931/638/370/10/
015020/20121119/115932/638/630/10/
015020/20121119/115932/639/3370/20/
015020/20121119/120359/638/3260/20/
015020/20121119/120359/639/540/20/
015020/20121119/120701/638/3370/20/
015020/20121119/120704/638/580/20/
015020/20121119/120728/635/3050/10/
015020/20121119/120729/635/2740/10/
015020/20121119/120732/635/5000/10/
015020/20121119/120733/635/2000/10/
015020/20121119/120822/635/1080/10/
015020/20121119/121004/634/1950/10/
015020/20121119/121013/634/3000/10/
015020/20121119/121151/634/7640/10/
015020/20121119/121151/633/1730/10/
015020/20121119/121151/632/3390/10/
015020/20121119/121220/632/8220/10/
015020/20121119/121220/632/1780/20/
015020/20121119/121305/631/1270/10/
015020/20121119/121305/630/6290/10/
015020/20121119/121310/630/10000/20/
015020/20121119/121310/630/2440/20/
015020/20121119/121430/630/200/10/
015020/20121119/121513/632/100/10/
015020/20121119/121522/634/9630/20/
015020/20121119/121612/632/9000/10/
015020/20121119/121712/632/750/10/
015020/20121119/121812/632/4000/10/
015020/20121119/122033/632/90/20/
015020/20121119/122140/632/100/20/
015020/20121119/122146/632/320/20/
015020/20121119/122230/632/150/10/
015020/20121119/122432/632/300/10/
015020/20121119/122728/634/20020/20/
015020/20121119/122729/634/7630/20/
015020/20121119/122739/632/300/10/
015020/20121119/122744/633/1000/20/
015020/20121119/123014/634/3230/10/
015020/20121119/123111/634/1270/20/
015020/20121119/123114/635/2290/20/
015020/20121119/123122/635/870/20/
015020/20121119/123132/636/160/20/
015020/20121119/123347/636/5340/20/
015020/20121119/123355/636/310/10/
015020/20121119/123510/636/1160/10/
015020/20121119/123515/638/3000/20/
015020/20121119/123516/638/500/20/
015020/20121119/123540/638/230/20/
015020/20121119/123546/639/11220/20/
015020/20121119/123548/640/4010/20/
015020/20121119/123549/640/510/20/
015020/20121119/123551/640/330/20/
015020/20121119/123552/640/1940/20/
015020/20121119/123552/640/790/20/
015020/20121119/123556/640/210/10/
015020/20121119/123600/640/200/10/
015020/20121119/123604/641/1520/20/
015020/20121119/123606/641/490/10/
015020/20121119/123606/640/2290/10/
015020/20121119/123607/640/200/10/
015020/20121119/123643/641/90/20/
015020/20121119/123657/640/520/10/
015020/20121119/123709/640/430/10/
015020/20121119/123722/640/540/20/
015020/20121119/123736/640/1070/20/
015020/20121119/123739/640/110/20/
015020/20121119/123742/639/3010/10/
015020/20121119/123745/640/100/20/
015020/20121119/123841/639/500/10/
015020/20121119/123909/639/1600/10/
015020/20121119/123932/639/100/10/
015020/20121119/123959/639/100/20/
015020/20121119/124232/639/400/20/
015020/20121119/124321/641/170/20/
015020/20121119/124332/641/3270/20/
015020/20121119/124339/641/1000/10/
015020/20121119/124348/641/90/10/
015020/20121119/124349/641/640/10/
015020/20121119/124402/641/6170/20/
015020/20121119/124517/642/700/20/
015020/20121119/124520/642/2700/20/
015020/20121119/124638/642/200/20/
015020/20121119/124642/642/90/20/
015020/20121119/124753/642/2980/20/
015020/20121119/124850/643/280/20/
015020/20121119/124947/643/500/20/
015020/20121119/124947/642/2780/10/
015020/20121119/125010/643/2620/20/
015020/20121119/125014/643/200/20/
015020/20121119/125049/642/4000/10/
015020/20121119/125111/643/950/20/
015020/20121119/125159/642/120/10/
015020/20121119/125220/642/850/10/
015020/20121119/125316/643/8690/20/
015020/20121119/125316/644/26990/20/
015020/20121119/125316/645/3890/20/
015020/20121119/125332/644/240/10/
015020/20121119/125407/645/150/20/
015020/20121119/125420/645/800/20/
015020/20121119/125431/644/10000/10/
015020/20121119/125458/646/670/20/
015020/20121119/125506/647/220/20/
015020/20121119/125516/645/2010/10/
015020/20121119/125516/644/2990/10/
015020/20121119/125525/644/140/20/
015020/20121119/125639/646/510/20/
015020/20121119/125742/643/1440/10/
015020/20121119/125847/643/2610/10/
015020/20121119/125954/645/1000/20/
015020/20121119/130021/646/240/20/
015020/20121119/130056/646/2020/10/
015020/20121119/130129/646/2630/10/
015020/20121119/130139/646/300/10/
015020/20121119/130144/646/100/10/
015020/20121119/130150/646/100/20/
015020/20121119/130200/646/4950/10/
015020/20121119/130207/646/410/10/
015020/20121119/130239/646/3000/10/
015020/20121119/130246/646/260/10/
015020/20121119/130249/646/2150/10/
015020/20121119/130302/648/10000/20/
015020/20121119/130317/648/2000/20/
015020/20121119/130319/648/470/20/
015020/20121119/130325/648/6410/20/
015020/20121119/130336/649/3000/20/
015020/20121119/130343/649/630/20/
015020/20121119/130343/649/500/10/
015020/20121119/130356/650/2000/20/
015020/20121119/130410/650/2500/20/
015020/20121119/130411/650/9000/20/
015020/20121119/130411/650/390/20/
015020/20121119/130411/651/5190/20/
015020/20121119/130419/653/10080/20/
015020/20121119/130419/654/1220/20/
015020/20121119/130419/655/2710/20/
015020/20121119/130421/655/250/20/
015020/20121119/130429/656/230/20/
015020/20121119/130432/656/4530/20/
015020/20121119/130435/657/1000/10/
015020/20121119/130438/659/1090/20/
015020/20121119/130438/660/3740/20/
015020/20121119/130445/660/140/20/
015020/20121119/130447/659/3390/20/
015020/20121119/130447/660/4420/20/
015020/20121119/130504/663/90/20/
015020/20121119/130508/661/4080/10/
015020/20121119/130508/661/370/10/
015020/20121119/130516/661/9990/10/
015020/20121119/130524/661/3030/10/
015020/20121119/130526/660/9000/10/
015020/20121119/130526/660/3000/10/
015020/20121119/130526/660/3050/10/
015020/20121119/130540/659/3290/20/
015020/20121119/130540/660/100/20/
015020/20121119/130540/662/540/20/
015020/20121119/130600/661/1260/20/
015020/20121119/130607/661/750/10/
015020/20121119/130609/661/500/10/
015020/20121119/130615/661/530/10/
015020/20121119/130618/661/490/20/
015020/20121119/130646/660/2050/20/
015020/20121119/130646/661/1350/20/
015020/20121119/130656/661/5650/20/
015020/20121119/130659/661/500/20/
015020/20121119/130704/661/720/20/
015020/20121119/130706/661/130/20/
015020/20121119/130711/661/2130/20/
015020/20121119/130718/661/4000/10/
015020/20121119/130723/662/1000/20/
015020/20121119/130736/662/900/20/
015020/20121119/130742/662/1120/20/
015020/20121119/130742/664/1750/20/
015020/20121119/130749/664/500/20/
015020/20121119/130802/664/1520/20/
015020/20121119/130808/664/1210/20/
015020/20121119/130816/664/1000/20/
015020/20121119/130817/663/500/20/
015020/20121119/130817/664/4270/20/
015020/20121119/130822/665/200/20/
015020/20121119/130822/665/1000/20/
015020/20121119/130823/665/100/20/
015020/20121119/130823/665/760/20/
015020/20121119/130825/665/15960/20/
015020/20121119/130825/665/2380/20/
015020/20121119/130827/666/260/20/
015020/20121119/130827/667/1000/20/
015020/20121119/130827/668/1070/20/
015020/20121119/130834/668/160/20/
015020/20121119/130853/668/1830/20/
015020/20121119/130853/669/1180/20/
015020/20121119/130857/669/3770/20/
015020/20121119/130900/669/1780/10/
015020/20121119/130913/668/1550/20/
015020/20121119/130914/668/1000/20/
015020/20121119/130917/668/90/20/
015020/20121119/130921/665/230/10/
015020/20121119/130922/668/1130/20/
015020/20121119/130925/668/200/10/
015020/20121119/130925/668/310/10/
015020/20121119/130931/665/3340/10/
015020/20121119/130934/664/4000/10/
015020/20121119/130936/663/230/10/
015020/20121119/130936/663/500/10/
015020/20121119/130939/663/2540/10/
015020/20121119/130939/663/460/20/
015020/20121119/130940/663/2000/10/
015020/20121119/130955/663/3900/10/
015020/20121119/130956/663/2020/10/
015020/20121119/130957/663/2000/20/
015020/20121119/131001/662/1500/10/
015020/20121119/131008/663/6010/20/
015020/20121119/131016/663/90/10/
015020/20121119/131023/663/100/10/
015020/20121119/131023/663/1010/10/
015020/20121119/131024/663/1840/10/
015020/20121119/131026/662/90/10/
015020/20121119/131026/662/1000/10/
015020/20121119/131028/662/90/10/
015020/20121119/131030/662/90/10/
015020/20121119/131032/662/6500/10/
015020/20121119/131033/662/3280/20/
015020/20121119/131034/662/260/20/
015020/20121119/131046/661/90/10/
015020/20121119/131048/663/240/20/
015020/20121119/131049/663/530/10/
015020/20121119/131054/663/100/10/
015020/20121119/131057/663/120/10/
015020/20121119/131101/663/100/10/
015020/20121119/131103/663/90/10/
015020/20121119/131106/663/100/10/
015020/20121119/131107/663/90/10/
015020/20121119/131110/663/90/10/
015020/20121119/131111/663/90/10/
015020/20121119/131115/663/90/10/
015020/20121119/131116/663/100/10/
015020/20121119/131117/663/290/10/
015020/20121119/131117/661/750/10/
015020/20121119/131124/660/90/10/
015020/20121119/131129/660/1060/10/
015020/20121119/131130/661/5010/10/
015020/20121119/131131/661/200/10/
015020/20121119/131146/661/3000/10/
015020/20121119/131146/661/800/10/
015020/20121119/131146/660/2200/10/
015020/20121119/131208/663/4780/20/
015020/20121119/131214/663/270/10/
015020/20121119/131218/663/770/10/
015020/20121119/131220/663/2090/10/
015020/20121119/131231/663/90/10/
015020/20121119/131231/660/2410/20/
015020/20121119/131236/663/580/20/
015020/20121119/131236/665/3030/20/
015020/20121119/131247/665/1020/10/
015020/20121119/131300/665/310/10/
015020/20121119/131301/665/620/10/
015020/20121119/131309/665/3380/20/
015020/20121119/131313/665/1620/10/
015020/20121119/131323/665/100/20/
015020/20121119/131326/665/100/20/
015020/20121119/131327/665/2540/20/
015020/20121119/131328/665/200/20/
015020/20121119/131328/665/100/20/
015020/20121119/131331/665/240/20/
015020/20121119/131332/665/100/20/
015020/20121119/131357/664/210/20/
015020/20121119/131359/664/100/20/
015020/20121119/131359/664/200/20/
015020/20121119/131400/664/100/20/
015020/20121119/131400/664/200/20/
015020/20121119/131401/664/100/20/
015020/20121119/131401/664/90/20/
015020/20121119/131401/665/110/20/
015020/20121119/131402/665/100/20/
015020/20121119/131402/665/200/20/
015020/20121119/131404/665/100/20/
015020/20121119/131407/664/100/20/
015020/20121119/131410/664/100/20/
015020/20121119/131410/664/1630/20/
015020/20121119/131412/665/100/20/
015020/20121119/131413/665/100/20/
015020/20121119/131417/665/1000/20/
015020/20121119/131418/665/7250/20/
015020/20121119/131419/665/100/20/
015020/20121119/131420/665/5000/20/
015020/20121119/131420/665/940/20/
015020/20121119/131421/666/160/20/
015020/20121119/131421/666/1000/20/
015020/20121119/131422/666/1000/20/
015020/20121119/131422/666/100/20/
015020/20121119/131422/666/100/20/
015020/20121119/131423/666/550/20/
015020/20121119/131423/668/450/20/
015020/20121119/131423/668/100/20/
015020/20121119/131424/668/100/20/
015020/20121119/131425/668/100/20/
015020/20121119/131425/668/100/20/
015020/20121119/131426/668/100/20/
015020/20121119/131426/668/100/20/
015020/20121119/131427/668/100/20/
015020/20121119/131427/668/1000/20/
015020/20121119/131427/668/100/20/
015020/20121119/131428/668/1000/20/
015020/20121119/131428/668/100/20/
015020/20121119/131429/668/1000/20/
015020/20121119/131429/668/100/20/
015020/20121119/131430/668/100/20/
015020/20121119/131431/668/100/20/
015020/20121119/131432/668/100/20/
015020/20121119/131432/668/100/20/
015020/20121119/131432/668/190/20/
015020/20121119/131432/669/810/20/
015020/20121119/131433/669/1000/20/
015020/20121119/131433/669/100/20/
015020/20121119/131433/669/1000/20/
015020/20121119/131433/669/100/20/
015020/20121119/131434/669/100/20/
015020/20121119/131434/669/1000/20/
015020/20121119/131434/669/100/20/
015020/20121119/131435/669/100/20/
015020/20121119/131435/669/1000/20/
015020/20121119/131435/669/100/20/
015020/20121119/131435/669/1000/20/
015020/20121119/131436/669/2820/20/
015020/20121119/131436/670/180/20/
015020/20121119/131436/670/100/20/
015020/20121119/131436/670/1000/20/
015020/20121119/131436/670/100/20/
015020/20121119/131437/670/1000/20/
015020/20121119/131437/670/100/20/
015020/20121119/131437/670/100/20/
015020/20121119/131437/670/1000/20/
015020/20121119/131438/670/100/20/
015020/20121119/131438/670/1000/20/
015020/20121119/131438/670/690/20/
015020/20121119/131439/670/1000/20/
015020/20121119/131439/670/100/20/
015020/20121119/131439/670/100/20/
015020/20121119/131440/670/100/20/
015020/20121119/131440/670/100/20/
015020/20121119/131440/670/100/20/
015020/20121119/131441/670/100/20/
015020/20121119/131441/670/100/20/
015020/20121119/131441/670/100/20/
015020/20121119/131442/670/100/20/
015020/20121119/131442/670/100/20/
015020/20121119/131442/670/100/20/
015020/20121119/131442/670/200/20/
015020/20121119/131443/670/100/20/
015020/20121119/131443/670/200/20/
015020/20121119/131443/670/100/20/
015020/20121119/131443/670/200/20/
015020/20121119/131444/670/100/20/
015020/20121119/131444/670/200/20/
015020/20121119/131445/670/200/20/
015020/20121119/131445/670/100/20/
015020/20121119/131445/670/200/20/
015020/20121119/131445/670/100/20/
015020/20121119/131446/670/200/20/
015020/20121119/131446/670/8000/20/
015020/20121119/131446/670/200/20/
015020/20121119/131446/670/100/20/
015020/20121119/131447/670/10000/20/
015020/20121119/131447/670/200/20/
015020/20121119/131447/670/100/20/
015020/20121119/131447/670/200/20/
015020/20121119/131447/670/3200/20/
015020/20121119/131447/670/200/20/
015020/20121119/131448/670/100/20/
015020/20121119/131448/670/200/20/
015020/20121119/131448/670/6970/20/
015020/20121119/131448/672/200/20/
015020/20121119/131448/672/100/20/
015020/20121119/131449/672/200/20/
015020/20121119/131449/672/100/20/
015020/20121119/131449/672/200/20/
015020/20121119/131449/670/300/10/
015020/20121119/131449/672/100/20/
015020/20121119/131450/672/200/20/
015020/20121119/131450/672/100/20/
015020/20121119/131450/672/200/20/
015020/20121119/131450/672/1650/20/
015020/20121119/131450/674/100/20/
015020/20121119/131451/675/200/20/
015020/20121119/131451/675/100/20/
015020/20121119/131452/675/100/20/
015020/20121119/131452/675/100/20/
015020/20121119/131452/676/900/20/
015020/20121119/131452/676/100/20/
015020/20121119/131453/677/100/20/
015020/20121119/131453/677/100/20/
015020/20121119/131454/678/130/20/
015020/20121119/131454/678/90/20/
015020/20121119/131455/679/100/20/
015020/20121119/131455/680/110/20/
015020/20121119/131455/680/100/20/
015020/20121119/131456/680/100/20/
015020/20121119/131456/680/100/20/
015020/20121119/131457/680/100/20/
015020/20121119/131457/680/100/20/
015020/20121119/131457/680/200/20/
015020/20121119/131458/680/100/20/
015020/20121119/131458/680/9100/20/
015020/20121119/131458/680/200/20/
015020/20121119/131458/680/100/20/
015020/20121119/131458/680/200/20/
015020/20121119/131459/680/200/20/
015020/20121119/131459/680/110/20/
015020/20121119/131459/680/3000/20/
015020/20121119/131500/680/1150/20/
015020/20121119/131500/680/100/20/
015020/20121119/131500/680/200/20/
015020/20121119/131500/680/200/20/
015020/20121119/131500/680/160/20/
015020/20121119/131500/680/100/20/
015020/20121119/131501/680/1740/20/
015020/20121119/131501/681/120/20/
015020/20121119/131501/682/140/20/
015020/20121119/131501/682/200/20/
015020/20121119/131501/682/200/20/
015020/20121119/131501/682/100/20/
015020/20121119/131501/682/200/20/
015020/20121119/131502/682/100/20/
015020/20121119/131502/682/260/20/
015020/20121119/131502/682/100/20/
015020/20121119/131503/682/100/20/
015020/20121119/131504/682/100/20/
015020/20121119/131504/682/100/20/
015020/20121119/131504/682/100/20/
015020/20121119/131505/682/100/20/
015020/20121119/131505/682/100/20/
015020/20121119/131505/682/100/20/
015020/20121119/131505/680/100/10/
015020/20121119/131506/682/100/20/
015020/20121119/131506/682/100/20/
015020/20121119/131506/682/100/20/
015020/20121119/131507/682/110/20/
015020/20121119/131507/682/100/20/
015020/20121119/131507/680/3330/10/
015020/20121119/131507/680/110/20/
015020/20121119/131507/680/100/20/
015020/20121119/131507/680/2000/20/
015020/20121119/131507/680/3000/20/
015020/20121119/131508/680/110/20/
015020/20121119/131508/680/110/20/
015020/20121119/131508/680/100/20/
015020/20121119/131509/680/110/20/
015020/20121119/131509/680/110/20/
015020/20121119/131509/680/100/20/
015020/20121119/131510/680/100/20/
015020/20121119/131510/680/770/20/
015020/20121119/131510/680/110/20/
015020/20121119/131510/680/100/20/
015020/20121119/131511/680/100/20/
015020/20121119/131511/680/260/20/
015020/20121119/131511/680/110/20/
015020/20121119/131511/680/100/20/
015020/20121119/131512/680/100/20/
015020/20121119/131512/680/100/20/
015020/20121119/131513/680/100/20/
015020/20121119/131513/680/100/20/
015020/20121119/131513/680/100/20/
015020/20121119/131514/680/100/20/
015020/20121119/131514/680/100/20/
015020/20121119/131515/680/100/20/
015020/20121119/131515/680/100/20/
015020/20121119/131516/680/100/20/
015020/20121119/131516/680/100/20/
015020/20121119/131516/680/100/20/
015020/20121119/131517/680/100/20/
015020/20121119/131517/680/100/20/
015020/20121119/131518/680/100/20/
015020/20121119/131518/680/4150/20/
015020/20121119/131518/682/100/20/
015020/20121119/131518/680/3760/10/
015020/20121119/131518/680/100/20/
015020/20121119/131519/679/690/10/
015020/20121119/131520/680/100/20/
015020/20121119/131520/680/100/20/
015020/20121119/131520/680/100/20/
015020/20121119/131521/680/100/20/
015020/20121119/131521/680/100/20/
015020/20121119/131522/680/100/20/
015020/20121119/131522/680/100/20/
015020/20121119/131522/680/100/20/
015020/20121119/131523/680/100/20/
015020/20121119/131523/680/100/20/
015020/20121119/131524/680/100/20/
015020/20121119/131524/680/100/20/
015020/20121119/131525/680/110/20/
015020/20121119/131525/680/100/20/
015020/20121119/131525/680/110/20/
015020/20121119/131525/680/100/20/
015020/20121119/131526/680/110/20/
015020/20121119/131526/680/100/20/
015020/20121119/131526/680/100/20/
015020/20121119/131526/680/110/20/
015020/20121119/131527/680/100/20/
015020/20121119/131527/680/110/20/
015020/20121119/131528/680/110/20/
015020/20121119/131528/680/100/20/
015020/20121119/131528/680/110/20/
015020/20121119/131528/679/380/10/
015020/20121119/131528/680/110/20/
015020/20121119/131529/680/100/20/
015020/20121119/131529/679/130/10/
015020/20121119/131529/679/100/20/
015020/20121119/131531/678/100/20/
015020/20121119/131531/678/100/20/
015020/20121119/131532/678/110/20/
015020/20121119/131532/678/100/20/
015020/20121119/131532/678/1940/20/
015020/20121119/131532/678/100/20/
015020/20121119/131532/678/110/20/
015020/20121119/131533/679/110/20/
015020/20121119/131533/679/100/20/
015020/20121119/131534/679/120/20/
015020/20121119/131534/679/100/20/
015020/20121119/131534/679/90/20/
015020/20121119/131535/679/110/20/
015020/20121119/131535/679/100/20/
015020/20121119/131535/679/110/20/
015020/20121119/131536/679/100/20/
015020/20121119/131536/679/110/20/
015020/20121119/131537/679/100/20/
015020/20121119/131537/679/110/20/
015020/20121119/131537/679/100/20/
015020/20121119/131538/679/110/20/
015020/20121119/131538/679/100/20/
015020/20121119/131538/679/100/20/
015020/20121119/131539/679/110/20/
015020/20121119/131540/679/100/20/
015020/20121119/131541/677/1040/10/
015020/20121119/131541/677/100/20/
015020/20121119/131541/677/100/20/
015020/20121119/131542/677/100/20/
015020/20121119/131542/677/100/20/
015020/20121119/131543/677/100/20/
015020/20121119/131543/677/100/20/
015020/20121119/131543/677/360/20/
015020/20121119/131543/679/1640/20/
015020/20121119/131544/679/100/20/
015020/20121119/131544/679/100/20/
015020/20121119/131545/679/100/20/
015020/20121119/131545/679/100/20/
015020/20121119/131545/679/100/20/
015020/20121119/131546/679/100/20/
015020/20121119/131546/679/100/20/
015020/20121119/131546/679/100/20/
015020/20121119/131547/679/100/20/
015020/20121119/131547/679/100/20/
015020/20121119/131548/679/100/20/
015020/20121119/131548/679/100/20/
015020/20121119/131548/679/110/20/
015020/20121119/131549/679/100/20/
015020/20121119/131549/679/110/20/
015020/20121119/131549/679/100/20/
015020/20121119/131549/679/110/20/
015020/20121119/131550/679/100/20/
015020/20121119/131550/679/110/20/
015020/20121119/131551/679/110/20/
015020/20121119/131551/679/100/20/
015020/20121119/131552/679/100/20/
015020/20121119/131552/679/110/20/
015020/20121119/131552/679/100/20/
015020/20121119/131553/679/100/20/
015020/20121119/131553/679/100/20/
015020/20121119/131553/679/100/20/
015020/20121119/131554/679/100/20/
015020/20121119/131555/679/100/20/
015020/20121119/131555/679/120/20/
015020/20121119/131556/679/140/20/
015020/20121119/131556/679/120/20/
015020/20121119/131557/679/120/20/
015020/20121119/131558/679/120/20/
015020/20121119/131558/679/120/20/
015020/20121119/131559/679/120/20/
015020/20121119/131559/679/120/20/
015020/20121119/131600/679/120/20/
015020/20121119/131601/679/120/20/
015020/20121119/131602/679/120/20/
015020/20121119/131602/679/120/20/
015020/20121119/131602/679/120/20/
015020/20121119/131603/679/120/20/
015020/20121119/131603/679/120/20/
015020/20121119/131604/679/1000/20/
015020/20121119/131604/679/120/20/
015020/20121119/131604/679/120/20/
015020/20121119/131605/679/120/20/
015020/20121119/131606/679/130/20/
015020/20121119/131606/677/880/10/
015020/20121119/131606/679/120/20/
015020/20121119/131607/679/120/20/
015020/20121119/131607/679/100/20/
015020/20121119/131608/679/100/20/
015020/20121119/131608/679/100/20/
015020/20121119/131609/678/100/20/
015020/20121119/131609/678/100/20/
015020/20121119/131610/678/100/20/
015020/20121119/131610/678/100/20/
015020/20121119/131611/678/100/20/
015020/20121119/131611/678/100/20/
015020/20121119/131612/678/100/20/
015020/20121119/131612/678/200/20/
015020/20121119/131612/678/100/20/
015020/20121119/131613/678/200/20/
015020/20121119/131613/678/200/20/
015020/20121119/131613/678/100/20/
015020/20121119/131614/678/250/20/
015020/20121119/131614/678/970/20/
015020/20121119/131614/677/2380/10/
015020/20121119/131614/677/100/20/
015020/20121119/131615/677/100/20/
015020/20121119/131616/677/120/20/
015020/20121119/131616/677/120/20/
015020/20121119/131618/677/180/20/
015020/20121119/131618/677/120/20/
015020/20121119/131619/677/120/20/
015020/20121119/131619/677/120/20/
015020/20121119/131620/677/120/20/
015020/20121119/131621/677/120/20/
015020/20121119/131621/677/120/20/
015020/20121119/131622/677/1280/20/
015020/20121119/131622/678/100/20/
015020/20121119/131623/679/120/20/
015020/20121119/131629/677/530/10/
015020/20121119/131635/678/130/20/
015020/20121119/131635/678/100/20/
015020/20121119/131636/678/100/20/
015020/20121119/131636/678/100/20/
015020/20121119/131637/677/460/10/
015020/20121119/131637/678/100/20/
015020/20121119/131638/678/100/20/
015020/20121119/131638/678/100/20/
015020/20121119/131644/677/90/20/
015020/20121119/131648/677/90/20/
015020/20121119/131651/675/100/20/
015020/20121119/131653/675/90/20/
015020/20121119/131654/674/4230/10/
015020/20121119/131654/674/530/10/
015020/20121119/131658/677/100/20/
015020/20121119/131700/674/90/20/
015020/20121119/131701/674/510/20/
015020/20121119/131706/674/90/20/
015020/20121119/131707/674/140/20/
015020/20121119/131708/674/90/20/
015020/20121119/131711/674/90/20/
015020/20121119/131713/674/100/20/
015020/20121119/131715/674/100/20/
015020/20121119/131717/674/90/20/
015020/20121119/131719/674/90/20/
015020/20121119/131720/674/100/20/
015020/20121119/131723/672/1460/10/
015020/20121119/131723/671/2190/10/
015020/20121119/131723/670/2070/10/
015020/20121119/131725/674/100/20/
015020/20121119/131727/674/100/20/
015020/20121119/131729/674/240/20/
015020/20121119/131731/674/90/20/
015020/20121119/131731/670/3890/10/
015020/20121119/131733/674/90/20/
015020/20121119/131735/674/90/20/
015020/20121119/131736/674/90/20/
015020/20121119/131738/674/90/20/
015020/20121119/131740/674/90/20/
015020/20121119/131742/674/90/20/
015020/20121119/131743/670/820/10/
015020/20121119/131743/669/1000/10/
015020/20121119/131743/668/1260/10/
015020/20121119/131743/667/1000/10/
015020/20121119/131743/666/1000/10/
015020/20121119/131743/665/1360/10/
015020/20121119/131743/664/1010/10/
015020/20121119/131743/663/410/10/
015020/20121119/131745/674/90/20/
015020/20121119/131746/674/3310/20/
015020/20121119/131746/674/1720/10/
015020/20121119/131750/670/2020/20/
015020/20121119/131807/668/2020/20/
015020/20121119/131815/670/3980/20/
015020/20121119/131816/670/2160/10/
015020/20121119/131821/670/90/20/
015020/20121119/131822/669/1000/10/
015020/20121119/131824/670/2830/20/
015020/20121119/131826/670/1120/10/
015020/20121119/131827/669/720/10/
015020/20121119/131833/669/1280/20/
015020/20121119/131852/670/90/20/
015020/20121119/131856/670/90/20/
015020/20121119/131858/670/90/20/
015020/20121119/131900/670/90/20/
015020/20121119/131902/671/90/20/
015020/20121119/131904/671/90/20/
015020/20121119/131905/671/2030/20/
015020/20121119/131906/670/2050/10/
015020/20121119/131907/671/90/20/
015020/20121119/131909/671/100/20/
015020/20121119/131911/673/90/20/
015020/20121119/131911/668/640/10/
015020/20121119/131914/673/90/20/
015020/20121119/131916/673/90/20/
015020/20121119/131917/673/90/20/
015020/20121119/131920/673/100/20/
015020/20121119/131922/673/90/20/
015020/20121119/131924/673/90/20/
015020/20121119/131926/672/90/20/
015020/20121119/131927/672/90/20/
015020/20121119/131929/671/100/20/
015020/20121119/131931/671/90/20/
015020/20121119/131934/671/100/20/
015020/20121119/131936/669/490/10/
015020/20121119/131939/671/180/20/
015020/20121119/131939/671/110/20/
015020/20121119/131940/671/110/20/
015020/20121119/131942/671/140/20/
015020/20121119/131942/671/120/20/
015020/20121119/131943/671/120/20/
015020/20121119/131943/671/120/20/
015020/20121119/131944/671/120/20/
015020/20121119/131945/671/130/20/
015020/20121119/131946/671/120/20/
015020/20121119/131947/671/1010/20/
015020/20121119/131948/671/100/20/
015020/20121119/131950/671/90/20/
015020/20121119/131952/671/190/20/
015020/20121119/131952/671/110/20/
015020/20121119/131953/671/120/20/
015020/20121119/131954/671/120/20/
015020/20121119/131954/671/120/20/
015020/20121119/131955/671/120/20/
015020/20121119/131955/669/1010/10/
015020/20121119/131955/669/120/20/
015020/20121119/131956/669/120/20/
015020/20121119/131956/669/120/20/
015020/20121119/131957/669/120/20/
015020/20121119/131957/669/120/20/
015020/20121119/131958/669/120/20/
015020/20121119/131958/669/120/20/
015020/20121119/132000/669/90/20/
015020/20121119/132001/669/100/20/
015020/20121119/132001/669/960/20/
015020/20121119/132003/671/90/20/
015020/20121119/132005/670/90/20/
015020/20121119/132007/669/1980/10/
015020/20121119/132008/670/90/20/
015020/20121119/132010/670/100/20/
015020/20121119/132012/670/90/20/
015020/20121119/132013/670/100/20/
015020/20121119/132015/670/90/20/
015020/20121119/132017/670/4880/20/
015020/20121119/132019/671/90/20/
015020/20121119/132020/671/140/20/
015020/20121119/132021/671/120/20/
015020/20121119/132021/671/110/20/
015020/20121119/132021/671/120/20/
015020/20121119/132022/671/120/20/
015020/20121119/132023/671/1010/20/
015020/20121119/132024/671/100/20/
015020/20121119/132025/671/120/20/
015020/20121119/132025/671/120/20/
015020/20121119/132026/671/120/20/
015020/20121119/132026/671/120/20/
015020/20121119/132026/671/110/20/
015020/20121119/132027/671/120/20/
015020/20121119/132028/671/120/20/
015020/20121119/132028/671/120/20/
015020/20121119/132029/671/120/20/
015020/20121119/132029/671/130/20/
015020/20121119/132029/671/120/20/
015020/20121119/132030/671/120/20/
015020/20121119/132031/671/1020/20/
015020/20121119/132032/671/90/20/
015020/20121119/132033/670/3000/10/
015020/20121119/132034/671/120/20/
015020/20121119/132035/671/90/20/
015020/20121119/132036/671/2780/20/
015020/20121119/132037/671/160/20/
015020/20121119/132038/671/110/20/
015020/20121119/132038/671/110/20/
015020/20121119/132039/672/130/20/
015020/20121119/132039/672/120/20/
015020/20121119/132040/672/110/20/
015020/20121119/132040/672/120/20/
015020/20121119/132041/672/120/20/
015020/20121119/132043/672/100/20/
015020/20121119/132044/672/100/20/
015020/20121119/132046/672/100/20/
015020/20121119/132048/670/2920/10/
015020/20121119/132050/671/3090/20/
015020/20121119/132052/671/2680/10/
015020/20121119/132055/672/90/20/
015020/20121119/132057/672/90/20/
015020/20121119/132059/672/90/20/
015020/20121119/132100/672/5430/20/
015020/20121119/132101/672/100/20/
015020/20121119/132104/672/100/20/
015020/20121119/132106/672/100/20/
015020/20121119/132107/672/90/20/
015020/20121119/132110/672/90/20/
015020/20121119/132111/672/90/20/
015020/20121119/132113/672/90/20/
015020/20121119/132115/672/90/20/
015020/20121119/132117/672/90/20/
015020/20121119/132119/672/90/20/
015020/20121119/132121/672/90/20/
015020/20121119/132123/672/90/20/
015020/20121119/132125/672/90/20/
015020/20121119/132127/672/90/20/
015020/20121119/132128/672/100/20/
015020/20121119/132131/671/90/20/
015020/20121119/132133/671/90/20/
015020/20121119/132135/671/100/20/
015020/20121119/132138/671/90/20/
015020/20121119/132142/671/90/20/
015020/20121119/132144/671/100/20/
015020/20121119/132145/671/90/20/
015020/20121119/132149/671/90/20/
015020/20121119/132153/671/90/20/
015020/20121119/132156/671/100/20/
015020/20121119/132157/671/90/20/
015020/20121119/132201/671/90/20/
015020/20121119/132203/671/100/20/
015020/20121119/132206/671/100/20/
015020/20121119/132208/670/90/20/
015020/20121119/132210/670/90/20/
015020/20121119/132210/670/920/20/
015020/20121119/132212/670/90/20/
015020/20121119/132214/670/90/20/
015020/20121119/132216/670/90/20/
015020/20121119/132218/671/90/20/
015020/20121119/132219/671/110/20/
015020/20121119/132221/671/90/20/
015020/20121119/132224/671/90/20/
015020/20121119/132226/671/90/20/
015020/20121119/132229/671/90/20/
015020/20121119/132232/671/90/20/
015020/20121119/132235/670/90/20/
015020/20121119/132239/670/90/20/
015020/20121119/132242/670/280/20/
015020/20121119/132246/670/90/20/
015020/20121119/132248/670/90/20/
015020/20121119/132249/668/180/10/
015020/20121119/132250/668/90/20/
015020/20121119/132251/668/1710/20/
015020/20121119/132251/670/3320/20/
015020/20121119/132255/670/90/20/
015020/20121119/132259/670/90/20/
015020/20121119/132302/670/90/20/
015020/20121119/132303/670/90/20/
015020/20121119/132307/670/90/20/
015020/20121119/132311/670/90/20/
015020/20121119/132312/668/10240/10/
015020/20121119/132314/669/260/20/
015020/20121119/132315/669/90/20/
015020/20121119/132317/666/10790/10/
015020/20121119/132322/669/90/20/
015020/20121119/132325/669/90/20/
015020/20121119/132329/669/90/20/
015020/20121119/132331/666/13280/10/
015020/20121119/132333/668/90/20/
015020/20121119/132337/668/90/20/
015020/20121119/132340/668/90/20/
015020/20121119/132344/668/90/20/
015020/20121119/132347/665/4080/10/
015020/20121119/132349/668/90/20/
015020/20121119/132350/666/20030/10/
015020/20121119/132353/668/90/20/
015020/20121119/132355/668/90/20/
015020/20121119/132358/665/770/10/
015020/20121119/132359/665/330/10/
015020/20121119/132403/665/90/20/
015020/20121119/132406/665/100/20/
015020/20121119/132408/665/90/20/
015020/20121119/132411/665/90/20/
015020/20121119/132412/664/1060/10/
015020/20121119/132414/665/100/20/
015020/20121119/132415/665/90/20/
015020/20121119/132417/665/100/20/
015020/20121119/132419/665/90/20/
015020/20121119/132420/665/130/20/
015020/20121119/132422/665/90/20/
015020/20121119/132424/665/90/20/
015020/20121119/132428/665/90/20/
015020/20121119/132430/665/90/20/
015020/20121119/132433/665/90/20/
015020/20121119/132437/664/90/20/
015020/20121119/132441/664/90/20/
015020/20121119/132441/664/1030/20/
015020/20121119/132443/665/90/20/
015020/20121119/132444/665/90/20/
015020/20121119/132446/665/90/20/
015020/20121119/132449/665/90/20/
015020/20121119/132451/665/90/20/
015020/20121119/132455/665/90/20/
015020/20121119/132455/664/210/10/
015020/20121119/132501/664/870/10/
015020/20121119/132507/663/1500/10/
015020/20121119/132509/662/3220/10/
015020/20121119/132511/663/90/20/
015020/20121119/132518/662/890/10/
015020/20121119/132518/661/690/10/
015020/20121119/132520/662/1070/10/
015020/20121119/132520/662/1260/10/
015020/20121119/132523/663/90/20/
015020/20121119/132525/663/90/20/
015020/20121119/132528/663/100/20/
015020/20121119/132529/663/840/20/
015020/20121119/132529/663/100/20/
015020/20121119/132531/663/2030/20/
015020/20121119/132531/663/1790/20/
015020/20121119/132535/663/100/20/
015020/20121119/132536/663/220/20/
015020/20121119/132537/663/190/20/
015020/20121119/132539/664/90/20/
015020/20121119/132541/664/90/20/
015020/20121119/132541/664/100/20/
015020/20121119/132544/664/90/20/
015020/20121119/132544/663/2500/10/
015020/20121119/132546/664/1290/20/
015020/20121119/132554/665/90/20/
015020/20121119/132557/665/100/20/
015020/20121119/132559/665/90/20/
015020/20121119/132602/664/420/10/
015020/20121119/132605/664/90/20/
015020/20121119/132607/664/90/20/
015020/20121119/132611/664/150/20/
015020/20121119/132612/664/110/20/
015020/20121119/132613/664/110/20/
015020/20121119/132613/664/110/20/
015020/20121119/132615/664/120/20/
015020/20121119/132616/664/110/20/
015020/20121119/132616/664/110/20/
015020/20121119/132617/664/110/20/
015020/20121119/132617/665/110/20/
015020/20121119/132618/665/100/20/
015020/20121119/132621/665/90/20/
015020/20121119/132623/665/90/20/
015020/20121119/132626/664/90/10/
015020/20121119/132629/663/170/10/
015020/20121119/132629/662/8900/10/
015020/20121119/132630/662/9000/10/
015020/20121119/132631/665/2500/20/
015020/20121119/132631/661/4840/10/
015020/20121119/132631/660/1310/10/
015020/20121119/132631/659/1030/10/
015020/20121119/132631/658/820/10/
015020/20121119/132638/665/90/20/
015020/20121119/132638/659/1010/10/
015020/20121119/132639/659/2300/10/
015020/20121119/132642/658/300/10/
015020/20121119/132648/658/1040/10/
015020/20121119/132659/658/1560/10/
015020/20121119/132709/660/580/20/
015020/20121119/132712/660/100/20/
015020/20121119/132712/658/1000/10/
015020/20121119/132721/658/1900/20/
015020/20121119/132724/658/100/20/
015020/20121119/132724/655/600/10/
015020/20121119/132732/655/1000/10/
015020/20121119/132738/655/560/10/
015020/20121119/132742/655/3780/10/
015020/20121119/132743/655/1060/10/
015020/20121119/132745/655/1010/10/
015020/20121119/132747/657/90/20/
015020/20121119/132749/657/100/20/
015020/20121119/132752/657/170/20/
015020/20121119/132757/657/100/20/
015020/20121119/132759/657/90/20/
015020/20121119/132800/655/2340/10/
015020/20121119/132800/657/140/20/
015020/20121119/132803/657/110/20/
015020/20121119/132804/655/500/10/
015020/20121119/132805/655/1000/10/
015020/20121119/132805/655/1190/10/
015020/20121119/132817/657/100/20/
015020/20121119/132818/657/160/20/
015020/20121119/132821/657/160/20/
015020/20121119/132822/657/110/20/
015020/20121119/132822/657/490/20/
015020/20121119/132822/658/3410/20/
015020/20121119/132823/659/110/20/
015020/20121119/132823/658/1110/10/
015020/20121119/132823/657/100/20/
015020/20121119/132824/657/110/20/
015020/20121119/132824/657/1000/20/
015020/20121119/132825/657/110/20/
015020/20121119/132825/657/110/20/
015020/20121119/132825/657/500/20/
015020/20121119/132826/657/860/20/
015020/20121119/132826/659/100/20/
015020/20121119/132827/659/110/20/
015020/20121119/132828/659/110/20/
015020/20121119/132828/659/110/20/
015020/20121119/132829/659/110/20/
015020/20121119/132830/659/110/20/
015020/20121119/132830/659/8000/20/
015020/20121119/132830/659/600/20/
015020/20121119/132830/659/110/20/
015020/20121119/132831/659/110/20/
015020/20121119/132832/659/110/20/
015020/20121119/132832/659/2000/20/
015020/20121119/132832/659/1180/20/
015020/20121119/132833/659/110/20/
015020/20121119/132834/659/110/20/
015020/20121119/132834/659/1780/20/
015020/20121119/132834/659/100/20/
015020/20121119/132835/659/2740/20/
015020/20121119/132835/660/270/20/
015020/20121119/132837/660/4380/20/
015020/20121119/132840/660/100/20/
015020/20121119/132842/660/3250/20/
015020/20121119/132843/660/7190/10/
015020/20121119/132843/660/100/20/
015020/20121119/132845/660/1710/20/
015020/20121119/132846/660/2690/10/
015020/20121119/132848/660/100/20/
015020/20121119/132851/660/3610/20/
015020/20121119/132853/660/500/10/
015020/20121119/132917/660/2520/10/
015020/20121119/132952/662/130/20/
015020/20121119/132953/663/1180/20/
015020/20121119/133011/663/170/20/
015020/20121119/133016/663/500/20/
015020/20121119/133026/663/130/20/
015020/20121119/133031/663/870/20/
015020/20121119/133033/662/500/10/
015020/20121119/133033/661/5010/10/
015020/20121119/133033/660/14220/10/
015020/20121119/133038/660/270/20/
015020/20121119/133038/663/480/20/
015020/20121119/133050/665/120/20/
015020/20121119/133053/663/930/10/
015020/20121119/133102/663/610/10/
015020/20121119/133126/663/1890/20/
015020/20121119/133126/665/120/20/
015020/20121119/133128/665/1030/20/
015020/20121119/133128/666/900/20/
015020/20121119/133128/668/2400/20/
015020/20121119/133131/660/1210/10/
015020/20121119/133203/667/2800/20/
015020/20121119/133203/668/1190/20/
015020/20121119/133203/669/3000/20/
015020/20121119/133203/670/1220/20/
015020/20121119/133211/667/150/20/
015020/20121119/133211/670/4930/20/
015020/20121119/133215/669/790/20/
015020/20121119/133215/670/5250/20/
015020/20121119/133218/670/3020/20/
015020/20121119/133221/670/580/20/
015020/20121119/133231/671/300/20/
015020/20121119/133234/670/150/10/
015020/20121119/133245/670/450/20/
015020/20121119/133310/669/1070/20/
015020/20121119/133317/666/1880/10/
015020/20121119/133354/666/240/10/
015020/20121119/133405/666/1000/10/
015020/20121119/133405/665/11450/10/
015020/20121119/133410/665/930/20/
015020/20121119/133419/664/500/10/
015020/20121119/133422/664/100/10/
015020/20121119/133429/663/400/10/
015020/20121119/133434/664/100/20/
015020/20121119/133439/664/3010/20/
015020/20121119/133447/662/290/10/
015020/20121119/133456/664/280/20/
015020/20121119/133505/665/680/20/
015020/20121119/133506/665/720/10/
015020/20121119/133508/667/2010/20/
015020/20121119/133509/667/1000/10/
015020/20121119/133513/665/100/10/
015020/20121119/133513/664/720/10/
015020/20121119/133513/662/1150/10/
015020/20121119/133513/660/220/10/
015020/20121119/133513/659/5940/10/
015020/20121119/133627/666/3560/20/
015020/20121119/133627/667/10630/20/
015020/20121119/133632/667/500/20/
015020/20121119/133632/667/1510/10/
015020/20121119/133642/668/160/20/
015020/20121119/133642/668/320/20/
015020/20121119/133714/662/90/10/
015020/20121119/133714/660/350/10/
015020/20121119/133734/666/3340/20/
015020/20121119/133822/665/400/20/
015020/20121119/133848/661/280/10/
015020/20121119/133904/660/500/10/
015020/20121119/133912/661/500/20/
015020/20121119/133938/661/400/20/
015020/20121119/133943/664/100/20/
015020/20121119/134006/664/100/20/
015020/20121119/134015/661/330/10/
015020/20121119/134019/660/980/10/
015020/20121119/134027/661/170/20/
015020/20121119/134042/660/440/10/
015020/20121119/134116/661/380/10/
015020/20121119/134116/660/440/10/
015020/20121119/134116/656/2000/10/
015020/20121119/134116/656/1580/20/
015020/20121119/134145/662/700/20/
015020/20121119/134202/661/90/10/
015020/20121119/134310/657/4210/10/
015020/20121119/134310/656/4820/10/
015020/20121119/134318/656/5370/10/
015020/20121119/134327/657/780/10/
015020/20121119/134327/656/240/10/
015020/20121119/134352/656/3070/10/
015020/20121119/134359/656/490/10/
015020/20121119/134400/655/610/10/
015020/20121119/134402/652/100/10/
015020/20121119/134426/652/180/10/
015020/20121119/134426/651/820/10/
015020/20121119/134427/651/560/10/
015020/20121119/134429/651/2280/10/
015020/20121119/134430/651/410/10/
015020/20121119/134431/651/280/10/
015020/20121119/134431/650/4410/10/
015020/20121119/134431/647/310/10/
015020/20121119/134432/651/100/10/
015020/20121119/134442/648/100/10/
015020/20121119/134454/648/800/10/
015020/20121119/134458/648/100/10/
015020/20121119/134501/648/100/20/
015020/20121119/134502/648/1360/20/
015020/20121119/134510/648/690/10/
015020/20121119/134518/649/500/10/
015020/20121119/134525/654/100/20/
015020/20121119/134531/654/100/20/
015020/20121119/134539/654/1000/20/
015020/20121119/134549/648/330/10/
015020/20121119/134614/651/3380/10/
015020/20121119/134614/650/5010/10/
015020/20121119/134619/654/100/20/
015020/20121119/134624/654/290/20/
015020/20121119/134650/651/700/10/
015020/20121119/134659/651/270/20/
015020/20121119/134659/651/150/20/
015020/20121119/134702/651/1000/20/
015020/20121119/134707/655/170/20/
015020/20121119/134709/650/2650/10/
015020/20121119/134714/650/1720/10/
015020/20121119/134738/650/500/10/
015020/20121119/134824/650/220/10/
015020/20121119/134824/648/1430/10/
015020/20121119/134832/647/210/10/
015020/20121119/134850/647/740/10/
015020/20121119/134919/647/360/10/
015020/20121119/134919/645/400/10/
015020/20121119/134943/648/140/10/
015020/20121119/135005/648/3320/10/
015020/20121119/135005/648/3780/20/
015020/20121119/135017/649/150/10/
015020/20121119/135032/650/160/20/
015020/20121119/135045/650/2900/20/
015020/20121119/135106/650/160/10/
015020/20121119/135130/650/1000/10/
015020/20121119/135148/650/500/20/
015020/20121119/135155/650/1000/10/
015020/20121119/135202/650/910/10/
015020/20121119/135203/650/1000/10/
015020/20121119/135226/650/1000/10/
015020/20121119/135253/650/1000/10/
015020/20121119/135303/650/7930/10/
015020/20121119/135408/654/1130/20/
015020/20121119/135413/654/1010/10/
015020/20121119/135423/654/2990/10/
015020/20121119/135427/655/150/20/
015020/20121119/135431/655/8620/20/
015020/20121119/135500/657/2810/20/
015020/20121119/135501/658/1000/20/
015020/20121119/135528/657/720/10/
015020/20121119/135536/657/110/10/
015020/20121119/135546/657/100/10/
015020/20121119/135548/657/90/10/
015020/20121119/135734/657/2020/20/
015020/20121119/135734/658/780/20/
015020/20121119/135850/658/120/20/
015020/20121119/135905/658/100/20/
015020/20121119/135926/658/160/20/
015020/20121119/135936/652/180/10/
015020/20121119/140028/652/2010/10/
015020/20121119/140045/657/5360/20/
015020/20121119/140045/658/1230/20/
015020/20121119/140053/658/550/20/
015020/20121119/140112/652/2300/10/
015020/20121119/140200/652/700/20/
015020/20121119/140407/651/1690/10/
015020/20121119/140409/651/270/10/
015020/20121119/140436/654/380/20/
015020/20121119/140436/655/3610/20/
015020/20121119/140439/655/3830/10/
015020/20121119/140510/656/90/20/
015020/20121119/140514/655/1120/10/
015020/20121119/140524/655/260/10/
015020/20121119/140550/651/170/10/
015020/20121119/140550/650/1430/10/
015020/20121119/140550/649/1410/10/
015020/20121119/140550/648/2130/10/
015020/20121119/140550/647/630/10/
015020/20121119/140625/647/3960/10/
015020/20121119/140722/647/600/10/
015020/20121119/140909/654/90/20/
015020/20121119/140931/654/90/20/
015020/20121119/140940/654/3680/20/
015020/20121119/141012/654/610/20/
015020/20121119/141025/654/930/20/
015020/20121119/141157/654/1060/10/
015020/20121119/141308/651/1040/10/
015020/20121119/141401/651/1010/10/
015020/20121119/141423/650/730/10/
015020/20121119/141423/649/2000/10/
015020/20121119/141449/649/360/20/
015020/20121119/141640/649/1170/10/
015020/20121119/141723/649/680/10/
015020/20121119/141821/648/120/10/
015020/20121119/141831/648/1090/10/
015020/20121119/141831/647/1780/10/
015020/20121119/141855/646/2310/10/
015020/20121119/141931/649/140/20/
015020/20121119/141952/649/150/20/
015020/20121119/142057/649/270/20/
015020/20121119/142145/649/510/20/
015020/20121119/142206/645/850/10/
015020/20121119/142206/644/2520/10/
015020/20121119/142209/649/500/20/
015020/20121119/142301/649/1060/20/
015020/20121119/142401/647/2630/10/
015020/20121119/142517/649/220/20/
015020/20121119/142540/650/860/20/
015020/20121119/142555/652/90/20/
015020/20121119/142720/650/1240/10/
015020/20121119/142720/649/960/10/
015020/20121119/142720/648/420/10/
015020/20121119/142720/647/1710/10/
015020/20121119/142853/652/90/20/
015020/20121119/142928/652/750/20/
015020/20121119/143042/650/2410/20/
015020/20121119/143046/648/1890/10/
015020/20121119/143123/648/380/10/
015020/20121119/143137/648/800/10/
015020/20121119/143137/647/2680/10/
015020/20121119/143137/646/2430/10/
015020/20121119/143137/645/100/10/
015020/20121119/143149/645/5910/10/
015020/20121119/143200/645/100/20/
015020/20121119/143209/645/630/20/
015020/20121119/143221/645/2020/10/
015020/20121119/143222/645/2000/10/
015020/20121119/143231/645/350/20/
015020/20121119/143235/645/380/10/
015020/20121119/143236/645/1150/10/
015020/20121119/143322/650/520/20/
015020/20121119/143600/649/90/20/
015020/20121119/143640/649/90/20/
015020/20121119/143649/647/1020/10/
015020/20121119/143708/647/3640/10/
015020/20121119/143708/646/1000/10/
015020/20121119/143708/645/2590/10/
015020/20121119/143708/643/2790/10/
015020/20121119/143715/643/280/10/
015020/20121119/143715/642/1650/10/
015020/20121119/143922/649/110/20/
015020/20121119/143948/643/5600/10/
015020/20121119/143948/642/6090/10/
015020/20121119/144015/642/320/10/
015020/20121119/144256/644/130/10/
015020/20121119/144356/644/1210/10/
015020/20121119/144406/644/2120/10/
015020/20121119/144406/643/5400/10/
015020/20121119/144406/642/3460/10/
015020/20121119/144418/641/150/10/
015020/20121119/144434/642/150/10/
015020/20121119/144515/645/120/20/
015020/20121119/144533/643/500/10/
015020/20121119/144602/644/100/10/
015020/20121119/144602/643/400/10/
015020/20121119/144606/643/7250/10/
015020/20121119/144609/643/1510/10/
015020/20121119/144623/643/100/10/
015020/20121119/144623/642/15110/10/
015020/20121119/144647/643/100/20/
015020/20121119/144721/643/1000/20/
015020/20121119/144723/643/410/20/
015020/20121119/144732/642/2180/10/
015020/20121119/144744/642/1600/20/
015020/20121119/144752/642/1400/10/
015020/20121119/144824/641/3750/10/
015020/20121119/144859/643/560/20/
015020/20121119/144907/643/1060/20/
015020/20121119/144909/643/100/20/
015020/20121119/144934/643/4470/10/
015020/20121119/150000/641/28140/10/
