015020/20121105/90000/761/41520/10/
015020/20121105/90004/770/1000/20/
015020/20121105/90017/770/1000/20/
015020/20121105/90019/770/1350/20/
015020/20121105/90026/770/380/10/
015020/20121105/90042/778/1820/20/
015020/20121105/90048/778/100/20/
015020/20121105/90049/778/440/20/
015020/20121105/90052/778/1770/20/
015020/20121105/90054/778/780/10/
015020/20121105/90058/778/2320/20/
015020/20121105/90103/779/610/20/
015020/20121105/90107/779/6390/20/
015020/20121105/90117/781/1740/10/
015020/20121105/90124/781/1000/10/
015020/20121105/90133/783/500/20/
015020/20121105/90146/781/2010/10/
015020/20121105/90146/782/2220/20/
015020/20121105/90146/783/2780/20/
015020/20121105/90149/782/2000/10/
015020/20121105/90151/782/500/10/
015020/20121105/90151/782/3000/20/
015020/20121105/90151/783/1750/20/
015020/20121105/90157/782/700/20/
015020/20121105/90158/782/1210/10/
015020/20121105/90202/782/3000/10/
015020/20121105/90207/783/120/20/
015020/20121105/90212/783/160/20/
015020/20121105/90213/783/6100/20/
015020/20121105/90215/783/790/10/
015020/20121105/90220/783/3000/10/
015020/20121105/90221/783/1000/10/
015020/20121105/90232/783/1000/10/
015020/20121105/90238/783/6000/10/
015020/20121105/90240/783/110/10/
015020/20121105/90245/782/1010/10/
015020/20121105/90302/782/910/10/
015020/20121105/90306/782/4150/10/
015020/20121105/90306/781/1850/10/
015020/20121105/90312/781/5870/10/
015020/20121105/90312/780/140/10/
015020/20121105/90328/780/400/10/
015020/20121105/90332/780/3340/10/
015020/20121105/90332/779/300/10/
015020/20121105/90341/779/280/10/
015020/20121105/90352/778/10440/10/
015020/20121105/90352/777/300/10/
015020/20121105/90352/775/200/10/
015020/20121105/90352/774/1070/10/
015020/20121105/90401/774/2220/10/
015020/20121105/90402/774/250/20/
015020/20121105/90402/774/840/10/
015020/20121105/90411/774/550/10/
015020/20121105/90425/774/300/10/
015020/20121105/90435/774/560/10/
015020/20121105/90445/772/100/10/
015020/20121105/90454/774/400/20/
015020/20121105/90457/774/200/20/
015020/20121105/90502/774/100/20/
015020/20121105/90511/774/200/20/
015020/20121105/90517/773/300/20/
015020/20121105/90518/772/180/10/
015020/20121105/90524/772/100/20/
015020/20121105/90531/772/100/20/
015020/20121105/90535/772/100/20/
015020/20121105/90544/771/90/10/
015020/20121105/90544/770/1220/10/
015020/20121105/90548/770/1000/10/
015020/20121105/90549/770/410/10/
015020/20121105/90557/770/100/20/
015020/20121105/90559/770/100/20/
015020/20121105/90600/768/1770/10/
015020/20121105/90605/769/100/10/
015020/20121105/90613/769/1000/10/
015020/20121105/90614/769/1220/10/
015020/20121105/90615/769/1280/10/
015020/20121105/90618/769/530/10/
015020/20121105/90629/768/130/10/
015020/20121105/90630/769/200/20/
015020/20121105/90631/769/970/20/
015020/20121105/90634/769/1030/10/
015020/20121105/90648/769/130/10/
015020/20121105/90649/769/490/10/
015020/20121105/90653/768/2260/10/
015020/20121105/90653/767/4200/10/
015020/20121105/90653/766/2210/10/
015020/20121105/90653/765/16000/10/
015020/20121105/90653/762/330/10/
015020/20121105/90654/769/1000/20/
015020/20121105/90657/768/200/10/
015020/20121105/90657/762/4780/10/
015020/20121105/90657/761/4700/10/
015020/20121105/90657/760/8270/10/
015020/20121105/90658/760/2000/10/
015020/20121105/90720/765/5010/10/
015020/20121105/90722/765/3500/10/
015020/20121105/90722/763/1310/10/
015020/20121105/90722/761/16430/10/
015020/20121105/90724/761/9600/20/
015020/20121105/90725/761/9160/20/
015020/20121105/90740/768/500/20/
015020/20121105/90740/769/2460/20/
015020/20121105/90740/770/4090/20/
015020/20121105/90740/772/950/20/
015020/20121105/90807/772/2040/20/
015020/20121105/90813/772/960/10/
015020/20121105/90813/764/110/10/
015020/20121105/90813/763/3400/10/
015020/20121105/90901/766/1000/10/
015020/20121105/90903/774/100/20/
015020/20121105/91035/770/120/20/
015020/20121105/91043/770/100/20/
015020/20121105/91048/770/1020/20/
015020/20121105/91049/769/110/10/
015020/20121105/91050/770/100/20/
015020/20121105/91101/769/1000/10/
015020/20121105/91101/769/1000/10/
015020/20121105/91102/769/740/10/
015020/20121105/91108/768/600/10/
015020/20121105/91108/767/1960/10/
015020/20121105/91115/767/1650/10/
015020/20121105/91119/769/260/20/
015020/20121105/91119/769/650/10/
015020/20121105/91131/769/170/20/
015020/20121105/91140/767/1360/10/
015020/20121105/91147/767/1640/20/
015020/20121105/91147/769/1170/20/
015020/20121105/91211/769/1720/20/
015020/20121105/91227/769/5050/20/
015020/20121105/91254/767/720/10/
015020/20121105/91308/769/3000/20/
015020/20121105/91308/769/880/20/
015020/20121105/91308/770/120/20/
015020/20121105/91344/770/1260/20/
015020/20121105/91346/770/910/10/
015020/20121105/91349/769/200/10/
015020/20121105/91405/769/1530/10/
015020/20121105/91406/768/2010/10/
015020/20121105/91406/767/2750/10/
015020/20121105/91437/769/1100/10/
015020/20121105/91437/768/1000/10/
015020/20121105/91437/768/100/10/
015020/20121105/91438/768/3500/10/
015020/20121105/91438/768/1350/10/
015020/20121105/91440/768/500/10/
015020/20121105/91450/769/1700/20/
015020/20121105/91454/769/300/10/
015020/20121105/91454/768/510/10/
015020/20121105/91504/770/290/10/
015020/20121105/91512/768/4440/10/
015020/20121105/91512/767/5120/10/
015020/20121105/91555/769/1000/10/
015020/20121105/91557/768/4300/10/
015020/20121105/91557/767/1840/10/
015020/20121105/91622/769/120/10/
015020/20121105/91654/770/2900/20/
015020/20121105/91751/770/140/10/
015020/20121105/91751/769/110/10/
015020/20121105/91809/769/1150/10/
015020/20121105/91814/769/2390/10/
015020/20121105/91838/770/500/10/
015020/20121105/91838/769/1800/10/
015020/20121105/91844/769/280/10/
015020/20121105/91844/768/1150/10/
015020/20121105/91855/768/5950/10/
015020/20121105/91904/767/3090/10/
015020/20121105/91914/768/130/20/
015020/20121105/91915/767/3450/10/
015020/20121105/91935/767/7200/10/
015020/20121105/91937/767/2800/20/
015020/20121105/91945/767/4900/10/
015020/20121105/91956/766/3000/10/
015020/20121105/92009/767/6030/20/
015020/20121105/92016/766/930/10/
015020/20121105/92044/767/500/10/
015020/20121105/92048/767/200/20/
015020/20121105/92138/768/1070/10/
015020/20121105/92209/771/12470/20/
015020/20121105/92222/772/2400/20/
015020/20121105/92223/773/9820/20/
015020/20121105/92236/772/90/20/
015020/20121105/92258/773/90/10/
015020/20121105/92258/771/2230/10/
015020/20121105/92320/777/1850/20/
015020/20121105/92322/777/1000/10/
015020/20121105/92324/777/1810/10/
015020/20121105/92402/773/4020/10/
015020/20121105/92402/773/1670/20/
015020/20121105/92419/775/100/10/
015020/20121105/92433/775/330/10/
015020/20121105/92451/775/170/20/
015020/20121105/92453/775/3600/10/
015020/20121105/92505/775/1200/10/
015020/20121105/92506/774/100/10/
015020/20121105/92544/774/5420/10/
015020/20121105/92546/774/200/20/
015020/20121105/92609/774/2000/20/
015020/20121105/92609/774/6030/20/
015020/20121105/92633/774/1540/10/
015020/20121105/92633/773/3470/10/
015020/20121105/92658/774/570/20/
015020/20121105/92701/773/510/10/
015020/20121105/92707/773/720/10/
015020/20121105/92710/773/3350/10/
015020/20121105/92737/773/1170/10/
015020/20121105/92739/773/1570/10/
015020/20121105/92739/772/11430/10/
015020/20121105/92748/773/6140/10/
015020/20121105/92748/772/1860/10/
015020/20121105/92754/772/310/10/
015020/20121105/92754/771/1500/10/
015020/20121105/92754/770/7720/10/
015020/20121105/92820/769/340/10/
015020/20121105/92832/770/160/10/
015020/20121105/92941/770/1200/10/
015020/20121105/93010/769/300/10/
015020/20121105/93023/769/100/10/
015020/20121105/93056/770/3790/20/
015020/20121105/93058/770/100/20/
015020/20121105/93102/770/5820/20/
015020/20121105/93124/771/170/10/
015020/20121105/93124/770/4730/10/
015020/20121105/93214/771/100/10/
015020/20121105/93214/770/2030/10/
015020/20121105/93214/769/1070/10/
015020/20121105/93223/769/780/20/
015020/20121105/93223/769/3000/20/
015020/20121105/93250/770/120/10/
015020/20121105/93250/769/1240/10/
015020/20121105/93250/768/2500/10/
015020/20121105/93250/767/1160/10/
015020/20121105/93335/773/210/20/
015020/20121105/93335/774/410/20/
015020/20121105/93335/775/4380/20/
015020/20121105/93411/775/300/20/
015020/20121105/93416/775/500/10/
015020/20121105/93424/775/100/20/
015020/20121105/93424/776/450/20/
015020/20121105/93503/775/610/10/
015020/20121105/93503/773/100/10/
015020/20121105/93503/772/100/10/
015020/20121105/93503/771/5100/10/
015020/20121105/93503/770/1000/10/
015020/20121105/93503/769/690/10/
015020/20121105/93745/772/510/10/
015020/20121105/93745/771/6500/10/
015020/20121105/93745/771/560/20/
015020/20121105/93807/771/110/20/
015020/20121105/93809/771/330/20/
015020/20121105/93906/773/690/20/
015020/20121105/93953/773/160/20/
015020/20121105/94011/774/900/20/
015020/20121105/94012/772/1460/10/
015020/20121105/94012/771/4690/10/
015020/20121105/94012/770/3850/10/
015020/20121105/94039/771/100/10/
015020/20121105/94050/771/120/10/
015020/20121105/94050/770/4270/10/
015020/20121105/94050/769/4500/10/
015020/20121105/94122/769/550/10/
015020/20121105/94122/768/4190/10/
015020/20121105/94122/767/5260/10/
015020/20121105/94127/767/100/10/
015020/20121105/94141/767/1000/10/
015020/20121105/94153/767/100/10/
015020/20121105/94206/767/300/10/
015020/20121105/94317/770/390/20/
015020/20121105/94329/768/870/10/
015020/20121105/94410/768/1390/10/
015020/20121105/94410/767/2700/10/
015020/20121105/94416/767/3970/20/
015020/20121105/94416/767/3370/20/
015020/20121105/94457/768/1510/20/
015020/20121105/94515/769/650/20/
015020/20121105/94515/770/3480/20/
015020/20121105/94643/771/3060/10/
015020/20121105/94647/771/1700/10/
015020/20121105/94647/770/5560/10/
015020/20121105/94733/771/100/10/
015020/20121105/94743/770/200/10/
015020/20121105/94754/770/2020/10/
015020/20121105/94754/769/920/10/
015020/20121105/94809/769/380/10/
015020/20121105/94853/770/300/10/
015020/20121105/94907/770/590/20/
015020/20121105/95004/771/100/10/
015020/20121105/95004/770/3900/10/
015020/20121105/95034/771/890/10/
015020/20121105/95051/771/300/10/
015020/20121105/95109/771/120/10/
015020/20121105/95109/771/1310/20/
015020/20121105/95120/771/720/20/
015020/20121105/95152/772/1330/20/
015020/20121105/95206/771/1260/20/
015020/20121105/95207/771/3770/20/
015020/20121105/95248/771/920/10/
015020/20121105/95248/770/640/10/
015020/20121105/95345/771/1300/10/
015020/20121105/95345/770/8710/10/
015020/20121105/95506/770/290/10/
015020/20121105/95525/771/210/10/
015020/20121105/95601/772/780/10/
015020/20121105/95601/771/4620/10/
015020/20121105/95710/773/1800/20/
015020/20121105/95759/771/6610/10/
015020/20121105/95759/770/3930/10/
015020/20121105/95759/769/7460/10/
015020/20121105/95950/771/520/10/
015020/20121105/95955/771/2270/10/
015020/20121105/95955/770/5620/10/
015020/20121105/95955/769/5660/10/
015020/20121105/100036/770/310/10/
015020/20121105/100059/770/580/10/
015020/20121105/100141/773/1290/20/
015020/20121105/100141/774/1440/20/
015020/20121105/100141/775/2760/20/
015020/20121105/100148/775/1140/10/
015020/20121105/100155/775/1860/20/
015020/20121105/100155/776/2020/20/
015020/20121105/100159/776/1100/10/
015020/20121105/100306/778/1080/20/
015020/20121105/100309/778/500/20/
015020/20121105/100314/778/240/20/
015020/20121105/100314/779/320/20/
015020/20121105/100326/778/670/10/
015020/20121105/100328/778/360/20/
015020/20121105/100328/779/580/20/
015020/20121105/100333/779/400/10/
015020/20121105/100403/778/210/20/
015020/20121105/100425/778/580/20/
015020/20121105/100434/778/100/20/
015020/20121105/100434/778/1110/20/
015020/20121105/100449/778/970/10/
015020/20121105/100534/778/1730/20/
015020/20121105/100544/778/2500/10/
015020/20121105/100544/780/640/20/
015020/20121105/100557/781/1470/20/
015020/20121105/100617/782/1000/20/
015020/20121105/100619/782/210/20/
015020/20121105/100622/782/500/10/
015020/20121105/100628/782/90/20/
015020/20121105/100633/782/940/20/
015020/20121105/100633/783/1060/20/
015020/20121105/100653/781/240/10/
015020/20121105/100659/781/300/20/
015020/20121105/100659/783/1500/20/
015020/20121105/100707/783/240/20/
015020/20121105/100707/784/1000/20/
015020/20121105/100718/783/260/10/
015020/20121105/100725/781/1730/10/
015020/20121105/100725/783/1890/20/
015020/20121105/100732/784/660/20/
015020/20121105/100734/784/1000/20/
015020/20121105/100737/784/500/20/
015020/20121105/100737/784/440/20/
015020/20121105/100739/784/400/20/
015020/20121105/100744/784/200/20/
015020/20121105/100745/784/400/20/
015020/20121105/100746/784/710/20/
015020/20121105/100746/784/100/10/
015020/20121105/100750/784/100/10/
015020/20121105/100751/785/400/20/
015020/20121105/100752/784/90/10/
015020/20121105/100757/783/2000/10/
015020/20121105/100759/783/18420/10/
015020/20121105/100801/784/410/20/
015020/20121105/100802/783/190/10/
015020/20121105/100803/783/6700/10/
015020/20121105/100809/782/2000/10/
015020/20121105/100809/781/4270/10/
015020/20121105/100813/781/3730/20/
015020/20121105/100814/783/4500/20/
015020/20121105/100818/782/3000/10/
015020/20121105/100820/782/180/10/
015020/20121105/100829/783/1050/20/
015020/20121105/100829/782/1490/10/
015020/20121105/100834/781/250/10/
015020/20121105/100836/781/250/20/
015020/20121105/100836/782/1760/20/
015020/20121105/100856/782/2510/20/
015020/20121105/100858/782/440/10/
015020/20121105/100901/782/100/10/
015020/20121105/100903/783/1310/20/
015020/20121105/100905/783/1000/20/
015020/20121105/100905/783/100/20/
015020/20121105/100908/783/1310/20/
015020/20121105/100920/783/500/10/
015020/20121105/100926/783/130/10/
015020/20121105/100935/783/1060/10/
015020/20121105/100941/783/540/20/
015020/20121105/100948/784/850/20/
015020/20121105/100948/784/2850/10/
015020/20121105/100948/783/2050/10/
015020/20121105/100957/783/2020/10/
015020/20121105/101019/784/1080/20/
015020/20121105/101025/785/1110/20/
015020/20121105/101029/786/1950/20/
015020/20121105/101044/786/350/10/
015020/20121105/101046/786/180/20/
015020/20121105/101046/786/470/10/
015020/20121105/101046/787/130/20/
015020/20121105/101052/787/860/20/
015020/20121105/101054/787/280/20/
015020/20121105/101056/788/4020/20/
015020/20121105/101059/788/200/20/
015020/20121105/101101/788/1870/20/
015020/20121105/101104/788/500/10/
015020/20121105/101111/788/1190/10/
015020/20121105/101111/787/1410/10/
015020/20121105/101113/788/500/10/
015020/20121105/101114/789/1350/20/
015020/20121105/101115/789/2000/10/
015020/20121105/101115/790/500/20/
015020/20121105/101121/790/1290/20/
015020/20121105/101122/790/5220/20/
015020/20121105/101124/790/1000/10/
015020/20121105/101125/791/670/20/
015020/20121105/101133/791/90/20/
015020/20121105/101133/791/310/20/
015020/20121105/101134/791/360/20/
015020/20121105/101146/792/500/20/
015020/20121105/101147/792/100/10/
015020/20121105/101147/792/100/10/
015020/20121105/101151/792/300/10/
015020/20121105/101152/792/700/20/
015020/20121105/101154/793/1000/20/
015020/20121105/101155/792/2100/10/
015020/20121105/101155/792/1300/20/
015020/20121105/101155/794/3700/20/
015020/20121105/101158/794/1460/20/
015020/20121105/101158/794/290/20/
015020/20121105/101200/794/2840/10/
015020/20121105/101200/794/500/10/
015020/20121105/101202/795/2410/20/
015020/20121105/101203/794/120/10/
015020/20121105/101204/794/380/20/
015020/20121105/101206/794/4620/10/
015020/20121105/101209/794/10000/20/
015020/20121105/101219/794/300/20/
015020/20121105/101220/793/300/20/
015020/20121105/101220/794/700/20/
015020/20121105/101226/794/180/20/
015020/20121105/101228/793/2710/20/
015020/20121105/101230/792/300/10/
015020/20121105/101232/791/5020/10/
015020/20121105/101234/792/200/20/
015020/20121105/101234/791/150/10/
015020/20121105/101238/791/180/20/
015020/20121105/101241/791/240/10/
015020/20121105/101248/791/2710/20/
015020/20121105/101249/791/2400/20/
015020/20121105/101250/791/120/10/
015020/20121105/101250/787/10000/10/
015020/20121105/101253/787/1560/20/
015020/20121105/101307/787/4000/10/
015020/20121105/101307/787/2220/20/
015020/20121105/101307/786/2950/10/
015020/20121105/101312/788/300/10/
015020/20121105/101313/788/700/10/
015020/20121105/101322/787/380/20/
015020/20121105/101329/787/620/20/
015020/20121105/101335/787/4380/10/
015020/20121105/101339/787/510/20/
015020/20121105/101344/787/3550/10/
015020/20121105/101347/786/5370/10/
015020/20121105/101400/785/1900/10/
015020/20121105/101401/785/10000/10/
015020/20121105/101401/786/100/20/
015020/20121105/101402/785/1500/10/
015020/20121105/101405/785/1310/10/
015020/20121105/101406/785/5000/10/
015020/20121105/101414/785/500/10/
015020/20121105/101414/785/5660/10/
015020/20121105/101416/785/1100/10/
015020/20121105/101419/785/4580/10/
015020/20121105/101423/785/1550/10/
015020/20121105/101424/785/1500/10/
015020/20121105/101424/785/640/10/
015020/20121105/101426/785/2800/10/
015020/20121105/101427/785/730/10/
015020/20121105/101428/785/3300/10/
015020/20121105/101435/784/400/10/
015020/20121105/101448/784/2320/10/
015020/20121105/101455/783/3530/10/
015020/20121105/101505/782/630/10/
015020/20121105/101505/781/1300/10/
015020/20121105/101510/780/1210/10/
015020/20121105/101515/781/1000/10/
015020/20121105/101523/781/1000/10/
015020/20121105/101523/781/1500/10/
015020/20121105/101631/782/1020/20/
015020/20121105/101631/783/4250/20/
015020/20121105/101633/783/4370/20/
015020/20121105/101734/783/990/10/
015020/20121105/101734/783/990/10/
015020/20121105/101741/785/4320/20/
015020/20121105/101800/785/160/20/
015020/20121105/101817/785/300/20/
015020/20121105/101828/785/4480/20/
015020/20121105/101837/785/1070/10/
015020/20121105/101837/783/430/10/
015020/20121105/101845/783/2480/10/
015020/20121105/101913/781/520/10/
015020/20121105/101913/780/480/10/
015020/20121105/101921/780/1390/10/
015020/20121105/102020/780/110/10/
015020/20121105/102024/780/390/10/
015020/20121105/102024/779/200/10/
015020/20121105/102024/778/1430/10/
015020/20121105/102032/778/570/10/
015020/20121105/102032/777/1300/10/
015020/20121105/102032/776/770/10/
015020/20121105/102052/777/1010/10/
015020/20121105/102104/778/90/20/
015020/20121105/102117/776/1210/10/
015020/20121105/102133/776/1400/10/
015020/20121105/102139/776/1380/10/
015020/20121105/102139/776/500/20/
015020/20121105/102148/776/300/20/
015020/20121105/102150/776/1000/20/
015020/20121105/102217/777/510/20/
015020/20121105/102239/778/510/20/
015020/20121105/102246/778/1300/20/
015020/20121105/102251/778/1320/20/
015020/20121105/102326/779/210/20/
015020/20121105/102433/778/110/10/
015020/20121105/102435/778/170/10/
015020/20121105/102526/778/3570/10/
015020/20121105/102533/778/1000/10/
015020/20121105/102536/781/300/20/
015020/20121105/102658/778/3230/10/
015020/20121105/102708/778/880/10/
015020/20121105/102708/777/300/10/
015020/20121105/102708/776/3550/10/
015020/20121105/102800/778/300/20/
015020/20121105/102922/776/1820/10/
015020/20121105/102922/775/5620/10/
015020/20121105/102922/774/5310/10/
015020/20121105/102922/773/11530/10/
015020/20121105/102922/772/370/10/
015020/20121105/102922/771/5240/10/
015020/20121105/102922/770/5780/10/
015020/20121105/102922/769/1060/10/
015020/20121105/102922/768/2820/10/
015020/20121105/102944/768/150/10/
015020/20121105/102956/770/400/10/
015020/20121105/103002/770/100/20/
015020/20121105/103009/770/510/20/
015020/20121105/103011/770/280/20/
015020/20121105/103059/777/210/20/
015020/20121105/103136/772/1520/10/
015020/20121105/103246/773/1500/10/
015020/20121105/103246/772/4060/10/
015020/20121105/103246/771/4390/10/
015020/20121105/103246/770/1980/10/
015020/20121105/103246/769/16600/10/
015020/20121105/103246/768/11070/10/
015020/20121105/103246/767/10400/10/
015020/20121105/103526/776/240/20/
015020/20121105/103527/775/300/10/
015020/20121105/103629/775/800/10/
015020/20121105/103703/776/200/20/
015020/20121105/103703/777/6500/20/
015020/20121105/103704/777/1990/10/
015020/20121105/103747/777/200/20/
015020/20121105/103835/775/210/20/
015020/20121105/103900/773/150/10/
015020/20121105/103938/773/490/10/
015020/20121105/103940/772/3470/10/
015020/20121105/103940/772/1300/20/
015020/20121105/103943/773/270/20/
015020/20121105/103944/773/290/20/
015020/20121105/104013/771/90/10/
015020/20121105/104031/771/1320/10/
015020/20121105/104047/771/1880/10/
015020/20121105/104148/770/510/10/
015020/20121105/104153/770/1450/10/
015020/20121105/104157/770/2760/10/
015020/20121105/104157/770/2240/20/
015020/20121105/104208/770/500/10/
015020/20121105/104217/770/540/10/
015020/20121105/104223/770/300/20/
015020/20121105/104235/770/470/20/
015020/20121105/104247/770/320/10/
015020/20121105/104247/769/2010/10/
015020/20121105/104247/768/2530/10/
015020/20121105/104247/767/5540/10/
015020/20121105/104319/773/190/20/
015020/20121105/104409/770/130/10/
015020/20121105/104431/769/1630/10/
015020/20121105/104447/769/290/10/
015020/20121105/104450/769/3920/10/
015020/20121105/104505/769/500/10/
015020/20121105/104511/769/1250/10/
015020/20121105/104511/768/1770/10/
015020/20121105/104511/767/160/10/
015020/20121105/104633/769/2240/10/
015020/20121105/104746/772/110/20/
015020/20121105/104755/772/150/20/
015020/20121105/104759/769/2220/10/
015020/20121105/104836/769/4950/10/
015020/20121105/104846/769/320/20/
015020/20121105/104949/772/210/20/
015020/20121105/105014/770/3540/10/
015020/20121105/105120/773/90/20/
015020/20121105/105139/773/410/20/
015020/20121105/105238/774/1740/20/
015020/20121105/105513/774/1520/10/
015020/20121105/105551/775/490/20/
015020/20121105/105559/775/500/10/
015020/20121105/105703/773/740/10/
015020/20121105/105703/772/300/10/
015020/20121105/105703/771/230/10/
015020/20121105/105846/771/380/20/
015020/20121105/105854/771/300/20/
015020/20121105/105857/771/170/20/
015020/20121105/110135/771/1020/10/
015020/20121105/110238/774/500/20/
015020/20121105/110244/774/190/10/
015020/20121105/110244/771/1400/10/
015020/20121105/110437/772/1000/10/
015020/20121105/110437/771/1200/10/
015020/20121105/110539/771/100/10/
015020/20121105/110552/771/1620/10/
015020/20121105/110614/771/1950/10/
015020/20121105/110623/770/5870/10/
015020/20121105/110623/769/6660/10/
015020/20121105/110817/769/3030/10/
015020/20121105/110828/774/130/20/
015020/20121105/110912/770/1030/10/
015020/20121105/110912/769/1160/10/
015020/20121105/110912/768/14700/10/
015020/20121105/110912/767/4570/10/
015020/20121105/111105/768/1430/10/
015020/20121105/111105/767/1130/10/
015020/20121105/111146/767/3420/10/
015020/20121105/111227/767/1000/10/
015020/20121105/111239/767/660/10/
015020/20121105/111239/769/1000/20/
015020/20121105/111248/769/2000/10/
015020/20121105/111310/767/330/10/
015020/20121105/111320/768/100/10/
015020/20121105/111320/767/1100/10/
015020/20121105/111337/767/260/10/
015020/20121105/111613/768/110/10/
015020/20121105/111613/767/3720/10/
015020/20121105/111634/767/130/20/
015020/20121105/111635/767/300/20/
015020/20121105/111635/770/100/20/
015020/20121105/111652/770/100/20/
015020/20121105/111728/770/740/20/
015020/20121105/111750/770/2000/20/
015020/20121105/111834/770/1010/20/
015020/20121105/111841/770/880/10/
015020/20121105/111858/771/100/20/
015020/20121105/111909/771/100/20/
015020/20121105/111915/771/500/20/
015020/20121105/111918/770/2280/10/
015020/20121105/111935/770/100/10/
015020/20121105/111942/771/290/20/
015020/20121105/111942/770/1440/10/
015020/20121105/112027/770/2000/20/
015020/20121105/112039/770/100/20/
015020/20121105/112118/770/5710/20/
015020/20121105/112453/771/1010/10/
015020/20121105/112502/771/130/10/
015020/20121105/112513/770/250/10/
015020/20121105/112545/770/970/10/
015020/20121105/112617/768/4360/20/
015020/20121105/112634/768/200/20/
015020/20121105/112652/767/3010/10/
015020/20121105/112709/767/900/10/
015020/20121105/112712/767/2500/10/
015020/20121105/112733/767/500/10/
015020/20121105/112735/767/2830/10/
015020/20121105/112740/767/260/20/
015020/20121105/112810/767/2300/10/
015020/20121105/112824/767/14020/20/
015020/20121105/112901/767/2000/10/
015020/20121105/112939/767/500/10/
015020/20121105/113215/768/1340/10/
015020/20121105/113215/767/7170/10/
015020/20121105/113333/767/2100/10/
015020/20121105/113347/767/200/10/
015020/20121105/113406/767/130/10/
015020/20121105/113411/767/2250/10/
015020/20121105/113417/770/240/20/
015020/20121105/113417/771/260/20/
015020/20121105/113622/771/90/20/
015020/20121105/113633/767/8770/10/
015020/20121105/113700/767/2560/20/
015020/20121105/113702/767/3670/20/
015020/20121105/113724/767/1330/10/
015020/20121105/113728/766/3050/10/
015020/20121105/113731/767/5000/20/
015020/20121105/113734/766/2000/10/
015020/20121105/113741/767/5190/20/
015020/20121105/113743/767/540/20/
015020/20121105/113755/766/270/10/
015020/20121105/113802/767/940/20/
015020/20121105/113803/767/1000/20/
015020/20121105/113817/767/1000/20/
015020/20121105/113825/767/1400/10/
015020/20121105/113826/767/1000/20/
015020/20121105/113832/767/4010/20/
015020/20121105/113833/767/500/20/
015020/20121105/113834/767/1000/20/
015020/20121105/113837/766/10000/10/
015020/20121105/113844/767/1000/20/
015020/20121105/113905/767/1280/20/
015020/20121105/113916/767/4000/20/
015020/20121105/113920/767/180/20/
015020/20121105/113922/767/4270/20/
015020/20121105/113932/767/960/10/
015020/20121105/113946/767/5000/20/
015020/20121105/114028/768/240/10/
015020/20121105/114107/770/2030/20/
015020/20121105/114144/768/180/10/
015020/20121105/114221/769/150/10/
015020/20121105/114255/770/900/20/
015020/20121105/114315/771/1000/20/
015020/20121105/114322/771/280/20/
015020/20121105/114408/771/90/20/
015020/20121105/114437/771/500/20/
015020/20121105/114513/770/200/10/
015020/20121105/114540/771/170/20/
015020/20121105/114633/771/2310/20/
015020/20121105/114648/771/100/20/
015020/20121105/114653/770/1000/10/
015020/20121105/114715/770/11790/10/
015020/20121105/114724/768/10000/10/
015020/20121105/114741/767/210/10/
015020/20121105/114750/771/200/20/
015020/20121105/114829/771/300/20/
015020/20121105/114901/770/2000/20/
015020/20121105/115038/771/1040/10/
015020/20121105/115058/771/280/20/
015020/20121105/115105/771/560/10/
015020/20121105/115145/772/110/20/
015020/20121105/115333/770/2660/10/
015020/20121105/115342/770/2000/10/
015020/20121105/115502/772/1060/20/
015020/20121105/115602/772/1490/20/
015020/20121105/115703/772/820/20/
015020/20121105/115801/771/90/10/
015020/20121105/115805/772/2700/20/
015020/20121105/115811/771/550/10/
015020/20121105/115854/770/3220/10/
015020/20121105/115923/770/500/20/
015020/20121105/115958/771/90/20/
015020/20121105/115958/772/110/20/
015020/20121105/120105/771/200/20/
015020/20121105/120115/770/3440/10/
015020/20121105/120115/769/370/10/
015020/20121105/120147/771/200/20/
015020/20121105/120209/769/2090/10/
015020/20121105/120259/769/200/20/
015020/20121105/120307/769/210/20/
015020/20121105/120332/768/5000/10/
015020/20121105/120510/769/1490/10/
015020/20121105/120615/769/4700/10/
015020/20121105/120906/770/1010/20/
015020/20121105/120939/771/980/20/
015020/20121105/121020/769/300/10/
015020/20121105/121132/770/500/10/
015020/20121105/121316/770/790/10/
015020/20121105/121321/770/740/10/
015020/20121105/121346/770/100/10/
015020/20121105/121429/770/10200/10/
015020/20121105/121516/770/3610/10/
015020/20121105/121516/768/390/10/
015020/20121105/121703/768/90/20/
015020/20121105/121725/768/110/20/
015020/20121105/121725/770/90/20/
015020/20121105/122011/769/1020/20/
015020/20121105/122041/769/2000/20/
015020/20121105/122308/769/1030/10/
015020/20121105/122421/769/100/10/
015020/20121105/122444/769/5290/10/
015020/20121105/122514/769/170/20/
015020/20121105/122520/768/120/10/
015020/20121105/122532/769/100/20/
015020/20121105/122554/769/140/10/
015020/20121105/122557/768/3090/10/
015020/20121105/122620/770/100/20/
015020/20121105/122659/768/4900/10/
015020/20121105/122659/767/9700/10/
015020/20121105/122659/766/14480/10/
015020/20121105/122720/767/1970/10/
015020/20121105/122720/770/4750/20/
015020/20121105/122720/771/2760/20/
015020/20121105/122747/770/370/10/
015020/20121105/123024/771/260/20/
015020/20121105/123139/771/200/20/
015020/20121105/123244/771/200/20/
015020/20121105/123558/771/10000/20/
015020/20121105/123606/771/1320/20/
015020/20121105/123609/771/3130/20/
015020/20121105/123610/771/1000/20/
015020/20121105/123611/771/6680/20/
015020/20121105/123612/771/200/20/
015020/20121105/123635/772/1020/20/
015020/20121105/123642/772/1250/10/
015020/20121105/123709/774/580/20/
015020/20121105/123709/775/470/20/
015020/20121105/123801/775/580/20/
015020/20121105/123902/772/1260/10/
015020/20121105/123902/771/990/10/
015020/20121105/123902/770/3920/10/
015020/20121105/123916/775/1100/20/
015020/20121105/123937/775/240/20/
015020/20121105/123938/775/1260/10/
015020/20121105/124017/775/100/20/
015020/20121105/124017/776/10200/20/
015020/20121105/124018/776/5200/10/
015020/20121105/124039/776/200/10/
015020/20121105/124214/775/830/20/
015020/20121105/124442/771/200/10/
015020/20121105/124509/771/1400/10/
015020/20121105/124515/771/500/20/
015020/20121105/124532/770/4130/10/
015020/20121105/124729/770/90/20/
015020/20121105/124737/769/100/10/
015020/20121105/124828/769/2430/10/
015020/20121105/124840/770/220/20/
015020/20121105/124840/770/830/20/
015020/20121105/125120/771/110/10/
015020/20121105/125148/771/3970/10/
015020/20121105/125211/771/1030/20/
015020/20121105/125217/770/2390/10/
015020/20121105/125218/769/570/10/
015020/20121105/125236/769/2500/10/
015020/20121105/125413/769/130/10/
015020/20121105/125414/770/1610/20/
015020/20121105/125449/772/5000/20/
015020/20121105/125449/773/550/20/
015020/20121105/125658/771/250/10/
015020/20121105/125700/771/470/10/
015020/20121105/125735/771/3010/10/
015020/20121105/125746/771/90/10/
015020/20121105/125843/771/120/10/
015020/20121105/125843/770/540/10/
015020/20121105/125852/770/1000/20/
015020/20121105/125906/769/100/10/
015020/20121105/125931/769/1460/10/
015020/20121105/125936/770/390/20/
015020/20121105/130137/770/1050/10/
015020/20121105/130137/769/1380/10/
015020/20121105/130348/770/2010/10/
015020/20121105/130446/770/7000/10/
015020/20121105/130811/772/210/20/
015020/20121105/130835/772/100/20/
015020/20121105/130901/772/880/20/
015020/20121105/131006/772/5110/10/
015020/20121105/131140/771/5000/10/
015020/20121105/131255/771/1000/10/
015020/20121105/131458/771/1000/10/
015020/20121105/131521/771/3700/10/
015020/20121105/131545/771/400/10/
015020/20121105/131712/773/4110/20/
015020/20121105/131732/773/1000/20/
015020/20121105/131732/774/3000/20/
015020/20121105/131739/774/1000/20/
015020/20121105/131754/774/100/20/
015020/20121105/131841/774/100/20/
015020/20121105/131852/775/1400/20/
015020/20121105/131906/776/160/20/
015020/20121105/131912/776/100/20/
015020/20121105/131920/776/2000/20/
015020/20121105/131956/775/120/10/
015020/20121105/132002/776/700/20/
015020/20121105/132021/775/2050/10/
015020/20121105/132037/775/540/10/
015020/20121105/132108/776/1010/20/
015020/20121105/132115/776/1000/20/
015020/20121105/132125/776/1000/20/
015020/20121105/132136/777/1670/20/
015020/20121105/132155/778/1010/20/
015020/20121105/132205/778/100/20/
015020/20121105/132213/778/140/20/
015020/20121105/132244/778/360/10/
015020/20121105/132246/778/200/10/
015020/20121105/132252/778/90/10/
015020/20121105/132303/779/720/20/
015020/20121105/132303/780/2230/20/
015020/20121105/132334/778/4000/10/
015020/20121105/132340/778/150/10/
015020/20121105/132411/778/1000/10/
015020/20121105/132417/778/940/10/
015020/20121105/132419/778/1000/10/
015020/20121105/132420/778/200/10/
015020/20121105/132449/777/1000/10/
015020/20121105/132449/776/880/10/
015020/20121105/132453/776/2000/10/
015020/20121105/132515/776/3700/10/
015020/20121105/132523/776/1000/10/
015020/20121105/132542/776/600/10/
015020/20121105/132542/775/5400/10/
015020/20121105/132802/777/1440/20/
015020/20121105/132814/778/1000/20/
015020/20121105/132821/778/1000/20/
015020/20121105/132828/777/600/10/
015020/20121105/132832/777/1000/20/
015020/20121105/132836/777/2100/20/
015020/20121105/132836/778/1000/20/
015020/20121105/133039/777/600/20/
015020/20121105/133111/777/1000/20/
015020/20121105/133141/776/600/10/
015020/20121105/133144/776/100/10/
015020/20121105/133157/776/500/10/
015020/20121105/133229/775/2060/10/
015020/20121105/133232/776/280/20/
015020/20121105/133241/777/1020/20/
015020/20121105/133247/777/100/20/
015020/20121105/133258/777/300/20/
015020/20121105/133306/777/200/20/
015020/20121105/133309/776/5000/10/
015020/20121105/133313/776/500/10/
015020/20121105/133314/776/1600/10/
015020/20121105/133316/776/870/10/
015020/20121105/133316/776/900/10/
015020/20121105/133316/776/420/10/
015020/20121105/133316/775/2020/10/
015020/20121105/133317/775/510/20/
015020/20121105/133322/776/1000/10/
015020/20121105/133328/776/100/10/
015020/20121105/133341/776/390/10/
015020/20121105/133341/776/500/20/
015020/20121105/133351/776/1700/20/
015020/20121105/133430/775/100/10/
015020/20121105/133430/774/4000/10/
015020/20121105/133430/773/2420/10/
015020/20121105/133436/773/3000/10/
015020/20121105/133522/773/1490/10/
015020/20121105/133532/773/90/10/
015020/20121105/133532/772/3910/10/
015020/20121105/133636/772/1010/10/
015020/20121105/133843/773/780/10/
015020/20121105/133843/772/6370/10/
015020/20121105/133843/771/5950/10/
015020/20121105/133928/772/300/10/
015020/20121105/133955/771/1140/10/
015020/20121105/134239/771/10000/10/
015020/20121105/134437/774/340/20/
015020/20121105/134510/772/290/10/
015020/20121105/134510/770/490/10/
015020/20121105/134520/770/1680/10/
015020/20121105/134536/770/600/10/
015020/20121105/134544/770/200/10/
015020/20121105/134547/770/290/10/
015020/20121105/134648/770/2880/10/
015020/20121105/134849/770/290/10/
015020/20121105/135119/773/510/10/
015020/20121105/135312/774/90/20/
015020/20121105/135440/774/290/20/
015020/20121105/135443/774/1200/20/
015020/20121105/135525/771/500/10/
015020/20121105/135538/771/600/10/
015020/20121105/135606/771/690/10/
015020/20121105/135812/772/350/10/
015020/20121105/140014/772/650/10/
015020/20121105/140210/771/230/10/
015020/20121105/140342/772/1000/20/
015020/20121105/140342/772/140/20/
015020/20121105/140425/772/270/10/
015020/20121105/140425/771/7680/10/
015020/20121105/140509/770/740/10/
015020/20121105/140514/770/140/10/
015020/20121105/140602/772/2500/20/
015020/20121105/140602/774/3420/20/
015020/20121105/140602/775/4080/20/
015020/20121105/140923/773/100/20/
015020/20121105/140957/774/670/20/
015020/20121105/140959/774/3000/20/
015020/20121105/140959/774/1000/20/
015020/20121105/141015/774/200/20/
015020/20121105/141023/774/1280/20/
015020/20121105/141027/775/160/20/
015020/20121105/141037/775/9000/20/
015020/20121105/141042/776/300/20/
015020/20121105/141049/776/2000/20/
015020/20121105/141050/776/2000/20/
015020/20121105/141052/776/250/20/
015020/20121105/141055/776/1250/20/
015020/20121105/141055/776/90/20/
015020/20121105/141137/776/200/20/
015020/20121105/141152/774/2650/10/
015020/20121105/141220/773/1000/10/
015020/20121105/141333/773/500/10/
015020/20121105/141525/775/3000/10/
015020/20121105/141624/775/90/10/
015020/20121105/141634/775/700/10/
015020/20121105/141639/773/2500/10/
015020/20121105/141811/773/2420/10/
015020/20121105/141811/772/500/10/
015020/20121105/141811/771/1130/10/
015020/20121105/141811/770/960/10/
015020/20121105/141848/771/250/10/
015020/20121105/141853/771/520/20/
015020/20121105/141855/771/500/10/
015020/20121105/141857/771/1520/10/
015020/20121105/141936/771/660/10/
015020/20121105/141936/770/10850/10/
015020/20121105/142039/771/4730/10/
015020/20121105/142240/772/3600/10/
015020/20121105/142242/772/500/10/
015020/20121105/142447/772/6000/10/
015020/20121105/142458/772/4900/10/
015020/20121105/142544/772/390/20/
015020/20121105/142544/772/100/20/
015020/20121105/142549/772/100/20/
015020/20121105/142635/771/2060/10/
015020/20121105/142640/770/290/10/
015020/20121105/142700/770/500/10/
015020/20121105/142722/770/7400/10/
015020/20121105/142933/771/150/20/
015020/20121105/142937/770/5300/10/
015020/20121105/142954/770/2100/10/
015020/20121105/142954/769/10860/10/
015020/20121105/142954/768/13770/10/
015020/20121105/142954/767/6070/10/
015020/20121105/142954/766/1200/10/
015020/20121105/142955/766/2240/10/
015020/20121105/142955/765/1990/10/
015020/20121105/142955/765/2000/10/
015020/20121105/143025/766/3620/10/
015020/20121105/143117/770/2010/20/
015020/20121105/143117/771/10840/20/
015020/20121105/143135/771/4020/10/
015020/20121105/143141/771/200/10/
015020/20121105/143142/771/140/10/
015020/20121105/143157/771/100/10/
015020/20121105/143209/771/3330/10/
015020/20121105/143308/771/1790/20/
015020/20121105/143331/771/1000/10/
015020/20121105/143401/771/520/10/
015020/20121105/143401/770/5470/10/
015020/20121105/143401/768/2130/10/
015020/20121105/143401/767/1880/10/
015020/20121105/143430/768/90/10/
015020/20121105/143445/768/740/10/
015020/20121105/143445/767/1260/10/
015020/20121105/143645/772/90/20/
015020/20121105/143702/768/1720/10/
015020/20121105/143707/768/5630/10/
015020/20121105/143707/767/2940/10/
015020/20121105/143708/767/2360/20/
015020/20121105/143804/770/2000/20/
015020/20121105/143807/767/780/10/
015020/20121105/143913/768/230/10/
015020/20121105/144005/769/690/20/
015020/20121105/144019/769/940/10/
015020/20121105/144050/769/160/10/
015020/20121105/144124/769/2110/10/
015020/20121105/144156/769/1000/10/
015020/20121105/144212/769/220/10/
015020/20121105/144246/769/500/20/
015020/20121105/144402/768/1840/10/
015020/20121105/144406/768/1000/10/
015020/20121105/144408/768/130/10/
015020/20121105/144408/768/270/10/
015020/20121105/144413/769/280/20/
015020/20121105/144424/769/790/20/
015020/20121105/144427/769/380/20/
015020/20121105/144440/769/240/20/
015020/20121105/144454/769/2470/10/
015020/20121105/144538/770/560/20/
015020/20121105/144548/770/680/20/
015020/20121105/144602/769/300/10/
015020/20121105/144640/769/5000/10/
015020/20121105/144718/769/510/10/
015020/20121105/144740/770/510/20/
015020/20121105/144810/771/1570/20/
015020/20121105/144814/771/800/10/
015020/20121105/144833/772/330/20/
015020/20121105/144913/770/240/10/
015020/20121105/144919/770/390/10/
015020/20121105/144953/771/110/10/
015020/20121105/144959/771/510/10/
015020/20121105/150000/773/19920/10/
