027710/20130131/90000/1140/11546/20/
027710/20130131/90020/1140/83/20/
027710/20130131/90023/1140/86/20/
027710/20130131/90025/1140/84/20/
027710/20130131/90027/1140/82/20/
027710/20130131/90030/1140/82/20/
027710/20130131/90032/1140/84/20/
027710/20130131/90040/1140/81/20/
027710/20130131/90042/1140/82/20/
027710/20130131/90044/1140/82/20/
027710/20130131/90046/1140/82/20/
027710/20130131/90048/1140/3303/20/
027710/20130131/90049/1140/5045/20/
027710/20130131/90049/1140/4218/20/
027710/20130131/90051/1140/2786/20/
027710/20130131/90052/1140/1039/20/
027710/20130131/90054/1140/86/20/
027710/20130131/90056/1140/89/20/
027710/20130131/90059/1140/82/20/
027710/20130131/90101/1140/109/20/
027710/20130131/90102/1140/109/20/
027710/20130131/90103/1140/107/20/
027710/20130131/90104/1140/107/20/
027710/20130131/90105/1140/92/20/
027710/20130131/90107/1140/1012/20/
027710/20130131/90108/1140/1008/20/
027710/20130131/90109/1140/1006/20/
027710/20130131/90110/1140/1008/20/
027710/20130131/90111/1140/1004/20/
027710/20130131/90112/1140/1004/20/
027710/20130131/90112/1140/469/20/
027710/20130131/90112/1145/535/20/
027710/20130131/90113/1145/1006/20/
027710/20130131/90114/1145/1004/20/
027710/20130131/90114/1140/1002/10/
027710/20130131/90115/1140/1006/20/
027710/20130131/90115/1140/2500/20/
027710/20130131/90115/1140/1004/20/
027710/20130131/90116/1140/1004/20/
027710/20130131/90117/1140/1006/20/
027710/20130131/90117/1140/1002/20/
027710/20130131/90118/1140/1004/20/
027710/20130131/90118/1140/474/20/
027710/20130131/90118/1145/530/20/
027710/20130131/90118/1145/2405/20/
027710/20130131/90119/1145/1006/20/
027710/20130131/90120/1145/1006/20/
027710/20130131/90121/1145/1006/20/
027710/20130131/90122/1145/1004/20/
027710/20130131/90123/1145/1008/20/
027710/20130131/90124/1145/160/20/
027710/20130131/90126/1145/206/20/
027710/20130131/90127/1145/210/20/
027710/20130131/90128/1145/206/20/
027710/20130131/90129/1145/206/20/
027710/20130131/90129/1140/1343/10/
027710/20130131/90129/1140/206/20/
027710/20130131/90131/1140/208/20/
027710/20130131/90131/1140/206/20/
027710/20130131/90132/1140/204/20/
027710/20130131/90133/1140/204/20/
027710/20130131/90133/1140/202/20/
027710/20130131/90134/1140/206/20/
027710/20130131/90135/1140/206/20/
027710/20130131/90135/1140/202/20/
027710/20130131/90136/1140/204/20/
027710/20130131/90136/1140/204/20/
027710/20130131/90137/1140/204/20/
027710/20130131/90137/1140/202/20/
027710/20130131/90138/1140/204/20/
027710/20130131/90138/1140/204/20/
027710/20130131/90139/1140/202/20/
027710/20130131/90142/1140/270/20/
027710/20130131/90142/1140/211/20/
027710/20130131/90142/1140/211/20/
027710/20130131/90143/1140/211/20/
027710/20130131/90143/1140/272/20/
027710/20130131/90144/1140/211/20/
027710/20130131/90144/1140/211/20/
027710/20130131/90144/1140/222/20/
027710/20130131/90145/1140/211/20/
027710/20130131/90145/1140/211/20/
027710/20130131/90146/1140/222/20/
027710/20130131/90146/1140/222/20/
027710/20130131/90147/1140/211/20/
027710/20130131/90147/1140/222/20/
027710/20130131/90147/1140/211/20/
027710/20130131/90148/1140/211/20/
027710/20130131/90148/1140/211/20/
027710/20130131/90149/1140/222/20/
027710/20130131/90149/1140/211/20/
027710/20130131/90149/1140/211/20/
027710/20130131/90150/1140/222/20/
027710/20130131/90150/1140/211/20/
027710/20130131/90151/1140/222/20/
027710/20130131/90151/1140/211/20/
027710/20130131/90151/1140/211/20/
027710/20130131/90152/1140/222/20/
027710/20130131/90152/1140/200/20/
027710/20130131/90152/1140/211/20/
027710/20130131/90153/1140/231/20/
027710/20130131/90153/1140/211/20/
027710/20130131/90154/1140/211/20/
027710/20130131/90154/1140/222/20/
027710/20130131/90154/1140/1410/20/
027710/20130131/90154/1145/211/20/
027710/20130131/90155/1145/211/20/
027710/20130131/90155/1145/222/20/
027710/20130131/90155/1145/211/20/
027710/20130131/90156/1145/211/20/
027710/20130131/90156/1145/222/20/
027710/20130131/90157/1145/211/20/
027710/20130131/90157/1145/222/20/
027710/20130131/90158/1145/211/20/
027710/20130131/90158/1145/211/20/
027710/20130131/90158/1145/222/20/
027710/20130131/90159/1145/211/20/
027710/20130131/90159/1145/211/20/
027710/20130131/90200/1145/211/20/
027710/20130131/90200/1145/222/20/
027710/20130131/90200/1145/211/20/
027710/20130131/90201/1145/211/20/
027710/20130131/90201/1145/211/20/
027710/20130131/90201/1145/222/20/
027710/20130131/90202/1145/211/20/
027710/20130131/90202/1145/222/20/
027710/20130131/90203/1145/211/20/
027710/20130131/90203/1145/211/20/
027710/20130131/90203/1145/222/20/
027710/20130131/90204/1145/222/20/
027710/20130131/90204/1145/211/20/
027710/20130131/90205/1145/211/20/
027710/20130131/90205/1145/222/20/
027710/20130131/90206/1145/211/20/
027710/20130131/90206/1145/211/20/
027710/20130131/90206/1145/222/20/
027710/20130131/90209/1145/102/20/
027710/20130131/90210/1145/105/20/
027710/20130131/90210/1145/94/20/
027710/20130131/90211/1145/105/20/
027710/20130131/90212/1145/114/20/
027710/20130131/90212/1145/94/20/
027710/20130131/90213/1145/169/20/
027710/20130131/90214/1145/94/20/
027710/20130131/90214/1145/94/20/
027710/20130131/90215/1145/105/20/
027710/20130131/90216/1145/94/20/
027710/20130131/90217/1145/105/20/
027710/20130131/90217/1145/94/20/
027710/20130131/90218/1145/105/20/
027710/20130131/90219/1145/105/20/
027710/20130131/90220/1145/105/20/
027710/20130131/90221/1145/105/20/
027710/20130131/90221/1145/94/20/
027710/20130131/90223/1145/116/20/
027710/20130131/90224/1140/3069/10/
027710/20130131/90226/1145/116/20/
027710/20130131/90228/1145/108/20/
027710/20130131/90228/1145/104/20/
027710/20130131/90229/1145/106/20/
027710/20130131/90230/1145/104/20/
027710/20130131/90230/1145/104/20/
027710/20130131/90231/1145/106/20/
027710/20130131/90232/1145/106/20/
027710/20130131/90233/1145/104/20/
027710/20130131/90233/1145/106/20/
027710/20130131/90234/1145/104/20/
027710/20130131/90234/1145/102/20/
027710/20130131/90235/1145/104/20/
027710/20130131/90235/1145/102/20/
027710/20130131/90236/1145/106/20/
027710/20130131/90237/1145/104/20/
027710/20130131/90237/1145/102/20/
027710/20130131/90237/1145/102/20/
027710/20130131/90238/1145/104/20/
027710/20130131/90238/1145/102/20/
027710/20130131/90238/1145/102/20/
027710/20130131/90239/1145/104/20/
027710/20130131/90239/1145/102/20/
027710/20130131/90240/1145/104/20/
027710/20130131/90240/1145/102/20/
027710/20130131/90241/1145/104/20/
027710/20130131/90241/1145/104/20/
027710/20130131/90242/1145/105/20/
027710/20130131/90242/1145/102/20/
027710/20130131/90243/1145/102/20/
027710/20130131/90243/1145/104/20/
027710/20130131/90244/1145/104/20/
027710/20130131/90244/1145/102/20/
027710/20130131/90245/1145/104/20/
027710/20130131/90245/1145/104/20/
027710/20130131/90246/1145/104/20/
027710/20130131/90247/1145/104/20/
027710/20130131/90247/1145/102/20/
027710/20130131/90248/1145/106/20/
027710/20130131/90252/1145/133/20/
027710/20130131/90255/1145/81/20/
027710/20130131/90258/1145/82/20/
027710/20130131/90301/1145/84/20/
027710/20130131/90303/1145/82/20/
027710/20130131/90306/1145/271/20/
027710/20130131/90308/1145/84/20/
027710/20130131/90311/1145/82/20/
027710/20130131/90313/1145/82/20/
027710/20130131/90313/1145/4002/20/
027710/20130131/90316/1145/1029/20/
027710/20130131/90317/1145/90/20/
027710/20130131/90318/1145/1004/20/
027710/20130131/90319/1145/1008/20/
027710/20130131/90320/1145/5006/20/
027710/20130131/90320/1145/1002/20/
027710/20130131/90321/1145/602/20/
027710/20130131/90323/1145/114/20/
027710/20130131/90324/1145/106/20/
027710/20130131/90324/1145/102/20/
027710/20130131/90325/1145/106/20/
027710/20130131/90326/1145/106/20/
027710/20130131/90326/1145/100/20/
027710/20130131/90327/1145/106/20/
027710/20130131/90327/1145/102/20/
027710/20130131/90328/1145/106/20/
027710/20130131/90329/1145/106/20/
027710/20130131/90329/1145/102/20/
027710/20130131/90330/1145/502/20/
027710/20130131/90332/1145/159/20/
027710/20130131/90333/1145/133/20/
027710/20130131/90334/1145/144/20/
027710/20130131/90335/1145/133/20/
027710/20130131/90336/1145/133/20/
027710/20130131/90337/1145/133/20/
027710/20130131/90338/1145/133/20/
027710/20130131/90339/1145/144/20/
027710/20130131/90339/1145/122/20/
027710/20130131/90340/1145/133/20/
027710/20130131/90341/1145/133/20/
027710/20130131/90342/1145/153/20/
027710/20130131/90343/1145/122/20/
027710/20130131/90344/1145/144/20/
027710/20130131/90344/1145/122/20/
027710/20130131/90345/1145/122/20/
027710/20130131/90346/1145/133/20/
027710/20130131/90347/1145/122/20/
027710/20130131/90347/1145/122/20/
027710/20130131/90348/1145/133/20/
027710/20130131/90349/1145/133/20/
027710/20130131/90349/1145/222/20/
027710/20130131/90349/1145/100/20/
027710/20130131/90350/1145/133/20/
027710/20130131/90351/1145/133/20/
027710/20130131/90351/1145/5011/20/
027710/20130131/90352/1145/122/20/
027710/20130131/90352/1145/122/20/
027710/20130131/90353/1145/133/20/
027710/20130131/90354/1145/133/20/
027710/20130131/90356/1145/144/20/
027710/20130131/90358/1145/81/20/
027710/20130131/90400/1145/87/20/
027710/20130131/90402/1145/89/20/
027710/20130131/90402/1145/890/20/
027710/20130131/90404/1145/85/20/
027710/20130131/90406/1145/87/20/
027710/20130131/90409/1145/157/20/
027710/20130131/90409/1145/111/20/
027710/20130131/90413/1140/7735/10/
027710/20130131/90413/1135/12954/10/
027710/20130131/90421/1135/200/20/
027710/20130131/90422/1135/3000/20/
027710/20130131/90423/1135/100/20/
027710/20130131/90424/1135/1000/20/
027710/20130131/90432/1135/200/20/
027710/20130131/90438/1130/1200/10/
027710/20130131/90527/1135/550/20/
027710/20130131/90529/1130/1200/10/
027710/20130131/90554/1130/500/10/
027710/20130131/90605/1135/82/20/
027710/20130131/90615/1135/88/20/
027710/20130131/90618/1135/83/20/
027710/20130131/90621/1135/82/20/
027710/20130131/90623/1135/212/20/
027710/20130131/90624/1135/206/20/
027710/20130131/90625/1135/204/20/
027710/20130131/90626/1135/202/20/
027710/20130131/90626/1135/206/20/
027710/20130131/90627/1135/204/20/
027710/20130131/90628/1135/204/20/
027710/20130131/90629/1135/204/20/
027710/20130131/90629/1135/100/20/
027710/20130131/90629/1135/100/20/
027710/20130131/90629/1135/202/20/
027710/20130131/90630/1135/204/20/
027710/20130131/90631/1135/204/20/
027710/20130131/90631/1135/202/20/
027710/20130131/90632/1135/204/20/
027710/20130131/90633/1135/204/20/
027710/20130131/90634/1135/202/20/
027710/20130131/90634/1135/206/20/
027710/20130131/90635/1135/204/20/
027710/20130131/90636/1135/204/20/
027710/20130131/90636/1135/3002/20/
027710/20130131/90637/1135/202/20/
027710/20130131/90637/1135/204/20/
027710/20130131/90639/1135/206/20/
027710/20130131/90639/1135/206/20/
027710/20130131/90640/1135/202/20/
027710/20130131/90643/1135/226/20/
027710/20130131/90644/1135/204/20/
027710/20130131/90645/1135/206/20/
027710/20130131/90645/1135/205/20/
027710/20130131/90646/1135/204/20/
027710/20130131/90647/1135/206/20/
027710/20130131/90648/1135/204/20/
027710/20130131/90648/1135/202/20/
027710/20130131/90649/1135/204/20/
027710/20130131/90650/1135/204/20/
027710/20130131/90651/1135/207/20/
027710/20130131/90651/1135/1000/20/
027710/20130131/90651/1135/204/20/
027710/20130131/90652/1135/204/20/
027710/20130131/90653/1135/304/20/
027710/20130131/90653/1135/200/20/
027710/20130131/90655/1135/5032/20/
027710/20130131/90658/1135/216/20/
027710/20130131/90700/1135/208/20/
027710/20130131/90701/1135/216/20/
027710/20130131/90701/1135/455/20/
027710/20130131/90703/1135/206/20/
027710/20130131/90703/1135/214/20/
027710/20130131/90705/1135/208/20/
027710/20130131/90705/1135/206/20/
027710/20130131/90706/1135/206/20/
027710/20130131/90708/1135/208/20/
027710/20130131/90709/1135/204/20/
027710/20130131/90710/1135/206/20/
027710/20130131/90710/1135/204/20/
027710/20130131/90711/1135/206/20/
027710/20130131/90712/1135/200/20/
027710/20130131/90716/1135/103/20/
027710/20130131/90717/1135/105/20/
027710/20130131/90718/1135/107/20/
027710/20130131/90719/1135/103/20/
027710/20130131/90721/1135/105/20/
027710/20130131/90722/1135/105/20/
027710/20130131/90723/1135/108/20/
027710/20130131/90723/1135/916/20/
027710/20130131/90724/1135/105/20/
027710/20130131/90725/1135/103/20/
027710/20130131/90726/1135/105/20/
027710/20130131/90727/1135/109/20/
027710/20130131/90728/1135/105/20/
027710/20130131/90730/1135/109/20/
027710/20130131/90731/1135/105/20/
027710/20130131/90732/1135/105/20/
027710/20130131/90734/1135/103/20/
027710/20130131/90735/1135/107/20/
027710/20130131/90737/1135/107/20/
027710/20130131/90738/1135/99/20/
027710/20130131/90739/1135/99/20/
027710/20130131/90741/1135/99/20/
027710/20130131/90743/1135/99/20/
027710/20130131/90744/1135/99/20/
027710/20130131/90746/1135/99/20/
027710/20130131/90748/1135/983/20/
027710/20130131/90749/1135/99/20/
027710/20130131/90751/1135/168/20/
027710/20130131/90753/1135/107/20/
027710/20130131/90754/1135/109/20/
027710/20130131/90755/1135/103/20/
027710/20130131/90756/1135/109/20/
027710/20130131/90757/1135/105/20/
027710/20130131/90759/1135/107/20/
027710/20130131/90800/1135/105/20/
027710/20130131/90801/1135/107/20/
027710/20130131/90802/1135/105/20/
027710/20130131/90803/1135/105/20/
027710/20130131/90803/1135/1002/20/
027710/20130131/90804/1135/105/20/
027710/20130131/90804/1135/88/20/
027710/20130131/90806/1135/105/20/
027710/20130131/90806/1135/1037/20/
027710/20130131/90807/1135/5070/20/
027710/20130131/90808/1135/105/20/
027710/20130131/90808/1135/20000/20/
027710/20130131/90809/1135/21003/20/
027710/20130131/90810/1135/2235/20/
027710/20130131/90810/1135/2548/10/
027710/20130131/90811/1140/103/20/
027710/20130131/90812/1140/105/20/
027710/20130131/90814/1140/107/20/
027710/20130131/90815/1140/105/20/
027710/20130131/90829/1140/82/20/
027710/20130131/90843/1140/84/20/
027710/20130131/90846/1140/91/20/
027710/20130131/90848/1140/84/20/
027710/20130131/90851/1140/84/20/
027710/20130131/90853/1140/82/20/
027710/20130131/90855/1140/82/20/
027710/20130131/90858/1140/86/20/
027710/20130131/90901/1140/84/20/
027710/20130131/90904/1140/101/20/
027710/20130131/90906/1140/111/20/
027710/20130131/90909/1140/81/20/
027710/20130131/90911/1140/105/20/
027710/20130131/90912/1140/105/20/
027710/20130131/90914/1140/105/20/
027710/20130131/90915/1140/105/20/
027710/20130131/90916/1140/104/20/
027710/20130131/90918/1140/106/20/
027710/20130131/90919/1140/105/20/
027710/20130131/90920/1140/302/20/
027710/20130131/90920/1140/444/20/
027710/20130131/90920/1140/101/20/
027710/20130131/90922/1140/104/20/
027710/20130131/90923/1140/104/20/
027710/20130131/90924/1140/105/20/
027710/20130131/90925/1140/103/20/
027710/20130131/90926/1140/105/20/
027710/20130131/90927/1140/102/20/
027710/20130131/90928/1140/103/20/
027710/20130131/90929/1140/103/20/
027710/20130131/90930/1140/103/20/
027710/20130131/90930/1140/4387/20/
027710/20130131/90931/1140/103/20/
027710/20130131/90932/1140/103/20/
027710/20130131/90933/1140/104/20/
027710/20130131/90934/1140/104/20/
027710/20130131/90935/1140/103/20/
027710/20130131/90936/1140/104/20/
027710/20130131/90937/1140/104/20/
027710/20130131/90938/1140/103/20/
027710/20130131/90939/1140/104/20/
027710/20130131/90940/1140/103/20/
027710/20130131/90941/1140/103/20/
027710/20130131/90942/1140/1001/20/
027710/20130131/90942/1140/102/20/
027710/20130131/90943/1140/103/20/
027710/20130131/90944/1140/104/20/
027710/20130131/90945/1140/103/20/
027710/20130131/90946/1140/103/20/
027710/20130131/90946/1140/1000/20/
027710/20130131/90947/1140/2718/20/
027710/20130131/90947/1140/3500/20/
027710/20130131/90948/1140/103/20/
027710/20130131/90948/1140/101/20/
027710/20130131/90948/1140/418/20/
027710/20130131/90948/1140/982/20/
027710/20130131/90948/1140/102/20/
027710/20130131/90950/1140/104/20/
027710/20130131/90951/1140/104/20/
027710/20130131/91005/1140/81/20/
027710/20130131/91009/1140/90/20/
027710/20130131/91025/1140/81/20/
027710/20130131/91042/1135/5217/10/
027710/20130131/91056/1135/3500/10/
027710/20130131/91105/1135/2024/10/
027710/20130131/91108/1135/2405/10/
027710/20130131/91603/1135/351/10/
027710/20130131/91658/1135/3005/10/
027710/20130131/91658/1140/200/20/
027710/20130131/91724/1140/200/20/
027710/20130131/91741/1140/200/20/
027710/20130131/91756/1140/200/20/
027710/20130131/91914/1140/500/20/
027710/20130131/91944/1135/190/10/
027710/20130131/92012/1135/4000/10/
027710/20130131/92105/1135/3070/10/
027710/20130131/92109/1135/4385/10/
027710/20130131/92132/1135/621/20/
027710/20130131/92148/1135/500/20/
027710/20130131/92155/1135/179/20/
027710/20130131/92202/1135/530/20/
027710/20130131/92730/1135/2528/10/
027710/20130131/92807/1135/5002/10/
027710/20130131/92823/1135/4138/10/
027710/20130131/92951/1140/1806/20/
027710/20130131/93012/1135/1724/10/
027710/20130131/93132/1140/138/20/
027710/20130131/93148/1135/5000/10/
027710/20130131/93254/1135/3833/10/
027710/20130131/93323/1135/100/20/
027710/20130131/93758/1135/111/20/
027710/20130131/93806/1130/300/10/
027710/20130131/94231/1135/164/20/
027710/20130131/94304/1135/100/20/
027710/20130131/94438/1130/881/10/
027710/20130131/94451/1135/1104/20/
027710/20130131/94530/1130/1918/10/
027710/20130131/94736/1135/2511/20/
027710/20130131/94857/1135/103/20/
027710/20130131/95010/1135/1490/20/
027710/20130131/95017/1135/1437/20/
027710/20130131/95038/1135/501/20/
027710/20130131/95223/1135/910/10/
027710/20130131/95332/1135/1016/20/
027710/20130131/95611/1130/330/10/
027710/20130131/95654/1130/20935/10/
027710/20130131/95655/1130/2233/10/
027710/20130131/95704/1130/12048/10/
027710/20130131/95722/1130/603/10/
027710/20130131/95801/1125/1152/10/
027710/20130131/95829/1130/3462/20/
027710/20130131/95832/1130/1001/10/
027710/20130131/95852/1130/701/10/
027710/20130131/95856/1130/331/10/
027710/20130131/95903/1130/3236/10/
027710/20130131/100109/1125/316/10/
027710/20130131/100113/1125/2500/10/
027710/20130131/100134/1125/20718/20/
027710/20130131/100137/1120/2878/10/
027710/20130131/100139/1120/10001/10/
027710/20130131/100143/1120/4223/10/
027710/20130131/100143/1120/2032/10/
027710/20130131/100148/1120/3245/10/
027710/20130131/100151/1120/366/10/
027710/20130131/100209/1120/618/10/
027710/20130131/100210/1120/10290/10/
027710/20130131/100218/1120/101/10/
027710/20130131/100233/1120/2067/10/
027710/20130131/100322/1115/1056/10/
027710/20130131/100343/1115/137/10/
027710/20130131/100411/1120/221/20/
027710/20130131/100412/1120/1000/20/
027710/20130131/100417/1120/5001/20/
027710/20130131/100418/1120/4001/20/
027710/20130131/100419/1120/1050/20/
027710/20130131/100420/1120/201/20/
027710/20130131/100421/1120/233/20/
027710/20130131/100427/1120/102/20/
027710/20130131/100432/1120/1293/20/
027710/20130131/100433/1120/101/20/
027710/20130131/100434/1120/225/20/
027710/20130131/100437/1120/1001/20/
027710/20130131/100439/1120/121/20/
027710/20130131/100439/1120/3000/20/
027710/20130131/100441/1120/401/20/
027710/20130131/100442/1120/1001/20/
027710/20130131/100443/1120/927/20/
027710/20130131/100747/1125/1043/20/
027710/20130131/100823/1125/934/20/
027710/20130131/100854/1120/23401/10/
027710/20130131/100913/1120/2006/10/
027710/20130131/100931/1120/102/10/
027710/20130131/100933/1120/419/10/
027710/20130131/101122/1120/1016/10/
027710/20130131/101133/1120/220/10/
027710/20130131/101205/1120/1519/10/
027710/20130131/101342/1120/12536/10/
027710/20130131/101353/1120/303/20/
027710/20130131/101403/1120/105/20/
027710/20130131/101409/1120/100/20/
027710/20130131/101416/1120/200/20/
027710/20130131/101523/1115/1674/10/
027710/20130131/101523/1115/351/10/
027710/20130131/101552/1120/2401/20/
027710/20130131/101604/1115/2835/10/
027710/20130131/101635/1120/5037/20/
027710/20130131/101706/1120/504/20/
027710/20130131/101708/1120/201/20/
027710/20130131/101714/1120/94/20/
027710/20130131/101718/1120/83/20/
027710/20130131/101720/1120/101/20/
027710/20130131/101728/1120/1501/20/
027710/20130131/101733/1120/101/20/
027710/20130131/101735/1120/255/20/
027710/20130131/101824/1120/245/10/
027710/20130131/101837/1115/501/10/
027710/20130131/101841/1120/310/20/
027710/20130131/101910/1120/212/20/
027710/20130131/101924/1120/203/20/
027710/20130131/102027/1115/443/10/
027710/20130131/102102/1115/180/10/
027710/20130131/102116/1115/500/10/
027710/20130131/102121/1115/10000/10/
027710/20130131/102145/1120/513/20/
027710/20130131/102148/1120/279/20/
027710/20130131/102200/1120/81/20/
027710/20130131/102232/1115/9005/10/
027710/20130131/102302/1120/8362/20/
027710/20130131/102427/1120/266/10/
027710/20130131/102554/1120/101/10/
027710/20130131/102815/1120/243/10/
027710/20130131/102919/1120/1160/10/
027710/20130131/102952/1120/6345/10/
027710/20130131/103118/1120/101/10/
027710/20130131/103148/1125/120/20/
027710/20130131/103346/1120/6613/10/
027710/20130131/103425/1120/3010/10/
027710/20130131/103427/1120/4000/10/
027710/20130131/103435/1120/100/10/
027710/20130131/103448/1125/500/20/
027710/20130131/103544/1120/4002/10/
027710/20130131/103550/1120/2000/10/
027710/20130131/103613/1120/100/10/
027710/20130131/104048/1120/185/10/
027710/20130131/104246/1125/580/20/
027710/20130131/104425/1120/100/10/
027710/20130131/104438/1120/1000/10/
027710/20130131/104602/1120/1000/10/
027710/20130131/104646/1120/1000/10/
027710/20130131/105116/1120/1186/10/
027710/20130131/105224/1120/176/10/
027710/20130131/105401/1120/10005/10/
027710/20130131/105410/1120/99/10/
027710/20130131/105422/1120/8004/10/
027710/20130131/105425/1120/101/10/
027710/20130131/105449/1120/5001/10/
027710/20130131/105514/1120/81/10/
027710/20130131/105550/1120/1385/10/
027710/20130131/110127/1120/83/10/
027710/20130131/110252/1120/1100/10/
027710/20130131/111120/1120/886/10/
027710/20130131/111406/1125/500/20/
027710/20130131/111553/1120/769/10/
027710/20130131/111940/1120/1010/10/
027710/20130131/112046/1120/87/10/
027710/20130131/112055/1120/81/10/
027710/20130131/112258/1120/150/10/
027710/20130131/112934/1120/504/10/
027710/20130131/113017/1120/200/10/
027710/20130131/113455/1120/502/10/
027710/20130131/113624/1120/3010/10/
027710/20130131/113735/1120/160/10/
027710/20130131/113848/1120/1510/10/
027710/20130131/114015/1120/1000/10/
027710/20130131/114922/1120/250/10/
027710/20130131/115729/1120/731/10/
027710/20130131/115830/1120/601/10/
027710/20130131/115853/1120/2804/10/
027710/20130131/120035/1125/89/20/
027710/20130131/120051/1125/88/20/
027710/20130131/120102/1125/81/20/
027710/20130131/120111/1125/82/20/
027710/20130131/120120/1125/81/20/
027710/20130131/120130/1125/82/20/
027710/20130131/120139/1120/81/10/
027710/20130131/120148/1120/81/10/
027710/20130131/120156/1125/87/20/
027710/20130131/120159/1125/84/20/
027710/20130131/120202/1125/81/20/
027710/20130131/120206/1125/90/20/
027710/20130131/120209/1125/86/20/
027710/20130131/120213/1125/81/20/
027710/20130131/120217/1125/83/20/
027710/20130131/120219/1125/28009/20/
027710/20130131/120219/1130/100/20/
027710/20130131/120221/1130/107/20/
027710/20130131/120223/1130/125/20/
027710/20130131/120224/1130/104/20/
027710/20130131/120225/1130/104/20/
027710/20130131/120226/1130/123/20/
027710/20130131/120227/1130/103/20/
027710/20130131/120228/1130/108/20/
027710/20130131/120229/1130/103/20/
027710/20130131/120230/1130/104/20/
027710/20130131/120232/1130/128/20/
027710/20130131/120233/1130/104/20/
027710/20130131/120234/1130/107/20/
027710/20130131/120235/1130/102/20/
027710/20130131/120236/1130/104/20/
027710/20130131/120237/1130/117/20/
027710/20130131/120238/1130/104/20/
027710/20130131/120239/1130/102/20/
027710/20130131/120240/1130/103/20/
027710/20130131/120241/1130/103/20/
027710/20130131/120242/1130/103/20/
027710/20130131/120243/1130/103/20/
027710/20130131/120248/1130/82/20/
027710/20130131/120250/1130/84/20/
027710/20130131/120253/1130/82/20/
027710/20130131/120255/1130/82/20/
027710/20130131/120258/1130/82/20/
027710/20130131/120300/1130/82/20/
027710/20130131/120303/1130/91/20/
027710/20130131/120305/1130/84/20/
027710/20130131/120308/1130/88/20/
027710/20130131/120310/1130/82/20/
027710/20130131/120313/1130/88/20/
027710/20130131/120316/1130/88/20/
027710/20130131/120319/1130/84/20/
027710/20130131/120322/1130/90/20/
027710/20130131/120325/1130/82/20/
027710/20130131/120328/1130/88/20/
027710/20130131/120330/1130/82/20/
027710/20130131/120334/1130/81/20/
027710/20130131/120336/1130/82/20/
027710/20130131/120339/1130/177/20/
027710/20130131/120342/1130/82/20/
027710/20130131/120342/1130/100/20/
027710/20130131/120344/1130/82/20/
027710/20130131/120345/1130/102/20/
027710/20130131/120345/1130/126/20/
027710/20130131/120347/1130/171/20/
027710/20130131/120350/1130/82/20/
027710/20130131/120350/1130/100/20/
027710/20130131/120352/1130/82/20/
027710/20130131/120353/1130/126/20/
027710/20130131/120356/1130/84/20/
027710/20130131/120356/1130/102/20/
027710/20130131/120357/1130/113/20/
027710/20130131/120359/1130/82/20/
027710/20130131/120402/1130/82/20/
027710/20130131/120405/1130/84/20/
027710/20130131/120406/1130/4158/20/
027710/20130131/120408/1130/82/20/
027710/20130131/120410/1130/85/20/
027710/20130131/120412/1130/82/20/
027710/20130131/120415/1130/86/20/
027710/20130131/120415/1130/102/20/
027710/20130131/120418/1130/82/20/
027710/20130131/120421/1130/82/20/
027710/20130131/120423/1130/84/20/
027710/20130131/120426/1130/82/20/
027710/20130131/120428/1130/82/20/
027710/20130131/120431/1130/82/20/
027710/20130131/120434/1130/82/20/
027710/20130131/120434/1130/511/20/
027710/20130131/120437/1130/84/20/
027710/20130131/120440/1130/88/20/
027710/20130131/120443/1130/81/20/
027710/20130131/120447/1130/101/20/
027710/20130131/120450/1130/82/20/
027710/20130131/120452/1130/109/20/
027710/20130131/120454/1125/84/10/
027710/20130131/120455/1130/109/20/
027710/20130131/120456/1130/237/20/
027710/20130131/120456/1130/8004/20/
027710/20130131/120458/1130/107/20/
027710/20130131/120500/1130/82/20/
027710/20130131/120502/1130/107/20/
027710/20130131/120503/1130/82/20/
027710/20130131/120505/1130/82/20/
027710/20130131/120507/1130/109/20/
027710/20130131/120509/1130/111/20/
027710/20130131/120511/1130/113/20/
027710/20130131/120513/1130/82/20/
027710/20130131/120515/1130/109/20/
027710/20130131/120517/1130/111/20/
027710/20130131/120518/1130/1041/20/
027710/20130131/120520/1130/1858/20/
027710/20130131/120522/1125/82/10/
027710/20130131/120524/1130/16884/20/
027710/20130131/120524/1130/200/20/
027710/20130131/120526/1130/111/20/
027710/20130131/120527/1130/107/20/
027710/20130131/120528/1130/102/20/
027710/20130131/120531/1130/284/20/
027710/20130131/120532/1130/1704/20/
027710/20130131/120535/1130/5026/20/
027710/20130131/120537/1130/1008/20/
027710/20130131/120553/1130/81/20/
027710/20130131/120603/1130/94/20/
027710/20130131/120605/1130/82/20/
027710/20130131/120607/1130/82/20/
027710/20130131/120609/1125/82/10/
027710/20130131/120612/1130/111/20/
027710/20130131/120615/1130/113/20/
027710/20130131/120617/1130/111/20/
027710/20130131/120618/1130/548/20/
027710/20130131/120620/1130/109/20/
027710/20130131/120622/1130/111/20/
027710/20130131/120626/1130/155/20/
027710/20130131/120628/1130/106/20/
027710/20130131/120629/1130/106/20/
027710/20130131/120629/1130/104/20/
027710/20130131/120630/1130/104/20/
027710/20130131/120632/1130/102/20/
027710/20130131/120635/1130/113/20/
027710/20130131/120636/1130/103/20/
027710/20130131/120637/1130/104/20/
027710/20130131/120638/1130/102/20/
027710/20130131/120639/1130/103/20/
027710/20130131/120640/1130/103/20/
027710/20130131/120641/1130/106/20/
027710/20130131/120642/1130/102/20/
027710/20130131/120647/1130/103/20/
027710/20130131/120647/1130/2441/20/
027710/20130131/120650/1130/98/20/
027710/20130131/120653/1130/102/20/
027710/20130131/120656/1130/100/20/
027710/20130131/120659/1130/99/20/
027710/20130131/120702/1130/98/20/
027710/20130131/120705/1130/97/20/
027710/20130131/120709/1130/98/20/
027710/20130131/120711/1130/100/20/
027710/20130131/120716/1130/109/20/
027710/20130131/120720/1130/89/20/
027710/20130131/120723/1130/82/20/
027710/20130131/120723/1130/6868/20/
027710/20130131/120724/1130/208/10/
027710/20130131/120725/1130/1249/20/
027710/20130131/120744/1125/3815/10/
027710/20130131/120750/1125/12002/10/
027710/20130131/120811/1125/235/10/
027710/20130131/120833/1125/102/10/
027710/20130131/121128/1125/2017/10/
027710/20130131/121253/1125/2005/10/
027710/20130131/121316/1125/603/10/
027710/20130131/121324/1125/6156/20/
027710/20130131/121404/1125/392/20/
027710/20130131/121452/1125/503/20/
027710/20130131/121709/1120/184/10/
027710/20130131/121750/1120/1061/10/
027710/20130131/122838/1120/5031/10/
027710/20130131/122919/1120/8002/10/
027710/20130131/122927/1120/12300/10/
027710/20130131/122936/1120/5200/10/
027710/20130131/122943/1120/99/10/
027710/20130131/122954/1120/7727/20/
027710/20130131/123158/1120/219/10/
027710/20130131/123206/1120/82/20/
027710/20130131/123451/1125/30059/20/
027710/20130131/123452/1125/1464/20/
027710/20130131/123528/1125/212/20/
027710/20130131/123554/1125/4140/20/
027710/20130131/123559/1125/2050/20/
027710/20130131/123656/1125/1002/20/
027710/20130131/124317/1120/877/10/
027710/20130131/124349/1120/270/10/
027710/20130131/125141/1120/549/10/
027710/20130131/125156/1125/1000/20/
027710/20130131/125427/1120/950/10/
027710/20130131/125729/1120/501/10/
027710/20130131/125905/1120/8001/10/
027710/20130131/130024/1125/100/20/
027710/20130131/130030/1125/100/20/
027710/20130131/130137/1125/118/20/
027710/20130131/130431/1120/187/10/
027710/20130131/130611/1125/5510/20/
027710/20130131/130819/1125/207/20/
027710/20130131/130921/1125/5500/20/
027710/20130131/131133/1125/436/20/
027710/20130131/131700/1125/123/20/
027710/20130131/131807/1125/2050/20/
027710/20130131/132104/1125/172/20/
027710/20130131/132243/1120/1435/10/
027710/20130131/132337/1120/1243/10/
027710/20130131/132817/1125/10001/20/
027710/20130131/132951/1120/1500/10/
027710/20130131/133037/1120/703/10/
027710/20130131/133152/1120/2000/10/
027710/20130131/133226/1120/7000/10/
027710/20130131/133254/1120/1007/10/
027710/20130131/133302/1120/1003/10/
027710/20130131/133304/1120/1001/10/
027710/20130131/133317/1120/1005/10/
027710/20130131/133355/1120/500/10/
027710/20130131/133404/1125/500/20/
027710/20130131/133420/1120/4100/10/
027710/20130131/133436/1120/4700/10/
027710/20130131/133614/1120/3020/10/
027710/20130131/133657/1120/943/10/
027710/20130131/133816/1120/1000/20/
027710/20130131/133841/1120/129/20/
027710/20130131/133853/1120/114/10/
027710/20130131/133910/1120/1886/20/
027710/20130131/133958/1120/1070/10/
027710/20130131/134015/1120/1000/10/
027710/20130131/134016/1120/1000/10/
027710/20130131/134057/1120/119/10/
027710/20130131/134629/1125/301/20/
027710/20130131/134647/1120/5000/10/
027710/20130131/134705/1125/200/20/
027710/20130131/135322/1125/230/20/
027710/20130131/135617/1125/1185/20/
027710/20130131/140504/1120/2818/10/
027710/20130131/141249/1120/576/10/
027710/20130131/141553/1120/1901/10/
027710/20130131/141614/1120/2263/10/
027710/20130131/141619/1120/1800/10/
027710/20130131/141655/1120/523/10/
027710/20130131/141655/1120/11117/10/
027710/20130131/141730/1120/97/10/
027710/20130131/141740/1120/770/10/
027710/20130131/141750/1120/12219/10/
027710/20130131/142052/1115/1034/10/
027710/20130131/142121/1115/10080/10/
027710/20130131/142125/1115/100/10/
027710/20130131/142129/1115/1000/10/
027710/20130131/142129/1115/400/10/
027710/20130131/142131/1115/4210/10/
027710/20130131/142136/1120/15002/20/
027710/20130131/142143/1120/1584/20/
027710/20130131/142154/1120/142/20/
027710/20130131/142202/1120/895/20/
027710/20130131/142216/1120/101/20/
027710/20130131/142347/1115/3072/10/
027710/20130131/142357/1120/300/20/
027710/20130131/142411/1115/2001/10/
027710/20130131/142731/1115/530/10/
027710/20130131/142744/1120/543/20/
027710/20130131/142849/1120/146/20/
027710/20130131/142926/1120/104/20/
027710/20130131/142947/1120/106/20/
027710/20130131/143012/1120/118/20/
027710/20130131/143243/1120/132/20/
027710/20130131/143317/1120/500/20/
027710/20130131/143321/1120/1000/20/
027710/20130131/143432/1115/352/10/
027710/20130131/143726/1115/4831/10/
027710/20130131/143822/1120/101/20/
027710/20130131/143948/1115/454/10/
027710/20130131/144208/1120/107/20/
027710/20130131/144232/1115/900/10/
027710/20130131/144241/1120/151/20/
027710/20130131/144253/1120/12088/20/
027710/20130131/144303/1120/300/20/
027710/20130131/144314/1120/91/20/
027710/20130131/144356/1120/6535/20/
027710/20130131/144450/1120/22153/10/
027710/20130131/144522/1125/201/20/
027710/20130131/144638/1120/1001/10/
027710/20130131/144735/1125/1001/20/
027710/20130131/144809/1125/1000/20/
027710/20130131/144827/1125/1001/20/
027710/20130131/144915/1120/843/10/
027710/20130131/144923/1120/1000/10/
027710/20130131/144928/1120/2486/10/
027710/20130131/144928/1115/54170/10/
027710/20130131/144928/1110/40421/10/
027710/20130131/144928/1105/22923/10/
027710/20130131/144928/1100/26846/10/
027710/20130131/144929/1100/396/10/
027710/20130131/144929/1105/2000/20/
027710/20130131/144929/1100/400/10/
027710/20130131/144929/1100/1000/10/
027710/20130131/144930/1100/300/10/
027710/20130131/144936/1105/289/20/
027710/20130131/144956/1110/140/10/
027710/20130131/150000/1115/62732/10/
