027710/20130214/90000/1135/57695/20/
027710/20130214/90000/1135/460/20/
027710/20130214/90001/1135/3000/20/
027710/20130214/90001/1135/5000/20/
027710/20130214/90001/1135/1561/20/
027710/20130214/90001/1140/439/20/
027710/20130214/90003/1135/203/20/
027710/20130214/90005/1140/2008/20/
027710/20130214/90005/1135/10002/10/
027710/20130214/90006/1135/5512/10/
027710/20130214/90006/1140/300/20/
027710/20130214/90011/1130/1927/10/
027710/20130214/90013/1135/1009/20/
027710/20130214/90014/1130/460/10/
027710/20130214/90014/1135/1001/20/
027710/20130214/90014/1130/10004/10/
027710/20130214/90017/1130/10013/10/
027710/20130214/90019/1130/10014/10/
027710/20130214/90021/1130/3243/10/
027710/20130214/90021/1130/102/20/
027710/20130214/90022/1130/1493/20/
027710/20130214/90022/1130/3172/20/
027710/20130214/90022/1135/6990/20/
027710/20130214/90022/1140/19841/20/
027710/20130214/90025/1135/535/20/
027710/20130214/90028/1135/617/20/
027710/20130214/90029/1130/4997/10/
027710/20130214/90032/1130/4443/20/
027710/20130214/90033/1130/487/20/
027710/20130214/90033/1130/98/20/
027710/20130214/90033/1135/904/20/
027710/20130214/90034/1135/2003/20/
027710/20130214/90034/1135/2001/20/
027710/20130214/90036/1130/1004/10/
027710/20130214/90038/1130/741/20/
027710/20130214/90038/1130/2391/20/
027710/20130214/90038/1130/1621/20/
027710/20130214/90038/1130/1000/20/
027710/20130214/90039/1130/3260/20/
027710/20130214/90043/1135/120/20/
027710/20130214/90043/1135/1315/20/
027710/20130214/90046/1135/1014/20/
027710/20130214/90046/1135/105/20/
027710/20130214/90047/1135/2652/20/
027710/20130214/90048/1135/7699/10/
027710/20130214/90048/1130/5173/10/
027710/20130214/90048/1130/2000/10/
027710/20130214/90050/1135/591/10/
027710/20130214/90050/1130/9420/10/
027710/20130214/90058/1135/2046/10/
027710/20130214/90059/1135/203/10/
027710/20130214/90100/1140/7596/20/
027710/20130214/90101/1135/2004/10/
027710/20130214/90102/1135/1690/10/
027710/20130214/90102/1135/358/20/
027710/20130214/90103/1135/695/20/
027710/20130214/90104/1135/1005/20/
027710/20130214/90106/1135/4305/20/
027710/20130214/90106/1135/101/20/
027710/20130214/90107/1135/2007/10/
027710/20130214/90108/1135/2005/10/
027710/20130214/90110/1135/3110/10/
027710/20130214/90110/1135/878/20/
027710/20130214/90112/1135/5960/20/
027710/20130214/90112/1135/2003/10/
027710/20130214/90115/1135/2942/10/
027710/20130214/90116/1135/1834/10/
027710/20130214/90116/1135/172/10/
027710/20130214/90116/1140/707/20/
027710/20130214/90116/1140/130/20/
027710/20130214/90120/1130/147/10/
027710/20130214/90120/1130/209/10/
027710/20130214/90120/1135/1501/10/
027710/20130214/90121/1135/300/10/
027710/20130214/90123/1135/300/10/
027710/20130214/90126/1135/2000/10/
027710/20130214/90126/1135/1500/10/
027710/20130214/90128/1140/5000/20/
027710/20130214/90128/1140/500/20/
027710/20130214/90130/1140/1000/20/
027710/20130214/90131/1140/3191/20/
027710/20130214/90131/1135/10000/10/
027710/20130214/90132/1140/780/20/
027710/20130214/90132/1140/5810/20/
027710/20130214/90132/1140/5000/20/
027710/20130214/90133/1140/2000/20/
027710/20130214/90133/1140/875/20/
027710/20130214/90134/1140/3650/20/
027710/20130214/90138/1145/8796/20/
027710/20130214/90139/1145/2000/20/
027710/20130214/90139/1145/8056/20/
027710/20130214/90139/1150/2654/20/
027710/20130214/90143/1145/5000/10/
027710/20130214/90144/1150/500/20/
027710/20130214/90145/1150/4000/20/
027710/20130214/90147/1150/1000/20/
027710/20130214/90147/1150/1000/20/
027710/20130214/90147/1150/1000/20/
027710/20130214/90148/1150/3000/20/
027710/20130214/90148/1150/1980/20/
027710/20130214/90149/1150/1000/20/
027710/20130214/90150/1150/1000/20/
027710/20130214/90150/1150/100/20/
027710/20130214/90150/1150/300/20/
027710/20130214/90152/1150/1017/20/
027710/20130214/90154/1150/8684/20/
027710/20130214/90154/1150/2079/20/
027710/20130214/90155/1150/1000/20/
027710/20130214/90155/1145/200/10/
027710/20130214/90156/1150/3000/20/
027710/20130214/90158/1150/787/20/
027710/20130214/90200/1150/301/20/
027710/20130214/90200/1150/1000/20/
027710/20130214/90200/1150/5000/20/
027710/20130214/90200/1150/400/20/
027710/20130214/90203/1150/2122/20/
027710/20130214/90204/1150/200/20/
027710/20130214/90205/1150/100/20/
027710/20130214/90206/1150/436/20/
027710/20130214/90206/1150/3000/20/
027710/20130214/90207/1150/200/20/
027710/20130214/90208/1150/798/20/
027710/20130214/90210/1150/541/20/
027710/20130214/90211/1150/131/20/
027710/20130214/90214/1150/1025/20/
027710/20130214/90215/1150/944/20/
027710/20130214/90216/1150/21996/20/
027710/20130214/90217/1150/5628/10/
027710/20130214/90218/1150/2039/10/
027710/20130214/90218/1145/3003/10/
027710/20130214/90218/1145/200/10/
027710/20130214/90219/1150/5000/20/
027710/20130214/90220/1150/500/20/
027710/20130214/90220/1150/602/20/
027710/20130214/90221/1150/5398/10/
027710/20130214/90221/1150/867/10/
027710/20130214/90225/1150/92/20/
027710/20130214/90229/1145/230/10/
027710/20130214/90233/1145/176/10/
027710/20130214/90236/1145/10025/10/
027710/20130214/90237/1145/2000/10/
027710/20130214/90237/1145/1000/10/
027710/20130214/90237/1145/3000/10/
027710/20130214/90237/1145/200/10/
027710/20130214/90238/1145/530/10/
027710/20130214/90238/1145/500/20/
027710/20130214/90253/1140/177/10/
027710/20130214/90256/1140/3000/10/
027710/20130214/90257/1140/3000/10/
027710/20130214/90300/1140/720/10/
027710/20130214/90301/1140/2000/10/
027710/20130214/90303/1145/2184/20/
027710/20130214/90306/1145/3000/20/
027710/20130214/90311/1140/100/10/
027710/20130214/90311/1145/1458/20/
027710/20130214/90312/1145/2900/20/
027710/20130214/90315/1145/136/20/
027710/20130214/90317/1140/400/10/
027710/20130214/90325/1140/782/10/
027710/20130214/90330/1140/1739/10/
027710/20130214/90333/1140/1489/10/
027710/20130214/90334/1140/4000/10/
027710/20130214/90338/1140/5000/10/
027710/20130214/90339/1140/398/10/
027710/20130214/90340/1140/2000/10/
027710/20130214/90342/1140/110/10/
027710/20130214/90342/1140/5940/10/
027710/20130214/90343/1140/3000/10/
027710/20130214/90346/1140/2000/10/
027710/20130214/90346/1140/200/20/
027710/20130214/90354/1140/87/20/
027710/20130214/90354/1140/2284/20/
027710/20130214/90404/1145/2002/20/
027710/20130214/90429/1140/90/10/
027710/20130214/90433/1145/438/20/
027710/20130214/90437/1145/16016/20/
027710/20130214/90438/1145/100/10/
027710/20130214/90449/1150/893/20/
027710/20130214/90458/1145/97/10/
027710/20130214/90511/1145/2040/10/
027710/20130214/90518/1145/5070/10/
027710/20130214/90520/1145/7000/10/
027710/20130214/90520/1145/360/10/
027710/20130214/90522/1145/1000/10/
027710/20130214/90522/1145/1000/10/
027710/20130214/90523/1145/2294/10/
027710/20130214/90526/1145/3083/20/
027710/20130214/90529/1145/190/10/
027710/20130214/90531/1145/886/20/
027710/20130214/90534/1145/583/10/
027710/20130214/90538/1145/300/10/
027710/20130214/90538/1150/393/20/
027710/20130214/90539/1150/900/20/
027710/20130214/90546/1150/829/20/
027710/20130214/90549/1145/761/10/
027710/20130214/90553/1145/16237/10/
027710/20130214/90556/1145/3763/20/
027710/20130214/90558/1145/331/10/
027710/20130214/90601/1150/14843/20/
027710/20130214/90604/1150/978/20/
027710/20130214/90604/1145/1000/10/
027710/20130214/90604/1145/1000/10/
027710/20130214/90618/1145/110/10/
027710/20130214/90624/1145/1010/10/
027710/20130214/90628/1145/2000/10/
027710/20130214/90628/1145/1228/10/
027710/20130214/90631/1145/3849/10/
027710/20130214/90638/1145/100/20/
027710/20130214/90640/1145/110/10/
027710/20130214/90650/1145/5000/10/
027710/20130214/90651/1145/3676/10/
027710/20130214/90653/1145/100/20/
027710/20130214/90653/1145/100/20/
027710/20130214/90658/1145/1049/20/
027710/20130214/90659/1145/677/10/
027710/20130214/90708/1145/2051/20/
027710/20130214/90713/1145/1005/20/
027710/20130214/90717/1145/100/20/
027710/20130214/90717/1145/2000/20/
027710/20130214/90723/1145/1012/20/
027710/20130214/90724/1145/1407/20/
027710/20130214/90725/1145/4031/20/
027710/20130214/90729/1145/600/20/
027710/20130214/90734/1145/321/20/
027710/20130214/90740/1145/679/10/
027710/20130214/90740/1145/421/20/
027710/20130214/90743/1145/770/10/
027710/20130214/90743/1145/3809/10/
027710/20130214/90744/1145/1000/10/
027710/20130214/90753/1145/100/10/
027710/20130214/90754/1145/300/10/
027710/20130214/90754/1145/1954/10/
027710/20130214/90759/1140/4900/10/
027710/20130214/90829/1140/11042/10/
027710/20130214/90831/1140/3937/10/
027710/20130214/90832/1140/2000/10/
027710/20130214/90834/1140/8317/10/
027710/20130214/90834/1140/684/20/
027710/20130214/90835/1140/2000/10/
027710/20130214/90837/1140/1314/10/
027710/20130214/90838/1140/100/10/
027710/20130214/90847/1140/2001/10/
027710/20130214/90900/1140/700/10/
027710/20130214/90939/1140/210/10/
027710/20130214/90953/1140/211/10/
027710/20130214/91011/1140/360/10/
027710/20130214/91023/1140/100/10/
027710/20130214/91028/1140/520/10/
027710/20130214/91030/1140/2386/10/
027710/20130214/91031/1140/300/10/
027710/20130214/91045/1145/81/20/
027710/20130214/91054/1145/1007/20/
027710/20130214/91100/1145/10006/20/
027710/20130214/91101/1145/10000/20/
027710/20130214/91102/1145/4368/20/
027710/20130214/91104/1145/2437/20/
027710/20130214/91108/1145/107/10/
027710/20130214/91109/1145/2001/10/
027710/20130214/91109/1150/4569/20/
027710/20130214/91115/1150/441/20/
027710/20130214/91123/1150/1808/20/
027710/20130214/91125/1150/5003/20/
027710/20130214/91132/1150/517/20/
027710/20130214/91134/1150/404/20/
027710/20130214/91135/1150/1780/20/
027710/20130214/91136/1150/1002/20/
027710/20130214/91138/1150/1002/20/
027710/20130214/91141/1150/1008/20/
027710/20130214/91142/1150/2001/20/
027710/20130214/91143/1150/13976/20/
027710/20130214/91143/1150/5168/20/
027710/20130214/91144/1150/1287/20/
027710/20130214/91144/1150/7419/20/
027710/20130214/91145/1155/87/20/
027710/20130214/91145/1155/130/20/
027710/20130214/91147/1155/1108/20/
027710/20130214/91148/1155/1003/20/
027710/20130214/91149/1155/1003/20/
027710/20130214/91150/1155/148/20/
027710/20130214/91150/1155/102/20/
027710/20130214/91151/1155/524/20/
027710/20130214/91151/1155/1429/20/
027710/20130214/91152/1155/874/20/
027710/20130214/91153/1155/1368/20/
027710/20130214/91153/1155/2001/20/
027710/20130214/91154/1155/1003/20/
027710/20130214/91154/1155/1941/20/
027710/20130214/91154/1155/4001/20/
027710/20130214/91154/1155/302/20/
027710/20130214/91154/1155/1686/20/
027710/20130214/91156/1160/10021/20/
027710/20130214/91157/1160/1240/20/
027710/20130214/91200/1155/10007/10/
027710/20130214/91200/1160/744/20/
027710/20130214/91200/1160/861/20/
027710/20130214/91201/1160/866/20/
027710/20130214/91201/1160/5704/20/
027710/20130214/91203/1160/2077/20/
027710/20130214/91204/1155/1809/10/
027710/20130214/91205/1155/726/10/
027710/20130214/91206/1155/1367/20/
027710/20130214/91209/1155/580/20/
027710/20130214/91210/1155/329/20/
027710/20130214/91214/1155/182/10/
027710/20130214/91216/1160/509/20/
027710/20130214/91216/1155/600/10/
027710/20130214/91217/1160/446/20/
027710/20130214/91218/1155/1000/10/
027710/20130214/91221/1160/660/20/
027710/20130214/91222/1155/11000/10/
027710/20130214/91225/1155/1475/10/
027710/20130214/91226/1155/200/10/
027710/20130214/91226/1155/4536/10/
027710/20130214/91227/1155/383/10/
027710/20130214/91228/1155/1647/20/
027710/20130214/91230/1155/1050/20/
027710/20130214/91234/1155/1001/20/
027710/20130214/91252/1150/12005/10/
027710/20130214/91254/1155/4000/20/
027710/20130214/91254/1150/4494/10/
027710/20130214/91259/1150/10010/10/
027710/20130214/91259/1150/500/10/
027710/20130214/91301/1150/1220/10/
027710/20130214/91307/1150/2001/10/
027710/20130214/91310/1150/5001/10/
027710/20130214/91315/1150/153/10/
027710/20130214/91319/1150/103/10/
027710/20130214/91322/1150/755/10/
027710/20130214/91333/1155/3580/20/
027710/20130214/91349/1150/1711/10/
027710/20130214/91359/1145/4824/10/
027710/20130214/91359/1145/130/10/
027710/20130214/91403/1145/10030/10/
027710/20130214/91408/1145/4401/10/
027710/20130214/91409/1145/1000/10/
027710/20130214/91411/1150/760/20/
027710/20130214/91413/1150/2480/20/
027710/20130214/91423/1150/644/20/
027710/20130214/91423/1150/9990/10/
027710/20130214/91428/1150/14000/10/
027710/20130214/91428/1150/1064/10/
027710/20130214/91448/1145/3001/10/
027710/20130214/91454/1145/500/10/
027710/20130214/91454/1145/1957/10/
027710/20130214/91456/1150/1000/20/
027710/20130214/91531/1150/12931/20/
027710/20130214/91544/1150/500/10/
027710/20130214/91544/1150/1429/10/
027710/20130214/91602/1155/86/20/
027710/20130214/91602/1150/4000/10/
027710/20130214/91602/1150/1175/10/
027710/20130214/91604/1155/10000/20/
027710/20130214/91606/1155/2629/20/
027710/20130214/91611/1160/10028/20/
027710/20130214/91612/1160/5000/20/
027710/20130214/91612/1155/10000/10/
027710/20130214/91634/1155/869/20/
027710/20130214/91635/1155/1196/20/
027710/20130214/91642/1155/4002/10/
027710/20130214/91642/1160/603/20/
027710/20130214/91644/1155/95/10/
027710/20130214/91646/1155/1708/20/
027710/20130214/91646/1160/2592/20/
027710/20130214/91651/1155/200/10/
027710/20130214/91652/1155/679/20/
027710/20130214/91652/1155/1291/20/
027710/20130214/91655/1155/111/20/
027710/20130214/91705/1155/1000/20/
027710/20130214/91706/1155/5040/20/
027710/20130214/91707/1155/784/20/
027710/20130214/91709/1155/1216/10/
027710/20130214/91714/1155/1000/20/
027710/20130214/91715/1155/13172/20/
027710/20130214/91718/1160/9413/20/
027710/20130214/91721/1155/10000/10/
027710/20130214/91734/1155/87/10/
027710/20130214/91738/1155/512/10/
027710/20130214/91740/1155/400/10/
027710/20130214/91745/1160/29147/20/
027710/20130214/91745/1155/205/10/
027710/20130214/91754/1160/220/20/
027710/20130214/91757/1160/1000/20/
027710/20130214/91800/1160/3001/20/
027710/20130214/91802/1160/5010/20/
027710/20130214/91802/1160/862/20/
027710/20130214/91803/1160/1713/20/
027710/20130214/91805/1160/1254/20/
027710/20130214/91807/1160/2446/10/
027710/20130214/91809/1160/402/20/
027710/20130214/91810/1160/1152/20/
027710/20130214/91814/1165/510/20/
027710/20130214/91819/1160/200/10/
027710/20130214/91823/1160/3340/10/
027710/20130214/91832/1160/1686/20/
027710/20130214/91835/1160/1876/10/
027710/20130214/91840/1160/8124/20/
027710/20130214/91843/1160/1002/10/
027710/20130214/91848/1165/12662/20/
027710/20130214/91848/1165/1900/20/
027710/20130214/91848/1165/20508/20/
027710/20130214/91848/1165/2540/20/
027710/20130214/91849/1165/250/20/
027710/20130214/91850/1165/3000/20/
027710/20130214/91850/1165/5704/20/
027710/20130214/91852/1165/2058/20/
027710/20130214/91852/1170/14484/20/
027710/20130214/91853/1170/133/20/
027710/20130214/91853/1170/5982/20/
027710/20130214/91854/1170/830/20/
027710/20130214/91854/1170/1000/20/
027710/20130214/91855/1170/3268/20/
027710/20130214/91855/1170/20869/20/
027710/20130214/91856/1165/1711/10/
027710/20130214/91858/1165/1000/20/
027710/20130214/91858/1160/2500/10/
027710/20130214/91858/1160/5000/10/
027710/20130214/91858/1165/4255/20/
027710/20130214/91859/1160/7000/10/
027710/20130214/91900/1165/3000/20/
027710/20130214/91900/1160/310/10/
027710/20130214/91900/1155/2297/10/
027710/20130214/91903/1155/7076/10/
027710/20130214/91904/1155/1108/10/
027710/20130214/91905/1155/268/20/
027710/20130214/91908/1155/500/20/
027710/20130214/91908/1155/490/20/
027710/20130214/91912/1155/643/10/
027710/20130214/91912/1155/1660/10/
027710/20130214/91913/1155/500/20/
027710/20130214/91913/1150/1000/10/
027710/20130214/91913/1150/250/10/
027710/20130214/91914/1150/22668/10/
027710/20130214/91915/1145/401/10/
027710/20130214/91916/1150/1017/20/
027710/20130214/91916/1145/120/10/
027710/20130214/91916/1145/16528/10/
027710/20130214/91917/1145/5895/10/
027710/20130214/91917/1140/5982/10/
027710/20130214/91917/1145/765/20/
027710/20130214/91917/1150/1287/20/
027710/20130214/91918/1140/20508/10/
027710/20130214/91918/1140/500/10/
027710/20130214/91918/1145/500/20/
027710/20130214/91918/1145/5000/20/
027710/20130214/91918/1145/1000/20/
027710/20130214/91919/1140/3110/10/
027710/20130214/91920/1140/1000/20/
027710/20130214/91920/1140/2318/20/
027710/20130214/91921/1140/1600/20/
027710/20130214/91921/1140/450/20/
027710/20130214/91921/1140/9557/20/
027710/20130214/91921/1135/4000/10/
027710/20130214/91922/1135/5924/10/
027710/20130214/91926/1140/105/20/
027710/20130214/91927/1140/100/20/
027710/20130214/91928/1135/4841/10/
027710/20130214/91930/1135/500/10/
027710/20130214/91930/1135/1024/10/
027710/20130214/91931/1140/11989/20/
027710/20130214/91931/1135/10707/10/
027710/20130214/91932/1140/405/10/
027710/20130214/91933/1150/260/20/
027710/20130214/91933/1150/172/20/
027710/20130214/91939/1150/1042/20/
027710/20130214/91940/1150/1001/20/
027710/20130214/91942/1145/1027/20/
027710/20130214/91943/1145/1020/20/
027710/20130214/91943/1145/454/20/
027710/20130214/91944/1150/465/20/
027710/20130214/91944/1150/1967/20/
027710/20130214/91949/1150/13091/20/
027710/20130214/91949/1155/6965/20/
027710/20130214/91953/1155/6840/20/
027710/20130214/91955/1155/103/20/
027710/20130214/91956/1155/5000/20/
027710/20130214/91956/1155/1000/20/
027710/20130214/91956/1155/300/20/
027710/20130214/91959/1155/800/20/
027710/20130214/92000/1150/500/10/
027710/20130214/92006/1150/800/20/
027710/20130214/92007/1150/1000/20/
027710/20130214/92009/1150/502/20/
027710/20130214/92012/1150/3974/20/
027710/20130214/92012/1150/300/20/
027710/20130214/92013/1150/1270/20/
027710/20130214/92016/1150/100/20/
027710/20130214/92027/1145/2186/10/
027710/20130214/92029/1150/90/20/
027710/20130214/92029/1145/10000/10/
027710/20130214/92029/1150/747/20/
027710/20130214/92030/1145/3268/10/
027710/20130214/92031/1145/1950/10/
027710/20130214/92031/1145/409/10/
027710/20130214/92038/1145/901/20/
027710/20130214/92040/1140/831/10/
027710/20130214/92041/1145/13359/20/
027710/20130214/92042/1145/100/10/
027710/20130214/92049/1145/7835/10/
027710/20130214/92055/1145/201/20/
027710/20130214/92057/1145/180/20/
027710/20130214/92058/1145/1001/20/
027710/20130214/92100/1145/5000/20/
027710/20130214/92103/1145/501/20/
027710/20130214/92104/1145/810/20/
027710/20130214/92105/1145/1734/20/
027710/20130214/92106/1145/126/10/
027710/20130214/92107/1145/1140/10/
027710/20130214/92109/1145/1000/20/
027710/20130214/92120/1145/101/20/
027710/20130214/92124/1140/114/10/
027710/20130214/92130/1145/1000/20/
027710/20130214/92130/1145/2300/20/
027710/20130214/92131/1145/900/20/
027710/20130214/92133/1145/461/20/
027710/20130214/92133/1145/1000/20/
027710/20130214/92136/1145/1000/20/
027710/20130214/92137/1145/3020/20/
027710/20130214/92137/1145/1150/20/
027710/20130214/92139/1145/1000/20/
027710/20130214/92139/1145/100/20/
027710/20130214/92143/1145/830/20/
027710/20130214/92144/1145/670/10/
027710/20130214/92145/1145/250/20/
027710/20130214/92146/1145/2700/20/
027710/20130214/92147/1140/1601/10/
027710/20130214/92153/1145/100/20/
027710/20130214/92206/1145/6001/20/
027710/20130214/92207/1145/9000/20/
027710/20130214/92216/1145/5047/20/
027710/20130214/92217/1145/272/20/
027710/20130214/92219/1145/100/20/
027710/20130214/92220/1140/1000/10/
027710/20130214/92220/1140/3000/10/
027710/20130214/92220/1140/2000/10/
027710/20130214/92225/1145/500/20/
027710/20130214/92230/1145/820/20/
027710/20130214/92254/1140/455/10/
027710/20130214/92257/1140/150/10/
027710/20130214/92311/1140/91/10/
027710/20130214/92315/1140/200/10/
027710/20130214/92324/1140/1600/10/
027710/20130214/92331/1145/88/20/
027710/20130214/92336/1145/10002/20/
027710/20130214/92339/1145/1001/20/
027710/20130214/92346/1145/5003/20/
027710/20130214/92347/1145/661/20/
027710/20130214/92347/1145/8092/20/
027710/20130214/92348/1145/2713/10/
027710/20130214/92356/1145/87/20/
027710/20130214/92358/1145/638/20/
027710/20130214/92400/1145/13377/20/
027710/20130214/92403/1145/4416/10/
027710/20130214/92407/1145/101/20/
027710/20130214/92415/1145/484/20/
027710/20130214/92448/1150/310/20/
027710/20130214/92503/1145/8784/10/
027710/20130214/92509/1145/11748/10/
027710/20130214/92509/1145/300/20/
027710/20130214/92518/1145/304/20/
027710/20130214/92519/1145/500/20/
027710/20130214/92526/1145/90/20/
027710/20130214/92536/1145/537/20/
027710/20130214/92545/1145/130/20/
027710/20130214/92546/1145/100/20/
027710/20130214/92546/1145/1000/20/
027710/20130214/92548/1145/304/20/
027710/20130214/92548/1145/1100/20/
027710/20130214/92553/1145/3064/20/
027710/20130214/92553/1145/9370/20/
027710/20130214/92558/1145/3130/10/
027710/20130214/92559/1145/500/20/
027710/20130214/92601/1145/10001/20/
027710/20130214/92602/1145/100/20/
027710/20130214/92602/1145/2000/20/
027710/20130214/92619/1145/3034/20/
027710/20130214/92625/1145/10001/20/
027710/20130214/92625/1145/1000/20/
027710/20130214/92627/1145/301/20/
027710/20130214/92629/1145/857/20/
027710/20130214/92631/1145/4982/20/
027710/20130214/92633/1145/5001/10/
027710/20130214/92637/1145/5001/10/
027710/20130214/92641/1145/4826/10/
027710/20130214/92648/1145/185/20/
027710/20130214/92652/1145/1001/10/
027710/20130214/92655/1145/300/10/
027710/20130214/92657/1145/200/10/
027710/20130214/92709/1145/1739/10/
027710/20130214/92710/1145/465/10/
027710/20130214/92714/1145/6337/10/
027710/20130214/92730/1145/868/20/
027710/20130214/92737/1145/10000/20/
027710/20130214/92757/1145/4001/20/
027710/20130214/92806/1145/251/20/
027710/20130214/92836/1140/2002/10/
027710/20130214/92847/1140/3558/10/
027710/20130214/92850/1140/205/10/
027710/20130214/92934/1140/15000/10/
027710/20130214/92946/1140/1713/10/
027710/20130214/92946/1145/200/20/
027710/20130214/92948/1145/305/20/
027710/20130214/92949/1140/446/10/
027710/20130214/92950/1145/2000/20/
027710/20130214/92952/1145/610/20/
027710/20130214/92955/1145/501/20/
027710/20130214/93004/1145/1019/20/
027710/20130214/93005/1145/1556/20/
027710/20130214/93019/1145/1051/20/
027710/20130214/93031/1145/359/20/
027710/20130214/93037/1145/1816/20/
027710/20130214/93039/1145/501/20/
027710/20130214/93041/1145/1001/20/
027710/20130214/93042/1145/3664/20/
027710/20130214/93042/1150/1386/20/
027710/20130214/93047/1145/500/20/
027710/20130214/93048/1145/303/20/
027710/20130214/93049/1145/3000/20/
027710/20130214/93050/1145/1197/20/
027710/20130214/93052/1145/5000/10/
027710/20130214/93053/1145/3033/10/
027710/20130214/93055/1145/100/20/
027710/20130214/93102/1145/5007/20/
027710/20130214/93104/1145/1000/20/
027710/20130214/93107/1145/500/20/
027710/20130214/93112/1145/3000/20/
027710/20130214/93112/1145/6461/20/
027710/20130214/93116/1145/500/10/
027710/20130214/93120/1145/1000/10/
027710/20130214/93127/1145/1002/10/
027710/20130214/93132/1145/4201/10/
027710/20130214/93147/1145/255/20/
027710/20130214/93155/1145/82/20/
027710/20130214/93230/1145/2003/20/
027710/20130214/93232/1145/1567/20/
027710/20130214/93250/1145/4711/20/
027710/20130214/93251/1145/1000/20/
027710/20130214/93302/1140/92/10/
027710/20130214/93321/1145/1022/20/
027710/20130214/93341/1140/501/10/
027710/20130214/93352/1140/149/10/
027710/20130214/93418/1145/105/20/
027710/20130214/93433/1145/102/20/
027710/20130214/93445/1145/142/20/
027710/20130214/93545/1140/576/10/
027710/20130214/93618/1140/207/10/
027710/20130214/93639/1140/200/10/
027710/20130214/93640/1145/100/20/
027710/20130214/93657/1145/141/20/
027710/20130214/93658/1145/320/20/
027710/20130214/93658/1145/500/20/
027710/20130214/93700/1145/340/20/
027710/20130214/93709/1145/300/20/
027710/20130214/93713/1145/420/20/
027710/20130214/93716/1145/200/20/
027710/20130214/93724/1140/159/10/
027710/20130214/93743/1145/565/20/
027710/20130214/93747/1145/400/20/
027710/20130214/93856/1145/83/20/
027710/20130214/93912/1140/748/10/
027710/20130214/93933/1140/121/10/
027710/20130214/94052/1140/4830/10/
027710/20130214/94116/1140/3760/10/
027710/20130214/94213/1140/3520/10/
027710/20130214/94242/1145/754/20/
027710/20130214/94314/1145/106/20/
027710/20130214/94341/1140/9401/10/
027710/20130214/94348/1140/1000/10/
027710/20130214/94349/1140/5500/10/
027710/20130214/94352/1140/3000/10/
027710/20130214/94356/1140/5000/10/
027710/20130214/94358/1140/3501/10/
027710/20130214/94358/1140/2000/10/
027710/20130214/94400/1140/1000/10/
027710/20130214/94411/1140/4300/10/
027710/20130214/94422/1140/861/10/
027710/20130214/94426/1140/183/10/
027710/20130214/94546/1140/1004/10/
027710/20130214/94556/1145/3000/20/
027710/20130214/94614/1140/5002/10/
027710/20130214/94827/1145/1494/20/
027710/20130214/94908/1140/174/10/
027710/20130214/94937/1140/1660/10/
027710/20130214/95005/1140/2108/10/
027710/20130214/95026/1140/941/10/
027710/20130214/95043/1140/4031/10/
027710/20130214/95055/1140/29123/10/
027710/20130214/95057/1140/10000/10/
027710/20130214/95058/1140/3000/10/
027710/20130214/95058/1140/5158/10/
027710/20130214/95101/1135/1000/10/
027710/20130214/95107/1135/161/10/
027710/20130214/95115/1140/469/20/
027710/20130214/95126/1140/92/20/
027710/20130214/95144/1140/150/20/
027710/20130214/95221/1140/112/20/
027710/20130214/95229/1135/5503/10/
027710/20130214/95232/1135/3688/10/
027710/20130214/95233/1135/3000/10/
027710/20130214/95233/1140/100/20/
027710/20130214/95235/1135/20001/10/
027710/20130214/95236/1135/1000/10/
027710/20130214/95236/1135/82/10/
027710/20130214/95237/1135/4001/10/
027710/20130214/95246/1135/202/10/
027710/20130214/95256/1135/584/10/
027710/20130214/95308/1135/3282/10/
027710/20130214/95323/1135/2066/10/
027710/20130214/95333/1135/1556/10/
027710/20130214/95343/1135/300/10/
027710/20130214/95356/1135/106/10/
027710/20130214/95500/1135/100/10/
027710/20130214/95514/1135/1500/10/
027710/20130214/95552/1135/110/10/
027710/20130214/95557/1135/5165/10/
027710/20130214/95652/1140/9489/20/
027710/20130214/95657/1140/5102/20/
027710/20130214/95701/1140/4737/20/
027710/20130214/95702/1140/438/20/
027710/20130214/95709/1140/760/20/
027710/20130214/95716/1140/990/10/
027710/20130214/95745/1140/200/20/
027710/20130214/95747/1140/100/20/
027710/20130214/95750/1140/200/20/
027710/20130214/95751/1140/248/20/
027710/20130214/95753/1140/263/20/
027710/20130214/95901/1145/193/20/
027710/20130214/100025/1145/95/20/
027710/20130214/100147/1145/2000/20/
027710/20130214/100224/1145/253/20/
027710/20130214/100511/1140/537/10/
027710/20130214/100749/1145/409/20/
027710/20130214/100832/1140/1003/10/
027710/20130214/101029/1140/510/10/
027710/20130214/101201/1140/3976/10/
027710/20130214/101511/1145/507/20/
027710/20130214/101647/1145/84/20/
027710/20130214/101711/1140/476/10/
027710/20130214/101913/1140/910/10/
027710/20130214/101932/1140/1043/10/
027710/20130214/102010/1145/102/20/
027710/20130214/102222/1140/3549/10/
027710/20130214/102227/1140/1792/10/
027710/20130214/102228/1140/3024/10/
027710/20130214/102228/1140/501/10/
027710/20130214/102231/1140/863/10/
027710/20130214/102235/1140/842/10/
027710/20130214/102242/1140/501/10/
027710/20130214/102242/1140/200/10/
027710/20130214/102340/1140/15215/10/
027710/20130214/102435/1140/118/20/
027710/20130214/102436/1140/500/20/
027710/20130214/102446/1140/101/20/
027710/20130214/102448/1140/110/20/
027710/20130214/102502/1140/501/20/
027710/20130214/102506/1135/820/10/
027710/20130214/102507/1135/2500/10/
027710/20130214/102756/1140/8528/20/
027710/20130214/102926/1140/2832/10/
027710/20130214/103108/1145/401/20/
027710/20130214/103137/1145/100/20/
027710/20130214/103318/1140/2366/10/
027710/20130214/103318/1135/4484/10/
027710/20130214/103556/1135/15082/10/
027710/20130214/103620/1135/9579/10/
027710/20130214/103637/1135/1003/10/
027710/20130214/103733/1140/104/20/
027710/20130214/103745/1140/101/20/
027710/20130214/103918/1135/14591/10/
027710/20130214/103929/1130/97/10/
027710/20130214/103948/1135/1194/20/
027710/20130214/103949/1135/1000/20/
027710/20130214/103954/1135/100/20/
027710/20130214/104009/1135/111/20/
027710/20130214/104011/1135/800/20/
027710/20130214/104012/1135/2400/20/
027710/20130214/104015/1135/610/20/
027710/20130214/104018/1135/353/20/
027710/20130214/104040/1140/100/20/
027710/20130214/104103/1140/516/20/
027710/20130214/104103/1140/500/20/
027710/20130214/104103/1140/500/20/
027710/20130214/104104/1140/500/20/
027710/20130214/104113/1140/2016/20/
027710/20130214/104141/1140/89/20/
027710/20130214/104715/1135/12742/10/
027710/20130214/104722/1135/445/20/
027710/20130214/104744/1135/101/20/
027710/20130214/104832/1130/8003/10/
027710/20130214/104852/1130/352/10/
027710/20130214/104903/1135/450/20/
027710/20130214/104909/1130/945/10/
027710/20130214/104923/1135/100/20/
027710/20130214/104941/1135/1001/20/
027710/20130214/105114/1135/821/20/
027710/20130214/105133/1135/704/20/
027710/20130214/105136/1135/5112/20/
027710/20130214/105139/1135/401/20/
027710/20130214/105208/1135/1013/20/
027710/20130214/105210/1135/801/20/
027710/20130214/105211/1135/380/20/
027710/20130214/105216/1135/121/10/
027710/20130214/105248/1130/20006/10/
027710/20130214/105259/1130/2002/10/
027710/20130214/105331/1130/123/10/
027710/20130214/105354/1130/595/10/
027710/20130214/105412/1130/1851/10/
027710/20130214/105445/1130/239/10/
027710/20130214/105515/1130/10013/10/
027710/20130214/105517/1130/7731/10/
027710/20130214/105653/1135/1309/20/
027710/20130214/105712/1130/101/10/
027710/20130214/105948/1130/3567/10/
027710/20130214/105959/1130/1001/10/
027710/20130214/110001/1130/5000/10/
027710/20130214/110022/1130/523/10/
027710/20130214/110109/1130/206/10/
027710/20130214/110114/1135/18577/20/
027710/20130214/110114/1140/1423/20/
027710/20130214/110357/1135/106/20/
027710/20130214/110843/1130/540/10/
027710/20130214/110941/1135/819/20/
027710/20130214/111237/1130/275/10/
027710/20130214/111255/1130/200/10/
027710/20130214/111305/1130/10000/10/
027710/20130214/111405/1130/500/10/
027710/20130214/111424/1130/400/10/
027710/20130214/111631/1130/511/10/
027710/20130214/111720/1130/6000/10/
027710/20130214/111948/1130/122/10/
027710/20130214/112850/1135/3042/20/
027710/20130214/112935/1140/1010/20/
027710/20130214/113046/1140/1390/20/
027710/20130214/113324/1135/2071/10/
027710/20130214/113426/1135/128/10/
027710/20130214/113521/1135/308/10/
027710/20130214/113726/1135/1444/10/
027710/20130214/113830/1135/944/10/
027710/20130214/113839/1135/692/10/
027710/20130214/113853/1135/100/20/
027710/20130214/113900/1135/110/20/
027710/20130214/113901/1135/98/20/
027710/20130214/114317/1135/1535/10/
027710/20130214/114348/1135/5063/20/
027710/20130214/114356/1135/452/20/
027710/20130214/114730/1135/1001/10/
027710/20130214/114801/1135/1900/10/
027710/20130214/115235/1135/1004/10/
027710/20130214/115243/1140/500/20/
027710/20130214/115303/1135/2650/10/
027710/20130214/120054/1130/1373/10/
027710/20130214/120352/1135/85/20/
027710/20130214/121826/1135/552/20/
027710/20130214/122115/1130/9003/10/
027710/20130214/122212/1130/1358/10/
027710/20130214/122356/1130/2011/10/
027710/20130214/122452/1135/2210/20/
027710/20130214/122523/1135/500/20/
027710/20130214/122553/1135/260/20/
027710/20130214/122927/1130/140/10/
027710/20130214/122942/1135/1000/20/
027710/20130214/123010/1130/755/10/
027710/20130214/123149/1130/1276/10/
027710/20130214/123455/1130/660/10/
027710/20130214/123800/1135/81/20/
027710/20130214/123801/1130/16996/10/
027710/20130214/123804/1125/134/10/
027710/20130214/123811/1130/85/20/
027710/20130214/123825/1130/1000/20/
027710/20130214/123834/1125/120/10/
027710/20130214/123924/1130/2011/20/
027710/20130214/123937/1130/1036/20/
027710/20130214/123940/1130/167/20/
027710/20130214/124132/1135/7071/20/
027710/20130214/124448/1135/500/20/
027710/20130214/124628/1130/4428/10/
027710/20130214/124635/1125/260/10/
027710/20130214/124701/1130/1410/20/
027710/20130214/124723/1130/1000/20/
027710/20130214/124726/1130/232/20/
027710/20130214/124726/1130/300/10/
027710/20130214/124805/1130/2955/10/
027710/20130214/124832/1130/1005/20/
027710/20130214/124837/1130/675/20/
027710/20130214/125817/1130/568/10/
027710/20130214/130031/1135/10000/20/
027710/20130214/130122/1135/950/20/
027710/20130214/130249/1135/498/20/
027710/20130214/130312/1140/100/20/
027710/20130214/130402/1135/1000/10/
027710/20130214/130659/1135/1219/10/
027710/20130214/130705/1135/500/10/
027710/20130214/130759/1135/108/10/
027710/20130214/130821/1135/193/10/
027710/20130214/130834/1135/200/10/
027710/20130214/130949/1135/1200/10/
027710/20130214/131029/1135/1000/10/
027710/20130214/131339/1135/2675/10/
027710/20130214/131351/1135/915/10/
027710/20130214/131411/1135/2922/10/
027710/20130214/131932/1135/1014/20/
027710/20130214/131940/1135/100/20/
027710/20130214/132554/1130/442/10/
027710/20130214/132631/1130/1031/10/
027710/20130214/132641/1130/100/10/
027710/20130214/133105/1135/5688/20/
027710/20130214/133128/1130/441/10/
027710/20130214/133158/1135/400/20/
027710/20130214/133510/1135/1000/20/
027710/20130214/133520/1135/1400/20/
027710/20130214/133538/1135/699/20/
027710/20130214/133544/1130/155/10/
027710/20130214/133549/1135/3000/20/
027710/20130214/133701/1130/1253/10/
027710/20130214/133819/1130/5000/10/
027710/20130214/133821/1130/3255/10/
027710/20130214/133928/1135/1597/20/
027710/20130214/134013/1135/354/20/
027710/20130214/134352/1130/2831/10/
027710/20130214/134356/1130/2000/10/
027710/20130214/134724/1135/1010/20/
027710/20130214/134902/1130/1520/10/
027710/20130214/134911/1130/1300/10/
027710/20130214/134941/1135/502/20/
027710/20130214/135116/1130/527/10/
027710/20130214/135150/1130/3467/10/
027710/20130214/135212/1130/20002/10/
027710/20130214/135218/1130/1589/10/
027710/20130214/135320/1130/210/10/
027710/20130214/135359/1130/2000/10/
027710/20130214/135451/1130/1002/10/
027710/20130214/135640/1130/1002/10/
027710/20130214/135916/1130/510/10/
027710/20130214/140028/1135/400/20/
027710/20130214/140039/1135/100/20/
027710/20130214/140135/1135/4500/20/
027710/20130214/140221/1130/300/10/
027710/20130214/140251/1130/400/10/
027710/20130214/140302/1130/500/10/
027710/20130214/140451/1135/1501/20/
027710/20130214/140558/1135/100/20/
027710/20130214/140629/1130/8370/10/
027710/20130214/140635/1135/26691/20/
027710/20130214/140722/1135/10001/10/
027710/20130214/140748/1135/608/10/
027710/20130214/140802/1135/1042/10/
027710/20130214/140808/1140/100/20/
027710/20130214/140848/1135/1000/10/
027710/20130214/140907/1140/43140/20/
027710/20130214/140926/1145/32964/20/
027710/20130214/140932/1145/999/10/
027710/20130214/140942/1140/200/10/
027710/20130214/141012/1145/8580/20/
027710/20130214/141012/1145/890/10/
027710/20130214/141030/1145/156/20/
027710/20130214/141125/1145/501/20/
027710/20130214/141152/1145/2069/20/
027710/20130214/141427/1145/864/20/
027710/20130214/141528/1145/1685/20/
027710/20130214/141552/1145/5010/20/
027710/20130214/141634/1145/3000/20/
027710/20130214/141658/1145/2000/20/
027710/20130214/141707/1145/3000/20/
027710/20130214/141717/1145/100/20/
027710/20130214/141812/1140/1006/10/
027710/20130214/141835/1140/1002/10/
027710/20130214/141859/1140/1300/10/
027710/20130214/141946/1140/17242/10/
027710/20130214/142019/1135/998/10/
027710/20130214/142142/1135/4427/10/
027710/20130214/142204/1135/206/10/
027710/20130214/142244/1135/4431/10/
027710/20130214/142322/1135/4476/10/
027710/20130214/142326/1135/296/10/
027710/20130214/142423/1135/4437/10/
027710/20130214/142508/1135/5038/10/
027710/20130214/142509/1135/2500/10/
027710/20130214/142521/1135/3102/10/
027710/20130214/142637/1135/1010/10/
027710/20130214/142658/1135/1144/10/
027710/20130214/142658/1130/16288/10/
027710/20130214/142717/1135/502/20/
027710/20130214/142850/1130/81/10/
027710/20130214/142903/1135/1011/20/
027710/20130214/142909/1135/691/20/
027710/20130214/142933/1135/1024/20/
027710/20130214/142948/1135/938/20/
027710/20130214/142955/1135/194/10/
027710/20130214/143152/1130/946/10/
027710/20130214/143235/1135/1512/20/
027710/20130214/143542/1130/542/10/
027710/20130214/143628/1130/1696/10/
027710/20130214/143705/1130/425/10/
027710/20130214/143737/1130/300/10/
027710/20130214/143804/1130/5031/10/
027710/20130214/143942/1135/1057/20/
027710/20130214/144046/1130/89/10/
027710/20130214/144050/1130/1511/10/
027710/20130214/144358/1130/239/10/
027710/20130214/144434/1135/213/20/
027710/20130214/144502/1130/201/10/
027710/20130214/144529/1135/211/20/
027710/20130214/144625/1135/3012/20/
027710/20130214/144628/1135/201/20/
027710/20130214/144653/1135/4116/20/
027710/20130214/144654/1135/234/20/
027710/20130214/144759/1130/613/10/
027710/20130214/144811/1130/1011/10/
027710/20130214/144817/1130/3369/10/
027710/20130214/144822/1130/1711/10/
027710/20130214/144851/1130/2046/10/
027710/20130214/144900/1135/255/20/
027710/20130214/144904/1130/5012/10/
027710/20130214/144916/1135/87/20/
027710/20130214/144947/1130/2634/10/
027710/20130214/144952/1130/970/10/
027710/20130214/144959/1130/1502/10/
027710/20130214/150000/1120/113616/10/
