027710/20121213/90000/1255/67708/10/
027710/20121213/90001/1260/6603/20/
027710/20121213/90004/1260/6500/20/
027710/20121213/90006/1260/6500/20/
027710/20121213/90006/1260/169/20/
027710/20121213/90007/1260/521/20/
027710/20121213/90007/1260/3200/20/
027710/20121213/90008/1260/2510/20/
027710/20121213/90013/1265/158/20/
027710/20121213/90020/1265/2056/20/
027710/20121213/90024/1265/2072/20/
027710/20121213/90030/1265/204/20/
027710/20121213/90034/1265/3002/20/
027710/20121213/90043/1265/2139/20/
027710/20121213/90045/1265/7377/20/
027710/20121213/90047/1265/111/20/
027710/20121213/90055/1265/236/20/
027710/20121213/90056/1265/305/20/
027710/20121213/90057/1265/300/20/
027710/20121213/90058/1265/1700/20/
027710/20121213/90102/1265/160/20/
027710/20121213/90110/1265/300/20/
027710/20121213/90115/1265/209/20/
027710/20121213/90144/1260/440/10/
027710/20121213/90207/1260/500/10/
027710/20121213/90209/1260/19281/10/
027710/20121213/90219/1260/800/20/
027710/20121213/90222/1260/1582/20/
027710/20121213/90228/1260/400/20/
027710/20121213/90236/1260/2120/20/
027710/20121213/90238/1255/2095/10/
027710/20121213/90239/1260/1000/20/
027710/20121213/90250/1260/3000/20/
027710/20121213/90253/1260/10000/20/
027710/20121213/90254/1260/1013/20/
027710/20121213/90306/1265/111/20/
027710/20121213/90308/1265/10000/20/
027710/20121213/90310/1265/1000/20/
027710/20121213/90311/1265/1000/20/
027710/20121213/90312/1265/6417/20/
027710/20121213/90323/1270/87/20/
027710/20121213/90326/1270/150/20/
027710/20121213/90327/1270/151/20/
027710/20121213/90328/1270/400/20/
027710/20121213/90330/1270/23715/20/
027710/20121213/90331/1270/4398/20/
027710/20121213/90335/1270/13859/10/
027710/20121213/90339/1270/1500/20/
027710/20121213/90349/1270/1000/20/
027710/20121213/90350/1270/8732/20/
027710/20121213/90351/1270/860/20/
027710/20121213/90354/1270/141/20/
027710/20121213/90354/1270/500/20/
027710/20121213/90354/1270/1000/20/
027710/20121213/90357/1270/280/20/
027710/20121213/90358/1270/800/20/
027710/20121213/90359/1270/800/20/
027710/20121213/90401/1270/459/20/
027710/20121213/90402/1270/787/20/
027710/20121213/90403/1270/1000/20/
027710/20121213/90407/1270/563/20/
027710/20121213/90418/1270/3658/20/
027710/20121213/90420/1270/1594/20/
027710/20121213/90423/1270/4000/20/
027710/20121213/90426/1270/1453/20/
027710/20121213/90427/1265/1000/10/
027710/20121213/90431/1265/9341/10/
027710/20121213/90448/1260/551/10/
027710/20121213/90450/1265/9108/20/
027710/20121213/90453/1265/2000/10/
027710/20121213/90526/1270/142/20/
027710/20121213/90551/1270/100/20/
027710/20121213/90605/1270/220/20/
027710/20121213/90606/1265/100/10/
027710/20121213/90609/1270/574/20/
027710/20121213/90617/1270/430/20/
027710/20121213/90625/1270/20001/20/
027710/20121213/90635/1270/2593/20/
027710/20121213/90636/1270/236/20/
027710/20121213/90637/1270/3265/10/
027710/20121213/90639/1270/1849/10/
027710/20121213/90652/1270/1000/20/
027710/20121213/90655/1270/11000/20/
027710/20121213/90656/1270/114/20/
027710/20121213/90657/1265/10000/10/
027710/20121213/90703/1265/9119/10/
027710/20121213/90705/1265/500/20/
027710/20121213/90732/1260/5748/10/
027710/20121213/90734/1260/9229/10/
027710/20121213/90737/1260/200/20/
027710/20121213/90744/1255/6096/10/
027710/20121213/90754/1255/1050/10/
027710/20121213/90802/1255/280/10/
027710/20121213/90818/1260/111/20/
027710/20121213/90823/1260/1500/20/
027710/20121213/90826/1260/1159/20/
027710/20121213/90830/1265/83/20/
027710/20121213/90856/1265/1804/20/
027710/20121213/90901/1265/2000/20/
027710/20121213/90928/1265/500/20/
027710/20121213/90937/1265/9069/20/
027710/20121213/91016/1265/857/10/
027710/20121213/91028/1265/520/10/
027710/20121213/91037/1265/10030/10/
027710/20121213/91041/1265/1594/10/
027710/20121213/91043/1265/1000/10/
027710/20121213/91048/1265/400/10/
027710/20121213/91049/1265/3601/20/
027710/20121213/91111/1265/120/20/
027710/20121213/91118/1265/1570/20/
027710/20121213/91119/1265/100/20/
027710/20121213/91120/1265/102/20/
027710/20121213/91146/1265/412/10/
027710/20121213/91158/1265/1521/20/
027710/20121213/91208/1265/105/20/
027710/20121213/91228/1260/85/10/
027710/20121213/91231/1265/870/20/
027710/20121213/91240/1265/200/20/
027710/20121213/91255/1260/154/10/
027710/20121213/91303/1260/1582/10/
027710/20121213/91318/1260/5046/10/
027710/20121213/91327/1260/6727/10/
027710/20121213/91329/1260/1781/10/
027710/20121213/91331/1260/515/10/
027710/20121213/91346/1255/141/10/
027710/20121213/91406/1260/1404/20/
027710/20121213/91419/1260/2115/20/
027710/20121213/91420/1260/3151/20/
027710/20121213/91421/1260/348/20/
027710/20121213/91440/1260/2065/10/
027710/20121213/91445/1260/846/10/
027710/20121213/91445/1260/396/10/
027710/20121213/91458/1260/407/10/
027710/20121213/91507/1260/245/10/
027710/20121213/91508/1260/4000/10/
027710/20121213/91515/1260/309/10/
027710/20121213/91528/1260/95/20/
027710/20121213/91546/1255/246/10/
027710/20121213/91605/1260/91/20/
027710/20121213/91615/1255/20406/10/
027710/20121213/91615/1250/4695/10/
027710/20121213/91617/1250/13420/10/
027710/20121213/91643/1255/208/20/
027710/20121213/91659/1255/1003/20/
027710/20121213/91711/1260/120/20/
027710/20121213/91719/1260/10003/20/
027710/20121213/91826/1255/2056/10/
027710/20121213/91840/1255/838/10/
027710/20121213/91844/1255/2013/10/
027710/20121213/91844/1255/1142/10/
027710/20121213/91849/1255/1013/10/
027710/20121213/91911/1255/1543/10/
027710/20121213/91914/1255/400/10/
027710/20121213/91934/1255/810/10/
027710/20121213/91943/1255/2170/10/
027710/20121213/91957/1260/88/20/
027710/20121213/92000/1255/4487/10/
027710/20121213/92003/1255/509/20/
027710/20121213/92012/1255/100/20/
027710/20121213/92013/1255/1549/20/
027710/20121213/92013/1255/1063/20/
027710/20121213/92021/1255/500/10/
027710/20121213/92040/1255/500/10/
027710/20121213/92041/1255/723/10/
027710/20121213/92041/1255/2043/10/
027710/20121213/92051/1255/6357/20/
027710/20121213/92054/1255/3000/10/
027710/20121213/92127/1255/521/10/
027710/20121213/92142/1260/1468/20/
027710/20121213/92331/1260/452/20/
027710/20121213/92334/1260/300/20/
027710/20121213/92335/1260/1159/20/
027710/20121213/92344/1260/100/20/
027710/20121213/92345/1260/1161/20/
027710/20121213/92350/1260/7732/20/
027710/20121213/92429/1265/10007/20/
027710/20121213/92437/1260/1000/10/
027710/20121213/92454/1265/97/20/
027710/20121213/92505/1260/11883/10/
027710/20121213/92510/1260/4000/20/
027710/20121213/92621/1255/201/10/
027710/20121213/92624/1255/200/10/
027710/20121213/92642/1260/1591/20/
027710/20121213/92709/1260/277/10/
027710/20121213/92738/1265/6876/20/
027710/20121213/92823/1260/423/10/
027710/20121213/92825/1260/4401/10/
027710/20121213/92830/1265/100/20/
027710/20121213/92833/1260/1000/10/
027710/20121213/92839/1260/200/10/
027710/20121213/92841/1260/2033/10/
027710/20121213/92853/1260/900/10/
027710/20121213/92856/1260/649/10/
027710/20121213/92856/1260/1065/10/
027710/20121213/92859/1260/3000/10/
027710/20121213/92922/1265/15511/20/
027710/20121213/92936/1270/2002/20/
027710/20121213/92938/1270/1000/20/
027710/20121213/92943/1270/2306/20/
027710/20121213/92953/1270/13629/20/
027710/20121213/92958/1270/4901/20/
027710/20121213/93000/1270/3644/20/
027710/20121213/93000/1270/790/20/
027710/20121213/93001/1270/21258/20/
027710/20121213/93018/1270/3218/20/
027710/20121213/93118/1270/493/20/
027710/20121213/93120/1270/150/20/
027710/20121213/93128/1270/500/20/
027710/20121213/93132/1270/300/20/
027710/20121213/93156/1270/10030/20/
027710/20121213/93157/1270/838/20/
027710/20121213/93157/1270/10000/20/
027710/20121213/93159/1270/500/20/
027710/20121213/93159/1270/8000/20/
027710/20121213/93159/1270/2000/20/
027710/20121213/93200/1270/403/20/
027710/20121213/93201/1270/6000/10/
027710/20121213/93207/1275/211/20/
027710/20121213/93209/1275/31000/20/
027710/20121213/93210/1275/1367/20/
027710/20121213/93213/1275/566/20/
027710/20121213/93218/1275/200/20/
027710/20121213/93228/1275/653/20/
027710/20121213/93230/1275/4000/20/
027710/20121213/93231/1275/2511/20/
027710/20121213/93232/1275/2352/20/
027710/20121213/93234/1275/7548/20/
027710/20121213/93234/1275/392/20/
027710/20121213/93236/1275/3043/20/
027710/20121213/93237/1275/111/20/
027710/20121213/93238/1275/300/20/
027710/20121213/93246/1270/7367/10/
027710/20121213/93249/1270/200/20/
027710/20121213/93256/1270/2031/20/
027710/20121213/93256/1275/5969/20/
027710/20121213/93302/1275/1000/20/
027710/20121213/93303/1275/460/20/
027710/20121213/93354/1270/4316/10/
027710/20121213/93355/1265/7500/10/
027710/20121213/93357/1270/127/20/
027710/20121213/93403/1270/500/20/
027710/20121213/93417/1270/100/20/
027710/20121213/93427/1265/103/10/
027710/20121213/93441/1265/816/10/
027710/20121213/93455/1265/1367/10/
027710/20121213/93516/1265/10611/10/
027710/20121213/93517/1265/300/10/
027710/20121213/93518/1265/1225/10/
027710/20121213/93518/1265/401/10/
027710/20121213/93519/1265/100/10/
027710/20121213/93521/1265/3115/10/
027710/20121213/93530/1260/6403/10/
027710/20121213/93538/1265/1000/20/
027710/20121213/93546/1265/522/20/
027710/20121213/93548/1265/100/20/
027710/20121213/93552/1265/1378/20/
027710/20121213/93607/1265/102/10/
027710/20121213/93614/1265/2501/10/
027710/20121213/93632/1270/1581/20/
027710/20121213/93734/1265/2761/10/
027710/20121213/93747/1260/4077/10/
027710/20121213/93801/1260/2444/10/
027710/20121213/93847/1260/1078/10/
027710/20121213/93852/1260/158/10/
027710/20121213/93909/1260/440/10/
027710/20121213/94000/1265/3049/20/
027710/20121213/94003/1265/203/20/
027710/20121213/94034/1265/146/10/
027710/20121213/94050/1265/785/10/
027710/20121213/94140/1260/500/10/
027710/20121213/94224/1260/549/10/
027710/20121213/94225/1260/450/10/
027710/20121213/94240/1265/222/20/
027710/20121213/94252/1265/3000/20/
027710/20121213/94327/1265/498/20/
027710/20121213/94337/1265/100/10/
027710/20121213/94349/1265/150/10/
027710/20121213/94446/1265/180/10/
027710/20121213/94534/1265/201/20/
027710/20121213/94537/1265/2830/20/
027710/20121213/94622/1265/2000/20/
027710/20121213/94638/1265/500/20/
027710/20121213/94719/1260/101/10/
027710/20121213/94917/1265/4171/20/
027710/20121213/94917/1270/5840/20/
027710/20121213/95009/1265/3020/10/
027710/20121213/95016/1270/2913/20/
027710/20121213/95136/1265/1000/10/
027710/20121213/95143/1270/1451/20/
027710/20121213/95146/1270/436/20/
027710/20121213/95203/1270/100/20/
027710/20121213/95236/1265/1552/10/
027710/20121213/95249/1265/400/10/
027710/20121213/95256/1265/300/10/
027710/20121213/95303/1265/1519/20/
027710/20121213/95319/1265/89/20/
027710/20121213/95432/1265/2000/20/
027710/20121213/95438/1265/3000/20/
027710/20121213/95443/1265/543/20/
027710/20121213/95701/1265/200/20/
027710/20121213/95718/1265/664/20/
027710/20121213/95831/1265/100/20/
027710/20121213/95947/1265/1634/20/
027710/20121213/95959/1265/3035/20/
027710/20121213/100019/1265/511/20/
027710/20121213/100028/1265/1023/20/
027710/20121213/100033/1265/644/20/
027710/20121213/100155/1265/2572/20/
027710/20121213/100157/1260/2000/10/
027710/20121213/100157/1265/3060/20/
027710/20121213/100244/1265/7459/20/
027710/20121213/100255/1265/2711/10/
027710/20121213/100257/1265/301/10/
027710/20121213/100335/1270/89/20/
027710/20121213/100344/1265/1585/10/
027710/20121213/100352/1265/511/20/
027710/20121213/100407/1265/1646/20/
027710/20121213/100456/1265/616/20/
027710/20121213/100514/1260/262/10/
027710/20121213/100530/1265/708/20/
027710/20121213/100534/1265/314/10/
027710/20121213/100625/1265/447/20/
027710/20121213/100630/1265/4000/10/
027710/20121213/100641/1265/583/10/
027710/20121213/100707/1270/85/20/
027710/20121213/100710/1265/5756/10/
027710/20121213/100726/1265/5023/20/
027710/20121213/100731/1265/1011/20/
027710/20121213/100732/1265/571/20/
027710/20121213/100738/1265/111/20/
027710/20121213/100748/1265/2011/20/
027710/20121213/100802/1265/335/20/
027710/20121213/100803/1260/500/10/
027710/20121213/100829/1270/82/20/
027710/20121213/100840/1265/1513/10/
027710/20121213/100844/1265/1000/20/
027710/20121213/100846/1260/1000/10/
027710/20121213/100849/1260/311/10/
027710/20121213/100855/1265/2011/20/
027710/20121213/100901/1265/4716/20/
027710/20121213/100907/1270/441/20/
027710/20121213/100916/1270/84/20/
027710/20121213/100948/1270/252/20/
027710/20121213/101005/1270/85/20/
027710/20121213/101048/1270/2043/20/
027710/20121213/101124/1265/589/10/
027710/20121213/101127/1265/742/10/
027710/20121213/101132/1265/725/10/
027710/20121213/101139/1265/3000/10/
027710/20121213/101156/1265/260/10/
027710/20121213/101157/1265/1955/10/
027710/20121213/101157/1260/905/10/
027710/20121213/101329/1265/287/20/
027710/20121213/101353/1265/6353/20/
027710/20121213/101530/1270/13675/20/
027710/20121213/101604/1265/3003/10/
027710/20121213/101607/1265/3001/10/
027710/20121213/101608/1265/1300/20/
027710/20121213/101725/1270/1540/20/
027710/20121213/101729/1270/23370/20/
027710/20121213/101734/1275/100/20/
027710/20121213/101737/1275/81/20/
027710/20121213/101739/1275/100/20/
027710/20121213/101742/1275/81/20/
027710/20121213/101745/1275/100/20/
027710/20121213/101748/1275/100/20/
027710/20121213/101750/1275/100/20/
027710/20121213/101754/1275/100/20/
027710/20121213/101756/1275/2270/20/
027710/20121213/101757/1275/140/20/
027710/20121213/101757/1275/1503/20/
027710/20121213/101757/1275/560/20/
027710/20121213/101800/1275/100/20/
027710/20121213/101803/1275/100/20/
027710/20121213/101803/1275/1000/20/
027710/20121213/101805/1275/2040/20/
027710/20121213/101807/1275/100/20/
027710/20121213/101807/1275/3000/20/
027710/20121213/101809/1275/160/20/
027710/20121213/101811/1275/100/20/
027710/20121213/101814/1275/100/20/
027710/20121213/101817/1275/100/20/
027710/20121213/101821/1275/100/20/
027710/20121213/101824/1275/100/20/
027710/20121213/101825/1275/92/20/
027710/20121213/101827/1275/100/20/
027710/20121213/101831/1275/100/20/
027710/20121213/101832/1275/100/20/
027710/20121213/101833/1275/3020/20/
027710/20121213/101835/1275/3508/20/
027710/20121213/101838/1275/3980/20/
027710/20121213/101841/1275/100/20/
027710/20121213/101843/1275/3000/20/
027710/20121213/101845/1275/100/20/
027710/20121213/101847/1275/579/20/
027710/20121213/101849/1275/1244/20/
027710/20121213/101850/1275/241/20/
027710/20121213/101853/1275/100/20/
027710/20121213/101857/1275/100/20/
027710/20121213/101858/1275/120/20/
027710/20121213/101900/1275/100/20/
027710/20121213/101903/1275/1080/20/
027710/20121213/101906/1275/100/20/
027710/20121213/101908/1275/2520/20/
027710/20121213/101908/1275/1000/20/
027710/20121213/101913/1270/580/10/
027710/20121213/101938/1270/2981/10/
027710/20121213/101943/1270/1000/10/
027710/20121213/101946/1270/501/10/
027710/20121213/101948/1270/2700/10/
027710/20121213/101951/1270/4122/10/
027710/20121213/101954/1270/2000/10/
027710/20121213/102008/1270/1453/10/
027710/20121213/102016/1270/461/10/
027710/20121213/102023/1270/200/20/
027710/20121213/102104/1270/81/20/
027710/20121213/102318/1270/88/20/
027710/20121213/102338/1270/211/20/
027710/20121213/102411/1270/324/20/
027710/20121213/102700/1270/467/20/
027710/20121213/102703/1270/150/20/
027710/20121213/102744/1270/8011/20/
027710/20121213/102749/1270/100/20/
027710/20121213/102750/1270/3780/20/
027710/20121213/102757/1270/100/20/
027710/20121213/102818/1270/739/20/
027710/20121213/102826/1270/1050/20/
027710/20121213/102835/1270/393/20/
027710/20121213/102836/1270/500/20/
027710/20121213/102838/1270/100/20/
027710/20121213/102844/1270/1000/20/
027710/20121213/102846/1270/100/20/
027710/20121213/102914/1270/500/20/
027710/20121213/102930/1270/800/20/
027710/20121213/102944/1270/7298/20/
027710/20121213/102946/1270/539/10/
027710/20121213/103004/1270/7701/10/
027710/20121213/103015/1270/787/20/
027710/20121213/103019/1270/157/20/
027710/20121213/103025/1270/500/20/
027710/20121213/103116/1270/1044/20/
027710/20121213/103213/1270/5500/20/
027710/20121213/103217/1270/2000/20/
027710/20121213/103228/1270/10000/20/
027710/20121213/103232/1270/100/20/
027710/20121213/103242/1270/245/20/
027710/20121213/103250/1270/755/10/
027710/20121213/103250/1270/500/20/
027710/20121213/103253/1270/2200/20/
027710/20121213/103310/1270/90/20/
027710/20121213/103315/1270/500/20/
027710/20121213/103326/1270/3681/20/
027710/20121213/103338/1270/1000/10/
027710/20121213/103351/1270/1000/10/
027710/20121213/103424/1270/10004/10/
027710/20121213/103428/1270/3000/10/
027710/20121213/103430/1270/1195/10/
027710/20121213/103451/1270/321/20/
027710/20121213/103500/1270/1402/20/
027710/20121213/103501/1270/100/20/
027710/20121213/103512/1270/180/20/
027710/20121213/103640/1270/116/20/
027710/20121213/103727/1270/137/20/
027710/20121213/103927/1270/3652/20/
027710/20121213/103933/1270/1023/20/
027710/20121213/103957/1270/7807/20/
027710/20121213/104050/1275/452/20/
027710/20121213/104100/1270/423/10/
027710/20121213/104113/1270/1771/10/
027710/20121213/104118/1270/1000/10/
027710/20121213/104120/1270/400/10/
027710/20121213/104126/1270/500/10/
027710/20121213/104131/1270/165/10/
027710/20121213/104150/1270/547/20/
027710/20121213/104151/1270/242/20/
027710/20121213/104205/1270/221/20/
027710/20121213/104217/1275/89/20/
027710/20121213/104232/1270/100/20/
027710/20121213/104241/1270/100/20/
027710/20121213/104250/1270/100/20/
027710/20121213/104301/1270/100/20/
027710/20121213/104304/1270/500/20/
027710/20121213/104314/1270/100/20/
027710/20121213/104325/1270/100/20/
027710/20121213/104333/1270/258/20/
027710/20121213/104340/1270/102/20/
027710/20121213/104343/1270/4004/20/
027710/20121213/104345/1270/1003/20/
027710/20121213/104410/1270/164/20/
027710/20121213/104418/1270/102/20/
027710/20121213/104426/1270/103/20/
027710/20121213/104435/1270/109/20/
027710/20121213/104447/1270/112/20/
027710/20121213/104454/1270/207/20/
027710/20121213/104502/1270/312/20/
027710/20121213/104528/1270/125/20/
027710/20121213/104536/1270/215/20/
027710/20121213/104544/1270/310/20/
027710/20121213/104544/1265/2197/10/
027710/20121213/104551/1270/408/20/
027710/20121213/104641/1270/149/20/
027710/20121213/104711/1265/324/10/
027710/20121213/104716/1265/4500/10/
027710/20121213/104725/1270/3522/20/
027710/20121213/104916/1265/4051/10/
027710/20121213/104917/1265/10000/10/
027710/20121213/104918/1265/1789/10/
027710/20121213/104923/1265/1000/10/
027710/20121213/104925/1265/1000/10/
027710/20121213/104927/1265/112/10/
027710/20121213/104929/1265/5841/10/
027710/20121213/104931/1265/3448/10/
027710/20121213/104936/1265/1777/10/
027710/20121213/105017/1265/210/20/
027710/20121213/105019/1265/215/20/
027710/20121213/105117/1265/107/20/
027710/20121213/105216/1265/92/20/
027710/20121213/105228/1265/1588/20/
027710/20121213/105237/1265/120/20/
027710/20121213/105311/1265/100/20/
027710/20121213/105320/1265/1020/20/
027710/20121213/105331/1265/4688/20/
027710/20121213/105337/1265/500/20/
027710/20121213/105350/1265/2000/20/
027710/20121213/105355/1265/100/20/
027710/20121213/105437/1265/82/20/
027710/20121213/105503/1265/160/20/
027710/20121213/105506/1265/295/20/
027710/20121213/105514/1270/100/20/
027710/20121213/105528/1265/86/20/
027710/20121213/105537/1270/120/20/
027710/20121213/105549/1270/100/20/
027710/20121213/105623/1265/140/10/
027710/20121213/105627/1270/200/20/
027710/20121213/105706/1270/100/20/
027710/20121213/105730/1265/131/10/
027710/20121213/105813/1270/100/20/
027710/20121213/105858/1265/81/10/
027710/20121213/105917/1265/734/10/
027710/20121213/105928/1265/566/10/
027710/20121213/110007/1270/100/20/
027710/20121213/110047/1270/2520/20/
027710/20121213/110058/1270/3257/20/
027710/20121213/110105/1270/395/20/
027710/20121213/110111/1270/400/20/
027710/20121213/110135/1270/96/20/
027710/20121213/110156/1270/120/20/
027710/20121213/110240/1270/100/20/
027710/20121213/110322/1270/461/20/
027710/20121213/110355/1265/167/10/
027710/20121213/110400/1265/4000/10/
027710/20121213/110446/1265/160/10/
027710/20121213/110503/1270/490/20/
027710/20121213/110600/1270/100/20/
027710/20121213/110639/1265/220/10/
027710/20121213/110737/1265/92/10/
027710/20121213/110825/1270/90/20/
027710/20121213/110922/1270/100/20/
027710/20121213/110929/1265/1000/10/
027710/20121213/110947/1270/85/20/
027710/20121213/111016/1270/90/20/
027710/20121213/111140/1270/110/20/
027710/20121213/111233/1265/774/10/
027710/20121213/111350/1265/400/10/
027710/20121213/111427/1265/5816/10/
027710/20121213/111458/1260/602/10/
027710/20121213/111854/1260/831/10/
027710/20121213/111901/1260/13000/10/
027710/20121213/111946/1265/87/20/
027710/20121213/112206/1260/156/10/
027710/20121213/112210/1260/10000/10/
027710/20121213/112235/1260/4136/10/
027710/20121213/112253/1265/10500/20/
027710/20121213/112301/1265/3680/20/
027710/20121213/112325/1270/515/20/
027710/20121213/112407/1265/2525/10/
027710/20121213/112414/1265/3400/10/
027710/20121213/112607/1260/120/10/
027710/20121213/112620/1265/322/20/
027710/20121213/112856/1260/7068/10/
027710/20121213/112903/1260/19980/20/
027710/20121213/112922/1260/351/20/
027710/20121213/112945/1260/151/20/
027710/20121213/113005/1260/100/20/
027710/20121213/113012/1260/100/20/
027710/20121213/113018/1260/100/20/
027710/20121213/113025/1260/100/20/
027710/20121213/113030/1260/250/20/
027710/20121213/113031/1260/100/20/
027710/20121213/113038/1260/100/20/
027710/20121213/113045/1260/100/20/
027710/20121213/113045/1260/3208/20/
027710/20121213/113045/1265/400/20/
027710/20121213/113052/1265/100/20/
027710/20121213/113059/1265/100/20/
027710/20121213/113107/1265/100/20/
027710/20121213/113113/1265/100/20/
027710/20121213/113119/1265/100/20/
027710/20121213/113127/1260/200/10/
027710/20121213/113132/1265/100/20/
027710/20121213/113145/1265/100/20/
027710/20121213/113155/1265/100/20/
027710/20121213/113202/1265/100/20/
027710/20121213/113203/1265/7389/20/
027710/20121213/113210/1260/1198/10/
027710/20121213/113215/1260/100/20/
027710/20121213/113228/1260/100/20/
027710/20121213/113231/1260/832/20/
027710/20121213/113234/1260/100/20/
027710/20121213/113241/1255/503/10/
027710/20121213/113252/1260/5000/20/
027710/20121213/113314/1260/138/20/
027710/20121213/113322/1260/100/20/
027710/20121213/113329/1260/100/20/
027710/20121213/113335/1260/247/20/
027710/20121213/113342/1260/353/10/
027710/20121213/113344/1260/100/20/
027710/20121213/113642/1260/83/20/
027710/20121213/113709/1260/1024/20/
027710/20121213/113737/1255/262/10/
027710/20121213/113801/1260/148/20/
027710/20121213/113815/1255/268/10/
027710/20121213/113815/1255/200/10/
027710/20121213/113912/1260/92/20/
027710/20121213/114135/1260/5080/20/
027710/20121213/114205/1260/4040/20/
027710/20121213/114210/1260/618/20/
027710/20121213/114226/1260/1042/20/
027710/20121213/114308/1265/95/20/
027710/20121213/114552/1260/81/10/
027710/20121213/114606/1265/1021/20/
027710/20121213/114855/1265/84/20/
027710/20121213/115047/1265/7930/20/
027710/20121213/115142/1265/500/20/
027710/20121213/115142/1265/150/20/
027710/20121213/115231/1265/101/20/
027710/20121213/115300/1260/700/10/
027710/20121213/115520/1270/149/20/
027710/20121213/115530/1270/150/20/
027710/20121213/115542/1265/134/20/
027710/20121213/115548/1265/200/20/
027710/20121213/115550/1265/1266/20/
027710/20121213/115602/1270/103/20/
027710/20121213/115614/1270/100/20/
027710/20121213/115619/1270/200/20/
027710/20121213/115629/1270/100/20/
027710/20121213/115632/1270/200/20/
027710/20121213/115807/1265/1600/10/
027710/20121213/115915/1270/100/20/
027710/20121213/120154/1265/90/20/
027710/20121213/120258/1270/90/20/
027710/20121213/120646/1265/436/20/
027710/20121213/120647/1265/200/10/
027710/20121213/120745/1265/220/10/
027710/20121213/120839/1270/82/20/
027710/20121213/120958/1270/50040/20/
027710/20121213/121007/1270/1000/20/
027710/20121213/121038/1270/2062/20/
027710/20121213/121042/1270/386/20/
027710/20121213/121054/1270/493/20/
027710/20121213/121058/1270/5077/20/
027710/20121213/121109/1270/2349/10/
027710/20121213/121156/1270/1676/20/
027710/20121213/121208/1270/1020/20/
027710/20121213/121232/1270/566/20/
027710/20121213/121253/1270/504/10/
027710/20121213/121309/1270/252/20/
027710/20121213/121325/1275/1420/20/
027710/20121213/121416/1275/82/20/
027710/20121213/121429/1270/828/10/
027710/20121213/121448/1270/321/10/
027710/20121213/121506/1270/111/10/
027710/20121213/121540/1270/1011/10/
027710/20121213/121549/1270/248/10/
027710/20121213/121609/1270/994/20/
027710/20121213/121612/1270/742/20/
027710/20121213/121901/1270/500/20/
027710/20121213/122335/1270/81/20/
027710/20121213/122635/1270/17080/20/
027710/20121213/122709/1270/5622/10/
027710/20121213/122723/1275/2568/20/
027710/20121213/122753/1275/603/20/
027710/20121213/122907/1275/731/20/
027710/20121213/123009/1275/9000/20/
027710/20121213/123031/1275/2755/20/
027710/20121213/123033/1275/125/20/
027710/20121213/123155/1275/1010/20/
027710/20121213/123214/1275/500/20/
027710/20121213/123217/1275/100/20/
027710/20121213/123238/1275/1500/20/
027710/20121213/123245/1275/384/20/
027710/20121213/123252/1275/104/20/
027710/20121213/123308/1275/100/20/
027710/20121213/123343/1275/1610/20/
027710/20121213/123526/1275/1669/20/
027710/20121213/123603/1270/5000/10/
027710/20121213/123613/1270/724/10/
027710/20121213/123616/1270/3000/10/
027710/20121213/123617/1270/1000/10/
027710/20121213/123623/1270/526/10/
027710/20121213/123624/1270/474/20/
027710/20121213/123713/1275/124/20/
027710/20121213/123751/1275/93/20/
027710/20121213/123821/1270/10001/10/
027710/20121213/123825/1270/100/10/
027710/20121213/123853/1275/1001/20/
027710/20121213/123856/1270/2049/10/
027710/20121213/123859/1270/520/10/
027710/20121213/123906/1270/847/10/
027710/20121213/123924/1270/501/20/
027710/20121213/123938/1270/114/20/
027710/20121213/123946/1270/109/20/
027710/20121213/124103/1270/1828/10/
027710/20121213/124149/1270/811/10/
027710/20121213/124349/1270/1000/20/
027710/20121213/124539/1265/1800/10/
027710/20121213/124550/1265/18000/10/
027710/20121213/124613/1270/100/20/
027710/20121213/124636/1265/444/10/
027710/20121213/124729/1265/501/20/
027710/20121213/124735/1265/500/20/
027710/20121213/124802/1265/2876/20/
027710/20121213/124824/1265/1044/20/
027710/20121213/124834/1265/168/20/
027710/20121213/124843/1265/400/20/
027710/20121213/124937/1265/179/20/
027710/20121213/124951/1265/534/20/
027710/20121213/125045/1260/9000/10/
027710/20121213/125100/1260/89/10/
027710/20121213/125141/1265/89/20/
027710/20121213/125143/1265/200/20/
027710/20121213/125155/1265/5010/20/
027710/20121213/125214/1265/1601/20/
027710/20121213/125431/1265/1040/20/
027710/20121213/125444/1265/197/20/
027710/20121213/125712/1265/583/10/
027710/20121213/125953/1260/2326/10/
027710/20121213/130026/1260/400/10/
027710/20121213/130035/1260/5941/10/
027710/20121213/130046/1260/1400/10/
027710/20121213/130050/1260/9500/10/
027710/20121213/130115/1260/520/10/
027710/20121213/130139/1260/601/10/
027710/20121213/130230/1260/1501/10/
027710/20121213/130238/1260/458/10/
027710/20121213/130246/1260/100/10/
027710/20121213/130255/1260/685/10/
027710/20121213/130255/1260/593/10/
027710/20121213/130422/1260/1752/10/
027710/20121213/130516/1260/8444/10/
027710/20121213/130524/1260/6234/10/
027710/20121213/130626/1265/107/20/
027710/20121213/130633/1260/6008/10/
027710/20121213/130641/1260/1510/10/
027710/20121213/130648/1260/372/20/
027710/20121213/130700/1260/120/20/
027710/20121213/130700/1265/81/20/
027710/20121213/130718/1260/120/20/
027710/20121213/130724/1255/303/10/
027710/20121213/130728/1260/201/20/
027710/20121213/130741/1260/104/20/
027710/20121213/130744/1260/501/20/
027710/20121213/130748/1260/101/20/
027710/20121213/130754/1260/102/20/
027710/20121213/130800/1260/101/20/
027710/20121213/130808/1260/85/20/
027710/20121213/130829/1265/122/20/
027710/20121213/130937/1255/1035/10/
027710/20121213/131040/1255/317/10/
027710/20121213/131056/1255/501/10/
027710/20121213/131215/1260/4001/20/
027710/20121213/131555/1260/216/20/
027710/20121213/131619/1260/114/20/
027710/20121213/131627/1260/102/20/
027710/20121213/131629/1260/3000/20/
027710/20121213/131647/1260/1484/20/
027710/20121213/131653/1260/5678/20/
027710/20121213/131654/1260/1601/20/
027710/20121213/131657/1260/548/20/
027710/20121213/131658/1260/5000/20/
027710/20121213/131701/1260/4953/20/
027710/20121213/131716/1265/428/20/
027710/20121213/131901/1265/814/20/
027710/20121213/131938/1260/1227/10/
027710/20121213/132009/1260/135/10/
027710/20121213/132038/1265/1402/20/
027710/20121213/132142/1265/100/20/
027710/20121213/132150/1260/10338/10/
027710/20121213/132155/1260/1602/10/
027710/20121213/132206/1260/364/10/
027710/20121213/132253/1260/7320/10/
027710/20121213/132306/1260/1000/20/
027710/20121213/132317/1260/688/20/
027710/20121213/132322/1260/4322/10/
027710/20121213/132325/1260/100/20/
027710/20121213/132507/1255/924/10/
027710/20121213/132621/1255/111/10/
027710/20121213/132645/1255/3500/10/
027710/20121213/132653/1255/1626/10/
027710/20121213/132705/1255/100/10/
027710/20121213/132807/1260/8002/20/
027710/20121213/132943/1260/5510/20/
027710/20121213/133123/1260/1475/10/
027710/20121213/133313/1260/3500/10/
027710/20121213/133351/1260/213/10/
027710/20121213/133435/1260/8371/10/
027710/20121213/133454/1260/275/20/
027710/20121213/133504/1260/500/10/
027710/20121213/133525/1255/30020/10/
027710/20121213/133657/1255/408/10/
027710/20121213/133832/1255/915/10/
027710/20121213/134134/1260/7026/20/
027710/20121213/134226/1260/3533/20/
027710/20121213/134405/1265/794/20/
027710/20121213/134526/1260/4000/10/
027710/20121213/134540/1260/8291/10/
027710/20121213/134616/1260/800/20/
027710/20121213/134621/1260/3409/20/
027710/20121213/134630/1260/1092/10/
027710/20121213/134650/1260/2508/20/
027710/20121213/134732/1265/1003/20/
027710/20121213/134845/1265/517/20/
027710/20121213/134943/1260/234/10/
027710/20121213/134949/1260/1000/10/
027710/20121213/135153/1265/2611/20/
027710/20121213/135517/1260/306/10/
027710/20121213/135555/1260/2004/10/
027710/20121213/135912/1260/338/10/
027710/20121213/140049/1260/5721/10/
027710/20121213/140105/1260/3627/10/
027710/20121213/140221/1260/580/10/
027710/20121213/140223/1260/1000/10/
027710/20121213/140307/1265/2007/20/
027710/20121213/140309/1265/1135/20/
027710/20121213/140311/1265/3000/20/
027710/20121213/140411/1265/11781/20/
027710/20121213/140619/1270/7678/20/
027710/20121213/140647/1270/100/20/
027710/20121213/140716/1270/800/20/
027710/20121213/140719/1265/15324/10/
027710/20121213/140810/1265/185/10/
027710/20121213/140856/1265/1371/10/
027710/20121213/140858/1265/500/10/
027710/20121213/140858/1265/133/10/
027710/20121213/140903/1265/1135/10/
027710/20121213/140905/1265/901/10/
027710/20121213/140929/1265/3654/10/
027710/20121213/141247/1270/1016/20/
027710/20121213/141256/1270/150/20/
027710/20121213/141305/1270/1000/20/
027710/20121213/141350/1270/1000/20/
027710/20121213/141353/1265/1000/10/
027710/20121213/141432/1270/23956/20/
027710/20121213/141532/1275/103/20/
027710/20121213/141606/1270/200/10/
027710/20121213/141632/1275/1003/20/
027710/20121213/141706/1270/133/10/
027710/20121213/141714/1275/1000/20/
027710/20121213/141756/1275/5064/20/
027710/20121213/141758/1275/1000/20/
027710/20121213/141802/1275/300/20/
027710/20121213/141809/1275/1199/20/
027710/20121213/141810/1275/784/20/
027710/20121213/141816/1275/320/20/
027710/20121213/141816/1275/784/20/
027710/20121213/141817/1275/1000/20/
027710/20121213/141825/1275/450/20/
027710/20121213/141826/1275/101/20/
027710/20121213/141838/1270/4020/10/
027710/20121213/141839/1275/25382/20/
027710/20121213/141841/1275/6955/20/
027710/20121213/141841/1275/1541/20/
027710/20121213/141841/1275/784/20/
027710/20121213/141841/1275/105/20/
027710/20121213/141842/1275/100/10/
027710/20121213/141846/1275/4032/10/
027710/20121213/141856/1280/642/20/
027710/20121213/141908/1280/786/20/
027710/20121213/141910/1275/100/10/
027710/20121213/141936/1280/515/20/
027710/20121213/141940/1275/701/10/
027710/20121213/141945/1275/981/10/
027710/20121213/141946/1275/500/10/
027710/20121213/141946/1275/10653/10/
027710/20121213/141954/1275/10822/20/
027710/20121213/141955/1275/501/20/
027710/20121213/141956/1275/334/20/
027710/20121213/141956/1275/3300/20/
027710/20121213/142017/1280/743/20/
027710/20121213/142019/1280/24692/20/
027710/20121213/142020/1280/117/20/
027710/20121213/142021/1280/1000/20/
027710/20121213/142021/1280/1000/20/
027710/20121213/142022/1280/1600/20/
027710/20121213/142022/1280/2000/20/
027710/20121213/142023/1280/3906/20/
027710/20121213/142023/1280/804/20/
027710/20121213/142023/1280/12888/20/
027710/20121213/142025/1280/710/20/
027710/20121213/142025/1280/1000/20/
027710/20121213/142026/1280/344/20/
027710/20121213/142027/1285/1562/20/
027710/20121213/142030/1285/790/20/
027710/20121213/142030/1285/333/20/
027710/20121213/142034/1280/468/10/
027710/20121213/142037/1280/591/20/
027710/20121213/142037/1280/4874/10/
027710/20121213/142039/1280/126/20/
027710/20121213/142042/1280/2362/10/
027710/20121213/142045/1280/1023/20/
027710/20121213/142046/1280/173/20/
027710/20121213/142052/1280/161/20/
027710/20121213/142054/1280/1106/20/
027710/20121213/142054/1280/160/20/
027710/20121213/142054/1280/1735/20/
027710/20121213/142055/1280/379/20/
027710/20121213/142055/1280/1516/20/
027710/20121213/142059/1280/1030/10/
027710/20121213/142113/1280/1544/10/
027710/20121213/142121/1280/5021/10/
027710/20121213/142131/1280/422/10/
027710/20121213/142140/1285/121/20/
027710/20121213/142147/1285/111/20/
027710/20121213/142149/1285/1534/20/
027710/20121213/142150/1285/100/20/
027710/20121213/142151/1285/119/20/
027710/20121213/142152/1285/1020/20/
027710/20121213/142153/1285/300/20/
027710/20121213/142159/1285/1732/20/
027710/20121213/142159/1285/200/20/
027710/20121213/142159/1285/1770/20/
027710/20121213/142202/1285/37832/20/
027710/20121213/142204/1285/5680/10/
027710/20121213/142204/1285/1000/20/
027710/20121213/142205/1280/2000/10/
027710/20121213/142205/1285/323/20/
027710/20121213/142205/1290/677/20/
027710/20121213/142206/1290/1000/20/
027710/20121213/142207/1285/1000/10/
027710/20121213/142207/1290/1000/20/
027710/20121213/142211/1285/264/20/
027710/20121213/142211/1285/686/20/
027710/20121213/142212/1285/2938/10/
027710/20121213/142214/1285/2646/20/
027710/20121213/142217/1290/94/20/
027710/20121213/142219/1285/356/10/
027710/20121213/142219/1285/150/20/
027710/20121213/142219/1285/100/20/
027710/20121213/142221/1285/726/20/
027710/20121213/142221/1290/313/20/
027710/20121213/142224/1290/2995/20/
027710/20121213/142226/1285/2000/10/
027710/20121213/142229/1285/3008/10/
027710/20121213/142231/1285/825/10/
027710/20121213/142233/1285/100/10/
027710/20121213/142234/1290/400/20/
027710/20121213/142234/1285/582/10/
027710/20121213/142235/1285/3920/10/
027710/20121213/142236/1285/2000/10/
027710/20121213/142236/1285/1000/10/
027710/20121213/142236/1285/280/10/
027710/20121213/142240/1285/2657/10/
027710/20121213/142241/1285/264/20/
027710/20121213/142242/1285/100/20/
027710/20121213/142244/1285/125/10/
027710/20121213/142245/1285/3060/10/
027710/20121213/142247/1285/100/10/
027710/20121213/142249/1285/100/10/
027710/20121213/142251/1285/2051/10/
027710/20121213/142253/1285/100/10/
027710/20121213/142254/1285/3500/10/
027710/20121213/142255/1285/136/10/
027710/20121213/142255/1285/1519/10/
027710/20121213/142255/1285/500/10/
027710/20121213/142257/1285/3952/10/
027710/20121213/142259/1285/2000/10/
027710/20121213/142259/1285/200/10/
027710/20121213/142259/1285/200/10/
027710/20121213/142300/1285/778/10/
027710/20121213/142300/1285/1596/10/
027710/20121213/142304/1285/1151/20/
027710/20121213/142305/1285/479/10/
027710/20121213/142306/1285/299/20/
027710/20121213/142306/1285/400/10/
027710/20121213/142308/1285/1436/10/
027710/20121213/142309/1285/500/20/
027710/20121213/142313/1285/3001/20/
027710/20121213/142316/1285/500/20/
027710/20121213/142317/1285/176/20/
027710/20121213/142320/1285/1128/20/
027710/20121213/142320/1285/500/20/
027710/20121213/142325/1285/5062/20/
027710/20121213/142326/1285/5001/20/
027710/20121213/142327/1285/100/20/
027710/20121213/142328/1285/100/20/
027710/20121213/142328/1285/2169/20/
027710/20121213/142329/1285/100/20/
027710/20121213/142331/1285/3846/20/
027710/20121213/142333/1285/2123/20/
027710/20121213/142338/1285/1557/20/
027710/20121213/142339/1285/5008/20/
027710/20121213/142342/1285/3000/20/
027710/20121213/142343/1285/426/20/
027710/20121213/142349/1285/390/20/
027710/20121213/142359/1285/5500/20/
027710/20121213/142404/1285/200/20/
027710/20121213/142410/1285/100/20/
027710/20121213/142430/1285/500/20/
027710/20121213/142432/1285/100/20/
027710/20121213/142448/1280/277/10/
027710/20121213/142504/1280/560/10/
027710/20121213/142511/1280/200/10/
027710/20121213/142513/1280/13000/10/
027710/20121213/142515/1280/210/10/
027710/20121213/142515/1280/800/10/
027710/20121213/142516/1280/1000/10/
027710/20121213/142517/1280/7001/10/
027710/20121213/142517/1280/2600/10/
027710/20121213/142518/1280/8219/10/
027710/20121213/142520/1275/426/10/
027710/20121213/142526/1275/400/10/
027710/20121213/142544/1275/1037/10/
027710/20121213/142549/1275/1781/10/
027710/20121213/142550/1275/3000/10/
027710/20121213/142553/1275/100/10/
027710/20121213/142553/1275/100/10/
027710/20121213/142559/1275/500/10/
027710/20121213/142559/1275/500/10/
027710/20121213/142559/1275/500/10/
027710/20121213/142607/1275/1500/10/
027710/20121213/142608/1275/2000/10/
027710/20121213/142608/1275/250/10/
027710/20121213/142609/1275/3297/10/
027710/20121213/142609/1275/2041/10/
027710/20121213/142621/1275/3182/20/
027710/20121213/142638/1280/2003/20/
027710/20121213/142711/1280/2004/20/
027710/20121213/142757/1275/505/10/
027710/20121213/142759/1275/212/10/
027710/20121213/142759/1280/200/20/
027710/20121213/142802/1275/5001/10/
027710/20121213/142803/1275/1735/10/
027710/20121213/142811/1275/163/10/
027710/20121213/142811/1275/822/10/
027710/20121213/142812/1275/1000/10/
027710/20121213/142812/1275/1000/10/
027710/20121213/142829/1280/149/20/
027710/20121213/142835/1280/100/20/
027710/20121213/142841/1280/100/20/
027710/20121213/142849/1280/100/20/
027710/20121213/142855/1280/100/20/
027710/20121213/142903/1280/100/20/
027710/20121213/142933/1280/89/20/
027710/20121213/143005/1275/367/10/
027710/20121213/143053/1275/12948/10/
027710/20121213/143058/1275/110/10/
027710/20121213/143103/1275/1060/10/
027710/20121213/143104/1275/1000/10/
027710/20121213/143126/1275/2668/10/
027710/20121213/143155/1270/4040/10/
027710/20121213/143216/1275/3562/20/
027710/20121213/143218/1275/784/10/
027710/20121213/143220/1275/200/10/
027710/20121213/143223/1275/494/10/
027710/20121213/143236/1270/3871/10/
027710/20121213/143321/1275/6080/20/
027710/20121213/143345/1275/3040/20/
027710/20121213/143419/1275/160/20/
027710/20121213/143422/1275/450/20/
027710/20121213/143445/1275/420/20/
027710/20121213/143524/1275/1560/20/
027710/20121213/143525/1275/5000/20/
027710/20121213/143543/1275/530/20/
027710/20121213/143547/1275/475/20/
027710/20121213/143548/1275/7843/20/
027710/20121213/143549/1270/320/10/
027710/20121213/143550/1275/200/20/
027710/20121213/143613/1275/5030/20/
027710/20121213/143616/1275/419/20/
027710/20121213/143623/1275/1660/20/
027710/20121213/143634/1275/368/20/
027710/20121213/143644/1275/510/20/
027710/20121213/143652/1275/1374/20/
027710/20121213/143655/1270/300/10/
027710/20121213/143704/1275/2010/20/
027710/20121213/143706/1275/1067/20/
027710/20121213/143737/1275/1710/10/
027710/20121213/143801/1275/6740/10/
027710/20121213/143814/1275/5021/10/
027710/20121213/143836/1275/5869/10/
027710/20121213/143848/1270/130/10/
027710/20121213/143947/1275/2080/20/
027710/20121213/143952/1275/1000/20/
027710/20121213/143959/1270/310/10/
027710/20121213/144001/1275/510/20/
027710/20121213/144002/1275/571/20/
027710/20121213/144011/1275/1444/10/
027710/20121213/144032/1270/514/10/
027710/20121213/144055/1270/654/10/
027710/20121213/144102/1270/102/10/
027710/20121213/144104/1275/100/20/
027710/20121213/144141/1275/3040/20/
027710/20121213/144210/1270/350/10/
027710/20121213/144226/1270/411/10/
027710/20121213/144257/1275/2041/20/
027710/20121213/144300/1275/210/20/
027710/20121213/144329/1275/4027/20/
027710/20121213/144340/1270/2144/10/
027710/20121213/144442/1275/3077/20/
027710/20121213/144443/1270/5401/10/
027710/20121213/144447/1270/4136/10/
027710/20121213/144526/1270/1126/10/
027710/20121213/144529/1270/4000/10/
027710/20121213/144531/1270/860/10/
027710/20121213/144532/1270/860/10/
027710/20121213/144542/1270/7090/10/
027710/20121213/144543/1270/127/10/
027710/20121213/144544/1270/693/10/
027710/20121213/144546/1270/1011/10/
027710/20121213/144547/1270/921/10/
027710/20121213/144548/1270/1452/10/
027710/20121213/144602/1265/1017/10/
027710/20121213/144605/1265/503/10/
027710/20121213/144609/1265/1016/10/
027710/20121213/144612/1265/1029/10/
027710/20121213/144638/1265/1060/10/
027710/20121213/144737/1270/1049/20/
027710/20121213/144814/1270/310/20/
027710/20121213/144818/1265/1400/10/
027710/20121213/144859/1270/89/20/
027710/20121213/144920/1265/859/10/
027710/20121213/144926/1270/1052/20/
027710/20121213/144926/1265/386/10/
027710/20121213/144930/1265/1551/10/
027710/20121213/144933/1265/2000/10/
027710/20121213/144934/1265/1500/10/
027710/20121213/144935/1265/780/10/
027710/20121213/144935/1265/4393/10/
027710/20121213/144938/1265/10000/10/
027710/20121213/144940/1265/120/10/
027710/20121213/144942/1265/10915/10/
027710/20121213/144942/1265/11912/10/
027710/20121213/144944/1260/11011/10/
027710/20121213/144944/1260/3826/10/
027710/20121213/144949/1265/569/20/
027710/20121213/150000/1265/186618/10/
