027710/20130204/90000/1085/2163/20/
027710/20130204/90008/1085/1000/20/
027710/20130204/90013/1085/2000/20/
027710/20130204/90043/1080/5000/10/
027710/20130204/90044/1080/2285/10/
027710/20130204/90051/1085/1022/20/
027710/20130204/90128/1085/200/20/
027710/20130204/90151/1080/3000/10/
027710/20130204/90208/1080/2595/10/
027710/20130204/90223/1080/500/20/
027710/20130204/90611/1075/10021/10/
027710/20130204/90616/1075/1000/10/
027710/20130204/90620/1075/2144/10/
027710/20130204/90621/1070/1000/10/
027710/20130204/90629/1070/1000/10/
027710/20130204/90638/1075/11937/20/
027710/20130204/90657/1075/724/20/
027710/20130204/90710/1075/1297/20/
027710/20130204/90714/1075/500/20/
027710/20130204/90715/1075/1199/20/
027710/20130204/90726/1075/1760/10/
027710/20130204/90836/1080/2011/20/
027710/20130204/90850/1080/500/20/
027710/20130204/90938/1075/3071/10/
027710/20130204/91027/1075/5000/10/
027710/20130204/91034/1075/2000/10/
027710/20130204/91047/1075/10000/10/
027710/20130204/91053/1075/4000/10/
027710/20130204/91113/1075/513/10/
027710/20130204/91122/1075/1456/10/
027710/20130204/91151/1070/207/10/
027710/20130204/91316/1070/1000/10/
027710/20130204/91355/1075/8134/20/
027710/20130204/91431/1075/786/10/
027710/20130204/91502/1075/1000/10/
027710/20130204/91533/1075/5001/10/
027710/20130204/91621/1075/3722/10/
027710/20130204/91655/1070/245/10/
027710/20130204/91722/1070/1724/10/
027710/20130204/91904/1070/897/10/
027710/20130204/91929/1070/431/10/
027710/20130204/91947/1070/430/10/
027710/20130204/92029/1075/100/20/
027710/20130204/92048/1075/95/20/
027710/20130204/92100/1070/728/10/
027710/20130204/92111/1075/300/20/
027710/20130204/92131/1070/156/10/
027710/20130204/92256/1075/7925/20/
027710/20130204/92347/1075/120/10/
027710/20130204/92436/1075/2306/10/
027710/20130204/92559/1075/92/20/
027710/20130204/92727/1075/2910/10/
027710/20130204/92755/1070/1539/10/
027710/20130204/92928/1070/1161/10/
027710/20130204/92955/1070/7000/10/
027710/20130204/93041/1070/100/10/
027710/20130204/93256/1075/316/20/
027710/20130204/93541/1075/91/20/
027710/20130204/93616/1075/7280/20/
027710/20130204/93622/1075/492/10/
027710/20130204/93652/1075/1054/10/
027710/20130204/93723/1075/161/20/
027710/20130204/93848/1075/3910/20/
027710/20130204/93851/1075/500/20/
027710/20130204/93857/1075/500/20/
027710/20130204/93906/1075/300/20/
027710/20130204/93906/1075/500/20/
027710/20130204/93915/1075/85/20/
027710/20130204/93955/1075/145/10/
027710/20130204/94132/1070/502/10/
027710/20130204/94322/1075/128/20/
027710/20130204/94403/1075/1060/20/
027710/20130204/94510/1075/3602/20/
027710/20130204/94510/1080/1062/20/
027710/20130204/94520/1075/6000/10/
027710/20130204/94535/1075/100/20/
027710/20130204/94539/1075/376/20/
027710/20130204/94548/1075/474/10/
027710/20130204/94601/1070/1000/10/
027710/20130204/94612/1075/500/20/
027710/20130204/94633/1075/1000/20/
027710/20130204/94652/1075/500/20/
027710/20130204/94834/1075/658/20/
027710/20130204/95207/1075/85/10/
027710/20130204/95232/1075/3503/10/
027710/20130204/95253/1075/97/10/
027710/20130204/95331/1075/103/10/
027710/20130204/95521/1075/542/10/
027710/20130204/95608/1070/16400/10/
027710/20130204/95630/1070/850/10/
027710/20130204/95631/1070/9844/10/
027710/20130204/95646/1070/124/20/
027710/20130204/95651/1070/90/20/
027710/20130204/95754/1070/269/10/
027710/20130204/95902/1070/781/10/
027710/20130204/100054/1070/1619/10/
027710/20130204/100515/1070/1207/10/
027710/20130204/100532/1070/97/10/
027710/20130204/100533/1070/340/10/
027710/20130204/100541/1070/4001/10/
027710/20130204/100609/1075/151/20/
027710/20130204/100613/1070/137/10/
027710/20130204/100627/1075/501/20/
027710/20130204/100645/1075/401/20/
027710/20130204/100750/1075/1000/20/
027710/20130204/101047/1075/1066/20/
027710/20130204/101633/1070/1007/10/
027710/20130204/101924/1070/1354/10/
027710/20130204/102218/1070/1000/10/
027710/20130204/102535/1075/105/20/
027710/20130204/103618/1070/3003/10/
027710/20130204/103637/1075/5655/20/
027710/20130204/103804/1070/3701/10/
027710/20130204/104021/1070/1000/10/
027710/20130204/104049/1070/10337/10/
027710/20130204/104103/1070/200/20/
027710/20130204/104115/1070/2941/20/
027710/20130204/104222/1075/511/20/
027710/20130204/104254/1075/6000/20/
027710/20130204/104350/1075/3019/20/
027710/20130204/104405/1075/82/20/
027710/20130204/104427/1075/286/10/
027710/20130204/104507/1075/2000/20/
027710/20130204/104514/1075/714/20/
027710/20130204/104522/1075/200/10/
027710/20130204/104613/1075/1000/10/
027710/20130204/104622/1075/1000/10/
027710/20130204/105412/1075/4180/10/
027710/20130204/105729/1075/93/10/
027710/20130204/110022/1075/275/10/
027710/20130204/110616/1075/306/20/
027710/20130204/110702/1075/100/20/
027710/20130204/110804/1075/1708/20/
027710/20130204/111516/1075/1002/10/
027710/20130204/111542/1075/1556/10/
027710/20130204/111642/1075/1701/20/
027710/20130204/111648/1075/151/20/
027710/20130204/111720/1075/3001/20/
027710/20130204/111722/1075/1000/20/
027710/20130204/111825/1075/1596/20/
027710/20130204/112045/1080/3003/20/
027710/20130204/112053/1080/407/20/
027710/20130204/112542/1080/1850/20/
027710/20130204/112628/1075/5000/10/
027710/20130204/113258/1075/5026/10/
027710/20130204/113348/1075/322/10/
027710/20130204/113759/1070/2987/10/
027710/20130204/113955/1075/2675/20/
027710/20130204/114101/1075/905/10/
027710/20130204/114544/1080/1001/20/
027710/20130204/114902/1075/4267/10/
027710/20130204/114930/1075/700/20/
027710/20130204/115022/1075/1979/10/
027710/20130204/115429/1075/95/20/
027710/20130204/120026/1075/91/20/
027710/20130204/120911/1080/111/20/
027710/20130204/121924/1075/6000/10/
027710/20130204/121928/1075/11363/10/
027710/20130204/121930/1075/100/20/
027710/20130204/122014/1075/100/20/
027710/20130204/122032/1075/500/20/
027710/20130204/122039/1075/956/20/
027710/20130204/122251/1075/801/10/
027710/20130204/122304/1075/650/20/
027710/20130204/122310/1075/550/20/
027710/20130204/122515/1075/2000/10/
027710/20130204/123254/1080/101/20/
027710/20130204/124610/1075/974/10/
027710/20130204/124614/1075/4327/10/
027710/20130204/124653/1075/320/20/
027710/20130204/124704/1070/200/10/
027710/20130204/124708/1075/1000/20/
027710/20130204/125708/1070/560/10/
027710/20130204/130313/1075/3020/20/
027710/20130204/130328/1070/5000/10/
027710/20130204/130344/1070/187/10/
027710/20130204/130358/1075/105/20/
027710/20130204/130603/1075/100/20/
027710/20130204/130848/1070/830/10/
027710/20130204/131011/1070/401/10/
027710/20130204/131248/1070/1520/10/
027710/20130204/131340/1070/100/10/
027710/20130204/131717/1075/1674/20/
027710/20130204/131804/1075/1500/20/
027710/20130204/131809/1075/500/20/
027710/20130204/132123/1070/20001/10/
027710/20130204/132146/1070/20000/10/
027710/20130204/132308/1075/1001/20/
027710/20130204/132648/1070/36067/20/
027710/20130204/132708/1070/2000/20/
027710/20130204/132711/1070/933/20/
027710/20130204/132805/1070/162/10/
027710/20130204/132826/1070/490/10/
027710/20130204/132827/1070/10000/10/
027710/20130204/132843/1070/260/10/
027710/20130204/132922/1075/90/20/
027710/20130204/133112/1075/83/20/
027710/20130204/133159/1070/1001/10/
027710/20130204/133201/1070/3000/10/
027710/20130204/133607/1070/2003/10/
027710/20130204/133654/1070/1082/10/
027710/20130204/134024/1070/3334/10/
027710/20130204/134024/1065/6666/10/
027710/20130204/134135/1070/666/10/
027710/20130204/134201/1070/259/20/
027710/20130204/134237/1070/741/10/
027710/20130204/134319/1070/156/10/
027710/20130204/134338/1070/100/10/
027710/20130204/134345/1070/100/10/
027710/20130204/134352/1070/1000/10/
027710/20130204/134356/1070/1000/10/
027710/20130204/134526/1070/349/10/
027710/20130204/134758/1065/5003/10/
027710/20130204/134940/1065/200/10/
027710/20130204/135057/1065/3502/10/
027710/20130204/135454/1065/4054/10/
027710/20130204/135657/1070/1918/20/
027710/20130204/140010/1070/464/10/
027710/20130204/140412/1065/180/10/
027710/20130204/140540/1065/13017/10/
027710/20130204/140714/1070/958/20/
027710/20130204/140749/1065/2006/10/
027710/20130204/140801/1065/1004/10/
027710/20130204/140810/1065/1004/10/
027710/20130204/141202/1065/1057/10/
027710/20130204/141221/1065/214/10/
027710/20130204/141407/1065/4067/10/
027710/20130204/141511/1065/4016/10/
027710/20130204/141703/1070/81/20/
027710/20130204/141738/1065/205/10/
027710/20130204/141907/1065/1068/10/
027710/20130204/142326/1065/3012/10/
027710/20130204/142435/1065/155/10/
027710/20130204/142703/1065/5047/10/
027710/20130204/142828/1065/220/10/
027710/20130204/143006/1070/5065/20/
027710/20130204/143126/1065/12034/10/
027710/20130204/143203/1065/1060/10/
027710/20130204/143410/1065/860/10/
027710/20130204/143428/1065/1030/10/
027710/20130204/143515/1065/10013/10/
027710/20130204/143525/1065/442/10/
027710/20130204/143538/1065/557/10/
027710/20130204/143620/1065/1005/10/
027710/20130204/143621/1065/300/10/
027710/20130204/143640/1065/203/10/
027710/20130204/143814/1065/431/10/
027710/20130204/143859/1065/187/10/
027710/20130204/143953/1065/254/10/
027710/20130204/144006/1065/269/10/
027710/20130204/144015/1065/511/10/
027710/20130204/144034/1065/503/20/
027710/20130204/144043/1065/400/10/
027710/20130204/144255/1060/1372/10/
027710/20130204/144317/1060/8012/10/
027710/20130204/144327/1060/104/10/
027710/20130204/144347/1060/3003/10/
027710/20130204/144403/1060/15012/10/
027710/20130204/144406/1060/349/10/
027710/20130204/144406/1060/510/10/
027710/20130204/144420/1060/19713/10/
027710/20130204/144423/1060/100/10/
027710/20130204/144423/1060/3000/10/
027710/20130204/144427/1060/900/10/
027710/20130204/144430/1060/2732/10/
027710/20130204/144431/1055/1681/10/
027710/20130204/144510/1060/2030/20/
027710/20130204/144539/1055/101/10/
027710/20130204/144547/1060/2301/20/
027710/20130204/144549/1060/3231/20/
027710/20130204/144552/1060/100/20/
027710/20130204/144554/1060/2433/20/
027710/20130204/144606/1060/863/20/
027710/20130204/144609/1060/236/20/
027710/20130204/144629/1060/378/20/
027710/20130204/144638/1060/205/20/
027710/20130204/144641/1060/605/20/
027710/20130204/144705/1060/3022/20/
027710/20130204/144717/1060/3004/20/
027710/20130204/144719/1060/1000/20/
027710/20130204/144720/1060/1335/20/
027710/20130204/144819/1065/1514/20/
027710/20130204/144924/1065/4660/20/
027710/20130204/150000/1060/34368/10/
