027710/20130225/90000/1125/34551/10/
027710/20130225/90010/1130/550/10/
027710/20130225/90011/1130/2495/20/
027710/20130225/90156/1130/103/10/
027710/20130225/90224/1130/102/10/
027710/20130225/90339/1130/8041/10/
027710/20130225/90349/1130/1240/20/
027710/20130225/90436/1130/5003/20/
027710/20130225/90458/1125/600/10/
027710/20130225/90515/1130/400/20/
027710/20130225/90517/1125/2500/10/
027710/20130225/90518/1130/1000/20/
027710/20130225/90716/1130/1000/20/
027710/20130225/90719/1130/700/20/
027710/20130225/90730/1130/1579/20/
027710/20130225/90734/1130/5125/20/
027710/20130225/90741/1130/115/20/
027710/20130225/90803/1130/10000/20/
027710/20130225/90832/1130/6756/20/
027710/20130225/90835/1130/1038/10/
027710/20130225/90955/1135/303/20/
027710/20130225/91309/1130/5000/10/
027710/20130225/91455/1130/4000/10/
027710/20130225/91529/1130/1875/10/
027710/20130225/91532/1130/1892/10/
027710/20130225/91726/1130/1118/20/
027710/20130225/91736/1130/282/10/
027710/20130225/91811/1130/1800/20/
027710/20130225/91955/1130/3500/20/
027710/20130225/92031/1130/200/20/
027710/20130225/92056/1130/1859/20/
027710/20130225/92128/1130/132/20/
027710/20130225/92257/1135/132/20/
027710/20130225/92312/1130/3000/10/
027710/20130225/92333/1130/1500/10/
027710/20130225/92626/1130/1031/10/
027710/20130225/92646/1130/2526/10/
027710/20130225/92647/1130/1000/10/
027710/20130225/92652/1130/8984/10/
027710/20130225/92911/1130/3806/20/
027710/20130225/93109/1130/1001/10/
027710/20130225/93150/1130/3000/10/
027710/20130225/93320/1130/1000/10/
027710/20130225/93327/1130/400/10/
027710/20130225/93351/1130/2000/10/
027710/20130225/93435/1130/2094/10/
027710/20130225/93607/1125/98/10/
027710/20130225/93835/1130/520/20/
027710/20130225/94143/1125/605/10/
027710/20130225/94536/1130/5072/20/
027710/20130225/94833/1130/125/20/
027710/20130225/95131/1130/1000/20/
027710/20130225/95222/1130/1000/20/
027710/20130225/95239/1130/800/20/
027710/20130225/95440/1130/20010/20/
027710/20130225/95500/1130/1001/20/
027710/20130225/95531/1130/891/20/
027710/20130225/95632/1130/2508/10/
027710/20130225/95644/1130/741/10/
027710/20130225/95644/1125/3359/10/
027710/20130225/95652/1125/84/10/
027710/20130225/95915/1130/258/10/
027710/20130225/100522/1130/2030/20/
027710/20130225/100729/1130/4255/20/
027710/20130225/100730/1130/90/20/
027710/20130225/101022/1130/310/20/
027710/20130225/101125/1130/3000/20/
027710/20130225/101129/1130/1000/20/
027710/20130225/101223/1130/6000/20/
027710/20130225/101353/1130/1000/20/
027710/20130225/101520/1130/146/20/
027710/20130225/101520/1135/1854/20/
027710/20130225/101539/1135/200/20/
027710/20130225/101941/1130/1010/10/
027710/20130225/102024/1130/1000/10/
027710/20130225/102025/1130/1000/10/
027710/20130225/102137/1130/1553/10/
027710/20130225/102226/1130/401/20/
027710/20130225/102319/1130/1003/20/
027710/20130225/102416/1130/300/20/
027710/20130225/102457/1130/500/10/
027710/20130225/102616/1130/500/20/
027710/20130225/102836/1130/521/20/
027710/20130225/103106/1130/200/20/
027710/20130225/103136/1130/200/20/
027710/20130225/103201/1130/232/20/
027710/20130225/103701/1135/14001/20/
027710/20130225/103708/1135/10000/20/
027710/20130225/103713/1135/5129/20/
027710/20130225/103933/1135/1048/10/
027710/20130225/104000/1135/13834/10/
027710/20130225/104023/1135/205/20/
027710/20130225/104104/1135/1011/20/
027710/20130225/104155/1135/1494/10/
027710/20130225/104303/1130/4954/10/
027710/20130225/104520/1135/100/20/
027710/20130225/105439/1135/3504/20/
027710/20130225/105529/1135/2478/20/
027710/20130225/105824/1135/3058/10/
027710/20130225/110255/1135/3002/10/
027710/20130225/110327/1140/101/20/
027710/20130225/110342/1140/5000/20/
027710/20130225/111106/1135/8000/10/
027710/20130225/111121/1135/500/10/
027710/20130225/111219/1135/2500/10/
027710/20130225/111326/1135/367/10/
027710/20130225/111340/1135/261/20/
027710/20130225/111504/1135/1373/20/
027710/20130225/111855/1135/4866/10/
027710/20130225/111920/1135/1408/20/
027710/20130225/112007/1135/1000/20/
027710/20130225/112035/1135/500/20/
027710/20130225/112137/1135/1580/20/
027710/20130225/112211/1135/430/20/
027710/20130225/112217/1135/104/20/
027710/20130225/112218/1135/100/20/
027710/20130225/112652/1135/1025/10/
027710/20130225/112741/1135/852/10/
027710/20130225/113235/1130/120/10/
027710/20130225/113600/1135/125/20/
027710/20130225/113610/1130/11202/10/
027710/20130225/114105/1135/1001/20/
027710/20130225/114157/1135/331/20/
027710/20130225/114242/1135/1000/20/
027710/20130225/114424/1135/1000/20/
027710/20130225/115441/1130/194/10/
027710/20130225/121835/1135/1136/20/
027710/20130225/122430/1135/321/20/
027710/20130225/122436/1135/200/20/
027710/20130225/122437/1130/25000/10/
027710/20130225/122437/1130/4011/10/
027710/20130225/122648/1135/3701/20/
027710/20130225/122656/1130/3971/10/
027710/20130225/122725/1130/101/20/
027710/20130225/122852/1130/2928/20/
027710/20130225/122927/1130/2990/10/
027710/20130225/122927/1130/2603/10/
027710/20130225/123007/1130/220/20/
027710/20130225/123118/1130/1706/20/
027710/20130225/123641/1130/1500/20/
027710/20130225/123751/1125/851/10/
027710/20130225/123853/1130/800/20/
027710/20130225/124029/1130/200/20/
027710/20130225/124204/1130/89/20/
027710/20130225/125025/1130/5496/20/
027710/20130225/125252/1130/3802/20/
027710/20130225/125259/1130/1000/10/
027710/20130225/125429/1130/199/10/
027710/20130225/125441/1130/6811/20/
027710/20130225/125800/1130/506/10/
027710/20130225/131807/1135/905/20/
027710/20130225/133235/1135/2000/20/
027710/20130225/133252/1135/1921/20/
027710/20130225/133441/1130/1000/10/
027710/20130225/134027/1130/341/10/
027710/20130225/134142/1130/1000/10/
027710/20130225/134222/1130/1000/10/
027710/20130225/134505/1130/1001/10/
027710/20130225/134607/1130/1000/10/
027710/20130225/134642/1130/300/10/
027710/20130225/134707/1130/1011/10/
027710/20130225/134740/1130/1000/10/
027710/20130225/134748/1130/1157/10/
027710/20130225/135304/1130/1000/10/
027710/20130225/140004/1130/10024/10/
027710/20130225/140104/1130/10000/10/
027710/20130225/140104/1130/1901/10/
027710/20130225/140222/1130/87/20/
027710/20130225/140422/1130/478/20/
027710/20130225/140455/1130/120/20/
027710/20130225/140523/1130/331/20/
027710/20130225/140548/1130/234/10/
027710/20130225/140848/1130/3557/20/
027710/20130225/140856/1130/5000/20/
027710/20130225/140905/1130/5000/20/
027710/20130225/140912/1130/5000/20/
027710/20130225/141047/1130/1150/20/
027710/20130225/141311/1125/100/10/
027710/20130225/141350/1125/800/10/
027710/20130225/141424/1125/5002/10/
027710/20130225/141428/1130/400/20/
027710/20130225/141513/1130/500/20/
027710/20130225/141605/1130/300/20/
027710/20130225/141728/1130/120/20/
027710/20130225/141811/1125/593/10/
027710/20130225/141920/1130/203/20/
027710/20130225/141951/1130/200/20/
027710/20130225/142000/1130/100/20/
027710/20130225/142007/1130/4623/20/
027710/20130225/142008/1130/100/10/
027710/20130225/142419/1130/2031/20/
027710/20130225/142436/1130/165/20/
027710/20130225/142439/1130/682/20/
027710/20130225/142439/1130/1025/10/
027710/20130225/142511/1130/101/10/
027710/20130225/143015/1130/4001/20/
027710/20130225/143025/1130/1000/20/
027710/20130225/143118/1130/1566/20/
027710/20130225/143400/1130/3939/20/
027710/20130225/143412/1130/3711/20/
027710/20130225/143446/1130/81/20/
027710/20130225/143536/1130/937/20/
027710/20130225/143608/1130/81/20/
027710/20130225/143615/1130/2294/20/
027710/20130225/143719/1130/1500/10/
027710/20130225/143737/1130/3000/10/
027710/20130225/143757/1130/201/10/
027710/20130225/143802/1130/1000/10/
027710/20130225/143828/1130/200/10/
027710/20130225/143838/1130/100/10/
027710/20130225/143918/1130/1915/10/
027710/20130225/143920/1130/1000/10/
027710/20130225/143937/1130/637/10/
027710/20130225/144035/1130/147/20/
027710/20130225/144103/1130/81/20/
027710/20130225/144150/1130/81/20/
027710/20130225/144212/1125/295/10/
027710/20130225/144226/1130/81/20/
027710/20130225/144341/1130/81/20/
027710/20130225/144418/1130/109/20/
027710/20130225/144446/1130/2267/20/
027710/20130225/144450/1130/1000/20/
027710/20130225/144502/1130/1012/20/
027710/20130225/144514/1130/87/20/
027710/20130225/144518/1130/3413/20/
027710/20130225/144643/1135/23763/20/
027710/20130225/144650/1135/2390/10/
027710/20130225/144700/1135/2107/10/
027710/20130225/144708/1135/430/10/
027710/20130225/144709/1135/6560/10/
027710/20130225/144714/1135/600/10/
027710/20130225/144717/1135/98/10/
027710/20130225/144735/1135/902/20/
027710/20130225/144735/1135/500/20/
027710/20130225/144744/1135/598/10/
027710/20130225/144748/1135/300/20/
027710/20130225/144758/1135/1252/20/
027710/20130225/144827/1135/862/10/
027710/20130225/144830/1135/3034/10/
027710/20130225/144830/1135/853/10/
027710/20130225/144846/1135/647/20/
027710/20130225/144849/1135/2353/10/
027710/20130225/144902/1135/2647/20/
027710/20130225/144907/1135/388/10/
027710/20130225/150000/1140/48659/20/
