027710/20121128/90000/1215/65282/10/
027710/20121128/90000/1220/3877/20/
027710/20121128/90000/1220/24053/20/
027710/20121128/90001/1220/739/20/
027710/20121128/90001/1225/14019/20/
027710/20121128/90003/1225/1000/20/
027710/20121128/90006/1220/262/10/
027710/20121128/90006/1220/739/10/
027710/20121128/90006/1225/3030/20/
027710/20121128/90006/1225/110/20/
027710/20121128/90006/1225/1000/20/
027710/20121128/90007/1225/11297/20/
027710/20121128/90007/1230/873/20/
027710/20121128/90010/1230/15002/20/
027710/20121128/90011/1225/300/10/
027710/20121128/90011/1230/20408/20/
027710/20121128/90012/1230/1512/20/
027710/20121128/90012/1230/3000/20/
027710/20121128/90013/1230/1343/20/
027710/20121128/90013/1230/1000/20/
027710/20121128/90013/1230/2011/20/
027710/20121128/90014/1230/1914/20/
027710/20121128/90014/1230/811/20/
027710/20121128/90015/1230/2263/20/
027710/20121128/90015/1230/210/20/
027710/20121128/90015/1230/2000/20/
027710/20121128/90015/1230/1000/20/
027710/20121128/90015/1230/2040/20/
027710/20121128/90016/1230/1696/20/
027710/20121128/90016/1230/816/20/
027710/20121128/90016/1230/4044/20/
027710/20121128/90017/1230/100/10/
027710/20121128/90017/1235/115/20/
027710/20121128/90018/1235/9499/20/
027710/20121128/90018/1230/1701/10/
027710/20121128/90019/1235/812/20/
027710/20121128/90020/1230/4879/10/
027710/20121128/90020/1230/401/20/
027710/20121128/90021/1230/394/20/
027710/20121128/90021/1230/249/20/
027710/20121128/90021/1230/301/20/
027710/20121128/90022/1230/2065/20/
027710/20121128/90022/1230/216/10/
027710/20121128/90024/1230/384/10/
027710/20121128/90024/1230/190/10/
027710/20121128/90024/1235/401/20/
027710/20121128/90025/1235/2233/20/
027710/20121128/90025/1230/100/10/
027710/20121128/90025/1235/813/20/
027710/20121128/90025/1235/2000/20/
027710/20121128/90025/1230/100/10/
027710/20121128/90025/1230/800/10/
027710/20121128/90027/1235/113/20/
027710/20121128/90027/1235/400/20/
027710/20121128/90028/1230/201/10/
027710/20121128/90028/1235/11718/20/
027710/20121128/90029/1235/4055/20/
027710/20121128/90029/1235/1180/20/
027710/20121128/90029/1235/44111/20/
027710/20121128/90029/1235/1644/20/
027710/20121128/90029/1235/2000/20/
027710/20121128/90029/1235/1300/20/
027710/20121128/90030/1235/2935/20/
027710/20121128/90030/1235/3704/20/
027710/20121128/90030/1235/1704/20/
027710/20121128/90031/1240/2421/20/
027710/20121128/90032/1240/1156/20/
027710/20121128/90033/1240/9223/20/
027710/20121128/90033/1240/4033/20/
027710/20121128/90033/1240/406/20/
027710/20121128/90034/1240/809/20/
027710/20121128/90034/1240/404/20/
027710/20121128/90034/1240/5000/20/
027710/20121128/90034/1240/500/20/
027710/20121128/90035/1240/100/20/
027710/20121128/90035/1240/20000/20/
027710/20121128/90035/1240/3225/20/
027710/20121128/90035/1240/143/20/
027710/20121128/90035/1240/1020/20/
027710/20121128/90035/1240/4167/20/
027710/20121128/90036/1240/150/20/
027710/20121128/90036/1240/5785/20/
027710/20121128/90036/1245/1215/20/
027710/20121128/90036/1245/3225/20/
027710/20121128/90036/1240/1212/20/
027710/20121128/90036/1240/3000/20/
027710/20121128/90036/1240/110/20/
027710/20121128/90036/1240/618/20/
027710/20121128/90036/1240/198/20/
027710/20121128/90037/1240/8001/20/
027710/20121128/90037/1240/414/20/
027710/20121128/90037/1240/1000/20/
027710/20121128/90037/1240/1000/20/
027710/20121128/90037/1240/2447/20/
027710/20121128/90037/1245/1000/20/
027710/20121128/90037/1245/1000/20/
027710/20121128/90038/1240/780/10/
027710/20121128/90038/1245/10000/20/
027710/20121128/90038/1245/9183/20/
027710/20121128/90038/1245/155/20/
027710/20121128/90038/1245/200/20/
027710/20121128/90038/1240/10800/10/
027710/20121128/90039/1240/662/10/
027710/20121128/90039/1240/3711/10/
027710/20121128/90039/1240/110/10/
027710/20121128/90039/1240/2843/10/
027710/20121128/90039/1240/822/10/
027710/20121128/90040/1240/1000/20/
027710/20121128/90040/1240/462/20/
027710/20121128/90040/1235/5000/10/
027710/20121128/90040/1240/1000/20/
027710/20121128/90040/1240/2499/20/
027710/20121128/90040/1240/932/20/
027710/20121128/90040/1240/3027/20/
027710/20121128/90041/1240/2000/20/
027710/20121128/90041/1240/100/20/
027710/20121128/90042/1240/400/20/
027710/20121128/90042/1240/3225/20/
027710/20121128/90042/1235/101/10/
027710/20121128/90042/1240/2559/20/
027710/20121128/90043/1240/517/20/
027710/20121128/90043/1235/4000/10/
027710/20121128/90043/1240/7000/20/
027710/20121128/90043/1240/803/20/
027710/20121128/90044/1240/400/20/
027710/20121128/90044/1240/150/20/
027710/20121128/90044/1240/1000/20/
027710/20121128/90044/1240/1000/20/
027710/20121128/90045/1240/171/20/
027710/20121128/90045/1235/19723/10/
027710/20121128/90046/1235/277/20/
027710/20121128/90046/1240/1518/20/
027710/20121128/90046/1240/301/20/
027710/20121128/90047/1240/1000/20/
027710/20121128/90047/1240/270/20/
027710/20121128/90047/1240/1000/20/
027710/20121128/90047/1235/250/20/
027710/20121128/90048/1235/335/20/
027710/20121128/90049/1230/246/10/
027710/20121128/90049/1235/11262/20/
027710/20121128/90051/1235/3254/20/
027710/20121128/90051/1235/796/20/
027710/20121128/90051/1240/204/20/
027710/20121128/90051/1235/195/10/
027710/20121128/90051/1235/800/10/
027710/20121128/90051/1240/338/20/
027710/20121128/90052/1235/101/10/
027710/20121128/90052/1235/3000/10/
027710/20121128/90052/1235/100/10/
027710/20121128/90052/1235/1000/10/
027710/20121128/90053/1235/1004/10/
027710/20121128/90053/1235/625/10/
027710/20121128/90054/1235/501/20/
027710/20121128/90054/1235/3225/20/
027710/20121128/90054/1235/100/20/
027710/20121128/90054/1235/1203/20/
027710/20121128/90055/1235/101/20/
027710/20121128/90055/1235/1171/20/
027710/20121128/90057/1235/5002/20/
027710/20121128/90057/1230/10000/10/
027710/20121128/90057/1235/242/20/
027710/20121128/90057/1235/464/20/
027710/20121128/90058/1230/3005/10/
027710/20121128/90058/1235/110/20/
027710/20121128/90100/1235/4048/20/
027710/20121128/90100/1230/5000/10/
027710/20121128/90101/1235/1001/20/
027710/20121128/90104/1235/1075/20/
027710/20121128/90104/1235/242/20/
027710/20121128/90104/1235/1000/20/
027710/20121128/90106/1235/501/20/
027710/20121128/90106/1235/1002/20/
027710/20121128/90107/1230/980/10/
027710/20121128/90108/1235/1001/20/
027710/20121128/90110/1235/10003/20/
027710/20121128/90110/1235/93/20/
027710/20121128/90111/1235/1143/20/
027710/20121128/90111/1230/4539/10/
027710/20121128/90111/1235/809/20/
027710/20121128/90112/1235/505/20/
027710/20121128/90112/1235/2000/20/
027710/20121128/90113/1230/20017/10/
027710/20121128/90113/1225/4858/10/
027710/20121128/90114/1230/2002/20/
027710/20121128/90114/1230/825/20/
027710/20121128/90115/1230/2001/20/
027710/20121128/90115/1230/2227/20/
027710/20121128/90115/1235/24380/20/
027710/20121128/90115/1240/6858/20/
027710/20121128/90116/1225/1501/10/
027710/20121128/90120/1235/1646/10/
027710/20121128/90120/1235/301/10/
027710/20121128/90123/1230/113/10/
027710/20121128/90123/1235/81/20/
027710/20121128/90124/1235/4501/20/
027710/20121128/90124/1235/101/20/
027710/20121128/90125/1235/9000/20/
027710/20121128/90126/1235/4862/20/
027710/20121128/90128/1240/2289/20/
027710/20121128/90128/1235/100/10/
027710/20121128/90128/1235/1051/10/
027710/20121128/90129/1235/500/10/
027710/20121128/90129/1235/211/10/
027710/20121128/90129/1240/5000/20/
027710/20121128/90132/1235/3003/10/
027710/20121128/90134/1240/817/20/
027710/20121128/90134/1235/7532/10/
027710/20121128/90135/1235/300/20/
027710/20121128/90136/1235/12168/20/
027710/20121128/90139/1235/505/10/
027710/20121128/90139/1235/189/10/
027710/20121128/90140/1235/2001/10/
027710/20121128/90141/1240/112/20/
027710/20121128/90141/1240/4000/20/
027710/20121128/90141/1235/4150/10/
027710/20121128/90142/1235/1173/10/
027710/20121128/90143/1235/253/10/
027710/20121128/90144/1235/501/10/
027710/20121128/90147/1240/2004/20/
027710/20121128/90147/1235/100/10/
027710/20121128/90147/1235/5000/10/
027710/20121128/90148/1235/5862/10/
027710/20121128/90148/1235/1000/20/
027710/20121128/90149/1235/1414/20/
027710/20121128/90149/1235/2000/20/
027710/20121128/90153/1235/4078/20/
027710/20121128/90153/1230/100/10/
027710/20121128/90153/1230/300/10/
027710/20121128/90154/1235/110/20/
027710/20121128/90155/1235/1404/20/
027710/20121128/90156/1235/4048/20/
027710/20121128/90157/1235/1815/20/
027710/20121128/90157/1235/2076/20/
027710/20121128/90158/1235/4048/20/
027710/20121128/90158/1235/2480/20/
027710/20121128/90158/1235/100/20/
027710/20121128/90159/1235/588/20/
027710/20121128/90159/1235/300/20/
027710/20121128/90159/1235/1220/20/
027710/20121128/90159/1235/4048/20/
027710/20121128/90159/1235/1000/20/
027710/20121128/90200/1235/1000/20/
027710/20121128/90200/1235/1220/20/
027710/20121128/90200/1235/100/20/
027710/20121128/90201/1235/4048/20/
027710/20121128/90202/1235/809/20/
027710/20121128/90202/1230/100/10/
027710/20121128/90202/1235/1000/20/
027710/20121128/90202/1235/500/20/
027710/20121128/90203/1235/5264/20/
027710/20121128/90203/1235/200/20/
027710/20121128/90203/1235/100/20/
027710/20121128/90204/1235/1000/20/
027710/20121128/90204/1235/1623/20/
027710/20121128/90204/1235/1315/20/
027710/20121128/90204/1230/600/10/
027710/20121128/90205/1235/916/20/
027710/20121128/90205/1235/1000/20/
027710/20121128/90205/1235/1000/20/
027710/20121128/90205/1235/660/20/
027710/20121128/90205/1235/4048/20/
027710/20121128/90205/1235/1000/20/
027710/20121128/90206/1235/500/20/
027710/20121128/90206/1235/501/20/
027710/20121128/90206/1235/111/20/
027710/20121128/90207/1235/467/20/
027710/20121128/90207/1240/809/20/
027710/20121128/90207/1240/800/20/
027710/20121128/90208/1240/300/20/
027710/20121128/90208/1235/11949/10/
027710/20121128/90209/1235/1659/20/
027710/20121128/90210/1235/4537/20/
027710/20121128/90210/1235/200/20/
027710/20121128/90210/1235/106/20/
027710/20121128/90210/1235/640/20/
027710/20121128/90211/1235/2000/20/
027710/20121128/90211/1235/884/20/
027710/20121128/90211/1235/500/20/
027710/20121128/90212/1235/564/20/
027710/20121128/90212/1235/2300/20/
027710/20121128/90212/1235/1000/20/
027710/20121128/90213/1230/200/10/
027710/20121128/90213/1235/240/20/
027710/20121128/90213/1235/500/20/
027710/20121128/90213/1235/2210/20/
027710/20121128/90214/1235/542/20/
027710/20121128/90214/1235/2001/20/
027710/20121128/90215/1235/1000/20/
027710/20121128/90215/1235/16764/20/
027710/20121128/90216/1240/1000/20/
027710/20121128/90217/1240/500/20/
027710/20121128/90221/1240/832/20/
027710/20121128/90221/1240/1000/20/
027710/20121128/90225/1240/196/20/
027710/20121128/90227/1240/518/20/
027710/20121128/90227/1240/2444/20/
027710/20121128/90228/1240/102/20/
027710/20121128/90229/1240/3000/20/
027710/20121128/90230/1240/2000/20/
027710/20121128/90231/1240/3000/20/
027710/20121128/90232/1240/1800/20/
027710/20121128/90232/1240/1000/20/
027710/20121128/90233/1240/9368/20/
027710/20121128/90233/1240/403/20/
027710/20121128/90233/1240/5196/20/
027710/20121128/90234/1240/546/20/
027710/20121128/90234/1240/2420/20/
027710/20121128/90234/1240/700/20/
027710/20121128/90234/1240/800/20/
027710/20121128/90234/1240/400/20/
027710/20121128/90234/1240/1000/20/
027710/20121128/90234/1240/81/20/
027710/20121128/90234/1240/2008/20/
027710/20121128/90234/1240/1194/20/
027710/20121128/90234/1240/8605/20/
027710/20121128/90235/1240/3000/20/
027710/20121128/90235/1240/100/20/
027710/20121128/90235/1240/3000/20/
027710/20121128/90235/1240/200/20/
027710/20121128/90236/1240/300/20/
027710/20121128/90236/1240/955/20/
027710/20121128/90236/1240/3856/20/
027710/20121128/90236/1240/81/20/
027710/20121128/90237/1240/2000/20/
027710/20121128/90237/1240/2010/20/
027710/20121128/90237/1240/1000/20/
027710/20121128/90237/1240/882/20/
027710/20121128/90238/1240/1019/20/
027710/20121128/90238/1240/746/20/
027710/20121128/90240/1240/500/10/
027710/20121128/90241/1245/1000/20/
027710/20121128/90242/1240/6000/10/
027710/20121128/90242/1245/938/20/
027710/20121128/90243/1245/2000/20/
027710/20121128/90245/1240/9895/10/
027710/20121128/90247/1240/550/20/
027710/20121128/90248/1240/507/20/
027710/20121128/90249/1240/2009/20/
027710/20121128/90249/1240/1000/20/
027710/20121128/90249/1240/259/20/
027710/20121128/90249/1240/500/20/
027710/20121128/90249/1240/1323/20/
027710/20121128/90250/1240/500/20/
027710/20121128/90250/1240/93/20/
027710/20121128/90250/1240/1000/20/
027710/20121128/90250/1240/1000/20/
027710/20121128/90251/1240/1472/20/
027710/20121128/90251/1240/100/20/
027710/20121128/90252/1240/400/20/
027710/20121128/90252/1235/1900/10/
027710/20121128/90252/1240/1147/20/
027710/20121128/90254/1240/4124/20/
027710/20121128/90256/1240/507/20/
027710/20121128/90256/1240/126/20/
027710/20121128/90257/1240/779/20/
027710/20121128/90257/1240/100/20/
027710/20121128/90257/1240/20000/20/
027710/20121128/90300/1240/452/20/
027710/20121128/90304/1240/101/20/
027710/20121128/90305/1240/300/20/
027710/20121128/90306/1240/100/20/
027710/20121128/90307/1240/301/20/
027710/20121128/90307/1240/2000/20/
027710/20121128/90307/1240/4897/20/
027710/20121128/90308/1240/1839/20/
027710/20121128/90308/1240/267/20/
027710/20121128/90310/1240/500/20/
027710/20121128/90310/1240/7836/20/
027710/20121128/90311/1240/340/20/
027710/20121128/90311/1240/300/20/
027710/20121128/90312/1240/1501/20/
027710/20121128/90312/1240/100/20/
027710/20121128/90313/1240/201/20/
027710/20121128/90313/1240/2000/20/
027710/20121128/90314/1240/501/20/
027710/20121128/90314/1240/1000/20/
027710/20121128/90315/1240/2000/20/
027710/20121128/90316/1240/268/20/
027710/20121128/90316/1240/2394/20/
027710/20121128/90316/1240/403/20/
027710/20121128/90317/1240/501/20/
027710/20121128/90318/1240/281/20/
027710/20121128/90318/1240/4495/20/
027710/20121128/90319/1240/1011/20/
027710/20121128/90321/1240/2001/20/
027710/20121128/90323/1240/97/20/
027710/20121128/90323/1240/110/20/
027710/20121128/90326/1240/4010/20/
027710/20121128/90327/1240/200/20/
027710/20121128/90327/1240/500/20/
027710/20121128/90328/1240/2500/20/
027710/20121128/90329/1240/2926/20/
027710/20121128/90329/1240/1000/20/
027710/20121128/90329/1240/1205/20/
027710/20121128/90330/1240/200/20/
027710/20121128/90331/1240/510/20/
027710/20121128/90331/1240/1400/20/
027710/20121128/90333/1240/3127/20/
027710/20121128/90333/1240/17323/20/
027710/20121128/90335/1240/540/10/
027710/20121128/90336/1240/1460/10/
027710/20121128/90336/1245/500/20/
027710/20121128/90337/1240/1228/10/
027710/20121128/90339/1240/492/20/
027710/20121128/90339/1240/497/20/
027710/20121128/90339/1245/503/20/
027710/20121128/90340/1240/410/10/
027710/20121128/90340/1240/90/20/
027710/20121128/90340/1240/610/10/
027710/20121128/90343/1240/81/10/
027710/20121128/90344/1240/500/10/
027710/20121128/90344/1240/530/10/
027710/20121128/90345/1240/3000/10/
027710/20121128/90346/1240/17394/10/
027710/20121128/90346/1240/123/20/
027710/20121128/90348/1240/1000/20/
027710/20121128/90348/1240/1100/20/
027710/20121128/90350/1240/101/20/
027710/20121128/90352/1240/957/20/
027710/20121128/90352/1240/10000/20/
027710/20121128/90353/1240/100/20/
027710/20121128/90355/1240/2501/20/
027710/20121128/90357/1240/1001/20/
027710/20121128/90358/1235/2001/10/
027710/20121128/90359/1235/1511/10/
027710/20121128/90400/1235/5000/10/
027710/20121128/90401/1235/1158/10/
027710/20121128/90402/1235/300/10/
027710/20121128/90403/1235/5682/10/
027710/20121128/90403/1235/4000/10/
027710/20121128/90404/1235/5264/10/
027710/20121128/90404/1235/400/10/
027710/20121128/90404/1235/3000/10/
027710/20121128/90405/1235/3027/10/
027710/20121128/90405/1235/16000/10/
027710/20121128/90405/1235/662/10/
027710/20121128/90405/1235/413/10/
027710/20121128/90405/1235/16238/10/
027710/20121128/90405/1235/1194/10/
027710/20121128/90405/1235/975/10/
027710/20121128/90405/1235/2400/10/
027710/20121128/90406/1235/2008/10/
027710/20121128/90406/1235/788/10/
027710/20121128/90406/1230/155/10/
027710/20121128/90406/1230/399/10/
027710/20121128/90409/1230/1793/10/
027710/20121128/90416/1230/510/10/
027710/20121128/90416/1230/500/10/
027710/20121128/90417/1230/10000/10/
027710/20121128/90418/1230/500/10/
027710/20121128/90418/1230/10000/10/
027710/20121128/90419/1230/5350/10/
027710/20121128/90420/1230/325/10/
027710/20121128/90420/1230/2000/10/
027710/20121128/90420/1230/2000/10/
027710/20121128/90420/1230/510/10/
027710/20121128/90421/1230/779/10/
027710/20121128/90424/1230/4500/10/
027710/20121128/90425/1230/500/10/
027710/20121128/90425/1230/2555/10/
027710/20121128/90425/1230/2000/10/
027710/20121128/90425/1230/3000/10/
027710/20121128/90426/1230/198/10/
027710/20121128/90426/1230/970/10/
027710/20121128/90427/1230/3100/10/
027710/20121128/90427/1230/627/10/
027710/20121128/90427/1225/144/10/
027710/20121128/90427/1230/210/20/
027710/20121128/90428/1225/2419/10/
027710/20121128/90431/1230/1582/20/
027710/20121128/90433/1230/823/20/
027710/20121128/90434/1230/935/20/
027710/20121128/90436/1230/453/20/
027710/20121128/90437/1230/100/20/
027710/20121128/90438/1230/5062/20/
027710/20121128/90439/1230/667/20/
027710/20121128/90441/1230/1616/10/
027710/20121128/90443/1230/386/20/
027710/20121128/90444/1235/500/20/
027710/20121128/90445/1235/1631/20/
027710/20121128/90450/1235/1285/20/
027710/20121128/90452/1235/1000/20/
027710/20121128/90455/1235/1652/20/
027710/20121128/90457/1235/201/20/
027710/20121128/90506/1235/4147/20/
027710/20121128/90508/1235/1158/20/
027710/20121128/90508/1235/2365/20/
027710/20121128/90510/1235/101/20/
027710/20121128/90510/1235/1186/20/
027710/20121128/90515/1235/1001/20/
027710/20121128/90516/1235/2500/20/
027710/20121128/90516/1235/246/20/
027710/20121128/90517/1235/951/20/
027710/20121128/90518/1235/900/20/
027710/20121128/90518/1235/400/20/
027710/20121128/90520/1235/2820/20/
027710/20121128/90522/1235/627/20/
027710/20121128/90523/1235/1001/20/
027710/20121128/90525/1235/135/20/
027710/20121128/90525/1235/509/20/
027710/20121128/90526/1235/2000/20/
027710/20121128/90526/1235/650/20/
027710/20121128/90527/1230/2000/10/
027710/20121128/90528/1235/1065/20/
027710/20121128/90528/1240/2705/20/
027710/20121128/90529/1240/583/20/
027710/20121128/90530/1240/1000/20/
027710/20121128/90536/1240/2001/20/
027710/20121128/90537/1240/342/20/
027710/20121128/90539/1240/401/20/
027710/20121128/90542/1240/100/20/
027710/20121128/90545/1240/20000/20/
027710/20121128/90547/1240/1002/20/
027710/20121128/90547/1240/400/20/
027710/20121128/90548/1240/277/20/
027710/20121128/90548/1240/205/20/
027710/20121128/90549/1240/7610/20/
027710/20121128/90550/1240/352/20/
027710/20121128/90551/1240/10000/10/
027710/20121128/90552/1240/1000/10/
027710/20121128/90552/1245/97/20/
027710/20121128/90552/1240/5000/10/
027710/20121128/90553/1245/300/20/
027710/20121128/90553/1240/100/10/
027710/20121128/90553/1245/500/20/
027710/20121128/90554/1245/246/20/
027710/20121128/90555/1245/205/20/
027710/20121128/90557/1245/1000/20/
027710/20121128/90557/1245/300/20/
027710/20121128/90559/1245/5000/20/
027710/20121128/90559/1245/550/20/
027710/20121128/90602/1245/160/20/
027710/20121128/90604/1245/501/20/
027710/20121128/90604/1245/803/20/
027710/20121128/90607/1245/166/20/
027710/20121128/90610/1245/1684/20/
027710/20121128/90611/1245/166/20/
027710/20121128/90614/1245/228/20/
027710/20121128/90619/1240/3055/10/
027710/20121128/90620/1240/205/10/
027710/20121128/90620/1240/1158/10/
027710/20121128/90621/1240/809/10/
027710/20121128/90621/1240/660/10/
027710/20121128/90621/1240/620/10/
027710/20121128/90623/1240/1000/10/
027710/20121128/90624/1240/1343/10/
027710/20121128/90625/1240/4001/10/
027710/20121128/90625/1240/1803/10/
027710/20121128/90627/1240/1625/20/
027710/20121128/90628/1240/401/20/
027710/20121128/90630/1240/2848/20/
027710/20121128/90631/1240/4001/20/
027710/20121128/90632/1240/5730/20/
027710/20121128/90632/1240/1413/20/
027710/20121128/90632/1245/588/20/
027710/20121128/90633/1240/4113/20/
027710/20121128/90638/1240/502/10/
027710/20121128/90640/1240/2010/10/
027710/20121128/90642/1240/106/10/
027710/20121128/90650/1245/18895/20/
027710/20121128/90650/1240/339/10/
027710/20121128/90653/1240/150/10/
027710/20121128/90656/1240/1065/10/
027710/20121128/90657/1240/500/10/
027710/20121128/90704/1245/89/20/
027710/20121128/90709/1240/115/10/
027710/20121128/90709/1240/200/10/
027710/20121128/90710/1240/501/10/
027710/20121128/90713/1240/1301/10/
027710/20121128/90715/1245/381/20/
027710/20121128/90715/1240/215/10/
027710/20121128/90716/1240/2000/10/
027710/20121128/90724/1240/15012/10/
027710/20121128/90726/1240/11658/10/
027710/20121128/90727/1240/300/20/
027710/20121128/90733/1235/13820/10/
027710/20121128/90733/1230/36181/10/
027710/20121128/90745/1235/300/20/
027710/20121128/90745/1230/20467/10/
027710/20121128/90747/1235/544/20/
027710/20121128/90748/1230/432/10/
027710/20121128/90753/1235/156/20/
027710/20121128/90757/1235/301/20/
027710/20121128/90758/1235/200/10/
027710/20121128/90805/1235/1377/10/
027710/20121128/90805/1230/473/10/
027710/20121128/90812/1240/1001/20/
027710/20121128/90814/1240/23812/20/
027710/20121128/90816/1240/193/10/
027710/20121128/90822/1240/150/10/
027710/20121128/90824/1240/1000/10/
027710/20121128/90825/1240/2500/10/
027710/20121128/90825/1240/126/10/
027710/20121128/90826/1240/500/10/
027710/20121128/90826/1240/3800/10/
027710/20121128/90826/1240/250/10/
027710/20121128/90828/1240/12031/10/
027710/20121128/90829/1240/6719/10/
027710/20121128/90841/1240/9001/20/
027710/20121128/90844/1240/372/20/
027710/20121128/90849/1235/2480/10/
027710/20121128/90853/1240/200/20/
027710/20121128/90856/1240/260/20/
027710/20121128/90914/1240/511/20/
027710/20121128/90921/1240/19812/20/
027710/20121128/90922/1240/5892/20/
027710/20121128/90924/1240/2499/20/
027710/20121128/90925/1245/807/20/
027710/20121128/90927/1240/5004/10/
027710/20121128/90933/1240/312/10/
027710/20121128/90942/1240/321/10/
027710/20121128/90943/1240/5984/10/
027710/20121128/90945/1240/3001/20/
027710/20121128/90946/1240/5001/20/
027710/20121128/90948/1240/4844/20/
027710/20121128/90954/1240/331/10/
027710/20121128/90955/1240/5000/10/
027710/20121128/91000/1240/8866/10/
027710/20121128/91006/1235/101/10/
027710/20121128/91006/1240/500/20/
027710/20121128/91016/1240/97/20/
027710/20121128/91021/1240/1691/20/
027710/20121128/91022/1240/8000/20/
027710/20121128/91023/1240/1501/20/
027710/20121128/91025/1235/7001/10/
027710/20121128/91029/1240/5000/20/
027710/20121128/91030/1240/697/20/
027710/20121128/91038/1240/513/20/
027710/20121128/91039/1240/500/20/
027710/20121128/91043/1240/5960/20/
027710/20121128/91045/1240/2215/10/
027710/20121128/91051/1240/1020/10/
027710/20121128/91057/1240/1681/10/
027710/20121128/91100/1240/300/20/
027710/20121128/91104/1240/510/20/
027710/20121128/91108/1240/570/20/
027710/20121128/91108/1240/500/20/
027710/20121128/91110/1240/500/20/
027710/20121128/91110/1240/2000/20/
027710/20121128/91111/1240/2042/20/
027710/20121128/91112/1240/200/20/
027710/20121128/91113/1240/115/20/
027710/20121128/91113/1245/885/20/
027710/20121128/91134/1240/240/10/
027710/20121128/91136/1240/310/10/
027710/20121128/91140/1240/339/20/
027710/20121128/91140/1240/500/10/
027710/20121128/91143/1240/97/10/
027710/20121128/91143/1240/500/10/
027710/20121128/91144/1240/550/10/
027710/20121128/91145/1245/201/20/
027710/20121128/91150/1240/2050/10/
027710/20121128/91150/1240/215/10/
027710/20121128/91154/1240/200/10/
027710/20121128/91158/1240/1001/10/
027710/20121128/91159/1240/2050/10/
027710/20121128/91200/1240/510/10/
027710/20121128/91202/1240/148/10/
027710/20121128/91204/1240/200/10/
027710/20121128/91204/1245/3224/20/
027710/20121128/91212/1240/2010/10/
027710/20121128/91213/1245/1140/20/
027710/20121128/91213/1240/500/10/
027710/20121128/91217/1240/562/10/
027710/20121128/91225/1245/390/20/
027710/20121128/91234/1240/2510/10/
027710/20121128/91235/1240/900/10/
027710/20121128/91238/1240/10681/10/
027710/20121128/91239/1240/100/10/
027710/20121128/91239/1240/900/10/
027710/20121128/91240/1240/500/10/
027710/20121128/91240/1240/1278/10/
027710/20121128/91243/1240/105/20/
027710/20121128/91256/1240/1000/20/
027710/20121128/91308/1240/1277/20/
027710/20121128/91315/1235/532/10/
027710/20121128/91325/1235/201/10/
027710/20121128/91330/1235/105/10/
027710/20121128/91330/1235/100/10/
027710/20121128/91333/1235/640/10/
027710/20121128/91334/1240/4559/20/
027710/20121128/91347/1240/11210/20/
027710/20121128/91349/1240/2000/20/
027710/20121128/91349/1240/400/20/
027710/20121128/91350/1240/280/20/
027710/20121128/91351/1240/220/20/
027710/20121128/91351/1240/1478/20/
027710/20121128/91351/1240/1763/20/
027710/20121128/91353/1240/4000/20/
027710/20121128/91354/1240/2176/20/
027710/20121128/91354/1245/2824/20/
027710/20121128/91356/1245/3569/20/
027710/20121128/91402/1240/1035/20/
027710/20121128/91411/1240/2743/20/
027710/20121128/91411/1240/847/20/
027710/20121128/91413/1240/83/20/
027710/20121128/91422/1240/400/20/
027710/20121128/91426/1240/1700/20/
027710/20121128/91428/1240/270/20/
027710/20121128/91433/1240/100/20/
027710/20121128/91434/1240/1200/20/
027710/20121128/91435/1240/11838/20/
027710/20121128/91437/1240/6369/20/
027710/20121128/91449/1240/1488/10/
027710/20121128/91451/1240/1450/10/
027710/20121128/91451/1245/300/20/
027710/20121128/91500/1240/1215/10/
027710/20121128/91502/1245/500/20/
027710/20121128/91510/1240/246/10/
027710/20121128/91511/1240/238/20/
027710/20121128/91515/1240/500/20/
027710/20121128/91515/1235/4032/10/
027710/20121128/91515/1235/2419/10/
027710/20121128/91515/1235/4032/10/
027710/20121128/91515/1235/2419/10/
027710/20121128/91515/1235/4032/10/
027710/20121128/91515/1235/3322/10/
027710/20121128/91515/1235/4032/10/
027710/20121128/91516/1240/1675/20/
027710/20121128/91517/1240/100/20/
027710/20121128/91518/1240/900/20/
027710/20121128/91523/1235/100/10/
027710/20121128/91528/1240/91/20/
027710/20121128/91609/1235/612/10/
027710/20121128/91612/1235/300/10/
027710/20121128/91620/1235/29995/10/
027710/20121128/91626/1235/5000/20/
027710/20121128/91627/1230/500/10/
027710/20121128/91631/1230/300/10/
027710/20121128/91636/1230/100/10/
027710/20121128/91638/1230/205/10/
027710/20121128/91645/1235/515/20/
027710/20121128/91652/1235/116/20/
027710/20121128/91712/1230/352/10/
027710/20121128/91729/1235/382/20/
027710/20121128/91745/1235/1870/20/
027710/20121128/91746/1235/251/20/
027710/20121128/91747/1235/206/20/
027710/20121128/91755/1235/10015/20/
027710/20121128/91807/1235/2663/20/
027710/20121128/91807/1235/500/20/
027710/20121128/91815/1235/1000/20/
027710/20121128/91820/1235/100/20/
027710/20121128/91821/1230/2127/10/
027710/20121128/91833/1235/550/20/
027710/20121128/91838/1235/100/20/
027710/20121128/91843/1235/500/20/
027710/20121128/91852/1235/1000/20/
027710/20121128/91859/1235/160/20/
027710/20121128/91901/1235/5000/20/
027710/20121128/91908/1235/1002/20/
027710/20121128/91925/1230/1650/10/
027710/20121128/91927/1230/1185/10/
027710/20121128/91933/1230/4584/10/
027710/20121128/91938/1230/5150/10/
027710/20121128/91940/1230/200/10/
027710/20121128/91941/1230/5892/10/
027710/20121128/91952/1230/5000/10/
027710/20121128/91952/1230/100/10/
027710/20121128/91952/1230/100/10/
027710/20121128/91952/1230/818/10/
027710/20121128/91953/1225/1171/10/
027710/20121128/91956/1230/1000/20/
027710/20121128/92000/1230/2000/20/
027710/20121128/92001/1225/300/10/
027710/20121128/92001/1230/300/20/
027710/20121128/92001/1230/300/20/
027710/20121128/92006/1230/667/20/
027710/20121128/92006/1225/464/10/
027710/20121128/92007/1230/524/20/
027710/20121128/92009/1230/200/20/
027710/20121128/92023/1230/361/20/
027710/20121128/92035/1230/2000/20/
027710/20121128/92037/1225/2512/10/
027710/20121128/92041/1230/566/20/
027710/20121128/92042/1230/1028/20/
027710/20121128/92042/1230/1506/20/
027710/20121128/92043/1230/4949/20/
027710/20121128/92045/1230/3664/20/
027710/20121128/92046/1230/666/20/
027710/20121128/92047/1230/600/20/
027710/20121128/92048/1230/500/20/
027710/20121128/92053/1230/652/20/
027710/20121128/92056/1230/3050/10/
027710/20121128/92057/1230/100/10/
027710/20121128/92106/1230/1042/10/
027710/20121128/92111/1230/400/10/
027710/20121128/92112/1230/173/10/
027710/20121128/92115/1230/332/20/
027710/20121128/92129/1230/1285/10/
027710/20121128/92130/1230/400/10/
027710/20121128/92139/1230/1016/10/
027710/20121128/92147/1230/1020/10/
027710/20121128/92212/1230/9829/10/
027710/20121128/92223/1230/2049/20/
027710/20121128/92226/1230/445/20/
027710/20121128/92236/1235/5050/20/
027710/20121128/92257/1235/84/20/
027710/20121128/92301/1235/3000/20/
027710/20121128/92330/1235/6021/20/
027710/20121128/92337/1235/544/20/
027710/20121128/92338/1235/1000/20/
027710/20121128/92401/1230/1734/10/
027710/20121128/92414/1230/10010/10/
027710/20121128/92421/1230/5011/10/
027710/20121128/92424/1230/100/10/
027710/20121128/92438/1230/295/10/
027710/20121128/92442/1230/6271/10/
027710/20121128/92458/1225/172/10/
027710/20121128/92500/1230/3000/20/
027710/20121128/92510/1225/5000/10/
027710/20121128/92511/1230/800/20/
027710/20121128/92521/1225/6744/10/
027710/20121128/92527/1230/6165/20/
027710/20121128/92528/1230/2668/10/
027710/20121128/92536/1225/91/10/
027710/20121128/92541/1225/1764/10/
027710/20121128/92558/1230/1030/20/
027710/20121128/92602/1230/2508/20/
027710/20121128/92608/1225/4000/10/
027710/20121128/92636/1230/1050/20/
027710/20121128/92645/1230/300/20/
027710/20121128/92649/1230/2000/20/
027710/20121128/92649/1230/2365/20/
027710/20121128/92657/1230/1010/20/
027710/20121128/92708/1230/250/20/
027710/20121128/92710/1230/350/20/
027710/20121128/92718/1230/200/20/
027710/20121128/92730/1230/4000/20/
027710/20121128/92747/1225/5000/10/
027710/20121128/92812/1225/5010/10/
027710/20121128/92813/1230/6630/20/
027710/20121128/92814/1230/1046/20/
027710/20121128/92825/1230/110/20/
027710/20121128/92927/1225/4525/10/
027710/20121128/92928/1225/14000/10/
027710/20121128/92936/1225/155/10/
027710/20121128/92950/1225/445/20/
027710/20121128/92952/1225/3410/20/
027710/20121128/92956/1225/1000/10/
027710/20121128/93001/1225/1219/10/
027710/20121128/93009/1225/4010/10/
027710/20121128/93017/1225/8181/10/
027710/20121128/93025/1225/1829/20/
027710/20121128/93030/1225/290/10/
027710/20121128/93048/1230/1262/20/
027710/20121128/93128/1230/1385/20/
027710/20121128/93211/1225/352/10/
027710/20121128/93308/1230/5018/20/
027710/20121128/93314/1225/81/10/
027710/20121128/93317/1230/510/20/
027710/20121128/93327/1230/1002/20/
027710/20121128/93407/1230/1000/20/
027710/20121128/93422/1225/150/10/
027710/20121128/93425/1230/200/20/
027710/20121128/93431/1230/1000/20/
027710/20121128/93434/1230/8130/20/
027710/20121128/93444/1225/109/10/
027710/20121128/93447/1230/1000/20/
027710/20121128/93515/1230/798/20/
027710/20121128/93520/1230/500/20/
027710/20121128/93525/1230/344/20/
027710/20121128/93531/1230/7757/20/
027710/20121128/93533/1230/999/20/
027710/20121128/93535/1230/1000/20/
027710/20121128/93536/1230/4227/20/
027710/20121128/93537/1230/660/20/
027710/20121128/93537/1230/406/20/
027710/20121128/93537/1230/461/20/
027710/20121128/93542/1230/6791/20/
027710/20121128/93542/1235/1129/20/
027710/20121128/93610/1230/99/10/
027710/20121128/93621/1235/155/20/
027710/20121128/93634/1235/100/20/
027710/20121128/93731/1230/1015/10/
027710/20121128/93751/1230/300/10/
027710/20121128/93809/1230/5402/10/
027710/20121128/93812/1230/10406/10/
027710/20121128/93839/1230/204/20/
027710/20121128/93839/1230/900/20/
027710/20121128/93847/1230/464/20/
027710/20121128/93858/1230/2001/20/
027710/20121128/93900/1230/1000/20/
027710/20121128/93900/1230/3472/20/
027710/20121128/93901/1235/279/20/
027710/20121128/93909/1235/100/20/
027710/20121128/93910/1230/1728/10/
027710/20121128/93916/1230/3272/20/
027710/20121128/93934/1230/3416/10/
027710/20121128/93937/1230/168/20/
027710/20121128/93938/1230/1000/20/
027710/20121128/93939/1230/5000/20/
027710/20121128/93942/1230/918/20/
027710/20121128/93954/1230/558/10/
027710/20121128/94004/1230/201/20/
027710/20121128/94016/1230/3000/20/
027710/20121128/94019/1230/5000/20/
027710/20121128/94022/1230/500/20/
027710/20121128/94026/1230/300/20/
027710/20121128/94033/1230/447/20/
027710/20121128/94036/1230/1497/10/
027710/20121128/94046/1230/2613/20/
027710/20121128/94104/1230/1600/20/
027710/20121128/94124/1230/117/20/
027710/20121128/94238/1230/1073/20/
027710/20121128/94245/1225/130/10/
027710/20121128/94319/1225/1099/10/
027710/20121128/94324/1225/26672/10/
027710/20121128/94324/1220/42220/10/
027710/20121128/94325/1220/749/10/
027710/20121128/94331/1220/5394/20/
027710/20121128/94335/1220/91/20/
027710/20121128/94336/1220/910/20/
027710/20121128/94355/1220/1001/10/
027710/20121128/94404/1220/9010/10/
027710/20121128/94404/1225/300/20/
027710/20121128/94421/1225/88/20/
027710/20121128/94425/1225/100/20/
027710/20121128/94435/1225/1384/20/
027710/20121128/94437/1225/239/20/
027710/20121128/94517/1225/100/20/
027710/20121128/94529/1225/200/20/
027710/20121128/94548/1225/1235/20/
027710/20121128/94554/1225/5316/20/
027710/20121128/94557/1225/1000/20/
027710/20121128/94558/1225/1062/20/
027710/20121128/94608/1225/1119/10/
027710/20121128/94638/1225/2000/20/
027710/20121128/94642/1225/200/20/
027710/20121128/94642/1225/304/20/
027710/20121128/94653/1225/502/20/
027710/20121128/94716/1220/1002/10/
027710/20121128/94720/1225/1002/20/
027710/20121128/94754/1220/10002/10/
027710/20121128/94757/1220/425/10/
027710/20121128/94758/1220/338/10/
027710/20121128/94800/1220/7000/10/
027710/20121128/94801/1220/1147/10/
027710/20121128/94801/1220/300/10/
027710/20121128/94802/1220/4189/10/
027710/20121128/94804/1215/4931/10/
027710/20121128/94804/1215/1000/10/
027710/20121128/94805/1215/484/10/
027710/20121128/94810/1215/5068/10/
027710/20121128/94811/1215/1000/10/
027710/20121128/94811/1215/688/10/
027710/20121128/94812/1215/100/10/
027710/20121128/94813/1215/813/10/
027710/20121128/94815/1215/1000/10/
027710/20121128/94816/1215/1033/10/
027710/20121128/94817/1215/200/10/
027710/20121128/94823/1215/100/10/
027710/20121128/94825/1220/2911/20/
027710/20121128/94826/1225/6103/20/
027710/20121128/94826/1230/897/20/
027710/20121128/94914/1225/1127/20/
027710/20121128/94918/1225/201/20/
027710/20121128/94925/1220/514/10/
027710/20121128/94926/1225/2429/20/
027710/20121128/94926/1225/483/20/
027710/20121128/94928/1225/641/10/
027710/20121128/94929/1220/1560/10/
027710/20121128/94950/1220/714/10/
027710/20121128/95003/1220/10004/10/
027710/20121128/95006/1220/925/10/
027710/20121128/95019/1225/504/20/
027710/20121128/95040/1220/1447/10/
027710/20121128/95057/1220/501/10/
027710/20121128/95106/1225/202/20/
027710/20121128/95205/1225/1508/20/
027710/20121128/95207/1225/562/20/
027710/20121128/95210/1225/2881/20/
027710/20121128/95213/1225/500/20/
027710/20121128/95216/1225/1235/20/
027710/20121128/95218/1225/1001/20/
027710/20121128/95239/1220/82/10/
027710/20121128/95311/1220/2962/10/
027710/20121128/95357/1225/1508/20/
027710/20121128/95359/1225/16797/20/
027710/20121128/95406/1225/1204/10/
027710/20121128/95406/1220/797/10/
027710/20121128/95443/1225/573/20/
027710/20121128/95447/1225/6754/10/
027710/20121128/95448/1225/404/20/
027710/20121128/95556/1225/2361/20/
027710/20121128/95557/1225/500/20/
027710/20121128/95611/1225/255/20/
027710/20121128/95612/1225/729/20/
027710/20121128/95614/1225/501/20/
027710/20121128/95615/1225/84/20/
027710/20121128/95621/1225/1000/20/
027710/20121128/95623/1225/9174/20/
027710/20121128/95624/1225/1001/20/
027710/20121128/95625/1225/500/20/
027710/20121128/95625/1225/500/20/
027710/20121128/95626/1225/407/20/
027710/20121128/95642/1230/1001/20/
027710/20121128/95642/1230/1001/20/
027710/20121128/95644/1230/1010/20/
027710/20121128/95644/1230/200/20/
027710/20121128/95644/1230/100/20/
027710/20121128/95644/1230/500/20/
027710/20121128/95645/1230/6000/20/
027710/20121128/95645/1230/2055/20/
027710/20121128/95645/1230/100/20/
027710/20121128/95645/1230/110/20/
027710/20121128/95646/1230/200/20/
027710/20121128/95646/1230/5000/20/
027710/20121128/95647/1230/1000/20/
027710/20121128/95647/1230/1000/20/
027710/20121128/95648/1230/5451/20/
027710/20121128/95648/1230/100/20/
027710/20121128/95649/1230/4855/20/
027710/20121128/95649/1235/146/20/
027710/20121128/95649/1225/10000/10/
027710/20121128/95650/1235/100/20/
027710/20121128/95653/1230/3000/10/
027710/20121128/95653/1230/2312/10/
027710/20121128/95654/1230/1010/20/
027710/20121128/95654/1230/1000/20/
027710/20121128/95655/1230/800/20/
027710/20121128/95656/1230/190/20/
027710/20121128/95658/1235/3000/20/
027710/20121128/95659/1230/926/10/
027710/20121128/95708/1235/151/20/
027710/20121128/95708/1235/500/20/
027710/20121128/95708/1235/1000/20/
027710/20121128/95709/1235/350/20/
027710/20121128/95709/1235/500/20/
027710/20121128/95710/1235/500/20/
027710/20121128/95710/1235/200/20/
027710/20121128/95711/1235/10010/20/
027710/20121128/95712/1235/2000/20/
027710/20121128/95712/1235/102/20/
027710/20121128/95712/1235/900/20/
027710/20121128/95712/1235/1000/20/
027710/20121128/95712/1235/10000/20/
027710/20121128/95713/1235/500/20/
027710/20121128/95713/1235/100/20/
027710/20121128/95713/1235/2429/20/
027710/20121128/95714/1235/4831/20/
027710/20121128/95715/1240/500/20/
027710/20121128/95719/1240/552/20/
027710/20121128/95722/1235/5027/10/
027710/20121128/95722/1240/3000/20/
027710/20121128/95722/1240/100/20/
027710/20121128/95722/1235/9173/10/
027710/20121128/95724/1240/388/20/
027710/20121128/95725/1240/100/20/
027710/20121128/95725/1235/1000/10/
027710/20121128/95725/1240/6500/20/
027710/20121128/95727/1240/110/20/
027710/20121128/95730/1240/156/20/
027710/20121128/95731/1240/810/20/
027710/20121128/95732/1240/1657/20/
027710/20121128/95732/1240/8365/20/
027710/20121128/95733/1240/1000/20/
027710/20121128/95734/1240/1020/20/
027710/20121128/95734/1240/1010/20/
027710/20121128/95735/1240/10000/20/
027710/20121128/95735/1240/729/20/
027710/20121128/95735/1240/1000/20/
027710/20121128/95736/1240/1843/20/
027710/20121128/95736/1240/100/20/
027710/20121128/95737/1240/1050/20/
027710/20121128/95737/1240/6077/20/
027710/20121128/95738/1240/500/20/
027710/20121128/95738/1240/1000/20/
027710/20121128/95738/1240/131/20/
027710/20121128/95738/1240/5050/20/
027710/20121128/95739/1240/5050/20/
027710/20121128/95739/1240/2000/20/
027710/20121128/95739/1240/500/20/
027710/20121128/95739/1240/106/20/
027710/20121128/95739/1240/4858/20/
027710/20121128/95740/1240/5080/20/
027710/20121128/95740/1240/4858/20/
027710/20121128/95740/1240/1489/20/
027710/20121128/95741/1240/121/20/
027710/20121128/95741/1240/500/20/
027710/20121128/95741/1240/4271/20/
027710/20121128/95741/1240/220/20/
027710/20121128/95742/1240/100/20/
027710/20121128/95742/1240/6510/20/
027710/20121128/95742/1240/5000/20/
027710/20121128/95743/1240/6000/20/
027710/20121128/95743/1240/13101/20/
027710/20121128/95743/1245/111/20/
027710/20121128/95748/1240/10033/10/
027710/20121128/95751/1240/27216/10/
027710/20121128/95751/1240/3000/20/
027710/20121128/95752/1240/200/20/
027710/20121128/95753/1240/200/20/
027710/20121128/95753/1240/100/20/
027710/20121128/95753/1240/461/20/
027710/20121128/95753/1240/100/20/
027710/20121128/95755/1240/1100/20/
027710/20121128/95756/1240/3969/20/
027710/20121128/95756/1240/1887/10/
027710/20121128/95757/1240/113/20/
027710/20121128/95757/1240/2887/10/
027710/20121128/95807/1240/90/20/
027710/20121128/95810/1240/1000/20/
027710/20121128/95813/1240/502/20/
027710/20121128/95817/1240/3736/20/
027710/20121128/95820/1240/5030/20/
027710/20121128/95821/1240/500/20/
027710/20121128/95823/1240/500/20/
027710/20121128/95824/1240/2000/20/
027710/20121128/95824/1240/1000/20/
027710/20121128/95824/1240/227/20/
027710/20121128/95825/1240/100/20/
027710/20121128/95825/1240/3000/20/
027710/20121128/95827/1240/800/20/
027710/20121128/95827/1240/2610/20/
027710/20121128/95828/1240/350/20/
027710/20121128/95829/1240/100/20/
027710/20121128/95829/1240/1000/20/
027710/20121128/95830/1240/100/20/
027710/20121128/95831/1240/500/20/
027710/20121128/95831/1240/111/20/
027710/20121128/95832/1240/533/20/
027710/20121128/95834/1240/510/20/
027710/20121128/95838/1240/251/20/
027710/20121128/95841/1240/1070/20/
027710/20121128/95843/1240/900/20/
027710/20121128/95846/1240/1002/20/
027710/20121128/95847/1240/120/20/
027710/20121128/95848/1240/100/20/
027710/20121128/95848/1240/1000/20/
027710/20121128/95849/1240/104/20/
027710/20121128/95850/1240/5000/20/
027710/20121128/95851/1240/407/20/
027710/20121128/95851/1240/100/20/
027710/20121128/95852/1240/8327/20/
027710/20121128/95852/1245/673/20/
027710/20121128/95853/1245/200/20/
027710/20121128/95858/1240/2038/10/
027710/20121128/95901/1240/1062/10/
027710/20121128/95907/1240/1079/10/
027710/20121128/95908/1240/300/10/
027710/20121128/95909/1240/1000/10/
027710/20121128/95909/1240/2000/10/
027710/20121128/95910/1240/862/10/
027710/20121128/95910/1240/100/10/
027710/20121128/95912/1240/14000/10/
027710/20121128/95915/1240/2010/10/
027710/20121128/95918/1240/500/10/
027710/20121128/95919/1240/510/10/
027710/20121128/95919/1240/1480/10/
027710/20121128/95919/1240/2610/10/
027710/20121128/95920/1240/500/10/
027710/20121128/95920/1240/912/10/
027710/20121128/95922/1240/102/20/
027710/20121128/95922/1240/620/20/
027710/20121128/95927/1240/8060/20/
027710/20121128/95927/1240/100/20/
027710/20121128/95928/1240/100/20/
027710/20121128/95928/1240/100/20/
027710/20121128/95929/1240/370/20/
027710/20121128/95941/1245/123/20/
027710/20121128/95945/1245/210/20/
027710/20121128/95946/1240/471/10/
027710/20121128/95950/1245/110/20/
027710/20121128/95951/1240/400/10/
027710/20121128/95954/1240/1000/10/
027710/20121128/100001/1240/1829/10/
027710/20121128/100012/1245/219/20/
027710/20121128/100023/1245/220/20/
027710/20121128/100025/1245/6973/20/
027710/20121128/100027/1245/151/20/
027710/20121128/100029/1245/500/20/
027710/20121128/100029/1240/7100/10/
027710/20121128/100030/1245/256/20/
027710/20121128/100037/1245/358/20/
027710/20121128/100038/1245/242/20/
027710/20121128/100044/1245/1067/20/
027710/20121128/100046/1245/215/20/
027710/20121128/100051/1245/411/20/
027710/20121128/100055/1245/500/20/
027710/20121128/100059/1245/120/20/
027710/20121128/100102/1245/198/20/
027710/20121128/100103/1245/160/20/
027710/20121128/100108/1245/210/20/
027710/20121128/100111/1245/250/20/
027710/20121128/100115/1245/5000/20/
027710/20121128/100115/1245/530/20/
027710/20121128/100116/1245/6080/20/
027710/20121128/100116/1245/62526/20/
027710/20121128/100117/1245/9921/20/
027710/20121128/100117/1245/1141/20/
027710/20121128/100117/1245/180/20/
027710/20121128/100117/1245/300/20/
027710/20121128/100117/1245/100/20/
027710/20121128/100118/1245/1000/20/
027710/20121128/100118/1245/111/20/
027710/20121128/100118/1245/100/20/
027710/20121128/100118/1245/1459/20/
027710/20121128/100118/1245/100/20/
027710/20121128/100118/1245/779/20/
027710/20121128/100118/1245/3934/20/
027710/20121128/100119/1245/91/20/
027710/20121128/100119/1245/430/20/
027710/20121128/100119/1245/1000/20/
027710/20121128/100119/1245/1000/20/
027710/20121128/100119/1245/1000/20/
027710/20121128/100120/1245/5060/20/
027710/20121128/100120/1245/1000/20/
027710/20121128/100120/1245/4000/20/
027710/20121128/100120/1245/424/20/
027710/20121128/100120/1245/250/20/
027710/20121128/100121/1245/596/20/
027710/20121128/100121/1245/1400/20/
027710/20121128/100121/1245/2956/20/
027710/20121128/100121/1250/1000/20/
027710/20121128/100122/1245/82/10/
027710/20121128/100123/1250/900/20/
027710/20121128/100125/1245/6030/10/
027710/20121128/100125/1250/1115/20/
027710/20121128/100133/1250/112/20/
027710/20121128/100140/1250/109/20/
027710/20121128/100144/1250/1000/20/
027710/20121128/100144/1250/619/20/
027710/20121128/100144/1245/500/10/
027710/20121128/100147/1250/3540/20/
027710/20121128/100148/1245/2880/10/
027710/20121128/100149/1250/2310/20/
027710/20121128/100149/1245/5000/10/
027710/20121128/100151/1245/1500/10/
027710/20121128/100151/1245/83/10/
027710/20121128/100151/1245/3075/10/
027710/20121128/100152/1240/1000/10/
027710/20121128/100153/1245/100/20/
027710/20121128/100155/1245/1961/20/
027710/20121128/100156/1245/1010/20/
027710/20121128/100158/1245/500/20/
027710/20121128/100159/1245/240/20/
027710/20121128/100159/1245/100/20/
027710/20121128/100159/1245/302/20/
027710/20121128/100200/1245/1000/20/
027710/20121128/100201/1245/9631/20/
027710/20121128/100202/1245/1000/10/
027710/20121128/100205/1245/1450/10/
027710/20121128/100208/1245/21151/10/
027710/20121128/100208/1245/1000/10/
027710/20121128/100209/1250/500/20/
027710/20121128/100209/1250/2310/20/
027710/20121128/100213/1245/5316/10/
027710/20121128/100214/1245/570/10/
027710/20121128/100215/1245/1346/10/
027710/20121128/100215/1240/418/10/
027710/20121128/100218/1245/1000/10/
027710/20121128/100220/1245/8000/10/
027710/20121128/100222/1245/235/20/
027710/20121128/100222/1245/1765/20/
027710/20121128/100222/1245/494/10/
027710/20121128/100222/1245/1000/10/
027710/20121128/100224/1245/3241/10/
027710/20121128/100226/1245/100/20/
027710/20121128/100227/1245/100/20/
027710/20121128/100232/1245/1019/20/
027710/20121128/100233/1245/1920/20/
027710/20121128/100233/1245/1134/20/
027710/20121128/100235/1245/200/10/
027710/20121128/100235/1245/4796/10/
027710/20121128/100238/1240/81/10/
027710/20121128/100240/1245/110/20/
027710/20121128/100241/1245/100/20/
027710/20121128/100242/1245/162/20/
027710/20121128/100245/1245/2300/20/
027710/20121128/100247/1245/111/20/
027710/20121128/100247/1245/200/20/
027710/20121128/100247/1245/101/20/
027710/20121128/100248/1245/4000/20/
027710/20121128/100249/1245/2000/20/
027710/20121128/100254/1245/4123/20/
027710/20121128/100256/1245/4247/10/
027710/20121128/100258/1245/753/20/
027710/20121128/100300/1245/151/10/
027710/20121128/100305/1245/570/20/
027710/20121128/100306/1245/3440/20/
027710/20121128/100307/1245/3000/20/
027710/20121128/100308/1245/1300/20/
027710/20121128/100308/1245/100/20/
027710/20121128/100309/1245/1396/20/
027710/20121128/100310/1245/300/20/
027710/20121128/100311/1245/500/20/
027710/20121128/100315/1245/300/20/
027710/20121128/100315/1245/100/20/
027710/20121128/100321/1245/800/20/
027710/20121128/100321/1245/1645/20/
027710/20121128/100323/1245/302/20/
027710/20121128/100331/1245/5099/20/
027710/20121128/100332/1245/768/20/
027710/20121128/100334/1245/500/20/
027710/20121128/100334/1245/180/20/
027710/20121128/100336/1245/100/20/
027710/20121128/100340/1245/3000/20/
027710/20121128/100345/1245/500/20/
027710/20121128/100345/1245/500/20/
027710/20121128/100353/1245/140/20/
027710/20121128/100359/1245/3800/20/
027710/20121128/100400/1245/4033/20/
027710/20121128/100401/1245/300/20/
027710/20121128/100402/1245/3000/20/
027710/20121128/100405/1240/6900/10/
027710/20121128/100409/1245/401/20/
027710/20121128/100413/1245/1000/20/
027710/20121128/100417/1245/16407/20/
027710/20121128/100427/1245/88/20/
027710/20121128/100427/1245/3000/20/
027710/20121128/100436/1245/110/20/
027710/20121128/100438/1245/15973/20/
027710/20121128/100439/1245/4129/10/
027710/20121128/100440/1245/1000/20/
027710/20121128/100442/1245/1000/20/
027710/20121128/100442/1245/1000/20/
027710/20121128/100443/1245/1000/20/
027710/20121128/100443/1245/300/20/
027710/20121128/100445/1245/824/20/
027710/20121128/100446/1245/798/20/
027710/20121128/100456/1250/348/20/
027710/20121128/100457/1250/2000/20/
027710/20121128/100458/1245/177/10/
027710/20121128/100502/1245/1010/10/
027710/20121128/100510/1250/7510/20/
027710/20121128/100514/1250/740/20/
027710/20121128/100518/1250/97/20/
027710/20121128/100526/1250/101/20/
027710/20121128/100531/1250/110/20/
027710/20121128/100538/1250/110/20/
027710/20121128/100557/1245/517/10/
027710/20121128/100558/1245/5000/10/
027710/20121128/100600/1245/2000/10/
027710/20121128/100601/1245/1000/10/
027710/20121128/100602/1250/800/20/
027710/20121128/100604/1245/400/10/
027710/20121128/100611/1250/113/20/
027710/20121128/100613/1245/300/10/
027710/20121128/100616/1245/3070/10/
027710/20121128/100617/1245/1459/10/
027710/20121128/100619/1245/173/10/
027710/20121128/100619/1245/11285/10/
027710/20121128/100621/1245/2500/10/
027710/20121128/100621/1245/4050/10/
027710/20121128/100621/1245/4382/10/
027710/20121128/100622/1240/462/10/
027710/20121128/100634/1245/8881/20/
027710/20121128/100636/1245/400/10/
027710/20121128/100637/1245/1000/10/
027710/20121128/100637/1245/266/10/
027710/20121128/100638/1245/461/10/
027710/20121128/100639/1245/2010/10/
027710/20121128/100641/1245/2010/10/
027710/20121128/100641/1245/300/10/
027710/20121128/100643/1245/3406/10/
027710/20121128/100645/1245/665/20/
027710/20121128/100649/1245/2131/20/
027710/20121128/100653/1245/1852/10/
027710/20121128/100656/1245/500/10/
027710/20121128/100657/1250/400/20/
027710/20121128/100700/1245/410/10/
027710/20121128/100702/1245/2504/10/
027710/20121128/100732/1245/5020/20/
027710/20121128/100733/1245/1000/20/
027710/20121128/100738/1245/403/20/
027710/20121128/100746/1240/308/10/
027710/20121128/100751/1245/100/20/
027710/20121128/100754/1245/3000/20/
027710/20121128/100755/1245/1270/20/
027710/20121128/100758/1245/500/20/
027710/20121128/100759/1245/292/20/
027710/20121128/100815/1245/1228/10/
027710/20121128/100833/1245/113/20/
027710/20121128/100851/1245/90/20/
027710/20121128/100904/1240/927/10/
027710/20121128/100927/1240/1777/10/
027710/20121128/100936/1240/40049/10/
027710/20121128/100937/1240/2359/10/
027710/20121128/100937/1240/5000/10/
027710/20121128/100937/1240/6647/10/
027710/20121128/100937/1240/1000/10/
027710/20121128/100938/1240/3609/10/
027710/20121128/100942/1235/10001/10/
027710/20121128/100943/1235/102/10/
027710/20121128/100945/1235/696/10/
027710/20121128/100956/1235/10047/10/
027710/20121128/100956/1235/1857/10/
027710/20121128/100956/1230/8143/10/
027710/20121128/101016/1240/7772/20/
027710/20121128/101026/1240/1320/20/
027710/20121128/101027/1240/1000/20/
027710/20121128/101042/1235/1000/10/
027710/20121128/101050/1235/1000/10/
027710/20121128/101053/1235/1152/10/
027710/20121128/101135/1235/3077/10/
027710/20121128/101152/1235/5010/10/
027710/20121128/101205/1235/1050/10/
027710/20121128/101210/1235/1010/10/
027710/20121128/101212/1235/100/10/
027710/20121128/101218/1235/180/10/
027710/20121128/101229/1240/1020/20/
027710/20121128/101350/1235/751/10/
027710/20121128/101404/1235/1405/10/
027710/20121128/101409/1235/99/10/
027710/20121128/101417/1235/150/10/
027710/20121128/101423/1235/1000/10/
027710/20121128/101448/1235/10546/10/
027710/20121128/101525/1235/1056/20/
027710/20121128/101526/1235/4063/20/
027710/20121128/101528/1240/800/20/
027710/20121128/101750/1235/8663/10/
027710/20121128/101802/1235/4343/20/
027710/20121128/101900/1235/914/10/
027710/20121128/101909/1235/252/10/
027710/20121128/102011/1235/1414/10/
027710/20121128/102021/1235/1271/10/
027710/20121128/102022/1235/443/20/
027710/20121128/102039/1235/2171/20/
027710/20121128/102046/1235/101/10/
027710/20121128/102117/1235/144/10/
027710/20121128/102130/1235/510/10/
027710/20121128/102135/1235/4964/10/
027710/20121128/102135/1230/17210/10/
027710/20121128/102202/1235/113/20/
027710/20121128/102211/1235/102/20/
027710/20121128/102224/1235/316/20/
027710/20121128/102225/1235/102/10/
027710/20121128/102245/1235/2001/10/
027710/20121128/102257/1235/286/10/
027710/20121128/102302/1235/101/20/
027710/20121128/102459/1230/442/10/
027710/20121128/102501/1235/600/20/
027710/20121128/102534/1235/3034/20/
027710/20121128/102611/1235/2000/20/
027710/20121128/102733/1230/2000/10/
027710/20121128/102824/1230/3131/10/
027710/20121128/102825/1230/10000/10/
027710/20121128/102827/1230/1362/10/
027710/20121128/102827/1230/83/10/
027710/20121128/102829/1230/500/10/
027710/20121128/102833/1230/6963/10/
027710/20121128/102834/1230/1361/10/
027710/20121128/102836/1230/9116/10/
027710/20121128/102840/1230/765/20/
027710/20121128/102859/1230/110/20/
027710/20121128/102902/1230/449/20/
027710/20121128/102903/1230/500/20/
027710/20121128/102909/1225/627/10/
027710/20121128/102911/1225/500/10/
027710/20121128/102927/1230/515/20/
027710/20121128/102941/1225/107/10/
027710/20121128/102944/1225/100/10/
027710/20121128/102949/1230/1000/20/
027710/20121128/103005/1230/8012/20/
027710/20121128/103007/1225/300/10/
027710/20121128/103008/1230/1000/20/
027710/20121128/103024/1230/512/20/
027710/20121128/103025/1230/990/20/
027710/20121128/103025/1230/1770/20/
027710/20121128/103027/1230/1656/20/
027710/20121128/103028/1230/446/20/
027710/20121128/103029/1230/100/20/
027710/20121128/103030/1230/500/20/
027710/20121128/103042/1225/602/10/
027710/20121128/103047/1230/746/20/
027710/20121128/103056/1230/210/20/
027710/20121128/103101/1230/3748/20/
027710/20121128/103200/1235/211/20/
027710/20121128/103206/1235/200/20/
027710/20121128/103229/1230/502/10/
027710/20121128/103239/1230/702/10/
027710/20121128/103256/1230/2000/10/
027710/20121128/103305/1230/2000/10/
027710/20121128/103308/1230/2000/10/
027710/20121128/103316/1230/2000/10/
027710/20121128/103350/1230/501/10/
027710/20121128/103407/1230/509/10/
027710/20121128/103416/1230/111/10/
027710/20121128/103422/1230/210/10/
027710/20121128/103444/1230/2046/10/
027710/20121128/103448/1230/180/10/
027710/20121128/103449/1230/200/10/
027710/20121128/103648/1235/85/20/
027710/20121128/103703/1235/3030/20/
027710/20121128/103737/1235/5250/20/
027710/20121128/103748/1235/3960/20/
027710/20121128/103753/1235/1988/20/
027710/20121128/103757/1235/11309/20/
027710/20121128/103810/1235/5010/10/
027710/20121128/103813/1235/1500/10/
027710/20121128/103847/1240/90/20/
027710/20121128/103947/1240/1482/20/
027710/20121128/104025/1240/138/20/
027710/20121128/104056/1235/588/10/
027710/20121128/104100/1235/1770/10/
027710/20121128/104107/1235/1029/10/
027710/20121128/104156/1240/575/20/
027710/20121128/104338/1235/111/10/
027710/20121128/104339/1235/2479/10/
027710/20121128/104351/1235/100/10/
027710/20121128/104401/1235/200/10/
027710/20121128/104409/1235/350/10/
027710/20121128/104442/1235/1454/10/
027710/20121128/104446/1235/1500/10/
027710/20121128/104501/1235/820/10/
027710/20121128/104627/1235/2065/10/
027710/20121128/104704/1235/2824/10/
027710/20121128/104713/1235/4326/10/
027710/20121128/104721/1235/400/10/
027710/20121128/104741/1240/4702/20/
027710/20121128/104753/1235/2000/10/
027710/20121128/104755/1240/290/20/
027710/20121128/104806/1235/500/10/
027710/20121128/104831/1235/1065/10/
027710/20121128/104937/1235/114/10/
027710/20121128/104956/1235/378/10/
027710/20121128/105020/1235/17603/10/
027710/20121128/105028/1235/2014/10/
027710/20121128/105030/1235/172/10/
027710/20121128/105035/1235/88/20/
027710/20121128/105054/1235/250/10/
027710/20121128/105106/1235/100/10/
027710/20121128/105147/1235/90/10/
027710/20121128/105308/1240/1043/20/
027710/20121128/105340/1240/259/20/
027710/20121128/105352/1235/1120/10/
027710/20121128/105435/1235/5846/10/
027710/20121128/105440/1235/325/10/
027710/20121128/105444/1235/859/10/
027710/20121128/105502/1235/117/20/
027710/20121128/105508/1235/100/20/
027710/20121128/105509/1235/400/20/
027710/20121128/105524/1235/320/20/
027710/20121128/105540/1235/100/20/
027710/20121128/105554/1230/503/10/
027710/20121128/105558/1235/200/20/
027710/20121128/105643/1235/1000/20/
027710/20121128/105840/1235/125/20/
027710/20121128/105857/1235/4182/20/
027710/20121128/105907/1235/2500/20/
027710/20121128/105910/1235/1337/20/
027710/20121128/105926/1235/100/10/
027710/20121128/105935/1235/101/10/
027710/20121128/110011/1240/100/20/
027710/20121128/110139/1235/2530/10/
027710/20121128/110145/1235/700/10/
027710/20121128/110157/1235/110/10/
027710/20121128/110203/1235/490/10/
027710/20121128/110210/1240/90/20/
027710/20121128/110234/1240/90/20/
027710/20121128/110239/1235/5731/10/
027710/20121128/110256/1235/1770/20/
027710/20121128/110313/1235/101/20/
027710/20121128/110353/1235/5051/20/
027710/20121128/110444/1240/301/20/
027710/20121128/110646/1240/135/20/
027710/20121128/110746/1235/431/10/
027710/20121128/110808/1235/596/10/
027710/20121128/110810/1235/200/10/
027710/20121128/110847/1235/1008/10/
027710/20121128/110940/1235/102/10/
027710/20121128/110947/1235/160/10/
027710/20121128/110956/1240/301/20/
027710/20121128/111013/1240/100/20/
027710/20121128/111042/1240/203/20/
027710/20121128/111117/1235/466/10/
027710/20121128/111145/1235/14753/10/
027710/20121128/111146/1235/4227/10/
027710/20121128/111155/1235/10000/10/
027710/20121128/111217/1235/955/10/
027710/20121128/111229/1235/520/10/
027710/20121128/111231/1235/1377/10/
027710/20121128/111238/1230/502/10/
027710/20121128/111408/1235/537/20/
027710/20121128/111445/1230/502/10/
027710/20121128/111534/1235/10000/20/
027710/20121128/111544/1235/230/20/
027710/20121128/111601/1235/160/10/
027710/20121128/111603/1235/115/10/
027710/20121128/111616/1235/1895/20/
027710/20121128/111624/1235/502/10/
027710/20121128/111636/1235/500/10/
027710/20121128/111648/1235/400/10/
027710/20121128/111653/1235/7920/10/
027710/20121128/111813/1235/200/10/
027710/20121128/111838/1240/251/20/
027710/20121128/111851/1240/402/20/
027710/20121128/111902/1240/41596/20/
027710/20121128/111906/1245/80000/20/
027710/20121128/111923/1245/19608/20/
027710/20121128/111923/1245/5000/20/
027710/20121128/111924/1245/1140/20/
027710/20121128/111927/1250/806/20/
027710/20121128/111955/1250/4139/20/
027710/20121128/111957/1250/300/20/
027710/20121128/112007/1250/526/20/
027710/20121128/112015/1250/120/20/
027710/20121128/112019/1250/3176/20/
027710/20121128/112033/1250/13070/20/
027710/20121128/112033/1245/2000/10/
027710/20121128/112034/1250/2008/20/
027710/20121128/112034/1250/101/20/
027710/20121128/112034/1245/200/10/
027710/20121128/112034/1250/2411/20/
027710/20121128/112034/1250/16000/20/
027710/20121128/112035/1250/7000/20/
027710/20121128/112035/1250/10000/20/
027710/20121128/112036/1250/1600/20/
027710/20121128/112036/1250/5000/20/
027710/20121128/112036/1250/2400/20/
027710/20121128/112036/1250/2947/20/
027710/20121128/112036/1250/6138/20/
027710/20121128/112036/1250/200/20/
027710/20121128/112036/1250/300/20/
027710/20121128/112036/1250/2019/20/
027710/20121128/112036/1250/5824/20/
027710/20121128/112037/1250/450/20/
027710/20121128/112037/1250/280/20/
027710/20121128/112037/1250/729/20/
027710/20121128/112037/1250/3405/20/
027710/20121128/112037/1250/1000/20/
027710/20121128/112037/1250/2400/20/
027710/20121128/112037/1250/10000/20/
027710/20121128/112037/1250/12227/20/
027710/20121128/112040/1250/14033/10/
027710/20121128/112041/1250/700/20/
027710/20121128/112042/1250/500/20/
027710/20121128/112042/1250/4767/20/
027710/20121128/112043/1255/500/20/
027710/20121128/112045/1250/3011/10/
027710/20121128/112045/1255/1000/20/
027710/20121128/112046/1255/100/20/
027710/20121128/112047/1255/300/20/
027710/20121128/112050/1255/796/20/
027710/20121128/112050/1255/90/20/
027710/20121128/112054/1250/6000/10/
027710/20121128/112056/1250/12375/10/
027710/20121128/112104/1250/110/20/
027710/20121128/112105/1250/1431/20/
027710/20121128/112105/1250/100/20/
027710/20121128/112108/1250/2883/20/
027710/20121128/112113/1250/3000/20/
027710/20121128/112114/1250/300/20/
027710/20121128/112115/1250/220/20/
027710/20121128/112129/1250/112/20/
027710/20121128/112129/1245/1000/10/
027710/20121128/112130/1245/2000/10/
027710/20121128/112134/1250/322/20/
027710/20121128/112139/1250/2822/20/
027710/20121128/112140/1245/5078/10/
027710/20121128/112145/1250/224/20/
027710/20121128/112156/1245/659/10/
027710/20121128/112205/1250/748/20/
027710/20121128/112210/1250/142/20/
027710/20121128/112210/1250/3000/20/
027710/20121128/112214/1245/400/10/
027710/20121128/112217/1250/5822/20/
027710/20121128/112218/1250/2000/20/
027710/20121128/112219/1250/3000/20/
027710/20121128/112220/1250/6156/20/
027710/20121128/112221/1250/5998/10/
027710/20121128/112244/1250/751/20/
027710/20121128/112245/1250/500/20/
027710/20121128/112247/1250/288/20/
027710/20121128/112249/1250/2000/20/
027710/20121128/112256/1250/113/20/
027710/20121128/112257/1250/3249/20/
027710/20121128/112304/1245/408/10/
027710/20121128/112307/1245/6549/10/
027710/20121128/112308/1245/3340/10/
027710/20121128/112309/1245/9065/10/
027710/20121128/112319/1245/502/20/
027710/20121128/112319/1245/300/20/
027710/20121128/112322/1245/201/20/
027710/20121128/112329/1245/801/10/
027710/20121128/112348/1245/206/20/
027710/20121128/112352/1245/500/10/
027710/20121128/112359/1245/1001/10/
027710/20121128/112404/1245/1000/10/
027710/20121128/112413/1245/1000/10/
027710/20121128/112426/1245/200/10/
027710/20121128/112436/1245/396/10/
027710/20121128/112453/1245/1002/20/
027710/20121128/112508/1240/4103/10/
027710/20121128/112529/1240/1000/10/
027710/20121128/112538/1240/2000/10/
027710/20121128/112554/1245/916/20/
027710/20121128/112604/1240/302/10/
027710/20121128/112644/1245/9670/20/
027710/20121128/112650/1245/7543/10/
027710/20121128/112701/1245/130/20/
027710/20121128/112709/1245/127/20/
027710/20121128/112711/1245/102/20/
027710/20121128/112713/1245/2559/20/
027710/20121128/112716/1245/117/20/
027710/20121128/112731/1245/114/20/
027710/20121128/112733/1245/113/20/
027710/20121128/112735/1245/208/20/
027710/20121128/112739/1245/215/20/
027710/20121128/112741/1245/404/20/
027710/20121128/112745/1245/82/20/
027710/20121128/112751/1245/116/20/
027710/20121128/112755/1245/241/20/
027710/20121128/112802/1245/391/20/
027710/20121128/112806/1245/706/20/
027710/20121128/112813/1245/510/20/
027710/20121128/112822/1245/418/20/
027710/20121128/112822/1250/548/20/
027710/20121128/112850/1250/81/20/
027710/20121128/112851/1250/10914/20/
027710/20121128/112907/1250/177/20/
027710/20121128/112917/1250/81/20/
027710/20121128/112929/1250/2066/20/
027710/20121128/112930/1250/163/20/
027710/20121128/112937/1250/2069/20/
027710/20121128/112944/1250/82/20/
027710/20121128/112949/1250/89/20/
027710/20121128/112951/1250/523/20/
027710/20121128/113001/1245/12573/10/
027710/20121128/113005/1245/1612/20/
027710/20121128/113029/1245/370/20/
027710/20121128/113031/1245/1876/20/
027710/20121128/113032/1245/2360/20/
027710/20121128/113048/1245/101/10/
027710/20121128/113051/1250/300/20/
027710/20121128/113059/1250/1314/20/
027710/20121128/113106/1250/119/20/
027710/20121128/113112/1250/5010/20/
027710/20121128/113115/1250/409/20/
027710/20121128/113119/1250/5000/20/
027710/20121128/113120/1250/730/20/
027710/20121128/113209/1250/86/20/
027710/20121128/113227/1250/1005/20/
027710/20121128/113227/1250/1590/20/
027710/20121128/113340/1250/21538/20/
027710/20121128/113344/1250/1111/20/
027710/20121128/113349/1250/1110/20/
027710/20121128/113354/1250/3449/20/
027710/20121128/113403/1250/112/10/
027710/20121128/113435/1250/229/10/
027710/20121128/113438/1250/806/10/
027710/20121128/113451/1250/451/20/
027710/20121128/113454/1250/105/20/
027710/20121128/113511/1250/512/20/
027710/20121128/113529/1250/1401/20/
027710/20121128/113530/1250/100/20/
027710/20121128/113533/1250/500/20/
027710/20121128/113556/1250/1700/20/
027710/20121128/113614/1250/310/20/
027710/20121128/113614/1250/500/20/
027710/20121128/113633/1245/1022/10/
027710/20121128/113713/1245/1064/10/
027710/20121128/113718/1245/989/10/
027710/20121128/113726/1250/111/20/
027710/20121128/113813/1245/5713/10/
027710/20121128/113815/1245/14064/10/
027710/20121128/113850/1240/3516/10/
027710/20121128/113920/1240/3882/10/
027710/20121128/113921/1240/100/10/
027710/20121128/113923/1240/3700/10/
027710/20121128/113924/1240/357/10/
027710/20121128/113927/1240/5107/10/
027710/20121128/113931/1240/1000/10/
027710/20121128/113934/1240/2000/10/
027710/20121128/114012/1240/2051/10/
027710/20121128/114023/1240/1000/10/
027710/20121128/114233/1240/1446/10/
027710/20121128/114258/1245/1010/20/
027710/20121128/114510/1240/812/10/
027710/20121128/114802/1245/84/20/
027710/20121128/114804/1240/100/10/
027710/20121128/114819/1245/527/20/
027710/20121128/114823/1245/10001/20/
027710/20121128/114827/1245/1073/20/
027710/20121128/114847/1245/1031/10/
027710/20121128/114918/1245/2030/10/
027710/20121128/114926/1250/2425/20/
027710/20121128/114938/1245/948/10/
027710/20121128/115118/1245/1949/20/
027710/20121128/115508/1245/10000/20/
027710/20121128/115511/1245/174/20/
027710/20121128/115653/1245/106/20/
027710/20121128/115717/1245/3011/20/
027710/20121128/115808/1240/253/10/
027710/20121128/115813/1240/3238/10/
027710/20121128/115815/1240/4210/10/
027710/20121128/115816/1240/8000/10/
027710/20121128/115817/1240/3571/10/
027710/20121128/115821/1240/405/10/
027710/20121128/115824/1240/4000/10/
027710/20121128/115827/1245/3000/20/
027710/20121128/115939/1240/868/10/
027710/20121128/115945/1240/536/10/
027710/20121128/120001/1240/2000/10/
027710/20121128/120015/1240/3326/10/
027710/20121128/120029/1240/1052/10/
027710/20121128/120052/1240/3000/10/
027710/20121128/120157/1240/2101/10/
027710/20121128/120422/1240/349/10/
027710/20121128/120545/1240/403/10/
027710/20121128/120626/1240/18736/10/
027710/20121128/120626/1235/1324/10/
027710/20121128/120626/1235/262/10/
027710/20121128/120703/1235/3624/10/
027710/20121128/120859/1240/5105/20/
027710/20121128/120900/1240/150/10/
027710/20121128/120942/1240/1000/10/
027710/20121128/121114/1245/1012/20/
027710/20121128/121232/1235/163/10/
027710/20121128/121335/1235/99/10/
027710/20121128/121415/1240/101/20/
027710/20121128/121453/1240/4331/20/
027710/20121128/121459/1240/492/10/
027710/20121128/121518/1240/311/20/
027710/20121128/121527/1240/2000/20/
027710/20121128/121558/1240/1051/20/
027710/20121128/121620/1240/1198/20/
027710/20121128/121627/1240/98/20/
027710/20121128/121753/1235/163/10/
027710/20121128/121914/1235/105/10/
027710/20121128/121929/1235/200/10/
027710/20121128/121943/1235/300/10/
027710/20121128/122044/1235/13061/10/
027710/20121128/122104/1235/836/10/
027710/20121128/122119/1235/370/10/
027710/20121128/122135/1235/620/10/
027710/20121128/122139/1235/2830/10/
027710/20121128/122148/1235/2002/10/
027710/20121128/122237/1235/512/10/
027710/20121128/122448/1240/311/20/
027710/20121128/122503/1235/2432/10/
027710/20121128/122527/1235/1690/10/
027710/20121128/122542/1235/1000/10/
027710/20121128/122653/1235/3002/10/
027710/20121128/122704/1235/6000/10/
027710/20121128/122711/1235/568/10/
027710/20121128/122713/1235/1000/10/
027710/20121128/122717/1235/230/10/
027710/20121128/122818/1235/322/20/
027710/20121128/122913/1235/1400/20/
027710/20121128/122915/1235/2032/20/
027710/20121128/122916/1235/3704/20/
027710/20121128/122916/1235/887/20/
027710/20121128/122921/1235/1823/10/
027710/20121128/122928/1235/305/20/
027710/20121128/122944/1235/203/20/
027710/20121128/122952/1230/128/10/
027710/20121128/123059/1235/1012/20/
027710/20121128/123105/1235/3300/20/
027710/20121128/123123/1235/104/20/
027710/20121128/123128/1235/2279/20/
027710/20121128/123136/1230/30003/10/
027710/20121128/123350/1235/1060/20/
027710/20121128/123427/1230/202/10/
027710/20121128/123545/1230/259/10/
027710/20121128/123703/1230/153/10/
027710/20121128/123808/1235/132/20/
027710/20121128/123814/1235/4378/20/
027710/20121128/123819/1235/432/20/
027710/20121128/123849/1235/148/20/
027710/20121128/123928/1235/393/20/
027710/20121128/123935/1235/1000/20/
027710/20121128/124010/1235/1588/20/
027710/20121128/124226/1235/102/10/
027710/20121128/124335/1235/106/10/
027710/20121128/124428/1240/2148/20/
027710/20121128/124612/1235/10001/10/
027710/20121128/124622/1235/3069/10/
027710/20121128/124638/1235/510/20/
027710/20121128/124703/1235/5300/20/
027710/20121128/124733/1235/501/20/
027710/20121128/124738/1235/502/20/
027710/20121128/124836/1235/158/20/
027710/20121128/124837/1235/189/10/
027710/20121128/124858/1235/200/20/
027710/20121128/125157/1230/20013/10/
027710/20121128/125220/1230/5012/10/
027710/20121128/125229/1230/3468/10/
027710/20121128/125231/1230/3030/10/
027710/20121128/125257/1230/576/10/
027710/20121128/125300/1230/2000/10/
027710/20121128/125303/1230/10000/10/
027710/20121128/125303/1230/158/10/
027710/20121128/125304/1230/1979/10/
027710/20121128/125309/1230/510/20/
027710/20121128/125330/1230/100/20/
027710/20121128/125334/1230/500/20/
027710/20121128/125339/1230/100/20/
027710/20121128/125343/1225/2002/10/
027710/20121128/125416/1230/1010/20/
027710/20121128/125437/1230/1362/20/
027710/20121128/125447/1230/881/20/
027710/20121128/125447/1235/177/20/
027710/20121128/125449/1235/510/20/
027710/20121128/125544/1235/6012/20/
027710/20121128/125547/1235/228/20/
027710/20121128/125549/1235/737/10/
027710/20121128/125735/1235/4203/20/
027710/20121128/125743/1235/1155/20/
027710/20121128/125756/1235/1005/20/
027710/20121128/125929/1240/3555/20/
027710/20121128/130030/1240/1000/20/
027710/20121128/130138/1230/3925/10/
027710/20121128/130538/1235/204/10/
027710/20121128/130555/1235/500/10/
027710/20121128/130626/1235/2808/10/
027710/20121128/130720/1240/301/20/
027710/20121128/130746/1235/1912/10/
027710/20121128/130748/1235/1904/10/
027710/20121128/130755/1235/2000/10/
027710/20121128/130755/1235/3000/10/
027710/20121128/130802/1235/700/10/
027710/20121128/130816/1235/500/10/
027710/20121128/130829/1235/2002/10/
027710/20121128/130833/1235/274/10/
027710/20121128/130923/1230/2015/10/
027710/20121128/131032/1230/506/10/
027710/20121128/131102/1230/4085/10/
027710/20121128/131129/1230/6311/10/
027710/20121128/131131/1230/1141/10/
027710/20121128/131513/1230/2568/10/
027710/20121128/131514/1230/1328/10/
027710/20121128/131519/1230/2010/10/
027710/20121128/131541/1230/2776/10/
027710/20121128/131615/1230/2163/10/
027710/20121128/131619/1230/1928/10/
027710/20121128/131635/1230/506/10/
027710/20121128/131710/1235/5136/20/
027710/20121128/131823/1230/3032/10/
027710/20121128/132131/1235/901/20/
027710/20121128/132307/1235/1000/20/
027710/20121128/132314/1235/90/20/
027710/20121128/132336/1230/346/10/
027710/20121128/132341/1230/931/10/
027710/20121128/132348/1230/630/10/
027710/20121128/132357/1230/1522/10/
027710/20121128/132409/1230/1322/10/
027710/20121128/132427/1230/2010/10/
027710/20121128/132553/1235/903/20/
027710/20121128/132956/1230/2021/10/
027710/20121128/133013/1230/285/10/
027710/20121128/133020/1230/500/10/
027710/20121128/133348/1235/230/20/
027710/20121128/133518/1230/243/10/
027710/20121128/133538/1230/174/10/
027710/20121128/133642/1235/235/20/
027710/20121128/133726/1235/5000/20/
027710/20121128/133748/1235/3000/20/
027710/20121128/133750/1235/257/20/
027710/20121128/133831/1235/1000/10/
027710/20121128/134152/1240/815/20/
027710/20121128/134313/1235/1009/10/
027710/20121128/134354/1235/200/10/
027710/20121128/134400/1235/201/10/
027710/20121128/134409/1235/100/10/
027710/20121128/134535/1240/2687/20/
027710/20121128/134714/1235/2272/10/
027710/20121128/134750/1235/102/10/
027710/20121128/134916/1235/213/10/
027710/20121128/134935/1235/1709/10/
027710/20121128/135031/1235/101/10/
027710/20121128/135051/1235/9002/10/
027710/20121128/135053/1235/400/10/
027710/20121128/135058/1235/151/10/
027710/20121128/135111/1235/1001/10/
027710/20121128/135112/1235/1268/10/
027710/20121128/135134/1235/1592/10/
027710/20121128/135136/1235/228/10/
027710/20121128/135245/1230/150/10/
027710/20121128/135338/1230/134/10/
027710/20121128/135345/1235/2712/20/
027710/20121128/135408/1235/134/10/
027710/20121128/135417/1235/250/10/
027710/20121128/135437/1235/1025/10/
027710/20121128/135443/1235/227/10/
027710/20121128/135445/1235/102/10/
027710/20121128/135459/1235/2429/10/
027710/20121128/135513/1235/123/10/
027710/20121128/135611/1235/387/20/
027710/20121128/135843/1230/7683/10/
027710/20121128/135910/1230/1011/10/
027710/20121128/135922/1230/23915/10/
027710/20121128/135931/1230/522/10/
027710/20121128/135938/1235/100/20/
027710/20121128/135949/1230/4000/10/
027710/20121128/135952/1230/1000/10/
027710/20121128/135954/1230/2800/10/
027710/20121128/135955/1230/1546/10/
027710/20121128/140000/1230/2000/20/
027710/20121128/140013/1230/102/20/
027710/20121128/140037/1225/1743/10/
027710/20121128/140102/1225/1420/10/
027710/20121128/140104/1225/562/10/
027710/20121128/140137/1225/300/10/
027710/20121128/140153/1225/100/10/
027710/20121128/140158/1225/300/10/
027710/20121128/140201/1225/20000/10/
027710/20121128/140203/1225/2500/10/
027710/20121128/140208/1225/3000/10/
027710/20121128/140210/1225/500/10/
027710/20121128/140236/1225/3188/10/
027710/20121128/140237/1225/3000/10/
027710/20121128/140306/1225/22725/10/
027710/20121128/140307/1225/3934/10/
027710/20121128/140307/1225/1699/10/
027710/20121128/140307/1220/2824/10/
027710/20121128/140314/1225/399/20/
027710/20121128/140319/1225/110/20/
027710/20121128/140322/1225/1155/20/
027710/20121128/140324/1225/745/20/
027710/20121128/140324/1225/1297/20/
027710/20121128/140327/1225/1500/10/
027710/20121128/140332/1230/201/20/
027710/20121128/140339/1230/101/20/
027710/20121128/140420/1230/1768/20/
027710/20121128/140533/1230/822/20/
027710/20121128/140546/1225/1279/10/
027710/20121128/140602/1230/7729/20/
027710/20121128/140639/1230/1632/10/
027710/20121128/140656/1230/360/10/
027710/20121128/140743/1230/152/10/
027710/20121128/140932/1230/1060/10/
027710/20121128/140940/1230/1200/10/
027710/20121128/140948/1230/1001/10/
027710/20121128/141316/1230/2753/10/
027710/20121128/141317/1230/1140/10/
027710/20121128/141318/1230/803/10/
027710/20121128/141334/1230/100/10/
027710/20121128/141414/1230/240/10/
027710/20121128/141420/1230/510/10/
027710/20121128/141421/1230/1000/10/
027710/20121128/141425/1230/1000/10/
027710/20121128/141428/1230/1327/10/
027710/20121128/141543/1225/171/10/
027710/20121128/141804/1230/311/20/
027710/20121128/141819/1230/100/20/
027710/20121128/141912/1225/110/10/
027710/20121128/141916/1225/1700/10/
027710/20121128/141917/1225/300/10/
027710/20121128/141924/1225/100/10/
027710/20121128/141928/1225/2000/10/
027710/20121128/141945/1230/2000/20/
027710/20121128/142026/1225/1015/10/
027710/20121128/142044/1225/11351/10/
027710/20121128/142047/1225/1500/10/
027710/20121128/142047/1225/2281/10/
027710/20121128/142106/1220/901/10/
027710/20121128/142116/1220/200/10/
027710/20121128/142117/1220/776/10/
027710/20121128/142143/1225/1010/20/
027710/20121128/142201/1225/2027/20/
027710/20121128/142215/1225/326/20/
027710/20121128/142217/1225/5695/20/
027710/20121128/142217/1225/1370/10/
027710/20121128/142217/1225/1098/10/
027710/20121128/142224/1220/1001/10/
027710/20121128/142234/1225/982/10/
027710/20121128/142234/1220/2133/10/
027710/20121128/142238/1220/806/10/
027710/20121128/142249/1225/260/20/
027710/20121128/142252/1225/100/20/
027710/20121128/142307/1225/1020/20/
027710/20121128/142309/1225/411/20/
027710/20121128/142402/1225/81/20/
027710/20121128/142425/1220/2053/10/
027710/20121128/142433/1220/10034/10/
027710/20121128/142435/1220/1236/10/
027710/20121128/142437/1220/244/10/
027710/20121128/142444/1220/1211/10/
027710/20121128/142510/1220/370/10/
027710/20121128/142526/1220/10022/10/
027710/20121128/142532/1220/1400/10/
027710/20121128/142553/1220/7857/10/
027710/20121128/142605/1225/611/20/
027710/20121128/142611/1225/669/20/
027710/20121128/142621/1225/510/20/
027710/20121128/142624/1225/401/20/
027710/20121128/142635/1225/181/20/
027710/20121128/142711/1225/2263/20/
027710/20121128/142725/1220/1002/10/
027710/20121128/142751/1220/111/10/
027710/20121128/142757/1220/200/10/
027710/20121128/142759/1220/1000/10/
027710/20121128/142804/1220/16397/10/
027710/20121128/142806/1220/11453/10/
027710/20121128/142806/1220/7149/10/
027710/20121128/142806/1220/2700/10/
027710/20121128/142807/1220/2444/10/
027710/20121128/142807/1220/3506/10/
027710/20121128/142807/1220/3525/10/
027710/20121128/142807/1215/1100/10/
027710/20121128/142808/1215/280/10/
027710/20121128/142809/1215/400/10/
027710/20121128/142811/1215/5000/10/
027710/20121128/142814/1220/2863/20/
027710/20121128/142820/1220/518/20/
027710/20121128/142824/1215/900/10/
027710/20121128/142825/1215/4088/10/
027710/20121128/142826/1215/17007/10/
027710/20121128/142827/1215/1000/10/
027710/20121128/142828/1215/4271/10/
027710/20121128/142828/1215/6000/10/
027710/20121128/142828/1215/1500/10/
027710/20121128/142828/1215/843/10/
027710/20121128/142829/1215/201/10/
027710/20121128/142829/1215/3000/10/
027710/20121128/142829/1215/1396/10/
027710/20121128/142830/1210/1021/10/
027710/20121128/142830/1210/600/10/
027710/20121128/142832/1215/2042/20/
027710/20121128/142833/1210/1916/10/
027710/20121128/142838/1215/262/20/
027710/20121128/142838/1210/792/10/
027710/20121128/142845/1210/100/10/
027710/20121128/142846/1215/10000/20/
027710/20121128/142849/1215/1041/20/
027710/20121128/142853/1215/110/20/
027710/20121128/142854/1215/1000/20/
027710/20121128/142855/1215/100/20/
027710/20121128/142855/1215/99/20/
027710/20121128/142855/1220/500/20/
027710/20121128/142857/1215/682/10/
027710/20121128/142858/1215/100/10/
027710/20121128/142859/1215/989/10/
027710/20121128/142903/1215/111/20/
027710/20121128/142908/1215/1051/20/
027710/20121128/142912/1215/646/20/
027710/20121128/142925/1215/130/10/
027710/20121128/142930/1215/298/10/
027710/20121128/142936/1215/1010/10/
027710/20121128/142937/1215/10000/10/
027710/20121128/142941/1215/12430/10/
027710/20121128/142941/1210/2641/10/
027710/20121128/142952/1210/510/10/
027710/20121128/143000/1215/300/10/
027710/20121128/143007/1210/200/10/
027710/20121128/143014/1210/18604/10/
027710/20121128/143017/1210/1612/10/
027710/20121128/143020/1210/4000/10/
027710/20121128/143021/1210/3402/10/
027710/20121128/143021/1210/800/10/
027710/20121128/143021/1210/700/10/
027710/20121128/143027/1210/310/10/
027710/20121128/143031/1210/300/10/
027710/20121128/143034/1210/500/10/
027710/20121128/143038/1210/7540/10/
027710/20121128/143038/1210/1350/10/
027710/20121128/143039/1210/256/10/
027710/20121128/143039/1210/500/20/
027710/20121128/143041/1210/5940/20/
027710/20121128/143042/1210/500/10/
027710/20121128/143042/1210/300/10/
027710/20121128/143045/1215/82/20/
027710/20121128/143046/1210/100/10/
027710/20121128/143047/1210/3000/10/
027710/20121128/143049/1210/188/10/
027710/20121128/143054/1210/365/20/
027710/20121128/143054/1210/1000/20/
027710/20121128/143057/1210/100/20/
027710/20121128/143102/1210/520/20/
027710/20121128/143108/1210/100/20/
027710/20121128/143108/1210/730/20/
027710/20121128/143111/1210/459/10/
027710/20121128/143130/1210/2004/20/
027710/20121128/143130/1210/151/20/
027710/20121128/143135/1210/1859/10/
027710/20121128/143136/1210/100/20/
027710/20121128/143136/1210/100/20/
027710/20121128/143138/1210/729/20/
027710/20121128/143153/1205/150/10/
027710/20121128/143154/1205/1573/10/
027710/20121128/143157/1210/100/20/
027710/20121128/143157/1205/5633/10/
027710/20121128/143159/1205/1100/10/
027710/20121128/143202/1205/1657/10/
027710/20121128/143203/1205/19800/10/
027710/20121128/143204/1205/200/10/
027710/20121128/143205/1205/2000/10/
027710/20121128/143205/1205/100/10/
027710/20121128/143206/1205/705/10/
027710/20121128/143210/1205/450/10/
027710/20121128/143215/1205/2885/10/
027710/20121128/143215/1205/100/10/
027710/20121128/143219/1205/910/10/
027710/20121128/143224/1205/800/10/
027710/20121128/143225/1205/375/10/
027710/20121128/143226/1205/500/10/
027710/20121128/143227/1205/100/10/
027710/20121128/143230/1205/1000/10/
027710/20121128/143232/1205/895/10/
027710/20121128/143237/1205/1830/10/
027710/20121128/143316/1205/136/10/
027710/20121128/143323/1210/510/20/
027710/20121128/143327/1210/105/20/
027710/20121128/143327/1205/100/10/
027710/20121128/143330/1205/10000/10/
027710/20121128/143330/1205/1000/10/
027710/20121128/143334/1205/410/10/
027710/20121128/143336/1205/4762/10/
027710/20121128/143339/1205/500/20/
027710/20121128/143340/1200/173/10/
027710/20121128/143340/1200/700/10/
027710/20121128/143341/1200/1400/10/
027710/20121128/143344/1200/12000/10/
027710/20121128/143345/1200/3176/10/
027710/20121128/143346/1200/809/10/
027710/20121128/143349/1200/2710/10/
027710/20121128/143350/1200/100/10/
027710/20121128/143350/1200/1474/10/
027710/20121128/143352/1200/1000/10/
027710/20121128/143352/1200/100/10/
027710/20121128/143352/1200/2500/10/
027710/20121128/143353/1200/2000/10/
027710/20121128/143354/1200/1800/10/
027710/20121128/143354/1200/5600/10/
027710/20121128/143355/1200/202/10/
027710/20121128/143355/1200/1400/10/
027710/20121128/143356/1200/2262/10/
027710/20121128/143356/1200/5110/10/
027710/20121128/143356/1200/1900/10/
027710/20121128/143357/1200/100/10/
027710/20121128/143357/1200/2820/10/
027710/20121128/143357/1200/1833/10/
027710/20121128/143357/1200/7214/20/
027710/20121128/143358/1195/3000/10/
027710/20121128/143358/1195/400/10/
027710/20121128/143359/1200/514/20/
027710/20121128/143359/1195/813/10/
027710/20121128/143400/1195/1000/10/
027710/20121128/143400/1200/100/20/
027710/20121128/143407/1195/1185/10/
027710/20121128/143408/1200/360/20/
027710/20121128/143408/1200/2611/20/
027710/20121128/143409/1200/500/10/
027710/20121128/143411/1200/3290/10/
027710/20121128/143412/1205/100/20/
027710/20121128/143423/1200/200/10/
027710/20121128/143504/1205/90/20/
027710/20121128/143508/1205/168/20/
027710/20121128/143512/1205/2030/20/
027710/20121128/143514/1205/911/20/
027710/20121128/143516/1205/510/20/
027710/20121128/143517/1205/525/20/
027710/20121128/143520/1205/120/20/
027710/20121128/143526/1205/88/20/
027710/20121128/143528/1205/96/20/
027710/20121128/143529/1205/500/20/
027710/20121128/143530/1205/3547/20/
027710/20121128/143530/1205/1115/20/
027710/20121128/143532/1205/6601/10/
027710/20121128/143538/1205/1309/10/
027710/20121128/143540/1205/1481/20/
027710/20121128/143543/1205/800/20/
027710/20121128/143545/1205/700/20/
027710/20121128/143547/1205/918/20/
027710/20121128/143602/1205/602/20/
027710/20121128/143603/1200/20000/10/
027710/20121128/143608/1205/1050/20/
027710/20121128/143627/1205/178/20/
027710/20121128/143628/1205/900/20/
027710/20121128/143629/1200/100/10/
027710/20121128/143634/1205/365/20/
027710/20121128/143652/1205/550/20/
027710/20121128/143653/1205/100/20/
027710/20121128/143700/1205/1400/20/
027710/20121128/143701/1205/400/20/
027710/20121128/143701/1205/500/20/
027710/20121128/143706/1205/2000/20/
027710/20121128/143707/1205/1844/20/
027710/20121128/143710/1205/220/20/
027710/20121128/143716/1205/100/20/
027710/20121128/143718/1205/150/20/
027710/20121128/143719/1205/100/20/
027710/20121128/143719/1205/120/20/
027710/20121128/143721/1205/200/20/
027710/20121128/143722/1205/266/20/
027710/20121128/143725/1205/150/20/
027710/20121128/143728/1200/400/10/
027710/20121128/143731/1205/159/20/
027710/20121128/143735/1200/500/10/
027710/20121128/143742/1205/100/20/
027710/20121128/143752/1200/96/10/
027710/20121128/143753/1200/500/10/
027710/20121128/143806/1205/1174/20/
027710/20121128/143817/1205/5264/20/
027710/20121128/143822/1205/2000/20/
027710/20121128/143827/1205/100/20/
027710/20121128/143832/1205/101/20/
027710/20121128/143833/1205/230/20/
027710/20121128/143850/1205/539/10/
027710/20121128/143903/1205/5947/10/
027710/20121128/143903/1200/27588/10/
027710/20121128/143928/1205/87/10/
027710/20121128/143929/1205/446/10/
027710/20121128/143956/1200/1889/10/
027710/20121128/144002/1200/100/10/
027710/20121128/144021/1200/5012/10/
027710/20121128/144035/1205/115/20/
027710/20121128/144048/1205/302/20/
027710/20121128/144058/1205/101/20/
027710/20121128/144100/1200/10000/10/
027710/20121128/144107/1200/2001/10/
027710/20121128/144152/1205/872/20/
027710/20121128/144204/1200/4442/10/
027710/20121128/144205/1200/1000/10/
027710/20121128/144228/1200/2047/10/
027710/20121128/144236/1200/3251/10/
027710/20121128/144320/1200/5013/10/
027710/20121128/144340/1200/206/10/
027710/20121128/144341/1205/500/20/
027710/20121128/144351/1200/8004/10/
027710/20121128/144400/1200/2004/10/
027710/20121128/144410/1200/8201/10/
027710/20121128/144411/1200/602/10/
027710/20121128/144411/1200/1000/10/
027710/20121128/144425/1200/10627/10/
027710/20121128/144425/1200/1728/10/
027710/20121128/144427/1200/401/10/
027710/20121128/144428/1200/9814/10/
027710/20121128/144437/1200/3003/20/
027710/20121128/144440/1200/100/20/
027710/20121128/144441/1200/6214/20/
027710/20121128/144445/1200/112/20/
027710/20121128/144449/1200/150/20/
027710/20121128/144451/1200/100/20/
027710/20121128/144452/1195/1000/10/
027710/20121128/144452/1200/100/20/
027710/20121128/144457/1200/308/20/
027710/20121128/144502/1200/90/20/
027710/20121128/144506/1200/81/20/
027710/20121128/144506/1200/100/20/
027710/20121128/144511/1200/4080/20/
027710/20121128/144513/1200/540/20/
027710/20121128/144516/1200/2050/20/
027710/20121128/144519/1200/560/20/
027710/20121128/144520/1200/520/20/
027710/20121128/144522/1200/5040/20/
027710/20121128/144523/1200/510/20/
027710/20121128/144527/1200/709/20/
027710/20121128/144544/1200/262/10/
027710/20121128/144556/1200/113/10/
027710/20121128/144605/1200/502/10/
027710/20121128/144616/1200/1013/10/
027710/20121128/144626/1200/271/10/
027710/20121128/144642/1205/681/20/
027710/20121128/144651/1200/5443/10/
027710/20121128/144656/1200/330/20/
027710/20121128/144656/1200/100/20/
027710/20121128/144702/1195/1005/10/
027710/20121128/144706/1195/82/10/
027710/20121128/144721/1200/91/20/
027710/20121128/144724/1200/502/20/
027710/20121128/144730/1200/90/20/
027710/20121128/144732/1200/6819/20/
027710/20121128/144733/1200/11289/10/
027710/20121128/144757/1205/602/20/
027710/20121128/144810/1205/1002/20/
027710/20121128/144835/1205/869/20/
027710/20121128/144844/1205/300/20/
027710/20121128/144850/1205/2010/20/
027710/20121128/144854/1200/3000/10/
027710/20121128/144900/1200/169/10/
027710/20121128/144905/1200/14706/10/
027710/20121128/144914/1200/705/10/
027710/20121128/144914/1200/1000/10/
027710/20121128/144927/1205/2078/20/
027710/20121128/144927/1205/1000/20/
027710/20121128/144928/1205/152/20/
027710/20121128/144929/1205/388/20/
027710/20121128/144942/1200/890/10/
027710/20121128/144954/1205/1017/20/
027710/20121128/150000/1185/171504/10/
