027710/20121123/90000/1165/28143/10/
027710/20121123/90005/1170/90/10/
027710/20121123/90009/1175/4301/20/
027710/20121123/90021/1175/1705/20/
027710/20121123/90030/1170/700/10/
027710/20121123/90038/1170/3685/10/
027710/20121123/90038/1170/1315/20/
027710/20121123/90058/1170/670/10/
027710/20121123/90102/1170/200/10/
027710/20121123/90112/1170/10001/10/
027710/20121123/90112/1175/777/20/
027710/20121123/90118/1170/1000/10/
027710/20121123/90123/1170/4475/10/
027710/20121123/90129/1170/1000/20/
027710/20121123/90141/1170/859/20/
027710/20121123/90200/1170/600/20/
027710/20121123/90237/1170/5742/20/
027710/20121123/90242/1170/3105/10/
027710/20121123/90250/1170/91/10/
027710/20121123/90303/1170/101/10/
027710/20121123/90321/1170/8909/10/
027710/20121123/90326/1165/305/10/
027710/20121123/90329/1170/1001/20/
027710/20121123/90340/1170/291/20/
027710/20121123/90359/1175/5009/20/
027710/20121123/90411/1175/500/20/
027710/20121123/90428/1170/2000/10/
027710/20121123/90438/1175/107/20/
027710/20121123/90451/1170/226/10/
027710/20121123/90454/1170/775/10/
027710/20121123/90504/1165/2001/10/
027710/20121123/90506/1170/544/20/
027710/20121123/90534/1170/727/20/
027710/20121123/90546/1165/40000/10/
027710/20121123/90550/1165/1015/10/
027710/20121123/90553/1165/659/10/
027710/20121123/90557/1165/3011/20/
027710/20121123/90643/1165/934/10/
027710/20121123/90643/1160/39068/10/
027710/20121123/90822/1160/789/10/
027710/20121123/90904/1165/301/10/
027710/20121123/90923/1165/101/10/
027710/20121123/90941/1165/131/20/
027710/20121123/90954/1165/998/10/
027710/20121123/91008/1160/27690/10/
027710/20121123/91009/1160/2310/20/
027710/20121123/91010/1160/1000/20/
027710/20121123/91017/1160/3601/10/
027710/20121123/91023/1155/1867/10/
027710/20121123/91024/1160/1001/20/
027710/20121123/91027/1160/200/20/
027710/20121123/91029/1160/4001/20/
027710/20121123/91029/1160/1198/20/
027710/20121123/91050/1160/2501/10/
027710/20121123/91100/1160/5000/20/
027710/20121123/91100/1160/2500/20/
027710/20121123/91126/1165/3501/20/
027710/20121123/91131/1165/570/20/
027710/20121123/91140/1160/12010/10/
027710/20121123/91217/1160/290/10/
027710/20121123/91234/1160/20001/10/
027710/20121123/91244/1160/5343/10/
027710/20121123/91259/1160/500/20/
027710/20121123/91305/1160/1401/20/
027710/20121123/91312/1160/100/10/
027710/20121123/91313/1160/520/20/
027710/20121123/91313/1165/4480/20/
027710/20121123/91317/1165/2000/20/
027710/20121123/91330/1160/5000/10/
027710/20121123/91338/1160/5000/10/
027710/20121123/91340/1165/109/20/
027710/20121123/91359/1160/3000/10/
027710/20121123/91410/1160/1348/10/
027710/20121123/91412/1160/2367/20/
027710/20121123/91434/1165/2236/20/
027710/20121123/91444/1165/1004/10/
027710/20121123/91501/1165/2764/10/
027710/20121123/91513/1165/231/20/
027710/20121123/91542/1160/792/10/
027710/20121123/91620/1165/1299/20/
027710/20121123/91641/1165/1000/20/
027710/20121123/91745/1160/1391/10/
027710/20121123/91747/1160/106/10/
027710/20121123/91753/1160/16000/10/
027710/20121123/91913/1160/1051/10/
027710/20121123/91923/1160/15704/10/
027710/20121123/91930/1160/297/20/
027710/20121123/91935/1160/203/10/
027710/20121123/91948/1160/797/20/
027710/20121123/92013/1160/324/10/
027710/20121123/92029/1160/267/20/
027710/20121123/92111/1165/101/20/
027710/20121123/92115/1165/3269/20/
027710/20121123/92126/1160/2002/20/
027710/20121123/92153/1160/11917/10/
027710/20121123/92157/1160/100/20/
027710/20121123/92247/1165/1001/20/
027710/20121123/92256/1160/501/10/
027710/20121123/92257/1165/345/20/
027710/20121123/92303/1165/1656/10/
027710/20121123/92317/1165/332/20/
027710/20121123/92321/1165/2970/20/
027710/20121123/92323/1165/1915/20/
027710/20121123/92327/1165/863/20/
027710/20121123/92336/1165/228/20/
027710/20121123/92339/1165/3001/20/
027710/20121123/92340/1165/101/20/
027710/20121123/92343/1165/100/20/
027710/20121123/92355/1165/119/20/
027710/20121123/92355/1165/983/10/
027710/20121123/92426/1160/2028/10/
027710/20121123/92426/1165/206/20/
027710/20121123/92504/1160/20545/10/
027710/20121123/92508/1160/4468/20/
027710/20121123/92531/1160/1574/10/
027710/20121123/92620/1165/303/20/
027710/20121123/92845/1165/2059/20/
027710/20121123/92849/1165/14614/20/
027710/20121123/92929/1170/10055/20/
027710/20121123/92930/1170/10714/20/
027710/20121123/92931/1170/8001/10/
027710/20121123/92931/1170/1286/10/
027710/20121123/92956/1170/103/20/
027710/20121123/93008/1170/956/20/
027710/20121123/93040/1170/1000/20/
027710/20121123/93105/1170/3500/20/
027710/20121123/93142/1170/172/20/
027710/20121123/93149/1170/422/20/
027710/20121123/93153/1165/301/10/
027710/20121123/93240/1170/549/20/
027710/20121123/93318/1165/419/10/
027710/20121123/93329/1165/6978/10/
027710/20121123/93332/1165/300/10/
027710/20121123/93341/1165/3656/10/
027710/20121123/93346/1165/301/10/
027710/20121123/93354/1165/8584/10/
027710/20121123/93354/1165/14265/10/
027710/20121123/93449/1165/303/10/
027710/20121123/93500/1165/1705/10/
027710/20121123/93501/1165/4992/10/
027710/20121123/93504/1165/400/10/
027710/20121123/93504/1165/2000/10/
027710/20121123/93514/1165/200/10/
027710/20121123/93555/1165/3268/10/
027710/20121123/93713/1165/2065/10/
027710/20121123/93718/1165/3500/10/
027710/20121123/93719/1165/1000/10/
027710/20121123/93844/1165/102/10/
027710/20121123/93845/1165/100/10/
027710/20121123/93846/1165/100/10/
027710/20121123/93846/1165/100/10/
027710/20121123/93847/1165/100/10/
027710/20121123/93856/1170/81/20/
027710/20121123/93858/1170/4019/20/
027710/20121123/93859/1170/2510/20/
027710/20121123/93900/1170/5019/20/
027710/20121123/93900/1170/10018/20/
027710/20121123/93901/1170/5968/20/
027710/20121123/93903/1170/87/20/
027710/20121123/93905/1170/218/20/
027710/20121123/93906/1170/1062/20/
027710/20121123/93906/1170/924/20/
027710/20121123/93909/1175/81/20/
027710/20121123/93913/1175/84/20/
027710/20121123/93914/1175/2033/20/
027710/20121123/93917/1175/524/20/
027710/20121123/93919/1175/116/20/
027710/20121123/93924/1175/88/20/
027710/20121123/93925/1175/1277/20/
027710/20121123/93928/1175/83/20/
027710/20121123/93932/1175/81/20/
027710/20121123/93936/1175/87/20/
027710/20121123/93939/1175/86/20/
027710/20121123/93942/1175/652/20/
027710/20121123/93945/1175/81/20/
027710/20121123/93948/1175/81/20/
027710/20121123/93950/1175/634/20/
027710/20121123/93953/1175/84/20/
027710/20121123/93954/1175/219/20/
027710/20121123/93955/1175/5486/20/
027710/20121123/93956/1175/953/20/
027710/20121123/93957/1175/4267/20/
027710/20121123/93957/1175/7134/20/
027710/20121123/93958/1175/134/20/
027710/20121123/93959/1175/867/20/
027710/20121123/93959/1175/4359/20/
027710/20121123/93959/1175/851/20/
027710/20121123/94000/1175/201/20/
027710/20121123/94000/1175/857/20/
027710/20121123/94001/1175/1526/20/
027710/20121123/94001/1175/3006/20/
027710/20121123/94002/1175/1058/20/
027710/20121123/94002/1175/1300/20/
027710/20121123/94004/1175/1245/10/
027710/20121123/94004/1180/283/20/
027710/20121123/94007/1180/83/20/
027710/20121123/94011/1180/90/20/
027710/20121123/94012/1180/1656/20/
027710/20121123/94013/1180/4275/20/
027710/20121123/94015/1180/1038/20/
027710/20121123/94017/1180/1567/20/
027710/20121123/94017/1180/835/20/
027710/20121123/94019/1180/1739/20/
027710/20121123/94020/1180/123/20/
027710/20121123/94021/1180/449/20/
027710/20121123/94022/1180/1027/20/
027710/20121123/94022/1180/203/20/
027710/20121123/94023/1180/116/20/
027710/20121123/94023/1180/219/20/
027710/20121123/94023/1180/1000/20/
027710/20121123/94024/1180/246/20/
027710/20121123/94024/1180/303/20/
027710/20121123/94025/1180/1132/20/
027710/20121123/94025/1180/104/20/
027710/20121123/94025/1180/9967/20/
027710/20121123/94025/1180/300/20/
027710/20121123/94025/1180/850/20/
027710/20121123/94026/1180/203/20/
027710/20121123/94026/1180/1016/20/
027710/20121123/94026/1180/5012/20/
027710/20121123/94027/1180/1443/20/
027710/20121123/94027/1180/100/20/
027710/20121123/94027/1180/1015/20/
027710/20121123/94027/1180/847/20/
027710/20121123/94027/1180/857/20/
027710/20121123/94028/1180/1531/20/
027710/20121123/94028/1180/1000/20/
027710/20121123/94028/1180/301/20/
027710/20121123/94028/1180/16966/20/
027710/20121123/94028/1180/3000/20/
027710/20121123/94029/1180/846/20/
027710/20121123/94029/1180/200/20/
027710/20121123/94029/1180/5012/20/
027710/20121123/94030/1180/1000/20/
027710/20121123/94030/1180/204/20/
027710/20121123/94030/1180/17670/20/
027710/20121123/94030/1185/16390/20/
027710/20121123/94030/1185/1016/20/
027710/20121123/94031/1185/107/20/
027710/20121123/94032/1180/507/10/
027710/20121123/94033/1185/234/20/
027710/20121123/94033/1185/1440/20/
027710/20121123/94033/1185/851/20/
027710/20121123/94034/1185/1016/20/
027710/20121123/94035/1185/519/20/
027710/20121123/94037/1185/3065/20/
027710/20121123/94037/1185/88/20/
027710/20121123/94038/1185/1020/20/
027710/20121123/94040/1185/567/20/
027710/20121123/94040/1185/112/20/
027710/20121123/94043/1185/907/20/
027710/20121123/94044/1185/894/20/
027710/20121123/94044/1185/2000/20/
027710/20121123/94044/1185/1032/20/
027710/20121123/94044/1185/15800/20/
027710/20121123/94045/1185/1004/20/
027710/20121123/94045/1185/1764/20/
027710/20121123/94045/1185/500/20/
027710/20121123/94046/1185/1001/20/
027710/20121123/94046/1185/1016/20/
027710/20121123/94047/1185/204/20/
027710/20121123/94048/1185/1003/20/
027710/20121123/94048/1185/1016/20/
027710/20121123/94049/1185/1004/20/
027710/20121123/94049/1185/1003/20/
027710/20121123/94050/1185/104/20/
027710/20121123/94050/1185/1000/20/
027710/20121123/94050/1185/1254/20/
027710/20121123/94050/1185/1000/20/
027710/20121123/94050/1185/1000/20/
027710/20121123/94051/1185/1001/20/
027710/20121123/94051/1185/1012/20/
027710/20121123/94051/1185/1004/20/
027710/20121123/94052/1185/2001/20/
027710/20121123/94052/1185/154/20/
027710/20121123/94052/1185/1000/20/
027710/20121123/94053/1185/1000/20/
027710/20121123/94053/1185/1016/20/
027710/20121123/94053/1185/523/20/
027710/20121123/94054/1185/503/20/
027710/20121123/94056/1185/4980/20/
027710/20121123/94056/1185/103/20/
027710/20121123/94057/1185/1005/20/
027710/20121123/94057/1185/751/20/
027710/20121123/94058/1185/212/20/
027710/20121123/94058/1185/1712/20/
027710/20121123/94059/1185/3031/20/
027710/20121123/94100/1185/10000/20/
027710/20121123/94100/1185/1001/20/
027710/20121123/94100/1185/1673/20/
027710/20121123/94101/1185/211/20/
027710/20121123/94101/1185/1000/20/
027710/20121123/94101/1185/1000/20/
027710/20121123/94101/1185/1000/20/
027710/20121123/94102/1185/700/20/
027710/20121123/94102/1185/508/20/
027710/20121123/94102/1185/5000/20/
027710/20121123/94102/1185/5000/20/
027710/20121123/94103/1185/6493/20/
027710/20121123/94103/1185/3000/20/
027710/20121123/94104/1185/1001/20/
027710/20121123/94104/1185/200/20/
027710/20121123/94104/1185/617/20/
027710/20121123/94104/1185/2000/20/
027710/20121123/94104/1185/3388/20/
027710/20121123/94104/1185/3610/20/
027710/20121123/94105/1185/500/20/
027710/20121123/94105/1180/201/10/
027710/20121123/94105/1185/1000/20/
027710/20121123/94106/1185/10001/20/
027710/20121123/94106/1185/10000/20/
027710/20121123/94107/1185/1795/20/
027710/20121123/94109/1185/2531/20/
027710/20121123/94109/1185/500/20/
027710/20121123/94109/1185/1700/20/
027710/20121123/94110/1185/4032/20/
027710/20121123/94111/1185/393/20/
027710/20121123/94111/1185/2430/20/
027710/20121123/94111/1185/4219/20/
027710/20121123/94111/1185/100/20/
027710/20121123/94112/1185/1520/20/
027710/20121123/94112/1185/1673/20/
027710/20121123/94112/1185/300/20/
027710/20121123/94112/1185/225/20/
027710/20121123/94114/1185/5744/10/
027710/20121123/94115/1185/264/20/
027710/20121123/94115/1185/3463/20/
027710/20121123/94117/1185/2529/20/
027710/20121123/94117/1190/100/20/
027710/20121123/94118/1190/404/20/
027710/20121123/94118/1185/132/10/
027710/20121123/94118/1185/500/20/
027710/20121123/94119/1185/106/20/
027710/20121123/94119/1190/1000/20/
027710/20121123/94123/1185/2030/10/
027710/20121123/94123/1185/1132/10/
027710/20121123/94125/1185/706/10/
027710/20121123/94126/1185/100/20/
027710/20121123/94127/1185/2000/20/
027710/20121123/94127/1185/4912/20/
027710/20121123/94128/1185/1500/20/
027710/20121123/94128/1185/2957/20/
027710/20121123/94130/1185/166/10/
027710/20121123/94130/1185/300/20/
027710/20121123/94130/1185/1040/20/
027710/20121123/94131/1185/1538/20/
027710/20121123/94132/1190/110/20/
027710/20121123/94132/1190/500/20/
027710/20121123/94133/1185/9047/10/
027710/20121123/94134/1190/4467/20/
027710/20121123/94137/1190/3000/20/
027710/20121123/94137/1190/100/20/
027710/20121123/94139/1190/1500/20/
027710/20121123/94142/1190/1001/20/
027710/20121123/94142/1190/500/20/
027710/20121123/94142/1190/100/20/
027710/20121123/94143/1190/2000/20/
027710/20121123/94143/1190/1000/20/
027710/20121123/94144/1190/1000/20/
027710/20121123/94145/1190/200/20/
027710/20121123/94145/1190/1020/20/
027710/20121123/94147/1190/1000/20/
027710/20121123/94147/1190/500/20/
027710/20121123/94148/1190/6694/20/
027710/20121123/94150/1190/7028/20/
027710/20121123/94150/1190/5000/20/
027710/20121123/94151/1190/300/20/
027710/20121123/94151/1190/1000/20/
027710/20121123/94152/1190/200/20/
027710/20121123/94152/1190/1000/20/
027710/20121123/94152/1190/1000/20/
027710/20121123/94154/1190/5400/20/
027710/20121123/94154/1190/512/20/
027710/20121123/94154/1190/300/20/
027710/20121123/94154/1190/500/20/
027710/20121123/94154/1190/2000/20/
027710/20121123/94155/1190/5000/20/
027710/20121123/94155/1190/4000/20/
027710/20121123/94155/1190/4000/20/
027710/20121123/94155/1190/4000/20/
027710/20121123/94155/1190/4000/20/
027710/20121123/94155/1190/1000/20/
027710/20121123/94155/1190/1000/20/
027710/20121123/94155/1190/2000/20/
027710/20121123/94156/1190/434/20/
027710/20121123/94156/1190/5000/20/
027710/20121123/94156/1190/2891/20/
027710/20121123/94156/1195/809/20/
027710/20121123/94157/1190/3001/10/
027710/20121123/94157/1195/100/20/
027710/20121123/94158/1190/400/10/
027710/20121123/94158/1195/5000/20/
027710/20121123/94201/1195/500/20/
027710/20121123/94204/1195/200/20/
027710/20121123/94205/1190/2700/10/
027710/20121123/94206/1195/470/20/
027710/20121123/94213/1195/5000/20/
027710/20121123/94214/1195/500/20/
027710/20121123/94216/1195/5000/20/
027710/20121123/94217/1195/96/20/
027710/20121123/94219/1195/5000/20/
027710/20121123/94220/1195/100/20/
027710/20121123/94220/1190/15872/10/
027710/20121123/94221/1195/711/20/
027710/20121123/94221/1195/400/20/
027710/20121123/94222/1190/4253/10/
027710/20121123/94223/1190/1000/10/
027710/20121123/94225/1190/500/10/
027710/20121123/94227/1190/1050/10/
027710/20121123/94227/1190/1000/10/
027710/20121123/94227/1190/700/10/
027710/20121123/94227/1190/400/10/
027710/20121123/94227/1190/1705/10/
027710/20121123/94227/1190/10000/10/
027710/20121123/94228/1190/1144/10/
027710/20121123/94231/1190/86/20/
027710/20121123/94233/1190/83/20/
027710/20121123/94236/1190/1021/20/
027710/20121123/94236/1190/500/20/
027710/20121123/94239/1190/101/20/
027710/20121123/94242/1190/1016/20/
027710/20121123/94248/1190/512/20/
027710/20121123/94250/1185/3000/10/
027710/20121123/94250/1190/195/20/
027710/20121123/94257/1190/156/20/
027710/20121123/94258/1190/500/20/
027710/20121123/94258/1190/100/20/
027710/20121123/94259/1190/840/20/
027710/20121123/94300/1190/1952/20/
027710/20121123/94301/1190/1000/20/
027710/20121123/94302/1190/12626/20/
027710/20121123/94302/1190/11000/20/
027710/20121123/94303/1190/1000/20/
027710/20121123/94303/1190/1344/20/
027710/20121123/94303/1190/6756/10/
027710/20121123/94304/1190/1000/20/
027710/20121123/94304/1190/162/20/
027710/20121123/94305/1190/114/20/
027710/20121123/94306/1190/177/20/
027710/20121123/94308/1190/2063/20/
027710/20121123/94308/1190/115/20/
027710/20121123/94309/1190/86/20/
027710/20121123/94311/1190/84/20/
027710/20121123/94312/1190/129/20/
027710/20121123/94316/1190/2038/10/
027710/20121123/94316/1195/100/20/
027710/20121123/94319/1190/500/10/
027710/20121123/94322/1190/2762/10/
027710/20121123/94322/1190/2020/20/
027710/20121123/94326/1190/152/20/
027710/20121123/94328/1195/458/20/
027710/20121123/94328/1190/1759/10/
027710/20121123/94329/1190/90/20/
027710/20121123/94329/1190/151/20/
027710/20121123/94332/1195/102/20/
027710/20121123/94332/1195/1000/20/
027710/20121123/94335/1195/89/20/
027710/20121123/94338/1195/97/20/
027710/20121123/94340/1195/109/20/
027710/20121123/94344/1195/102/20/
027710/20121123/94347/1190/502/10/
027710/20121123/94348/1195/86/20/
027710/20121123/94351/1195/94/20/
027710/20121123/94353/1195/100/20/
027710/20121123/94358/1195/96/20/
027710/20121123/94358/1190/15281/10/
027710/20121123/94401/1190/135/20/
027710/20121123/94404/1190/84/20/
027710/20121123/94405/1190/525/20/
027710/20121123/94406/1190/15615/10/
027710/20121123/94408/1190/383/10/
027710/20121123/94408/1190/1032/20/
027710/20121123/94410/1190/1910/20/
027710/20121123/94411/1190/1006/20/
027710/20121123/94411/1190/500/20/
027710/20121123/94412/1190/506/20/
027710/20121123/94417/1185/722/10/
027710/20121123/94423/1190/1524/20/
027710/20121123/94426/1190/5066/20/
027710/20121123/94427/1190/7815/20/
027710/20121123/94427/1190/1502/20/
027710/20121123/94429/1190/90/20/
027710/20121123/94429/1190/1430/20/
027710/20121123/94429/1190/14354/20/
027710/20121123/94429/1190/676/20/
027710/20121123/94431/1190/160/10/
027710/20121123/94435/1195/85/20/
027710/20121123/94440/1190/1010/10/
027710/20121123/94442/1190/4186/10/
027710/20121123/94443/1195/800/20/
027710/20121123/94444/1190/1000/10/
027710/20121123/94445/1190/4492/10/
027710/20121123/94445/1190/300/20/
027710/20121123/94445/1195/149/20/
027710/20121123/94446/1195/1866/20/
027710/20121123/94448/1190/402/10/
027710/20121123/94453/1190/1030/10/
027710/20121123/94453/1190/14477/10/
027710/20121123/94453/1185/538/10/
027710/20121123/94454/1185/1433/10/
027710/20121123/94501/1195/82/20/
027710/20121123/94501/1195/103/20/
027710/20121123/94502/1190/3682/10/
027710/20121123/94505/1190/1286/10/
027710/20121123/94508/1190/1534/10/
027710/20121123/94511/1190/3852/10/
027710/20121123/94512/1190/474/20/
027710/20121123/94514/1190/701/20/
027710/20121123/94516/1190/257/10/
027710/20121123/94519/1190/1265/10/
027710/20121123/94521/1190/1013/20/
027710/20121123/94523/1190/1016/10/
027710/20121123/94528/1190/8259/10/
027710/20121123/94531/1190/2043/20/
027710/20121123/94532/1190/812/20/
027710/20121123/94536/1190/171/10/
027710/20121123/94539/1190/530/20/
027710/20121123/94540/1190/106/20/
027710/20121123/94540/1190/593/20/
027710/20121123/94543/1190/550/20/
027710/20121123/94546/1190/118/20/
027710/20121123/94553/1190/81/20/
027710/20121123/94554/1190/105/20/
027710/20121123/94555/1190/504/20/
027710/20121123/94555/1190/602/20/
027710/20121123/94558/1190/302/20/
027710/20121123/94601/1190/113/20/
027710/20121123/94602/1185/22016/10/
027710/20121123/94603/1185/10010/10/
027710/20121123/94604/1185/1001/10/
027710/20121123/94605/1185/4185/10/
027710/20121123/94605/1185/11000/10/
027710/20121123/94606/1185/1238/10/
027710/20121123/94606/1190/214/20/
027710/20121123/94607/1185/4326/10/
027710/20121123/94609/1185/6001/10/
027710/20121123/94609/1185/754/10/
027710/20121123/94610/1190/3800/20/
027710/20121123/94611/1185/2525/10/
027710/20121123/94612/1185/200/10/
027710/20121123/94613/1185/458/10/
027710/20121123/94613/1185/4000/10/
027710/20121123/94614/1185/4501/10/
027710/20121123/94614/1185/33943/10/
027710/20121123/94615/1185/960/10/
027710/20121123/94615/1180/5000/10/
027710/20121123/94615/1180/3500/10/
027710/20121123/94615/1180/167/10/
027710/20121123/94627/1185/1275/20/
027710/20121123/94630/1185/401/20/
027710/20121123/94638/1180/7032/10/
027710/20121123/94638/1185/1731/20/
027710/20121123/94641/1185/201/20/
027710/20121123/94642/1185/791/20/
027710/20121123/94645/1185/5000/20/
027710/20121123/94646/1185/500/20/
027710/20121123/94648/1185/1000/20/
027710/20121123/94650/1185/200/20/
027710/20121123/94651/1185/5005/20/
027710/20121123/94653/1185/1055/20/
027710/20121123/94654/1185/385/20/
027710/20121123/94654/1180/1498/10/
027710/20121123/94655/1185/500/20/
027710/20121123/94659/1185/1052/20/
027710/20121123/94659/1185/100/20/
027710/20121123/94709/1185/1996/20/
027710/20121123/94710/1185/200/20/
027710/20121123/94713/1185/100/20/
027710/20121123/94714/1185/500/20/
027710/20121123/94715/1185/1771/20/
027710/20121123/94716/1185/200/20/
027710/20121123/94718/1185/500/20/
027710/20121123/94719/1185/1000/20/
027710/20121123/94726/1185/3076/20/
027710/20121123/94727/1185/100/20/
027710/20121123/94727/1185/1000/20/
027710/20121123/94728/1185/200/20/
027710/20121123/94730/1185/508/20/
027710/20121123/94732/1185/200/20/
027710/20121123/94733/1185/200/20/
027710/20121123/94734/1185/200/20/
027710/20121123/94734/1185/2109/20/
027710/20121123/94738/1185/952/20/
027710/20121123/94739/1185/200/20/
027710/20121123/94740/1185/2474/20/
027710/20121123/94741/1185/1255/20/
027710/20121123/94752/1190/101/20/
027710/20121123/94802/1185/5001/10/
027710/20121123/94804/1190/189/20/
027710/20121123/94807/1185/591/10/
027710/20121123/94815/1185/764/20/
027710/20121123/94821/1185/5031/20/
027710/20121123/94824/1185/1007/20/
027710/20121123/94833/1185/301/20/
027710/20121123/94838/1180/508/10/
027710/20121123/94903/1185/4501/20/
027710/20121123/94916/1180/2506/10/
027710/20121123/95022/1185/1040/20/
027710/20121123/95025/1185/1006/20/
027710/20121123/95041/1185/2509/20/
027710/20121123/95043/1185/2200/20/
027710/20121123/95044/1185/5770/20/
027710/20121123/95045/1185/1006/20/
027710/20121123/95050/1185/5001/20/
027710/20121123/95051/1185/3568/20/
027710/20121123/95055/1185/1190/20/
027710/20121123/95100/1185/4729/10/
027710/20121123/95111/1185/500/20/
027710/20121123/95115/1185/5000/20/
027710/20121123/95117/1185/300/20/
027710/20121123/95117/1185/100/20/
027710/20121123/95117/1185/1000/20/
027710/20121123/95118/1185/1000/20/
027710/20121123/95124/1185/881/20/
027710/20121123/95128/1185/1300/10/
027710/20121123/95128/1185/2824/10/
027710/20121123/95128/1190/300/20/
027710/20121123/95145/1185/100/10/
027710/20121123/95201/1185/1002/10/
027710/20121123/95206/1185/1672/10/
027710/20121123/95213/1185/3328/20/
027710/20121123/95213/1190/1672/20/
027710/20121123/95235/1185/1415/10/
027710/20121123/95236/1185/2000/20/
027710/20121123/95245/1185/4566/20/
027710/20121123/95251/1185/112/20/
027710/20121123/95309/1185/2003/10/
027710/20121123/95314/1185/3997/10/
027710/20121123/95322/1185/100/20/
027710/20121123/95325/1185/903/20/
027710/20121123/95327/1185/97/10/
027710/20121123/95327/1180/820/10/
027710/20121123/95349/1185/6000/20/
027710/20121123/95350/1185/2100/10/
027710/20121123/95409/1185/101/10/
027710/20121123/95412/1185/1001/10/
027710/20121123/95451/1185/3006/10/
027710/20121123/95454/1185/1456/10/
027710/20121123/95456/1185/244/20/
027710/20121123/95456/1190/596/20/
027710/20121123/95501/1185/392/10/
027710/20121123/95507/1185/301/10/
027710/20121123/95545/1190/1708/20/
027710/20121123/95625/1190/1700/20/
027710/20121123/95631/1190/1050/20/
027710/20121123/95645/1185/7525/10/
027710/20121123/95702/1185/2500/20/
027710/20121123/95703/1185/1500/20/
027710/20121123/95706/1185/1000/20/
027710/20121123/95706/1185/580/20/
027710/20121123/95708/1185/100/20/
027710/20121123/95742/1185/118/20/
027710/20121123/95749/1185/500/20/
027710/20121123/95753/1185/4939/10/
027710/20121123/95755/1190/9600/20/
027710/20121123/95820/1185/400/10/
027710/20121123/95830/1185/101/10/
027710/20121123/95841/1190/34020/20/
027710/20121123/95905/1190/3473/10/
027710/20121123/95906/1190/1000/10/
027710/20121123/95907/1190/1509/10/
027710/20121123/95933/1195/575/20/
027710/20121123/95951/1195/95/20/
027710/20121123/100013/1190/597/10/
027710/20121123/100015/1190/180/10/
027710/20121123/100017/1190/670/10/
027710/20121123/100019/1190/3442/20/
027710/20121123/100031/1190/8040/10/
027710/20121123/100034/1190/1453/10/
027710/20121123/100037/1190/482/20/
027710/20121123/100153/1185/137/10/
027710/20121123/100155/1190/1000/20/
027710/20121123/100158/1190/94/20/
027710/20121123/100201/1190/5000/20/
027710/20121123/100204/1190/10000/20/
027710/20121123/100205/1190/250/20/
027710/20121123/100206/1190/5000/20/
027710/20121123/100206/1190/9882/20/
027710/20121123/100234/1195/116/20/
027710/20121123/100239/1190/900/10/
027710/20121123/100241/1195/300/20/
027710/20121123/100307/1190/1501/10/
027710/20121123/100311/1190/500/10/
027710/20121123/100313/1190/5000/10/
027710/20121123/100317/1190/329/10/
027710/20121123/100328/1190/1516/20/
027710/20121123/100330/1190/401/10/
027710/20121123/100339/1190/151/10/
027710/20121123/100352/1195/104/20/
027710/20121123/100359/1195/110/20/
027710/20121123/100412/1190/510/10/
027710/20121123/100423/1190/10791/10/
027710/20121123/100425/1190/3000/10/
027710/20121123/100436/1190/9595/10/
027710/20121123/100440/1190/1000/10/
027710/20121123/100447/1190/1000/10/
027710/20121123/100449/1190/4001/10/
027710/20121123/100451/1190/1899/10/
027710/20121123/100512/1190/533/20/
027710/20121123/100554/1190/10001/20/
027710/20121123/100557/1190/6679/20/
027710/20121123/100605/1190/124/10/
027710/20121123/100614/1190/838/10/
027710/20121123/100639/1190/103/20/
027710/20121123/100746/1190/289/20/
027710/20121123/100818/1185/202/10/
027710/20121123/100823/1185/2500/10/
027710/20121123/100828/1185/500/10/
027710/20121123/100901/1185/101/10/
027710/20121123/100932/1185/11411/10/
027710/20121123/101012/1185/203/10/
027710/20121123/101051/1190/374/20/
027710/20121123/101119/1185/3010/10/
027710/20121123/101122/1185/2000/10/
027710/20121123/101138/1185/101/10/
027710/20121123/101146/1190/400/20/
027710/20121123/101244/1185/200/10/
027710/20121123/101250/1185/87/10/
027710/20121123/101341/1190/1125/20/
027710/20121123/101458/1190/4745/20/
027710/20121123/101506/1190/5000/20/
027710/20121123/101507/1190/2000/20/
027710/20121123/101508/1190/330/20/
027710/20121123/101511/1190/842/20/
027710/20121123/101518/1190/350/20/
027710/20121123/101521/1190/11000/20/
027710/20121123/101522/1190/1000/20/
027710/20121123/101522/1190/250/20/
027710/20121123/101524/1190/3532/20/
027710/20121123/101558/1195/153/20/
027710/20121123/101604/1195/510/20/
027710/20121123/101617/1190/160/10/
027710/20121123/101623/1195/96/20/
027710/20121123/101627/1195/972/20/
027710/20121123/101631/1195/413/20/
027710/20121123/101638/1195/10688/20/
027710/20121123/101704/1195/1050/20/
027710/20121123/101705/1195/332/20/
027710/20121123/101708/1195/1614/20/
027710/20121123/101709/1195/700/20/
027710/20121123/101714/1195/286/20/
027710/20121123/101717/1195/147/20/
027710/20121123/101721/1195/2000/20/
027710/20121123/101737/1195/1020/20/
027710/20121123/101738/1195/1000/20/
027710/20121123/101739/1195/14321/20/
027710/20121123/101740/1195/267/20/
027710/20121123/101740/1195/27902/20/
027710/20121123/101740/1195/4433/20/
027710/20121123/101740/1195/6663/20/
027710/20121123/101755/1200/3065/20/
027710/20121123/101756/1195/10000/10/
027710/20121123/101758/1200/6751/20/
027710/20121123/101758/1200/379/20/
027710/20121123/101800/1200/859/20/
027710/20121123/101801/1200/3485/20/
027710/20121123/101803/1200/217/20/
027710/20121123/101804/1200/5312/20/
027710/20121123/101804/1200/5003/20/
027710/20121123/101805/1200/3014/20/
027710/20121123/101805/1200/1800/20/
027710/20121123/101805/1200/251/20/
027710/20121123/101805/1200/1002/20/
027710/20121123/101807/1200/2117/20/
027710/20121123/101807/1200/2008/20/
027710/20121123/101808/1200/363/20/
027710/20121123/101809/1200/10009/20/
027710/20121123/101809/1200/107/20/
027710/20121123/101810/1200/5417/20/
027710/20121123/101811/1200/5018/20/
027710/20121123/101811/1200/1001/20/
027710/20121123/101811/1200/5003/20/
027710/20121123/101812/1200/2025/20/
027710/20121123/101812/1200/2008/20/
027710/20121123/101812/1200/102/20/
027710/20121123/101812/1200/838/20/
027710/20121123/101813/1200/1601/20/
027710/20121123/101813/1200/807/20/
027710/20121123/101813/1200/3002/20/
027710/20121123/101814/1200/160/20/
027710/20121123/101816/1200/129/20/
027710/20121123/101816/1200/1000/20/
027710/20121123/101817/1200/263/20/
027710/20121123/101818/1200/271/20/
027710/20121123/101819/1200/1011/20/
027710/20121123/101819/1200/1000/20/
027710/20121123/101820/1200/1038/20/
027710/20121123/101821/1200/1020/20/
027710/20121123/101822/1200/3186/20/
027710/20121123/101824/1205/1133/20/
027710/20121123/101827/1205/4588/20/
027710/20121123/101828/1205/10309/20/
027710/20121123/101829/1205/138/20/
027710/20121123/101829/1205/1006/20/
027710/20121123/101830/1205/636/20/
027710/20121123/101832/1205/2071/20/
027710/20121123/101832/1200/622/10/
027710/20121123/101834/1205/98/20/
027710/20121123/101836/1205/288/20/
027710/20121123/101837/1205/2033/20/
027710/20121123/101837/1205/2695/20/
027710/20121123/101838/1200/332/10/
027710/20121123/101838/1205/164/20/
027710/20121123/101843/1200/81/10/
027710/20121123/101846/1205/377/20/
027710/20121123/101848/1205/530/20/
027710/20121123/101851/1205/172/20/
027710/20121123/101852/1205/1013/20/
027710/20121123/101855/1205/83/20/
027710/20121123/101856/1205/514/20/
027710/20121123/101856/1205/129/20/
027710/20121123/101859/1200/3541/10/
027710/20121123/101901/1205/1053/20/
027710/20121123/101902/1200/5315/10/
027710/20121123/101903/1205/102/20/
027710/20121123/101903/1205/81/20/
027710/20121123/101905/1205/529/20/
027710/20121123/101906/1205/1168/20/
027710/20121123/101909/1205/6352/20/
027710/20121123/101910/1205/741/20/
027710/20121123/101913/1205/81/20/
027710/20121123/101915/1205/242/20/
027710/20121123/101920/1205/165/20/
027710/20121123/101924/1205/370/20/
027710/20121123/101925/1200/555/10/
027710/20121123/101925/1200/432/10/
027710/20121123/101926/1205/507/20/
027710/20121123/101926/1200/27576/10/
027710/20121123/101936/1200/236/20/
027710/20121123/101936/1200/1000/20/
027710/20121123/101937/1200/203/20/
027710/20121123/101938/1195/300/10/
027710/20121123/101941/1200/1001/20/
027710/20121123/101942/1200/501/20/
027710/20121123/101943/1200/200/20/
027710/20121123/101943/1200/14636/20/
027710/20121123/101944/1200/2038/20/
027710/20121123/101945/1200/362/20/
027710/20121123/101946/1200/5000/20/
027710/20121123/101946/1200/101/20/
027710/20121123/101946/1200/692/20/
027710/20121123/101949/1200/3341/20/
027710/20121123/101950/1200/6048/20/
027710/20121123/101953/1200/1725/10/
027710/20121123/101954/1200/2000/10/
027710/20121123/101955/1200/1002/20/
027710/20121123/101957/1200/2001/20/
027710/20121123/101959/1200/100/20/
027710/20121123/101959/1200/300/20/
027710/20121123/102001/1200/459/20/
027710/20121123/102002/1200/3000/20/
027710/20121123/102002/1200/8900/20/
027710/20121123/102004/1200/202/20/
027710/20121123/102007/1200/81/20/
027710/20121123/102018/1200/969/10/
027710/20121123/102022/1200/1363/20/
027710/20121123/102023/1200/100/10/
027710/20121123/102025/1205/503/20/
027710/20121123/102031/1200/4219/10/
027710/20121123/102036/1200/4057/10/
027710/20121123/102036/1205/2530/20/
027710/20121123/102045/1205/1868/20/
027710/20121123/102045/1200/323/10/
027710/20121123/102047/1200/1177/20/
027710/20121123/102051/1200/501/10/
027710/20121123/102053/1200/1643/10/
027710/20121123/102058/1195/1001/10/
027710/20121123/102059/1195/1779/10/
027710/20121123/102059/1195/2000/10/
027710/20121123/102104/1200/102/20/
027710/20121123/102115/1200/127/20/
027710/20121123/102129/1200/5641/20/
027710/20121123/102139/1200/480/20/
027710/20121123/102151/1200/16750/20/
027710/20121123/102152/1200/1678/20/
027710/20121123/102155/1200/10000/20/
027710/20121123/102157/1200/432/20/
027710/20121123/102200/1200/10000/20/
027710/20121123/102203/1200/1054/20/
027710/20121123/102203/1205/501/20/
027710/20121123/102209/1205/408/20/
027710/20121123/102221/1205/90/20/
027710/20121123/102229/1200/100/10/
027710/20121123/102241/1200/3004/10/
027710/20121123/102244/1200/320/10/
027710/20121123/102250/1200/1074/10/
027710/20121123/102251/1200/232/10/
027710/20121123/102256/1205/100/20/
027710/20121123/102304/1200/550/10/
027710/20121123/102312/1200/2048/10/
027710/20121123/102338/1200/3205/10/
027710/20121123/102341/1200/3000/10/
027710/20121123/102342/1200/3742/10/
027710/20121123/102342/1200/4967/10/
027710/20121123/102343/1195/209/10/
027710/20121123/102344/1200/6033/20/
027710/20121123/102349/1205/841/20/
027710/20121123/102353/1200/86/10/
027710/20121123/102356/1205/3101/20/
027710/20121123/102357/1205/600/20/
027710/20121123/102417/1205/211/20/
027710/20121123/102439/1200/266/10/
027710/20121123/102446/1200/102/10/
027710/20121123/102507/1200/98/10/
027710/20121123/102524/1200/407/10/
027710/20121123/102525/1200/500/10/
027710/20121123/102526/1205/501/20/
027710/20121123/102546/1200/1723/10/
027710/20121123/102548/1200/1014/10/
027710/20121123/102552/1200/139/10/
027710/20121123/102558/1200/2000/10/
027710/20121123/102600/1200/1000/10/
027710/20121123/102601/1200/201/10/
027710/20121123/102610/1200/101/10/
027710/20121123/102613/1200/1125/10/
027710/20121123/102614/1200/1001/10/
027710/20121123/102615/1200/3000/10/
027710/20121123/102622/1200/16964/10/
027710/20121123/102623/1200/5010/10/
027710/20121123/102623/1200/4974/10/
027710/20121123/102623/1195/5026/10/
027710/20121123/102627/1200/2801/20/
027710/20121123/102635/1200/301/20/
027710/20121123/102637/1195/400/10/
027710/20121123/102644/1200/1487/20/
027710/20121123/102652/1200/7619/20/
027710/20121123/102652/1205/2383/20/
027710/20121123/102700/1200/2001/20/
027710/20121123/102700/1200/276/10/
027710/20121123/102705/1200/168/20/
027710/20121123/102709/1205/82/20/
027710/20121123/102717/1205/81/20/
027710/20121123/102721/1200/90/10/
027710/20121123/102724/1205/82/20/
027710/20121123/102730/1205/81/20/
027710/20121123/102738/1205/81/20/
027710/20121123/102740/1205/81/20/
027710/20121123/102747/1200/81/10/
027710/20121123/102755/1200/690/10/
027710/20121123/102803/1200/98/10/
027710/20121123/102804/1205/2009/20/
027710/20121123/102807/1205/135/20/
027710/20121123/102813/1205/81/20/
027710/20121123/102815/1205/515/20/
027710/20121123/102817/1205/115/20/
027710/20121123/102820/1205/238/20/
027710/20121123/102827/1205/81/20/
027710/20121123/102829/1205/2027/20/
027710/20121123/102834/1205/2288/20/
027710/20121123/102836/1205/2017/20/
027710/20121123/102837/1205/34903/20/
027710/20121123/102837/1205/10002/20/
027710/20121123/102837/1205/15913/20/
027710/20121123/102837/1205/2004/20/
027710/20121123/102838/1205/5233/20/
027710/20121123/102838/1205/2238/20/
027710/20121123/102838/1205/4400/20/
027710/20121123/102838/1205/5000/20/
027710/20121123/102838/1205/2004/20/
027710/20121123/102838/1205/2000/20/
027710/20121123/102838/1205/2528/20/
027710/20121123/102842/1205/8461/20/
027710/20121123/102842/1205/1403/20/
027710/20121123/102843/1205/825/20/
027710/20121123/102843/1205/1658/20/
027710/20121123/102844/1205/505/20/
027710/20121123/102844/1205/3002/20/
027710/20121123/102844/1205/1003/20/
027710/20121123/102845/1205/1333/20/
027710/20121123/102845/1205/6467/20/
027710/20121123/102845/1205/1005/20/
027710/20121123/102845/1205/7000/20/
027710/20121123/102846/1205/12582/20/
027710/20121123/102850/1210/81/20/
027710/20121123/102853/1210/537/20/
027710/20121123/102900/1210/81/20/
027710/20121123/102901/1210/510/20/
027710/20121123/102909/1210/143/20/
027710/20121123/102909/1210/511/20/
027710/20121123/102911/1210/2449/20/
027710/20121123/102911/1210/1004/20/
027710/20121123/102912/1210/2007/20/
027710/20121123/102912/1210/3003/20/
027710/20121123/102913/1210/1611/20/
027710/20121123/102914/1210/117/20/
027710/20121123/102915/1210/1021/20/
027710/20121123/102916/1210/303/20/
027710/20121123/102916/1210/500/20/
027710/20121123/102919/1210/82/20/
027710/20121123/102920/1210/314/20/
027710/20121123/102920/1210/111/20/
027710/20121123/102923/1210/2026/20/
027710/20121123/102923/1210/20004/20/
027710/20121123/102924/1210/1810/20/
027710/20121123/102924/1210/90/20/
027710/20121123/102924/1210/500/20/
027710/20121123/102925/1210/1743/20/
027710/20121123/102926/1205/414/10/
027710/20121123/102927/1210/2318/20/
027710/20121123/102927/1210/1003/20/
027710/20121123/102929/1210/216/20/
027710/20121123/102929/1210/100/20/
027710/20121123/102929/1210/115/20/
027710/20121123/102931/1210/1229/20/
027710/20121123/102933/1210/145/20/
027710/20121123/102936/1205/582/10/
027710/20121123/102936/1210/100/20/
027710/20121123/102937/1210/103/20/
027710/20121123/102937/1210/411/20/
027710/20121123/102940/1210/3315/20/
027710/20121123/102943/1210/2771/20/
027710/20121123/102944/1210/2016/20/
027710/20121123/102945/1210/386/20/
027710/20121123/102945/1210/203/20/
027710/20121123/102945/1210/1003/20/
027710/20121123/102948/1210/123/20/
027710/20121123/102948/1210/4500/20/
027710/20121123/102950/1210/619/20/
027710/20121123/102951/1210/1073/20/
027710/20121123/102953/1210/1020/20/
027710/20121123/102955/1210/1021/20/
027710/20121123/103000/1210/82/20/
027710/20121123/103005/1210/1266/20/
027710/20121123/103012/1210/1066/20/
027710/20121123/103013/1210/1007/20/
027710/20121123/103014/1205/375/10/
027710/20121123/103017/1210/158/20/
027710/20121123/103018/1210/349/20/
027710/20121123/103021/1210/133/20/
027710/20121123/103021/1210/104/20/
027710/20121123/103022/1210/202/20/
027710/20121123/103026/1205/2093/10/
027710/20121123/103030/1210/539/20/
027710/20121123/103031/1210/103/20/
027710/20121123/103036/1210/538/20/
027710/20121123/103044/1210/2070/20/
027710/20121123/103049/1210/133/20/
027710/20121123/103054/1205/175/10/
027710/20121123/103108/1205/2762/10/
027710/20121123/103109/1205/5233/10/
027710/20121123/103109/1205/9692/10/
027710/20121123/103109/1205/3790/10/
027710/20121123/103109/1205/2500/10/
027710/20121123/103110/1205/4457/10/
027710/20121123/103110/1205/5000/10/
027710/20121123/103110/1205/500/10/
027710/20121123/103110/1205/5000/10/
027710/20121123/103110/1205/300/10/
027710/20121123/103110/1205/2010/10/
027710/20121123/103110/1205/8128/10/
027710/20121123/103110/1200/1000/10/
027710/20121123/103116/1205/1021/20/
027710/20121123/103117/1205/2959/20/
027710/20121123/103130/1205/302/20/
027710/20121123/103134/1205/100/20/
027710/20121123/103143/1205/1001/20/
027710/20121123/103146/1200/2184/10/
027710/20121123/103152/1200/346/10/
027710/20121123/103153/1200/3001/10/
027710/20121123/103155/1200/89/10/
027710/20121123/103156/1200/100/10/
027710/20121123/103156/1200/2500/10/
027710/20121123/103157/1200/333/10/
027710/20121123/103157/1200/5587/10/
027710/20121123/103157/1200/1000/20/
027710/20121123/103158/1200/100/20/
027710/20121123/103201/1200/2353/20/
027710/20121123/103207/1200/101/10/
027710/20121123/103207/1205/9364/20/
027710/20121123/103214/1205/751/20/
027710/20121123/103215/1200/1220/10/
027710/20121123/103227/1205/101/20/
027710/20121123/103228/1205/2000/20/
027710/20121123/103236/1200/9364/10/
027710/20121123/103246/1205/20652/20/
027710/20121123/103250/1210/750/20/
027710/20121123/103250/1200/10307/10/
027710/20121123/103312/1205/291/20/
027710/20121123/103312/1205/1869/20/
027710/20121123/103312/1210/9206/20/
027710/20121123/103313/1210/100/20/
027710/20121123/103319/1210/1904/20/
027710/20121123/103332/1205/500/10/
027710/20121123/103334/1205/101/10/
027710/20121123/103335/1205/2183/10/
027710/20121123/103341/1205/101/10/
027710/20121123/103345/1205/248/10/
027710/20121123/103411/1205/1736/20/
027710/20121123/103416/1205/1852/10/
027710/20121123/103432/1210/4240/20/
027710/20121123/103436/1205/502/10/
027710/20121123/103446/1205/503/10/
027710/20121123/103453/1210/101/20/
027710/20121123/103504/1210/2232/20/
027710/20121123/103516/1210/100/20/
027710/20121123/103517/1210/203/20/
027710/20121123/103524/1210/126/20/
027710/20121123/103534/1210/751/20/
027710/20121123/103557/1210/139/20/
027710/20121123/103630/1210/150/20/
027710/20121123/103644/1210/83/20/
027710/20121123/103648/1210/346/20/
027710/20121123/103649/1205/100/10/
027710/20121123/103653/1205/475/10/
027710/20121123/103705/1205/110/10/
027710/20121123/103705/1205/150/10/
027710/20121123/103707/1205/7788/10/
027710/20121123/103708/1210/82/20/
027710/20121123/103714/1205/3000/10/
027710/20121123/103718/1205/510/10/
027710/20121123/103721/1205/400/10/
027710/20121123/103722/1205/100/10/
027710/20121123/103722/1205/3700/10/
027710/20121123/103724/1205/2646/10/
027710/20121123/103814/1205/81/20/
027710/20121123/103843/1200/5050/10/
027710/20121123/103905/1205/501/20/
027710/20121123/103913/1205/29750/20/
027710/20121123/103917/1205/1502/20/
027710/20121123/103918/1205/1000/20/
027710/20121123/103925/1205/1534/20/
027710/20121123/103934/1210/2002/20/
027710/20121123/103934/1205/2015/20/
027710/20121123/103934/1205/2000/20/
027710/20121123/103937/1205/1000/20/
027710/20121123/103938/1205/85/20/
027710/20121123/103938/1210/2813/20/
027710/20121123/103948/1210/273/20/
027710/20121123/103959/1210/1248/20/
027710/20121123/104014/1205/828/10/
027710/20121123/104022/1205/373/10/
027710/20121123/104045/1205/91/10/
027710/20121123/104056/1205/1157/10/
027710/20121123/104101/1205/1582/10/
027710/20121123/104111/1205/3752/10/
027710/20121123/104119/1205/1010/10/
027710/20121123/104142/1205/1682/10/
027710/20121123/104148/1205/200/10/
027710/20121123/104150/1205/1707/10/
027710/20121123/104204/1200/2101/10/
027710/20121123/104307/1200/1557/10/
027710/20121123/104313/1200/255/10/
027710/20121123/104320/1205/1000/20/
027710/20121123/104321/1200/2000/10/
027710/20121123/104323/1200/500/10/
027710/20121123/104328/1200/10547/10/
027710/20121123/104329/1200/110/10/
027710/20121123/104329/1200/1723/10/
027710/20121123/104331/1200/500/10/
027710/20121123/104331/1200/3001/10/
027710/20121123/104332/1200/446/10/
027710/20121123/104339/1200/1134/20/
027710/20121123/104340/1200/153/10/
027710/20121123/104346/1200/1864/20/
027710/20121123/104346/1205/1137/20/
027710/20121123/104402/1200/1070/10/
027710/20121123/104412/1200/839/10/
027710/20121123/104423/1195/404/10/
027710/20121123/104424/1195/700/10/
027710/20121123/104432/1195/468/10/
027710/20121123/104437/1195/2000/10/
027710/20121123/104453/1195/850/10/
027710/20121123/104457/1195/3000/10/
027710/20121123/104458/1195/3245/10/
027710/20121123/104510/1195/1109/10/
027710/20121123/104522/1195/175/10/
027710/20121123/104545/1195/2139/10/
027710/20121123/104552/1195/1436/10/
027710/20121123/104552/1195/2243/10/
027710/20121123/104552/1195/3000/10/
027710/20121123/104557/1195/235/10/
027710/20121123/104557/1195/132/10/
027710/20121123/104606/1195/10000/10/
027710/20121123/104606/1195/5000/10/
027710/20121123/104606/1195/3500/10/
027710/20121123/104607/1195/513/10/
027710/20121123/104608/1195/2001/10/
027710/20121123/104627/1190/1021/10/
027710/20121123/104741/1195/675/20/
027710/20121123/104743/1195/2994/20/
027710/20121123/104745/1195/351/20/
027710/20121123/105238/1200/106/20/
027710/20121123/105322/1200/180/20/
027710/20121123/105417/1195/5030/10/
027710/20121123/105420/1195/510/10/
027710/20121123/105440/1195/390/10/
027710/20121123/105448/1195/1010/10/
027710/20121123/105450/1195/130/10/
027710/20121123/105452/1195/1200/10/
027710/20121123/105454/1195/642/10/
027710/20121123/105513/1190/516/10/
027710/20121123/105513/1190/300/10/
027710/20121123/105541/1195/2004/20/
027710/20121123/105546/1190/10000/10/
027710/20121123/105547/1195/100/20/
027710/20121123/105551/1195/100/20/
027710/20121123/105559/1195/1000/20/
027710/20121123/105631/1195/436/20/
027710/20121123/105638/1195/2508/20/
027710/20121123/105641/1195/300/20/
027710/20121123/105650/1195/300/20/
027710/20121123/105707/1195/2704/20/
027710/20121123/105717/1195/320/10/
027710/20121123/105755/1200/156/20/
027710/20121123/105800/1200/603/20/
027710/20121123/105911/1195/665/10/
027710/20121123/105916/1195/438/10/
027710/20121123/110007/1200/526/20/
027710/20121123/110038/1200/100/20/
027710/20121123/110045/1200/506/20/
027710/20121123/110053/1200/100/20/
027710/20121123/110053/1200/4000/20/
027710/20121123/110056/1200/874/20/
027710/20121123/110056/1200/100/20/
027710/20121123/110059/1200/100/20/
027710/20121123/110103/1200/100/20/
027710/20121123/110201/1200/2038/20/
027710/20121123/110349/1200/3194/20/
027710/20121123/110351/1200/440/20/
027710/20121123/110443/1200/110/20/
027710/20121123/110536/1200/201/20/
027710/20121123/110536/1200/1000/20/
027710/20121123/110559/1200/1001/20/
027710/20121123/110624/1200/500/20/
027710/20121123/110652/1200/1000/20/
027710/20121123/110719/1195/1210/10/
027710/20121123/110746/1195/5000/10/
027710/20121123/110749/1195/36020/10/
027710/20121123/110758/1195/2510/10/
027710/20121123/110803/1195/3326/10/
027710/20121123/110833/1190/1602/10/
027710/20121123/110850/1195/2500/20/
027710/20121123/110900/1195/200/20/
027710/20121123/110903/1195/100/20/
027710/20121123/110909/1195/200/20/
027710/20121123/110923/1195/106/20/
027710/20121123/110947/1195/200/20/
027710/20121123/110947/1195/105/20/
027710/20121123/111056/1190/88/10/
027710/20121123/111131/1195/501/20/
027710/20121123/111148/1195/200/20/
027710/20121123/111200/1195/100/20/
027710/20121123/111252/1190/50001/10/
027710/20121123/111259/1190/819/10/
027710/20121123/111312/1190/200/20/
027710/20121123/111317/1190/100/20/
027710/20121123/111338/1190/769/20/
027710/20121123/111350/1190/2013/20/
027710/20121123/111354/1190/982/20/
027710/20121123/111358/1190/200/20/
027710/20121123/111404/1190/100/20/
027710/20121123/111406/1190/734/20/
027710/20121123/111408/1190/778/20/
027710/20121123/111416/1190/1222/10/
027710/20121123/111420/1190/1500/20/
027710/20121123/111421/1185/413/10/
027710/20121123/111422/1185/400/10/
027710/20121123/111505/1185/2050/10/
027710/20121123/111510/1185/2000/10/
027710/20121123/111517/1185/190/10/
027710/20121123/111558/1185/3622/10/
027710/20121123/111648/1185/130/10/
027710/20121123/111651/1185/3200/10/
027710/20121123/111703/1185/997/10/
027710/20121123/111705/1185/1943/10/
027710/20121123/111722/1185/13031/10/
027710/20121123/111732/1185/1780/10/
027710/20121123/111734/1185/1000/10/
027710/20121123/111737/1185/5000/10/
027710/20121123/111740/1185/5000/10/
027710/20121123/111740/1185/1500/10/
027710/20121123/111749/1185/2105/10/
027710/20121123/111751/1190/200/20/
027710/20121123/111755/1190/100/20/
027710/20121123/111806/1190/2732/20/
027710/20121123/111903/1190/100/20/
027710/20121123/111904/1190/1000/20/
027710/20121123/111905/1190/2945/20/
027710/20121123/111908/1190/1755/10/
027710/20121123/111910/1190/600/20/
027710/20121123/111949/1185/20669/10/
027710/20121123/111949/1190/1000/20/
027710/20121123/112030/1190/1000/20/
027710/20121123/112047/1190/1651/20/
027710/20121123/112052/1190/115/20/
027710/20121123/112105/1190/1030/20/
027710/20121123/112107/1190/504/20/
027710/20121123/112118/1190/8154/20/
027710/20121123/112130/1195/409/20/
027710/20121123/112230/1190/3807/10/
027710/20121123/112251/1195/18816/20/
027710/20121123/112309/1195/400/10/
027710/20121123/112447/1195/958/10/
027710/20121123/112518/1195/325/10/
027710/20121123/112543/1195/9712/20/
027710/20121123/112723/1200/82/20/
027710/20121123/112734/1195/1000/10/
027710/20121123/112800/1195/7103/10/
027710/20121123/112819/1195/2898/20/
027710/20121123/112837/1195/103/10/
027710/20121123/112900/1195/501/20/
027710/20121123/112953/1195/4570/20/
027710/20121123/112953/1200/446/20/
027710/20121123/113133/1195/1005/10/
027710/20121123/113221/1195/342/10/
027710/20121123/113234/1195/1000/20/
027710/20121123/113238/1195/179/20/
027710/20121123/113317/1195/122/10/
027710/20121123/113332/1195/1879/20/
027710/20121123/113410/1200/1276/20/
027710/20121123/113417/1195/110/10/
027710/20121123/113432/1195/238/10/
027710/20121123/113505/1200/5001/20/
027710/20121123/113555/1200/57025/20/
027710/20121123/113608/1200/103/20/
027710/20121123/113610/1200/424/20/
027710/20121123/113628/1200/81/20/
027710/20121123/113630/1200/200/20/
027710/20121123/113634/1200/105/20/
027710/20121123/113642/1205/2428/20/
027710/20121123/113717/1200/1005/10/
027710/20121123/113718/1200/1001/10/
027710/20121123/113756/1205/2151/20/
027710/20121123/113814/1200/5020/10/
027710/20121123/113818/1200/812/10/
027710/20121123/113831/1200/1052/20/
027710/20121123/113914/1200/9002/20/
027710/20121123/113928/1200/400/20/
027710/20121123/114040/1200/112/10/
027710/20121123/114057/1200/807/10/
027710/20121123/114107/1200/840/10/
027710/20121123/114108/1200/653/10/
027710/20121123/114138/1200/872/20/
027710/20121123/114220/1195/254/10/
027710/20121123/114238/1195/200/10/
027710/20121123/114241/1200/10000/20/
027710/20121123/114304/1200/4000/20/
027710/20121123/114321/1200/1000/20/
027710/20121123/114328/1200/849/20/
027710/20121123/114428/1200/162/10/
027710/20121123/114435/1200/1000/20/
027710/20121123/114442/1200/341/20/
027710/20121123/114543/1200/677/10/
027710/20121123/114617/1200/325/20/
027710/20121123/114710/1200/6622/20/
027710/20121123/114733/1200/389/10/
027710/20121123/114755/1200/112/20/
027710/20121123/114844/1205/425/20/
027710/20121123/114856/1200/1000/10/
027710/20121123/114938/1200/557/20/
027710/20121123/115005/1200/258/10/
027710/20121123/115009/1200/370/10/
027710/20121123/115052/1200/243/20/
027710/20121123/115102/1200/3792/10/
027710/20121123/115104/1200/400/20/
027710/20121123/115111/1200/812/20/
027710/20121123/115120/1200/305/10/
027710/20121123/115122/1200/387/10/
027710/20121123/115201/1200/257/20/
027710/20121123/115223/1200/8001/20/
027710/20121123/115231/1200/146/20/
027710/20121123/115235/1200/2000/20/
027710/20121123/115318/1200/4000/20/
027710/20121123/115325/1200/392/20/
027710/20121123/115329/1200/139/10/
027710/20121123/115445/1200/679/10/
027710/20121123/115632/1200/4352/10/
027710/20121123/115710/1195/135/10/
027710/20121123/115747/1195/24413/10/
027710/20121123/115824/1190/130/10/
027710/20121123/115932/1195/22011/20/
027710/20121123/115943/1195/433/20/
027710/20121123/120034/1190/501/10/
027710/20121123/120223/1190/299/10/
027710/20121123/120243/1190/300/10/
027710/20121123/120349/1195/3850/20/
027710/20121123/120638/1195/972/20/
027710/20121123/120647/1195/3200/20/
027710/20121123/120703/1195/1500/20/
027710/20121123/120838/1195/110/20/
027710/20121123/120900/1190/7344/10/
027710/20121123/120912/1190/2000/10/
027710/20121123/121116/1190/300/10/
027710/20121123/121139/1190/200/10/
027710/20121123/121245/1190/413/10/
027710/20121123/121500/1195/8905/20/
027710/20121123/121605/1200/27595/20/
027710/20121123/121615/1200/480/20/
027710/20121123/121622/1195/98/10/
027710/20121123/121700/1200/1609/20/
027710/20121123/121705/1200/3145/20/
027710/20121123/121711/1200/200/20/
027710/20121123/121715/1200/500/20/
027710/20121123/121724/1200/2320/20/
027710/20121123/121727/1200/2500/10/
027710/20121123/121809/1195/101/10/
027710/20121123/122107/1200/123/10/
027710/20121123/122148/1200/1795/10/
027710/20121123/122334/1195/4016/20/
027710/20121123/122614/1195/173/20/
027710/20121123/122719/1195/837/20/
027710/20121123/122754/1195/5005/20/
027710/20121123/122807/1195/500/20/
027710/20121123/122846/1195/119/20/
027710/20121123/123107/1200/515/20/
027710/20121123/123109/1195/2542/10/
027710/20121123/123122/1190/287/10/
027710/20121123/123257/1190/1031/10/
027710/20121123/123418/1195/101/20/
027710/20121123/123424/1190/437/10/
027710/20121123/123435/1190/326/10/
027710/20121123/123435/1190/251/10/
027710/20121123/123533/1195/502/20/
027710/20121123/123541/1195/15007/20/
027710/20121123/123556/1195/210/20/
027710/20121123/123736/1195/5628/10/
027710/20121123/123814/1195/100/20/
027710/20121123/123815/1195/1000/20/
027710/20121123/123818/1195/8290/20/
027710/20121123/123830/1200/251/20/
027710/20121123/123923/1200/1001/20/
027710/20121123/123928/1200/2000/20/
027710/20121123/123933/1200/500/20/
027710/20121123/123937/1200/500/20/
027710/20121123/124023/1200/2011/20/
027710/20121123/124023/1200/630/20/
027710/20121123/124034/1200/500/20/
027710/20121123/124048/1200/900/20/
027710/20121123/124134/1195/150/10/
027710/20121123/124243/1200/111/20/
027710/20121123/124309/1195/507/10/
027710/20121123/124338/1200/2298/20/
027710/20121123/124440/1200/1360/20/
027710/20121123/124610/1195/500/10/
027710/20121123/124631/1195/369/10/
027710/20121123/125029/1200/20013/20/
027710/20121123/125047/1200/239/20/
027710/20121123/125146/1200/1576/20/
027710/20121123/125202/1200/4705/20/
027710/20121123/125209/1200/1051/20/
027710/20121123/125211/1205/200/20/
027710/20121123/125252/1200/5512/10/
027710/20121123/125322/1200/1001/20/
027710/20121123/125334/1200/100/20/
027710/20121123/125334/1200/2941/20/
027710/20121123/125338/1200/100/20/
027710/20121123/125344/1200/1800/20/
027710/20121123/125345/1200/4000/10/
027710/20121123/125356/1200/102/10/
027710/20121123/125404/1200/700/20/
027710/20121123/125408/1200/200/20/
027710/20121123/125611/1200/672/10/
027710/20121123/125651/1200/347/10/
027710/20121123/125705/1200/301/10/
027710/20121123/125818/1200/104/10/
027710/20121123/125838/1200/101/10/
027710/20121123/125858/1200/210/10/
027710/20121123/125916/1200/137/10/
027710/20121123/125937/1200/90/10/
027710/20121123/125956/1200/4509/10/
027710/20121123/130026/1200/507/20/
027710/20121123/130033/1200/5596/20/
027710/20121123/130102/1200/437/10/
027710/20121123/130109/1200/116/10/
027710/20121123/130132/1200/2302/10/
027710/20121123/130140/1200/320/10/
027710/20121123/130142/1200/150/10/
027710/20121123/130318/1200/5001/10/
027710/20121123/130320/1200/200/10/
027710/20121123/130335/1200/865/10/
027710/20121123/130426/1195/336/10/
027710/20121123/130455/1195/1650/10/
027710/20121123/130536/1200/1001/20/
027710/20121123/130626/1195/190/10/
027710/20121123/130711/1200/2828/20/
027710/20121123/130721/1200/7500/20/
027710/20121123/130723/1200/118/20/
027710/20121123/130728/1200/4899/10/
027710/20121123/130735/1200/501/10/
027710/20121123/130756/1200/101/10/
027710/20121123/130816/1200/3002/10/
027710/20121123/130903/1200/2394/10/
027710/20121123/130931/1200/855/20/
027710/20121123/130938/1200/1133/20/
027710/20121123/131017/1200/2031/10/
027710/20121123/131029/1200/4238/10/
027710/20121123/131128/1200/110/20/
027710/20121123/131330/1200/7411/20/
027710/20121123/131343/1200/2510/10/
027710/20121123/131450/1200/10003/10/
027710/20121123/131459/1200/211/10/
027710/20121123/131513/1200/7501/10/
027710/20121123/131517/1200/150/10/
027710/20121123/131630/1200/409/10/
027710/20121123/131633/1200/4977/10/
027710/20121123/131644/1200/2574/10/
027710/20121123/131709/1200/5011/10/
027710/20121123/131713/1200/970/10/
027710/20121123/131719/1200/2648/10/
027710/20121123/131719/1195/100/10/
027710/20121123/131941/1200/113/20/
027710/20121123/131954/1195/300/10/
027710/20121123/132134/1195/375/10/
027710/20121123/132151/1200/1800/20/
027710/20121123/132240/1200/629/20/
027710/20121123/132245/1200/260/20/
027710/20121123/132259/1200/5081/20/
027710/20121123/132336/1200/1001/10/
027710/20121123/132416/1200/1090/10/
027710/20121123/132430/1200/202/10/
027710/20121123/132550/1195/2489/10/
027710/20121123/132605/1195/2047/10/
027710/20121123/132613/1195/376/10/
027710/20121123/132614/1195/100/10/
027710/20121123/132623/1195/100/10/
027710/20121123/132633/1195/100/10/
027710/20121123/132642/1195/100/10/
027710/20121123/132649/1195/100/10/
027710/20121123/132740/1195/1730/10/
027710/20121123/132746/1195/367/10/
027710/20121123/132801/1195/5006/10/
027710/20121123/132803/1195/1244/10/
027710/20121123/132814/1195/1147/10/
027710/20121123/132919/1195/1000/20/
027710/20121123/133206/1195/113/20/
027710/20121123/133250/1190/300/10/
027710/20121123/133332/1190/870/10/
027710/20121123/133448/1190/406/10/
027710/20121123/133505/1190/1957/10/
027710/20121123/133507/1195/1000/20/
027710/20121123/133521/1195/403/20/
027710/20121123/133626/1195/307/20/
027710/20121123/133630/1195/2500/20/
027710/20121123/133645/1195/450/20/
027710/20121123/133653/1195/5260/20/
027710/20121123/133657/1195/1755/20/
027710/20121123/133657/1195/1245/10/
027710/20121123/133851/1200/150/20/
027710/20121123/133948/1195/15000/10/
027710/20121123/134211/1200/90/20/
027710/20121123/134249/1200/393/20/
027710/20121123/134321/1200/100/20/
027710/20121123/134358/1195/250/10/
027710/20121123/134417/1200/101/20/
027710/20121123/134424/1200/100/20/
027710/20121123/134437/1200/100/20/
027710/20121123/134444/1200/100/20/
027710/20121123/134446/1200/5000/20/
027710/20121123/134500/1200/100/20/
027710/20121123/134516/1200/100/20/
027710/20121123/134539/1195/1300/10/
027710/20121123/134551/1200/939/20/
027710/20121123/134609/1200/1000/20/
027710/20121123/134612/1195/1700/10/
027710/20121123/134612/1200/6000/20/
027710/20121123/134632/1200/1002/20/
027710/20121123/134720/1200/1000/20/
027710/20121123/134742/1200/250/20/
027710/20121123/134850/1195/1500/10/
027710/20121123/134858/1195/500/10/
027710/20121123/134918/1195/702/10/
027710/20121123/134926/1200/200/20/
027710/20121123/135104/1195/7901/10/
027710/20121123/135113/1195/4304/10/
027710/20121123/135114/1195/622/10/
027710/20121123/135115/1195/2738/10/
027710/20121123/135115/1195/1131/10/
027710/20121123/135115/1190/623/10/
027710/20121123/135126/1195/191/20/
027710/20121123/135140/1195/100/20/
027710/20121123/135142/1190/250/10/
027710/20121123/135235/1195/412/20/
027710/20121123/135310/1195/4443/20/
027710/20121123/135321/1195/1003/20/
027710/20121123/135332/1195/1000/20/
027710/20121123/135339/1195/104/20/
027710/20121123/135401/1195/2005/20/
027710/20121123/135402/1195/1006/20/
027710/20121123/135405/1195/5000/20/
027710/20121123/135413/1195/642/20/
027710/20121123/135415/1195/168/20/
027710/20121123/135416/1195/500/20/
027710/20121123/135421/1195/108/20/
027710/20121123/135444/1195/108/20/
027710/20121123/135456/1195/101/20/
027710/20121123/135500/1190/4495/10/
027710/20121123/135505/1195/100/20/
027710/20121123/135511/1190/898/10/
027710/20121123/135513/1195/100/20/
027710/20121123/135520/1195/100/20/
027710/20121123/135551/1195/101/20/
027710/20121123/135616/1195/2459/20/
027710/20121123/135617/1200/10000/20/
027710/20121123/135627/1200/3000/20/
027710/20121123/135630/1200/2543/20/
027710/20121123/135646/1200/100/20/
027710/20121123/135655/1200/100/20/
027710/20121123/135715/1200/12630/20/
027710/20121123/135715/1200/2370/10/
027710/20121123/135731/1200/310/20/
027710/20121123/135752/1205/891/20/
027710/20121123/135818/1205/1606/20/
027710/20121123/135847/1205/1000/20/
027710/20121123/135852/1200/3000/10/
027710/20121123/135856/1205/1000/20/
027710/20121123/135924/1205/2718/20/
027710/20121123/140008/1205/100/20/
027710/20121123/140012/1205/810/20/
027710/20121123/140032/1205/806/20/
027710/20121123/140035/1205/1692/20/
027710/20121123/140058/1200/100/10/
027710/20121123/140106/1205/100/20/
027710/20121123/140127/1205/2000/20/
027710/20121123/140133/1205/8200/20/
027710/20121123/140134/1205/950/20/
027710/20121123/140139/1205/4469/20/
027710/20121123/140142/1205/4244/20/
027710/20121123/140142/1205/24605/20/
027710/20121123/140143/1205/10000/20/
027710/20121123/140145/1205/2010/20/
027710/20121123/140148/1205/10000/20/
027710/20121123/140149/1205/2000/20/
027710/20121123/140153/1205/2564/20/
027710/20121123/140158/1205/2128/20/
027710/20121123/140203/1205/390/20/
027710/20121123/140212/1205/252/20/
027710/20121123/140214/1205/100/20/
027710/20121123/140219/1205/101/20/
027710/20121123/140229/1205/101/20/
027710/20121123/140233/1205/2270/20/
027710/20121123/140242/1205/501/20/
027710/20121123/140247/1205/8501/20/
027710/20121123/140252/1205/2748/20/
027710/20121123/140254/1205/200/20/
027710/20121123/140302/1205/8813/20/
027710/20121123/140302/1210/6188/20/
027710/20121123/140320/1200/101/10/
027710/20121123/140322/1205/100/20/
027710/20121123/140332/1210/24802/20/
027710/20121123/140335/1210/1000/20/
027710/20121123/140338/1210/12000/20/
027710/20121123/140339/1210/5123/20/
027710/20121123/140340/1210/8193/20/
027710/20121123/140341/1210/500/20/
027710/20121123/140345/1210/7984/20/
027710/20121123/140346/1210/5000/20/
027710/20121123/140348/1210/750/20/
027710/20121123/140350/1215/100/20/
027710/20121123/140355/1215/671/20/
027710/20121123/140357/1215/1882/20/
027710/20121123/140359/1215/100/20/
027710/20121123/140401/1215/169/20/
027710/20121123/140404/1215/478/20/
027710/20121123/140406/1215/1045/20/
027710/20121123/140410/1215/2775/20/
027710/20121123/140411/1210/1400/10/
027710/20121123/140412/1215/1005/20/
027710/20121123/140413/1215/101/20/
027710/20121123/140414/1210/1000/10/
027710/20121123/140420/1215/102/20/
027710/20121123/140427/1215/103/20/
027710/20121123/140428/1210/600/10/
027710/20121123/140438/1215/252/20/
027710/20121123/140438/1215/100/20/
027710/20121123/140452/1215/111/20/
027710/20121123/140452/1210/466/10/
027710/20121123/140455/1210/1000/10/
027710/20121123/140457/1210/10000/10/
027710/20121123/140458/1210/282/10/
027710/20121123/140458/1210/3000/10/
027710/20121123/140458/1210/1342/10/
027710/20121123/140459/1210/100/20/
027710/20121123/140501/1210/11874/20/
027710/20121123/140503/1210/1502/10/
027710/20121123/140505/1210/1000/10/
027710/20121123/140506/1210/8661/10/
027710/20121123/140510/1210/701/20/
027710/20121123/140516/1205/500/10/
027710/20121123/140526/1210/5703/20/
027710/20121123/140528/1210/1398/20/
027710/20121123/140532/1210/99/20/
027710/20121123/140539/1215/101/20/
027710/20121123/140547/1215/100/20/
027710/20121123/140549/1215/2000/20/
027710/20121123/140601/1215/340/20/
027710/20121123/140603/1215/100/20/
027710/20121123/140629/1210/2000/10/
027710/20121123/140632/1210/1000/10/
027710/20121123/140636/1215/100/20/
027710/20121123/140645/1215/141/20/
027710/20121123/140652/1215/100/20/
027710/20121123/140659/1210/5202/10/
027710/20121123/140714/1205/111/10/
027710/20121123/140729/1210/150/20/
027710/20121123/140739/1210/100/20/
027710/20121123/140748/1210/7416/20/
027710/20121123/140753/1215/100/20/
027710/20121123/140754/1210/1020/10/
027710/20121123/140754/1210/1000/10/
027710/20121123/140800/1215/101/20/
027710/20121123/140801/1215/452/20/
027710/20121123/140810/1210/1553/10/
027710/20121123/140811/1215/100/20/
027710/20121123/140822/1210/605/10/
027710/20121123/140824/1210/138/20/
027710/20121123/140829/1210/110/20/
027710/20121123/140840/1210/4123/20/
027710/20121123/140844/1215/101/20/
027710/20121123/140848/1215/130/20/
027710/20121123/140857/1215/100/20/
027710/20121123/140859/1210/1000/10/
027710/20121123/140903/1210/2714/10/
027710/20121123/140913/1205/826/10/
027710/20121123/140931/1210/87/20/
027710/20121123/140933/1210/101/20/
027710/20121123/140941/1205/1252/10/
027710/20121123/140947/1210/4010/20/
027710/20121123/140954/1210/100/20/
027710/20121123/140958/1210/101/20/
027710/20121123/141001/1210/3860/20/
027710/20121123/141004/1215/102/20/
027710/20121123/141020/1215/100/20/
027710/20121123/141022/1210/13510/10/
027710/20121123/141027/1210/591/20/
027710/20121123/141037/1210/1710/20/
027710/20121123/141037/1210/89/20/
027710/20121123/141044/1215/102/20/
027710/20121123/141119/1215/537/20/
027710/20121123/141121/1215/100/20/
027710/20121123/141128/1215/4940/20/
027710/20121123/141129/1215/500/20/
027710/20121123/141135/1215/100/20/
027710/20121123/141146/1215/510/20/
027710/20121123/141207/1215/320/20/
027710/20121123/141211/1210/382/10/
027710/20121123/141212/1210/305/20/
027710/20121123/141221/1210/123/20/
027710/20121123/141224/1210/100/20/
027710/20121123/141231/1210/420/20/
027710/20121123/141235/1210/100/20/
027710/20121123/141249/1210/110/20/
027710/20121123/141311/1205/873/10/
027710/20121123/141317/1210/100/20/
027710/20121123/141337/1210/100/20/
027710/20121123/141411/1210/111/20/
027710/20121123/141413/1210/4150/20/
027710/20121123/141425/1205/202/10/
027710/20121123/141508/1210/1047/20/
027710/20121123/141532/1205/2067/10/
027710/20121123/141559/1210/90/20/
027710/20121123/141613/1210/3070/20/
027710/20121123/141630/1205/663/10/
027710/20121123/141633/1210/130/20/
027710/20121123/141644/1210/500/20/
027710/20121123/141706/1210/168/20/
027710/20121123/141740/1210/120/20/
027710/20121123/141741/1210/2481/20/
027710/20121123/141746/1210/100/20/
027710/20121123/141752/1210/100/20/
027710/20121123/141758/1210/200/20/
027710/20121123/141834/1205/6010/10/
027710/20121123/141837/1205/4911/10/
027710/20121123/141839/1210/100/20/
027710/20121123/141841/1205/210/10/
027710/20121123/141842/1205/500/10/
027710/20121123/141846/1205/11844/10/
027710/20121123/141901/1200/100/10/
027710/20121123/141901/1200/1168/10/
027710/20121123/141907/1200/1000/10/
027710/20121123/141942/1205/111/20/
027710/20121123/142007/1205/115/20/
027710/20121123/142050/1205/1006/20/
027710/20121123/142059/1205/3629/20/
027710/20121123/142137/1205/101/20/
027710/20121123/142141/1205/2460/20/
027710/20121123/142208/1205/100/20/
027710/20121123/142246/1205/783/20/
027710/20121123/142309/1205/2011/20/
027710/20121123/142313/1205/300/20/
027710/20121123/142318/1205/100/20/
027710/20121123/142350/1205/155/20/
027710/20121123/142350/1200/1010/10/
027710/20121123/142358/1205/100/20/
027710/20121123/142458/1205/415/20/
027710/20121123/142504/1205/200/20/
027710/20121123/142551/1205/104/20/
027710/20121123/142703/1200/2524/10/
027710/20121123/142717/1205/111/20/
027710/20121123/142726/1205/100/20/
027710/20121123/142730/1200/460/10/
027710/20121123/142735/1205/100/20/
027710/20121123/142745/1205/1168/20/
027710/20121123/142756/1200/1750/10/
027710/20121123/142758/1200/760/10/
027710/20121123/142823/1200/1687/10/
027710/20121123/142842/1205/120/20/
027710/20121123/142845/1200/1000/10/
027710/20121123/142854/1205/100/20/
027710/20121123/142905/1205/100/20/
027710/20121123/142908/1205/542/20/
027710/20121123/142927/1200/1000/10/
027710/20121123/142932/1200/16319/10/
027710/20121123/142938/1200/529/20/
027710/20121123/142943/1195/2000/10/
027710/20121123/142943/1195/1600/10/
027710/20121123/142948/1195/900/10/
027710/20121123/143025/1200/100/20/
027710/20121123/143111/1200/100/20/
027710/20121123/143121/1200/100/20/
027710/20121123/143133/1200/500/20/
027710/20121123/143147/1200/4337/20/
027710/20121123/143152/1205/100/20/
027710/20121123/143207/1200/1186/10/
027710/20121123/143217/1200/400/20/
027710/20121123/143218/1200/240/20/
027710/20121123/143219/1200/1310/20/
027710/20121123/143224/1200/691/10/
027710/20121123/143238/1200/100/20/
027710/20121123/143255/1200/200/20/
027710/20121123/143259/1195/9600/10/
027710/20121123/143303/1195/2000/10/
027710/20121123/143317/1195/1145/10/
027710/20121123/143326/1200/200/20/
027710/20121123/143355/1195/810/10/
027710/20121123/143359/1195/300/10/
027710/20121123/143406/1195/85/10/
027710/20121123/143406/1195/85/10/
027710/20121123/143426/1200/88/20/
027710/20121123/143427/1195/3000/10/
027710/20121123/143507/1195/8130/10/
027710/20121123/143516/1195/2647/20/
027710/20121123/143527/1195/307/10/
027710/20121123/143551/1195/1030/10/
027710/20121123/143553/1195/210/10/
027710/20121123/143608/1195/90/10/
027710/20121123/143614/1195/8093/10/
027710/20121123/143617/1195/1020/20/
027710/20121123/143645/1190/2019/10/
027710/20121123/143646/1190/647/10/
027710/20121123/143708/1190/81/10/
027710/20121123/143725/1190/537/10/
027710/20121123/143726/1195/101/20/
027710/20121123/143735/1190/1018/10/
027710/20121123/143736/1190/4000/10/
027710/20121123/143740/1190/470/10/
027710/20121123/143742/1190/10010/10/
027710/20121123/143743/1190/10000/10/
027710/20121123/143744/1190/5000/10/
027710/20121123/143744/1190/2341/10/
027710/20121123/143751/1185/1010/10/
027710/20121123/143754/1190/1000/20/
027710/20121123/143755/1185/1408/10/
027710/20121123/143805/1185/255/10/
027710/20121123/143805/1190/1010/20/
027710/20121123/143816/1190/1037/20/
027710/20121123/143824/1190/86/20/
027710/20121123/143829/1190/1066/20/
027710/20121123/143829/1190/1010/20/
027710/20121123/143834/1190/1055/20/
027710/20121123/143846/1190/2031/20/
027710/20121123/143847/1190/1000/20/
027710/20121123/143847/1190/3000/20/
027710/20121123/143848/1190/1000/20/
027710/20121123/143848/1190/294/20/
027710/20121123/143851/1190/300/20/
027710/20121123/143851/1190/1100/20/
027710/20121123/143856/1190/2921/20/
027710/20121123/143910/1190/430/20/
027710/20121123/143916/1190/140/20/
027710/20121123/143917/1190/500/20/
027710/20121123/143919/1190/1010/20/
027710/20121123/143924/1185/200/10/
027710/20121123/143924/1190/400/20/
027710/20121123/143924/1185/436/10/
027710/20121123/143924/1190/4242/20/
027710/20121123/143928/1190/100/10/
027710/20121123/143950/1195/90/20/
027710/20121123/143957/1190/380/10/
027710/20121123/144008/1190/100/10/
027710/20121123/144029/1190/811/10/
027710/20121123/144120/1190/1040/10/
027710/20121123/144141/1190/1010/10/
027710/20121123/144242/1190/242/10/
027710/20121123/144250/1195/10010/20/
027710/20121123/144309/1195/121/20/
027710/20121123/144321/1190/235/10/
027710/20121123/144332/1190/1010/10/
027710/20121123/144337/1195/810/20/
027710/20121123/144406/1190/240/10/
027710/20121123/144411/1190/1010/10/
027710/20121123/144438/1195/1030/20/
027710/20121123/144438/1195/10000/20/
027710/20121123/144440/1195/191/20/
027710/20121123/144450/1195/150/20/
027710/20121123/144459/1195/422/20/
027710/20121123/144516/1195/4022/10/
027710/20121123/144521/1195/666/10/
027710/20121123/144542/1190/144/10/
027710/20121123/144550/1195/132/20/
027710/20121123/144558/1195/1430/10/
027710/20121123/144558/1190/977/10/
027710/20121123/144614/1195/1010/20/
027710/20121123/144620/1195/183/20/
027710/20121123/144639/1190/119/10/
027710/20121123/144645/1190/1000/10/
027710/20121123/144714/1200/10040/20/
027710/20121123/144716/1195/6100/10/
027710/20121123/144738/1200/180/20/
027710/20121123/144740/1200/1000/20/
027710/20121123/144743/1200/300/20/
027710/20121123/144807/1200/331/20/
027710/20121123/144808/1200/4000/20/
027710/20121123/144812/1200/6010/20/
027710/20121123/144823/1200/2802/20/
027710/20121123/144829/1205/210/20/
027710/20121123/144832/1200/100/10/
027710/20121123/144845/1205/120/20/
027710/20121123/144851/1200/890/10/
027710/20121123/144923/1200/2270/10/
027710/20121123/144927/1200/1567/10/
027710/20121123/144938/1200/646/10/
027710/20121123/144940/1200/400/10/
027710/20121123/144941/1200/2000/10/
027710/20121123/144942/1200/1599/10/
027710/20121123/144943/1200/5597/10/
027710/20121123/144944/1200/1010/10/
027710/20121123/144944/1200/1157/10/
027710/20121123/144945/1195/668/10/
027710/20121123/144956/1195/511/10/
027710/20121123/144959/1200/1001/20/
027710/20121123/150000/1200/179732/20/
