027710/20130318/90000/1180/25868/10/
027710/20130318/90006/1185/2589/20/
027710/20130318/90016/1185/400/10/
027710/20130318/90023/1185/1789/10/
027710/20130318/90039/1185/1990/10/
027710/20130318/90043/1185/283/10/
027710/20130318/90059/1185/521/10/
027710/20130318/90119/1185/2540/10/
027710/20130318/90124/1185/1268/10/
027710/20130318/90131/1185/117/10/
027710/20130318/90131/1180/6883/10/
027710/20130318/90141/1180/1900/10/
027710/20130318/90143/1180/3920/10/
027710/20130318/90144/1180/1080/20/
027710/20130318/90222/1175/410/10/
027710/20130318/90223/1180/1220/20/
027710/20130318/90233/1175/7506/10/
027710/20130318/90301/1180/1101/10/
027710/20130318/90333/1180/1046/10/
027710/20130318/90411/1180/123/10/
027710/20130318/90414/1180/410/10/
027710/20130318/90442/1180/2000/10/
027710/20130318/90513/1180/2100/10/
027710/20130318/90537/1180/5100/10/
027710/20130318/90603/1180/3130/10/
027710/20130318/90608/1180/1000/10/
027710/20130318/90643/1180/445/10/
027710/20130318/90649/1185/926/20/
027710/20130318/90712/1180/131/10/
027710/20130318/90712/1175/2869/10/
027710/20130318/90732/1180/1001/20/
027710/20130318/90815/1185/3806/20/
027710/20130318/90825/1185/6217/10/
027710/20130318/90828/1185/784/20/
027710/20130318/90829/1185/1116/10/
027710/20130318/90847/1185/1001/20/
027710/20130318/90913/1185/5000/20/
027710/20130318/90917/1185/3018/20/
027710/20130318/90921/1185/1865/20/
027710/20130318/91010/1185/5977/20/
027710/20130318/91030/1185/318/20/
027710/20130318/91035/1185/3761/20/
027710/20130318/91040/1190/3569/20/
027710/20130318/91106/1190/1000/20/
027710/20130318/91108/1190/1257/20/
027710/20130318/91113/1190/500/20/
027710/20130318/91118/1190/1000/20/
027710/20130318/91119/1190/1475/20/
027710/20130318/91124/1190/7199/20/
027710/20130318/91128/1195/188/20/
027710/20130318/91136/1195/723/20/
027710/20130318/91144/1195/4650/20/
027710/20130318/91146/1195/4773/20/
027710/20130318/91146/1200/3300/20/
027710/20130318/91152/1200/1369/20/
027710/20130318/91153/1195/839/10/
027710/20130318/91155/1195/826/10/
027710/20130318/91157/1195/590/10/
027710/20130318/91157/1195/1262/10/
027710/20130318/91201/1195/2000/20/
027710/20130318/91203/1195/1275/20/
027710/20130318/91203/1200/125/20/
027710/20130318/91210/1195/510/20/
027710/20130318/91211/1195/730/10/
027710/20130318/91225/1195/1504/10/
027710/20130318/91230/1195/3000/10/
027710/20130318/91231/1195/1525/10/
027710/20130318/91243/1195/569/10/
027710/20130318/91244/1195/1000/10/
027710/20130318/91249/1195/3051/10/
027710/20130318/91254/1195/466/10/
027710/20130318/91259/1195/1373/20/
027710/20130318/91308/1195/5000/10/
027710/20130318/91316/1195/2481/10/
027710/20130318/91323/1195/1000/20/
027710/20130318/91350/1195/90/20/
027710/20130318/91407/1190/188/10/
027710/20130318/91438/1190/503/10/
027710/20130318/91503/1195/4897/20/
027710/20130318/91519/1195/804/10/
027710/20130318/91548/1195/1882/20/
027710/20130318/91601/1195/118/10/
027710/20130318/91610/1195/200/20/
027710/20130318/91612/1195/100/20/
027710/20130318/91622/1190/501/10/
027710/20130318/91644/1190/1001/10/
027710/20130318/91655/1195/1005/20/
027710/20130318/91746/1195/222/20/
027710/20130318/91749/1195/1856/20/
027710/20130318/91805/1195/7181/10/
027710/20130318/91805/1195/600/20/
027710/20130318/91812/1195/1000/20/
027710/20130318/91812/1195/192/20/
027710/20130318/91833/1195/536/20/
027710/20130318/91856/1195/518/20/
027710/20130318/91908/1190/10018/10/
027710/20130318/91924/1195/2446/20/
027710/20130318/91924/1200/1822/20/
027710/20130318/91936/1200/1146/20/
027710/20130318/91938/1195/218/10/
027710/20130318/91938/1190/4782/10/
027710/20130318/92020/1200/120/20/
027710/20130318/92040/1200/142/20/
027710/20130318/92129/1200/500/20/
027710/20130318/92146/1200/573/20/
027710/20130318/92202/1195/300/10/
027710/20130318/92213/1200/5000/20/
027710/20130318/92232/1195/3500/10/
027710/20130318/92253/1195/400/10/
027710/20130318/92256/1195/1300/10/
027710/20130318/92314/1200/500/20/
027710/20130318/92327/1200/120/20/
027710/20130318/92506/1200/1149/20/
027710/20130318/92506/1200/21038/20/
027710/20130318/92510/1200/1500/20/
027710/20130318/92515/1200/1605/20/
027710/20130318/92526/1200/140/10/
027710/20130318/92603/1205/100/20/
027710/20130318/92610/1200/310/10/
027710/20130318/92613/1205/3000/20/
027710/20130318/92620/1200/2000/10/
027710/20130318/92716/1205/1510/20/
027710/20130318/92735/1200/8463/10/
027710/20130318/92736/1205/1000/20/
027710/20130318/92801/1200/20001/10/
027710/20130318/92802/1200/1087/10/
027710/20130318/92812/1200/200/20/
027710/20130318/92827/1200/1000/20/
027710/20130318/92831/1200/6250/20/
027710/20130318/92832/1200/1900/20/
027710/20130318/92833/1200/100/20/
027710/20130318/92841/1200/200/20/
027710/20130318/92844/1200/9127/20/
027710/20130318/92854/1200/1000/10/
027710/20130318/92905/1200/100/10/
027710/20130318/92910/1200/4194/10/
027710/20130318/92912/1200/100/20/
027710/20130318/92914/1200/100/20/
027710/20130318/92918/1200/100/20/
027710/20130318/92947/1200/170/20/
027710/20130318/92957/1200/1000/20/
027710/20130318/93000/1200/100/20/
027710/20130318/93005/1200/2138/20/
027710/20130318/93008/1200/3831/20/
027710/20130318/93010/1200/100/20/
027710/20130318/93015/1200/1011/20/
027710/20130318/93018/1200/700/20/
027710/20130318/93019/1200/100/20/
027710/20130318/93022/1200/111/20/
027710/20130318/93035/1200/1020/20/
027710/20130318/93037/1200/100/20/
027710/20130318/93044/1200/3583/20/
027710/20130318/93102/1200/883/10/
027710/20130318/93128/1205/1021/20/
027710/20130318/93141/1200/7994/10/
027710/20130318/93209/1200/896/20/
027710/20130318/93213/1195/200/10/
027710/20130318/93231/1195/100/10/
027710/20130318/93308/1195/2517/10/
027710/20130318/93314/1195/10001/10/
027710/20130318/93349/1195/933/10/
027710/20130318/93404/1195/778/10/
027710/20130318/93429/1190/2020/10/
027710/20130318/93550/1195/520/20/
027710/20130318/93558/1195/221/20/
027710/20130318/93739/1190/30070/10/
027710/20130318/93741/1190/2700/10/
027710/20130318/93858/1185/12821/10/
027710/20130318/93917/1185/6369/10/
027710/20130318/93920/1185/631/20/
027710/20130318/93936/1190/1438/20/
027710/20130318/93950/1185/10926/10/
027710/20130318/94100/1185/1010/10/
027710/20130318/94118/1185/800/10/
027710/20130318/94121/1185/6000/10/
027710/20130318/94217/1185/7360/10/
027710/20130318/94221/1185/4000/10/
027710/20130318/94300/1185/115/10/
027710/20130318/94318/1190/100/20/
027710/20130318/94410/1190/600/20/
027710/20130318/94412/1190/300/20/
027710/20130318/94447/1185/120/10/
027710/20130318/94541/1190/1003/20/
027710/20130318/94545/1190/1000/20/
027710/20130318/94551/1190/2000/20/
027710/20130318/94556/1190/5600/20/
027710/20130318/94603/1190/8607/10/
027710/20130318/94611/1190/1393/20/
027710/20130318/94638/1190/1900/10/
027710/20130318/94638/1190/6725/10/
027710/20130318/94658/1190/118/20/
027710/20130318/94659/1190/3000/20/
027710/20130318/94815/1190/1157/20/
027710/20130318/94838/1190/302/10/
027710/20130318/95229/1190/5955/10/
027710/20130318/95243/1190/1000/10/
027710/20130318/95247/1190/1280/10/
027710/20130318/95306/1190/8059/10/
027710/20130318/95315/1190/6704/10/
027710/20130318/95402/1190/150/20/
027710/20130318/95443/1190/148/20/
027710/20130318/95446/1190/100/20/
027710/20130318/95459/1190/168/20/
027710/20130318/95522/1190/3050/20/
027710/20130318/95540/1190/330/20/
027710/20130318/95557/1190/300/10/
027710/20130318/95601/1190/406/10/
027710/20130318/95753/1190/114/20/
027710/20130318/95818/1185/1392/10/
027710/20130318/100041/1185/198/10/
027710/20130318/100139/1190/142/20/
027710/20130318/100224/1190/530/20/
027710/20130318/100513/1190/8288/20/
027710/20130318/100600/1190/2916/10/
027710/20130318/100643/1190/1002/10/
027710/20130318/100856/1190/10025/10/
027710/20130318/101037/1190/447/10/
027710/20130318/101039/1190/2546/10/
027710/20130318/101216/1190/2588/10/
027710/20130318/101231/1190/10639/10/
027710/20130318/101238/1190/1843/10/
027710/20130318/101239/1190/696/20/
027710/20130318/101307/1190/225/10/
027710/20130318/101331/1190/704/10/
027710/20130318/101806/1195/166/20/
027710/20130318/101934/1190/596/10/
027710/20130318/102001/1190/99/10/
027710/20130318/102057/1195/82/20/
027710/20130318/102107/1190/9000/10/
027710/20130318/102215/1190/6001/10/
027710/20130318/102218/1190/1600/10/
027710/20130318/102218/1190/2500/10/
027710/20130318/102238/1190/3081/10/
027710/20130318/102311/1190/801/10/
027710/20130318/102345/1190/199/20/
027710/20130318/102450/1190/211/10/
027710/20130318/102528/1195/136/20/
027710/20130318/102718/1195/522/20/
027710/20130318/103104/1190/130/10/
027710/20130318/103148/1190/200/10/
027710/20130318/103153/1190/1726/10/
027710/20130318/103228/1190/100/10/
027710/20130318/103231/1190/3444/10/
027710/20130318/103232/1190/407/10/
027710/20130318/103252/1190/1000/20/
027710/20130318/103330/1190/92/20/
027710/20130318/103332/1190/2777/20/
027710/20130318/103520/1190/123/10/
027710/20130318/103525/1190/700/10/
027710/20130318/103654/1190/1382/10/
027710/20130318/104026/1185/1046/10/
027710/20130318/104238/1185/389/10/
027710/20130318/104303/1185/20010/10/
027710/20130318/104308/1185/10000/10/
027710/20130318/104316/1185/2002/10/
027710/20130318/104431/1185/1984/10/
027710/20130318/104448/1185/8340/10/
027710/20130318/104457/1185/4003/10/
027710/20130318/104512/1185/2138/10/
027710/20130318/104833/1190/113/20/
027710/20130318/105052/1185/755/10/
027710/20130318/105135/1185/186/10/
027710/20130318/105406/1185/5033/10/
027710/20130318/105410/1185/1971/20/
027710/20130318/105447/1185/102/10/
027710/20130318/105503/1185/843/10/
027710/20130318/105532/1185/2960/10/
027710/20130318/105533/1185/595/10/
027710/20130318/105535/1185/4471/20/
027710/20130318/105558/1185/508/10/
027710/20130318/105617/1185/1001/20/
027710/20130318/105725/1180/10062/10/
027710/20130318/105738/1180/5000/10/
027710/20130318/105739/1180/33452/10/
027710/20130318/105803/1180/2000/20/
027710/20130318/105809/1180/1181/20/
027710/20130318/105821/1180/2819/10/
027710/20130318/105830/1180/981/20/
027710/20130318/110043/1180/2879/10/
027710/20130318/110124/1180/1531/20/
027710/20130318/110131/1180/300/10/
027710/20130318/110215/1180/3732/10/
027710/20130318/110223/1180/209/20/
027710/20130318/110255/1180/3002/10/
027710/20130318/110322/1180/2021/20/
027710/20130318/110325/1180/100/20/
027710/20130318/110331/1175/1107/10/
027710/20130318/110335/1180/100/20/
027710/20130318/110338/1180/243/20/
027710/20130318/110339/1180/3453/20/
027710/20130318/110347/1185/100/20/
027710/20130318/110523/1180/102/10/
027710/20130318/110624/1185/4447/20/
027710/20130318/110807/1185/10020/10/
027710/20130318/111122/1185/132/10/
027710/20130318/111124/1185/798/10/
027710/20130318/111214/1180/18182/10/
027710/20130318/111258/1180/109/10/
027710/20130318/111924/1180/2005/10/
027710/20130318/112257/1180/1940/10/
027710/20130318/112431/1180/1000/10/
027710/20130318/112459/1180/800/10/
027710/20130318/112521/1180/805/10/
027710/20130318/112524/1180/1127/20/
027710/20130318/112540/1180/1251/10/
027710/20130318/113618/1185/6300/20/
027710/20130318/113652/1185/100/10/
027710/20130318/113804/1185/2005/10/
027710/20130318/113819/1185/1004/10/
027710/20130318/113851/1185/1144/10/
027710/20130318/113920/1185/170/20/
027710/20130318/114103/1180/1110/10/
027710/20130318/114253/1180/2001/10/
027710/20130318/114308/1180/8031/10/
027710/20130318/114308/1175/12424/10/
027710/20130318/114609/1180/2026/10/
027710/20130318/114627/1180/2398/10/
027710/20130318/114711/1180/1028/20/
027710/20130318/114743/1175/571/10/
027710/20130318/114858/1180/1021/20/
027710/20130318/114858/1180/580/20/
027710/20130318/114913/1180/460/20/
027710/20130318/114936/1175/100/10/
027710/20130318/114956/1180/1000/20/
027710/20130318/115142/1175/510/10/
027710/20130318/115144/1180/1000/20/
027710/20130318/115418/1180/2530/20/
027710/20130318/115450/1180/335/20/
027710/20130318/115502/1180/511/20/
027710/20130318/115911/1180/534/10/
027710/20130318/115945/1180/1125/10/
027710/20130318/120038/1180/111/20/
027710/20130318/120133/1180/765/20/
027710/20130318/120305/1180/288/10/
027710/20130318/120328/1180/125/20/
027710/20130318/120530/1180/191/10/
027710/20130318/120612/1180/100/20/
027710/20130318/120645/1180/900/20/
027710/20130318/120734/1175/45370/10/
027710/20130318/120835/1175/1093/10/
027710/20130318/120921/1175/2573/20/
027710/20130318/120921/1175/1959/20/
027710/20130318/121309/1175/6527/10/
027710/20130318/121311/1170/2888/10/
027710/20130318/121327/1170/8000/10/
027710/20130318/121632/1170/1231/10/
027710/20130318/121640/1170/31552/10/
027710/20130318/121651/1170/300/20/
027710/20130318/121938/1170/2311/10/
027710/20130318/121938/1165/22237/10/
027710/20130318/122047/1170/1110/10/
027710/20130318/122127/1170/202/20/
027710/20130318/122306/1165/1016/10/
027710/20130318/122336/1165/16059/10/
027710/20130318/122336/1165/2603/20/
027710/20130318/122341/1165/1338/20/
027710/20130318/122421/1165/11112/10/
027710/20130318/122435/1165/120/10/
027710/20130318/122444/1165/400/10/
027710/20130318/122528/1165/4670/10/
027710/20130318/122529/1165/361/20/
027710/20130318/122545/1165/1005/10/
027710/20130318/122546/1165/1001/20/
027710/20130318/122600/1165/305/10/
027710/20130318/122601/1165/201/20/
027710/20130318/122623/1165/302/20/
027710/20130318/122629/1165/501/20/
027710/20130318/122700/1160/96/10/
027710/20130318/122705/1165/500/20/
027710/20130318/123108/1165/7272/10/
027710/20130318/123157/1160/3003/10/
027710/20130318/123202/1165/200/20/
027710/20130318/123336/1160/3034/10/
027710/20130318/123354/1160/86/10/
027710/20130318/123355/1165/500/20/
027710/20130318/123426/1165/1001/20/
027710/20130318/123450/1165/1007/20/
027710/20130318/123452/1165/1001/20/
027710/20130318/123509/1165/501/20/
027710/20130318/123518/1165/530/20/
027710/20130318/123549/1165/5099/10/
027710/20130318/123800/1165/501/10/
027710/20130318/123859/1165/160/10/
027710/20130318/124527/1170/120/20/
027710/20130318/124836/1170/85/20/
027710/20130318/124913/1170/4473/20/
027710/20130318/125941/1165/1065/10/
027710/20130318/130052/1165/7000/10/
027710/20130318/130216/1170/150/20/
027710/20130318/130804/1165/10040/10/
027710/20130318/130836/1165/5950/10/
027710/20130318/130854/1165/3000/10/
027710/20130318/130857/1165/2165/10/
027710/20130318/130914/1165/82/20/
027710/20130318/131038/1165/3010/20/
027710/20130318/131050/1165/101/20/
027710/20130318/131134/1165/655/20/
027710/20130318/131431/1165/2601/10/
027710/20130318/131501/1170/200/20/
027710/20130318/131506/1165/13243/10/
027710/20130318/131506/1160/31166/10/
027710/20130318/131614/1160/89/10/
027710/20130318/131623/1165/100/10/
027710/20130318/131628/1165/100/10/
027710/20130318/131752/1165/221/10/
027710/20130318/131924/1165/100/10/
027710/20130318/131948/1165/5000/10/
027710/20130318/132013/1165/750/10/
027710/20130318/132058/1165/2653/10/
027710/20130318/132144/1165/84/20/
027710/20130318/132409/1160/169/10/
027710/20130318/132530/1165/112/20/
027710/20130318/132603/1165/102/20/
027710/20130318/132608/1165/1000/20/
027710/20130318/132613/1160/127/10/
027710/20130318/132625/1165/6055/20/
027710/20130318/132639/1165/593/10/
027710/20130318/132647/1165/1000/10/
027710/20130318/132707/1165/4445/10/
027710/20130318/132737/1165/131/10/
027710/20130318/132932/1165/1000/10/
027710/20130318/133228/1165/679/10/
027710/20130318/133627/1165/1510/10/
027710/20130318/133637/1165/2594/10/
027710/20130318/133801/1165/500/10/
027710/20130318/133808/1170/800/20/
027710/20130318/133857/1170/3000/20/
027710/20130318/133922/1170/500/20/
027710/20130318/134016/1165/200/10/
027710/20130318/134138/1170/4538/20/
027710/20130318/134258/1165/1002/10/
027710/20130318/134319/1170/609/20/
027710/20130318/134332/1170/102/10/
027710/20130318/134517/1170/291/10/
027710/20130318/134636/1170/822/20/
027710/20130318/134734/1170/81/10/
027710/20130318/134848/1170/1000/10/
027710/20130318/134936/1170/610/10/
027710/20130318/135322/1170/1063/10/
027710/20130318/135736/1170/8682/10/
027710/20130318/135808/1170/200/10/
027710/20130318/135851/1170/2612/10/
027710/20130318/135910/1170/100/10/
027710/20130318/135929/1170/1000/10/
027710/20130318/140023/1170/530/10/
027710/20130318/140326/1165/500/10/
027710/20130318/140427/1170/310/20/
027710/20130318/140452/1170/853/20/
027710/20130318/140606/1170/1410/20/
027710/20130318/140616/1170/10000/20/
027710/20130318/140703/1170/253/20/
027710/20130318/140730/1170/101/10/
027710/20130318/140813/1170/90/10/
027710/20130318/140929/1170/210/10/
027710/20130318/141258/1170/85/10/
027710/20130318/141309/1170/4850/10/
027710/20130318/141323/1175/1000/20/
027710/20130318/141432/1170/4000/10/
027710/20130318/141507/1170/1009/10/
027710/20130318/141543/1165/3800/10/
027710/20130318/141556/1165/4026/10/
027710/20130318/141634/1165/626/10/
027710/20130318/141653/1165/904/10/
027710/20130318/141745/1165/10010/10/
027710/20130318/141940/1160/4470/10/
027710/20130318/142058/1160/6001/10/
027710/20130318/142102/1165/1287/20/
027710/20130318/142144/1160/1411/10/
027710/20130318/142256/1165/702/20/
027710/20130318/142438/1165/401/20/
027710/20130318/142455/1160/30001/10/
027710/20130318/142502/1160/2000/10/
027710/20130318/142503/1160/90/10/
027710/20130318/142508/1160/306/10/
027710/20130318/142621/1160/1057/20/
027710/20130318/142621/1155/300/10/
027710/20130318/142633/1155/10006/10/
027710/20130318/142649/1155/893/10/
027710/20130318/142651/1155/150/10/
027710/20130318/142724/1160/11749/20/
027710/20130318/142736/1160/1003/10/
027710/20130318/142828/1160/26635/10/
027710/20130318/142837/1165/2501/20/
027710/20130318/142852/1160/855/10/
027710/20130318/142858/1160/989/10/
027710/20130318/142926/1165/2008/20/
027710/20130318/143201/1165/132/20/
027710/20130318/143220/1160/120/10/
027710/20130318/143248/1160/2056/10/
027710/20130318/143320/1160/264/10/
027710/20130318/143404/1165/2332/20/
027710/20130318/143724/1160/363/10/
027710/20130318/143756/1165/3164/20/
027710/20130318/143816/1165/8000/20/
027710/20130318/143825/1165/385/10/
027710/20130318/143845/1165/650/20/
027710/20130318/143846/1165/350/10/
027710/20130318/143846/1160/556/10/
027710/20130318/143939/1165/311/20/
027710/20130318/144001/1160/1001/10/
027710/20130318/144009/1165/1607/20/
027710/20130318/144013/1165/396/10/
027710/20130318/144019/1160/5027/10/
027710/20130318/144045/1160/8867/10/
027710/20130318/144129/1160/1004/10/
027710/20130318/144148/1160/1001/10/
027710/20130318/144215/1160/1001/10/
027710/20130318/144356/1160/938/10/
027710/20130318/144426/1160/501/10/
027710/20130318/144433/1160/6315/10/
027710/20130318/144518/1155/2186/10/
027710/20130318/144527/1160/81/20/
027710/20130318/144536/1160/1235/20/
027710/20130318/144604/1160/117/20/
027710/20130318/144607/1155/1002/10/
027710/20130318/144649/1155/13404/10/
027710/20130318/144733/1160/6005/20/
027710/20130318/144733/1155/500/10/
027710/20130318/144815/1160/10057/20/
027710/20130318/144857/1160/2569/20/
027710/20130318/144858/1160/5782/20/
027710/20130318/144901/1160/4000/10/
027710/20130318/144902/1160/218/10/
027710/20130318/144926/1160/4443/20/
027710/20130318/144929/1160/5558/10/
027710/20130318/144952/1160/1000/20/
027710/20130318/150000/1155/88076/10/
