027710/20121224/90000/1200/46059/10/
027710/20121224/90039/1200/201/10/
027710/20121224/90100/1200/9835/10/
027710/20121224/90101/1200/100/20/
027710/20121224/90144/1200/3576/10/
027710/20121224/90144/1200/1489/20/
027710/20121224/90203/1200/2032/20/
027710/20121224/90214/1200/128/20/
027710/20121224/90256/1205/501/20/
027710/20121224/90258/1200/1000/10/
027710/20121224/90309/1200/614/10/
027710/20121224/90357/1200/6844/10/
027710/20121224/90357/1200/1000/20/
027710/20121224/90402/1200/100/20/
027710/20121224/90411/1200/2018/20/
027710/20121224/90412/1200/100/20/
027710/20121224/90414/1200/779/10/
027710/20121224/90424/1200/1000/10/
027710/20121224/90428/1200/5000/10/
027710/20121224/90434/1200/2555/10/
027710/20121224/90435/1200/7445/20/
027710/20121224/90439/1205/500/20/
027710/20121224/90502/1200/355/10/
027710/20121224/90514/1200/2000/10/
027710/20121224/90516/1200/256/10/
027710/20121224/90522/1200/500/20/
027710/20121224/90522/1195/800/10/
027710/20121224/90523/1195/200/10/
027710/20121224/90530/1200/870/20/
027710/20121224/90540/1200/217/20/
027710/20121224/90600/1200/501/20/
027710/20121224/90607/1195/2800/10/
027710/20121224/90616/1195/500/10/
027710/20121224/90638/1195/118/10/
027710/20121224/90713/1195/3180/10/
027710/20121224/90716/1195/21448/10/
027710/20121224/90725/1195/2530/20/
027710/20121224/90729/1195/233/20/
027710/20121224/90738/1190/1171/10/
027710/20121224/90738/1190/13000/10/
027710/20121224/90738/1190/130/10/
027710/20121224/90739/1190/1000/10/
027710/20121224/90740/1190/1000/10/
027710/20121224/90741/1190/201/10/
027710/20121224/90742/1190/3000/10/
027710/20121224/90743/1190/11163/10/
027710/20121224/90750/1185/140/10/
027710/20121224/90751/1185/700/10/
027710/20121224/90758/1185/601/10/
027710/20121224/90805/1185/1600/10/
027710/20121224/90816/1185/1557/10/
027710/20121224/90841/1185/504/10/
027710/20121224/90853/1185/11493/10/
027710/20121224/90853/1185/3507/20/
027710/20121224/90921/1185/7049/10/
027710/20121224/90940/1190/611/20/
027710/20121224/90959/1190/270/20/
027710/20121224/91002/1190/219/20/
027710/20121224/91005/1190/100/10/
027710/20121224/91011/1190/100/10/
027710/20121224/91046/1190/441/10/
027710/20121224/91050/1195/4260/20/
027710/20121224/91052/1195/500/20/
027710/20121224/91103/1195/105/20/
027710/20121224/91104/1190/1000/10/
027710/20121224/91104/1195/1081/20/
027710/20121224/91106/1195/500/20/
027710/20121224/91138/1190/1102/10/
027710/20121224/91140/1190/400/10/
027710/20121224/91151/1195/2342/20/
027710/20121224/91159/1195/3668/10/
027710/20121224/91224/1195/143/20/
027710/20121224/91239/1195/299/20/
027710/20121224/91300/1195/110/10/
027710/20121224/91304/1195/779/10/
027710/20121224/91336/1195/460/20/
027710/20121224/91344/1195/1004/20/
027710/20121224/91344/1195/458/10/
027710/20121224/91424/1190/6307/10/
027710/20121224/91431/1190/3193/20/
027710/20121224/91432/1190/100/20/
027710/20121224/91439/1190/181/10/
027710/20121224/91448/1190/819/20/
027710/20121224/91450/1190/582/10/
027710/20121224/91450/1185/1718/10/
027710/20121224/91617/1190/202/10/
027710/20121224/91621/1190/1190/10/
027710/20121224/91626/1190/210/10/
027710/20121224/91641/1190/1679/10/
027710/20121224/91713/1195/519/20/
027710/20121224/91815/1190/753/10/
027710/20121224/91817/1195/83/20/
027710/20121224/91825/1195/310/20/
027710/20121224/91840/1190/5000/10/
027710/20121224/91940/1190/1001/10/
027710/20121224/91949/1190/1000/10/
027710/20121224/91952/1190/3105/10/
027710/20121224/91952/1190/2895/20/
027710/20121224/91955/1190/200/20/
027710/20121224/92012/1190/244/10/
027710/20121224/92032/1190/1000/10/
027710/20121224/92045/1190/134/10/
027710/20121224/92134/1195/15469/20/
027710/20121224/92158/1200/3011/20/
027710/20121224/92159/1200/1097/20/
027710/20121224/92201/1200/297/20/
027710/20121224/92201/1200/4947/20/
027710/20121224/92216/1200/530/10/
027710/20121224/92220/1200/200/10/
027710/20121224/92305/1205/2006/20/
027710/20121224/92322/1205/508/20/
027710/20121224/92325/1205/500/20/
027710/20121224/92345/1205/4143/20/
027710/20121224/92347/1205/1000/20/
027710/20121224/92413/1200/5001/10/
027710/20121224/92417/1200/457/10/
027710/20121224/92418/1200/2451/10/
027710/20121224/92425/1200/202/20/
027710/20121224/92435/1200/2347/20/
027710/20121224/92443/1200/872/10/
027710/20121224/92443/1200/200/20/
027710/20121224/92445/1200/323/20/
027710/20121224/92448/1200/3500/20/
027710/20121224/92448/1200/2105/20/
027710/20121224/92505/1200/1001/10/
027710/20121224/92510/1200/170/20/
027710/20121224/92529/1200/530/10/
027710/20121224/92553/1200/1004/20/
027710/20121224/92554/1200/1000/20/
027710/20121224/92652/1200/555/20/
027710/20121224/92654/1200/2000/20/
027710/20121224/92745/1195/375/10/
027710/20121224/92749/1195/15718/10/
027710/20121224/92750/1195/883/20/
027710/20121224/92752/1190/500/10/
027710/20121224/92808/1195/505/20/
027710/20121224/92840/1195/510/20/
027710/20121224/92912/1195/335/20/
027710/20121224/92922/1195/905/20/
027710/20121224/92940/1195/1000/20/
027710/20121224/92944/1195/1044/20/
027710/20121224/93005/1200/2696/20/
027710/20121224/93102/1200/559/20/
027710/20121224/93131/1195/95/10/
027710/20121224/93133/1200/252/20/
027710/20121224/93237/1195/3000/10/
027710/20121224/93239/1195/15075/10/
027710/20121224/93423/1195/15024/10/
027710/20121224/93435/1195/87/20/
027710/20121224/93452/1195/100/20/
027710/20121224/93457/1195/100/20/
027710/20121224/93503/1195/100/20/
027710/20121224/93509/1195/200/20/
027710/20121224/93520/1190/559/10/
027710/20121224/93526/1190/2000/10/
027710/20121224/93532/1195/501/20/
027710/20121224/93544/1190/200/10/
027710/20121224/93550/1195/200/20/
027710/20121224/93637/1195/1000/20/
027710/20121224/93757/1190/109/10/
027710/20121224/93801/1190/800/10/
027710/20121224/93830/1190/1001/10/
027710/20121224/93910/1190/250/10/
027710/20121224/94012/1190/169/10/
027710/20121224/94059/1190/216/10/
027710/20121224/94127/1190/684/10/
027710/20121224/94133/1190/27500/10/
027710/20121224/94140/1190/5000/10/
027710/20121224/94144/1190/2600/10/
027710/20121224/94147/1190/1291/10/
027710/20121224/94155/1190/11221/10/
027710/20121224/94215/1190/500/20/
027710/20121224/94232/1190/100/20/
027710/20121224/94236/1190/10035/20/
027710/20121224/94240/1190/3000/20/
027710/20121224/94241/1190/4344/20/
027710/20121224/94330/1190/3701/10/
027710/20121224/94335/1190/197/10/
027710/20121224/94337/1190/5000/10/
027710/20121224/94341/1190/807/10/
027710/20121224/94351/1190/100/20/
027710/20121224/94356/1190/83/20/
027710/20121224/94357/1190/4829/20/
027710/20121224/94357/1190/171/10/
027710/20121224/94432/1190/104/20/
027710/20121224/94447/1190/2000/20/
027710/20121224/94516/1190/1252/10/
027710/20121224/94521/1190/273/10/
027710/20121224/94523/1190/181/10/
027710/20121224/94544/1195/10374/20/
027710/20121224/94626/1190/5001/10/
027710/20121224/94652/1190/205/10/
027710/20121224/94735/1190/100/10/
027710/20121224/94748/1190/3980/10/
027710/20121224/94756/1190/100/20/
027710/20121224/94757/1190/968/20/
027710/20121224/94800/1190/1000/20/
027710/20121224/94802/1190/3952/10/
027710/20121224/94813/1190/5381/10/
027710/20121224/94821/1190/400/20/
027710/20121224/94846/1190/116/20/
027710/20121224/94857/1190/501/20/
027710/20121224/94900/1190/6318/20/
027710/20121224/94913/1190/3982/10/
027710/20121224/94914/1190/5000/20/
027710/20121224/94914/1190/1048/20/
027710/20121224/94920/1190/792/10/
027710/20121224/94953/1190/446/10/
027710/20121224/95000/1190/500/20/
027710/20121224/95002/1190/100/20/
027710/20121224/95012/1190/100/20/
027710/20121224/95021/1190/4000/20/
027710/20121224/95034/1190/841/20/
027710/20121224/95036/1190/1000/20/
027710/20121224/95037/1190/500/20/
027710/20121224/95038/1190/1000/20/
027710/20121224/95038/1190/2415/20/
027710/20121224/95236/1195/541/20/
027710/20121224/95256/1190/1264/10/
027710/20121224/95320/1190/873/10/
027710/20121224/95449/1195/210/20/
027710/20121224/95456/1190/170/10/
027710/20121224/95502/1190/1197/10/
027710/20121224/95621/1195/161/20/
027710/20121224/95727/1195/540/20/
027710/20121224/95807/1195/1475/20/
027710/20121224/95807/1190/2390/10/
027710/20121224/95819/1195/15082/20/
027710/20121224/95850/1195/3886/10/
027710/20121224/95909/1195/560/20/
027710/20121224/95915/1195/500/20/
027710/20121224/95917/1195/500/20/
027710/20121224/95929/1195/1001/20/
027710/20121224/95933/1195/500/20/
027710/20121224/95937/1195/1000/20/
027710/20121224/100005/1195/1008/20/
027710/20121224/100115/1195/535/20/
027710/20121224/100126/1195/500/20/
027710/20121224/100140/1195/289/20/
027710/20121224/100226/1200/501/20/
027710/20121224/100256/1200/100/20/
027710/20121224/100345/1195/1001/10/
027710/20121224/100401/1195/1878/10/
027710/20121224/100406/1190/1000/10/
027710/20121224/100417/1190/1000/10/
027710/20121224/100430/1195/2623/20/
027710/20121224/100441/1195/377/10/
027710/20121224/100447/1195/500/20/
027710/20121224/100451/1190/246/10/
027710/20121224/100531/1195/1818/20/
027710/20121224/100546/1195/1581/20/
027710/20121224/100605/1195/445/10/
027710/20121224/100605/1190/581/10/
027710/20121224/100817/1200/2033/20/
027710/20121224/100823/1195/400/10/
027710/20121224/100911/1195/10000/10/
027710/20121224/101030/1195/107/10/
027710/20121224/101120/1195/1000/10/
027710/20121224/101312/1195/5001/10/
027710/20121224/101547/1195/501/10/
027710/20121224/101604/1195/1298/10/
027710/20121224/101705/1200/2002/20/
027710/20121224/101715/1200/2000/20/
027710/20121224/101723/1200/11970/20/
027710/20121224/101827/1200/668/10/
027710/20121224/101848/1200/350/10/
027710/20121224/101848/1200/4650/20/
027710/20121224/101904/1200/499/20/
027710/20121224/101911/1200/1000/10/
027710/20121224/101919/1200/501/10/
027710/20121224/101921/1200/499/20/
027710/20121224/101939/1195/1001/10/
027710/20121224/102138/1195/3000/10/
027710/20121224/102149/1195/450/10/
027710/20121224/102220/1200/101/20/
027710/20121224/102257/1195/1100/10/
027710/20121224/102603/1195/1000/10/
027710/20121224/102731/1195/610/10/
027710/20121224/102754/1195/302/10/
027710/20121224/102755/1195/100/10/
027710/20121224/102814/1195/1000/10/
027710/20121224/102832/1200/483/20/
027710/20121224/102944/1195/21101/10/
027710/20121224/102955/1195/18113/10/
027710/20121224/103140/1195/1813/10/
027710/20121224/103224/1195/5537/10/
027710/20121224/103234/1195/4464/20/
027710/20121224/103333/1200/210/20/
027710/20121224/103528/1200/110/20/
027710/20121224/103931/1200/327/20/
027710/20121224/104020/1195/1000/10/
027710/20121224/104307/1200/8001/20/
027710/20121224/104352/1200/500/20/
027710/20121224/104353/1200/500/20/
027710/20121224/104434/1200/510/20/
027710/20121224/104459/1200/300/20/
027710/20121224/104532/1200/1000/20/
027710/20121224/104541/1200/500/20/
027710/20121224/104544/1200/500/20/
027710/20121224/104544/1200/1200/20/
027710/20121224/104557/1200/3000/20/
027710/20121224/104559/1200/603/20/
027710/20121224/104719/1200/6107/10/
027710/20121224/104831/1200/351/20/
027710/20121224/104918/1200/5000/20/
027710/20121224/104954/1200/585/20/
027710/20121224/105048/1200/2000/20/
027710/20121224/105407/1200/1974/10/
027710/20121224/105506/1200/3401/10/
027710/20121224/105542/1200/6277/10/
027710/20121224/105548/1200/300/20/
027710/20121224/105607/1200/2404/20/
027710/20121224/105607/1200/1024/20/
027710/20121224/105651/1200/103/10/
027710/20121224/105744/1200/111/20/
027710/20121224/105817/1200/83/20/
027710/20121224/105828/1200/1942/10/
027710/20121224/105846/1200/174/20/
027710/20121224/110017/1195/501/10/
027710/20121224/110026/1200/580/20/
027710/20121224/110102/1200/8775/20/
027710/20121224/110606/1205/82/20/
027710/20121224/110854/1200/8030/10/
027710/20121224/111035/1200/2430/10/
027710/20121224/111050/1200/100/10/
027710/20121224/111055/1200/1193/10/
027710/20121224/111112/1200/4613/10/
027710/20121224/111126/1200/1400/20/
027710/20121224/111134/1200/1000/20/
027710/20121224/111439/1200/2999/20/
027710/20121224/111531/1200/277/10/
027710/20121224/111632/1200/2227/10/
027710/20121224/111632/1195/13068/10/
027710/20121224/111756/1195/300/10/
027710/20121224/111831/1195/1046/10/
027710/20121224/112457/1200/1052/20/
027710/20121224/112652/1195/510/10/
027710/20121224/112853/1195/2261/10/
027710/20121224/112911/1200/116/20/
027710/20121224/113038/1195/100/10/
027710/20121224/113928/1195/83/10/
027710/20121224/114213/1195/2029/10/
027710/20121224/114427/1200/101/20/
027710/20121224/114444/1200/100/20/
027710/20121224/114503/1195/5350/10/
027710/20121224/114519/1195/2670/10/
027710/20121224/114548/1195/5000/10/
027710/20121224/114602/1195/5600/10/
027710/20121224/114642/1195/10000/10/
027710/20121224/114647/1195/10000/10/
027710/20121224/114648/1195/2000/10/
027710/20121224/114649/1195/595/10/
027710/20121224/114654/1195/1000/10/
027710/20121224/114710/1195/5000/10/
027710/20121224/114716/1195/1000/10/
027710/20121224/115109/1200/121/20/
027710/20121224/115142/1195/400/10/
027710/20121224/115505/1195/2708/10/
027710/20121224/115509/1195/7717/10/
027710/20121224/115514/1195/4179/20/
027710/20121224/115543/1195/511/20/
027710/20121224/115557/1195/1500/20/
027710/20121224/115604/1195/1369/20/
027710/20121224/115720/1195/472/10/
027710/20121224/115819/1195/203/10/
027710/20121224/115949/1190/120/10/
027710/20121224/120003/1190/208/10/
027710/20121224/120012/1190/109/10/
027710/20121224/120136/1195/3000/20/
027710/20121224/120214/1195/840/20/
027710/20121224/120249/1195/124/20/
027710/20121224/120657/1190/2510/10/
027710/20121224/120825/1195/1762/20/
027710/20121224/120909/1195/18791/20/
027710/20121224/120909/1190/1400/10/
027710/20121224/120912/1195/2128/20/
027710/20121224/120927/1195/100/20/
027710/20121224/120951/1195/2550/20/
027710/20121224/121010/1195/1698/20/
027710/20121224/121018/1195/2164/20/
027710/20121224/121024/1195/846/10/
027710/20121224/121037/1195/554/20/
027710/20121224/121105/1195/169/10/
027710/20121224/121206/1195/5331/20/
027710/20121224/121340/1195/2400/10/
027710/20121224/121421/1195/3501/10/
027710/20121224/121509/1195/640/20/
027710/20121224/121926/1195/631/10/
027710/20121224/122030/1195/6012/10/
027710/20121224/122102/1195/501/10/
027710/20121224/122201/1195/501/10/
027710/20121224/122258/1195/1000/10/
027710/20121224/122309/1195/3000/10/
027710/20121224/122344/1195/724/10/
027710/20121224/122439/1195/200/20/
027710/20121224/122503/1195/1238/20/
027710/20121224/122507/1195/100/20/
027710/20121224/122527/1195/800/20/
027710/20121224/122644/1195/100/20/
027710/20121224/122706/1195/2778/20/
027710/20121224/122712/1195/100/20/
027710/20121224/122736/1195/1267/20/
027710/20121224/122756/1195/938/20/
027710/20121224/122805/1195/4004/20/
027710/20121224/122823/1195/249/10/
027710/20121224/122828/1195/100/20/
027710/20121224/122911/1195/2051/20/
027710/20121224/122920/1195/2070/20/
027710/20121224/122929/1195/1978/20/
027710/20121224/122932/1195/140/20/
027710/20121224/122933/1195/4000/20/
027710/20121224/122946/1195/264/20/
027710/20121224/123126/1195/3002/10/
027710/20121224/123249/1195/4787/10/
027710/20121224/123256/1195/201/20/
027710/20121224/123552/1195/1505/20/
027710/20121224/123707/1195/500/20/
027710/20121224/123709/1195/3346/20/
027710/20121224/123715/1195/500/20/
027710/20121224/123727/1195/2051/10/
027710/20121224/123756/1195/2001/10/
027710/20121224/123808/1195/500/20/
027710/20121224/123843/1190/1000/10/
027710/20121224/123909/1195/201/20/
027710/20121224/123921/1195/300/20/
027710/20121224/124144/1195/3477/20/
027710/20121224/124208/1195/160/20/
027710/20121224/124242/1195/5000/20/
027710/20121224/124244/1195/359/20/
027710/20121224/124301/1195/201/20/
027710/20121224/124403/1195/160/20/
027710/20121224/124428/1195/1930/20/
027710/20121224/124457/1195/270/20/
027710/20121224/124530/1195/631/20/
027710/20121224/124608/1195/5000/20/
027710/20121224/124628/1195/316/20/
027710/20121224/124651/1195/268/20/
027710/20121224/124655/1195/90/20/
027710/20121224/124656/1195/2000/20/
027710/20121224/124704/1195/483/20/
027710/20121224/124709/1195/500/20/
027710/20121224/124714/1195/500/20/
027710/20121224/124751/1195/1000/20/
027710/20121224/124859/1190/4020/10/
027710/20121224/124910/1190/113/10/
027710/20121224/124913/1195/100/20/
027710/20121224/124945/1195/200/20/
027710/20121224/125021/1195/100/20/
027710/20121224/125034/1195/82/20/
027710/20121224/125057/1195/100/20/
027710/20121224/125109/1195/100/20/
027710/20121224/125159/1195/839/20/
027710/20121224/125302/1195/110/20/
027710/20121224/125332/1195/91/10/
027710/20121224/125345/1195/2484/20/
027710/20121224/125347/1195/1428/20/
027710/20121224/125355/1195/83/10/
027710/20121224/125418/1195/90/10/
027710/20121224/125555/1195/110/10/
027710/20121224/125638/1195/100/10/
027710/20121224/125639/1195/100/10/
027710/20121224/125807/1200/321/20/
027710/20121224/125839/1195/396/10/
027710/20121224/125944/1195/780/10/
027710/20121224/125948/1195/200/10/
027710/20121224/130112/1195/1112/10/
027710/20121224/130125/1195/1000/10/
027710/20121224/130129/1195/3088/10/
027710/20121224/130134/1195/300/10/
027710/20121224/130140/1195/1766/10/
027710/20121224/130210/1195/100/20/
027710/20121224/130223/1190/162/10/
027710/20121224/130350/1195/1020/20/
027710/20121224/130358/1195/361/20/
027710/20121224/130418/1195/92/20/
027710/20121224/130441/1195/152/20/
027710/20121224/130454/1195/102/20/
027710/20121224/130528/1195/86/20/
027710/20121224/130538/1195/169/10/
027710/20121224/130722/1195/103/20/
027710/20121224/130751/1195/230/20/
027710/20121224/130843/1195/102/10/
027710/20121224/130958/1195/129/10/
027710/20121224/131155/1195/310/10/
027710/20121224/131539/1195/161/10/
027710/20121224/132127/1195/2021/10/
027710/20121224/132139/1195/8974/10/
027710/20121224/132342/1195/510/10/
027710/20121224/132404/1195/500/10/
027710/20121224/132449/1195/3011/10/
027710/20121224/132453/1200/416/20/
027710/20121224/132523/1200/180/20/
027710/20121224/132541/1200/416/20/
027710/20121224/133041/1195/3475/10/
027710/20121224/133057/1200/100/20/
027710/20121224/133128/1195/839/10/
027710/20121224/133203/1195/1999/10/
027710/20121224/133248/1195/5890/10/
027710/20121224/133440/1195/1629/10/
027710/20121224/133457/1195/1796/10/
027710/20121224/133547/1195/7031/20/
027710/20121224/133547/1195/1649/20/
027710/20121224/133619/1195/100/10/
027710/20121224/133739/1195/3269/10/
027710/20121224/133750/1195/1409/10/
027710/20121224/133800/1195/8591/20/
027710/20121224/133833/1195/1684/10/
027710/20121224/133908/1195/9021/20/
027710/20121224/133931/1195/200/10/
027710/20121224/134009/1200/100/20/
027710/20121224/134150/1195/521/10/
027710/20121224/134157/1195/5617/10/
027710/20121224/134216/1195/1902/20/
027710/20121224/134248/1195/1005/20/
027710/20121224/134347/1195/109/20/
027710/20121224/134350/1195/1000/20/
027710/20121224/134354/1195/2200/20/
027710/20121224/134412/1195/302/20/
027710/20121224/134422/1195/100/20/
027710/20121224/134424/1195/2778/20/
027710/20121224/134449/1195/1520/10/
027710/20121224/134504/1195/1003/20/
027710/20121224/134515/1195/103/20/
027710/20121224/134533/1195/88/20/
027710/20121224/134556/1190/804/10/
027710/20121224/134631/1195/2012/20/
027710/20121224/134700/1190/501/10/
027710/20121224/134720/1195/8709/20/
027710/20121224/134732/1195/3912/10/
027710/20121224/134759/1195/213/20/
027710/20121224/134818/1195/398/20/
027710/20121224/134843/1195/2001/20/
027710/20121224/134845/1195/881/20/
027710/20121224/134859/1195/1000/20/
027710/20121224/134902/1195/1000/20/
027710/20121224/134903/1195/389/20/
027710/20121224/134932/1195/213/20/
027710/20121224/135032/1190/6541/10/
027710/20121224/135037/1195/90/20/
027710/20121224/135146/1190/1023/10/
027710/20121224/135148/1190/3000/10/
027710/20121224/135149/1190/4616/10/
027710/20121224/135202/1190/2000/10/
027710/20121224/135202/1190/9560/10/
027710/20121224/135206/1190/3000/10/
027710/20121224/135207/1190/2500/10/
027710/20121224/135209/1190/1000/10/
027710/20121224/135211/1190/2044/10/
027710/20121224/135214/1190/100/10/
027710/20121224/135232/1185/962/10/
027710/20121224/135248/1190/7006/20/
027710/20121224/135258/1190/461/10/
027710/20121224/135258/1185/1282/10/
027710/20121224/135308/1185/1500/10/
027710/20121224/135334/1190/525/20/
027710/20121224/135338/1190/101/20/
027710/20121224/135401/1190/1046/20/
027710/20121224/135413/1190/733/20/
027710/20121224/135414/1190/1041/10/
027710/20121224/135432/1190/557/20/
027710/20121224/135446/1190/506/20/
027710/20121224/135455/1185/530/10/
027710/20121224/135458/1190/502/20/
027710/20121224/135509/1190/502/20/
027710/20121224/135521/1190/523/20/
027710/20121224/135533/1190/81/20/
027710/20121224/135538/1190/604/20/
027710/20121224/135542/1190/202/20/
027710/20121224/135558/1190/147/20/
027710/20121224/135602/1190/202/20/
027710/20121224/135650/1185/152/10/
027710/20121224/135657/1190/118/20/
027710/20121224/135733/1190/152/20/
027710/20121224/135735/1190/101/20/
027710/20121224/135739/1190/7940/20/
027710/20121224/135739/1190/5000/10/
027710/20121224/135927/1190/81/10/
027710/20121224/140011/1190/10067/10/
027710/20121224/140014/1190/1000/10/
027710/20121224/140017/1190/800/10/
027710/20121224/140026/1190/595/10/
027710/20121224/140046/1190/106/20/
027710/20121224/140056/1190/422/20/
027710/20121224/140100/1190/828/10/
027710/20121224/140239/1190/2289/10/
027710/20121224/140247/1190/150/20/
027710/20121224/140308/1190/2000/20/
027710/20121224/140319/1190/301/20/
027710/20121224/140329/1185/166/10/
027710/20121224/140450/1185/162/10/
027710/20121224/140537/1185/104/10/
027710/20121224/140543/1185/100/10/
027710/20121224/140545/1185/100/10/
027710/20121224/140551/1185/100/10/
027710/20121224/140559/1185/19848/10/
027710/20121224/140621/1190/158/20/
027710/20121224/140630/1190/4789/10/
027710/20121224/140638/1190/216/10/
027710/20121224/140647/1190/101/20/
027710/20121224/140713/1190/5071/10/
027710/20121224/140750/1190/169/20/
027710/20121224/140827/1190/910/20/
027710/20121224/140834/1190/92/20/
027710/20121224/140848/1190/101/20/
027710/20121224/140943/1190/4795/20/
027710/20121224/141005/1190/102/20/
027710/20121224/141007/1190/963/10/
027710/20121224/141015/1185/101/10/
027710/20121224/141057/1190/2057/20/
027710/20121224/141101/1190/778/20/
027710/20121224/141150/1190/516/10/
027710/20121224/141210/1190/2015/10/
027710/20121224/141236/1190/2805/10/
027710/20121224/141319/1195/120/20/
027710/20121224/141402/1190/4794/10/
027710/20121224/141414/1190/202/20/
027710/20121224/141534/1190/137/20/
027710/20121224/141548/1185/10002/10/
027710/20121224/141550/1185/25000/10/
027710/20121224/141556/1185/9266/10/
027710/20121224/141556/1180/12737/10/
027710/20121224/141556/1180/30000/10/
027710/20121224/141556/1180/18000/10/
027710/20121224/141556/1180/1206/10/
027710/20121224/141556/1180/1010/10/
027710/20121224/141556/1180/1960/10/
027710/20121224/141556/1180/3000/10/
027710/20121224/141557/1180/480/10/
027710/20121224/141557/1180/250/10/
027710/20121224/141603/1180/102/10/
027710/20121224/141604/1175/122/10/
027710/20121224/141604/1175/312/10/
027710/20121224/141604/1175/700/10/
027710/20121224/141605/1175/1021/10/
027710/20121224/141605/1175/200/10/
027710/20121224/141606/1180/100/10/
027710/20121224/141606/1175/207/10/
027710/20121224/141607/1175/1962/10/
027710/20121224/141609/1180/101/20/
027710/20121224/141619/1180/504/10/
027710/20121224/141628/1180/2777/10/
027710/20121224/141631/1180/2925/10/
027710/20121224/141632/1180/12001/20/
027710/20121224/141633/1180/2002/20/
027710/20121224/141641/1180/332/20/
027710/20121224/141644/1180/504/20/
027710/20121224/141644/1175/701/10/
027710/20121224/141648/1175/5004/10/
027710/20121224/141649/1175/1014/10/
027710/20121224/141653/1175/13005/10/
027710/20121224/141654/1175/5002/10/
027710/20121224/141654/1175/4662/10/
027710/20121224/141655/1170/202/10/
027710/20121224/141657/1170/1654/10/
027710/20121224/141659/1175/403/20/
027710/20121224/141659/1175/101/10/
027710/20121224/141700/1175/5499/10/
027710/20121224/141700/1170/302/10/
027710/20121224/141700/1170/1000/10/
027710/20121224/141706/1175/110/10/
027710/20121224/141717/1175/2801/10/
027710/20121224/141718/1175/600/10/
027710/20121224/141718/1175/249/10/
027710/20121224/141719/1175/3546/10/
027710/20121224/141720/1175/2880/10/
027710/20121224/141721/1175/300/10/
027710/20121224/141722/1175/152/10/
027710/20121224/141722/1175/499/10/
027710/20121224/141724/1175/544/10/
027710/20121224/141724/1170/300/10/
027710/20121224/141726/1170/82/10/
027710/20121224/141732/1175/1008/20/
027710/20121224/141733/1175/201/20/
027710/20121224/141733/1175/1048/20/
027710/20121224/141749/1175/1059/10/
027710/20121224/141751/1175/300/10/
027710/20121224/141756/1180/206/20/
027710/20121224/141802/1175/1054/10/
027710/20121224/141828/1175/18537/10/
027710/20121224/141832/1175/4503/10/
027710/20121224/141912/1180/242/20/
027710/20121224/141945/1180/2007/20/
027710/20121224/142004/1180/1512/20/
027710/20121224/142006/1180/703/20/
027710/20121224/142007/1180/201/20/
027710/20121224/142008/1180/501/20/
027710/20121224/142009/1180/200/20/
027710/20121224/142015/1180/892/20/
027710/20121224/142017/1180/227/20/
027710/20121224/142018/1180/5359/20/
027710/20121224/142029/1180/1513/10/
027710/20121224/142032/1180/1502/10/
027710/20121224/142033/1180/1501/10/
027710/20121224/142034/1180/3001/10/
027710/20121224/142035/1180/324/10/
027710/20121224/142050/1180/107/20/
027710/20121224/142203/1180/1026/20/
027710/20121224/142204/1175/10000/10/
027710/20121224/142207/1175/23135/10/
027710/20121224/142208/1175/283/10/
027710/20121224/142226/1170/1734/10/
027710/20121224/142231/1175/507/10/
027710/20121224/142234/1175/1000/10/
027710/20121224/142302/1175/102/10/
027710/20121224/142308/1175/5403/10/
027710/20121224/142314/1175/3005/20/
027710/20121224/142322/1175/246/10/
027710/20121224/142323/1180/2000/20/
027710/20121224/142345/1175/2355/10/
027710/20121224/142356/1175/1012/10/
027710/20121224/142359/1175/3000/10/
027710/20121224/142400/1175/317/10/
027710/20121224/142400/1170/733/10/
027710/20121224/142406/1175/220/20/
027710/20121224/142406/1175/5980/20/
027710/20121224/142416/1175/313/10/
027710/20121224/142421/1175/901/10/
027710/20121224/142429/1175/4001/10/
027710/20121224/142437/1175/1050/10/
027710/20121224/142533/1175/6757/10/
027710/20121224/142539/1175/96/10/
027710/20121224/142542/1175/1414/10/
027710/20121224/142544/1175/1000/10/
027710/20121224/142608/1175/1017/10/
027710/20121224/142613/1180/100/20/
027710/20121224/142618/1180/4000/20/
027710/20121224/142637/1180/16014/20/
027710/20121224/142648/1185/100/20/
027710/20121224/142648/1180/23996/10/
027710/20121224/142701/1180/276/20/
027710/20121224/142734/1180/2051/20/
027710/20121224/142744/1180/112/20/
027710/20121224/142756/1180/26604/20/
027710/20121224/142845/1180/2005/10/
027710/20121224/142847/1180/1000/10/
027710/20121224/142853/1180/1000/10/
027710/20121224/142900/1180/1099/10/
027710/20121224/142908/1180/2001/10/
027710/20121224/142927/1180/1494/10/
027710/20121224/142944/1175/863/10/
027710/20121224/143122/1175/1749/10/
027710/20121224/143225/1175/33387/10/
027710/20121224/143238/1170/250/10/
027710/20121224/143239/1175/9502/20/
027710/20121224/143240/1175/10032/20/
027710/20121224/143245/1175/250/20/
027710/20121224/143246/1175/1123/20/
027710/20121224/143259/1175/354/20/
027710/20121224/143306/1175/372/20/
027710/20121224/143308/1175/2397/10/
027710/20121224/143338/1175/144/20/
027710/20121224/143341/1175/925/20/
027710/20121224/143343/1170/401/10/
027710/20121224/143356/1175/1003/20/
027710/20121224/143358/1170/23001/10/
027710/20121224/143359/1175/300/20/
027710/20121224/143402/1170/109/10/
027710/20121224/143421/1175/2114/20/
027710/20121224/143434/1175/472/20/
027710/20121224/143435/1170/800/10/
027710/20121224/143503/1175/1037/20/
027710/20121224/143514/1170/10006/10/
027710/20121224/143532/1170/813/10/
027710/20121224/143534/1170/702/10/
027710/20121224/143556/1170/2523/10/
027710/20121224/143608/1170/421/10/
027710/20121224/143624/1170/108/10/
027710/20121224/143624/1170/100/10/
027710/20121224/143624/1170/100/10/
027710/20121224/143624/1170/100/10/
027710/20121224/143629/1170/104/10/
027710/20121224/143652/1170/3012/10/
027710/20121224/143659/1170/1002/10/
027710/20121224/143709/1170/161/10/
027710/20121224/143729/1170/629/10/
027710/20121224/143740/1170/1004/10/
027710/20121224/143806/1175/321/20/
027710/20121224/143824/1170/3008/10/
027710/20121224/143825/1170/2002/10/
027710/20121224/143831/1170/85/10/
027710/20121224/143835/1170/5000/10/
027710/20121224/143850/1170/566/10/
027710/20121224/143858/1170/3393/10/
027710/20121224/143907/1170/12071/10/
027710/20121224/143912/1170/389/10/
027710/20121224/143922/1170/10022/10/
027710/20121224/143923/1170/2702/10/
027710/20121224/143923/1170/1001/10/
027710/20121224/143924/1170/602/10/
027710/20121224/143924/1170/12612/10/
027710/20121224/143925/1165/14265/10/
027710/20121224/143925/1170/3000/20/
027710/20121224/143926/1165/796/10/
027710/20121224/143931/1170/579/20/
027710/20121224/143931/1170/16485/20/
027710/20121224/143942/1170/937/10/
027710/20121224/143947/1170/459/10/
027710/20121224/143949/1170/117/10/
027710/20121224/143953/1170/7046/10/
027710/20121224/144006/1170/5033/20/
027710/20121224/144007/1170/203/20/
027710/20121224/144013/1170/210/20/
027710/20121224/144014/1170/153/20/
027710/20121224/144016/1170/213/20/
027710/20121224/144018/1170/3219/20/
027710/20121224/144100/1175/346/20/
027710/20121224/144100/1175/5000/20/
027710/20121224/144101/1170/1500/10/
027710/20121224/144110/1175/201/20/
027710/20121224/144116/1175/1001/20/
027710/20121224/144130/1175/301/20/
027710/20121224/144213/1170/500/10/
027710/20121224/144215/1175/100/20/
027710/20121224/144257/1170/10022/10/
027710/20121224/144301/1175/500/20/
027710/20121224/144304/1170/733/10/
027710/20121224/144323/1175/1007/20/
027710/20121224/144324/1175/100/20/
027710/20121224/144340/1170/2003/10/
027710/20121224/144342/1170/6000/10/
027710/20121224/144345/1170/1407/10/
027710/20121224/144407/1175/97/20/
027710/20121224/144428/1170/2020/10/
027710/20121224/144442/1175/4905/20/
027710/20121224/144501/1175/1000/20/
027710/20121224/144506/1175/10000/20/
027710/20121224/144507/1175/2823/20/
027710/20121224/144508/1175/1054/20/
027710/20121224/144518/1175/3946/10/
027710/20121224/144533/1175/101/20/
027710/20121224/144559/1170/31005/10/
027710/20121224/144624/1170/15010/10/
027710/20121224/144626/1170/801/10/
027710/20121224/144629/1175/124/20/
027710/20121224/144634/1170/3206/10/
027710/20121224/144642/1170/3028/10/
027710/20121224/144646/1170/6333/10/
027710/20121224/144701/1170/5438/20/
027710/20121224/144712/1170/1002/10/
027710/20121224/144721/1170/2022/10/
027710/20121224/144738/1175/2046/20/
027710/20121224/144754/1175/101/20/
027710/20121224/144824/1170/323/10/
027710/20121224/144837/1170/2004/10/
027710/20121224/144848/1170/2005/10/
027710/20121224/144851/1170/300/10/
027710/20121224/144921/1170/1003/10/
027710/20121224/144922/1170/200/10/
027710/20121224/144924/1170/553/10/
027710/20121224/144941/1170/1000/10/
027710/20121224/144947/1175/6941/20/
027710/20121224/144949/1175/2001/20/
027710/20121224/144952/1175/13912/20/
027710/20121224/144955/1175/5579/10/
027710/20121224/144957/1175/30510/10/
027710/20121224/150000/1175/244988/10/
