027710/20130308/90000/1130/1009/20/
027710/20130308/90040/1130/100/20/
027710/20130308/90253/1125/199/10/
027710/20130308/90506/1120/225/10/
027710/20130308/90527/1120/500/10/
027710/20130308/90558/1120/200/10/
027710/20130308/90818/1125/111/20/
027710/20130308/90836/1125/2662/20/
027710/20130308/90847/1120/100/10/
027710/20130308/91038/1120/1874/10/
027710/20130308/91237/1120/15000/10/
027710/20130308/91246/1120/739/10/
027710/20130308/91306/1120/103/20/
027710/20130308/91459/1115/801/10/
027710/20130308/91551/1115/2796/10/
027710/20130308/91754/1115/2852/10/
027710/20130308/91849/1115/1000/10/
027710/20130308/91940/1115/1430/10/
027710/20130308/92124/1115/1420/10/
027710/20130308/92658/1115/599/10/
027710/20130308/92917/1115/1689/10/
027710/20130308/93052/1115/255/10/
027710/20130308/93117/1115/2000/10/
027710/20130308/93235/1115/2546/10/
027710/20130308/93245/1110/185/10/
027710/20130308/93304/1115/454/20/
027710/20130308/93344/1115/100/10/
027710/20130308/93349/1115/1000/10/
027710/20130308/93603/1115/1643/10/
027710/20130308/93626/1115/82/20/
027710/20130308/93641/1110/15023/10/
027710/20130308/93648/1110/439/10/
027710/20130308/93728/1110/109/10/
027710/20130308/93735/1110/101/10/
027710/20130308/93757/1110/1206/10/
027710/20130308/93859/1110/1002/10/
027710/20130308/93909/1110/5444/10/
027710/20130308/93912/1110/146/10/
027710/20130308/93923/1110/8749/10/
027710/20130308/93956/1115/204/20/
027710/20130308/94037/1110/2993/10/
027710/20130308/94047/1110/746/10/
027710/20130308/94058/1110/10006/10/
027710/20130308/94237/1110/1983/10/
027710/20130308/94255/1105/31283/10/
027710/20130308/94302/1110/359/20/
027710/20130308/94356/1110/760/10/
027710/20130308/94356/1105/9313/10/
027710/20130308/94453/1110/81/20/
027710/20130308/94530/1110/1810/20/
027710/20130308/94541/1110/577/20/
027710/20130308/94554/1110/1000/20/
027710/20130308/94559/1110/2411/20/
027710/20130308/94619/1110/603/10/
027710/20130308/94715/1110/1033/10/
027710/20130308/94725/1110/275/10/
027710/20130308/94828/1110/3243/20/
027710/20130308/94844/1110/99/10/
027710/20130308/94845/1110/1701/10/
027710/20130308/94845/1110/299/20/
027710/20130308/94850/1110/2002/10/
027710/20130308/94856/1110/639/10/
027710/20130308/94912/1110/1001/20/
027710/20130308/94955/1110/201/20/
027710/20130308/95018/1105/151/10/
027710/20130308/95201/1110/1810/20/
027710/20130308/95235/1105/9011/10/
027710/20130308/95239/1105/4001/10/
027710/20130308/95248/1105/3347/10/
027710/20130308/95337/1105/88/10/
027710/20130308/95412/1105/4393/10/
027710/20130308/95437/1110/102/20/
027710/20130308/95532/1105/3076/10/
027710/20130308/95614/1110/1017/20/
027710/20130308/95644/1110/5005/20/
027710/20130308/95700/1110/1025/20/
027710/20130308/95707/1110/502/20/
027710/20130308/95708/1110/277/20/
027710/20130308/95859/1110/6702/10/
027710/20130308/95925/1110/213/10/
027710/20130308/100004/1110/4004/10/
027710/20130308/100108/1110/3010/10/
027710/20130308/100242/1110/1010/10/
027710/20130308/100341/1110/447/10/
027710/20130308/100821/1110/460/10/
027710/20130308/100832/1110/1994/10/
027710/20130308/100838/1110/451/10/
027710/20130308/101000/1110/3001/10/
027710/20130308/101325/1110/85/10/
027710/20130308/101430/1110/93/10/
027710/20130308/101459/1115/201/20/
027710/20130308/101822/1110/3796/10/
027710/20130308/102021/1110/1200/10/
027710/20130308/102101/1110/601/10/
027710/20130308/102243/1110/301/10/
027710/20130308/102307/1115/151/20/
027710/20130308/102330/1115/200/20/
027710/20130308/102444/1115/159/20/
027710/20130308/102524/1110/3557/10/
027710/20130308/102607/1110/2347/10/
027710/20130308/102628/1115/501/20/
027710/20130308/102834/1115/500/20/
027710/20130308/102940/1110/2000/10/
027710/20130308/103307/1110/106/10/
027710/20130308/103901/1110/3699/10/
027710/20130308/103919/1110/590/10/
027710/20130308/104236/1110/101/10/
027710/20130308/104848/1110/3022/10/
027710/20130308/104939/1110/1000/10/
027710/20130308/105052/1110/2001/10/
027710/20130308/105313/1115/4459/20/
027710/20130308/105556/1115/148/20/
027710/20130308/105613/1115/101/20/
027710/20130308/105620/1115/100/20/
027710/20130308/105629/1115/100/20/
027710/20130308/105636/1115/100/20/
027710/20130308/105729/1115/100/20/
027710/20130308/110314/1115/5037/20/
027710/20130308/110402/1115/559/20/
027710/20130308/110444/1115/212/20/
027710/20130308/110456/1115/500/20/
027710/20130308/110722/1115/1020/20/
027710/20130308/110726/1115/1500/20/
027710/20130308/110823/1110/100/10/
027710/20130308/110831/1115/400/20/
027710/20130308/110849/1115/2000/20/
027710/20130308/110855/1115/1000/20/
027710/20130308/110909/1115/868/20/
027710/20130308/110920/1115/100/10/
027710/20130308/111155/1115/100/20/
027710/20130308/111220/1115/100/20/
027710/20130308/111241/1115/101/20/
027710/20130308/111748/1115/1077/20/
027710/20130308/111836/1115/2022/20/
027710/20130308/112606/1115/568/10/
027710/20130308/112622/1115/203/10/
027710/20130308/112638/1120/103/20/
027710/20130308/112936/1120/2015/20/
027710/20130308/113258/1120/20426/20/
027710/20130308/113258/1125/5038/20/
027710/20130308/113342/1125/300/20/
027710/20130308/113431/1125/100/20/
027710/20130308/113856/1120/116/10/
027710/20130308/114019/1120/6001/10/
027710/20130308/114121/1120/501/10/
027710/20130308/114349/1125/13873/20/
027710/20130308/114355/1125/5106/10/
027710/20130308/114623/1125/548/10/
027710/20130308/114732/1125/504/20/
027710/20130308/115746/1120/5258/10/
027710/20130308/115903/1120/364/20/
027710/20130308/120054/1125/1076/20/
027710/20130308/120312/1125/285/20/
027710/20130308/120521/1120/7029/10/
027710/20130308/120715/1120/895/20/
027710/20130308/120715/1120/2108/20/
027710/20130308/121033/1120/112/20/
027710/20130308/121255/1120/202/20/
027710/20130308/121850/1120/1211/10/
027710/20130308/121949/1120/500/10/
027710/20130308/122443/1120/1049/10/
027710/20130308/122818/1115/11022/10/
027710/20130308/123537/1115/204/10/
027710/20130308/123753/1115/308/10/
027710/20130308/124341/1115/85/10/
027710/20130308/125028/1115/129/10/
027710/20130308/125356/1120/475/20/
027710/20130308/125758/1120/310/20/
027710/20130308/125909/1115/82/10/
027710/20130308/130346/1120/368/20/
027710/20130308/131159/1115/251/10/
027710/20130308/131223/1115/983/10/
027710/20130308/132128/1115/5020/10/
027710/20130308/132316/1120/10000/20/
027710/20130308/132756/1115/5003/10/
027710/20130308/133516/1120/11771/20/
027710/20130308/133757/1120/10071/10/
027710/20130308/133802/1120/3723/10/
027710/20130308/134603/1120/1001/20/
027710/20130308/134719/1115/132/10/
027710/20130308/134930/1115/208/10/
027710/20130308/134957/1120/1500/20/
027710/20130308/135012/1120/150/20/
027710/20130308/135042/1115/1036/10/
027710/20130308/135801/1120/1313/20/
027710/20130308/135811/1120/260/20/
027710/20130308/135824/1120/120/20/
027710/20130308/135831/1120/1000/20/
027710/20130308/140203/1120/730/20/
027710/20130308/140434/1120/650/20/
027710/20130308/140437/1115/130/10/
027710/20130308/140440/1120/220/20/
027710/20130308/140505/1120/919/20/
027710/20130308/140744/1120/1306/20/
027710/20130308/140841/1120/112/20/
027710/20130308/141036/1120/1480/20/
027710/20130308/141128/1120/2000/10/
027710/20130308/141311/1120/860/10/
027710/20130308/141359/1120/101/20/
027710/20130308/141636/1120/2062/10/
027710/20130308/142423/1120/2408/10/
027710/20130308/142550/1115/5001/10/
027710/20130308/142810/1120/1144/20/
027710/20130308/142844/1125/1974/20/
027710/20130308/143207/1125/793/20/
027710/20130308/143241/1125/90/20/
027710/20130308/143348/1125/500/20/
027710/20130308/143552/1125/900/20/
027710/20130308/143701/1125/110/20/
027710/20130308/143714/1125/100/20/
027710/20130308/143743/1120/8917/10/
027710/20130308/143755/1125/300/20/
027710/20130308/143836/1125/104/20/
027710/20130308/143950/1120/373/10/
027710/20130308/144126/1120/569/10/
027710/20130308/144359/1120/1542/10/
027710/20130308/144406/1120/458/20/
027710/20130308/144531/1120/800/10/
027710/20130308/144544/1120/408/10/
027710/20130308/144722/1120/331/10/
027710/20130308/144738/1125/3000/20/
027710/20130308/150000/1120/18775/10/
