027710/20130319/90000/1155/4046/10/
027710/20130319/90015/1160/1015/20/
027710/20130319/90022/1155/2011/10/
027710/20130319/90029/1155/1008/10/
027710/20130319/90032/1155/200/10/
027710/20130319/90050/1160/2860/20/
027710/20130319/90123/1160/526/10/
027710/20130319/90144/1165/2017/20/
027710/20130319/90211/1165/186/20/
027710/20130319/90212/1165/100/10/
027710/20130319/90239/1165/1821/10/
027710/20130319/90303/1165/519/10/
027710/20130319/90311/1165/3287/10/
027710/20130319/90334/1165/1000/20/
027710/20130319/90406/1165/260/20/
027710/20130319/90423/1165/1000/20/
027710/20130319/90434/1165/1161/20/
027710/20130319/90445/1165/5000/20/
027710/20130319/90455/1165/542/20/
027710/20130319/90459/1165/333/20/
027710/20130319/90511/1165/1383/10/
027710/20130319/90521/1165/2080/20/
027710/20130319/90536/1160/14207/10/
027710/20130319/90542/1160/1870/10/
027710/20130319/90555/1160/353/10/
027710/20130319/90623/1160/5000/10/
027710/20130319/90645/1160/1321/10/
027710/20130319/90701/1160/1085/20/
027710/20130319/90717/1160/598/20/
027710/20130319/90722/1160/1402/10/
027710/20130319/90733/1160/710/20/
027710/20130319/90751/1160/689/20/
027710/20130319/90853/1160/95/10/
027710/20130319/91113/1160/520/10/
027710/20130319/91252/1165/520/20/
027710/20130319/91414/1160/1000/10/
027710/20130319/91447/1160/2000/10/
027710/20130319/91458/1160/2000/10/
027710/20130319/91510/1160/100/10/
027710/20130319/91526/1160/6538/10/
027710/20130319/91547/1155/401/10/
027710/20130319/91636/1155/1000/10/
027710/20130319/91707/1155/800/10/
027710/20130319/91749/1155/511/10/
027710/20130319/91839/1160/600/20/
027710/20130319/91936/1155/151/10/
027710/20130319/91951/1155/1000/10/
027710/20130319/92002/1155/13769/10/
027710/20130319/92004/1150/1588/10/
027710/20130319/92033/1150/15000/10/
027710/20130319/92033/1150/6264/10/
027710/20130319/92046/1155/1056/20/
027710/20130319/92055/1155/1010/20/
027710/20130319/92104/1155/1071/20/
027710/20130319/92121/1150/501/10/
027710/20130319/92128/1150/260/10/
027710/20130319/92144/1155/444/20/
027710/20130319/92205/1150/1551/10/
027710/20130319/92207/1155/5016/20/
027710/20130319/92221/1155/149/20/
027710/20130319/92222/1155/90/20/
027710/20130319/92235/1155/5001/20/
027710/20130319/92236/1155/10000/20/
027710/20130319/92237/1155/55446/20/
027710/20130319/92300/1160/2042/20/
027710/20130319/92321/1160/1018/20/
027710/20130319/92408/1155/81/10/
027710/20130319/92415/1160/5028/20/
027710/20130319/92419/1160/193/20/
027710/20130319/92420/1165/458/20/
027710/20130319/92424/1160/1012/10/
027710/20130319/92442/1165/81/20/
027710/20130319/92454/1160/81/10/
027710/20130319/92505/1165/86/20/
027710/20130319/92509/1165/82/20/
027710/20130319/92509/1165/850/20/
027710/20130319/92512/1165/81/20/
027710/20130319/92515/1165/81/20/
027710/20130319/92518/1165/81/20/
027710/20130319/92519/1165/1012/20/
027710/20130319/92522/1165/83/20/
027710/20130319/92522/1165/1511/20/
027710/20130319/92523/1165/37015/20/
027710/20130319/92523/1170/2260/20/
027710/20130319/92525/1165/3047/10/
027710/20130319/92528/1170/83/20/
027710/20130319/92529/1170/88/20/
027710/20130319/92530/1165/234/10/
027710/20130319/92533/1170/90/20/
027710/20130319/92534/1170/1734/20/
027710/20130319/92536/1170/91/20/
027710/20130319/92538/1170/5035/20/
027710/20130319/92539/1170/2036/20/
027710/20130319/92540/1170/1011/20/
027710/20130319/92540/1170/212/20/
027710/20130319/92540/1170/1011/20/
027710/20130319/92541/1170/1061/20/
027710/20130319/92544/1170/559/20/
027710/20130319/92545/1170/135/20/
027710/20130319/92548/1170/82/20/
027710/20130319/92548/1170/300/20/
027710/20130319/92549/1170/454/20/
027710/20130319/92551/1170/570/20/
027710/20130319/92554/1170/82/20/
027710/20130319/92557/1170/82/20/
027710/20130319/92559/1170/522/20/
027710/20130319/92559/1170/4000/20/
027710/20130319/92559/1170/1000/20/
027710/20130319/92600/1170/272/20/
027710/20130319/92600/1170/10017/20/
027710/20130319/92602/1170/366/20/
027710/20130319/92602/1170/233/20/
027710/20130319/92602/1170/1000/20/
027710/20130319/92602/1170/3632/20/
027710/20130319/92603/1170/500/20/
027710/20130319/92603/1170/302/20/
027710/20130319/92603/1170/2013/20/
027710/20130319/92603/1170/502/20/
027710/20130319/92604/1170/1720/20/
027710/20130319/92604/1170/5000/20/
027710/20130319/92604/1170/6222/20/
027710/20130319/92604/1175/3024/20/
027710/20130319/92606/1170/13701/10/
027710/20130319/92607/1170/896/20/
027710/20130319/92610/1170/500/20/
027710/20130319/92610/1170/2899/20/
027710/20130319/92611/1170/1000/20/
027710/20130319/92611/1170/500/20/
027710/20130319/92611/1170/1317/20/
027710/20130319/92612/1170/9222/20/
027710/20130319/92612/1175/534/20/
027710/20130319/92614/1170/1745/10/
027710/20130319/92621/1170/15943/10/
027710/20130319/92623/1170/5000/20/
027710/20130319/92624/1170/1000/20/
027710/20130319/92627/1170/500/20/
027710/20130319/92628/1170/1000/20/
027710/20130319/92628/1170/500/20/
027710/20130319/92630/1170/4114/20/
027710/20130319/92632/1170/1000/20/
027710/20130319/92633/1170/1000/20/
027710/20130319/92633/1170/471/20/
027710/20130319/92643/1170/12574/10/
027710/20130319/92646/1170/400/20/
027710/20130319/92647/1170/100/20/
027710/20130319/92653/1170/1000/20/
027710/20130319/92703/1170/1000/20/
027710/20130319/92707/1170/1000/20/
027710/20130319/92708/1170/1000/20/
027710/20130319/92710/1170/6849/20/
027710/20130319/92712/1170/136/20/
027710/20130319/92712/1170/7041/20/
027710/20130319/92716/1170/1000/20/
027710/20130319/92720/1170/1000/20/
027710/20130319/92735/1170/1000/20/
027710/20130319/92748/1165/86/10/
027710/20130319/92751/1170/17094/20/
027710/20130319/92752/1170/5691/20/
027710/20130319/92758/1170/1000/20/
027710/20130319/92758/1170/2000/20/
027710/20130319/92800/1170/680/20/
027710/20130319/92801/1170/587/20/
027710/20130319/92803/1170/713/10/
027710/20130319/92807/1170/1008/20/
027710/20130319/92808/1170/2001/20/
027710/20130319/92810/1170/3000/20/
027710/20130319/92811/1170/2478/20/
027710/20130319/92811/1170/100/20/
027710/20130319/92813/1170/100/20/
027710/20130319/92831/1170/2010/20/
027710/20130319/92840/1170/100/20/
027710/20130319/92841/1170/500/20/
027710/20130319/92959/1165/6887/10/
027710/20130319/93003/1165/500/10/
027710/20130319/93004/1165/5000/10/
027710/20130319/93006/1165/5001/10/
027710/20130319/93007/1165/925/10/
027710/20130319/93013/1165/2211/10/
027710/20130319/93024/1160/668/10/
027710/20130319/93036/1160/33349/10/
027710/20130319/93038/1160/1004/20/
027710/20130319/93047/1160/4006/20/
027710/20130319/93049/1160/10001/20/
027710/20130319/93049/1160/200/20/
027710/20130319/93049/1160/1443/20/
027710/20130319/93050/1165/1000/20/
027710/20130319/93053/1165/1716/20/
027710/20130319/93133/1160/8073/10/
027710/20130319/93136/1160/1000/20/
027710/20130319/93155/1160/720/20/
027710/20130319/93158/1160/7749/20/
027710/20130319/93200/1160/740/20/
027710/20130319/93201/1160/1742/20/
027710/20130319/93203/1160/2010/20/
027710/20130319/93349/1160/9836/10/
027710/20130319/93400/1160/91/20/
027710/20130319/93411/1160/532/20/
027710/20130319/93416/1160/103/20/
027710/20130319/93419/1160/1000/20/
027710/20130319/93423/1160/2215/20/
027710/20130319/93423/1160/1354/20/
027710/20130319/93448/1165/309/20/
027710/20130319/93726/1160/501/10/
027710/20130319/93729/1160/5000/10/
027710/20130319/93830/1160/10783/10/
027710/20130319/93833/1160/9219/20/
027710/20130319/93847/1160/1770/10/
027710/20130319/93852/1155/101/10/
027710/20130319/93854/1160/3500/20/
027710/20130319/93928/1155/114/10/
027710/20130319/93946/1155/1000/10/
027710/20130319/94016/1155/1001/10/
027710/20130319/94036/1155/11269/10/
027710/20130319/94051/1155/1020/10/
027710/20130319/94057/1155/1001/10/
027710/20130319/94114/1155/538/10/
027710/20130319/94208/1155/2013/10/
027710/20130319/94353/1155/683/10/
027710/20130319/94444/1155/202/10/
027710/20130319/94451/1155/100/10/
027710/20130319/94553/1155/535/10/
027710/20130319/94644/1160/1000/20/
027710/20130319/94657/1160/8300/20/
027710/20130319/94659/1160/5843/20/
027710/20130319/94704/1160/5835/20/
027710/20130319/94705/1165/250/20/
027710/20130319/94739/1165/530/20/
027710/20130319/95118/1160/1204/10/
027710/20130319/95122/1165/634/20/
027710/20130319/95137/1165/100/20/
027710/20130319/95151/1165/300/20/
027710/20130319/95226/1165/215/20/
027710/20130319/95333/1165/220/20/
027710/20130319/95338/1165/224/20/
027710/20130319/95406/1165/200/20/
027710/20130319/95439/1165/180/20/
027710/20130319/95651/1165/3000/20/
027710/20130319/95700/1165/2500/20/
027710/20130319/95731/1165/1935/20/
027710/20130319/95732/1165/700/20/
027710/20130319/95821/1165/910/20/
027710/20130319/95839/1165/2903/20/
027710/20130319/95846/1165/97/10/
027710/20130319/95854/1165/2835/20/
027710/20130319/95914/1165/2000/20/
027710/20130319/95931/1165/83/10/
027710/20130319/95934/1165/919/10/
027710/20130319/95947/1165/518/20/
027710/20130319/100041/1160/629/10/
027710/20130319/100150/1165/2000/20/
027710/20130319/100202/1165/81/20/
027710/20130319/100204/1160/1005/10/
027710/20130319/100251/1165/1010/20/
027710/20130319/100302/1165/1000/20/
027710/20130319/100611/1165/574/20/
027710/20130319/100744/1165/800/20/
027710/20130319/100749/1165/2408/20/
027710/20130319/100812/1165/100/20/
027710/20130319/100858/1165/1010/20/
027710/20130319/101226/1160/1010/10/
027710/20130319/101353/1165/81/20/
027710/20130319/101419/1160/156/10/
027710/20130319/101435/1160/81/10/
027710/20130319/101447/1165/1069/20/
027710/20130319/101448/1165/1310/20/
027710/20130319/101452/1165/328/20/
027710/20130319/101459/1165/5541/20/
027710/20130319/101500/1165/104/20/
027710/20130319/101503/1165/118/20/
027710/20130319/101503/1165/4002/20/
027710/20130319/101504/1165/2793/20/
027710/20130319/101504/1165/1002/20/
027710/20130319/101508/1165/220/20/
027710/20130319/101508/1165/600/20/
027710/20130319/101511/1165/300/20/
027710/20130319/101516/1165/416/20/
027710/20130319/101516/1165/893/20/
027710/20130319/101619/1165/519/10/
027710/20130319/101621/1165/1318/10/
027710/20130319/101634/1165/500/20/
027710/20130319/101636/1165/400/20/
027710/20130319/101703/1165/500/20/
027710/20130319/101841/1165/100/20/
027710/20130319/101851/1165/500/20/
027710/20130319/101917/1165/3800/20/
027710/20130319/101924/1165/500/20/
027710/20130319/102105/1165/400/20/
027710/20130319/102242/1165/1440/20/
027710/20130319/102323/1165/2011/20/
027710/20130319/102512/1165/2782/20/
027710/20130319/102627/1160/400/10/
027710/20130319/102638/1165/207/20/
027710/20130319/102949/1165/226/10/
027710/20130319/103125/1170/714/20/
027710/20130319/103209/1170/2000/20/
027710/20130319/103236/1170/400/20/
027710/20130319/103243/1170/500/20/
027710/20130319/103257/1165/125/10/
027710/20130319/103734/1165/1001/10/
027710/20130319/103849/1170/471/20/
027710/20130319/104226/1165/136/10/
027710/20130319/104246/1165/149/10/
027710/20130319/104536/1170/1201/20/
027710/20130319/104541/1170/600/20/
027710/20130319/104554/1170/200/20/
027710/20130319/104630/1170/1000/20/
027710/20130319/104633/1170/100/20/
027710/20130319/104728/1170/500/20/
027710/20130319/104902/1170/5000/20/
027710/20130319/105003/1165/3009/10/
027710/20130319/105151/1165/1294/10/
027710/20130319/105237/1165/1002/10/
027710/20130319/105442/1170/910/20/
027710/20130319/105721/1165/510/10/
027710/20130319/105734/1165/800/10/
027710/20130319/110219/1170/2149/20/
027710/20130319/110257/1170/358/20/
027710/20130319/110620/1170/10001/20/
027710/20130319/110625/1170/2000/20/
027710/20130319/110646/1170/501/20/
027710/20130319/110737/1170/1011/20/
027710/20130319/110746/1170/212/20/
027710/20130319/110817/1170/760/20/
027710/20130319/110841/1165/303/10/
027710/20130319/110901/1170/2000/20/
027710/20130319/111055/1170/3022/20/
027710/20130319/111147/1170/505/20/
027710/20130319/111317/1165/1300/10/
027710/20130319/111510/1170/6748/20/
027710/20130319/112200/1170/116/10/
027710/20130319/112203/1175/170/20/
027710/20130319/112441/1175/100/20/
027710/20130319/112654/1170/2004/10/
027710/20130319/112712/1170/2637/10/
027710/20130319/112813/1170/2002/10/
027710/20130319/113124/1175/172/20/
027710/20130319/113246/1170/7000/10/
027710/20130319/113254/1170/300/10/
027710/20130319/113305/1170/15849/10/
027710/20130319/113314/1170/1054/10/
027710/20130319/113314/1170/500/10/
027710/20130319/113317/1170/500/10/
027710/20130319/113321/1170/700/10/
027710/20130319/113327/1170/834/10/
027710/20130319/113441/1165/601/10/
027710/20130319/113520/1170/942/20/
027710/20130319/113653/1165/402/10/
027710/20130319/113932/1165/426/10/
027710/20130319/113933/1165/2048/10/
027710/20130319/114122/1170/202/20/
027710/20130319/114428/1170/101/20/
027710/20130319/114444/1170/91/20/
027710/20130319/114450/1170/105/20/
027710/20130319/114604/1170/152/20/
027710/20130319/114629/1170/120/20/
027710/20130319/114630/1165/1000/10/
027710/20130319/114635/1170/450/20/
027710/20130319/114702/1165/2034/10/
027710/20130319/114909/1165/16815/10/
027710/20130319/114921/1165/3296/20/
027710/20130319/115118/1165/2007/10/
027710/20130319/115445/1165/1004/10/
027710/20130319/115521/1165/542/10/
027710/20130319/115757/1165/600/10/
027710/20130319/120143/1165/3001/10/
027710/20130319/120247/1165/705/10/
027710/20130319/120633/1165/483/20/
027710/20130319/120640/1165/826/20/
027710/20130319/120716/1165/340/10/
027710/20130319/121335/1165/5228/20/
027710/20130319/121351/1160/300/10/
027710/20130319/121502/1160/600/10/
027710/20130319/122210/1165/1801/10/
027710/20130319/122538/1170/201/20/
027710/20130319/123133/1170/427/20/
027710/20130319/124039/1165/130/10/
027710/20130319/124442/1170/429/20/
027710/20130319/124721/1165/5020/10/
027710/20130319/124804/1165/352/10/
027710/20130319/124806/1165/148/20/
027710/20130319/125001/1165/245/10/
027710/20130319/125128/1170/315/20/
027710/20130319/125144/1170/10000/20/
027710/20130319/125400/1170/504/20/
027710/20130319/125404/1170/800/20/
027710/20130319/130630/1170/389/20/
027710/20130319/130831/1165/2000/10/
027710/20130319/130948/1165/1000/10/
027710/20130319/130957/1165/5000/10/
027710/20130319/131129/1165/10861/10/
027710/20130319/131222/1165/3633/10/
027710/20130319/131327/1165/501/10/
027710/20130319/131607/1165/1101/10/
027710/20130319/131634/1165/358/10/
027710/20130319/131634/1160/18642/10/
027710/20130319/131758/1165/516/20/
027710/20130319/131833/1165/500/20/
027710/20130319/131854/1160/1107/10/
027710/20130319/131914/1165/977/20/
027710/20130319/132011/1165/2411/20/
027710/20130319/132029/1165/1001/10/
027710/20130319/132233/1165/2010/10/
027710/20130319/132509/1165/4313/10/
027710/20130319/132523/1165/233/10/
027710/20130319/133156/1165/10519/10/
027710/20130319/133405/1170/99/20/
027710/20130319/133422/1165/500/10/
027710/20130319/133433/1165/2000/10/
027710/20130319/133510/1165/416/10/
027710/20130319/134402/1165/4354/10/
027710/20130319/134421/1165/5503/10/
027710/20130319/134439/1165/5520/10/
027710/20130319/134443/1165/540/10/
027710/20130319/134520/1165/241/10/
027710/20130319/134542/1165/81/10/
027710/20130319/134546/1170/8755/20/
027710/20130319/134546/1170/991/10/
027710/20130319/134548/1175/86/20/
027710/20130319/134551/1175/83/20/
027710/20130319/134554/1175/87/20/
027710/20130319/134557/1175/90/20/
027710/20130319/134559/1165/81/10/
027710/20130319/134601/1175/84/20/
027710/20130319/134604/1175/86/20/
027710/20130319/134607/1175/81/20/
027710/20130319/134609/1175/87/20/
027710/20130319/134612/1175/89/20/
027710/20130319/134615/1175/82/20/
027710/20130319/134617/1175/83/20/
027710/20130319/134619/1170/301/10/
027710/20130319/134620/1170/114/20/
027710/20130319/134623/1170/88/20/
027710/20130319/134625/1170/1062/20/
027710/20130319/134626/1170/514/20/
027710/20130319/134629/1175/90/20/
027710/20130319/134632/1175/81/20/
027710/20130319/134635/1175/81/20/
027710/20130319/134638/1175/86/20/
027710/20130319/134641/1175/84/20/
027710/20130319/134643/1175/156/20/
027710/20130319/134647/1170/81/10/
027710/20130319/134649/1175/2114/20/
027710/20130319/134651/1175/988/20/
027710/20130319/134654/1175/90/20/
027710/20130319/134658/1175/81/20/
027710/20130319/134701/1175/90/20/
027710/20130319/134704/1175/81/20/
027710/20130319/134707/1175/85/20/
027710/20130319/134710/1170/81/10/
027710/20130319/134713/1175/87/20/
027710/20130319/134717/1175/81/20/
027710/20130319/134719/1175/4046/20/
027710/20130319/134720/1175/13522/20/
027710/20130319/134721/1175/1107/20/
027710/20130319/134722/1175/1014/20/
027710/20130319/134722/1175/112/20/
027710/20130319/134722/1175/2770/20/
027710/20130319/134723/1175/514/20/
027710/20130319/134724/1175/297/20/
027710/20130319/134725/1175/4025/20/
027710/20130319/134728/1175/84/20/
027710/20130319/134732/1175/81/20/
027710/20130319/134734/1175/7650/20/
027710/20130319/134735/1175/1017/20/
027710/20130319/134735/1175/5754/20/
027710/20130319/134735/1175/2172/20/
027710/20130319/134736/1175/1025/20/
027710/20130319/134739/1175/86/20/
027710/20130319/134740/1175/85/20/
027710/20130319/134742/1175/1054/20/
027710/20130319/134744/1175/87/20/
027710/20130319/134745/1175/1017/20/
027710/20130319/134747/1175/2057/20/
027710/20130319/134748/1175/2559/20/
027710/20130319/134749/1175/1085/20/
027710/20130319/134750/1175/5974/20/
027710/20130319/134750/1175/327/20/
027710/20130319/134750/1175/100/20/
027710/20130319/134751/1175/5017/20/
027710/20130319/134752/1175/1702/20/
027710/20130319/134752/1175/514/20/
027710/20130319/134753/1175/2665/20/
027710/20130319/134754/1175/1758/20/
027710/20130319/134754/1175/1000/10/
027710/20130319/134756/1180/81/20/
027710/20130319/134759/1180/85/20/
027710/20130319/134802/1175/81/10/
027710/20130319/134805/1180/87/20/
027710/20130319/134809/1180/81/20/
027710/20130319/134809/1175/5269/10/
027710/20130319/134810/1175/1015/20/
027710/20130319/134810/1175/113/20/
027710/20130319/134812/1175/224/20/
027710/20130319/134815/1175/81/20/
027710/20130319/134818/1170/81/10/
027710/20130319/134818/1175/1487/20/
027710/20130319/134822/1170/81/10/
027710/20130319/134825/1175/84/20/
027710/20130319/134825/1175/503/20/
027710/20130319/134829/1170/81/10/
027710/20130319/134831/1175/1066/20/
027710/20130319/134835/1175/81/20/
027710/20130319/134838/1175/81/20/
027710/20130319/134841/1175/2860/20/
027710/20130319/134841/1175/100/20/
027710/20130319/134845/1170/81/10/
027710/20130319/134848/1175/90/20/
027710/20130319/134849/1175/1002/20/
027710/20130319/134852/1170/81/10/
027710/20130319/134856/1170/81/10/
027710/20130319/134900/1175/81/20/
027710/20130319/134901/1175/8024/20/
027710/20130319/134902/1175/2027/20/
027710/20130319/134903/1175/339/20/
027710/20130319/134904/1175/3026/20/
027710/20130319/134906/1175/4365/20/
027710/20130319/134908/1175/1545/20/
027710/20130319/134909/1175/3596/10/
027710/20130319/134909/1175/134/20/
027710/20130319/134910/1175/708/20/
027710/20130319/134912/1175/129/20/
027710/20130319/134913/1175/665/20/
027710/20130319/134914/1175/81/20/
027710/20130319/134915/1175/786/20/
027710/20130319/134918/1175/84/20/
027710/20130319/134920/1175/7929/20/
027710/20130319/134921/1180/164/20/
027710/20130319/134923/1180/85/20/
027710/20130319/134926/1175/81/10/
027710/20130319/134929/1180/84/20/
027710/20130319/134931/1180/82/20/
027710/20130319/134934/1175/81/10/
027710/20130319/134937/1180/88/20/
027710/20130319/134938/1175/1513/10/
027710/20130319/134941/1180/89/20/
027710/20130319/134944/1180/89/20/
027710/20130319/134947/1180/113/20/
027710/20130319/134950/1180/87/20/
027710/20130319/134953/1175/81/10/
027710/20130319/134955/1180/489/20/
027710/20130319/134955/1180/3005/20/
027710/20130319/134958/1180/90/20/
027710/20130319/135001/1180/89/20/
027710/20130319/135004/1180/85/20/
027710/20130319/135005/1180/226/20/
027710/20130319/135008/1180/88/20/
027710/20130319/135011/1180/84/20/
027710/20130319/135012/1180/87/20/
027710/20130319/135013/1180/90/20/
027710/20130319/135014/1180/87/20/
027710/20130319/135016/1180/87/20/
027710/20130319/135017/1180/88/20/
027710/20130319/135018/1180/90/20/
027710/20130319/135021/1180/85/20/
027710/20130319/135024/1180/89/20/
027710/20130319/135027/1180/89/20/
027710/20130319/135030/1180/90/20/
027710/20130319/135033/1180/81/20/
027710/20130319/135035/1180/1163/20/
027710/20130319/135038/1175/81/10/
027710/20130319/135042/1180/89/20/
027710/20130319/135045/1175/81/10/
027710/20130319/135048/1175/81/10/
027710/20130319/135051/1180/81/20/
027710/20130319/135054/1180/176/20/
027710/20130319/135055/1180/111/20/
027710/20130319/135055/1180/502/20/
027710/20130319/135055/1180/104/20/
027710/20130319/135056/1180/103/20/
027710/20130319/135059/1180/87/20/
027710/20130319/135102/1180/82/20/
027710/20130319/135105/1180/81/20/
027710/20130319/135109/1180/89/20/
027710/20130319/135112/1175/81/10/
027710/20130319/135115/1180/81/20/
027710/20130319/135118/1180/87/20/
027710/20130319/135122/1180/550/20/
027710/20130319/135125/1175/1541/10/
027710/20130319/135128/1180/90/20/
027710/20130319/135129/1175/10944/10/
027710/20130319/135130/1180/317/20/
027710/20130319/135134/1180/90/20/
027710/20130319/135135/1175/2518/10/
027710/20130319/135136/1175/1025/10/
027710/20130319/135137/1175/336/10/
027710/20130319/135139/1175/369/10/
027710/20130319/135142/1180/89/20/
027710/20130319/135144/1175/2074/10/
027710/20130319/135146/1175/3803/10/
027710/20130319/135150/1175/87/20/
027710/20130319/135152/1175/92/20/
027710/20130319/135155/1175/83/20/
027710/20130319/135158/1175/90/20/
027710/20130319/135202/1175/89/20/
027710/20130319/135202/1175/8882/20/
027710/20130319/135204/1175/2146/10/
027710/20130319/135207/1175/81/20/
027710/20130319/135208/1175/5013/20/
027710/20130319/135209/1175/1036/20/
027710/20130319/135210/1175/876/20/
027710/20130319/135211/1175/212/20/
027710/20130319/135211/1175/1006/20/
027710/20130319/135212/1175/202/20/
027710/20130319/135217/1175/81/20/
027710/20130319/135218/1175/2424/20/
027710/20130319/135220/1175/8784/20/
027710/20130319/135223/1175/1021/10/
027710/20130319/135228/1175/135/10/
027710/20130319/135228/1175/123/10/
027710/20130319/135241/1175/263/20/
027710/20130319/135300/1175/900/20/
027710/20130319/135307/1175/210/20/
027710/20130319/135327/1175/110/20/
027710/20130319/135524/1175/1010/20/
027710/20130319/135531/1175/150/20/
027710/20130319/135540/1175/490/20/
027710/20130319/135556/1175/544/20/
027710/20130319/135601/1175/3354/20/
027710/20130319/135602/1175/1000/20/
027710/20130319/135610/1175/745/20/
027710/20130319/135654/1175/501/20/
027710/20130319/135734/1175/8251/20/
027710/20130319/135854/1175/130/10/
027710/20130319/135915/1175/1000/10/
027710/20130319/135924/1175/500/10/
027710/20130319/135925/1175/295/10/
027710/20130319/140046/1175/105/20/
027710/20130319/140440/1175/125/20/
027710/20130319/140615/1175/1163/20/
027710/20130319/140626/1175/200/10/
027710/20130319/140638/1175/270/10/
027710/20130319/140652/1175/189/10/
027710/20130319/140754/1170/661/10/
027710/20130319/140844/1170/23831/10/
027710/20130319/140851/1170/1000/10/
027710/20130319/140905/1170/1000/10/
027710/20130319/140906/1170/2000/10/
027710/20130319/140924/1170/1707/10/
027710/20130319/140929/1170/343/20/
027710/20130319/141105/1175/4074/20/
027710/20130319/141142/1175/5003/20/
027710/20130319/141318/1175/789/20/
027710/20130319/141359/1175/3065/20/
027710/20130319/141554/1175/221/10/
027710/20130319/141638/1180/2005/20/
027710/20130319/141837/1175/2041/10/
027710/20130319/141921/1175/602/10/
027710/20130319/141946/1175/1000/10/
027710/20130319/141948/1175/2000/10/
027710/20130319/142141/1175/1262/10/
027710/20130319/142212/1175/5003/10/
027710/20130319/142410/1180/10589/20/
027710/20130319/142422/1180/702/20/
027710/20130319/142450/1180/2560/20/
027710/20130319/142541/1180/104/20/
027710/20130319/142546/1180/3000/20/
027710/20130319/142546/1180/10888/20/
027710/20130319/142550/1180/4302/20/
027710/20130319/142625/1185/6502/20/
027710/20130319/142650/1185/210/20/
027710/20130319/142652/1185/500/20/
027710/20130319/142655/1185/705/20/
027710/20130319/142708/1185/711/20/
027710/20130319/142929/1180/2009/10/
027710/20130319/143051/1185/510/20/
027710/20130319/143104/1185/3651/20/
027710/20130319/143107/1185/300/20/
027710/20130319/143128/1185/3000/20/
027710/20130319/143134/1185/1000/20/
027710/20130319/143139/1185/1129/20/
027710/20130319/143146/1185/7500/20/
027710/20130319/143149/1185/555/20/
027710/20130319/143150/1185/1700/20/
027710/20130319/143159/1185/501/20/
027710/20130319/143207/1185/500/20/
027710/20130319/143244/1185/557/20/
027710/20130319/143246/1185/500/20/
027710/20130319/143258/1185/100/20/
027710/20130319/143303/1185/100/20/
027710/20130319/143305/1185/5020/20/
027710/20130319/143305/1185/1020/20/
027710/20130319/143308/1185/240/20/
027710/20130319/143311/1185/327/20/
027710/20130319/143311/1185/1000/20/
027710/20130319/143328/1185/200/20/
027710/20130319/143406/1185/205/20/
027710/20130319/143500/1185/102/20/
027710/20130319/143702/1180/206/10/
027710/20130319/143713/1185/3000/20/
027710/20130319/143818/1185/3740/20/
027710/20130319/143833/1185/210/20/
027710/20130319/143834/1185/1100/20/
027710/20130319/143839/1180/1121/10/
027710/20130319/143854/1180/250/10/
027710/20130319/143908/1185/3000/20/
027710/20130319/143911/1185/587/20/
027710/20130319/143919/1185/6369/20/
027710/20130319/143923/1185/3000/20/
027710/20130319/143931/1185/2510/20/
027710/20130319/143939/1185/5742/10/
027710/20130319/143942/1185/163/10/
027710/20130319/143944/1185/101/10/
027710/20130319/143958/1185/1689/10/
027710/20130319/144001/1185/3333/20/
027710/20130319/144012/1185/2889/10/
027710/20130319/144035/1190/142/20/
027710/20130319/144042/1185/2501/10/
027710/20130319/144045/1185/724/10/
027710/20130319/144055/1185/102/10/
027710/20130319/144107/1185/101/10/
027710/20130319/144118/1185/3005/10/
027710/20130319/144129/1180/101/10/
027710/20130319/144156/1185/356/20/
027710/20130319/144158/1185/1000/20/
027710/20130319/144212/1180/324/10/
027710/20130319/144221/1180/2000/10/
027710/20130319/144242/1185/4216/20/
027710/20130319/144250/1185/4003/20/
027710/20130319/144251/1185/3051/20/
027710/20130319/144253/1185/8001/20/
027710/20130319/144351/1185/4231/20/
027710/20130319/144353/1185/955/20/
027710/20130319/144434/1185/129/10/
027710/20130319/144453/1185/5007/10/
027710/20130319/144504/1190/155/20/
027710/20130319/144556/1185/131/10/
027710/20130319/144600/1185/500/10/
027710/20130319/144605/1185/2000/10/
027710/20130319/144613/1185/150/10/
027710/20130319/144613/1185/2888/10/
027710/20130319/144615/1185/7134/10/
027710/20130319/144717/1180/125/10/
027710/20130319/144728/1185/937/20/
027710/20130319/144827/1180/128/10/
027710/20130319/144853/1180/779/10/
027710/20130319/144855/1185/251/20/
027710/20130319/144857/1180/8300/10/
027710/20130319/144908/1180/103/10/
027710/20130319/144911/1185/3020/20/
027710/20130319/144912/1185/3001/20/
027710/20130319/144927/1185/574/20/
027710/20130319/144932/1185/86/20/
027710/20130319/144936/1185/1701/20/
027710/20130319/144953/1180/1017/10/
027710/20130319/144955/1180/501/10/
027710/20130319/144959/1185/1693/20/
027710/20130319/150000/1185/56468/10/
