027710/20130326/90000/1230/24805/20/
027710/20130326/90001/1225/5000/10/
027710/20130326/90022/1225/1361/10/
027710/20130326/90024/1225/501/10/
027710/20130326/90028/1225/1001/10/
027710/20130326/90033/1230/1001/20/
027710/20130326/90034/1230/928/20/
027710/20130326/90048/1230/5039/20/
027710/20130326/90051/1230/1005/20/
027710/20130326/90053/1225/210/10/
027710/20130326/90057/1230/497/20/
027710/20130326/90059/1230/443/20/
027710/20130326/90108/1230/4065/20/
027710/20130326/90108/1225/120/10/
027710/20130326/90121/1230/107/20/
027710/20130326/90121/1230/1000/20/
027710/20130326/90121/1230/10000/20/
027710/20130326/90124/1230/14252/20/
027710/20130326/90125/1230/83/20/
027710/20130326/90125/1230/5021/20/
027710/20130326/90128/1230/2094/20/
027710/20130326/90129/1235/81/20/
027710/20130326/90134/1235/9159/20/
027710/20130326/90138/1235/5050/20/
027710/20130326/90138/1235/1000/20/
027710/20130326/90141/1230/81/10/
027710/20130326/90153/1230/130/10/
027710/20130326/90205/1230/201/10/
027710/20130326/90206/1230/1020/10/
027710/20130326/90206/1230/1000/10/
027710/20130326/90208/1230/3401/10/
027710/20130326/90209/1230/200/10/
027710/20130326/90209/1230/299/10/
027710/20130326/90211/1230/601/10/
027710/20130326/90219/1230/150/10/
027710/20130326/90219/1230/100/10/
027710/20130326/90221/1230/101/10/
027710/20130326/90223/1230/101/10/
027710/20130326/90226/1235/141/20/
027710/20130326/90227/1235/9768/20/
027710/20130326/90235/1230/312/10/
027710/20130326/90238/1230/189/20/
027710/20130326/90239/1235/1430/20/
027710/20130326/90253/1235/101/20/
027710/20130326/90319/1230/577/10/
027710/20130326/90325/1230/100/10/
027710/20130326/90330/1230/102/10/
027710/20130326/90423/1230/1002/10/
027710/20130326/90438/1230/3000/10/
027710/20130326/90438/1230/4611/10/
027710/20130326/90443/1230/3883/20/
027710/20130326/90447/1230/1000/20/
027710/20130326/90450/1230/656/20/
027710/20130326/90454/1230/100/10/
027710/20130326/90522/1230/1001/10/
027710/20130326/90523/1230/4000/10/
027710/20130326/90535/1230/152/10/
027710/20130326/90545/1230/183/10/
027710/20130326/90606/1230/2000/20/
027710/20130326/90616/1230/1000/20/
027710/20130326/90703/1225/10000/10/
027710/20130326/90717/1225/878/10/
027710/20130326/90733/1230/915/20/
027710/20130326/90740/1230/406/20/
027710/20130326/90840/1225/716/10/
027710/20130326/90842/1225/500/10/
027710/20130326/90848/1225/2800/10/
027710/20130326/90858/1225/2001/10/
027710/20130326/90920/1225/2413/10/
027710/20130326/90931/1225/300/20/
027710/20130326/90944/1225/287/20/
027710/20130326/90954/1230/1000/20/
027710/20130326/91016/1225/4002/10/
027710/20130326/91111/1225/4001/10/
027710/20130326/91236/1225/1362/10/
027710/20130326/91241/1225/3905/10/
027710/20130326/91307/1225/811/10/
027710/20130326/91316/1225/500/20/
027710/20130326/91321/1220/259/10/
027710/20130326/91335/1225/228/20/
027710/20130326/91418/1225/1079/20/
027710/20130326/91447/1225/801/20/
027710/20130326/91450/1225/448/20/
027710/20130326/91500/1225/303/20/
027710/20130326/91505/1225/201/20/
027710/20130326/91514/1225/582/20/
027710/20130326/91757/1225/5002/10/
027710/20130326/91800/1225/489/10/
027710/20130326/91806/1220/118/10/
027710/20130326/92003/1220/92/10/
027710/20130326/92011/1220/12209/10/
027710/20130326/92053/1225/3001/20/
027710/20130326/92100/1225/3956/20/
027710/20130326/92157/1225/321/20/
027710/20130326/92330/1225/1369/20/
027710/20130326/92400/1225/3012/10/
027710/20130326/92424/1230/10001/20/
027710/20130326/92444/1230/20000/20/
027710/20130326/92449/1230/1000/20/
027710/20130326/92513/1230/2860/20/
027710/20130326/92525/1230/1000/20/
027710/20130326/92526/1230/2000/20/
027710/20130326/92616/1230/5001/20/
027710/20130326/92629/1230/6689/20/
027710/20130326/92656/1230/2036/20/
027710/20130326/92700/1230/1000/10/
027710/20130326/92700/1235/452/20/
027710/20130326/92722/1230/149/10/
027710/20130326/92813/1230/404/10/
027710/20130326/92814/1230/3000/10/
027710/20130326/92816/1230/1000/10/
027710/20130326/92840/1230/1763/10/
027710/20130326/92934/1230/251/10/
027710/20130326/92937/1230/5000/10/
027710/20130326/92939/1230/1112/10/
027710/20130326/92941/1230/4328/10/
027710/20130326/92951/1230/6372/20/
027710/20130326/93044/1230/2518/20/
027710/20130326/93049/1230/11115/10/
027710/20130326/93227/1230/1203/10/
027710/20130326/93344/1230/826/10/
027710/20130326/93345/1230/5376/10/
027710/20130326/93356/1230/655/20/
027710/20130326/93422/1230/966/20/
027710/20130326/93822/1225/98/10/
027710/20130326/93829/1225/234/10/
027710/20130326/93842/1225/1001/10/
027710/20130326/93929/1225/5006/10/
027710/20130326/93935/1225/2905/10/
027710/20130326/93957/1220/11295/10/
027710/20130326/94044/1225/7052/20/
027710/20130326/94107/1225/1102/10/
027710/20130326/94113/1225/81/20/
027710/20130326/94313/1225/1537/20/
027710/20130326/94313/1230/1484/20/
027710/20130326/94329/1230/2003/20/
027710/20130326/94338/1230/501/20/
027710/20130326/94346/1230/550/20/
027710/20130326/94546/1225/165/20/
027710/20130326/95052/1220/14318/10/
027710/20130326/95117/1220/10266/10/
027710/20130326/95125/1220/280/10/
027710/20130326/95127/1220/1378/10/
027710/20130326/95139/1220/94/20/
027710/20130326/95220/1220/635/20/
027710/20130326/95233/1220/444/20/
027710/20130326/95259/1220/1528/20/
027710/20130326/95320/1220/826/20/
027710/20130326/95339/1220/1249/20/
027710/20130326/95344/1220/1550/20/
027710/20130326/95358/1220/1450/10/
027710/20130326/95645/1220/330/20/
027710/20130326/95714/1220/101/20/
027710/20130326/95728/1220/1000/20/
027710/20130326/95746/1220/1000/20/
027710/20130326/95800/1220/500/20/
027710/20130326/95802/1220/1000/20/
027710/20130326/95820/1220/302/20/
027710/20130326/95845/1225/201/20/
027710/20130326/95846/1220/590/10/
027710/20130326/95848/1220/1000/10/
027710/20130326/95900/1220/1000/10/
027710/20130326/95909/1220/3402/10/
027710/20130326/100005/1220/81/10/
027710/20130326/100120/1225/171/20/
027710/20130326/100134/1220/10412/10/
027710/20130326/100146/1220/9116/10/
027710/20130326/100153/1220/1000/10/
027710/20130326/100246/1220/8002/10/
027710/20130326/100507/1220/520/10/
027710/20130326/100541/1220/1877/10/
027710/20130326/100640/1220/2120/20/
027710/20130326/100706/1220/200/20/
027710/20130326/100800/1220/5000/20/
027710/20130326/100856/1220/201/20/
027710/20130326/101004/1215/1009/10/
027710/20130326/101026/1220/100/20/
027710/20130326/101116/1220/1639/20/
027710/20130326/101241/1220/338/20/
027710/20130326/101249/1220/1513/20/
027710/20130326/101414/1220/6000/20/
027710/20130326/101417/1220/1229/20/
027710/20130326/101418/1220/720/20/
027710/20130326/101618/1220/453/10/
027710/20130326/101838/1220/531/10/
027710/20130326/101909/1220/8191/10/
027710/20130326/101927/1220/111/20/
027710/20130326/101934/1220/89/10/
027710/20130326/101945/1220/100/20/
027710/20130326/102039/1220/312/10/
027710/20130326/102222/1220/1076/10/
027710/20130326/102243/1220/189/20/
027710/20130326/102346/1220/503/20/
027710/20130326/102605/1220/101/20/
027710/20130326/102725/1215/100/10/
027710/20130326/102822/1215/894/10/
027710/20130326/102855/1215/90000/10/
027710/20130326/102908/1215/2900/10/
027710/20130326/102912/1215/16001/10/
027710/20130326/102947/1215/4103/10/
027710/20130326/103205/1215/109/10/
027710/20130326/103435/1220/1640/20/
027710/20130326/103523/1215/3298/10/
027710/20130326/103528/1220/5071/20/
027710/20130326/103634/1220/112/20/
027710/20130326/103814/1220/3000/20/
027710/20130326/103953/1220/100/20/
027710/20130326/104010/1220/300/20/
027710/20130326/104025/1220/200/20/
027710/20130326/104041/1220/3389/20/
027710/20130326/104110/1220/14755/20/
027710/20130326/104226/1225/201/20/
027710/20130326/104250/1220/1000/10/
027710/20130326/104352/1220/1002/10/
027710/20130326/104853/1220/174/10/
027710/20130326/105014/1220/6641/10/
027710/20130326/105052/1220/101/10/
027710/20130326/105056/1220/522/10/
027710/20130326/105347/1220/400/20/
027710/20130326/105814/1215/83/10/
027710/20130326/105848/1215/1513/10/
027710/20130326/110509/1220/354/20/
027710/20130326/110554/1215/938/10/
027710/20130326/111155/1220/315/20/
027710/20130326/111443/1220/400/20/
027710/20130326/111502/1215/1403/10/
027710/20130326/111728/1215/1414/10/
027710/20130326/111814/1220/527/20/
027710/20130326/111951/1215/1260/10/
027710/20130326/112046/1215/8870/10/
027710/20130326/112202/1215/6000/10/
027710/20130326/112356/1215/711/10/
027710/20130326/112504/1215/320/10/
027710/20130326/112617/1220/500/20/
027710/20130326/112911/1220/505/20/
027710/20130326/112929/1220/100/20/
027710/20130326/112941/1220/100/20/
027710/20130326/112956/1220/100/20/
027710/20130326/113008/1220/100/20/
027710/20130326/113023/1220/100/20/
027710/20130326/113047/1220/101/20/
027710/20130326/113114/1220/111/20/
027710/20130326/113125/1220/100/20/
027710/20130326/113133/1220/101/20/
027710/20130326/113143/1220/100/20/
027710/20130326/113154/1220/100/20/
027710/20130326/113210/1220/150/20/
027710/20130326/113236/1220/91/20/
027710/20130326/113308/1220/150/20/
027710/20130326/113327/1215/5691/10/
027710/20130326/113457/1220/2001/20/
027710/20130326/113542/1220/378/20/
027710/20130326/113645/1215/1000/10/
027710/20130326/113841/1215/1000/10/
027710/20130326/113926/1220/1000/20/
027710/20130326/114050/1220/500/20/
027710/20130326/114310/1215/100/10/
027710/20130326/114334/1215/1200/10/
027710/20130326/114350/1215/900/10/
027710/20130326/114513/1220/1001/20/
027710/20130326/114835/1220/81/20/
027710/20130326/114838/1220/1000/20/
027710/20130326/115108/1220/1023/20/
027710/20130326/115117/1220/100/20/
027710/20130326/115209/1220/95/20/
027710/20130326/115213/1220/2000/20/
027710/20130326/115222/1220/100/20/
027710/20130326/115231/1220/300/20/
027710/20130326/115753/1220/7052/20/
027710/20130326/115822/1220/100/20/
027710/20130326/120206/1220/1001/20/
027710/20130326/120206/1215/700/10/
027710/20130326/120320/1220/16718/20/
027710/20130326/120428/1220/1601/10/
027710/20130326/120952/1220/2554/10/
027710/20130326/121024/1220/4500/10/
027710/20130326/121036/1220/1909/10/
027710/20130326/121304/1220/5001/10/
027710/20130326/121347/1220/10037/10/
027710/20130326/121441/1220/100/10/
027710/20130326/121447/1220/707/10/
027710/20130326/121500/1215/950/10/
027710/20130326/121709/1220/162/10/
027710/20130326/121804/1220/499/20/
027710/20130326/121923/1220/93/20/
027710/20130326/121950/1220/500/20/
027710/20130326/122012/1220/500/20/
027710/20130326/122312/1225/801/20/
027710/20130326/122338/1225/100/20/
027710/20130326/122447/1225/1100/20/
027710/20130326/122628/1225/509/20/
027710/20130326/122941/1225/3209/20/
027710/20130326/122945/1225/100/20/
027710/20130326/122946/1225/1623/20/
027710/20130326/123030/1225/1000/20/
027710/20130326/123057/1225/150/20/
027710/20130326/123058/1225/100/20/
027710/20130326/123135/1225/535/20/
027710/20130326/123153/1225/300/20/
027710/20130326/123243/1220/130/10/
027710/20130326/123515/1220/13556/10/
027710/20130326/123515/1215/17377/10/
027710/20130326/123522/1215/96/10/
027710/20130326/123846/1225/402/20/
027710/20130326/124309/1220/800/10/
027710/20130326/124723/1220/1997/10/
027710/20130326/124726/1220/403/10/
027710/20130326/125104/1220/601/10/
027710/20130326/125147/1225/10001/20/
027710/20130326/125159/1225/31422/20/
027710/20130326/125252/1230/9654/20/
027710/20130326/125329/1230/30000/20/
027710/20130326/125331/1230/11000/20/
027710/20130326/125334/1230/339/20/
027710/20130326/125411/1230/1401/20/
027710/20130326/125413/1230/1664/20/
027710/20130326/125418/1230/125/10/
027710/20130326/125440/1230/340/20/
027710/20130326/125456/1230/2191/20/
027710/20130326/125458/1230/200/20/
027710/20130326/125506/1230/84/20/
027710/20130326/125507/1230/86/20/
027710/20130326/125520/1225/146/10/
027710/20130326/125626/1230/155/20/
027710/20130326/125916/1230/374/20/
027710/20130326/125945/1225/304/10/
027710/20130326/130124/1230/102/20/
027710/20130326/130332/1230/102/20/
027710/20130326/130507/1225/402/10/
027710/20130326/130621/1225/257/10/
027710/20130326/130658/1230/249/20/
027710/20130326/130907/1225/250/10/
027710/20130326/131111/1225/882/10/
027710/20130326/131306/1230/18673/20/
027710/20130326/131329/1230/150/20/
027710/20130326/131452/1230/5000/20/
027710/20130326/131855/1230/5050/20/
027710/20130326/131919/1230/100/20/
027710/20130326/131922/1230/100/20/
027710/20130326/132117/1225/136/10/
027710/20130326/132136/1225/875/10/
027710/20130326/132333/1225/341/10/
027710/20130326/132346/1225/2002/10/
027710/20130326/132437/1225/201/10/
027710/20130326/132506/1225/4965/10/
027710/20130326/132609/1230/5001/20/
027710/20130326/132652/1225/1645/10/
027710/20130326/133033/1225/1002/10/
027710/20130326/133345/1225/2036/10/
027710/20130326/133532/1230/502/20/
027710/20130326/133653/1225/10003/10/
027710/20130326/133702/1225/2000/10/
027710/20130326/133730/1225/3278/10/
027710/20130326/133809/1225/1001/10/
027710/20130326/133815/1225/200/10/
027710/20130326/133840/1225/515/10/
027710/20130326/133847/1225/100/10/
027710/20130326/133935/1225/9000/10/
027710/20130326/133935/1225/2034/10/
027710/20130326/134040/1220/500/10/
027710/20130326/134109/1220/7000/10/
027710/20130326/134141/1220/3010/10/
027710/20130326/134301/1225/514/20/
027710/20130326/134318/1225/1000/20/
027710/20130326/134334/1225/500/20/
027710/20130326/134339/1225/500/20/
027710/20130326/134406/1225/500/20/
027710/20130326/134417/1225/400/20/
027710/20130326/134446/1225/1583/20/
027710/20130326/134651/1230/1001/20/
027710/20130326/135156/1230/8643/20/
027710/20130326/135229/1225/5005/10/
027710/20130326/135627/1225/210/10/
027710/20130326/135640/1225/1284/10/
027710/20130326/135650/1225/1670/10/
027710/20130326/135720/1225/2010/10/
027710/20130326/135753/1225/500/10/
027710/20130326/135806/1225/1550/10/
027710/20130326/135831/1225/1264/10/
027710/20130326/135921/1220/3000/10/
027710/20130326/140212/1220/1527/10/
027710/20130326/140256/1220/18228/10/
027710/20130326/140308/1220/501/20/
027710/20130326/140341/1220/370/20/
027710/20130326/140443/1220/251/10/
027710/20130326/140832/1225/807/20/
027710/20130326/141154/1225/2000/20/
027710/20130326/141205/1225/6813/20/
027710/20130326/141420/1225/910/10/
027710/20130326/141431/1225/5000/10/
027710/20130326/141433/1225/1121/10/
027710/20130326/141447/1225/15000/10/
027710/20130326/141502/1225/195/10/
027710/20130326/141504/1225/800/10/
027710/20130326/141521/1225/1677/10/
027710/20130326/141605/1225/100/20/
027710/20130326/141657/1225/2000/20/
027710/20130326/142333/1225/402/20/
027710/20130326/142421/1225/139/20/
027710/20130326/142444/1225/3000/20/
027710/20130326/142626/1220/1000/10/
027710/20130326/142949/1225/501/20/
027710/20130326/143132/1220/4391/10/
027710/20130326/143144/1220/10000/10/
027710/20130326/143146/1220/1272/10/
027710/20130326/143157/1220/100/10/
027710/20130326/143159/1220/1500/10/
027710/20130326/143200/1220/1500/10/
027710/20130326/143206/1220/1734/10/
027710/20130326/143210/1220/2000/20/
027710/20130326/143241/1220/334/20/
027710/20130326/143244/1220/694/20/
027710/20130326/143839/1220/2262/10/
027710/20130326/143857/1220/1050/10/
027710/20130326/144213/1220/165/10/
027710/20130326/144252/1220/100/10/
027710/20130326/144403/1225/115/20/
027710/20130326/144444/1225/400/20/
027710/20130326/144458/1225/500/20/
027710/20130326/144546/1225/500/20/
027710/20130326/144628/1225/310/20/
027710/20130326/144756/1220/1354/10/
027710/20130326/144829/1220/170/10/
027710/20130326/144903/1225/1031/20/
027710/20130326/144927/1225/649/20/
027710/20130326/144959/1220/3300/10/
027710/20130326/144959/1220/18430/10/
027710/20130326/144959/1220/1139/10/
027710/20130326/150000/1215/39834/10/
