027710/20130404/90000/1255/22597/10/
027710/20130404/90001/1260/500/20/
027710/20130404/90004/1255/7587/10/
027710/20130404/90011/1255/251/20/
027710/20130404/90013/1255/82/20/
027710/20130404/90023/1250/8277/10/
027710/20130404/90028/1250/6533/10/
027710/20130404/90029/1250/6001/10/
027710/20130404/90031/1250/4000/10/
027710/20130404/90033/1250/4000/10/
027710/20130404/90037/1250/3432/10/
027710/20130404/90057/1250/1214/20/
027710/20130404/90101/1250/1354/20/
027710/20130404/90109/1250/100/10/
027710/20130404/90112/1250/3000/10/
027710/20130404/90122/1250/1000/10/
027710/20130404/90125/1250/1000/10/
027710/20130404/90126/1250/1268/10/
027710/20130404/90128/1250/832/20/
027710/20130404/90131/1250/2168/10/
027710/20130404/90131/1250/266/10/
027710/20130404/90140/1250/1566/20/
027710/20130404/90144/1250/664/10/
027710/20130404/90145/1250/2000/10/
027710/20130404/90147/1250/770/10/
027710/20130404/90147/1250/278/20/
027710/20130404/90154/1250/1722/10/
027710/20130404/90154/1250/1000/10/
027710/20130404/90201/1250/1500/20/
027710/20130404/90214/1245/251/10/
027710/20130404/90217/1250/325/20/
027710/20130404/90219/1250/1453/20/
027710/20130404/90223/1250/3547/10/
027710/20130404/90235/1245/2301/10/
027710/20130404/90241/1245/2014/10/
027710/20130404/90242/1245/2000/10/
027710/20130404/90245/1245/4545/10/
027710/20130404/90252/1245/1500/10/
027710/20130404/90257/1245/500/10/
027710/20130404/90303/1245/3001/10/
027710/20130404/90304/1245/979/10/
027710/20130404/90304/1250/5000/20/
027710/20130404/90311/1250/501/20/
027710/20130404/90312/1250/200/20/
027710/20130404/90331/1245/7580/10/
027710/20130404/90337/1245/1766/10/
027710/20130404/90341/1245/10002/10/
027710/20130404/90345/1245/1365/10/
027710/20130404/90347/1245/521/10/
027710/20130404/90350/1245/1313/10/
027710/20130404/90354/1250/4001/20/
027710/20130404/90406/1250/309/20/
027710/20130404/90414/1250/1171/20/
027710/20130404/90422/1250/754/20/
027710/20130404/90438/1250/2001/20/
027710/20130404/90453/1250/100/20/
027710/20130404/90455/1250/100/20/
027710/20130404/90455/1250/143/20/
027710/20130404/90500/1255/1053/20/
027710/20130404/90504/1255/1593/20/
027710/20130404/90505/1255/162/20/
027710/20130404/90512/1255/100/20/
027710/20130404/90512/1255/100/20/
027710/20130404/90513/1255/100/20/
027710/20130404/90523/1255/100/20/
027710/20130404/90532/1255/10077/20/
027710/20130404/90539/1255/500/20/
027710/20130404/90540/1255/271/20/
027710/20130404/90540/1260/525/20/
027710/20130404/90553/1250/1451/10/
027710/20130404/90605/1250/13327/10/
027710/20130404/90606/1250/100/10/
027710/20130404/90610/1250/5883/10/
027710/20130404/90702/1245/874/10/
027710/20130404/90708/1250/100/20/
027710/20130404/90722/1245/1500/10/
027710/20130404/90723/1250/1000/20/
027710/20130404/90727/1245/10452/10/
027710/20130404/90749/1245/2274/10/
027710/20130404/90749/1245/8000/10/
027710/20130404/90749/1245/1632/10/
027710/20130404/90757/1240/1000/10/
027710/20130404/90804/1245/262/20/
027710/20130404/90843/1245/1030/10/
027710/20130404/90905/1245/924/10/
027710/20130404/90915/1245/500/20/
027710/20130404/90920/1245/100/20/
027710/20130404/90932/1245/102/20/
027710/20130404/90941/1245/5001/20/
027710/20130404/90943/1245/103/20/
027710/20130404/90946/1245/94/20/
027710/20130404/90952/1240/34653/10/
027710/20130404/91003/1240/251/20/
027710/20130404/91008/1240/511/20/
027710/20130404/91011/1240/104/20/
027710/20130404/91011/1240/1342/20/
027710/20130404/91013/1240/662/10/
027710/20130404/91017/1240/511/20/
027710/20130404/91018/1240/827/20/
027710/20130404/91037/1240/350/10/
027710/20130404/91040/1240/2088/10/
027710/20130404/91124/1240/3001/10/
027710/20130404/91154/1240/1613/10/
027710/20130404/91157/1240/8439/10/
027710/20130404/91207/1240/1023/20/
027710/20130404/91210/1240/826/10/
027710/20130404/91220/1240/790/20/
027710/20130404/91233/1235/1021/10/
027710/20130404/91252/1235/40231/10/
027710/20130404/91259/1230/3050/10/
027710/20130404/91305/1230/2001/10/
027710/20130404/91306/1235/1500/20/
027710/20130404/91307/1230/729/10/
027710/20130404/91315/1235/198/20/
027710/20130404/91317/1235/500/20/
027710/20130404/91317/1235/1500/20/
027710/20130404/91320/1235/500/20/
027710/20130404/91325/1235/1000/20/
027710/20130404/91326/1235/501/20/
027710/20130404/91328/1235/2001/20/
027710/20130404/91341/1235/452/20/
027710/20130404/91342/1235/101/20/
027710/20130404/91343/1235/2000/20/
027710/20130404/91344/1235/100/20/
027710/20130404/91346/1235/4347/20/
027710/20130404/91346/1235/200/20/
027710/20130404/91347/1235/100/10/
027710/20130404/91348/1235/1000/10/
027710/20130404/91355/1235/201/10/
027710/20130404/91359/1235/101/10/
027710/20130404/91405/1235/1000/10/
027710/20130404/91405/1235/2185/10/
027710/20130404/91408/1235/10000/10/
027710/20130404/91426/1235/4160/10/
027710/20130404/91427/1235/613/10/
027710/20130404/91427/1230/187/10/
027710/20130404/91513/1235/605/10/
027710/20130404/91523/1240/310/20/
027710/20130404/91544/1240/806/20/
027710/20130404/91558/1235/2150/10/
027710/20130404/91627/1235/245/10/
027710/20130404/91633/1235/401/10/
027710/20130404/91707/1235/3032/10/
027710/20130404/91723/1235/2000/10/
027710/20130404/91749/1235/2001/10/
027710/20130404/91751/1235/17120/10/
027710/20130404/91752/1235/7502/10/
027710/20130404/91814/1235/1466/10/
027710/20130404/91828/1235/248/20/
027710/20130404/91840/1235/301/20/
027710/20130404/91843/1235/1040/20/
027710/20130404/91941/1240/1001/20/
027710/20130404/91947/1240/1470/20/
027710/20130404/91948/1240/1000/20/
027710/20130404/91951/1240/1000/20/
027710/20130404/91952/1240/260/20/
027710/20130404/91956/1240/855/20/
027710/20130404/92003/1235/6000/10/
027710/20130404/92018/1235/2000/10/
027710/20130404/92025/1235/500/10/
027710/20130404/92035/1235/1694/10/
027710/20130404/92038/1235/5000/10/
027710/20130404/92038/1235/2235/10/
027710/20130404/92112/1235/99/10/
027710/20130404/92117/1240/2010/20/
027710/20130404/92158/1240/504/20/
027710/20130404/92203/1240/3000/20/
027710/20130404/92208/1240/1000/20/
027710/20130404/92223/1235/2010/10/
027710/20130404/92224/1240/1000/20/
027710/20130404/92315/1240/819/20/
027710/20130404/92318/1240/2026/20/
027710/20130404/92319/1240/1000/20/
027710/20130404/92319/1240/154/20/
027710/20130404/92327/1240/500/20/
027710/20130404/92330/1240/104/20/
027710/20130404/92333/1240/5046/20/
027710/20130404/92335/1240/1859/20/
027710/20130404/92355/1235/1500/10/
027710/20130404/92429/1235/1524/10/
027710/20130404/92601/1240/697/20/
027710/20130404/92653/1235/550/10/
027710/20130404/92727/1240/90/20/
027710/20130404/92902/1240/100/20/
027710/20130404/93037/1240/195/20/
027710/20130404/93100/1235/158/10/
027710/20130404/93110/1235/1242/10/
027710/20130404/93130/1235/1696/10/
027710/20130404/93141/1235/4000/10/
027710/20130404/93145/1235/7878/10/
027710/20130404/93149/1235/12903/10/
027710/20130404/93252/1235/130/20/
027710/20130404/93255/1235/6977/20/
027710/20130404/93316/1235/6185/10/
027710/20130404/93316/1240/210/20/
027710/20130404/93322/1235/189/10/
027710/20130404/93340/1235/302/20/
027710/20130404/93342/1235/800/20/
027710/20130404/93406/1235/506/20/
027710/20130404/93414/1230/533/10/
027710/20130404/93430/1235/101/20/
027710/20130404/93448/1235/7947/20/
027710/20130404/93452/1235/5001/20/
027710/20130404/93455/1235/173/20/
027710/20130404/93456/1235/90/20/
027710/20130404/93456/1235/4053/20/
027710/20130404/93502/1235/1001/20/
027710/20130404/93503/1235/200/20/
027710/20130404/93504/1235/753/20/
027710/20130404/93504/1235/454/20/
027710/20130404/93542/1240/611/20/
027710/20130404/93556/1235/120/10/
027710/20130404/93758/1240/2583/20/
027710/20130404/93851/1240/12000/20/
027710/20130404/93855/1240/10000/20/
027710/20130404/93900/1240/296/20/
027710/20130404/93915/1240/129/20/
027710/20130404/93936/1240/200/20/
027710/20130404/93942/1240/1200/20/
027710/20130404/93959/1240/500/20/
027710/20130404/94003/1240/1000/20/
027710/20130404/94004/1240/700/20/
027710/20130404/94005/1240/1350/20/
027710/20130404/94006/1240/3000/20/
027710/20130404/94007/1240/11375/20/
027710/20130404/94010/1240/246/10/
027710/20130404/94100/1240/167/10/
027710/20130404/94124/1240/990/10/
027710/20130404/94137/1240/1385/10/
027710/20130404/94144/1240/9735/10/
027710/20130404/94158/1240/403/20/
027710/20130404/94208/1240/512/20/
027710/20130404/94212/1240/300/10/
027710/20130404/94256/1240/106/10/
027710/20130404/94412/1240/2236/10/
027710/20130404/94412/1235/56535/10/
027710/20130404/94425/1235/1009/20/
027710/20130404/94428/1235/491/10/
027710/20130404/94429/1235/1096/20/
027710/20130404/94445/1235/538/10/
027710/20130404/94501/1240/10010/20/
027710/20130404/94526/1240/1014/20/
027710/20130404/94529/1240/2599/20/
027710/20130404/94536/1240/102/20/
027710/20130404/94537/1240/100/20/
027710/20130404/94544/1240/5000/20/
027710/20130404/94545/1240/1000/20/
027710/20130404/94548/1240/345/20/
027710/20130404/94550/1240/100/20/
027710/20130404/94552/1240/1000/20/
027710/20130404/94645/1240/1000/20/
027710/20130404/94648/1240/100/20/
027710/20130404/94651/1240/500/20/
027710/20130404/94656/1240/93/20/
027710/20130404/94721/1235/1000/10/
027710/20130404/94753/1240/1000/20/
027710/20130404/94837/1240/5002/20/
027710/20130404/94838/1240/1000/20/
027710/20130404/94841/1240/3000/20/
027710/20130404/94846/1240/2317/20/
027710/20130404/94847/1240/831/10/
027710/20130404/94847/1235/11975/10/
027710/20130404/94915/1245/83/20/
027710/20130404/94918/1245/81/20/
027710/20130404/94922/1245/81/20/
027710/20130404/94925/1245/81/20/
027710/20130404/94928/1245/83/20/
027710/20130404/94931/1245/85/20/
027710/20130404/94934/1245/90/20/
027710/20130404/94937/1245/81/20/
027710/20130404/94940/1245/90/20/
027710/20130404/94943/1245/88/20/
027710/20130404/94947/1245/88/20/
027710/20130404/94949/1245/8045/20/
027710/20130404/94949/1240/6664/10/
027710/20130404/94950/1240/119/20/
027710/20130404/94952/1240/84/20/
027710/20130404/94955/1240/81/20/
027710/20130404/94958/1240/83/20/
027710/20130404/95000/1240/81/20/
027710/20130404/95000/1240/202/20/
027710/20130404/95003/1240/89/20/
027710/20130404/95003/1240/93/20/
027710/20130404/95005/1240/542/20/
027710/20130404/95006/1240/1730/20/
027710/20130404/95008/1240/250/20/
027710/20130404/95009/1240/1678/20/
027710/20130404/95012/1240/1071/20/
027710/20130404/95013/1240/1016/20/
027710/20130404/95014/1240/788/20/
027710/20130404/95017/1245/86/20/
027710/20130404/95020/1240/81/10/
027710/20130404/95022/1240/81/10/
027710/20130404/95025/1245/83/20/
027710/20130404/95027/1245/84/20/
027710/20130404/95030/1245/86/20/
027710/20130404/95032/1245/155/20/
027710/20130404/95035/1245/81/20/
027710/20130404/95037/1245/82/20/
027710/20130404/95039/1245/83/20/
027710/20130404/95041/1245/3713/20/
027710/20130404/95043/1245/83/20/
027710/20130404/95045/1245/82/20/
027710/20130404/95048/1245/87/20/
027710/20130404/95051/1245/89/20/
027710/20130404/95053/1245/84/20/
027710/20130404/95056/1245/1071/20/
027710/20130404/95058/1245/88/20/
027710/20130404/95101/1245/84/20/
027710/20130404/95104/1245/85/20/
027710/20130404/95107/1245/81/20/
027710/20130404/95109/1245/145/20/
027710/20130404/95110/1245/109/20/
027710/20130404/95111/1245/107/20/
027710/20130404/95111/1245/109/20/
027710/20130404/95114/1245/82/20/
027710/20130404/95117/1245/88/20/
027710/20130404/95120/1240/81/10/
027710/20130404/95123/1245/88/20/
027710/20130404/95126/1245/81/20/
027710/20130404/95129/1240/81/10/
027710/20130404/95132/1245/81/20/
027710/20130404/95134/1245/154/20/
027710/20130404/95137/1245/84/20/
027710/20130404/95139/1245/89/20/
027710/20130404/95141/1245/84/20/
027710/20130404/95143/1245/83/20/
027710/20130404/95144/1245/81/20/
027710/20130404/95146/1245/83/20/
027710/20130404/95148/1240/1077/10/
027710/20130404/95149/1245/82/20/
027710/20130404/95151/1245/82/20/
027710/20130404/95153/1245/87/20/
027710/20130404/95155/1245/83/20/
027710/20130404/95157/1245/85/20/
027710/20130404/95159/1245/84/20/
027710/20130404/95202/1245/83/20/
027710/20130404/95204/1245/85/20/
027710/20130404/95207/1245/88/20/
027710/20130404/95210/1245/84/20/
027710/20130404/95213/1245/87/20/
027710/20130404/95216/1245/85/20/
027710/20130404/95217/1240/81/10/
027710/20130404/95220/1245/81/20/
027710/20130404/95222/1245/83/20/
027710/20130404/95225/1240/81/10/
027710/20130404/95228/1245/83/20/
027710/20130404/95231/1240/81/10/
027710/20130404/95234/1245/85/20/
027710/20130404/95237/1245/81/20/
027710/20130404/95240/1245/82/20/
027710/20130404/95242/1245/81/20/
027710/20130404/95245/1245/81/20/
027710/20130404/95248/1245/81/20/
027710/20130404/95251/1245/87/20/
027710/20130404/95254/1245/82/20/
027710/20130404/95257/1245/81/20/
027710/20130404/95259/1245/82/20/
027710/20130404/95302/1245/120/20/
027710/20130404/95305/1245/90/20/
027710/20130404/95308/1245/81/20/
027710/20130404/95311/1245/81/20/
027710/20130404/95314/1245/81/20/
027710/20130404/95314/1245/103/20/
027710/20130404/95316/1245/119/20/
027710/20130404/95319/1245/86/20/
027710/20130404/95323/1245/85/20/
027710/20130404/95326/1245/83/20/
027710/20130404/95329/1245/81/20/
027710/20130404/95331/1245/82/20/
027710/20130404/95334/1245/86/20/
027710/20130404/95334/1240/7006/10/
027710/20130404/95334/1240/7853/10/
027710/20130404/95337/1245/83/20/
027710/20130404/95339/1240/83/20/
027710/20130404/95343/1240/81/20/
027710/20130404/95345/1240/81/20/
027710/20130404/95347/1240/3053/20/
027710/20130404/95350/1240/83/20/
027710/20130404/95353/1240/82/20/
027710/20130404/95356/1235/81/10/
027710/20130404/95359/1240/81/20/
027710/20130404/95359/1240/600/20/
027710/20130404/95402/1235/81/10/
027710/20130404/95406/1240/86/20/
027710/20130404/95409/1240/82/20/
027710/20130404/95411/1240/81/20/
027710/20130404/95414/1240/90/20/
027710/20130404/95417/1240/81/20/
027710/20130404/95421/1240/81/20/
027710/20130404/95422/1240/4104/20/
027710/20130404/95425/1245/82/20/
027710/20130404/95428/1245/82/20/
027710/20130404/95430/1245/81/20/
027710/20130404/95433/1245/82/20/
027710/20130404/95435/1245/82/20/
027710/20130404/95437/1245/81/20/
027710/20130404/95440/1245/87/20/
027710/20130404/95443/1245/86/20/
027710/20130404/95445/1245/90/20/
027710/20130404/95448/1245/82/20/
027710/20130404/95450/1240/81/10/
027710/20130404/95453/1245/89/20/
027710/20130404/95455/1245/84/20/
027710/20130404/95458/1240/81/10/
027710/20130404/95501/1245/81/20/
027710/20130404/95503/1245/559/20/
027710/20130404/95506/1245/84/20/
027710/20130404/95510/1245/81/20/
027710/20130404/95514/1245/81/20/
027710/20130404/95517/1245/81/20/
027710/20130404/95521/1240/81/10/
027710/20130404/95525/1245/82/20/
027710/20130404/95529/1245/81/20/
027710/20130404/95534/1240/15079/10/
027710/20130404/95534/1240/2276/10/
027710/20130404/95556/1240/84/20/
027710/20130404/95612/1240/245/20/
027710/20130404/95620/1235/676/10/
027710/20130404/95631/1235/81/10/
027710/20130404/95654/1240/2076/20/
027710/20130404/95658/1240/8201/20/
027710/20130404/95658/1240/883/10/
027710/20130404/95710/1240/553/10/
027710/20130404/95713/1240/134/20/
027710/20130404/95719/1240/81/20/
027710/20130404/95721/1240/2488/20/
027710/20130404/95738/1240/1008/20/
027710/20130404/95801/1240/226/20/
027710/20130404/95844/1235/2001/10/
027710/20130404/100011/1235/24403/10/
027710/20130404/100011/1235/16429/10/
027710/20130404/100012/1235/2664/10/
027710/20130404/100013/1230/2501/10/
027710/20130404/100029/1230/13252/10/
027710/20130404/100039/1230/335/10/
027710/20130404/100048/1230/1503/10/
027710/20130404/100049/1230/5551/10/
027710/20130404/100058/1230/498/10/
027710/20130404/100134/1235/276/20/
027710/20130404/100137/1235/2009/20/
027710/20130404/100145/1235/315/20/
027710/20130404/100146/1235/203/20/
027710/20130404/100210/1230/81/10/
027710/20130404/100231/1230/20059/10/
027710/20130404/100233/1230/8675/10/
027710/20130404/100234/1230/1353/10/
027710/20130404/100236/1230/5006/10/
027710/20130404/100237/1230/1002/10/
027710/20130404/100238/1230/305/10/
027710/20130404/100239/1230/1777/10/
027710/20130404/100239/1225/1001/10/
027710/20130404/100244/1230/2284/20/
027710/20130404/100245/1230/500/20/
027710/20130404/100248/1230/447/20/
027710/20130404/100248/1230/500/10/
027710/20130404/100332/1230/3801/10/
027710/20130404/100356/1225/1219/10/
027710/20130404/100420/1225/4026/10/
027710/20130404/100427/1225/253/10/
027710/20130404/100430/1225/4001/10/
027710/20130404/100449/1230/152/20/
027710/20130404/100449/1225/1000/10/
027710/20130404/100450/1230/100/20/
027710/20130404/100501/1225/12732/10/
027710/20130404/100502/1225/300/20/
027710/20130404/100503/1220/2017/10/
027710/20130404/100514/1220/2067/10/
027710/20130404/100515/1225/119/20/
027710/20130404/100517/1225/2288/20/
027710/20130404/100518/1225/937/10/
027710/20130404/100524/1225/2012/10/
027710/20130404/100529/1230/201/20/
027710/20130404/100541/1225/4834/10/
027710/20130404/100549/1225/1020/10/
027710/20130404/100608/1230/136/20/
027710/20130404/100622/1225/1005/10/
027710/20130404/100622/1225/730/10/
027710/20130404/100628/1225/1003/10/
027710/20130404/100635/1225/4148/10/
027710/20130404/100637/1225/201/20/
027710/20130404/100640/1225/2002/20/
027710/20130404/100640/1220/4000/10/
027710/20130404/100641/1220/4001/10/
027710/20130404/100645/1220/501/10/
027710/20130404/100652/1225/1005/20/
027710/20130404/100657/1225/718/20/
027710/20130404/100716/1225/217/10/
027710/20130404/100717/1225/2000/10/
027710/20130404/100724/1225/4090/10/
027710/20130404/100740/1220/20041/10/
027710/20130404/100744/1220/2003/10/
027710/20130404/100750/1220/7706/10/
027710/20130404/100750/1215/17297/10/
027710/20130404/100750/1215/520/10/
027710/20130404/100750/1215/1235/10/
027710/20130404/100751/1215/2696/10/
027710/20130404/100803/1220/260/20/
027710/20130404/100803/1225/752/20/
027710/20130404/100817/1220/255/20/
027710/20130404/100818/1220/111/20/
027710/20130404/100833/1215/2065/10/
027710/20130404/100838/1215/1303/10/
027710/20130404/100840/1215/10000/10/
027710/20130404/100852/1215/1676/10/
027710/20130404/100854/1215/1490/10/
027710/20130404/100854/1215/2500/10/
027710/20130404/100856/1215/502/10/
027710/20130404/100905/1215/1003/10/
027710/20130404/100906/1220/5001/20/
027710/20130404/100907/1215/1339/10/
027710/20130404/100908/1220/81/20/
027710/20130404/100912/1220/149/20/
027710/20130404/100912/1220/108/20/
027710/20130404/100920/1215/541/10/
027710/20130404/100922/1220/110/20/
027710/20130404/100923/1220/294/20/
027710/20130404/100929/1215/20055/10/
027710/20130404/100941/1215/2012/10/
027710/20130404/100946/1215/521/10/
027710/20130404/100952/1215/438/10/
027710/20130404/100953/1215/301/10/
027710/20130404/101002/1215/2003/10/
027710/20130404/101039/1215/2341/10/
027710/20130404/101040/1215/91/20/
027710/20130404/101057/1220/10001/20/
027710/20130404/101107/1220/2050/20/
027710/20130404/101108/1220/834/20/
027710/20130404/101135/1225/101/20/
027710/20130404/101137/1225/1000/20/
027710/20130404/101138/1225/99/20/
027710/20130404/101149/1225/316/20/
027710/20130404/101151/1225/121/20/
027710/20130404/101201/1225/118/20/
027710/20130404/101230/1220/1035/10/
027710/20130404/101249/1220/4004/10/
027710/20130404/101329/1220/440/10/
027710/20130404/101505/1225/144/20/
027710/20130404/101540/1220/439/10/
027710/20130404/101556/1225/1701/20/
027710/20130404/101556/1225/5746/20/
027710/20130404/101657/1220/8002/10/
027710/20130404/101853/1220/645/10/
027710/20130404/102040/1225/331/20/
027710/20130404/102044/1225/5000/20/
027710/20130404/102100/1225/5005/20/
027710/20130404/102105/1225/1422/20/
027710/20130404/102215/1230/624/20/
027710/20130404/102337/1225/273/10/
027710/20130404/102458/1225/1051/10/
027710/20130404/102515/1225/201/10/
027710/20130404/102600/1230/2001/20/
027710/20130404/102618/1225/15003/10/
027710/20130404/102620/1225/2956/10/
027710/20130404/102708/1225/1835/20/
027710/20130404/102917/1225/81/20/
027710/20130404/103034/1220/544/10/
027710/20130404/103112/1220/16039/10/
027710/20130404/103228/1220/3036/10/
027710/20130404/103235/1225/9102/10/
027710/20130404/103324/1225/16091/10/
027710/20130404/103341/1225/3654/10/
027710/20130404/103343/1225/1408/10/
027710/20130404/103351/1220/1202/10/
027710/20130404/103503/1225/768/20/
027710/20130404/103631/1220/185/10/
027710/20130404/103640/1220/3570/10/
027710/20130404/103641/1225/100/20/
027710/20130404/104038/1225/93/20/
027710/20130404/104131/1220/8651/10/
027710/20130404/104151/1220/9249/10/
027710/20130404/104228/1220/15164/10/
027710/20130404/104248/1220/4850/20/
027710/20130404/104359/1220/407/10/
027710/20130404/104430/1220/8001/10/
027710/20130404/104531/1220/4064/10/
027710/20130404/104536/1220/1201/10/
027710/20130404/104556/1220/4030/10/
027710/20130404/104601/1220/6156/10/
027710/20130404/104646/1220/108/20/
027710/20130404/104729/1220/100/20/
027710/20130404/104736/1220/100/20/
027710/20130404/104740/1215/500/10/
027710/20130404/104800/1215/517/10/
027710/20130404/104929/1220/86/20/
027710/20130404/104939/1220/102/20/
027710/20130404/104953/1220/290/20/
027710/20130404/105015/1220/130/20/
027710/20130404/105037/1220/138/20/
027710/20130404/105114/1215/136/10/
027710/20130404/105118/1220/90/20/
027710/20130404/105136/1215/2021/10/
027710/20130404/105153/1220/2044/20/
027710/20130404/105208/1220/125/20/
027710/20130404/105219/1220/1001/20/
027710/20130404/105233/1215/1991/10/
027710/20130404/105347/1220/99/20/
027710/20130404/105435/1215/42417/10/
027710/20130404/105444/1210/26200/10/
027710/20130404/105445/1210/930/10/
027710/20130404/105445/1210/5088/10/
027710/20130404/105445/1210/800/10/
027710/20130404/105457/1210/3010/10/
027710/20130404/105503/1210/4034/10/
027710/20130404/105511/1210/16960/10/
027710/20130404/105511/1205/5043/10/
027710/20130404/105511/1205/1000/10/
027710/20130404/105519/1210/1003/20/
027710/20130404/105521/1210/533/20/
027710/20130404/105526/1210/3282/20/
027710/20130404/105526/1215/7595/20/
027710/20130404/105647/1220/538/20/
027710/20130404/105732/1215/1417/10/
027710/20130404/105746/1215/3005/10/
027710/20130404/105819/1215/1016/10/
027710/20130404/105826/1215/2500/10/
027710/20130404/105828/1215/22750/10/
027710/20130404/105833/1215/2034/10/
027710/20130404/105841/1215/6001/10/
027710/20130404/105845/1215/542/10/
027710/20130404/105902/1210/12771/10/
027710/20130404/105902/1205/28265/10/
027710/20130404/105903/1205/1000/10/
027710/20130404/105909/1205/11003/10/
027710/20130404/105946/1210/567/20/
027710/20130404/105952/1210/488/10/
027710/20130404/105955/1205/521/10/
027710/20130404/110000/1210/100/20/
027710/20130404/110008/1210/101/20/
027710/20130404/110013/1210/115/20/
027710/20130404/110016/1210/2003/20/
027710/20130404/110018/1210/102/20/
027710/20130404/110018/1210/1581/20/
027710/20130404/110021/1210/1005/10/
027710/20130404/110023/1210/82/10/
027710/20130404/110025/1210/505/10/
027710/20130404/110041/1210/1700/20/
027710/20130404/110047/1210/104/10/
027710/20130404/110058/1205/251/10/
027710/20130404/110107/1210/200/20/
027710/20130404/110109/1210/3162/20/
027710/20130404/110119/1210/1625/10/
027710/20130404/110133/1210/85/20/
027710/20130404/110136/1210/101/20/
027710/20130404/110141/1205/29001/10/
027710/20130404/110142/1205/3435/10/
027710/20130404/110143/1200/1001/10/
027710/20130404/110143/1200/500/10/
027710/20130404/110143/1200/600/10/
027710/20130404/110144/1200/220/10/
027710/20130404/110145/1205/5952/20/
027710/20130404/110154/1200/829/10/
027710/20130404/110154/1205/2000/20/
027710/20130404/110158/1205/506/20/
027710/20130404/110202/1205/103/20/
027710/20130404/110206/1205/1005/20/
027710/20130404/110209/1205/116/20/
027710/20130404/110209/1205/1000/20/
027710/20130404/110210/1205/1500/20/
027710/20130404/110213/1205/108/20/
027710/20130404/110215/1205/101/20/
027710/20130404/110223/1205/101/20/
027710/20130404/110228/1200/2291/10/
027710/20130404/110238/1205/2346/20/
027710/20130404/110240/1205/200/10/
027710/20130404/110242/1205/1000/10/
027710/20130404/110314/1210/102/20/
027710/20130404/110314/1205/300/10/
027710/20130404/110339/1205/517/10/
027710/20130404/110345/1205/300/10/
027710/20130404/110351/1205/90/10/
027710/20130404/110402/1205/2504/10/
027710/20130404/110402/1200/2496/10/
027710/20130404/110424/1205/1000/20/
027710/20130404/110428/1205/301/20/
027710/20130404/110430/1205/619/20/
027710/20130404/110445/1205/1149/10/
027710/20130404/110445/1205/2000/10/
027710/20130404/110446/1205/2000/10/
027710/20130404/110448/1205/1000/10/
027710/20130404/110500/1205/1004/10/
027710/20130404/110507/1205/9286/10/
027710/20130404/110521/1200/654/10/
027710/20130404/110528/1200/1459/10/
027710/20130404/110534/1200/2390/10/
027710/20130404/110537/1200/806/10/
027710/20130404/110545/1200/5260/10/
027710/20130404/110609/1205/152/20/
027710/20130404/110610/1205/100/20/
027710/20130404/110617/1200/1032/10/
027710/20130404/110626/1205/81/20/
027710/20130404/110633/1205/2020/20/
027710/20130404/110634/1205/2330/20/
027710/20130404/110634/1205/100/20/
027710/20130404/110638/1205/1024/20/
027710/20130404/110640/1205/108/20/
027710/20130404/110641/1205/879/20/
027710/20130404/110644/1205/1002/10/
027710/20130404/110649/1205/120/10/
027710/20130404/110654/1205/386/20/
027710/20130404/110658/1205/6015/10/
027710/20130404/110705/1200/552/10/
027710/20130404/110710/1205/102/20/
027710/20130404/110710/1205/9981/20/
027710/20130404/110712/1205/101/10/
027710/20130404/110712/1205/1923/10/
027710/20130404/110712/1200/3078/10/
027710/20130404/110713/1200/2874/10/
027710/20130404/110715/1200/35201/10/
027710/20130404/110716/1200/2105/10/
027710/20130404/110716/1200/26000/10/
027710/20130404/110717/1205/1000/20/
027710/20130404/110717/1205/100/20/
027710/20130404/110719/1200/7948/10/
027710/20130404/110720/1200/541/10/
027710/20130404/110720/1200/4272/10/
027710/20130404/110721/1195/3801/10/
027710/20130404/110724/1200/1010/20/
027710/20130404/110726/1195/3018/10/
027710/20130404/110738/1195/3053/10/
027710/20130404/110740/1200/108/20/
027710/20130404/110742/1195/2502/10/
027710/20130404/110744/1195/1502/10/
027710/20130404/110746/1195/24001/10/
027710/20130404/110748/1195/3718/10/
027710/20130404/110750/1195/4004/10/
027710/20130404/110751/1195/752/10/
027710/20130404/110751/1195/5034/10/
027710/20130404/110754/1195/1009/20/
027710/20130404/110755/1195/110/20/
027710/20130404/110756/1195/2584/20/
027710/20130404/110757/1195/1006/20/
027710/20130404/110802/1190/767/10/
027710/20130404/110803/1190/306/10/
027710/20130404/110809/1190/3033/10/
027710/20130404/110811/1195/103/20/
027710/20130404/110814/1195/103/20/
027710/20130404/110815/1195/423/20/
027710/20130404/110817/1195/100/20/
027710/20130404/110819/1195/101/20/
027710/20130404/110820/1195/102/20/
027710/20130404/110823/1195/501/20/
027710/20130404/110823/1190/1000/10/
027710/20130404/110823/1190/100/10/
027710/20130404/110834/1195/106/20/
027710/20130404/110844/1190/5055/10/
027710/20130404/110845/1190/4001/10/
027710/20130404/110847/1190/5990/10/
027710/20130404/110850/1190/6003/10/
027710/20130404/110850/1190/100/10/
027710/20130404/110851/1190/12858/10/
027710/20130404/110854/1190/1144/10/
027710/20130404/110855/1190/2112/10/
027710/20130404/110856/1190/1276/10/
027710/20130404/110856/1190/5000/10/
027710/20130404/110856/1190/100/10/
027710/20130404/110857/1190/1695/10/
027710/20130404/110858/1190/13587/10/
027710/20130404/110858/1185/4168/10/
027710/20130404/110858/1185/100/10/
027710/20130404/110859/1190/300/20/
027710/20130404/110859/1185/101/10/
027710/20130404/110901/1185/103/10/
027710/20130404/110902/1185/101/10/
027710/20130404/110903/1185/101/10/
027710/20130404/110903/1185/102/10/
027710/20130404/110904/1185/100/10/
027710/20130404/110904/1185/150/10/
027710/20130404/110905/1185/101/10/
027710/20130404/110905/1185/100/10/
027710/20130404/110905/1185/100/10/
027710/20130404/110906/1185/100/10/
027710/20130404/110907/1185/7936/10/
027710/20130404/110907/1185/101/10/
027710/20130404/110907/1185/2583/10/
027710/20130404/110909/1185/4001/10/
027710/20130404/110909/1185/634/10/
027710/20130404/110911/1180/500/10/
027710/20130404/110911/1185/500/20/
027710/20130404/110914/1185/200/20/
027710/20130404/110918/1185/1000/20/
027710/20130404/110920/1180/1901/10/
027710/20130404/110926/1180/11071/10/
027710/20130404/110926/1185/101/20/
027710/20130404/110928/1180/348/10/
027710/20130404/110929/1180/1865/10/
027710/20130404/110931/1180/143/20/
027710/20130404/110939/1180/525/10/
027710/20130404/110939/1185/1000/20/
027710/20130404/110947/1180/5022/10/
027710/20130404/110952/1180/4000/10/
027710/20130404/110953/1180/8471/10/
027710/20130404/110953/1180/10000/10/
027710/20130404/111004/1180/1004/10/
027710/20130404/111004/1180/101/10/
027710/20130404/111004/1180/3001/10/
027710/20130404/111016/1180/2037/10/
027710/20130404/111023/1185/128/20/
027710/20130404/111023/1185/8004/20/
027710/20130404/111029/1185/82/20/
027710/20130404/111030/1185/258/20/
027710/20130404/111033/1190/90/20/
027710/20130404/111037/1195/89/20/
027710/20130404/111040/1195/82/20/
027710/20130404/111043/1195/88/20/
027710/20130404/111048/1195/2025/20/
027710/20130404/111051/1195/88/20/
027710/20130404/111055/1195/88/20/
027710/20130404/111058/1195/85/20/
027710/20130404/111101/1190/2062/10/
027710/20130404/111101/1185/1953/10/
027710/20130404/111101/1180/1081/10/
027710/20130404/111104/1195/87/20/
027710/20130404/111107/1195/85/20/
027710/20130404/111109/1195/85/20/
027710/20130404/111110/1195/113/20/
027710/20130404/111113/1195/90/20/
027710/20130404/111115/1195/83/20/
027710/20130404/111118/1195/87/20/
027710/20130404/111121/1195/85/20/
027710/20130404/111124/1195/87/20/
027710/20130404/111125/1190/100/10/
027710/20130404/111125/1190/283/10/
027710/20130404/111130/1190/775/20/
027710/20130404/111135/1190/87/20/
027710/20130404/111137/1190/152/20/
027710/20130404/111139/1190/87/20/
027710/20130404/111140/1190/111/20/
027710/20130404/111142/1190/87/20/
027710/20130404/111146/1190/85/20/
027710/20130404/111148/1190/87/20/
027710/20130404/111151/1190/273/20/
027710/20130404/111151/1190/1203/20/
027710/20130404/111151/1190/291/20/
027710/20130404/111154/1190/83/20/
027710/20130404/111157/1190/85/20/
027710/20130404/111159/1190/1802/20/
027710/20130404/111202/1190/85/20/
027710/20130404/111202/1190/502/20/
027710/20130404/111203/1190/111/20/
027710/20130404/111205/1190/87/20/
027710/20130404/111206/1180/4724/10/
027710/20130404/111209/1185/85/20/
027710/20130404/111212/1190/87/20/
027710/20130404/111214/1185/85/20/
027710/20130404/111217/1185/85/20/
027710/20130404/111219/1180/238/10/
027710/20130404/111221/1185/150/20/
027710/20130404/111223/1180/1049/10/
027710/20130404/111224/1180/100/10/
027710/20130404/111225/1185/537/20/
027710/20130404/111225/1180/554/10/
027710/20130404/111226/1185/507/20/
027710/20130404/111227/1180/379/10/
027710/20130404/111230/1185/81/20/
027710/20130404/111232/1190/91/20/
027710/20130404/111233/1190/94/20/
027710/20130404/111234/1190/105/20/
027710/20130404/111235/1190/116/20/
027710/20130404/111236/1180/3443/10/
027710/20130404/111237/1180/1626/20/
027710/20130404/111238/1190/94/20/
027710/20130404/111239/1190/105/20/
027710/20130404/111241/1190/105/20/
027710/20130404/111242/1190/116/20/
027710/20130404/111243/1190/105/20/
027710/20130404/111245/1190/105/20/
027710/20130404/111246/1190/116/20/
027710/20130404/111247/1190/105/20/
027710/20130404/111248/1190/90/20/
027710/20130404/111250/1190/105/20/
027710/20130404/111251/1190/105/20/
027710/20130404/111253/1190/91/20/
027710/20130404/111256/1190/91/20/
027710/20130404/111259/1190/88/20/
027710/20130404/111302/1180/2033/10/
027710/20130404/111305/1190/88/20/
027710/20130404/111309/1190/88/20/
027710/20130404/111313/1190/88/20/
027710/20130404/111315/1190/117/20/
027710/20130404/111317/1180/855/10/
027710/20130404/111321/1190/88/20/
027710/20130404/111324/1190/88/20/
027710/20130404/111327/1190/88/20/
027710/20130404/111331/1190/88/20/
027710/20130404/111335/1190/88/20/
027710/20130404/111339/1180/3877/10/
027710/20130404/111343/1190/88/20/
027710/20130404/111347/1190/88/20/
027710/20130404/111351/1190/88/20/
027710/20130404/111355/1190/88/20/
027710/20130404/111405/1180/1587/10/
027710/20130404/111406/1180/5296/20/
027710/20130404/111408/1175/1796/10/
027710/20130404/111409/1180/1033/20/
027710/20130404/111421/1185/81/20/
027710/20130404/111438/1185/166/20/
027710/20130404/111439/1185/102/20/
027710/20130404/111442/1185/106/20/
027710/20130404/111444/1185/106/20/
027710/20130404/111445/1180/1002/10/
027710/20130404/111446/1185/101/20/
027710/20130404/111447/1185/103/20/
027710/20130404/111451/1185/107/20/
027710/20130404/111451/1180/120/10/
027710/20130404/111454/1180/106/20/
027710/20130404/111456/1180/4004/20/
027710/20130404/111456/1175/7689/10/
027710/20130404/111459/1175/10038/10/
027710/20130404/111459/1170/1637/10/
027710/20130404/111501/1170/15006/10/
027710/20130404/111502/1175/203/20/
027710/20130404/111503/1170/1215/10/
027710/20130404/111506/1165/107/10/
027710/20130404/111506/1165/1142/10/
027710/20130404/111508/1165/4485/10/
027710/20130404/111510/1170/999/20/
027710/20130404/111512/1165/3967/10/
027710/20130404/111512/1160/441/10/
027710/20130404/111514/1160/112/10/
027710/20130404/111516/1165/1043/20/
027710/20130404/111517/1165/1013/20/
027710/20130404/111517/1165/100/20/
027710/20130404/111517/1160/113/10/
027710/20130404/111518/1160/219/10/
027710/20130404/111518/1160/111/10/
027710/20130404/111519/1160/113/10/
027710/20130404/111519/1160/113/10/
027710/20130404/111520/1160/102/10/
027710/20130404/111520/1160/111/10/
027710/20130404/111520/1160/113/10/
027710/20130404/111521/1165/16867/20/
027710/20130404/111521/1175/302/20/
027710/20130404/111523/1165/156/10/
027710/20130404/111525/1175/11649/20/
027710/20130404/111529/1180/329/20/
027710/20130404/111536/1175/6450/10/
027710/20130404/111538/1175/100/20/
027710/20130404/111539/1175/254/20/
027710/20130404/111546/1175/1506/20/
027710/20130404/111557/1170/1015/10/
027710/20130404/111559/1175/1843/20/
027710/20130404/111605/1180/3000/20/
027710/20130404/111606/1180/337/20/
027710/20130404/111624/1180/2019/20/
027710/20130404/111626/1180/100/20/
027710/20130404/111627/1180/2083/20/
027710/20130404/111629/1185/1000/20/
027710/20130404/111633/1185/1717/20/
027710/20130404/111638/1185/1186/20/
027710/20130404/111641/1185/101/20/
027710/20130404/111642/1180/2913/10/
027710/20130404/111642/1180/600/10/
027710/20130404/111643/1180/1715/20/
027710/20130404/111643/1180/4774/20/
027710/20130404/111654/1185/1007/20/
027710/20130404/111656/1180/1002/10/
027710/20130404/111705/1185/5587/20/
027710/20130404/111708/1190/1002/20/
027710/20130404/111719/1185/304/10/
027710/20130404/111742/1190/3016/20/
027710/20130404/111745/1190/542/20/
027710/20130404/111752/1190/1058/10/
027710/20130404/111755/1190/1001/20/
027710/20130404/111800/1190/1904/20/
027710/20130404/111811/1195/2301/20/
027710/20130404/111811/1200/701/20/
027710/20130404/111836/1195/1000/20/
027710/20130404/111836/1200/1000/20/
027710/20130404/111908/1195/100/20/
027710/20130404/111918/1190/4833/10/
027710/20130404/111922/1190/83/20/
027710/20130404/111926/1190/154/20/
027710/20130404/111932/1190/2400/10/
027710/20130404/112037/1190/1071/10/
027710/20130404/112104/1190/99/10/
027710/20130404/112111/1195/87/20/
027710/20130404/112116/1190/5355/10/
027710/20130404/112116/1185/145/10/
027710/20130404/112153/1190/208/20/
027710/20130404/112153/1190/2022/20/
027710/20130404/112157/1195/100/20/
027710/20130404/112158/1190/700/10/
027710/20130404/112202/1195/200/20/
027710/20130404/112205/1195/200/20/
027710/20130404/112207/1195/200/20/
027710/20130404/112237/1195/5050/20/
027710/20130404/112244/1195/703/20/
027710/20130404/112257/1195/3904/10/
027710/20130404/112305/1200/100/20/
027710/20130404/112329/1200/1500/20/
027710/20130404/112344/1195/1000/10/
027710/20130404/112346/1195/823/10/
027710/20130404/112354/1195/6000/10/
027710/20130404/112401/1195/740/10/
027710/20130404/112434/1195/1020/10/
027710/20130404/112434/1195/325/10/
027710/20130404/112436/1195/7598/10/
027710/20130404/112437/1195/2402/20/
027710/20130404/112451/1195/3000/20/
027710/20130404/112539/1195/271/10/
027710/20130404/112541/1195/3730/20/
027710/20130404/112550/1195/1381/10/
027710/20130404/112550/1195/2620/20/
027710/20130404/112630/1195/102/10/
027710/20130404/112639/1195/1907/20/
027710/20130404/112649/1200/1000/20/
027710/20130404/112656/1195/5008/10/
027710/20130404/112725/1200/1001/20/
027710/20130404/112742/1200/500/20/
027710/20130404/112751/1200/400/20/
027710/20130404/112755/1200/4000/20/
027710/20130404/112757/1200/3708/20/
027710/20130404/112804/1200/3500/10/
027710/20130404/112804/1200/1125/10/
027710/20130404/112816/1205/81/20/
027710/20130404/112828/1200/1070/20/
027710/20130404/112834/1200/2042/20/
027710/20130404/112840/1195/741/10/
027710/20130404/112849/1195/3289/20/
027710/20130404/112905/1200/138/20/
027710/20130404/112908/1200/281/10/
027710/20130404/112916/1200/503/20/
027710/20130404/112921/1200/834/20/
027710/20130404/112936/1200/500/20/
027710/20130404/112938/1200/3000/20/
027710/20130404/112938/1200/882/20/
027710/20130404/112944/1195/6848/10/
027710/20130404/112944/1190/14340/10/
027710/20130404/112953/1200/5000/20/
027710/20130404/113011/1200/357/20/
027710/20130404/113026/1205/4883/20/
027710/20130404/113046/1205/3505/20/
027710/20130404/113122/1205/200/20/
027710/20130404/113220/1205/100/20/
027710/20130404/113223/1205/100/20/
027710/20130404/113318/1200/803/10/
027710/20130404/113326/1200/90/10/
027710/20130404/113349/1205/948/20/
027710/20130404/113351/1205/400/20/
027710/20130404/113517/1200/3251/10/
027710/20130404/113518/1200/800/10/
027710/20130404/113530/1200/800/10/
027710/20130404/113611/1200/921/10/
027710/20130404/113630/1200/304/10/
027710/20130404/113643/1200/789/10/
027710/20130404/113738/1200/6328/10/
027710/20130404/113810/1200/210/20/
027710/20130404/113850/1200/4001/20/
027710/20130404/113859/1195/900/10/
027710/20130404/113934/1195/9591/10/
027710/20130404/113935/1195/1856/10/
027710/20130404/113942/1195/500/10/
027710/20130404/113942/1195/9624/10/
027710/20130404/113946/1195/100/10/
027710/20130404/113947/1195/461/10/
027710/20130404/114038/1195/101/20/
027710/20130404/114056/1195/9176/20/
027710/20130404/114118/1195/1994/10/
027710/20130404/114123/1195/5020/20/
027710/20130404/114133/1195/3056/20/
027710/20130404/114205/1195/227/10/
027710/20130404/114208/1195/2327/10/
027710/20130404/114218/1195/701/10/
027710/20130404/114220/1195/1622/10/
027710/20130404/114235/1195/2186/10/
027710/20130404/114340/1195/5011/20/
027710/20130404/114410/1195/2503/20/
027710/20130404/114413/1195/941/20/
027710/20130404/114438/1195/201/10/
027710/20130404/114438/1190/191/10/
027710/20130404/114439/1200/4539/20/
027710/20130404/114445/1200/100/20/
027710/20130404/114506/1190/530/10/
027710/20130404/114603/1190/206/10/
027710/20130404/114812/1195/4003/10/
027710/20130404/114814/1195/674/20/
027710/20130404/114834/1195/1008/20/
027710/20130404/114940/1195/4324/20/
027710/20130404/114950/1200/100/20/
027710/20130404/115010/1195/2398/10/
027710/20130404/115048/1200/100/20/
027710/20130404/115053/1200/30010/20/
027710/20130404/115053/1200/9032/20/
027710/20130404/115435/1200/6676/10/
027710/20130404/115513/1200/150/20/
027710/20130404/115601/1200/3305/20/
027710/20130404/115717/1200/1002/10/
027710/20130404/115717/1200/1999/20/
027710/20130404/115753/1200/2000/20/
027710/20130404/115914/1205/201/20/
027710/20130404/120057/1200/883/10/
027710/20130404/120114/1205/100/20/
027710/20130404/120308/1205/1069/20/
027710/20130404/120308/1205/1000/20/
027710/20130404/120308/1205/3000/20/
027710/20130404/120326/1205/3181/20/
027710/20130404/120620/1210/137/20/
027710/20130404/120636/1210/5773/20/
027710/20130404/120904/1205/2064/10/
027710/20130404/121225/1210/122/20/
027710/20130404/121326/1210/86/20/
027710/20130404/121521/1210/1029/20/
027710/20130404/121539/1210/100/20/
027710/20130404/121610/1210/320/20/
027710/20130404/121617/1210/3644/20/
027710/20130404/121618/1210/1697/20/
027710/20130404/121754/1210/304/10/
027710/20130404/121839/1210/1991/10/
027710/20130404/122014/1210/203/10/
027710/20130404/122014/1210/4824/20/
027710/20130404/122032/1210/1001/10/
027710/20130404/122105/1210/4000/20/
027710/20130404/122402/1210/1047/10/
027710/20130404/122503/1210/301/10/
027710/20130404/122543/1215/1001/20/
027710/20130404/122730/1210/818/10/
027710/20130404/122730/1210/2762/20/
027710/20130404/122826/1205/5001/10/
027710/20130404/122909/1210/402/20/
027710/20130404/122911/1205/3800/10/
027710/20130404/122959/1210/98/20/
027710/20130404/123038/1210/1111/10/
027710/20130404/123109/1210/2000/20/
027710/20130404/123109/1210/4390/10/
027710/20130404/123125/1205/3673/10/
027710/20130404/123131/1205/500/10/
027710/20130404/123610/1210/104/10/
027710/20130404/123833/1210/470/10/
027710/20130404/123833/1205/4539/10/
027710/20130404/124315/1215/92/20/
027710/20130404/124447/1215/90/20/
027710/20130404/124619/1210/534/10/
027710/20130404/124815/1210/500/20/
027710/20130404/124825/1210/500/20/
027710/20130404/124918/1205/2130/10/
027710/20130404/124918/1200/3643/10/
027710/20130404/124918/1200/2390/10/
027710/20130404/125308/1205/1032/10/
027710/20130404/125327/1205/1380/10/
027710/20130404/125404/1205/3499/10/
027710/20130404/125712/1210/4139/20/
027710/20130404/125726/1210/500/20/
027710/20130404/125934/1205/3010/10/
027710/20130404/130057/1205/457/10/
027710/20130404/130204/1210/2001/20/
027710/20130404/130314/1205/300/10/
027710/20130404/130410/1205/3000/10/
027710/20130404/130555/1205/4000/10/
027710/20130404/130605/1205/3187/10/
027710/20130404/130623/1205/4313/20/
027710/20130404/130644/1205/361/10/
027710/20130404/130652/1205/100/10/
027710/20130404/130655/1205/100/10/
027710/20130404/130659/1205/100/10/
027710/20130404/130705/1205/2026/10/
027710/20130404/130707/1205/2000/20/
027710/20130404/130723/1205/88/20/
027710/20130404/130752/1205/101/20/
027710/20130404/130804/1205/2000/20/
027710/20130404/130818/1200/101/10/
027710/20130404/130820/1200/100/10/
027710/20130404/130822/1200/100/10/
027710/20130404/130841/1205/785/20/
027710/20130404/130959/1205/1754/10/
027710/20130404/131032/1205/500/10/
027710/20130404/131045/1205/2000/10/
027710/20130404/131105/1205/1000/10/
027710/20130404/131157/1205/3962/10/
027710/20130404/131207/1205/1038/20/
027710/20130404/131218/1205/89/10/
027710/20130404/131220/1205/5000/10/
027710/20130404/131234/1205/81/10/
027710/20130404/131251/1205/5404/10/
027710/20130404/131313/1205/4598/20/
027710/20130404/131404/1210/204/20/
027710/20130404/131441/1210/4072/20/
027710/20130404/131448/1210/960/20/
027710/20130404/131504/1210/2265/10/
027710/20130404/131605/1210/330/20/
027710/20130404/131700/1210/2588/20/
027710/20130404/131713/1210/5001/10/
027710/20130404/131738/1210/2416/10/
027710/20130404/131745/1210/1735/20/
027710/20130404/131907/1210/201/10/
027710/20130404/132009/1210/475/20/
027710/20130404/132225/1210/331/20/
027710/20130404/132225/1210/4494/20/
027710/20130404/132341/1210/826/20/
027710/20130404/132833/1210/5020/20/
027710/20130404/132834/1210/8000/20/
027710/20130404/132925/1205/1572/10/
027710/20130404/133137/1205/511/10/
027710/20130404/133138/1210/3000/20/
027710/20130404/133314/1210/837/20/
027710/20130404/133526/1210/13021/20/
027710/20130404/133526/1210/3953/20/
027710/20130404/133628/1210/1006/10/
027710/20130404/133638/1210/2280/20/
027710/20130404/133638/1210/4215/20/
027710/20130404/133901/1215/101/20/
027710/20130404/133916/1215/100/20/
027710/20130404/134339/1215/262/20/
027710/20130404/134603/1215/1024/20/
027710/20130404/134905/1210/517/10/
027710/20130404/135001/1210/3001/10/
027710/20130404/135240/1210/1001/10/
027710/20130404/135725/1210/517/10/
027710/20130404/135737/1210/2600/10/
027710/20130404/135816/1210/2401/10/
027710/20130404/135924/1210/2042/10/
027710/20130404/140036/1210/929/20/
027710/20130404/140037/1210/2267/20/
027710/20130404/140126/1210/500/20/
027710/20130404/140531/1205/119/10/
027710/20130404/140539/1210/2000/20/
027710/20130404/140614/1205/948/10/
027710/20130404/140618/1210/500/20/
027710/20130404/140624/1210/2000/20/
027710/20130404/140709/1210/398/20/
027710/20130404/140720/1210/500/20/
027710/20130404/140733/1205/1100/10/
027710/20130404/140743/1210/315/20/
027710/20130404/140800/1205/200/10/
027710/20130404/140900/1205/24140/10/
027710/20130404/141158/1205/1001/10/
027710/20130404/141502/1210/501/20/
027710/20130404/141647/1205/4500/10/
027710/20130404/141657/1205/16179/10/
027710/20130404/141712/1205/2959/10/
027710/20130404/141720/1205/4722/10/
027710/20130404/141722/1205/5278/20/
027710/20130404/141725/1205/4600/10/
027710/20130404/141822/1205/683/10/
027710/20130404/141849/1200/3000/10/
027710/20130404/141854/1200/10000/10/
027710/20130404/141910/1200/100/10/
027710/20130404/141921/1200/151/10/
027710/20130404/141921/1200/350/10/
027710/20130404/142201/1205/758/10/
027710/20130404/142219/1205/1279/10/
027710/20130404/142236/1205/1010/20/
027710/20130404/142243/1205/5704/20/
027710/20130404/142400/1205/1030/10/
027710/20130404/142548/1205/1023/10/
027710/20130404/142638/1205/1037/10/
027710/20130404/142721/1205/1070/10/
027710/20130404/142726/1205/100/20/
027710/20130404/142754/1205/971/10/
027710/20130404/142804/1200/6038/10/
027710/20130404/142819/1200/11698/10/
027710/20130404/142823/1200/634/10/
027710/20130404/142842/1205/100/20/
027710/20130404/142938/1200/2001/10/
027710/20130404/142952/1200/6330/10/
027710/20130404/142957/1200/5916/10/
027710/20130404/143038/1200/4000/10/
027710/20130404/143100/1200/340/10/
027710/20130404/143123/1200/1500/10/
027710/20130404/143213/1200/3201/10/
027710/20130404/143218/1200/2000/10/
027710/20130404/143412/1200/1000/10/
027710/20130404/143413/1205/1000/20/
027710/20130404/143505/1205/152/20/
027710/20130404/143616/1205/200/20/
027710/20130404/143658/1205/310/20/
027710/20130404/143719/1200/1000/10/
027710/20130404/143733/1200/200/10/
027710/20130404/143807/1205/171/20/
027710/20130404/143902/1205/1531/20/
027710/20130404/143913/1200/1000/10/
027710/20130404/143929/1205/764/20/
027710/20130404/143929/1205/150/20/
027710/20130404/143951/1205/1000/20/
027710/20130404/144006/1205/7959/20/
027710/20130404/144040/1205/4002/10/
027710/20130404/144157/1205/1201/10/
027710/20130404/144236/1205/2751/10/
027710/20130404/144242/1205/901/20/
027710/20130404/144302/1205/955/20/
027710/20130404/144304/1205/399/20/
027710/20130404/144345/1205/1238/10/
027710/20130404/144347/1205/962/20/
027710/20130404/144354/1205/4038/10/
027710/20130404/144423/1205/2510/20/
027710/20130404/144426/1205/1000/20/
027710/20130404/144429/1205/500/20/
027710/20130404/144445/1205/300/20/
027710/20130404/144452/1205/302/20/
027710/20130404/144456/1205/1040/10/
027710/20130404/144512/1205/387/10/
027710/20130404/144512/1200/4613/10/
027710/20130404/144515/1200/1500/10/
027710/20130404/144639/1210/85/20/
027710/20130404/144655/1205/1005/10/
027710/20130404/144656/1205/995/20/
027710/20130404/144710/1205/4000/10/
027710/20130404/144720/1205/762/10/
027710/20130404/144758/1200/700/10/
027710/20130404/144801/1200/1500/10/
027710/20130404/144808/1200/5000/10/
027710/20130404/144822/1200/1000/10/
027710/20130404/144829/1200/3000/10/
027710/20130404/144927/1205/132/20/
027710/20130404/144955/1205/2425/20/
027710/20130404/150000/1205/76773/10/
