027710/20130329/90000/1290/19942/20/
027710/20130329/90000/1285/300/10/
027710/20130329/90002/1285/5053/10/
027710/20130329/90011/1285/140/10/
027710/20130329/90023/1290/101/20/
027710/20130329/90040/1290/14000/20/
027710/20130329/90043/1290/546/20/
027710/20130329/90048/1290/2000/20/
027710/20130329/90051/1290/757/20/
027710/20130329/90053/1290/5000/20/
027710/20130329/90053/1290/7623/20/
027710/20130329/90053/1295/1000/20/
027710/20130329/90055/1290/1000/10/
027710/20130329/90115/1290/84/10/
027710/20130329/90126/1290/2323/10/
027710/20130329/90128/1290/7161/10/
027710/20130329/90134/1290/4001/20/
027710/20130329/90135/1290/3378/20/
027710/20130329/90137/1290/1522/10/
027710/20130329/90139/1290/479/20/
027710/20130329/90141/1290/1000/10/
027710/20130329/90141/1290/523/10/
027710/20130329/90141/1285/967/10/
027710/20130329/90153/1290/1011/20/
027710/20130329/90206/1290/5062/20/
027710/20130329/90209/1290/3001/20/
027710/20130329/90209/1290/1000/20/
027710/20130329/90209/1290/1597/20/
027710/20130329/90218/1290/103/10/
027710/20130329/90224/1290/501/10/
027710/20130329/90225/1295/1228/20/
027710/20130329/90225/1290/7007/10/
027710/20130329/90244/1290/1001/20/
027710/20130329/90310/1285/1077/10/
027710/20130329/90313/1285/10028/10/
027710/20130329/90316/1285/7577/10/
027710/20130329/90316/1285/5000/10/
027710/20130329/90332/1285/1995/10/
027710/20130329/90334/1285/2047/10/
027710/20130329/90335/1285/1250/10/
027710/20130329/90336/1285/401/10/
027710/20130329/90339/1285/100/20/
027710/20130329/90341/1285/1000/20/
027710/20130329/90346/1285/616/20/
027710/20130329/90405/1285/1000/10/
027710/20130329/90413/1285/1893/10/
027710/20130329/90420/1285/10000/20/
027710/20130329/90423/1285/1717/20/
027710/20130329/90423/1285/576/20/
027710/20130329/90424/1285/5000/20/
027710/20130329/90424/1285/886/20/
027710/20130329/90428/1285/300/10/
027710/20130329/90444/1285/2360/20/
027710/20130329/90454/1280/1000/10/
027710/20130329/90456/1280/6300/10/
027710/20130329/90457/1280/778/10/
027710/20130329/90501/1280/5651/10/
027710/20130329/90505/1280/6265/10/
027710/20130329/90506/1280/2000/10/
027710/20130329/90507/1280/1968/10/
027710/20130329/90523/1280/89/10/
027710/20130329/90523/1275/430/10/
027710/20130329/90524/1275/25006/10/
027710/20130329/90528/1275/1563/10/
027710/20130329/90553/1275/3020/10/
027710/20130329/90553/1280/5000/20/
027710/20130329/90554/1280/5000/20/
027710/20130329/90558/1280/2007/20/
027710/20130329/90606/1275/305/10/
027710/20130329/90607/1275/467/10/
027710/20130329/90614/1280/1084/20/
027710/20130329/90619/1280/1500/20/
027710/20130329/90622/1280/1563/20/
027710/20130329/90626/1280/4396/20/
027710/20130329/90628/1280/600/10/
027710/20130329/90654/1280/272/10/
027710/20130329/90700/1280/1694/10/
027710/20130329/90700/1280/100/20/
027710/20130329/90712/1280/290/20/
027710/20130329/90722/1280/2421/20/
027710/20130329/90725/1280/3673/20/
027710/20130329/90731/1280/1000/10/
027710/20130329/90735/1280/338/10/
027710/20130329/90832/1275/92/10/
027710/20130329/90841/1275/4000/10/
027710/20130329/90855/1275/2426/10/
027710/20130329/90900/1275/5150/10/
027710/20130329/90907/1275/2500/10/
027710/20130329/90909/1275/801/10/
027710/20130329/90914/1275/200/10/
027710/20130329/90918/1275/6500/10/
027710/20130329/90933/1275/1927/10/
027710/20130329/90943/1275/1000/10/
027710/20130329/90946/1275/241/10/
027710/20130329/90946/1275/799/20/
027710/20130329/90955/1275/536/10/
027710/20130329/91013/1275/1575/10/
027710/20130329/91016/1275/690/10/
027710/20130329/91032/1275/4178/10/
027710/20130329/91112/1275/2355/10/
027710/20130329/91118/1275/2935/10/
027710/20130329/91130/1275/1015/20/
027710/20130329/91135/1275/1085/20/
027710/20130329/91135/1275/464/20/
027710/20130329/91153/1275/153/10/
027710/20130329/91213/1275/2102/10/
027710/20130329/91220/1280/12851/20/
027710/20130329/91309/1285/12506/20/
027710/20130329/91310/1285/6615/20/
027710/20130329/91324/1290/2500/20/
027710/20130329/91332/1290/100/20/
027710/20130329/91420/1285/4410/10/
027710/20130329/91423/1285/2325/20/
027710/20130329/91432/1285/7379/20/
027710/20130329/91526/1290/81/20/
027710/20130329/91537/1285/180/10/
027710/20130329/91548/1285/1982/20/
027710/20130329/91553/1285/7140/20/
027710/20130329/91555/1285/401/20/
027710/20130329/91558/1285/100/20/
027710/20130329/91611/1285/1020/20/
027710/20130329/91614/1285/1002/20/
027710/20130329/91616/1285/208/20/
027710/20130329/91622/1285/1196/20/
027710/20130329/91622/1285/3500/20/
027710/20130329/91627/1285/82/20/
027710/20130329/91629/1285/3549/20/
027710/20130329/91631/1285/436/20/
027710/20130329/91632/1285/663/10/
027710/20130329/91633/1285/2034/20/
027710/20130329/91636/1285/81/20/
027710/20130329/91639/1285/81/20/
027710/20130329/91643/1285/82/20/
027710/20130329/91646/1285/82/20/
027710/20130329/91648/1285/81/20/
027710/20130329/91651/1285/106/20/
027710/20130329/91651/1285/111/20/
027710/20130329/91654/1285/81/20/
027710/20130329/91656/1285/3970/20/
027710/20130329/91659/1285/1987/20/
027710/20130329/91700/1285/417/20/
027710/20130329/91700/1285/1700/20/
027710/20130329/91717/1290/168/20/
027710/20130329/91718/1290/1302/20/
027710/20130329/91720/1290/785/20/
027710/20130329/91737/1290/879/20/
027710/20130329/91738/1290/1045/20/
027710/20130329/91741/1290/243/20/
027710/20130329/91751/1290/2025/20/
027710/20130329/91758/1290/86/20/
027710/20130329/91800/1290/1006/20/
027710/20130329/91805/1285/20020/10/
027710/20130329/91810/1285/819/10/
027710/20130329/91824/1285/2408/10/
027710/20130329/91826/1285/4861/10/
027710/20130329/91830/1285/317/20/
027710/20130329/91833/1280/6814/10/
027710/20130329/91834/1280/6000/10/
027710/20130329/91901/1285/254/20/
027710/20130329/91913/1280/3516/10/
027710/20130329/91935/1280/3509/10/
027710/20130329/91938/1280/157/10/
027710/20130329/91952/1280/988/10/
027710/20130329/92027/1280/1700/10/
027710/20130329/92040/1280/1111/10/
027710/20130329/92045/1280/1000/10/
027710/20130329/92158/1285/5001/20/
027710/20130329/92204/1285/100/20/
027710/20130329/92210/1285/1000/20/
027710/20130329/92221/1285/100/20/
027710/20130329/92223/1285/1000/20/
027710/20130329/92227/1285/2639/20/
027710/20130329/92230/1285/669/20/
027710/20130329/92239/1285/9600/10/
027710/20130329/92254/1285/249/10/
027710/20130329/92308/1285/306/10/
027710/20130329/92324/1285/3409/10/
027710/20130329/92347/1290/3042/20/
027710/20130329/92358/1290/10000/20/
027710/20130329/92401/1290/1000/20/
027710/20130329/92412/1290/520/20/
027710/20130329/92414/1290/1550/20/
027710/20130329/92418/1290/738/20/
027710/20130329/92421/1290/7637/20/
027710/20130329/92430/1290/1000/10/
027710/20130329/92430/1295/193/20/
027710/20130329/92430/1295/193/20/
027710/20130329/92430/1295/193/20/
027710/20130329/92430/1295/193/20/
027710/20130329/92430/1295/193/20/
027710/20130329/92431/1290/500/10/
027710/20130329/92452/1290/1071/10/
027710/20130329/92521/1290/2000/10/
027710/20130329/92522/1290/3907/10/
027710/20130329/92539/1290/350/20/
027710/20130329/92539/1290/500/20/
027710/20130329/92541/1290/1243/20/
027710/20130329/92544/1290/431/10/
027710/20130329/92546/1290/511/10/
027710/20130329/92602/1290/103/10/
027710/20130329/92731/1285/305/10/
027710/20130329/92736/1285/203/10/
027710/20130329/92755/1285/3000/10/
027710/20130329/92803/1285/3153/10/
027710/20130329/92822/1285/2000/20/
027710/20130329/92825/1285/9388/20/
027710/20130329/92833/1285/612/10/
027710/20130329/92933/1285/2056/10/
027710/20130329/92948/1290/21473/20/
027710/20130329/93006/1290/10041/10/
027710/20130329/93028/1290/126/10/
027710/20130329/93107/1290/446/10/
027710/20130329/93115/1295/505/20/
027710/20130329/93128/1295/30021/20/
027710/20130329/93131/1295/400/20/
027710/20130329/93139/1295/12368/20/
027710/20130329/93154/1300/17650/20/
027710/20130329/93158/1300/2366/20/
027710/20130329/93200/1300/1010/20/
027710/20130329/93201/1300/4005/20/
027710/20130329/93203/1300/5000/20/
027710/20130329/93206/1300/87/20/
027710/20130329/93206/1300/2400/20/
027710/20130329/93207/1300/100/20/
027710/20130329/93208/1300/1000/20/
027710/20130329/93208/1300/4911/20/
027710/20130329/93209/1300/500/20/
027710/20130329/93209/1300/3000/20/
027710/20130329/93210/1300/2000/20/
027710/20130329/93211/1300/900/20/
027710/20130329/93211/1300/1000/20/
027710/20130329/93212/1300/200/20/
027710/20130329/93215/1300/790/20/
027710/20130329/93217/1300/2000/20/
027710/20130329/93218/1300/1000/20/
027710/20130329/93219/1300/3000/20/
027710/20130329/93219/1300/387/20/
027710/20130329/93220/1300/600/20/
027710/20130329/93222/1300/1000/20/
027710/20130329/93222/1300/2574/20/
027710/20130329/93223/1300/90/20/
027710/20130329/93224/1300/3500/20/
027710/20130329/93224/1300/1000/20/
027710/20130329/93224/1300/1500/20/
027710/20130329/93225/1300/2307/20/
027710/20130329/93225/1300/200/20/
027710/20130329/93225/1300/883/20/
027710/20130329/93226/1300/466/20/
027710/20130329/93226/1305/4534/20/
027710/20130329/93228/1300/200/10/
027710/20130329/93230/1300/580/10/
027710/20130329/93244/1300/1010/20/
027710/20130329/93250/1300/782/20/
027710/20130329/93300/1300/511/20/
027710/20130329/93304/1300/9857/20/
027710/20130329/93305/1300/2462/20/
027710/20130329/93305/1300/95/20/
027710/20130329/93308/1300/651/20/
027710/20130329/93311/1300/6227/10/
027710/20130329/93321/1300/165/10/
027710/20130329/93359/1300/3000/20/
027710/20130329/93415/1295/2040/10/
027710/20130329/93421/1295/2736/10/
027710/20130329/93438/1295/20566/20/
027710/20130329/93448/1300/22000/20/
027710/20130329/93459/1300/4329/20/
027710/20130329/93517/1300/3620/20/
027710/20130329/93529/1300/2100/10/
027710/20130329/93529/1300/2360/10/
027710/20130329/93531/1300/1000/10/
027710/20130329/93533/1300/2330/10/
027710/20130329/93610/1300/714/20/
027710/20130329/93624/1300/200/20/
027710/20130329/93630/1300/2971/20/
027710/20130329/93631/1300/2978/20/
027710/20130329/93633/1300/1000/20/
027710/20130329/93635/1300/526/20/
027710/20130329/93636/1300/200/20/
027710/20130329/93639/1295/200/10/
027710/20130329/93640/1300/1000/20/
027710/20130329/93646/1300/100/20/
027710/20130329/93724/1295/13178/10/
027710/20130329/93724/1290/9012/10/
027710/20130329/93730/1295/151/20/
027710/20130329/93736/1295/360/20/
027710/20130329/93745/1295/400/10/
027710/20130329/93751/1295/1000/10/
027710/20130329/93754/1295/1351/10/
027710/20130329/93758/1290/5000/10/
027710/20130329/93800/1295/500/20/
027710/20130329/93817/1295/102/20/
027710/20130329/93849/1295/520/20/
027710/20130329/93852/1295/2704/20/
027710/20130329/93857/1295/531/20/
027710/20130329/93904/1295/2000/20/
027710/20130329/93906/1295/1000/20/
027710/20130329/93910/1295/4365/20/
027710/20130329/93911/1295/737/20/
027710/20130329/93913/1295/1406/20/
027710/20130329/93923/1295/1000/10/
027710/20130329/94014/1300/352/20/
027710/20130329/94018/1300/5050/20/
027710/20130329/94042/1300/24965/20/
027710/20130329/94047/1305/1000/20/
027710/20130329/94051/1305/1000/20/
027710/20130329/94052/1305/19471/20/
027710/20130329/94104/1305/1000/10/
027710/20130329/94107/1305/766/10/
027710/20130329/94114/1310/150/20/
027710/20130329/94115/1310/100/20/
027710/20130329/94118/1305/768/10/
027710/20130329/94124/1310/100/20/
027710/20130329/94134/1305/769/10/
027710/20130329/94135/1305/2000/10/
027710/20130329/94141/1310/122/20/
027710/20130329/94142/1310/1000/20/
027710/20130329/94146/1310/1001/20/
027710/20130329/94148/1310/42312/20/
027710/20130329/94149/1310/2050/10/
027710/20130329/94154/1310/2001/10/
027710/20130329/94156/1310/100/10/
027710/20130329/94157/1310/1000/10/
027710/20130329/94158/1310/764/10/
027710/20130329/94159/1310/420/10/
027710/20130329/94200/1310/3396/10/
027710/20130329/94206/1310/400/20/
027710/20130329/94207/1310/10000/20/
027710/20130329/94207/1310/727/20/
027710/20130329/94209/1310/1000/20/
027710/20130329/94209/1310/300/20/
027710/20130329/94210/1310/1259/20/
027710/20130329/94216/1315/1200/20/
027710/20130329/94222/1310/1002/10/
027710/20130329/94223/1315/1000/20/
027710/20130329/94223/1315/801/20/
027710/20130329/94225/1315/1000/20/
027710/20130329/94229/1315/300/20/
027710/20130329/94231/1315/1019/20/
027710/20130329/94235/1315/3817/20/
027710/20130329/94237/1315/101/20/
027710/20130329/94237/1315/3000/20/
027710/20130329/94238/1315/500/20/
027710/20130329/94241/1315/5002/20/
027710/20130329/94243/1315/501/20/
027710/20130329/94243/1315/140/20/
027710/20130329/94244/1315/1001/20/
027710/20130329/94249/1315/234/20/
027710/20130329/94249/1315/19681/20/
027710/20130329/94256/1315/1003/10/
027710/20130329/94258/1315/502/10/
027710/20130329/94303/1315/5001/10/
027710/20130329/94305/1315/7331/10/
027710/20130329/94306/1315/686/10/
027710/20130329/94307/1315/400/10/
027710/20130329/94307/1315/100/10/
027710/20130329/94307/1315/3001/10/
027710/20130329/94308/1315/2767/10/
027710/20130329/94309/1315/1000/20/
027710/20130329/94310/1315/501/20/
027710/20130329/94314/1315/303/20/
027710/20130329/94318/1315/7598/20/
027710/20130329/94319/1315/1101/20/
027710/20130329/94319/1315/207/20/
027710/20130329/94321/1315/2190/10/
027710/20130329/94322/1315/366/10/
027710/20130329/94323/1315/5035/20/
027710/20130329/94327/1315/8136/20/
027710/20130329/94327/1320/1903/20/
027710/20130329/94327/1315/800/10/
027710/20130329/94330/1315/1986/20/
027710/20130329/94330/1315/1016/10/
027710/20130329/94333/1315/101/20/
027710/20130329/94334/1315/501/20/
027710/20130329/94344/1310/5001/10/
027710/20130329/94344/1315/1060/20/
027710/20130329/94347/1315/2702/20/
027710/20130329/94348/1315/200/20/
027710/20130329/94358/1315/320/20/
027710/20130329/94401/1315/1048/20/
027710/20130329/94405/1310/2556/10/
027710/20130329/94423/1310/250/20/
027710/20130329/94429/1310/289/20/
027710/20130329/94434/1310/5000/20/
027710/20130329/94434/1310/180/20/
027710/20130329/94435/1310/1940/20/
027710/20130329/94439/1310/1084/10/
027710/20130329/94439/1310/977/10/
027710/20130329/94445/1310/113/10/
027710/20130329/94446/1310/947/20/
027710/20130329/94450/1310/1000/10/
027710/20130329/94451/1310/4117/10/
027710/20130329/94453/1310/3001/20/
027710/20130329/94454/1310/382/20/
027710/20130329/94455/1310/100/10/
027710/20130329/94458/1310/500/10/
027710/20130329/94458/1310/6500/10/
027710/20130329/94459/1310/9155/10/
027710/20130329/94508/1310/2502/20/
027710/20130329/94511/1305/500/10/
027710/20130329/94515/1305/518/10/
027710/20130329/94518/1305/500/10/
027710/20130329/94523/1305/500/10/
027710/20130329/94525/1305/3000/10/
027710/20130329/94527/1305/500/10/
027710/20130329/94536/1310/628/20/
027710/20130329/94543/1305/5000/10/
027710/20130329/94545/1305/500/10/
027710/20130329/94545/1305/737/10/
027710/20130329/94545/1300/263/10/
027710/20130329/94604/1310/1246/20/
027710/20130329/94615/1305/100/20/
027710/20130329/94630/1310/500/20/
027710/20130329/94650/1310/8157/20/
027710/20130329/94650/1310/843/10/
027710/20130329/94705/1315/265/20/
027710/20130329/94706/1315/150/20/
027710/20130329/94714/1310/211/10/
027710/20130329/94722/1305/5011/10/
027710/20130329/94723/1310/2800/20/
027710/20130329/94738/1310/217/20/
027710/20130329/94741/1310/1156/20/
027710/20130329/94834/1310/5063/20/
027710/20130329/94835/1310/5000/20/
027710/20130329/94852/1310/20000/20/
027710/20130329/94854/1305/1000/10/
027710/20130329/94859/1310/1065/20/
027710/20130329/94908/1310/1500/20/
027710/20130329/94909/1310/2000/20/
027710/20130329/94911/1310/1964/20/
027710/20130329/94913/1310/491/10/
027710/20130329/94916/1310/553/10/
027710/20130329/94919/1310/4417/10/
027710/20130329/94920/1310/583/20/
027710/20130329/94935/1310/715/10/
027710/20130329/94944/1310/7050/10/
027710/20130329/94948/1310/5000/10/
027710/20130329/94949/1310/163/10/
027710/20130329/94949/1310/500/10/
027710/20130329/94951/1310/1557/10/
027710/20130329/94952/1310/5000/10/
027710/20130329/94952/1310/6438/10/
027710/20130329/94957/1310/1000/20/
027710/20130329/95013/1310/136/20/
027710/20130329/95028/1310/2038/20/
027710/20130329/95033/1310/317/20/
027710/20130329/95039/1310/1024/20/
027710/20130329/95040/1310/6077/20/
027710/20130329/95042/1310/100/10/
027710/20130329/95043/1310/3823/10/
027710/20130329/95044/1310/94/20/
027710/20130329/95046/1310/119/20/
027710/20130329/95102/1305/984/10/
027710/20130329/95108/1310/81/20/
027710/20130329/95156/1310/82/20/
027710/20130329/95243/1305/10728/10/
027710/20130329/95245/1305/4365/10/
027710/20130329/95246/1305/4000/10/
027710/20130329/95246/1305/7941/10/
027710/20130329/95246/1300/206/10/
027710/20130329/95308/1305/1001/20/
027710/20130329/95308/1300/1738/10/
027710/20130329/95325/1300/1013/10/
027710/20130329/95330/1300/5239/10/
027710/20130329/95333/1300/799/10/
027710/20130329/95336/1300/3969/10/
027710/20130329/95354/1305/8205/20/
027710/20130329/95354/1305/100/10/
027710/20130329/95357/1305/1000/10/
027710/20130329/95359/1305/698/10/
027710/20130329/95400/1300/100/10/
027710/20130329/95407/1305/585/20/
027710/20130329/95414/1305/1000/10/
027710/20130329/95418/1310/5001/20/
027710/20130329/95440/1310/102/20/
027710/20130329/95458/1305/1000/10/
027710/20130329/95502/1305/2761/10/
027710/20130329/95506/1305/1492/10/
027710/20130329/95518/1305/952/20/
027710/20130329/95520/1305/1550/20/
027710/20130329/95522/1300/100/10/
027710/20130329/95623/1305/1677/20/
027710/20130329/95711/1305/13603/20/
027710/20130329/95726/1305/2000/20/
027710/20130329/95738/1305/2000/20/
027710/20130329/95744/1305/500/20/
027710/20130329/95748/1305/156/20/
027710/20130329/95812/1305/3556/10/
027710/20130329/95823/1305/150/20/
027710/20130329/95832/1305/200/20/
027710/20130329/95914/1305/81/20/
027710/20130329/95936/1305/100/20/
027710/20130329/95954/1305/500/20/
027710/20130329/100040/1300/20000/10/
027710/20130329/100044/1300/5005/10/
027710/20130329/100045/1305/13604/20/
027710/20130329/100045/1300/4689/10/
027710/20130329/100111/1300/100/20/
027710/20130329/100128/1295/90/10/
027710/20130329/100133/1295/5570/10/
027710/20130329/100144/1295/6378/10/
027710/20130329/100146/1295/100/10/
027710/20130329/100150/1295/130/10/
027710/20130329/100229/1295/1001/10/
027710/20130329/100231/1295/190/10/
027710/20130329/100236/1295/6000/10/
027710/20130329/100238/1295/10038/10/
027710/20130329/100238/1295/1000/10/
027710/20130329/100239/1295/3000/10/
027710/20130329/100241/1295/3400/10/
027710/20130329/100243/1295/2594/10/
027710/20130329/100244/1295/1000/10/
027710/20130329/100300/1295/126/10/
027710/20130329/100302/1295/659/10/
027710/20130329/100337/1295/693/10/
027710/20130329/100348/1295/782/20/
027710/20130329/100350/1295/1026/10/
027710/20130329/100351/1295/1000/10/
027710/20130329/100356/1295/5000/10/
027710/20130329/100403/1295/303/10/
027710/20130329/100407/1295/100/10/
027710/20130329/100423/1300/100/20/
027710/20130329/100622/1300/501/20/
027710/20130329/100626/1300/600/20/
027710/20130329/100747/1295/381/10/
027710/20130329/100824/1295/10023/10/
027710/20130329/100838/1295/2000/10/
027710/20130329/100841/1295/400/10/
027710/20130329/100851/1295/500/10/
027710/20130329/100854/1295/3798/10/
027710/20130329/100854/1290/15052/10/
027710/20130329/100923/1295/869/20/
027710/20130329/100924/1295/5000/20/
027710/20130329/100939/1295/273/20/
027710/20130329/100940/1295/1727/20/
027710/20130329/100945/1295/2639/10/
027710/20130329/100946/1295/5634/10/
027710/20130329/101017/1295/1036/20/
027710/20130329/101056/1295/331/10/
027710/20130329/101111/1295/370/20/
027710/20130329/101131/1295/1849/10/
027710/20130329/101140/1295/131/10/
027710/20130329/101243/1295/170/10/
027710/20130329/101252/1295/385/20/
027710/20130329/101319/1295/838/20/
027710/20130329/101358/1290/161/10/
027710/20130329/101435/1295/203/20/
027710/20130329/101556/1295/2384/20/
027710/20130329/101558/1295/604/20/
027710/20130329/101602/1295/2180/20/
027710/20130329/101605/1295/3206/20/
027710/20130329/101606/1295/2000/20/
027710/20130329/101611/1295/500/20/
027710/20130329/101615/1295/364/20/
027710/20130329/101616/1295/1000/20/
027710/20130329/101620/1295/282/20/
027710/20130329/101655/1300/1012/20/
027710/20130329/101718/1300/330/20/
027710/20130329/101730/1295/3000/10/
027710/20130329/101834/1295/870/10/
027710/20130329/101901/1300/502/20/
027710/20130329/101928/1300/100/20/
027710/20130329/101949/1295/4956/10/
027710/20130329/102035/1295/705/20/
027710/20130329/102135/1290/500/10/
027710/20130329/102148/1290/147/10/
027710/20130329/102151/1290/86/10/
027710/20130329/102152/1290/1320/10/
027710/20130329/102155/1290/23000/10/
027710/20130329/102159/1290/1000/10/
027710/20130329/102203/1290/500/10/
027710/20130329/102225/1290/6966/10/
027710/20130329/102236/1290/5000/10/
027710/20130329/102242/1290/3317/10/
027710/20130329/102310/1290/1863/10/
027710/20130329/102324/1290/3215/10/
027710/20130329/102334/1290/686/20/
027710/20130329/102405/1290/161/10/
027710/20130329/102529/1290/1601/10/
027710/20130329/102540/1290/1914/10/
027710/20130329/102541/1290/1182/10/
027710/20130329/102548/1290/1185/20/
027710/20130329/102623/1290/114/10/
027710/20130329/102647/1290/100/10/
027710/20130329/102648/1290/5000/10/
027710/20130329/102651/1290/5000/10/
027710/20130329/102658/1290/625/10/
027710/20130329/102715/1285/2020/10/
027710/20130329/102715/1285/1500/10/
027710/20130329/102803/1285/150/10/
027710/20130329/102818/1285/727/10/
027710/20130329/102852/1290/1569/20/
027710/20130329/102911/1290/3000/20/
027710/20130329/102912/1290/500/20/
027710/20130329/102923/1290/855/20/
027710/20130329/102941/1290/1157/10/
027710/20130329/102944/1290/3868/20/
027710/20130329/103012/1290/2805/10/
027710/20130329/103014/1290/2195/20/
027710/20130329/103031/1290/85/10/
027710/20130329/103034/1290/94/10/
027710/20130329/103038/1290/5630/10/
027710/20130329/103053/1290/4005/20/
027710/20130329/103135/1290/5015/20/
027710/20130329/103141/1290/330/20/
027710/20130329/103200/1290/3000/20/
027710/20130329/103226/1285/31698/10/
027710/20130329/103226/1280/10358/10/
027710/20130329/103228/1290/2000/20/
027710/20130329/103247/1285/1140/10/
027710/20130329/103247/1280/9373/10/
027710/20130329/103256/1280/1500/10/
027710/20130329/103304/1285/870/20/
027710/20130329/103310/1285/4130/10/
027710/20130329/103310/1280/3548/10/
027710/20130329/103327/1285/250/10/
027710/20130329/103330/1285/1850/10/
027710/20130329/103342/1285/7707/20/
027710/20130329/103345/1285/523/20/
027710/20130329/103421/1285/512/10/
027710/20130329/103442/1290/632/20/
027710/20130329/103608/1285/4017/10/
027710/20130329/103636/1285/500/10/
027710/20130329/103644/1285/4000/10/
027710/20130329/103705/1285/1100/10/
027710/20130329/103815/1285/1254/10/
027710/20130329/103826/1285/4307/10/
027710/20130329/103928/1285/2897/10/
027710/20130329/103948/1285/100/10/
027710/20130329/104005/1285/200/10/
027710/20130329/104013/1285/10000/10/
027710/20130329/104017/1285/1740/10/
027710/20130329/104024/1285/2000/20/
027710/20130329/104027/1285/1004/20/
027710/20130329/104046/1285/300/20/
027710/20130329/104053/1285/1000/20/
027710/20130329/104104/1285/1618/20/
027710/20130329/104110/1285/2000/20/
027710/20130329/104110/1285/338/20/
027710/20130329/104232/1285/114/10/
027710/20130329/104249/1285/364/10/
027710/20130329/104446/1290/144/20/
027710/20130329/104521/1290/150/20/
027710/20130329/104531/1290/2500/20/
027710/20130329/104542/1290/116/20/
027710/20130329/104635/1285/2000/10/
027710/20130329/104653/1285/103/10/
027710/20130329/104703/1290/5000/20/
027710/20130329/104745/1290/7744/20/
027710/20130329/104807/1290/2257/10/
027710/20130329/104811/1290/100/20/
027710/20130329/104824/1290/1006/20/
027710/20130329/104830/1290/1000/20/
027710/20130329/104837/1290/506/20/
027710/20130329/104848/1290/132/20/
027710/20130329/105021/1290/1191/10/
027710/20130329/105235/1285/624/10/
027710/20130329/105245/1285/1601/10/
027710/20130329/105410/1285/586/10/
027710/20130329/105546/1285/155/10/
027710/20130329/105555/1290/2907/20/
027710/20130329/105628/1285/348/10/
027710/20130329/105629/1290/1000/20/
027710/20130329/105704/1290/540/20/
027710/20130329/105714/1290/3000/20/
027710/20130329/105720/1290/1000/20/
027710/20130329/105722/1290/300/20/
027710/20130329/105812/1290/932/20/
027710/20130329/105909/1285/1000/10/
027710/20130329/110017/1290/201/20/
027710/20130329/110225/1290/825/20/
027710/20130329/110226/1285/24000/10/
027710/20130329/110236/1290/301/20/
027710/20130329/110308/1285/302/10/
027710/20130329/110311/1285/168/20/
027710/20130329/110432/1285/1541/10/
027710/20130329/110503/1285/15001/10/
027710/20130329/110504/1285/1231/10/
027710/20130329/110541/1285/3009/10/
027710/20130329/110609/1285/102/10/
027710/20130329/110610/1280/1001/10/
027710/20130329/110649/1285/104/20/
027710/20130329/110719/1280/413/10/
027710/20130329/110736/1285/106/20/
027710/20130329/110915/1285/245/20/
027710/20130329/110929/1280/631/10/
027710/20130329/110940/1285/501/20/
027710/20130329/110951/1285/193/20/
027710/20130329/110955/1285/773/20/
027710/20130329/111125/1290/301/20/
027710/20130329/111127/1290/2300/20/
027710/20130329/111128/1290/3356/20/
027710/20130329/111215/1295/828/20/
027710/20130329/111239/1290/6701/10/
027710/20130329/111250/1290/6001/20/
027710/20130329/111300/1290/1000/20/
027710/20130329/111316/1290/2000/20/
027710/20130329/111317/1290/200/20/
027710/20130329/111351/1290/100/20/
027710/20130329/111417/1290/870/20/
027710/20130329/111520/1285/360/10/
027710/20130329/111536/1290/3000/20/
027710/20130329/111543/1290/1000/20/
027710/20130329/111547/1290/1058/20/
027710/20130329/111548/1290/5000/20/
027710/20130329/111549/1290/2500/20/
027710/20130329/111552/1290/300/20/
027710/20130329/111553/1290/934/20/
027710/20130329/111757/1290/1012/10/
027710/20130329/112143/1295/651/20/
027710/20130329/112158/1295/873/20/
027710/20130329/112210/1295/1727/20/
027710/20130329/112327/1295/1020/20/
027710/20130329/112333/1290/1000/10/
027710/20130329/112507/1290/187/10/
027710/20130329/112529/1295/1671/20/
027710/20130329/112644/1290/100/10/
027710/20130329/112742/1290/251/10/
027710/20130329/112753/1290/4929/10/
027710/20130329/112802/1290/5000/10/
027710/20130329/112805/1290/2217/10/
027710/20130329/112805/1290/2500/10/
027710/20130329/112806/1290/331/10/
027710/20130329/112809/1290/12234/10/
027710/20130329/112843/1285/5507/10/
027710/20130329/113208/1285/354/10/
027710/20130329/113216/1285/505/10/
027710/20130329/113340/1285/2009/10/
027710/20130329/113546/1290/10231/20/
027710/20130329/113551/1290/2694/20/
027710/20130329/113553/1290/1225/20/
027710/20130329/113718/1290/4001/20/
027710/20130329/113732/1290/201/20/
027710/20130329/113734/1290/373/20/
027710/20130329/113759/1295/19363/20/
027710/20130329/113841/1295/2594/20/
027710/20130329/113858/1295/654/10/
027710/20130329/114043/1290/189/10/
027710/20130329/114140/1285/503/10/
027710/20130329/114347/1285/533/10/
027710/20130329/114508/1290/210/10/
027710/20130329/114512/1290/622/10/
027710/20130329/114906/1290/107/20/
027710/20130329/114940/1285/334/10/
027710/20130329/115157/1290/2387/20/
027710/20130329/115217/1290/4000/10/
027710/20130329/115357/1290/330/10/
027710/20130329/115755/1290/703/20/
027710/20130329/115807/1290/770/20/
027710/20130329/115833/1295/1500/20/
027710/20130329/115841/1295/500/20/
027710/20130329/115852/1295/100/20/
027710/20130329/120037/1290/1030/10/
027710/20130329/120054/1290/432/20/
027710/20130329/120443/1285/1105/10/
027710/20130329/120741/1290/2846/20/
027710/20130329/120913/1290/3500/20/
027710/20130329/120932/1290/631/20/
027710/20130329/121007/1290/481/20/
027710/20130329/121022/1290/1547/20/
027710/20130329/121039/1295/125/20/
027710/20130329/121202/1290/699/10/
027710/20130329/121202/1285/5004/10/
027710/20130329/121328/1290/218/10/
027710/20130329/121643/1290/511/10/
027710/20130329/121648/1290/890/10/
027710/20130329/121719/1290/910/20/
027710/20130329/121750/1290/301/10/
027710/20130329/121919/1295/397/20/
027710/20130329/121927/1290/4715/10/
027710/20130329/121959/1290/1067/10/
027710/20130329/122040/1290/2701/10/
027710/20130329/122107/1290/92/10/
027710/20130329/122107/1285/719/10/
027710/20130329/122303/1285/1004/10/
027710/20130329/122314/1290/1074/20/
027710/20130329/122327/1290/1001/20/
027710/20130329/122346/1290/1009/20/
027710/20130329/122404/1285/301/10/
027710/20130329/122410/1290/201/20/
027710/20130329/122424/1285/257/10/
027710/20130329/122427/1285/200/10/
027710/20130329/122442/1290/1251/20/
027710/20130329/122456/1290/1912/10/
027710/20130329/122526/1290/90/20/
027710/20130329/122547/1290/122/20/
027710/20130329/122603/1290/160/20/
027710/20130329/122632/1290/477/20/
027710/20130329/122719/1290/7651/20/
027710/20130329/122725/1290/354/10/
027710/20130329/122725/1285/501/10/
027710/20130329/122755/1290/443/20/
027710/20130329/122857/1290/2847/10/
027710/20130329/122943/1290/7893/10/
027710/20130329/122959/1290/167/20/
027710/20130329/123004/1290/2500/20/
027710/20130329/123040/1290/665/20/
027710/20130329/123130/1290/209/10/
027710/20130329/123210/1290/2010/10/
027710/20130329/123223/1290/7261/10/
027710/20130329/123311/1290/194/20/
027710/20130329/123316/1290/5050/20/
027710/20130329/123335/1290/190/20/
027710/20130329/123416/1290/2003/20/
027710/20130329/123442/1290/381/20/
027710/20130329/123531/1290/106/20/
027710/20130329/123659/1290/158/10/
027710/20130329/123659/1285/19845/10/
027710/20130329/123843/1285/2506/10/
027710/20130329/123903/1290/97/10/
027710/20130329/124014/1295/549/20/
027710/20130329/124158/1290/3002/10/
027710/20130329/124247/1290/112/10/
027710/20130329/124349/1290/1001/10/
027710/20130329/124451/1290/2176/10/
027710/20130329/124612/1295/510/20/
027710/20130329/124833/1290/3390/10/
027710/20130329/124917/1290/5010/10/
027710/20130329/125010/1290/5901/10/
027710/20130329/125102/1290/7086/10/
027710/20130329/125105/1290/5102/20/
027710/20130329/125246/1285/5001/10/
027710/20130329/125300/1285/24701/10/
027710/20130329/125328/1280/403/10/
027710/20130329/125329/1285/2501/20/
027710/20130329/125416/1285/574/10/
027710/20130329/125441/1285/380/10/
027710/20130329/125441/1280/1622/10/
027710/20130329/125555/1285/315/10/
027710/20130329/125621/1290/4726/20/
027710/20130329/125622/1290/7000/20/
027710/20130329/125623/1290/930/20/
027710/20130329/125623/1290/3875/20/
027710/20130329/125623/1290/2000/20/
027710/20130329/125623/1290/3674/20/
027710/20130329/125623/1295/3479/20/
027710/20130329/125623/1295/5500/20/
027710/20130329/125623/1295/1483/20/
027710/20130329/125630/1295/1000/20/
027710/20130329/125635/1295/886/20/
027710/20130329/125636/1295/765/20/
027710/20130329/125638/1295/4000/20/
027710/20130329/125641/1295/2059/20/
027710/20130329/125644/1295/2317/20/
027710/20130329/125646/1295/7021/20/
027710/20130329/125646/1295/2316/20/
027710/20130329/125647/1295/2073/20/
027710/20130329/125722/1300/231/20/
027710/20130329/125723/1300/1003/20/
027710/20130329/125724/1300/3000/20/
027710/20130329/125724/1300/1500/20/
027710/20130329/125724/1300/5000/20/
027710/20130329/125725/1300/5000/20/
027710/20130329/125725/1300/10002/20/
027710/20130329/125725/1300/803/20/
027710/20130329/125725/1300/176/20/
027710/20130329/125726/1305/5001/20/
027710/20130329/125736/1305/10015/20/
027710/20130329/125742/1305/7789/20/
027710/20130329/125743/1305/503/20/
027710/20130329/125744/1305/3000/20/
027710/20130329/125744/1305/2039/20/
027710/20130329/125745/1305/2101/20/
027710/20130329/125745/1305/1485/20/
027710/20130329/125749/1305/1000/10/
027710/20130329/125755/1305/1483/10/
027710/20130329/125757/1305/1174/10/
027710/20130329/125759/1305/5000/20/
027710/20130329/125807/1305/4030/20/
027710/20130329/125814/1300/2214/10/
027710/20130329/125815/1300/7022/10/
027710/20130329/125817/1300/3095/10/
027710/20130329/125817/1295/2408/10/
027710/20130329/125818/1300/175/20/
027710/20130329/125851/1300/2574/20/
027710/20130329/125907/1300/200/20/
027710/20130329/125926/1300/1059/20/
027710/20130329/125926/1300/5501/20/
027710/20130329/125927/1300/322/20/
027710/20130329/125927/1300/576/20/
027710/20130329/125935/1300/2506/20/
027710/20130329/130009/1300/4053/10/
027710/20130329/130009/1300/7000/10/
027710/20130329/130016/1300/888/10/
027710/20130329/130036/1300/5006/10/
027710/20130329/130100/1300/2007/10/
027710/20130329/130109/1300/1802/10/
027710/20130329/130113/1300/6004/10/
027710/20130329/130146/1305/10698/20/
027710/20130329/130204/1305/362/20/
027710/20130329/130219/1300/196/10/
027710/20130329/130248/1300/302/10/
027710/20130329/130255/1300/7154/10/
027710/20130329/130256/1300/2326/10/
027710/20130329/130325/1300/104/20/
027710/20130329/130334/1300/8195/10/
027710/20130329/130341/1300/5866/20/
027710/20130329/130341/1300/8615/20/
027710/20130329/130344/1300/1002/10/
027710/20130329/130349/1300/5383/10/
027710/20130329/130410/1300/1511/20/
027710/20130329/130412/1300/1000/20/
027710/20130329/130423/1295/5103/10/
027710/20130329/130444/1295/1607/10/
027710/20130329/130544/1295/1029/10/
027710/20130329/130557/1295/203/10/
027710/20130329/130625/1295/1002/10/
027710/20130329/130633/1290/2318/10/
027710/20130329/130639/1300/1000/20/
027710/20130329/130707/1300/10406/20/
027710/20130329/130707/1305/13327/20/
027710/20130329/130714/1305/100/20/
027710/20130329/130724/1305/705/20/
027710/20130329/130748/1300/301/20/
027710/20130329/130749/1305/888/20/
027710/20130329/130819/1300/1001/20/
027710/20130329/130819/1305/2016/20/
027710/20130329/130910/1300/3206/10/
027710/20130329/130918/1305/130/20/
027710/20130329/130957/1305/432/20/
027710/20130329/131018/1300/1800/10/
027710/20130329/131033/1300/373/20/
027710/20130329/131040/1305/5716/20/
027710/20130329/131112/1300/3102/10/
027710/20130329/131126/1300/502/20/
027710/20130329/131133/1300/1154/20/
027710/20130329/131133/1300/246/20/
027710/20130329/131151/1300/6257/10/
027710/20130329/131151/1295/1294/10/
027710/20130329/131213/1300/305/10/
027710/20130329/131303/1300/4729/10/
027710/20130329/131303/1295/1180/10/
027710/20130329/131339/1305/4870/20/
027710/20130329/131347/1305/2298/20/
027710/20130329/131348/1305/2000/20/
027710/20130329/131348/1305/5000/20/
027710/20130329/131348/1305/1060/20/
027710/20130329/131348/1305/2373/20/
027710/20130329/131357/1305/168/10/
027710/20130329/131409/1310/30004/20/
027710/20130329/131411/1310/7001/20/
027710/20130329/131411/1310/6507/20/
027710/20130329/131412/1310/1532/20/
027710/20130329/131412/1310/100/20/
027710/20130329/131413/1310/2311/20/
027710/20130329/131414/1310/4001/20/
027710/20130329/131414/1310/601/20/
027710/20130329/131414/1310/1000/20/
027710/20130329/131415/1310/2001/20/
027710/20130329/131417/1310/446/20/
027710/20130329/131417/1310/992/20/
027710/20130329/131425/1310/107/20/
027710/20130329/131426/1310/352/20/
027710/20130329/131427/1310/1001/20/
027710/20130329/131429/1310/276/20/
027710/20130329/131431/1315/1004/20/
027710/20130329/131433/1315/103/20/
027710/20130329/131437/1315/613/20/
027710/20130329/131438/1315/5000/20/
027710/20130329/131438/1315/1060/20/
027710/20130329/131446/1315/20425/20/
027710/20130329/131446/1315/101/20/
027710/20130329/131447/1315/5071/20/
027710/20130329/131450/1315/8715/20/
027710/20130329/131450/1315/4508/20/
027710/20130329/131453/1315/4028/20/
027710/20130329/131454/1315/503/20/
027710/20130329/131458/1315/605/20/
027710/20130329/131458/1315/18349/20/
027710/20130329/131459/1315/379/20/
027710/20130329/131500/1315/17036/20/
027710/20130329/131500/1315/2849/20/
027710/20130329/131501/1315/7485/20/
027710/20130329/131502/1315/646/10/
027710/20130329/131503/1315/2002/10/
027710/20130329/131505/1315/2347/10/
027710/20130329/131506/1315/300/10/
027710/20130329/131507/1315/2381/10/
027710/20130329/131516/1310/704/10/
027710/20130329/131517/1310/576/10/
027710/20130329/131519/1310/503/10/
027710/20130329/131522/1310/974/10/
027710/20130329/131528/1315/330/20/
027710/20130329/131531/1315/5347/20/
027710/20130329/131538/1315/552/20/
027710/20130329/131539/1315/869/20/
027710/20130329/131550/1315/114/20/
027710/20130329/131601/1310/684/10/
027710/20130329/131631/1310/2005/10/
027710/20130329/131633/1315/1434/20/
027710/20130329/131634/1315/5690/20/
027710/20130329/131636/1315/2340/20/
027710/20130329/131641/1315/587/20/
027710/20130329/131642/1315/500/20/
027710/20130329/131653/1315/1005/20/
027710/20130329/131708/1315/17811/20/
027710/20130329/131712/1315/2003/10/
027710/20130329/131713/1315/1597/10/
027710/20130329/131714/1315/1741/10/
027710/20130329/131716/1315/3962/20/
027710/20130329/131716/1315/1041/10/
027710/20130329/131716/1315/200/20/
027710/20130329/131718/1315/421/20/
027710/20130329/131719/1315/3003/20/
027710/20130329/131733/1315/6008/20/
027710/20130329/131805/1315/7549/20/
027710/20130329/131809/1315/510/20/
027710/20130329/131814/1315/204/20/
027710/20130329/131823/1315/190/20/
027710/20130329/131837/1310/254/10/
027710/20130329/131841/1310/5000/10/
027710/20130329/131846/1315/23585/20/
027710/20130329/131851/1315/2204/20/
027710/20130329/131852/1315/1828/20/
027710/20130329/131852/1315/6603/20/
027710/20130329/131853/1315/101/20/
027710/20130329/131853/1315/489/20/
027710/20130329/131853/1315/7091/20/
027710/20130329/131900/1315/405/10/
027710/20130329/131901/1315/502/10/
027710/20130329/131908/1315/330/10/
027710/20130329/131908/1315/2001/10/
027710/20130329/131927/1315/2023/10/
027710/20130329/131928/1320/500/20/
027710/20130329/131928/1315/5000/10/
027710/20130329/131929/1315/4012/10/
027710/20130329/131929/1315/380/10/
027710/20130329/131930/1315/2546/10/
027710/20130329/131930/1315/1000/10/
027710/20130329/131931/1315/8469/10/
027710/20130329/131931/1315/1001/20/
027710/20130329/131932/1315/488/20/
027710/20130329/131934/1315/203/20/
027710/20130329/131945/1315/890/20/
027710/20130329/132006/1310/3417/10/
027710/20130329/132006/1310/326/10/
027710/20130329/132009/1310/15748/10/
027710/20130329/132021/1310/196/20/
027710/20130329/132022/1310/504/10/
027710/20130329/132026/1310/2302/10/
027710/20130329/132028/1310/726/10/
027710/20130329/132031/1310/219/20/
027710/20130329/132037/1310/298/10/
027710/20130329/132044/1310/208/20/
027710/20130329/132046/1310/100/20/
027710/20130329/132047/1310/101/20/
027710/20130329/132047/1310/1647/20/
027710/20130329/132048/1310/101/10/
027710/20130329/132053/1310/105/10/
027710/20130329/132106/1305/15329/10/
027710/20130329/132106/1300/8698/10/
027710/20130329/132120/1305/1011/10/
027710/20130329/132135/1305/111/10/
027710/20130329/132137/1305/2661/10/
027710/20130329/132139/1305/101/20/
027710/20130329/132146/1300/10003/10/
027710/20130329/132159/1300/101/10/
027710/20130329/132218/1300/305/10/
027710/20130329/132229/1300/739/10/
027710/20130329/132230/1305/145/20/
027710/20130329/132249/1305/3001/20/
027710/20130329/132304/1310/81/20/
027710/20130329/132310/1310/128/20/
027710/20130329/132356/1305/1030/10/
027710/20130329/132358/1305/306/10/
027710/20130329/132400/1305/3076/10/
027710/20130329/132402/1305/2193/10/
027710/20130329/132426/1305/860/20/
027710/20130329/132430/1305/180/20/
027710/20130329/132517/1310/7073/20/
027710/20130329/132524/1310/9280/20/
027710/20130329/132542/1305/870/10/
027710/20130329/132543/1305/609/10/
027710/20130329/132606/1310/6939/20/
027710/20130329/132607/1310/2862/20/
027710/20130329/132625/1310/5021/10/
027710/20130329/132637/1310/101/10/
027710/20130329/132705/1315/2002/20/
027710/20130329/132705/1315/50000/20/
027710/20130329/132706/1315/10597/20/
027710/20130329/132706/1315/6574/20/
027710/20130329/132706/1320/422/20/
027710/20130329/132707/1320/2600/20/
027710/20130329/132712/1315/153/10/
027710/20130329/132721/1320/2315/20/
027710/20130329/132723/1320/1003/20/
027710/20130329/132723/1320/400/20/
027710/20130329/132723/1320/202/20/
027710/20130329/132730/1320/9091/20/
027710/20130329/132733/1315/106/10/
027710/20130329/132737/1315/1502/10/
027710/20130329/132755/1320/522/20/
027710/20130329/132804/1315/4053/10/
027710/20130329/132805/1315/4000/10/
027710/20130329/132806/1315/211/10/
027710/20130329/132806/1315/500/10/
027710/20130329/132809/1315/2000/20/
027710/20130329/132813/1315/166/20/
027710/20130329/132814/1315/205/20/
027710/20130329/132822/1315/4737/20/
027710/20130329/132822/1315/500/20/
027710/20130329/132823/1315/500/10/
027710/20130329/132837/1320/13446/20/
027710/20130329/132849/1320/950/20/
027710/20130329/132851/1320/3002/20/
027710/20130329/132852/1320/2805/20/
027710/20130329/132857/1320/236/20/
027710/20130329/132858/1320/25632/20/
027710/20130329/132859/1320/1000/20/
027710/20130329/132900/1320/12550/20/
027710/20130329/132900/1320/2534/20/
027710/20130329/132900/1320/270/20/
027710/20130329/132901/1320/7001/20/
027710/20130329/132901/1320/15331/20/
027710/20130329/132901/1320/10000/20/
027710/20130329/132901/1320/1278/20/
027710/20130329/132901/1320/4968/20/
027710/20130329/132901/1320/3144/20/
027710/20130329/132901/1320/3000/20/
027710/20130329/132901/1320/7923/20/
027710/20130329/132901/1325/528/20/
027710/20130329/132902/1325/5000/20/
027710/20130329/132903/1325/773/20/
027710/20130329/132906/1325/100/20/
027710/20130329/132907/1325/772/20/
027710/20130329/132907/1325/834/20/
027710/20130329/132909/1325/125/20/
027710/20130329/132910/1320/1560/10/
027710/20130329/132911/1320/5500/10/
027710/20130329/132911/1320/2486/10/
027710/20130329/132912/1325/185/20/
027710/20130329/132912/1320/275/10/
027710/20130329/132913/1320/2500/10/
027710/20130329/132915/1325/115/20/
027710/20130329/132916/1320/605/10/
027710/20130329/132917/1320/216/10/
027710/20130329/132918/1320/2000/10/
027710/20130329/132920/1320/727/10/
027710/20130329/132920/1320/1000/20/
027710/20130329/132921/1320/1870/20/
027710/20130329/132923/1320/4403/20/
027710/20130329/132925/1320/8967/10/
027710/20130329/132930/1320/501/20/
027710/20130329/132932/1320/18000/20/
027710/20130329/132935/1320/1101/20/
027710/20130329/132936/1320/790/20/
027710/20130329/132937/1320/502/20/
027710/20130329/132938/1320/5000/20/
027710/20130329/132938/1320/4000/20/
027710/20130329/132938/1320/165/20/
027710/20130329/132939/1320/769/20/
027710/20130329/132939/1320/400/20/
027710/20130329/132939/1320/301/20/
027710/20130329/132939/1320/428/20/
027710/20130329/132940/1320/1266/20/
027710/20130329/132946/1320/143/10/
027710/20130329/132950/1320/9276/10/
027710/20130329/132951/1320/1691/10/
027710/20130329/132952/1320/5000/10/
027710/20130329/132952/1320/200/10/
027710/20130329/132952/1320/2301/10/
027710/20130329/132954/1320/1002/20/
027710/20130329/132956/1320/161/20/
027710/20130329/133000/1320/153/20/
027710/20130329/133006/1320/2007/20/
027710/20130329/133007/1320/2000/20/
027710/20130329/133010/1320/34113/20/
027710/20130329/133012/1320/7593/10/
027710/20130329/133012/1315/2407/10/
027710/20130329/133014/1320/1001/20/
027710/20130329/133014/1320/299/10/
027710/20130329/133019/1320/5124/20/
027710/20130329/133025/1320/503/20/
027710/20130329/133030/1320/2008/20/
027710/20130329/133033/1320/11711/20/
027710/20130329/133042/1320/2004/20/
027710/20130329/133045/1320/314/20/
027710/20130329/133046/1320/849/20/
027710/20130329/133050/1320/563/20/
027710/20130329/133050/1320/340/20/
027710/20130329/133052/1320/508/20/
027710/20130329/133057/1320/122/20/
027710/20130329/133058/1320/100/20/
027710/20130329/133100/1320/1927/10/
027710/20130329/133106/1320/85/10/
027710/20130329/133109/1320/3020/10/
027710/20130329/133112/1320/1001/10/
027710/20130329/133118/1320/112/10/
027710/20130329/133121/1320/398/20/
027710/20130329/133122/1320/1001/10/
027710/20130329/133132/1320/108/10/
027710/20130329/133133/1320/919/20/
027710/20130329/133135/1325/7504/20/
027710/20130329/133136/1325/18336/20/
027710/20130329/133138/1325/146/20/
027710/20130329/133143/1320/85/10/
027710/20130329/133149/1325/1878/20/
027710/20130329/133153/1320/1001/10/
027710/20130329/133156/1325/200/20/
027710/20130329/133158/1320/2000/10/
027710/20130329/133203/1320/1002/10/
027710/20130329/133207/1320/353/10/
027710/20130329/133209/1320/10598/10/
027710/20130329/133212/1320/350/10/
027710/20130329/133215/1320/2501/10/
027710/20130329/133220/1320/1482/10/
027710/20130329/133222/1320/398/10/
027710/20130329/133222/1320/500/10/
027710/20130329/133222/1320/356/10/
027710/20130329/133225/1320/107/20/
027710/20130329/133230/1320/104/10/
027710/20130329/133234/1320/500/10/
027710/20130329/133238/1320/16472/10/
027710/20130329/133238/1315/5500/10/
027710/20130329/133239/1320/3001/20/
027710/20130329/133249/1320/1639/20/
027710/20130329/133256/1320/2010/20/
027710/20130329/133309/1320/2000/20/
027710/20130329/133315/1320/1270/20/
027710/20130329/133320/1315/6997/10/
027710/20130329/133322/1315/2300/10/
027710/20130329/133326/1315/1003/20/
027710/20130329/133331/1315/213/20/
027710/20130329/133344/1315/1843/20/
027710/20130329/133356/1310/1554/10/
027710/20130329/133358/1310/4004/10/
027710/20130329/133358/1310/2543/10/
027710/20130329/133358/1310/799/10/
027710/20130329/133358/1305/1001/10/
027710/20130329/133410/1305/106/10/
027710/20130329/133414/1310/237/10/
027710/20130329/133422/1310/81/20/
027710/20130329/133432/1310/736/20/
027710/20130329/133436/1310/608/10/
027710/20130329/133436/1305/392/10/
027710/20130329/133452/1315/191/20/
027710/20130329/133508/1310/201/10/
027710/20130329/133520/1310/151/20/
027710/20130329/133529/1310/1502/20/
027710/20130329/133546/1305/296/10/
027710/20130329/133546/1310/677/20/
027710/20130329/133546/1310/967/20/
027710/20130329/133546/1310/383/10/
027710/20130329/133546/1310/1000/20/
027710/20130329/133551/1310/1051/20/
027710/20130329/133558/1310/137/20/
027710/20130329/133630/1310/1820/10/
027710/20130329/133631/1310/2000/20/
027710/20130329/133719/1310/790/20/
027710/20130329/133727/1305/400/10/
027710/20130329/133730/1305/20000/10/
027710/20130329/133731/1305/2299/10/
027710/20130329/133743/1305/102/10/
027710/20130329/133745/1305/2901/10/
027710/20130329/133745/1300/1123/10/
027710/20130329/133751/1305/120/10/
027710/20130329/133805/1305/881/20/
027710/20130329/133811/1310/81/20/
027710/20130329/133818/1310/2639/20/
027710/20130329/133819/1310/128/10/
027710/20130329/133822/1310/5056/10/
027710/20130329/133838/1315/84/20/
027710/20130329/133840/1310/106/10/
027710/20130329/133845/1315/84/20/
027710/20130329/133852/1310/1210/10/
027710/20130329/133852/1305/4820/10/
027710/20130329/133858/1315/741/20/
027710/20130329/133917/1310/512/20/
027710/20130329/133917/1310/629/10/
027710/20130329/133918/1310/1944/10/
027710/20130329/133922/1310/371/10/
027710/20130329/133932/1305/1729/10/
027710/20130329/133933/1310/287/20/
027710/20130329/133935/1310/1000/10/
027710/20130329/133936/1310/2022/10/
027710/20130329/133940/1315/173/20/
027710/20130329/133941/1315/132/20/
027710/20130329/133942/1315/111/20/
027710/20130329/133945/1315/133/20/
027710/20130329/133946/1315/1198/20/
027710/20130329/133951/1310/2362/10/
027710/20130329/133953/1310/1000/20/
027710/20130329/133955/1310/2145/20/
027710/20130329/134003/1315/4512/20/
027710/20130329/134004/1315/11038/20/
027710/20130329/134025/1315/13318/10/
027710/20130329/134025/1315/700/20/
027710/20130329/134028/1315/122/20/
027710/20130329/134033/1315/3968/20/
027710/20130329/134037/1315/1941/20/
027710/20130329/134100/1315/1508/20/
027710/20130329/134112/1315/8108/20/
027710/20130329/134114/1315/8071/20/
027710/20130329/134121/1315/1715/10/
027710/20130329/134122/1310/400/10/
027710/20130329/134139/1315/2323/20/
027710/20130329/134140/1315/2338/10/
027710/20130329/134200/1315/2711/20/
027710/20130329/134220/1315/178/20/
027710/20130329/134238/1315/1095/20/
027710/20130329/134252/1310/145/10/
027710/20130329/134252/1315/1450/20/
027710/20130329/134330/1315/2014/20/
027710/20130329/134338/1310/10003/10/
027710/20130329/134409/1310/1081/10/
027710/20130329/134410/1310/8379/10/
027710/20130329/134411/1310/4640/10/
027710/20130329/134411/1310/2121/10/
027710/20130329/134413/1310/874/10/
027710/20130329/134416/1310/2104/10/
027710/20130329/134422/1305/182/10/
027710/20130329/134431/1310/3448/20/
027710/20130329/134435/1310/1553/10/
027710/20130329/134446/1305/12167/10/
027710/20130329/134447/1310/2500/20/
027710/20130329/134525/1310/3052/20/
027710/20130329/134530/1310/1000/20/
027710/20130329/134531/1310/1000/20/
027710/20130329/134533/1310/1016/20/
027710/20130329/134547/1315/1004/20/
027710/20130329/134649/1315/262/20/
027710/20130329/134730/1310/2801/10/
027710/20130329/134739/1310/3953/10/
027710/20130329/134750/1310/1000/10/
027710/20130329/134805/1310/1015/10/
027710/20130329/134814/1310/645/20/
027710/20130329/134818/1305/451/10/
027710/20130329/134837/1310/10779/20/
027710/20130329/134905/1315/8178/20/
027710/20130329/134934/1315/4147/20/
027710/20130329/134938/1315/854/10/
027710/20130329/134938/1310/4146/10/
027710/20130329/134942/1310/4114/10/
027710/20130329/134952/1310/5442/20/
027710/20130329/134956/1310/190/20/
027710/20130329/135025/1310/109/10/
027710/20130329/135258/1310/203/10/
027710/20130329/135302/1315/2000/20/
027710/20130329/135303/1310/138/10/
027710/20130329/135303/1305/1516/10/
027710/20130329/135334/1305/6500/10/
027710/20130329/135342/1305/5000/10/
027710/20130329/135347/1310/151/10/
027710/20130329/135409/1315/2020/20/
027710/20130329/135415/1310/400/10/
027710/20130329/135422/1310/635/10/
027710/20130329/135422/1310/551/10/
027710/20130329/135436/1305/484/10/
027710/20130329/135456/1305/136/20/
027710/20130329/135504/1300/3288/10/
027710/20130329/135510/1305/102/20/
027710/20130329/135513/1300/1593/10/
027710/20130329/135514/1300/7000/10/
027710/20130329/135515/1300/3797/10/
027710/20130329/135519/1300/1050/20/
027710/20130329/135522/1300/103/20/
027710/20130329/135523/1300/100/20/
027710/20130329/135547/1300/5152/10/
027710/20130329/135548/1300/159/10/
027710/20130329/135549/1300/1233/10/
027710/20130329/135549/1305/995/20/
027710/20130329/135550/1300/207/10/
027710/20130329/135608/1300/3510/10/
027710/20130329/135611/1300/2275/10/
027710/20130329/135611/1295/21459/10/
027710/20130329/135634/1300/4002/10/
027710/20130329/135637/1295/15331/10/
027710/20130329/135643/1295/1371/10/
027710/20130329/135646/1295/698/10/
027710/20130329/135647/1295/544/10/
027710/20130329/135647/1290/30982/10/
027710/20130329/135648/1290/306/10/
027710/20130329/135648/1285/2543/10/
027710/20130329/135652/1290/101/10/
027710/20130329/135653/1285/570/10/
027710/20130329/135702/1290/100/10/
027710/20130329/135707/1290/8321/10/
027710/20130329/135709/1290/1532/10/
027710/20130329/135718/1290/1448/10/
027710/20130329/135719/1290/100/10/
027710/20130329/135721/1290/6872/10/
027710/20130329/135723/1290/1494/10/
027710/20130329/135724/1290/1000/10/
027710/20130329/135724/1290/1338/10/
027710/20130329/135724/1285/1957/10/
027710/20130329/135730/1290/2000/10/
027710/20130329/135730/1290/439/10/
027710/20130329/135731/1290/529/10/
027710/20130329/135740/1290/774/10/
027710/20130329/135740/1290/122/20/
027710/20130329/135746/1290/4884/10/
027710/20130329/135749/1290/216/10/
027710/20130329/135752/1290/285/20/
027710/20130329/135809/1295/5056/20/
027710/20130329/135811/1290/2000/10/
027710/20130329/135811/1295/100/20/
027710/20130329/135849/1295/8149/20/
027710/20130329/135925/1290/197/10/
027710/20130329/135937/1295/725/20/
027710/20130329/135938/1295/1001/20/
027710/20130329/135946/1295/101/20/
027710/20130329/135951/1295/531/20/
027710/20130329/135952/1295/100/20/
027710/20130329/140001/1295/215/20/
027710/20130329/140001/1295/1000/20/
027710/20130329/140002/1295/436/20/
027710/20130329/140004/1295/522/20/
027710/20130329/140012/1295/207/20/
027710/20130329/140013/1295/614/20/
027710/20130329/140024/1295/100/10/
027710/20130329/140129/1300/533/20/
027710/20130329/140200/1300/2275/20/
027710/20130329/140234/1295/200/10/
027710/20130329/140342/1300/934/20/
027710/20130329/140404/1300/81/20/
027710/20130329/140406/1295/3000/10/
027710/20130329/140427/1295/8520/10/
027710/20130329/140434/1290/9548/10/
027710/20130329/140436/1295/770/20/
027710/20130329/140510/1290/3315/10/
027710/20130329/140511/1290/25000/10/
027710/20130329/140512/1290/1486/10/
027710/20130329/140513/1290/3232/10/
027710/20130329/140514/1290/4449/10/
027710/20130329/140523/1290/100/20/
027710/20130329/140530/1285/1004/10/
027710/20130329/140533/1285/1501/10/
027710/20130329/140535/1285/12469/10/
027710/20130329/140540/1285/1103/10/
027710/20130329/140542/1285/201/10/
027710/20130329/140546/1290/113/20/
027710/20130329/140547/1290/81/20/
027710/20130329/140600/1290/722/20/
027710/20130329/140601/1285/61026/10/
027710/20130329/140604/1285/132/20/
027710/20130329/140605/1280/200/10/
027710/20130329/140605/1285/3247/20/
027710/20130329/140607/1285/5287/20/
027710/20130329/140607/1285/1000/20/
027710/20130329/140608/1285/2001/20/
027710/20130329/140609/1285/325/20/
027710/20130329/140611/1285/284/20/
027710/20130329/140615/1285/132/10/
027710/20130329/140617/1285/164/10/
027710/20130329/140620/1290/106/20/
027710/20130329/140622/1285/6981/10/
027710/20130329/140626/1285/98/20/
027710/20130329/140629/1285/7830/20/
027710/20130329/140650/1285/105/10/
027710/20130329/140705/1290/3003/20/
027710/20130329/140714/1285/101/10/
027710/20130329/140721/1290/251/20/
027710/20130329/140731/1290/212/20/
027710/20130329/140740/1290/93/20/
027710/20130329/140743/1290/501/20/
027710/20130329/140801/1290/1054/20/
027710/20130329/141033/1290/1069/20/
027710/20130329/141046/1285/1111/10/
027710/20130329/141112/1290/102/20/
027710/20130329/141122/1290/1003/20/
027710/20130329/141123/1290/81/20/
027710/20130329/141140/1285/103/10/
027710/20130329/141148/1290/1614/20/
027710/20130329/141159/1290/194/10/
027710/20130329/141213/1290/298/10/
027710/20130329/141241/1290/108/10/
027710/20130329/141255/1290/3000/10/
027710/20130329/141259/1290/998/10/
027710/20130329/141316/1290/213/20/
027710/20130329/141333/1285/101/10/
027710/20130329/141336/1290/8949/20/
027710/20130329/141343/1290/1596/10/
027710/20130329/141420/1290/3407/20/
027710/20130329/141423/1290/468/10/
027710/20130329/141423/1290/750/10/
027710/20130329/141440/1295/1001/20/
027710/20130329/141458/1290/8110/10/
027710/20130329/141459/1290/601/10/
027710/20130329/141500/1290/1674/10/
027710/20130329/141511/1285/26875/10/
027710/20130329/141511/1285/7774/10/
027710/20130329/141540/1290/5008/20/
027710/20130329/141545/1285/103/10/
027710/20130329/141545/1285/200/10/
027710/20130329/141547/1285/1001/10/
027710/20130329/141602/1285/5003/10/
027710/20130329/141604/1285/1922/10/
027710/20130329/141625/1280/5065/10/
027710/20130329/141626/1280/200/10/
027710/20130329/141627/1280/500/10/
027710/20130329/141634/1280/470/10/
027710/20130329/141641/1280/13446/10/
027710/20130329/141644/1280/35951/10/
027710/20130329/141644/1280/52146/10/
027710/20130329/141644/1275/163/10/
027710/20130329/141644/1275/1507/10/
027710/20130329/141649/1275/3016/10/
027710/20130329/141652/1275/167/10/
027710/20130329/141655/1280/103/20/
027710/20130329/141656/1275/1002/10/
027710/20130329/141656/1275/1000/10/
027710/20130329/141657/1275/5501/10/
027710/20130329/141658/1275/1943/10/
027710/20130329/141700/1275/28502/10/
027710/20130329/141700/1275/4000/10/
027710/20130329/141700/1275/101/10/
027710/20130329/141701/1275/4402/10/
027710/20130329/141701/1275/4901/10/
027710/20130329/141701/1275/10001/10/
027710/20130329/141702/1275/5188/10/
027710/20130329/141702/1275/147/10/
027710/20130329/141703/1275/3317/10/
027710/20130329/141703/1275/501/10/
027710/20130329/141704/1275/429/10/
027710/20130329/141705/1275/3611/10/
027710/20130329/141705/1275/664/10/
027710/20130329/141706/1275/2605/10/
027710/20130329/141706/1275/2481/10/
027710/20130329/141706/1275/500/10/
027710/20130329/141706/1275/1600/10/
027710/20130329/141706/1275/85/10/
027710/20130329/141708/1275/2781/10/
027710/20130329/141708/1270/502/10/
027710/20130329/141709/1270/2000/10/
027710/20130329/141709/1270/800/10/
027710/20130329/141709/1270/600/10/
027710/20130329/141715/1270/1069/10/
027710/20130329/141718/1270/1004/10/
027710/20130329/141722/1270/4003/10/
027710/20130329/141722/1275/1001/20/
027710/20130329/141724/1270/951/10/
027710/20130329/141729/1275/1696/20/
027710/20130329/141733/1275/1757/10/
027710/20130329/141801/1275/376/10/
027710/20130329/141806/1275/5773/10/
027710/20130329/141806/1270/1275/10/
027710/20130329/141823/1280/538/20/
027710/20130329/141828/1280/1677/20/
027710/20130329/141836/1280/269/10/
027710/20130329/141840/1280/556/10/
027710/20130329/141853/1280/650/20/
027710/20130329/141855/1280/102/10/
027710/20130329/141900/1280/255/10/
027710/20130329/141916/1280/453/20/
027710/20130329/141917/1280/156/10/
027710/20130329/141920/1280/4221/20/
027710/20130329/141925/1280/103/20/
027710/20130329/141930/1280/204/20/
027710/20130329/141955/1275/171/10/
027710/20130329/142024/1275/533/10/
027710/20130329/142025/1280/1268/20/
027710/20130329/142044/1280/4005/20/
027710/20130329/142046/1280/901/20/
027710/20130329/142047/1280/100/10/
027710/20130329/142054/1275/3139/10/
027710/20130329/142121/1280/202/20/
027710/20130329/142121/1280/500/10/
027710/20130329/142128/1280/1501/10/
027710/20130329/142129/1280/151/10/
027710/20130329/142131/1280/1500/10/
027710/20130329/142136/1280/100/10/
027710/20130329/142144/1280/9158/20/
027710/20130329/142144/1275/10000/10/
027710/20130329/142147/1275/1003/10/
027710/20130329/142149/1275/462/10/
027710/20130329/142151/1275/2800/10/
027710/20130329/142205/1275/4002/10/
027710/20130329/142215/1275/303/20/
027710/20130329/142217/1270/501/10/
027710/20130329/142233/1275/737/20/
027710/20130329/142242/1275/1002/20/
027710/20130329/142250/1270/1008/10/
027710/20130329/142253/1275/1035/20/
027710/20130329/142259/1270/801/10/
027710/20130329/142317/1275/108/20/
027710/20130329/142318/1270/5000/10/
027710/20130329/142343/1270/9108/10/
027710/20130329/142344/1275/2000/20/
027710/20130329/142346/1275/1001/20/
027710/20130329/142349/1270/102/10/
027710/20130329/142350/1270/2127/10/
027710/20130329/142355/1270/506/10/
027710/20130329/142355/1275/100/20/
027710/20130329/142357/1275/1001/20/
027710/20130329/142359/1275/100/20/
027710/20130329/142404/1270/17600/10/
027710/20130329/142408/1270/409/20/
027710/20130329/142412/1270/1739/10/
027710/20130329/142454/1270/559/10/
027710/20130329/142509/1275/94/20/
027710/20130329/142554/1270/219/10/
027710/20130329/142601/1275/5201/20/
027710/20130329/142601/1275/1339/20/
027710/20130329/142647/1280/108/20/
027710/20130329/142728/1280/105/20/
027710/20130329/142809/1275/117/10/
027710/20130329/142833/1275/103/10/
027710/20130329/142919/1275/909/10/
027710/20130329/142922/1275/7621/20/
027710/20130329/142951/1270/621/10/
027710/20130329/143002/1275/500/20/
027710/20130329/143007/1275/2368/20/
027710/20130329/143016/1275/506/20/
027710/20130329/143021/1275/590/20/
027710/20130329/143021/1275/3484/20/
027710/20130329/143040/1275/601/10/
027710/20130329/143040/1275/500/10/
027710/20130329/143043/1275/302/10/
027710/20130329/143107/1280/1900/20/
027710/20130329/143157/1275/703/10/
027710/20130329/143215/1275/350/10/
027710/20130329/143230/1280/91/20/
027710/20130329/143304/1275/5001/10/
027710/20130329/143306/1275/1400/10/
027710/20130329/143308/1275/1385/10/
027710/20130329/143309/1275/869/10/
027710/20130329/143323/1270/305/10/
027710/20130329/143332/1275/93/20/
027710/20130329/143340/1270/6640/10/
027710/20130329/143345/1275/1000/20/
027710/20130329/143354/1275/3002/20/
027710/20130329/143404/1275/292/20/
027710/20130329/143404/1275/500/10/
027710/20130329/143411/1275/3248/10/
027710/20130329/143425/1280/445/20/
027710/20130329/143501/1275/216/10/
027710/20130329/143512/1275/100/10/
027710/20130329/143515/1275/100/10/
027710/20130329/143546/1280/522/20/
027710/20130329/143607/1280/132/20/
027710/20130329/143615/1275/5801/10/
027710/20130329/143618/1275/3065/10/
027710/20130329/143620/1280/520/20/
027710/20130329/143626/1280/502/20/
027710/20130329/143639/1280/258/20/
027710/20130329/143710/1280/156/20/
027710/20130329/143710/1280/5987/20/
027710/20130329/143842/1275/4902/10/
027710/20130329/143848/1275/8712/10/
027710/20130329/143852/1275/1273/10/
027710/20130329/143859/1275/912/10/
027710/20130329/143922/1275/90/20/
027710/20130329/143928/1270/2849/10/
027710/20130329/143941/1275/3485/20/
027710/20130329/143952/1275/1614/10/
027710/20130329/144002/1275/3164/20/
027710/20130329/144003/1275/5245/20/
027710/20130329/144004/1275/712/10/
027710/20130329/144009/1275/1092/10/
027710/20130329/144100/1275/2834/10/
027710/20130329/144147/1275/1017/10/
027710/20130329/144218/1275/1010/10/
027710/20130329/144227/1275/2363/10/
027710/20130329/144234/1275/1008/10/
027710/20130329/144256/1275/3013/10/
027710/20130329/144259/1275/1001/10/
027710/20130329/144350/1280/141/20/
027710/20130329/144352/1275/1000/10/
027710/20130329/144427/1275/1898/10/
027710/20130329/144446/1280/8272/20/
027710/20130329/144447/1280/9300/20/
027710/20130329/144450/1280/2001/20/
027710/20130329/144458/1280/30007/20/
027710/20130329/144459/1280/5001/20/
027710/20130329/144459/1280/3919/20/
027710/20130329/144504/1285/304/20/
027710/20130329/144554/1285/3479/20/
027710/20130329/144600/1280/10004/10/
027710/20130329/144611/1280/36008/10/
027710/20130329/144636/1285/81/20/
027710/20130329/144656/1280/177/10/
027710/20130329/144658/1280/351/10/
027710/20130329/144658/1280/796/10/
027710/20130329/144728/1275/1217/10/
027710/20130329/144733/1275/5003/10/
027710/20130329/144748/1280/522/20/
027710/20130329/144753/1275/111/10/
027710/20130329/144755/1275/1168/10/
027710/20130329/144803/1275/530/10/
027710/20130329/144813/1275/394/10/
027710/20130329/144820/1275/511/10/
027710/20130329/144833/1275/2254/10/
027710/20130329/144835/1275/28835/10/
027710/20130329/144838/1270/3485/10/
027710/20130329/144844/1275/2013/20/
027710/20130329/144854/1275/1520/20/
027710/20130329/144902/1270/535/10/
027710/20130329/144908/1275/265/20/
027710/20130329/144909/1270/202/10/
027710/20130329/144912/1275/508/20/
027710/20130329/144913/1270/28697/10/
027710/20130329/144916/1270/1031/10/
027710/20130329/144922/1275/649/20/
027710/20130329/144926/1270/1908/10/
027710/20130329/144928/1275/1206/20/
027710/20130329/144929/1275/3775/20/
027710/20130329/144935/1275/1066/20/
027710/20130329/144940/1275/1956/20/
027710/20130329/144942/1270/503/10/
027710/20130329/144947/1270/5013/10/
027710/20130329/144948/1270/2297/10/
027710/20130329/144952/1270/1101/10/
027710/20130329/144955/1270/1009/10/
027710/20130329/144958/1270/24007/10/
027710/20130329/144959/1270/1917/10/
027710/20130329/150000/1260/191518/10/
