032790/20130111/90000/800/1125/20/
032790/20130111/90042/800/2002/20/
032790/20130111/90049/800/111/20/
032790/20130111/90053/800/102/20/
032790/20130111/90058/799/100/20/
032790/20130111/90100/799/303/20/
032790/20130111/90102/799/100/20/
032790/20130111/90105/799/100/20/
032790/20130111/90106/799/100/20/
032790/20130111/90109/799/100/20/
032790/20130111/90113/799/100/20/
032790/20130111/90117/799/111/20/
032790/20130111/90121/799/100/20/
032790/20130111/90126/799/102/20/
032790/20130111/90130/799/100/20/
032790/20130111/90134/799/102/20/
032790/20130111/90137/799/102/20/
032790/20130111/90142/799/100/20/
032790/20130111/90227/799/1002/20/
032790/20130111/90234/799/102/20/
032790/20130111/90238/799/102/20/
032790/20130111/90245/799/1000/20/
032790/20130111/90252/799/100/20/
032790/20130111/90302/799/1000/20/
032790/20130111/90359/799/1002/20/
032790/20130111/90443/800/1004/20/
032790/20130111/90559/799/1002/20/
032790/20130111/90641/798/102/10/
032790/20130111/90641/797/855/10/
032790/20130111/90641/796/2100/10/
032790/20130111/90641/795/945/10/
032790/20130111/90848/795/2821/10/
032790/20130111/90926/795/181/20/
032790/20130111/91113/795/250/10/
032790/20130111/91113/794/1141/10/
032790/20130111/91113/793/1650/10/
032790/20130111/91154/792/102/10/
032790/20130111/91154/791/5106/10/
032790/20130111/91154/790/10794/10/
032790/20130111/91756/791/1284/10/
032790/20130111/91808/793/1000/20/
032790/20130111/91856/793/947/20/
032790/20130111/92154/798/801/20/
032790/20130111/92342/794/851/10/
032790/20130111/92428/794/111/20/
032790/20130111/92832/797/1545/20/
032790/20130111/93914/794/1117/10/
032790/20130111/93917/794/1511/10/
032790/20130111/93938/794/100/20/
032790/20130111/94049/794/81/20/
032790/20130111/94057/793/217/10/
032790/20130111/94057/791/4110/10/
032790/20130111/94057/790/9684/10/
032790/20130111/94057/787/4000/10/
032790/20130111/94057/786/1992/10/
032790/20130111/94651/788/319/10/
032790/20130111/95025/794/101/20/
032790/20130111/95118/782/3942/10/
032790/20130111/95118/781/3486/10/
032790/20130111/95653/792/751/20/
032790/20130111/95711/792/301/10/
032790/20130111/100052/788/1380/10/
032790/20130111/100056/788/412/20/
032790/20130111/100213/788/88/20/
032790/20130111/100249/787/1071/10/
032790/20130111/100249/786/760/10/
032790/20130111/100249/785/238/10/
032790/20130111/100611/789/100/20/
032790/20130111/100624/789/959/20/
032790/20130111/101828/790/6000/20/
032790/20130111/102256/794/813/20/
032790/20130111/102457/794/1034/20/
032790/20130111/102510/794/650/10/
032790/20130111/102955/794/91/20/
032790/20130111/103449/794/124/10/
032790/20130111/103624/794/89/20/
032790/20130111/104120/791/978/10/
032790/20130111/104120/790/2754/10/
032790/20130111/104343/795/501/20/
032790/20130111/104735/795/1399/20/
032790/20130111/105016/790/300/10/
032790/20130111/105355/795/630/20/
032790/20130111/110304/795/100/20/
032790/20130111/110352/790/1500/10/
032790/20130111/110524/790/1102/10/
032790/20130111/111517/790/1206/10/
032790/20130111/112247/789/85/10/
032790/20130111/112247/788/157/10/
032790/20130111/112247/787/110/10/
032790/20130111/112247/786/123/10/
032790/20130111/112247/785/3120/10/
032790/20130111/113056/785/1001/10/
032790/20130111/113219/785/245/10/
032790/20130111/113309/784/1075/10/
032790/20130111/113339/784/150/10/
032790/20130111/113409/784/1000/10/
032790/20130111/113444/784/365/10/
032790/20130111/113615/784/501/10/
032790/20130111/113806/784/126/10/
032790/20130111/113806/783/485/10/
032790/20130111/113833/782/501/10/
032790/20130111/113840/783/400/20/
032790/20130111/113929/783/3029/10/
032790/20130111/113930/782/110/10/
032790/20130111/114013/782/1000/10/
032790/20130111/114118/782/912/10/
032790/20130111/114118/781/3841/10/
032790/20130111/114545/783/911/10/
032790/20130111/114545/782/190/10/
032790/20130111/114919/781/1567/10/
032790/20130111/114936/781/4000/10/
032790/20130111/115030/781/92/10/
032790/20130111/120235/781/94/10/
032790/20130111/120438/781/242/10/
032790/20130111/120540/781/109/10/
032790/20130111/120844/781/1138/10/
032790/20130111/120850/781/102/10/
032790/20130111/121332/781/592/10/
032790/20130111/121332/780/2872/10/
032790/20130111/121420/787/550/20/
032790/20130111/121420/787/2951/10/
032790/20130111/121446/781/1000/10/
032790/20130111/121539/780/692/10/
032790/20130111/121539/779/130/10/
032790/20130111/121539/778/610/10/
032790/20130111/121539/777/2569/10/
032790/20130111/121619/778/3501/10/
032790/20130111/121619/777/9887/10/
032790/20130111/122032/779/626/10/
032790/20130111/122156/780/161/10/
032790/20130111/122255/779/216/10/
032790/20130111/122259/779/259/10/
032790/20130111/122259/778/900/10/
032790/20130111/122259/777/1225/10/
032790/20130111/122259/776/1610/10/
032790/20130111/122259/775/3376/10/
032790/20130111/122343/780/101/20/
032790/20130111/122446/775/844/10/
032790/20130111/122450/773/2040/10/
032790/20130111/122512/775/216/20/
032790/20130111/122512/780/262/10/
032790/20130111/122948/774/131/10/
032790/20130111/122948/773/180/10/
032790/20130111/122948/772/1484/10/
032790/20130111/122948/771/6709/10/
032790/20130111/123021/771/1506/20/
032790/20130111/123235/771/1235/10/
032790/20130111/123235/770/8061/10/
032790/20130111/123235/769/190/10/
032790/20130111/123235/768/515/10/
032790/20130111/123624/781/101/20/
032790/20130111/124624/781/400/20/
032790/20130111/125859/775/172/10/
032790/20130111/125956/775/201/10/
032790/20130111/130246/776/501/10/
032790/20130111/130343/775/501/10/
032790/20130111/131022/775/166/10/
032790/20130111/131039/773/500/10/
032790/20130111/131121/777/100/20/
032790/20130111/131234/777/177/20/
032790/20130111/131234/780/1367/20/
032790/20130111/131304/782/457/20/
032790/20130111/131304/782/1544/10/
032790/20130111/131336/780/457/10/
032790/20130111/131657/773/118/10/
032790/20130111/131657/772/170/10/
032790/20130111/131657/771/100/10/
032790/20130111/131657/770/1112/10/
032790/20130111/131900/770/203/10/
032790/20130111/131950/770/89/20/
032790/20130111/132037/770/1356/20/
032790/20130111/132114/770/666/10/
032790/20130111/132124/770/170/20/
032790/20130111/132416/769/1001/10/
032790/20130111/133037/769/4601/10/
032790/20130111/133318/777/301/20/
032790/20130111/133637/770/500/10/
032790/20130111/133723/775/401/10/
032790/20130111/133834/768/963/10/
032790/20130111/133834/767/2936/10/
032790/20130111/134521/768/923/10/
032790/20130111/134734/770/1501/10/
032790/20130111/134801/770/1003/10/
032790/20130111/134913/770/501/10/
032790/20130111/134922/769/1001/10/
032790/20130111/135048/769/1294/10/
032790/20130111/135101/772/489/20/
032790/20130111/135116/772/2001/10/
032790/20130111/135236/773/1544/20/
032790/20130111/135606/773/687/20/
032790/20130111/135752/771/103/10/
032790/20130111/135752/770/1001/10/
032790/20130111/135752/769/839/10/
032790/20130111/135752/768/1059/10/
032790/20130111/140008/772/101/20/
032790/20130111/140521/772/436/20/
032790/20130111/140649/770/335/10/
032790/20130111/140748/769/297/10/
032790/20130111/140830/770/935/20/
032790/20130111/140851/770/1001/10/
032790/20130111/141017/770/650/10/
032790/20130111/141017/769/4991/10/
032790/20130111/141524/769/221/10/
032790/20130111/141524/768/1780/10/
032790/20130111/141600/768/801/10/
032790/20130111/141611/768/501/10/
032790/20130111/141705/773/2428/20/
032790/20130111/141913/774/505/10/
032790/20130111/142011/772/301/10/
032790/20130111/142113/770/1001/10/
032790/20130111/142157/770/301/10/
032790/20130111/142157/769/7270/10/
032790/20130111/142405/769/301/10/
032790/20130111/142420/769/101/10/
032790/20130111/142429/768/1001/10/
032790/20130111/142447/768/573/10/
032790/20130111/142447/767/5327/10/
032790/20130111/142454/767/1500/20/
032790/20130111/142600/770/101/20/
032790/20130111/142644/765/1000/10/
032790/20130111/142651/765/501/10/
032790/20130111/142808/770/531/20/
032790/20130111/142814/770/521/10/
032790/20130111/142825/769/272/20/
032790/20130111/142825/770/1470/20/
032790/20130111/142948/771/259/20/
032790/20130111/143016/771/243/10/
032790/20130111/143032/770/201/10/
032790/20130111/143144/770/302/10/
032790/20130111/143149/770/1001/10/
032790/20130111/143304/775/156/20/
032790/20130111/143315/775/305/10/
032790/20130111/143336/770/560/10/
032790/20130111/143504/770/298/10/
032790/20130111/143504/767/800/10/
032790/20130111/143504/766/1932/10/
032790/20130111/143716/767/1003/10/
032790/20130111/143800/768/805/10/
032790/20130111/143800/767/2734/10/
032790/20130111/143800/766/4490/10/
032790/20130111/143800/765/1971/10/
032790/20130111/143852/766/87/10/
032790/20130111/143852/765/2914/10/
032790/20130111/144009/765/502/10/
032790/20130111/144139/775/2580/20/
032790/20130111/144215/765/800/10/
032790/20130111/144444/766/507/10/
032790/20130111/144444/765/501/10/
032790/20130111/144523/774/1106/20/
032790/20130111/144538/774/505/10/
032790/20130111/144539/774/391/10/
032790/20130111/144609/770/500/10/
032790/20130111/144657/769/501/10/
032790/20130111/144800/768/201/10/
032790/20130111/144831/766/104/10/
032790/20130111/144831/765/897/10/
032790/20130111/144840/765/1000/10/
032790/20130111/144935/767/402/10/
032790/20130111/144935/766/2000/10/
032790/20130111/144935/765/2092/10/
032790/20130111/144935/764/1687/10/
032790/20130111/144935/763/2910/10/
032790/20130111/144935/762/911/10/
032790/20130111/144953/763/1267/10/
032790/20130111/144953/762/4234/10/
032790/20130111/150000/773/17335/20/
