032790/20130117/90931/782/117/20/
032790/20130117/91413/780/597/20/
032790/20130117/92916/778/84/20/
032790/20130117/93226/779/478/20/
032790/20130117/94706/772/102/10/
032790/20130117/94706/770/1176/10/
032790/20130117/94722/767/104/10/
032790/20130117/94722/765/630/10/
032790/20130117/94843/766/876/10/
032790/20130117/95520/778/402/20/
032790/20130117/95525/778/500/20/
032790/20130117/95603/778/98/20/
032790/20130117/100015/780/252/20/
032790/20130117/101333/779/521/10/
032790/20130117/101705/780/100/20/
032790/20130117/103406/778/119/10/
032790/20130117/104307/770/203/10/
032790/20130117/104555/770/110/10/
032790/20130117/110300/778/401/20/
032790/20130117/121051/777/89/20/
032790/20130117/121443/774/81/10/
032790/20130117/121708/775/139/20/
032790/20130117/121712/775/100/20/
032790/20130117/121717/775/100/20/
032790/20130117/121723/775/100/20/
032790/20130117/123717/777/100/20/
032790/20130117/124314/778/730/20/
032790/20130117/124314/779/1772/20/
032790/20130117/125420/778/1006/10/
032790/20130117/130109/772/234/10/
032790/20130117/130109/771/1488/10/
032790/20130117/132327/778/110/20/
032790/20130117/134011/773/83/10/
032790/20130117/134011/772/504/10/
032790/20130117/134022/772/100/20/
032790/20130117/134027/772/300/20/
032790/20130117/140959/773/92/10/
032790/20130117/140959/772/500/10/
032790/20130117/140959/771/100/10/
032790/20130117/140959/770/570/10/
032790/20130117/140959/769/100/10/
032790/20130117/140959/768/234/10/
032790/20130117/140959/767/721/10/
032790/20130117/141542/769/844/10/
032790/20130117/141542/768/2079/10/
032790/20130117/141752/774/201/20/
032790/20130117/141753/774/200/20/
032790/20130117/141755/774/148/20/
032790/20130117/141757/775/252/20/
032790/20130117/143403/769/664/10/
032790/20130117/143416/769/123/20/
032790/20130117/143717/774/301/20/
032790/20130117/143732/774/200/10/
032790/20130117/143741/774/369/20/
032790/20130117/143755/775/300/20/
032790/20130117/143816/775/208/10/
032790/20130117/143912/774/300/10/
032790/20130117/144013/774/102/10/
032790/20130117/144016/774/157/10/
032790/20130117/144017/775/198/20/
032790/20130117/144214/775/273/20/
032790/20130117/144228/776/416/20/
032790/20130117/144337/777/501/20/
032790/20130117/144410/776/117/10/
032790/20130117/144418/777/220/20/
032790/20130117/144423/778/119/20/
032790/20130117/144423/779/101/20/
032790/20130117/150000/775/4525/10/
