032790/20121228/90411/793/801/10/
032790/20121228/91038/793/4060/10/
032790/20121228/91638/801/100/20/
032790/20121228/91638/802/100/20/
032790/20121228/91638/803/300/20/
032790/20121228/91807/795/195/10/
032790/20121228/91807/791/419/10/
032790/20121228/91807/790/386/10/
032790/20121228/92248/797/92/20/
032790/20121228/92248/798/240/20/
032790/20121228/92248/799/970/20/
032790/20121228/92301/799/118/20/
032790/20121228/92406/800/100/20/
032790/20121228/92657/793/200/10/
032790/20121228/92657/792/128/10/
032790/20121228/92657/791/230/10/
032790/20121228/92657/790/582/10/
032790/20121228/92956/792/100/10/
032790/20121228/93224/791/1702/10/
032790/20121228/93246/791/339/20/
032790/20121228/95701/801/152/20/
032790/20121228/95731/802/966/20/
032790/20121228/100842/802/101/20/
032790/20121228/102500/802/3000/20/
032790/20121228/103250/802/1000/10/
032790/20121228/103423/802/500/10/
032790/20121228/103443/802/8010/10/
032790/20121228/105231/802/311/20/
032790/20121228/110842/800/181/20/
032790/20121228/111619/798/166/10/
032790/20121228/111619/797/1054/10/
032790/20121228/112028/802/102/20/
032790/20121228/113341/802/145/20/
032790/20121228/113346/802/144/20/
032790/20121228/113346/802/97/20/
032790/20121228/113356/803/100/20/
032790/20121228/113401/804/100/20/
032790/20121228/113401/805/88/20/
032790/20121228/113408/806/122/20/
032790/20121228/113416/807/585/20/
032790/20121228/113416/808/200/20/
032790/20121228/113416/809/520/20/
032790/20121228/113416/810/695/20/
032790/20121228/113613/806/748/10/
032790/20121228/114252/803/265/10/
032790/20121228/114252/802/236/10/
032790/20121228/114541/797/501/10/
032790/20121228/114627/798/261/10/
032790/20121228/115327/809/157/20/
032790/20121228/115327/810/344/20/
032790/20121228/115654/810/3886/20/
032790/20121228/115816/810/100/10/
032790/20121228/115825/810/3000/10/
032790/20121228/115833/810/100/10/
032790/20121228/115913/810/154/10/
032790/20121228/120406/802/223/10/
032790/20121228/120406/800/1778/10/
032790/20121228/120722/800/1500/10/
032790/20121228/121523/805/101/20/
032790/20121228/123822/805/1106/20/
032790/20121228/125027/805/524/20/
032790/20121228/125128/805/268/20/
032790/20121228/125652/800/499/10/
032790/20121228/125652/800/100/10/
032790/20121228/132804/801/329/10/
032790/20121228/133256/801/400/10/
032790/20121228/133924/808/350/20/
032790/20121228/134236/809/275/20/
032790/20121228/134334/809/87/20/
032790/20121228/135410/809/82/20/
032790/20121228/135546/809/297/20/
032790/20121228/140031/805/162/10/
032790/20121228/140041/810/300/20/
032790/20121228/140908/805/288/10/
032790/20121228/141038/805/168/20/
032790/20121228/141046/805/111/20/
032790/20121228/142320/805/2412/10/
032790/20121228/142700/805/499/10/
032790/20121228/142700/802/149/10/
032790/20121228/142809/801/1581/10/
032790/20121228/142855/801/282/20/
032790/20121228/143159/800/3058/10/
032790/20121228/143221/800/942/20/
032790/20121228/143453/799/396/10/
032790/20121228/143453/798/118/10/
032790/20121228/143453/797/2068/10/
032790/20121228/143453/797/2976/20/
032790/20121228/143454/797/1442/20/
032790/20121228/143818/800/101/20/
032790/20121228/144047/800/400/20/
032790/20121228/144125/799/100/10/
032790/20121228/144136/798/100/10/
032790/20121228/144136/797/100/10/
032790/20121228/144136/796/81/10/
032790/20121228/144234/796/178/10/
032790/20121228/144234/794/312/10/
032790/20121228/144234/793/311/10/
032790/20121228/144234/792/441/10/
032790/20121228/144234/791/300/10/
032790/20121228/144234/790/458/10/
032790/20121228/144809/799/1066/20/
032790/20121228/144814/799/1000/20/
032790/20121228/144935/799/500/20/
032790/20121228/144941/799/500/20/
032790/20121228/144945/799/500/20/
032790/20121228/144948/799/374/10/
032790/20121228/144948/800/126/20/
032790/20121228/144951/800/500/20/
032790/20121228/144956/800/404/20/
032790/20121228/144956/802/96/20/
032790/20121228/150000/800/2700/10/
