032790/20130214/90623/703/100/10/
032790/20130214/90623/701/142/10/
032790/20130214/90623/700/550/10/
032790/20130214/91229/715/84/10/
032790/20130214/91653/715/140/20/
032790/20130214/91742/716/410/20/
032790/20130214/91816/716/160/10/
032790/20130214/91849/716/154/20/
032790/20130214/91953/716/221/20/
032790/20130214/92412/719/82/20/
032790/20130214/93018/719/551/20/
032790/20130214/93205/719/838/20/
032790/20130214/93221/720/500/20/
032790/20130214/93258/723/231/20/
032790/20130214/93551/719/560/10/
032790/20130214/94121/723/128/20/
032790/20130214/94121/723/265/20/
032790/20130214/94546/721/150/10/
032790/20130214/95019/723/100/20/
032790/20130214/95123/723/169/20/
032790/20130214/95516/723/81/20/
032790/20130214/95547/723/373/20/
032790/20130214/95944/717/94/10/
032790/20130214/95944/715/1002/10/
032790/20130214/100111/716/1016/10/
032790/20130214/100111/715/1200/10/
032790/20130214/100356/715/85/10/
032790/20130214/100356/714/1010/10/
032790/20130214/100356/713/1002/10/
032790/20130214/100921/715/733/10/
032790/20130214/101143/713/1000/10/
032790/20130214/101415/712/1072/10/
032790/20130214/101415/711/120/10/
032790/20130214/101415/710/335/10/
032790/20130214/101415/709/1493/10/
032790/20130214/101509/710/120/10/
032790/20130214/101842/720/181/20/
032790/20130214/101905/721/91/10/
032790/20130214/101928/720/9000/10/
032790/20130214/101947/722/1598/20/
032790/20130214/101947/723/2038/20/
032790/20130214/101947/724/137/20/
032790/20130214/101947/725/305/20/
032790/20130214/101958/725/323/20/
032790/20130214/101958/726/196/20/
032790/20130214/101958/727/180/20/
032790/20130214/101958/728/301/20/
032790/20130214/102111/720/829/10/
032790/20130214/103515/725/228/20/
032790/20130214/103528/725/983/10/
032790/20130214/104348/719/533/10/
032790/20130214/104348/718/468/10/
032790/20130214/111858/720/307/10/
032790/20130214/112120/720/135/20/
032790/20130214/112752/721/281/20/
032790/20130214/113231/723/222/20/
032790/20130214/113549/718/489/10/
032790/20130214/113549/717/686/10/
032790/20130214/113824/718/501/10/
032790/20130214/114400/718/460/10/
032790/20130214/114540/717/211/10/
032790/20130214/114932/717/435/10/
032790/20130214/114932/716/600/10/
032790/20130214/114932/715/1002/10/
032790/20130214/114932/714/1050/10/
032790/20130214/122645/715/772/10/
032790/20130214/122645/714/970/10/
032790/20130214/122645/713/311/10/
032790/20130214/123907/720/302/20/
032790/20130214/131748/713/125/10/
032790/20130214/131748/712/200/10/
032790/20130214/131748/711/990/10/
032790/20130214/131748/710/685/10/
032790/20130214/131822/711/211/20/
032790/20130214/131955/712/804/10/
032790/20130214/131955/711/416/10/
032790/20130214/132156/711/501/10/
032790/20130214/133719/711/510/10/
032790/20130214/133719/710/891/10/
032790/20130214/133730/710/86/10/
032790/20130214/135231/715/180/20/
032790/20130214/135236/715/144/20/
032790/20130214/135304/715/230/20/
032790/20130214/140526/718/396/20/
032790/20130214/140549/711/528/10/
032790/20130214/140549/710/114/10/
032790/20130214/140549/709/222/10/
032790/20130214/140549/708/138/10/
032790/20130214/142136/718/373/20/
032790/20130214/142720/718/426/20/
032790/20130214/144702/717/2010/20/
032790/20130214/150000/715/4405/10/
