032790/20121207/90256/819/83/20/
032790/20121207/90330/820/82/20/
032790/20121207/90330/824/82/20/
032790/20121207/90425/824/100/20/
032790/20121207/91024/820/169/10/
032790/20121207/91027/820/118/10/
032790/20121207/91030/820/118/10/
032790/20121207/91044/820/173/10/
032790/20121207/91051/820/100/10/
032790/20121207/91052/820/118/10/
032790/20121207/91306/820/1075/10/
032790/20121207/91344/820/96/10/
032790/20121207/91951/823/8074/20/
032790/20121207/92053/820/84/10/
032790/20121207/92225/811/3037/10/
032790/20121207/93023/819/583/20/
032790/20121207/93112/819/430/10/
032790/20121207/93502/820/2219/20/
032790/20121207/93528/822/520/20/
032790/20121207/93551/822/1500/20/
032790/20121207/93602/823/4614/20/
032790/20121207/93611/823/100/10/
032790/20121207/93618/823/102/10/
032790/20121207/93623/823/200/10/
032790/20121207/93629/822/404/10/
032790/20121207/93634/822/82/10/
032790/20121207/93637/824/520/20/
032790/20121207/93654/826/1012/20/
032790/20121207/93701/827/100/20/
032790/20121207/93711/828/2011/20/
032790/20121207/93722/828/836/20/
032790/20121207/93835/826/122/20/
032790/20121207/94007/826/106/20/
032790/20121207/94709/826/1041/10/
032790/20121207/94722/826/359/10/
032790/20121207/95123/824/535/10/
032790/20121207/95414/822/480/10/
032790/20121207/95534/825/484/20/
032790/20121207/95933/823/1419/20/
032790/20121207/100711/823/84/20/
032790/20121207/101512/818/95/10/
032790/20121207/101602/818/498/10/
032790/20121207/101625/822/502/20/
032790/20121207/101648/822/122/20/
032790/20121207/101708/823/100/20/
032790/20121207/101712/824/84/20/
032790/20121207/101848/824/315/20/
032790/20121207/102021/824/376/20/
032790/20121207/102021/825/181/20/
032790/20121207/102038/825/390/20/
032790/20121207/102139/823/92/10/
032790/20121207/102144/826/118/20/
032790/20121207/102247/826/266/20/
032790/20121207/102319/827/3044/20/
032790/20121207/102319/828/355/20/
032790/20121207/102319/829/601/20/
032790/20121207/102427/828/118/20/
032790/20121207/102512/829/117/20/
032790/20121207/102512/830/820/20/
032790/20121207/102512/831/103/20/
032790/20121207/102557/829/108/10/
032790/20121207/102628/829/102/10/
032790/20121207/102646/829/137/10/
032790/20121207/102650/829/126/10/
032790/20121207/102653/829/100/10/
032790/20121207/102654/829/208/10/
032790/20121207/103317/824/511/10/
032790/20121207/104712/820/236/10/
032790/20121207/104725/820/379/10/
032790/20121207/105634/820/114/10/
032790/20121207/110840/820/3901/10/
032790/20121207/111619/826/132/20/
032790/20121207/112317/821/96/10/
032790/20121207/112328/821/136/10/
032790/20121207/113514/825/82/20/
032790/20121207/114645/820/107/10/
032790/20121207/114709/819/189/10/
032790/20121207/114733/818/100/10/
032790/20121207/115946/817/166/10/
032790/20121207/115953/817/100/10/
032790/20121207/120829/823/519/20/
032790/20121207/121104/819/100/10/
032790/20121207/121346/823/119/20/
032790/20121207/121502/823/154/20/
032790/20121207/122448/823/2000/20/
032790/20121207/122459/823/311/20/
032790/20121207/122459/825/189/20/
032790/20121207/122612/825/89/20/
032790/20121207/122629/826/123/20/
032790/20121207/122756/826/107/20/
032790/20121207/122756/827/728/20/
032790/20121207/122756/828/4167/20/
032790/20121207/122936/827/143/20/
032790/20121207/122939/828/200/20/
032790/20121207/123003/828/701/10/
032790/20121207/123003/829/5300/20/
032790/20121207/123042/828/102/20/
032790/20121207/123110/829/1002/20/
032790/20121207/123120/829/147/20/
032790/20121207/123429/828/176/20/
032790/20121207/123429/829/197/20/
032790/20121207/123429/830/1698/20/
032790/20121207/123521/829/1015/20/
032790/20121207/123528/829/200/20/
032790/20121207/123601/829/2032/20/
032790/20121207/123605/829/920/10/
032790/20121207/123605/829/2375/10/
032790/20121207/123632/830/1002/20/
032790/20121207/123720/829/1011/20/
032790/20121207/123830/829/1002/20/
032790/20121207/123836/829/89/20/
032790/20121207/123859/830/1077/20/
032790/20121207/123941/830/3013/20/
032790/20121207/123952/830/736/20/
032790/20121207/123952/830/275/10/
032790/20121207/123954/830/1000/20/
032790/20121207/123954/831/5011/20/
032790/20121207/124001/831/357/20/
032790/20121207/124013/831/650/20/
032790/20121207/124016/832/155/20/
032790/20121207/124021/832/1268/20/
032790/20121207/124026/832/159/20/
032790/20121207/124031/832/268/20/
032790/20121207/124040/832/115/20/
032790/20121207/124047/832/781/20/
032790/20121207/124047/833/2018/20/
032790/20121207/124047/835/5096/20/
032790/20121207/124048/835/1204/20/
032790/20121207/124053/837/100/20/
032790/20121207/124117/838/100/20/
032790/20121207/124205/833/1458/10/
032790/20121207/124232/836/133/20/
032790/20121207/124337/833/1731/10/
032790/20121207/124337/832/2900/10/
032790/20121207/124337/831/435/10/
032790/20121207/124416/831/2442/20/
032790/20121207/124459/835/242/20/
032790/20121207/124459/835/270/10/
032790/20121207/124506/835/100/10/
032790/20121207/124509/835/289/10/
032790/20121207/124552/834/100/20/
032790/20121207/124552/835/100/20/
032790/20121207/124552/836/200/20/
032790/20121207/124639/834/103/20/
032790/20121207/124749/834/102/20/
032790/20121207/124757/835/1300/20/
032790/20121207/124757/836/700/20/
032790/20121207/124812/834/100/20/
032790/20121207/124812/837/100/20/
032790/20121207/124853/835/102/10/
032790/20121207/124911/835/249/10/
032790/20121207/125104/835/414/20/
032790/20121207/125109/836/704/20/
032790/20121207/125109/837/1668/20/
032790/20121207/125123/838/2640/20/
032790/20121207/125211/837/202/20/
032790/20121207/125259/837/228/20/
032790/20121207/125309/837/110/20/
032790/20121207/125309/838/134/20/
032790/20121207/125329/836/108/20/
032790/20121207/125440/837/604/20/
032790/20121207/125555/837/103/20/
032790/20121207/125836/837/738/20/
032790/20121207/130346/836/238/20/
032790/20121207/130436/833/153/10/
032790/20121207/130449/836/81/20/
032790/20121207/130450/833/100/10/
032790/20121207/130456/833/101/10/
032790/20121207/130505/833/100/10/
032790/20121207/130558/833/100/10/
032790/20121207/130602/833/100/10/
032790/20121207/130605/833/100/10/
032790/20121207/130609/833/100/10/
032790/20121207/130609/833/240/10/
032790/20121207/130612/833/100/10/
032790/20121207/130751/833/102/10/
032790/20121207/130754/833/100/10/
032790/20121207/130757/833/160/10/
032790/20121207/130902/834/200/20/
032790/20121207/131020/831/91/10/
032790/20121207/131102/831/172/10/
032790/20121207/131237/830/91/10/
032790/20121207/131237/829/3700/10/
032790/20121207/131237/828/7490/10/
032790/20121207/131302/826/164/10/
032790/20121207/131353/828/1987/20/
032790/20121207/131415/828/500/20/
032790/20121207/131435/828/200/20/
032790/20121207/131445/826/1370/10/
032790/20121207/131653/826/641/20/
032790/20121207/131742/828/2028/20/
032790/20121207/132155/828/225/10/
032790/20121207/132217/825/973/10/
032790/20121207/132258/824/855/10/
032790/20121207/132403/823/292/10/
032790/20121207/132712/823/2006/10/
032790/20121207/132851/823/301/10/
032790/20121207/132859/823/670/10/
032790/20121207/133059/823/3142/10/
032790/20121207/133059/822/1859/10/
032790/20121207/133345/821/113/10/
032790/20121207/133345/820/622/10/
032790/20121207/133409/820/1497/10/
032790/20121207/133516/819/101/20/
032790/20121207/133554/818/121/10/
032790/20121207/133554/817/381/10/
032790/20121207/133554/816/1102/10/
032790/20121207/133611/816/550/20/
032790/20121207/133616/815/500/10/
032790/20121207/133714/817/83/20/
032790/20121207/133718/817/88/20/
032790/20121207/134320/827/829/20/
032790/20121207/134324/827/207/10/
032790/20121207/134344/829/105/10/
032790/20121207/134348/829/100/10/
032790/20121207/134352/829/100/10/
032790/20121207/134354/829/100/10/
032790/20121207/134359/829/95/10/
032790/20121207/135339/821/4021/20/
032790/20121207/135407/820/105/10/
032790/20121207/140802/820/6034/20/
032790/20121207/141725/820/101/10/
032790/20121207/141725/819/4880/10/
032790/20121207/141749/819/88/20/
032790/20121207/141811/818/1003/10/
032790/20121207/141901/819/201/10/
032790/20121207/142553/819/429/20/
032790/20121207/143059/824/528/20/
032790/20121207/143127/823/168/20/
032790/20121207/143142/823/850/10/
032790/20121207/143227/820/445/10/
032790/20121207/143241/820/2430/10/
032790/20121207/143444/823/152/20/
032790/20121207/143542/823/422/10/
032790/20121207/143552/823/100/20/
032790/20121207/143656/823/200/20/
032790/20121207/143742/822/502/10/
032790/20121207/143742/821/1081/10/
032790/20121207/143742/820/1626/10/
032790/20121207/143744/820/344/10/
032790/20121207/144003/821/81/10/
032790/20121207/144019/823/406/20/
032790/20121207/144019/824/603/20/
032790/20121207/144102/824/3913/20/
032790/20121207/144115/824/1099/10/
032790/20121207/144115/821/1000/10/
032790/20121207/144115/820/2906/10/
032790/20121207/144130/825/303/20/
032790/20121207/144136/820/571/10/
032790/20121207/144231/825/1772/20/
032790/20121207/144253/829/81/20/
032790/20121207/144319/825/3846/10/
032790/20121207/144331/825/102/20/
032790/20121207/144518/821/1059/10/
032790/20121207/144518/820/9802/10/
032790/20121207/144533/820/102/20/
032790/20121207/144534/820/100/20/
032790/20121207/144650/820/336/10/
032790/20121207/144650/819/4680/10/
032790/20121207/144739/819/82/20/
032790/20121207/144758/823/100/20/
032790/20121207/144826/823/404/10/
032790/20121207/144826/819/97/10/
032790/20121207/150000/822/2987/10/
