032790/20130326/90009/885/229/10/
032790/20130326/90022/885/776/10/
032790/20130326/90100/885/202/10/
032790/20130326/90254/883/182/10/
032790/20130326/90355/882/100/10/
032790/20130326/90407/881/100/10/
032790/20130326/90451/880/101/10/
032790/20130326/90823/880/552/20/
032790/20130326/90922/891/81/20/
032790/20130326/90948/880/88/10/
032790/20130326/90953/891/500/20/
032790/20130326/91023/879/88/10/
032790/20130326/91145/890/102/20/
032790/20130326/91207/877/88/10/
032790/20130326/91244/877/483/20/
032790/20130326/91315/880/603/10/
032790/20130326/91322/880/900/10/
032790/20130326/91323/889/597/20/
032790/20130326/91324/889/6927/10/
032790/20130326/91324/889/3670/10/
032790/20130326/91343/880/147/10/
032790/20130326/91414/889/203/20/
032790/20130326/91516/887/153/20/
032790/20130326/91620/882/520/10/
032790/20130326/91620/880/471/10/
032790/20130326/91633/880/1714/10/
032790/20130326/91845/875/108/10/
032790/20130326/91956/874/254/10/
032790/20130326/92020/874/95/10/
032790/20130326/92020/871/123/10/
032790/20130326/92036/871/318/10/
032790/20130326/92053/871/418/10/
032790/20130326/92111/871/419/10/
032790/20130326/92228/872/3011/10/
032790/20130326/92228/871/795/10/
032790/20130326/92243/871/988/10/
032790/20130326/92243/870/2173/10/
032790/20130326/92243/869/449/10/
032790/20130326/92306/881/1031/20/
032790/20130326/92356/871/622/10/
032790/20130326/92356/869/381/10/
032790/20130326/92421/869/186/10/
032790/20130326/92444/867/136/10/
032790/20130326/92457/867/670/10/
032790/20130326/92459/866/670/10/
032790/20130326/92500/866/466/10/
032790/20130326/92505/865/1150/10/
032790/20130326/92512/866/784/20/
032790/20130326/92512/867/241/20/
032790/20130326/92521/867/827/10/
032790/20130326/92528/867/314/10/
032790/20130326/92528/861/1009/10/
032790/20130326/92528/860/8539/10/
032790/20130326/92529/860/1166/20/
032790/20130326/92540/865/550/10/
032790/20130326/92548/865/1029/10/
032790/20130326/92551/869/110/20/
032790/20130326/92608/869/511/10/
032790/20130326/92724/869/90/10/
032790/20130326/92758/865/82/10/
032790/20130326/92800/873/110/20/
032790/20130326/93004/874/171/20/
032790/20130326/93117/874/105/20/
032790/20130326/93203/876/102/20/
032790/20130326/93239/875/108/20/
032790/20130326/93252/874/105/20/
032790/20130326/93307/873/105/20/
032790/20130326/93347/867/1019/10/
032790/20130326/93437/874/110/20/
032790/20130326/93444/868/1041/10/
032790/20130326/93444/867/821/10/
032790/20130326/93444/866/711/10/
032790/20130326/93520/868/295/10/
032790/20130326/93520/868/264/10/
032790/20130326/93523/868/450/10/
032790/20130326/93622/868/400/10/
032790/20130326/93643/869/160/10/
032790/20130326/93643/868/192/10/
032790/20130326/93643/867/511/10/
032790/20130326/93643/866/1536/10/
032790/20130326/93643/865/1637/10/
032790/20130326/93643/864/511/10/
032790/20130326/93643/863/511/10/
032790/20130326/93643/862/680/10/
032790/20130326/93643/861/1332/10/
032790/20130326/93754/871/101/20/
032790/20130326/93848/865/287/10/
032790/20130326/93848/863/514/10/
032790/20130326/93848/862/130/10/
032790/20130326/94037/863/301/20/
032790/20130326/94130/863/3315/10/
032790/20130326/94130/862/998/10/
032790/20130326/94130/861/4687/10/
032790/20130326/94200/863/300/10/
032790/20130326/94643/869/865/20/
032790/20130326/94654/870/113/20/
032790/20130326/94803/872/81/20/
032790/20130326/94957/873/81/20/
032790/20130326/95122/872/2050/10/
032790/20130326/95300/864/839/10/
032790/20130326/95300/863/534/10/
032790/20130326/95624/872/238/20/
032790/20130326/95632/872/111/10/
032790/20130326/95701/872/108/10/
032790/20130326/100048/874/82/20/
032790/20130326/100057/874/283/20/
032790/20130326/100057/875/154/20/
032790/20130326/100057/877/103/20/
032790/20130326/100057/878/461/20/
032790/20130326/100207/875/162/20/
032790/20130326/100207/876/123/20/
032790/20130326/100218/876/227/10/
032790/20130326/100241/876/81/20/
032790/20130326/100257/876/89/20/
032790/20130326/100326/876/81/20/
032790/20130326/100424/876/89/20/
032790/20130326/100435/876/81/20/
032790/20130326/100452/877/107/20/
032790/20130326/100513/877/458/20/
032790/20130326/100513/878/3547/20/
032790/20130326/100526/877/106/20/
032790/20130326/100539/877/401/20/
032790/20130326/100539/878/602/20/
032790/20130326/100640/877/365/20/
032790/20130326/101104/878/88/20/
032790/20130326/101440/872/357/10/
032790/20130326/101636/875/416/10/
032790/20130326/101725/871/588/10/
032790/20130326/101728/871/100/10/
032790/20130326/101742/871/548/10/
032790/20130326/102234/873/93/20/
032790/20130326/102238/872/1232/10/
032790/20130326/102334/873/381/10/
032790/20130326/102421/874/84/20/
032790/20130326/102421/875/2000/20/
032790/20130326/102425/878/595/20/
032790/20130326/102430/878/538/10/
032790/20130326/102503/878/398/20/
032790/20130326/102503/879/2602/20/
032790/20130326/102507/879/3199/20/
032790/20130326/102507/880/11401/20/
032790/20130326/102520/880/401/10/
032790/20130326/102709/880/272/20/
032790/20130326/102709/881/510/20/
032790/20130326/102709/882/218/20/
032790/20130326/102717/882/283/20/
032790/20130326/102717/883/111/20/
032790/20130326/102717/884/106/20/
032790/20130326/102721/884/394/20/
032790/20130326/102721/885/606/20/
032790/20130326/102724/885/94/20/
032790/20130326/102724/886/100/20/
032790/20130326/102724/887/306/20/
032790/20130326/102726/887/372/20/
032790/20130326/102726/888/128/20/
032790/20130326/103407/880/262/10/
032790/20130326/103602/883/226/20/
032790/20130326/103602/885/510/20/
032790/20130326/103602/886/500/20/
032790/20130326/103602/887/4365/20/
032790/20130326/103614/887/1235/20/
032790/20130326/103614/888/10397/20/
032790/20130326/103625/888/1235/20/
032790/20130326/103625/889/8865/20/
032790/20130326/103631/889/1000/20/
032790/20130326/103646/889/100/20/
032790/20130326/103658/889/102/20/
032790/20130326/103739/890/87/20/
032790/20130326/103754/891/598/20/
032790/20130326/103812/891/327/10/
032790/20130326/103858/891/293/20/
032790/20130326/103858/892/719/20/
032790/20130326/103937/892/202/20/
032790/20130326/103942/895/117/20/
032790/20130326/103942/896/111/20/
032790/20130326/103942/897/111/20/
032790/20130326/103942/898/166/20/
032790/20130326/103944/899/500/20/
032790/20130326/103948/899/158/20/
032790/20130326/103949/900/1350/20/
032790/20130326/103954/899/500/20/
032790/20130326/103959/900/171/20/
032790/20130326/104014/895/85/10/
032790/20130326/104023/899/500/20/
032790/20130326/104023/900/500/20/
032790/20130326/104149/900/214/20/
032790/20130326/104452/900/539/20/
032790/20130326/104457/901/211/20/
032790/20130326/104506/902/211/20/
032790/20130326/104507/903/211/20/
032790/20130326/104507/904/211/20/
032790/20130326/104507/905/99/20/
032790/20130326/104509/905/231/20/
032790/20130326/104527/905/169/20/
032790/20130326/104548/904/135/20/
032790/20130326/104612/904/500/20/
032790/20130326/104615/904/1294/20/
032790/20130326/104634/903/500/20/
032790/20130326/104639/904/100/20/
032790/20130326/104640/903/500/10/
032790/20130326/104654/902/111/20/
032790/20130326/104654/900/368/10/
032790/20130326/104656/900/100/20/
032790/20130326/104659/900/532/20/
032790/20130326/104702/902/376/20/
032790/20130326/104702/904/134/20/
032790/20130326/104705/904/200/20/
032790/20130326/104706/905/100/20/
032790/20130326/104708/905/100/20/
032790/20130326/104731/900/518/10/
032790/20130326/104754/902/100/20/
032790/20130326/104759/902/100/20/
032790/20130326/104840/900/90/10/
032790/20130326/105014/896/81/10/
032790/20130326/105223/897/287/10/
032790/20130326/105227/899/93/20/
032790/20130326/105227/900/1057/20/
032790/20130326/105407/900/5053/20/
032790/20130326/105411/900/1959/10/
032790/20130326/105435/900/1900/20/
032790/20130326/105536/900/850/20/
032790/20130326/105555/900/1000/20/
032790/20130326/105607/900/100/20/
032790/20130326/105616/900/100/20/
032790/20130326/105806/894/81/10/
032790/20130326/110141/877/490/10/
032790/20130326/110141/875/250/10/
032790/20130326/110220/894/84/20/
032790/20130326/111036/894/83/20/
032790/20130326/112008/885/107/10/
032790/20130326/112008/884/301/10/
032790/20130326/112008/881/331/10/
032790/20130326/112342/890/201/20/
032790/20130326/112418/890/100/20/
032790/20130326/112746/890/201/10/
032790/20130326/112826/890/200/10/
032790/20130326/112858/890/201/10/
032790/20130326/112943/890/101/10/
032790/20130326/113145/893/150/20/
032790/20130326/113145/894/1246/20/
032790/20130326/113145/895/2881/20/
032790/20130326/113152/895/1773/10/
032790/20130326/113227/895/3005/20/
032790/20130326/113613/894/83/20/
032790/20130326/114444/886/81/10/
032790/20130326/115026/888/125/10/
032790/20130326/115327/885/380/10/
032790/20130326/115345/885/113/20/
032790/20130326/115729/890/81/20/
032790/20130326/115935/885/856/10/
032790/20130326/115949/885/100/20/
032790/20130326/120025/885/103/20/
032790/20130326/122521/891/142/20/
032790/20130326/123448/888/140/10/
032790/20130326/123536/888/100/10/
032790/20130326/124050/888/124/10/
032790/20130326/124050/884/306/10/
032790/20130326/124050/883/1050/10/
032790/20130326/124113/891/247/20/
032790/20130326/124632/891/131/20/
032790/20130326/130139/891/152/20/
032790/20130326/130402/891/101/20/
032790/20130326/130438/892/101/20/
032790/20130326/130513/886/131/10/
032790/20130326/130513/885/1749/10/
032790/20130326/130513/885/1151/20/
032790/20130326/130516/891/100/20/
032790/20130326/130621/884/521/10/
032790/20130326/131030/885/107/10/
032790/20130326/131030/884/2907/10/
032790/20130326/131242/891/100/20/
032790/20130326/131340/891/498/20/
032790/20130326/131459/885/114/10/
032790/20130326/131459/884/587/10/
032790/20130326/131459/883/1300/10/
032790/20130326/131459/882/456/10/
032790/20130326/131459/881/1000/10/
032790/20130326/131459/880/2607/10/
032790/20130326/132150/888/137/10/
032790/20130326/132522/883/103/10/
032790/20130326/133024/879/177/10/
032790/20130326/133713/887/192/10/
032790/20130326/133718/887/177/10/
032790/20130326/133727/889/102/20/
032790/20130326/134227/891/128/20/
032790/20130326/134607/884/92/10/
032790/20130326/134825/890/81/10/
032790/20130326/134835/890/296/10/
032790/20130326/134841/890/723/20/
032790/20130326/134855/891/194/20/
032790/20130326/134904/890/3783/10/
032790/20130326/135046/890/390/20/
032790/20130326/135112/890/754/20/
032790/20130326/135324/889/2270/10/
032790/20130326/135326/889/2420/10/
032790/20130326/135329/889/98/10/
032790/20130326/135332/891/100/20/
032790/20130326/135334/889/2000/10/
032790/20130326/135355/889/200/10/
032790/20130326/135516/891/100/20/
032790/20130326/135716/889/1302/10/
032790/20130326/135751/889/3601/10/
032790/20130326/135838/892/773/20/
032790/20130326/135934/892/662/20/
032790/20130326/135934/893/2010/20/
032790/20130326/140018/893/304/10/
032790/20130326/140142/893/697/20/
032790/20130326/140142/894/312/20/
032790/20130326/140142/895/100/20/
032790/20130326/140156/895/100/10/
032790/20130326/140301/896/111/20/
032790/20130326/140352/897/110/20/
032790/20130326/140356/898/111/20/
032790/20130326/140356/899/611/20/
032790/20130326/140417/897/580/10/
032790/20130326/140439/897/1204/10/
032790/20130326/140439/890/200/10/
032790/20130326/140439/889/458/10/
032790/20130326/140515/899/320/20/
032790/20130326/140515/900/180/20/
032790/20130326/140952/890/450/10/
032790/20130326/140952/890/570/20/
032790/20130326/140952/891/651/20/
032790/20130326/140956/889/2702/10/
032790/20130326/140956/888/2500/10/
032790/20130326/140956/880/675/10/
032790/20130326/140956/879/675/10/
032790/20130326/140956/878/1600/10/
032790/20130326/140956/877/1052/10/
032790/20130326/140956/876/1319/10/
032790/20130326/141250/885/404/10/
032790/20130326/141406/884/121/20/
032790/20130326/141406/885/373/20/
032790/20130326/141432/880/140/10/
032790/20130326/141432/879/103/10/
032790/20130326/141432/878/303/10/
032790/20130326/141526/880/84/10/
032790/20130326/141703/880/135/10/
032790/20130326/141836/884/83/20/
032790/20130326/141856/884/178/20/
032790/20130326/141908/884/117/20/
032790/20130326/141944/884/107/20/
032790/20130326/142021/884/91/20/
032790/20130326/142117/884/81/20/
032790/20130326/142127/884/81/10/
032790/20130326/142143/884/82/20/
032790/20130326/142212/884/88/20/
032790/20130326/142252/885/82/20/
032790/20130326/142334/885/81/20/
032790/20130326/142418/885/81/20/
032790/20130326/142447/889/243/20/
032790/20130326/142539/890/81/20/
032790/20130326/142644/889/146/20/
032790/20130326/142644/890/218/20/
032790/20130326/142701/891/116/20/
032790/20130326/142801/892/349/20/
032790/20130326/142816/892/223/10/
032790/20130326/142822/892/3015/10/
032790/20130326/142827/892/260/10/
032790/20130326/142841/892/177/10/
032790/20130326/142846/892/204/10/
032790/20130326/143006/893/941/20/
032790/20130326/143019/886/88/10/
032790/20130326/143053/895/82/20/
032790/20130326/143227/897/94/20/
032790/20130326/143230/899/528/20/
032790/20130326/143230/900/3473/20/
032790/20130326/143355/900/1017/20/
032790/20130326/143359/900/158/20/
032790/20130326/143441/900/433/10/
032790/20130326/143510/900/1570/20/
032790/20130326/143535/900/107/20/
032790/20130326/143550/900/143/20/
032790/20130326/143601/900/1203/20/
032790/20130326/143612/900/102/20/
032790/20130326/143619/900/825/20/
032790/20130326/143619/901/99/20/
032790/20130326/143619/902/1091/20/
032790/20130326/143621/893/470/10/
032790/20130326/143621/891/141/10/
032790/20130326/143621/890/102/10/
032790/20130326/143621/886/152/10/
032790/20130326/143621/885/110/10/
032790/20130326/143621/884/2036/10/
032790/20130326/143703/899/101/20/
032790/20130326/143703/900/200/20/
032790/20130326/143747/890/101/10/
032790/20130326/143915/897/224/20/
032790/20130326/143915/898/122/20/
032790/20130326/143915/899/656/20/
032790/20130326/144114/892/103/10/
032790/20130326/144130/897/1202/20/
032790/20130326/144213/898/117/20/
032790/20130326/144223/898/2003/20/
032790/20130326/144350/895/102/10/
032790/20130326/144350/894/1900/10/
032790/20130326/144423/897/150/20/
032790/20130326/144451/898/1402/20/
032790/20130326/144509/898/1279/20/
032790/20130326/144513/898/1002/20/
032790/20130326/144521/898/161/20/
032790/20130326/144551/898/1037/20/
032790/20130326/144639/898/131/20/
032790/20130326/144712/898/515/20/
032790/20130326/144736/899/1079/20/
032790/20130326/144751/899/826/20/
032790/20130326/144908/900/120/20/
032790/20130326/144947/895/129/10/
032790/20130326/150000/900/13710/20/
