032790/20130404/90000/969/1712/20/
032790/20130404/90058/968/175/20/
032790/20130404/90106/950/600/10/
032790/20130404/90227/950/277/10/
032790/20130404/90227/945/313/10/
032790/20130404/90227/945/1488/20/
032790/20130404/90247/960/1969/20/
032790/20130404/90341/955/135/20/
032790/20130404/90405/955/403/20/
032790/20130404/90405/955/3721/10/
032790/20130404/90435/954/137/20/
032790/20130404/90603/944/408/10/
032790/20130404/90650/953/128/10/
032790/20130404/90737/953/303/20/
032790/20130404/90753/953/1011/10/
032790/20130404/90821/954/86/20/
032790/20130404/90823/954/503/20/
032790/20130404/90832/954/697/20/
032790/20130404/90915/957/82/20/
032790/20130404/90931/954/314/10/
032790/20130404/90955/955/482/20/
032790/20130404/91010/947/4060/10/
032790/20130404/91038/947/479/10/
032790/20130404/91038/946/900/10/
032790/20130404/91106/953/82/20/
032790/20130404/91205/950/85/20/
032790/20130404/91220/948/101/10/
032790/20130404/91220/947/399/10/
032790/20130404/91220/950/266/20/
032790/20130404/91249/947/265/10/
032790/20130404/91307/946/210/10/
032790/20130404/91307/946/89/10/
032790/20130404/91307/945/200/10/
032790/20130404/91323/945/102/10/
032790/20130404/91323/944/102/10/
032790/20130404/91323/943/102/10/
032790/20130404/91323/941/200/10/
032790/20130404/91323/940/994/10/
032790/20130404/91330/940/417/10/
032790/20130404/91330/939/401/10/
032790/20130404/91330/938/1432/10/
032790/20130404/91330/939/100/10/
032790/20130404/91330/938/2928/10/
032790/20130404/91330/937/2020/10/
032790/20130404/91432/940/1033/10/
032790/20130404/91507/940/345/10/
032790/20130404/91542/949/155/20/
032790/20130404/91612/940/225/10/
032790/20130404/91627/949/100/20/
032790/20130404/91634/949/911/10/
032790/20130404/91634/940/89/10/
032790/20130404/91656/940/326/10/
032790/20130404/91656/939/650/10/
032790/20130404/91656/938/2041/10/
032790/20130404/91749/940/511/10/
032790/20130404/91814/939/1010/10/
032790/20130404/91820/939/210/10/
032790/20130404/91826/938/2200/10/
032790/20130404/91918/938/1129/10/
032790/20130404/91924/939/110/20/
032790/20130404/92012/938/1032/10/
032790/20130404/92024/938/985/10/
032790/20130404/92026/938/545/20/
032790/20130404/92144/939/165/10/
032790/20130404/92201/939/258/20/
032790/20130404/92201/945/256/20/
032790/20130404/92233/939/314/10/
032790/20130404/92311/938/585/10/
032790/20130404/92313/945/300/20/
032790/20130404/92337/945/100/20/
032790/20130404/92350/939/211/10/
032790/20130404/92414/938/1906/10/
032790/20130404/92434/939/977/20/
032790/20130404/92444/945/101/20/
032790/20130404/92452/939/129/10/
032790/20130404/92455/939/246/20/
032790/20130404/92602/940/104/20/
032790/20130404/92605/940/100/20/
032790/20130404/92610/940/82/20/
032790/20130404/92716/941/1308/10/
032790/20130404/92721/941/100/20/
032790/20130404/92723/941/100/20/
032790/20130404/92728/941/100/20/
032790/20130404/92758/940/2000/10/
032790/20130404/92806/941/100/20/
032790/20130404/92844/940/878/10/
032790/20130404/92900/940/100/10/
032790/20130404/92900/939/794/10/
032790/20130404/92906/939/4000/10/
032790/20130404/92926/939/955/10/
032790/20130404/92945/938/1016/10/
032790/20130404/92953/942/906/20/
032790/20130404/92953/949/94/20/
032790/20130404/93011/948/500/20/
032790/20130404/93240/947/103/20/
032790/20130404/93715/947/101/20/
032790/20130404/94137/948/721/20/
032790/20130404/94148/948/408/20/
032790/20130404/94216/949/282/20/
032790/20130404/94233/948/294/10/
032790/20130404/94250/949/634/20/
032790/20130404/94250/950/6735/20/
032790/20130404/94252/950/4636/20/
032790/20130404/94252/951/1000/20/
032790/20130404/94252/952/1469/20/
032790/20130404/94252/953/994/20/
032790/20130404/94339/953/1000/20/
032790/20130404/94502/948/104/10/
032790/20130404/94527/948/246/20/
032790/20130404/94609/948/282/20/
032790/20130404/94627/949/840/20/
032790/20130404/94631/948/1228/10/
032790/20130404/94806/947/1170/10/
032790/20130404/94835/947/130/20/
032790/20130404/94846/947/113/20/
032790/20130404/94955/949/120/20/
032790/20130404/95049/947/120/20/
032790/20130404/95055/947/100/20/
032790/20130404/95424/950/1841/20/
032790/20130404/95504/947/1002/10/
032790/20130404/95522/947/973/10/
032790/20130404/95605/947/1132/10/
032790/20130404/95613/946/191/10/
032790/20130404/95638/946/113/20/
032790/20130404/95644/946/100/20/
032790/20130404/95656/950/103/20/
032790/20130404/95953/948/100/20/
032790/20130404/100000/946/102/10/
032790/20130404/100036/946/100/20/
032790/20130404/100036/946/111/20/
032790/20130404/100152/945/105/10/
032790/20130404/100152/944/96/10/
032790/20130404/100450/944/109/10/
032790/20130404/100450/943/202/10/
032790/20130404/100450/942/119/10/
032790/20130404/100737/944/127/20/
032790/20130404/100737/944/151/20/
032790/20130404/100805/943/150/10/
032790/20130404/100805/942/81/10/
032790/20130404/100805/941/102/10/
032790/20130404/100805/940/402/10/
032790/20130404/100932/941/114/10/
032790/20130404/100932/940/387/10/
032790/20130404/101014/941/103/10/
032790/20130404/101014/940/411/10/
032790/20130404/101014/939/411/10/
032790/20130404/101014/938/916/10/
032790/20130404/102226/940/3201/10/
032790/20130404/103550/945/110/20/
032790/20130404/104500/942/1001/10/
032790/20130404/105051/945/100/20/
032790/20130404/105119/942/100/10/
032790/20130404/110006/941/1245/10/
032790/20130404/110006/940/3011/10/
032790/20130404/110014/940/1500/20/
032790/20130404/110017/939/1036/10/
032790/20130404/110017/940/245/20/
032790/20130404/110022/940/755/10/
032790/20130404/110022/939/275/10/
032790/20130404/110022/938/2091/10/
032790/20130404/110026/938/879/20/
032790/20130404/110145/939/201/20/
032790/20130404/110230/939/203/20/
032790/20130404/110234/938/483/10/
032790/20130404/110242/937/272/10/
032790/20130404/110242/936/150/10/
032790/20130404/110242/935/2128/10/
032790/20130404/110330/938/100/10/
032790/20130404/110347/938/169/20/
032790/20130404/110436/938/131/20/
032790/20130404/110451/938/95/20/
032790/20130404/110600/937/100/10/
032790/20130404/110610/936/100/10/
032790/20130404/110610/936/100/20/
032790/20130404/110619/936/91/20/
032790/20130404/110638/937/1009/20/
032790/20130404/110638/935/172/10/
032790/20130404/110638/934/102/10/
032790/20130404/110638/933/174/10/
032790/20130404/110638/932/491/10/
032790/20130404/110645/932/509/10/
032790/20130404/110713/932/102/10/
032790/20130404/110713/931/1300/10/
032790/20130404/110713/930/1674/10/
032790/20130404/110716/930/2000/10/
032790/20130404/110734/930/5001/10/
032790/20130404/110738/930/500/10/
032790/20130404/110739/930/4004/10/
032790/20130404/110739/928/4000/10/
032790/20130404/110744/925/126/10/
032790/20130404/110756/920/100/10/
032790/20130404/110823/920/900/10/
032790/20130404/110855/920/400/10/
032790/20130404/110855/920/200/10/
032790/20130404/111000/920/100/20/
032790/20130404/111038/920/104/20/
032790/20130404/111048/920/100/20/
032790/20130404/111157/911/431/20/
032790/20130404/111242/911/625/10/
032790/20130404/111249/910/150/10/
032790/20130404/111249/902/100/10/
032790/20130404/111249/901/600/10/
032790/20130404/111249/900/3650/10/
032790/20130404/111249/900/232/10/
032790/20130404/111259/901/400/10/
032790/20130404/111259/900/2218/10/
032790/20130404/111259/895/382/10/
032790/20130404/111329/897/500/10/
032790/20130404/111329/896/551/10/
032790/20130404/111336/896/4449/10/
032790/20130404/111336/895/607/10/
032790/20130404/111346/895/439/10/
032790/20130404/111348/895/1000/10/
032790/20130404/111354/919/100/20/
032790/20130404/111425/896/500/10/
032790/20130404/111454/917/101/20/
032790/20130404/111521/901/300/10/
032790/20130404/111526/917/100/20/
032790/20130404/111629/917/110/20/
032790/20130404/111649/904/590/10/
032790/20130404/111657/917/109/20/
032790/20130404/111819/906/202/10/
032790/20130404/111819/905/400/10/
032790/20130404/111853/906/200/10/
032790/20130404/111853/905/540/10/
032790/20130404/111853/904/200/10/
032790/20130404/112024/917/161/20/
032790/20130404/112139/917/739/20/
032790/20130404/112139/918/1033/20/
032790/20130404/112153/923/90/20/
032790/20130404/112305/927/111/20/
032790/20130404/112418/927/100/20/
032790/20130404/112509/914/100/10/
032790/20130404/112509/913/200/10/
032790/20130404/112509/912/200/10/
032790/20130404/112509/911/1400/10/
032790/20130404/112509/910/3003/10/
032790/20130404/112509/909/200/10/
032790/20130404/112509/908/200/10/
032790/20130404/112509/907/200/10/
032790/20130404/112509/906/2497/10/
032790/20130404/112636/927/455/20/
032790/20130404/112637/927/2603/10/
032790/20130404/112638/928/1026/20/
032790/20130404/112638/929/5015/20/
032790/20130404/112638/930/2010/20/
032790/20130404/112658/933/90/20/
032790/20130404/112703/936/90/20/
032790/20130404/112703/937/1679/20/
032790/20130404/112707/937/1000/10/
032790/20130404/112708/939/3215/20/
032790/20130404/112714/939/10588/20/
032790/20130404/112714/939/1211/20/
032790/20130404/112714/945/3789/20/
032790/20130404/112715/945/200/20/
032790/20130404/112715/945/2000/20/
032790/20130404/112723/944/2000/20/
032790/20130404/112726/944/100/20/
032790/20130404/112751/937/259/10/
032790/20130404/112751/932/1600/10/
032790/20130404/112751/931/102/10/
032790/20130404/112809/931/200/10/
032790/20130404/112817/931/1501/10/
032790/20130404/112819/931/1669/10/
032790/20130404/112819/930/8331/10/
032790/20130404/113153/930/1901/10/
032790/20130404/113222/935/100/20/
032790/20130404/113313/930/1818/10/
032790/20130404/113320/930/100/20/
032790/20130404/113322/930/82/20/
032790/20130404/113735/935/101/20/
032790/20130404/114207/933/1028/20/
032790/20130404/114207/935/3202/20/
032790/20130404/114213/935/8715/20/
032790/20130404/114221/935/10779/20/
032790/20130404/114232/945/100/20/
032790/20130404/114348/942/500/20/
032790/20130404/114348/943/1500/20/
032790/20130404/114348/944/3203/20/
032790/20130404/114348/945/4495/20/
032790/20130404/114348/945/7685/10/
032790/20130404/114636/945/4010/20/
032790/20130404/114636/946/629/20/
032790/20130404/114636/947/362/20/
032790/20130404/114706/947/898/20/
032790/20130404/114706/948/102/20/
032790/20130404/114709/948/1000/20/
032790/20130404/114713/948/1000/20/
032790/20130404/114714/948/1000/20/
032790/20130404/114715/948/1000/20/
032790/20130404/114718/948/598/20/
032790/20130404/114718/949/402/20/
032790/20130404/114728/949/1259/20/
032790/20130404/114757/949/2560/20/
032790/20130404/114758/949/1952/20/
032790/20130404/114759/949/5000/20/
032790/20130404/114808/949/3728/20/
032790/20130404/114827/950/1638/20/
032790/20130404/114836/950/222/10/
032790/20130404/114903/950/222/10/
032790/20130404/115059/949/522/20/
032790/20130404/115059/950/4000/20/
032790/20130404/115059/951/1664/20/
032790/20130404/115059/952/7051/20/
032790/20130404/115059/952/671/10/
032790/20130404/115130/953/2485/20/
032790/20130404/115130/953/325/10/
032790/20130404/115222/953/559/20/
032790/20130404/115448/953/490/20/
032790/20130404/115703/953/104/20/
032790/20130404/115816/953/3018/20/
032790/20130404/120344/953/1014/20/
032790/20130404/120400/953/102/20/
032790/20130404/120406/953/102/20/
032790/20130404/120412/954/102/20/
032790/20130404/120525/954/146/20/
032790/20130404/120621/954/10593/20/
032790/20130404/120621/955/149/20/
032790/20130404/120701/956/1060/20/
032790/20130404/120709/956/933/20/
032790/20130404/120713/957/167/20/
032790/20130404/120833/957/4849/20/
032790/20130404/120835/958/500/20/
032790/20130404/120835/960/100/20/
032790/20130404/120847/960/1010/20/
032790/20130404/120852/960/418/20/
032790/20130404/120852/964/132/20/
032790/20130404/120855/964/609/20/
032790/20130404/120855/965/1391/20/
032790/20130404/120910/965/1020/20/
032790/20130404/120920/965/1066/20/
032790/20130404/120921/965/1634/20/
032790/20130404/120922/966/83/20/
032790/20130404/120923/966/228/20/
032790/20130404/120923/967/128/20/
032790/20130404/120928/965/3547/10/
032790/20130404/120941/965/1002/20/
032790/20130404/121006/965/1009/20/
032790/20130404/121026/965/297/20/
032790/20130404/121030/965/1959/20/
032790/20130404/121038/967/395/20/
032790/20130404/121041/967/411/20/
032790/20130404/121045/968/96/20/
032790/20130404/121046/969/109/20/
032790/20130404/121046/969/500/20/
032790/20130404/121047/969/100/20/
032790/20130404/121050/969/100/20/
032790/20130404/121050/970/1000/20/
032790/20130404/121109/970/457/20/
032790/20130404/121112/970/115/20/
032790/20130404/121112/972/105/20/
032790/20130404/121112/967/91/10/
032790/20130404/121114/967/188/20/
032790/20130404/121114/973/101/20/
032790/20130404/121114/974/2000/20/
032790/20130404/121119/975/105/20/
032790/20130404/121119/976/100/20/
032790/20130404/121119/977/100/20/
032790/20130404/121129/978/103/20/
032790/20130404/121135/979/541/20/
032790/20130404/121139/974/661/10/
032790/20130404/121142/974/215/20/
032790/20130404/121142/978/600/20/
032790/20130404/121142/979/459/20/
032790/20130404/121142/980/4726/20/
032790/20130404/121152/980/721/20/
032790/20130404/121153/980/130/10/
032790/20130404/121159/980/164/20/
032790/20130404/121208/980/511/10/
032790/20130404/121211/980/249/10/
032790/20130404/121234/974/803/10/
032790/20130404/121307/974/244/20/
032790/20130404/121324/974/803/10/
032790/20130404/121433/965/142/10/
032790/20130404/121446/970/9994/20/
032790/20130404/121714/973/146/10/
032790/20130404/121715/971/95/10/
032790/20130404/121959/966/233/10/
032790/20130404/122154/974/242/20/
032790/20130404/122159/974/721/10/
032790/20130404/122159/972/6660/10/
032790/20130404/122203/972/3351/10/
032790/20130404/122228/972/5217/20/
032790/20130404/122232/972/2501/20/
032790/20130404/122243/975/91/20/
032790/20130404/122246/975/433/20/
032790/20130404/122331/975/367/20/
032790/20130404/122411/975/200/20/
032790/20130404/122418/976/102/20/
032790/20130404/122449/976/143/20/
032790/20130404/122507/976/372/20/
032790/20130404/122511/977/4005/20/
032790/20130404/122511/978/868/20/
032790/20130404/122514/978/361/20/
032790/20130404/122514/978/200/20/
032790/20130404/122514/978/2000/20/
032790/20130404/122517/978/1160/20/
032790/20130404/122518/978/411/20/
032790/20130404/122518/979/589/20/
032790/20130404/122519/979/289/20/
032790/20130404/122525/979/253/20/
032790/20130404/122527/980/91/20/
032790/20130404/122624/976/360/10/
032790/20130404/122634/972/123/10/
032790/20130404/122634/970/1996/10/
032790/20130404/122634/969/7134/10/
032790/20130404/122758/975/2062/20/
032790/20130404/122801/976/101/20/
032790/20130404/122816/976/429/20/
032790/20130404/122817/976/169/20/
032790/20130404/122817/976/93/20/
032790/20130404/122819/976/129/20/
032790/20130404/122824/976/149/20/
032790/20130404/122825/976/97/20/
032790/20130404/122836/976/833/20/
032790/20130404/122838/978/100/20/
032790/20130404/122838/979/1099/20/
032790/20130404/122838/980/1768/20/
032790/20130404/122841/980/200/20/
032790/20130404/122854/980/119/20/
032790/20130404/122900/980/805/20/
032790/20130404/122902/980/100/20/
032790/20130404/122914/980/7143/20/
032790/20130404/122915/981/101/20/
032790/20130404/122915/982/1000/20/
032790/20130404/122918/983/103/20/
032790/20130404/122918/984/100/20/
032790/20130404/122918/985/302/20/
032790/20130404/122923/985/919/20/
032790/20130404/122924/985/670/20/
032790/20130404/122929/985/100/20/
032790/20130404/122944/985/81/20/
032790/20130404/122949/985/1021/20/
032790/20130404/122952/984/306/10/
032790/20130404/122954/984/119/20/
032790/20130404/123010/984/596/20/
032790/20130404/123013/985/108/20/
032790/20130404/123014/985/3360/20/
032790/20130404/123015/985/1481/20/
032790/20130404/123018/986/100/20/
032790/20130404/123018/987/604/20/
032790/20130404/123020/988/126/20/
032790/20130404/123022/988/316/20/
032790/20130404/123033/988/365/20/
032790/20130404/123033/985/1050/10/
032790/20130404/123034/985/2434/10/
032790/20130404/123042/985/200/20/
032790/20130404/123044/984/108/10/
032790/20130404/123044/985/3096/20/
032790/20130404/123059/985/1036/10/
032790/20130404/123102/985/100/20/
032790/20130404/123104/984/188/10/
032790/20130404/123107/980/3954/10/
032790/20130404/123109/980/911/20/
032790/20130404/123113/980/100/20/
032790/20130404/123122/980/105/20/
032790/20130404/123150/979/131/10/
032790/20130404/123206/980/1733/20/
032790/20130404/123209/980/3221/20/
032790/20130404/123210/985/100/20/
032790/20130404/123220/980/5021/10/
032790/20130404/123221/980/804/10/
032790/20130404/123227/980/382/10/
032790/20130404/123300/981/403/10/
032790/20130404/123309/981/329/20/
032790/20130404/123312/981/455/10/
032790/20130404/123335/983/508/20/
032790/20130404/123402/983/492/20/
032790/20130404/123412/984/100/20/
032790/20130404/123424/985/877/20/
032790/20130404/123429/985/123/10/
032790/20130404/123431/986/100/20/
032790/20130404/123431/987/1918/20/
032790/20130404/123440/987/1082/20/
032790/20130404/123441/988/100/20/
032790/20130404/123443/989/161/20/
032790/20130404/123444/989/3000/20/
032790/20130404/123445/989/302/20/
032790/20130404/123450/989/196/20/
032790/20130404/123450/988/5000/10/
032790/20130404/123451/988/138/10/
032790/20130404/123455/988/683/20/
032790/20130404/123455/989/312/20/
032790/20130404/123501/987/130/10/
032790/20130404/123641/988/84/20/
032790/20130404/123646/988/202/20/
032790/20130404/123732/988/774/20/
032790/20130404/123748/989/4629/20/
032790/20130404/123750/989/403/10/
032790/20130404/123757/989/3085/20/
032790/20130404/123801/989/324/20/
032790/20130404/123803/989/217/20/
032790/20130404/123806/989/717/20/
032790/20130404/123808/990/11410/20/
032790/20130404/123814/989/822/10/
032790/20130404/123817/990/1564/20/
032790/20130404/123819/990/370/20/
032790/20130404/123822/991/100/20/
032790/20130404/123822/990/217/10/
032790/20130404/123823/992/4900/20/
032790/20130404/123829/992/563/20/
032790/20130404/123836/992/376/20/
032790/20130404/123845/993/105/20/
032790/20130404/123846/994/152/20/
032790/20130404/123855/992/2199/10/
032790/20130404/123901/992/127/20/
032790/20130404/123907/991/700/20/
032790/20130404/123908/990/133/10/
032790/20130404/123931/991/128/20/
032790/20130404/123936/991/146/20/
032790/20130404/123943/991/200/20/
032790/20130404/123944/991/865/20/
032790/20130404/123945/991/135/10/
032790/20130404/123957/992/429/20/
032790/20130404/124004/992/110/20/
032790/20130404/124013/992/172/20/
032790/20130404/124013/993/328/20/
032790/20130404/124044/993/1820/20/
032790/20130404/124046/993/436/10/
032790/20130404/124050/990/1564/20/
032790/20130404/124103/993/634/20/
032790/20130404/124121/989/87/10/
032790/20130404/124122/990/996/20/
032790/20130404/124122/990/3827/20/
032790/20130404/124122/992/111/20/
032790/20130404/124122/993/1225/20/
032790/20130404/124127/993/100/20/
032790/20130404/124131/992/138/20/
032790/20130404/124137/992/162/10/
032790/20130404/124140/993/100/20/
032790/20130404/124332/992/1009/20/
032790/20130404/124355/992/99/10/
032790/20130404/124401/993/1677/20/
032790/20130404/124411/992/100/10/
032790/20130404/124525/991/3014/10/
032790/20130404/124742/989/145/10/
032790/20130404/124742/987/2878/10/
032790/20130404/124920/987/165/10/
032790/20130404/124920/985/286/10/
032790/20130404/124921/985/475/20/
032790/20130404/124921/990/219/20/
032790/20130404/125026/983/1114/10/
032790/20130404/125026/982/2202/10/
032790/20130404/125026/981/1904/10/
032790/20130404/125046/981/107/10/
032790/20130404/125046/980/403/10/
032790/20130404/125049/980/400/10/
032790/20130404/125114/981/100/20/
032790/20130404/125116/981/467/20/
032790/20130404/125124/981/104/20/
032790/20130404/125129/981/3429/10/
032790/20130404/125137/981/231/10/
032790/20130404/125137/980/772/10/
032790/20130404/125337/985/164/20/
032790/20130404/125453/984/314/20/
032790/20130404/125507/984/218/10/
032790/20130404/125508/985/11979/20/
032790/20130404/125835/982/83/10/
032790/20130404/125835/981/1131/10/
032790/20130404/125835/980/420/10/
032790/20130404/125858/980/670/10/
032790/20130404/125903/980/1101/10/
032790/20130404/125909/980/3461/10/
032790/20130404/125916/980/657/10/
032790/20130404/130139/977/194/10/
032790/20130404/130410/983/101/20/
032790/20130404/130733/987/4752/20/
032790/20130404/130801/987/2190/20/
032790/20130404/130803/987/1912/10/
032790/20130404/130959/988/81/20/
032790/20130404/131154/986/138/10/
032790/20130404/131204/986/900/20/
032790/20130404/131204/987/163/20/
032790/20130404/131223/987/106/20/
032790/20130404/131507/984/82/10/
032790/20130404/131507/980/658/10/
032790/20130404/131510/980/1000/10/
032790/20130404/131513/980/156/10/
032790/20130404/131520/980/1245/10/
032790/20130404/131606/980/1000/20/
032790/20130404/131612/977/3733/10/
032790/20130404/131617/977/1000/20/
032790/20130404/131618/977/100/20/
032790/20130404/131626/976/559/10/
032790/20130404/131634/977/100/20/
032790/20130404/131737/980/538/20/
032790/20130404/131820/974/696/10/
032790/20130404/131859/980/1002/20/
032790/20130404/131951/980/1011/20/
032790/20130404/132011/980/1011/20/
032790/20130404/132024/980/5011/20/
032790/20130404/132035/980/1011/20/
032790/20130404/132037/980/1000/20/
032790/20130404/132046/980/335/20/
032790/20130404/132053/980/111/20/
032790/20130404/132057/980/414/20/
032790/20130404/132057/985/239/20/
032790/20130404/132057/988/347/20/
032790/20130404/132434/988/850/20/
032790/20130404/132458/989/1847/20/
032790/20130404/132503/989/1002/20/
032790/20130404/132528/989/1022/20/
032790/20130404/132529/989/1129/20/
032790/20130404/132530/990/1440/20/
032790/20130404/132535/990/1002/20/
032790/20130404/132553/990/1015/20/
032790/20130404/132606/990/1002/20/
032790/20130404/132607/990/300/20/
032790/20130404/132621/990/341/20/
032790/20130404/132621/991/192/20/
032790/20130404/132622/991/89/10/
032790/20130404/132629/991/810/20/
032790/20130404/132640/991/816/20/
032790/20130404/132641/991/285/20/
032790/20130404/132702/992/1025/20/
032790/20130404/132714/992/111/20/
032790/20130404/132723/992/261/20/
032790/20130404/132723/993/110/20/
032790/20130404/132735/993/525/20/
032790/20130404/132747/993/302/20/
032790/20130404/132814/992/1002/10/
032790/20130404/132829/993/164/20/
032790/20130404/132841/993/254/20/
032790/20130404/132905/993/102/20/
032790/20130404/132935/993/320/20/
032790/20130404/133039/993/125/20/
032790/20130404/133042/993/534/20/
032790/20130404/133044/993/287/20/
032790/20130404/133045/993/102/20/
032790/20130404/133047/994/125/20/
032790/20130404/133049/994/100/20/
032790/20130404/133055/994/2000/20/
032790/20130404/133058/994/2391/20/
032790/20130404/133058/995/3723/20/
032790/20130404/133059/995/1502/20/
032790/20130404/133101/995/7655/20/
032790/20130404/133101/996/4345/20/
032790/20130404/133102/996/3002/20/
032790/20130404/133102/996/1600/20/
032790/20130404/133106/996/332/20/
032790/20130404/133106/997/168/20/
032790/20130404/133111/997/502/20/
032790/20130404/133113/997/500/20/
032790/20130404/133117/997/1622/20/
032790/20130404/133118/997/540/20/
032790/20130404/133119/997/5102/20/
032790/20130404/133120/997/500/20/
032790/20130404/133120/997/200/20/
032790/20130404/133121/997/500/20/
032790/20130404/133122/997/1002/20/
032790/20130404/133123/997/269/20/
032790/20130404/133123/998/431/20/
032790/20130404/133123/998/500/20/
032790/20130404/133125/998/500/20/
032790/20130404/133125/998/200/20/
032790/20130404/133127/998/232/20/
032790/20130404/133128/998/100/20/
032790/20130404/133129/998/252/20/
032790/20130404/133131/998/82/20/
032790/20130404/133135/998/272/20/
032790/20130404/133135/998/1000/20/
032790/20130404/133136/998/162/20/
032790/20130404/133138/998/267/20/
032790/20130404/133138/998/335/20/
032790/20130404/133140/998/1032/20/
032790/20130404/133142/998/500/20/
032790/20130404/133143/998/250/20/
032790/20130404/133143/999/376/20/
032790/20130404/133147/999/90/20/
032790/20130404/133148/999/1562/20/
032790/20130404/133148/999/1002/20/
032790/20130404/133150/999/130/20/
032790/20130404/133152/999/82/20/
032790/20130404/133152/999/1000/20/
032790/20130404/133152/999/1500/20/
032790/20130404/133154/999/120/20/
032790/20130404/133154/999/2370/20/
032790/20130404/133155/1000/200/20/
032790/20130404/133155/1000/871/20/
032790/20130404/133156/1000/500/20/
032790/20130404/133200/1000/212/20/
032790/20130404/133200/999/6632/10/
032790/20130404/133201/999/1012/20/
032790/20130404/133204/999/2356/20/
032790/20130404/133204/1000/3387/20/
032790/20130404/133208/1000/2000/20/
032790/20130404/133211/999/350/20/
032790/20130404/133213/1000/100/20/
032790/20130404/133217/1000/130/20/
032790/20130404/133219/1000/100/20/
032790/20130404/133223/999/4340/10/
032790/20130404/133227/999/2100/20/
032790/20130404/133249/998/100/20/
032790/20130404/133323/998/503/20/
032790/20130404/133330/995/754/10/
032790/20130404/133338/995/358/20/
032790/20130404/133339/995/196/10/
032790/20130404/133342/995/1306/20/
032790/20130404/133342/998/1421/20/
032790/20130404/133349/994/102/10/
032790/20130404/133349/990/351/10/
032790/20130404/133349/989/671/10/
032790/20130404/133349/983/664/10/
032790/20130404/133414/995/673/20/
032790/20130404/133428/990/500/20/
032790/20130404/133434/990/511/20/
032790/20130404/133440/990/202/20/
032790/20130404/133453/990/158/20/
032790/20130404/133548/994/124/20/
032790/20130404/133624/991/1804/10/
032790/20130404/133628/994/102/20/
032790/20130404/133703/994/1018/20/
032790/20130404/133710/994/270/20/
032790/20130404/133710/998/119/20/
032790/20130404/133809/996/2011/20/
032790/20130404/133821/994/565/10/
032790/20130404/133821/993/1480/10/
032790/20130404/133822/993/1600/10/
032790/20130404/133823/993/1420/10/
032790/20130404/133852/992/713/10/
032790/20130404/133852/991/187/10/
032790/20130404/133923/992/363/10/
032790/20130404/133930/992/97/20/
032790/20130404/134042/991/578/10/
032790/20130404/134042/990/114/10/
032790/20130404/134042/986/412/10/
032790/20130404/134042/985/3221/10/
032790/20130404/134552/992/307/20/
032790/20130404/134721/992/294/20/
032790/20130404/134722/993/312/20/
032790/20130404/134751/985/865/10/
032790/20130404/134759/985/258/10/
032790/20130404/134852/992/308/20/
032790/20130404/134946/985/361/10/
032790/20130404/134952/985/1000/10/
032790/20130404/134955/985/750/10/
032790/20130404/135003/985/4190/10/
032790/20130404/135003/983/100/10/
032790/20130404/135003/982/111/10/
032790/20130404/135003/981/411/10/
032790/20130404/135003/980/1439/10/
032790/20130404/135022/992/194/20/
032790/20130404/135036/992/100/10/
032790/20130404/135152/993/322/20/
032790/20130404/135239/993/1009/20/
032790/20130404/135239/993/2014/20/
032790/20130404/135239/994/120/20/
032790/20130404/135309/996/100/20/
032790/20130404/135313/998/6547/20/
032790/20130404/135313/999/8378/20/
032790/20130404/135322/999/304/20/
032790/20130404/135323/999/768/20/
032790/20130404/135326/999/2569/10/
032790/20130404/135338/999/1491/20/
032790/20130404/135338/1000/18530/20/
032790/20130404/135339/1000/1010/20/
032790/20130404/135339/1000/1260/20/
032790/20130404/135340/1000/2000/20/
032790/20130404/135341/1000/7879/20/
032790/20130404/135341/1005/2121/20/
032790/20130404/135343/1000/1000/10/
032790/20130404/135344/1005/9051/20/
032790/20130404/135344/1010/716/20/
032790/20130404/135344/1010/2089/20/
032790/20130404/135344/1015/4707/20/
032790/20130404/135345/1000/812/10/
032790/20130404/135345/1000/188/20/
032790/20130404/135345/1015/3368/20/
032790/20130404/135345/1020/3207/20/
032790/20130404/135353/1005/1583/10/
032790/20130404/135354/1005/3430/20/
032790/20130404/135354/1000/4431/10/
032790/20130404/135356/1000/179/20/
032790/20130404/135358/1000/514/20/
032790/20130404/135358/1010/101/20/
032790/20130404/135400/1000/5301/10/
032790/20130404/135401/1000/1682/20/
032790/20130404/135401/1000/510/20/
032790/20130404/135404/1000/1021/20/
032790/20130404/135406/1000/3487/20/
032790/20130404/135408/1000/1324/10/
032790/20130404/135410/1000/1000/20/
032790/20130404/135411/1000/161/20/
032790/20130404/135412/999/304/10/
032790/20130404/135413/999/759/20/
032790/20130404/135414/999/500/20/
032790/20130404/135421/992/100/10/
032790/20130404/135421/999/100/20/
032790/20130404/135424/992/154/10/
032790/20130404/135426/999/625/20/
032790/20130404/135431/992/95/10/
032790/20130404/135434/992/424/10/
032790/20130404/135438/992/1235/20/
032790/20130404/135438/986/1260/10/
032790/20130404/135444/992/83/20/
032790/20130404/135446/990/160/10/
032790/20130404/135448/986/422/10/
032790/20130404/135448/985/214/10/
032790/20130404/135448/984/1003/10/
032790/20130404/135448/982/504/10/
032790/20130404/135449/980/121/20/
032790/20130404/135450/980/301/20/
032790/20130404/135452/980/444/20/
032790/20130404/135453/980/3473/10/
032790/20130404/135453/979/3187/10/
032790/20130404/135453/979/5178/10/
032790/20130404/135455/979/1315/20/
032790/20130404/135456/980/100/10/
032790/20130404/135456/979/701/10/
032790/20130404/135457/980/992/10/
032790/20130404/135457/979/2362/10/
032790/20130404/135500/976/328/20/
032790/20130404/135500/975/433/10/
032790/20130404/135501/975/429/10/
032790/20130404/135501/970/3131/10/
032790/20130404/135508/970/1031/10/
032790/20130404/135508/970/93/10/
032790/20130404/135508/965/90/10/
032790/20130404/135520/967/228/10/
032790/20130404/135520/966/1793/10/
032790/20130404/135522/967/300/10/
032790/20130404/135522/966/1700/10/
032790/20130404/135523/966/631/10/
032790/20130404/135526/966/1200/10/
032790/20130404/135529/966/1710/20/
032790/20130404/135529/966/100/20/
032790/20130404/135530/965/475/10/
032790/20130404/135531/962/289/10/
032790/20130404/135531/961/118/10/
032790/20130404/135534/960/81/10/
032790/20130404/135535/960/100/20/
032790/20130404/135536/960/677/20/
032790/20130404/135536/952/1999/10/
032790/20130404/135538/952/1021/20/
032790/20130404/135538/960/163/20/
032790/20130404/135540/960/2816/10/
032790/20130404/135541/959/354/10/
032790/20130404/135544/959/146/10/
032790/20130404/135545/959/100/20/
032790/20130404/135551/953/401/20/
032790/20130404/135552/953/490/20/
032790/20130404/135552/953/106/20/
032790/20130404/135553/959/85/20/
032790/20130404/135558/952/118/10/
032790/20130404/135558/951/470/10/
032790/20130404/135558/946/430/10/
032790/20130404/135602/946/565/10/
032790/20130404/135602/943/1436/10/
032790/20130404/135606/948/927/10/
032790/20130404/135606/946/988/10/
032790/20130404/135609/948/81/20/
032790/20130404/135610/948/400/20/
032790/20130404/135611/948/1010/20/
032790/20130404/135612/948/401/20/
032790/20130404/135612/945/540/10/
032790/20130404/135612/944/300/10/
032790/20130404/135612/943/3810/10/
032790/20130404/135612/942/2102/10/
032790/20130404/135618/948/547/20/
032790/20130404/135622/948/109/20/
032790/20130404/135623/948/170/20/
032790/20130404/135624/948/107/20/
032790/20130404/135625/945/1051/10/
032790/20130404/135625/943/835/10/
032790/20130404/135625/942/1473/10/
032790/20130404/135625/941/1201/10/
032790/20130404/135625/940/23964/10/
032790/20130404/135626/940/81/20/
032790/20130404/135629/939/411/20/
032790/20130404/135635/933/219/10/
032790/20130404/135637/939/486/20/
032790/20130404/135637/940/544/20/
032790/20130404/135639/940/511/20/
032790/20130404/135640/937/92/10/
032790/20130404/135640/933/325/10/
032790/20130404/135640/931/121/10/
032790/20130404/135640/930/1567/10/
032790/20130404/135641/938/202/10/
032790/20130404/135641/931/923/10/
032790/20130404/135641/930/9114/10/
032790/20130404/135644/937/4915/10/
032790/20130404/135645/937/85/10/
032790/20130404/135645/931/326/10/
032790/20130404/135645/930/142/10/
032790/20130404/135647/934/404/10/
032790/20130404/135651/930/2050/10/
032790/20130404/135655/930/203/10/
032790/20130404/135703/930/467/10/
032790/20130404/135704/930/258/10/
032790/20130404/135707/930/594/20/
032790/20130404/135707/933/882/20/
032790/20130404/135712/936/118/20/
032790/20130404/135715/937/169/20/
032790/20130404/135718/937/3009/20/
032790/20130404/135718/937/5338/20/
032790/20130404/135719/937/856/20/
032790/20130404/135719/937/399/20/
032790/20130404/135720/940/100/20/
032790/20130404/135720/937/1751/10/
032790/20130404/135720/936/190/10/
032790/20130404/135720/933/589/10/
032790/20130404/135720/931/1752/10/
032790/20130404/135720/930/12001/10/
032790/20130404/135722/927/1655/20/
032790/20130404/135722/927/1073/20/
032790/20130404/135723/927/325/20/
032790/20130404/135723/927/300/20/
032790/20130404/135724/927/3031/20/
032790/20130404/135725/927/370/20/
032790/20130404/135725/927/419/20/
032790/20130404/135725/927/1522/20/
032790/20130404/135725/937/2858/20/
032790/20130404/135727/937/5640/10/
032790/20130404/135727/938/500/20/
032790/20130404/135733/939/101/20/
032790/20130404/135736/936/1004/20/
032790/20130404/135737/936/800/20/
032790/20130404/135737/939/191/20/
032790/20130404/135745/937/1043/20/
032790/20130404/135750/937/197/20/
032790/20130404/135750/938/2000/20/
032790/20130404/135755/939/228/20/
032790/20130404/135756/939/1022/20/
032790/20130404/135757/939/1000/20/
032790/20130404/135758/939/90/20/
032790/20130404/135758/939/1000/20/
032790/20130404/135801/938/853/10/
032790/20130404/135801/938/1005/20/
032790/20130404/135809/937/657/10/
032790/20130404/135809/937/1352/20/
032790/20130404/135809/938/1110/20/
032790/20130404/135809/940/220/20/
032790/20130404/135809/947/1762/20/
032790/20130404/135809/949/323/20/
032790/20130404/135809/950/1294/20/
032790/20130404/135812/938/145/10/
032790/20130404/135813/938/100/20/
032790/20130404/135814/938/100/20/
032790/20130404/135815/937/1000/10/
032790/20130404/135816/937/348/20/
032790/20130404/135820/937/794/20/
032790/20130404/135820/938/2660/20/
032790/20130404/135822/938/703/10/
032790/20130404/135824/940/833/10/
032790/20130404/135824/940/3000/10/
032790/20130404/135825/940/3000/10/
032790/20130404/135825/940/3000/10/
032790/20130404/135827/940/81/10/
032790/20130404/135828/940/7086/10/
032790/20130404/135828/940/100/20/
032790/20130404/135838/940/1016/20/
032790/20130404/135845/940/135/20/
032790/20130404/135848/940/441/20/
032790/20130404/135850/940/114/20/
032790/20130404/135857/940/125/20/
032790/20130404/135858/940/105/20/
032790/20130404/135908/940/323/20/
032790/20130404/135909/940/101/20/
032790/20130404/135915/940/109/20/
032790/20130404/135919/940/175/20/
032790/20130404/135921/938/82/10/
032790/20130404/135922/940/188/20/
032790/20130404/135922/942/579/20/
032790/20130404/135941/942/261/20/
032790/20130404/135941/943/262/20/
032790/20130404/135944/942/122/10/
032790/20130404/135948/943/100/20/
032790/20130404/135949/942/4809/10/
032790/20130404/135950/942/257/20/
032790/20130404/140009/938/1708/10/
032790/20130404/140014/938/3428/10/
032790/20130404/140021/937/121/10/
032790/20130404/140021/936/310/10/
032790/20130404/140026/936/408/20/
032790/20130404/140027/936/145/20/
032790/20130404/140027/938/857/20/
032790/20130404/140040/936/1206/10/
032790/20130404/140040/936/1117/10/
032790/20130404/140044/936/1500/10/
032790/20130404/140046/936/624/10/
032790/20130404/140050/934/646/10/
032790/20130404/140050/933/237/10/
032790/20130404/140052/934/100/10/
032790/20130404/140052/933/114/10/
032790/20130404/140055/933/453/10/
032790/20130404/140108/936/4022/20/
032790/20130404/140109/936/523/20/
032790/20130404/140115/980/217/20/
032790/20130404/140115/995/285/20/
032790/20130404/140115/997/4019/20/
032790/20130404/140119/943/522/10/
032790/20130404/140130/959/210/10/
032790/20130404/140130/958/800/10/
032790/20130404/140207/947/180/10/
032790/20130404/140220/950/3507/20/
032790/20130404/140222/950/510/20/
032790/20130404/140230/950/216/20/
032790/20130404/140234/950/537/20/
032790/20130404/140237/948/103/20/
032790/20130404/140237/950/1900/20/
032790/20130404/140238/950/164/20/
032790/20130404/140250/950/1029/20/
032790/20130404/140251/950/2000/20/
032790/20130404/140253/950/135/20/
032790/20130404/140351/951/1049/10/
032790/20130404/140351/948/946/10/
032790/20130404/140351/947/3601/10/
032790/20130404/140409/947/4772/10/
032790/20130404/140420/953/1039/20/
032790/20130404/140422/953/269/20/
032790/20130404/140430/953/106/10/
032790/20130404/140442/954/252/10/
032790/20130404/140503/953/115/10/
032790/20130404/140518/954/137/20/
032790/20130404/140518/955/84/20/
032790/20130404/140518/956/500/20/
032790/20130404/140518/958/284/20/
032790/20130404/140541/957/235/20/
032790/20130404/140600/951/1017/10/
032790/20130404/140600/950/1098/10/
032790/20130404/140614/950/2909/20/
032790/20130404/140615/950/200/20/
032790/20130404/140629/956/89/20/
032790/20130404/140705/955/165/20/
032790/20130404/140710/954/469/10/
032790/20130404/140714/954/721/10/
032790/20130404/140720/954/591/20/
032790/20130404/140721/954/1725/10/
032790/20130404/140739/950/197/10/
032790/20130404/140740/950/100/20/
032790/20130404/140741/948/958/10/
032790/20130404/140741/947/242/10/
032790/20130404/140743/947/648/10/
032790/20130404/140746/947/401/10/
032790/20130404/140751/950/100/20/
032790/20130404/140813/950/152/20/
032790/20130404/140820/950/212/20/
032790/20130404/140830/950/215/20/
032790/20130404/140857/948/204/10/
032790/20130404/140915/947/1749/10/
032790/20130404/140931/947/128/20/
032790/20130404/140933/949/100/20/
032790/20130404/140959/945/1990/10/
032790/20130404/141018/945/137/20/
032790/20130404/141050/942/122/10/
032790/20130404/141050/941/2822/10/
032790/20130404/141050/940/2001/10/
032790/20130404/141054/940/96/20/
032790/20130404/141058/940/417/10/
032790/20130404/141058/938/90/10/
032790/20130404/141107/945/104/20/
032790/20130404/141115/945/156/20/
032790/20130404/141144/945/128/20/
032790/20130404/141207/945/139/20/
032790/20130404/141212/945/513/20/
032790/20130404/141215/945/111/20/
032790/20130404/141219/945/111/20/
032790/20130404/141221/945/100/20/
032790/20130404/141223/949/102/20/
032790/20130404/141229/949/113/20/
032790/20130404/141247/949/107/20/
032790/20130404/141251/950/100/20/
032790/20130404/141305/944/429/10/
032790/20130404/141308/948/100/20/
032790/20130404/141323/948/391/20/
032790/20130404/141330/948/991/10/
032790/20130404/141334/948/162/10/
032790/20130404/141339/950/100/20/
032790/20130404/141339/948/405/10/
032790/20130404/141352/950/117/20/
032790/20130404/141401/948/84/10/
032790/20130404/141405/945/5000/10/
032790/20130404/141424/949/100/20/
032790/20130404/141431/950/100/20/
032790/20130404/141638/945/3500/10/
032790/20130404/141638/944/1500/10/
032790/20130404/141649/944/959/10/
032790/20130404/141704/943/84/10/
032790/20130404/141834/947/109/20/
032790/20130404/141848/947/700/20/
032790/20130404/142112/941/459/10/
032790/20130404/142149/944/83/20/
032790/20130404/142211/944/614/20/
032790/20130404/142301/945/89/20/
032790/20130404/142325/945/2039/20/
032790/20130404/142328/945/442/20/
032790/20130404/142329/945/1010/20/
032790/20130404/142335/945/111/20/
032790/20130404/142339/945/100/20/
032790/20130404/142343/945/100/20/
032790/20130404/142358/945/1553/20/
032790/20130404/142411/942/85/10/
032790/20130404/142411/941/556/10/
032790/20130404/142440/942/662/10/
032790/20130404/142509/944/100/20/
032790/20130404/142521/945/100/20/
032790/20130404/142538/942/508/10/
032790/20130404/142538/941/554/10/
032790/20130404/142538/940/1114/10/
032790/20130404/142543/940/4989/20/
032790/20130404/142605/940/107/10/
032790/20130404/142616/940/1004/20/
032790/20130404/142630/940/396/20/
032790/20130404/142637/940/100/10/
032790/20130404/142724/945/980/20/
032790/20130404/142724/945/1063/10/
032790/20130404/142749/944/124/20/
032790/20130404/142755/944/100/20/
032790/20130404/142945/942/89/10/
032790/20130404/142945/941/100/10/
032790/20130404/142945/940/162/10/
032790/20130404/142945/939/312/10/
032790/20130404/142945/938/1922/10/
032790/20130404/142951/938/111/20/
032790/20130404/142955/938/111/20/
032790/20130404/142958/938/100/20/
032790/20130404/143003/938/210/20/
032790/20130404/143041/943/161/20/
032790/20130404/143047/940/100/10/
032790/20130404/143049/939/100/10/
032790/20130404/143049/938/174/10/
032790/20130404/143049/937/661/10/
032790/20130404/143049/936/1500/10/
032790/20130404/143049/935/1074/10/
032790/20130404/143054/935/447/10/
032790/20130404/143059/935/88/20/
032790/20130404/143100/940/100/10/
032790/20130404/143230/941/126/20/
032790/20130404/143233/942/100/20/
032790/20130404/143304/939/139/10/
032790/20130404/143330/939/102/10/
032790/20130404/143417/942/114/20/
032790/20130404/143625/942/124/20/
032790/20130404/143715/942/102/20/
032790/20130404/143730/940/100/10/
032790/20130404/143807/942/102/20/
032790/20130404/143811/942/100/20/
032790/20130404/143815/942/100/20/
032790/20130404/143820/942/100/20/
032790/20130404/143826/942/100/20/
032790/20130404/143905/941/111/20/
032790/20130404/143936/940/102/10/
032790/20130404/143939/940/100/10/
032790/20130404/143956/939/113/10/
032790/20130404/144030/939/131/10/
032790/20130404/144054/938/272/10/
032790/20130404/144110/938/101/10/
032790/20130404/144143/938/100/10/
032790/20130404/144143/937/310/10/
032790/20130404/144143/936/100/10/
032790/20130404/144143/935/146/10/
032790/20130404/144143/934/549/10/
032790/20130404/144150/941/100/20/
032790/20130404/144243/936/100/10/
032790/20130404/144243/935/200/10/
032790/20130404/144257/941/100/20/
032790/20130404/144345/935/335/10/
032790/20130404/144345/934/1601/10/
032790/20130404/144439/938/153/20/
032790/20130404/144444/938/1000/20/
032790/20130404/144450/938/1000/20/
032790/20130404/144451/938/100/20/
032790/20130404/144455/938/1000/20/
032790/20130404/144501/938/1000/20/
032790/20130404/144508/938/200/20/
032790/20130404/144514/938/500/20/
032790/20130404/144555/938/1000/20/
032790/20130404/144606/938/1000/20/
032790/20130404/144625/938/100/20/
032790/20130404/144633/938/500/20/
032790/20130404/144634/938/200/20/
032790/20130404/144635/939/19000/20/
032790/20130404/144642/939/100/20/
032790/20130404/144644/939/150/20/
032790/20130404/144645/939/2800/20/
032790/20130404/144653/939/1018/20/
032790/20130404/144653/939/500/20/
032790/20130404/144653/939/175/20/
032790/20130404/144707/939/100/20/
032790/20130404/144713/939/100/20/
032790/20130404/144719/938/100/20/
032790/20130404/144721/938/1000/20/
032790/20130404/144726/939/577/20/
032790/20130404/144731/939/100/20/
032790/20130404/144733/939/100/20/
032790/20130404/144741/939/100/20/
032790/20130404/144744/939/100/20/
032790/20130404/144744/939/100/20/
032790/20130404/144751/939/1000/20/
032790/20130404/144755/939/400/20/
032790/20130404/144813/939/1000/20/
032790/20130404/144845/939/100/20/
032790/20130404/144914/939/394/20/
032790/20130404/144921/939/3000/20/
032790/20130404/144927/939/2600/20/
032790/20130404/144936/939/150/20/
032790/20130404/144940/939/10000/20/
032790/20130404/144945/939/1000/20/
032790/20130404/144956/939/3000/20/
032790/20130404/144956/939/2425/20/
032790/20130404/150000/942/18113/10/
