032790/20121214/92634/797/1796/10/
032790/20121214/92634/796/300/10/
032790/20121214/92634/795/530/10/
032790/20121214/92634/794/131/10/
032790/20121214/92634/792/2253/10/
032790/20121214/94345/802/126/20/
032790/20121214/94721/802/197/10/
032790/20121214/100613/802/201/20/
032790/20121214/100613/803/801/20/
032790/20121214/100811/800/1000/10/
032790/20121214/101804/800/1800/10/
032790/20121214/102233/800/1077/10/
032790/20121214/102233/797/423/10/
032790/20121214/102355/797/3000/10/
032790/20121214/102627/798/500/10/
032790/20121214/102627/797/1535/10/
032790/20121214/102719/797/1903/10/
032790/20121214/102900/797/5003/10/
032790/20121214/103038/797/800/10/
032790/20121214/103153/797/807/10/
032790/20121214/103153/796/102/10/
032790/20121214/103153/795/91/10/
032790/20121214/105402/799/97/20/
032790/20121214/111922/795/783/10/
032790/20121214/111922/794/640/10/
032790/20121214/111922/792/1181/10/
032790/20121214/114038/793/314/10/
032790/20121214/114038/792/148/10/
032790/20121214/114038/791/539/10/
032790/20121214/115201/800/166/20/
032790/20121214/115438/800/84/20/
032790/20121214/120007/797/246/10/
032790/20121214/120314/798/122/10/
032790/20121214/121205/800/81/10/
032790/20121214/121901/797/333/10/
032790/20121214/122003/796/219/10/
032790/20121214/123002/796/164/10/
032790/20121214/123353/795/121/10/
032790/20121214/123430/795/96/20/
032790/20121214/123530/795/113/20/
032790/20121214/123533/795/100/20/
032790/20121214/123536/795/100/20/
032790/20121214/123726/793/636/10/
032790/20121214/123726/792/2103/10/
032790/20121214/123726/791/1560/10/
032790/20121214/123726/790/5046/10/
032790/20121214/123740/790/400/20/
032790/20121214/123749/790/291/20/
032790/20121214/124309/799/624/20/
032790/20121214/130224/798/105/20/
032790/20121214/130635/798/151/20/
032790/20121214/131056/795/472/10/
032790/20121214/131458/798/100/20/
032790/20121214/132036/795/163/10/
032790/20121214/132138/795/82/10/
032790/20121214/133128/794/112/10/
032790/20121214/134031/793/150/10/
032790/20121214/134325/798/89/20/
032790/20121214/135141/794/143/10/
032790/20121214/140215/794/90/20/
032790/20121214/140839/795/136/20/
032790/20121214/141014/796/154/10/
032790/20121214/141118/796/97/10/
032790/20121214/141308/796/1131/10/
032790/20121214/141349/796/113/20/
032790/20121214/141455/796/1003/20/
032790/20121214/141541/796/209/20/
032790/20121214/141804/797/187/20/
032790/20121214/141900/797/9378/20/
032790/20121214/142021/797/372/10/
032790/20121214/142025/797/264/10/
032790/20121214/142058/797/700/20/
032790/20121214/142224/798/85/20/
032790/20121214/142244/798/116/20/
032790/20121214/142354/796/1031/10/
032790/20121214/142404/798/981/20/
032790/20121214/142723/799/84/20/
032790/20121214/143323/800/1892/20/
032790/20121214/143348/798/100/10/
032790/20121214/143714/799/83/20/
032790/20121214/143809/799/91/20/
032790/20121214/144009/799/84/20/
032790/20121214/144123/800/355/20/
032790/20121214/144424/800/119/20/
032790/20121214/144535/800/138/20/
032790/20121214/144715/800/135/20/
032790/20121214/150000/800/2730/20/
