032790/20130307/90300/670/131/10/
032790/20130307/90909/680/325/20/
032790/20130307/91224/679/332/10/
032790/20130307/91236/679/502/10/
032790/20130307/91303/679/303/10/
032790/20130307/92217/674/1605/10/
032790/20130307/92217/673/304/10/
032790/20130307/92217/672/5606/10/
032790/20130307/93552/676/104/20/
032790/20130307/94431/673/193/10/
032790/20130307/94503/673/230/20/
032790/20130307/94629/672/1506/10/
032790/20130307/94715/671/147/20/
032790/20130307/94721/671/100/20/
032790/20130307/94831/671/111/20/
032790/20130307/94919/671/196/20/
032790/20130307/95039/671/140/20/
032790/20130307/95043/671/100/20/
032790/20130307/95222/675/119/20/
032790/20130307/95420/676/84/20/
032790/20130307/95430/676/100/20/
032790/20130307/95451/676/100/20/
032790/20130307/95626/676/101/20/
032790/20130307/95628/676/100/20/
032790/20130307/100317/676/106/20/
032790/20130307/100322/676/100/20/
032790/20130307/100451/670/2612/10/
032790/20130307/100909/671/1031/10/
032790/20130307/101213/673/119/20/
032790/20130307/101300/672/174/10/
032790/20130307/101300/671/1168/10/
032790/20130307/101313/671/189/20/
032790/20130307/102701/671/2326/10/
032790/20130307/102701/670/5265/10/
032790/20130307/103612/674/918/20/
032790/20130307/103912/672/103/10/
032790/20130307/104211/672/82/10/
032790/20130307/104825/671/567/10/
032790/20130307/105012/675/1116/20/
032790/20130307/110311/675/209/20/
032790/20130307/110330/675/1327/20/
032790/20130307/110512/675/600/20/
032790/20130307/110749/676/642/20/
032790/20130307/110749/677/3861/20/
032790/20130307/110952/675/233/10/
032790/20130307/110952/674/111/10/
032790/20130307/110952/673/658/10/
032790/20130307/112729/677/1136/20/
032790/20130307/112729/678/93/20/
032790/20130307/114431/675/320/10/
032790/20130307/114859/677/210/20/
032790/20130307/114859/678/842/20/
032790/20130307/120420/675/92/10/
032790/20130307/120424/674/158/10/
032790/20130307/120429/674/100/10/
032790/20130307/120433/674/100/10/
032790/20130307/120437/674/81/10/
032790/20130307/120541/674/149/10/
032790/20130307/120541/673/6208/10/
032790/20130307/120620/673/452/20/
032790/20130307/120626/673/100/20/
032790/20130307/120640/673/100/20/
032790/20130307/120715/673/149/20/
032790/20130307/120722/673/100/20/
032790/20130307/121204/676/157/20/
032790/20130307/121217/676/133/10/
032790/20130307/121725/675/862/20/
032790/20130307/122110/673/103/10/
032790/20130307/122133/674/100/20/
032790/20130307/122456/674/100/20/
032790/20130307/123108/673/553/10/
032790/20130307/123108/672/5120/10/
032790/20130307/123108/671/6480/10/
032790/20130307/123108/670/7847/10/
032790/20130307/123922/674/100/20/
032790/20130307/123959/675/1363/20/
032790/20130307/124009/675/137/10/
032790/20130307/124027/675/863/20/
032790/20130307/124033/675/137/10/
032790/20130307/124044/675/863/20/
032790/20130307/124049/675/137/10/
032790/20130307/124102/675/863/10/
032790/20130307/124107/675/137/10/
032790/20130307/124112/675/863/20/
032790/20130307/124119/675/137/10/
032790/20130307/124121/675/863/20/
032790/20130307/124127/675/137/10/
032790/20130307/124131/675/863/20/
032790/20130307/124134/675/137/10/
032790/20130307/124203/675/863/20/
032790/20130307/124209/675/137/10/
032790/20130307/124404/670/100/10/
032790/20130307/124545/674/300/20/
032790/20130307/124545/675/700/20/
032790/20130307/124723/674/100/20/
032790/20130307/124817/675/263/20/
032790/20130307/125349/676/501/20/
032790/20130307/125359/677/771/20/
032790/20130307/125438/676/5000/10/
032790/20130307/125447/676/536/10/
032790/20130307/125555/676/1001/10/
032790/20130307/125601/677/758/20/
032790/20130307/125736/676/5059/10/
032790/20130307/130247/677/89/20/
032790/20130307/130455/677/1394/20/
032790/20130307/130536/677/2003/10/
032790/20130307/130543/677/1717/10/
032790/20130307/131022/675/407/10/
032790/20130307/131403/675/102/10/
032790/20130307/131409/677/100/20/
032790/20130307/131413/677/100/10/
032790/20130307/131421/677/174/20/
032790/20130307/131445/677/511/20/
032790/20130307/131749/677/205/10/
032790/20130307/131749/675/370/10/
032790/20130307/132524/677/95/20/
032790/20130307/132527/677/775/20/
032790/20130307/132527/678/749/20/
032790/20130307/132648/677/100/20/
032790/20130307/132737/677/1010/10/
032790/20130307/133116/678/3002/20/
032790/20130307/133153/678/867/20/
032790/20130307/133320/678/290/10/
032790/20130307/133342/678/563/20/
032790/20130307/133450/677/1002/10/
032790/20130307/133455/679/717/20/
032790/20130307/133604/680/7072/20/
032790/20130307/133607/680/552/20/
032790/20130307/133614/680/91/20/
032790/20130307/133652/680/152/10/
032790/20130307/133704/680/1500/20/
032790/20130307/133922/678/282/10/
032790/20130307/133922/677/3718/10/
032790/20130307/133934/680/352/20/
032790/20130307/133934/681/326/20/
032790/20130307/133934/682/220/20/
032790/20130307/133934/683/102/20/
032790/20130307/133940/683/208/20/
032790/20130307/133940/684/420/20/
032790/20130307/133940/685/372/20/
032790/20130307/133945/685/290/20/
032790/20130307/133945/686/140/20/
032790/20130307/134140/683/230/20/
032790/20130307/134204/682/148/10/
032790/20130307/134231/683/184/20/
032790/20130307/134238/683/101/10/
032790/20130307/134402/681/164/10/
032790/20130307/134709/680/203/10/
032790/20130307/134756/680/1700/20/
032790/20130307/135022/679/538/10/
032790/20130307/135038/678/180/10/
032790/20130307/135450/680/258/20/
032790/20130307/135450/681/95/20/
032790/20130307/135450/682/100/20/
032790/20130307/135500/682/99/10/
032790/20130307/135623/682/500/20/
032790/20130307/140005/678/552/10/
032790/20130307/141210/680/505/20/
032790/20130307/141210/681/1438/20/
032790/20130307/141210/682/7793/20/
032790/20130307/141210/683/1540/20/
032790/20130307/141214/683/629/10/
032790/20130307/141227/680/200/20/
032790/20130307/141244/680/100/20/
032790/20130307/141257/680/100/10/
032790/20130307/141411/680/2010/20/
032790/20130307/141542/680/126/20/
032790/20130307/141551/680/100/20/
032790/20130307/141636/680/86/20/
032790/20130307/141703/680/250/20/
032790/20130307/141705/680/233/20/
032790/20130307/141736/680/165/20/
032790/20130307/142212/684/210/20/
032790/20130307/143316/679/105/10/
032790/20130307/143620/680/2495/20/
032790/20130307/143749/681/220/10/
032790/20130307/143755/681/1784/20/
032790/20130307/144119/681/224/10/
032790/20130307/144121/680/3962/10/
032790/20130307/144153/680/2409/20/
032790/20130307/144209/681/84/20/
032790/20130307/144313/682/733/20/
032790/20130307/144351/681/928/10/
032790/20130307/144408/681/894/20/
032790/20130307/144417/681/180/20/
032790/20130307/144426/682/254/20/
032790/20130307/144426/683/2000/20/
032790/20130307/144426/684/1890/20/
032790/20130307/144451/685/100/20/
032790/20130307/144612/684/626/10/
032790/20130307/144622/685/1002/20/
032790/20130307/144736/684/115/10/
032790/20130307/144823/685/1186/20/
032790/20130307/144839/685/102/20/
032790/20130307/144901/685/1129/20/
032790/20130307/144908/685/1873/10/
032790/20130307/144945/685/90/20/
032790/20130307/150000/689/16624/20/
