032790/20121122/90000/885/5066/20/
032790/20121122/90002/885/978/20/
032790/20121122/90120/880/1123/10/
032790/20121122/90132/880/111/10/
032790/20121122/90142/880/524/10/
032790/20121122/90226/880/2296/20/
032790/20121122/90226/886/181/20/
032790/20121122/90226/888/1614/20/
032790/20121122/90239/888/1018/20/
032790/20121122/90242/889/150/20/
032790/20121122/90242/891/286/20/
032790/20121122/90249/891/1814/20/
032790/20121122/90252/893/508/10/
032790/20121122/90252/888/2542/10/
032790/20121122/90255/898/100/20/
032790/20121122/90303/898/112/10/
032790/20121122/90317/888/519/10/
032790/20121122/90319/888/948/10/
032790/20121122/90405/889/1013/20/
032790/20121122/90420/889/2000/20/
032790/20121122/90420/897/936/20/
032790/20121122/90424/897/205/20/
032790/20121122/90426/897/290/20/
032790/20121122/90449/895/1070/20/
032790/20121122/90516/893/345/20/
032790/20121122/90522/893/655/10/
032790/20121122/90751/890/161/20/
032790/20121122/90850/872/129/10/
032790/20121122/90850/871/115/10/
032790/20121122/90850/870/1301/10/
032790/20121122/90854/870/500/20/
032790/20121122/90949/861/718/10/
032790/20121122/90949/860/4295/10/
032790/20121122/91004/860/722/10/
032790/20121122/91006/860/173/20/
032790/20121122/91025/870/300/10/
032790/20121122/91025/861/1700/10/
032790/20121122/91101/861/1700/10/
032790/20121122/91106/860/3000/10/
032790/20121122/91118/861/3882/10/
032790/20121122/91122/861/1520/10/
032790/20121122/91216/864/422/10/
032790/20121122/91228/864/458/20/
032790/20121122/91300/874/518/20/
032790/20121122/91309/874/1002/10/
032790/20121122/91351/872/195/20/
032790/20121122/91456/875/608/20/
032790/20121122/91456/876/404/20/
032790/20121122/91502/876/296/20/
032790/20121122/91517/876/102/20/
032790/20121122/91530/876/102/20/
032790/20121122/91552/872/3004/10/
032790/20121122/91637/873/250/10/
032790/20121122/91745/873/1002/10/
032790/20121122/91746/873/300/10/
032790/20121122/91749/873/142/10/
032790/20121122/91752/873/282/10/
032790/20121122/91831/874/104/20/
032790/20121122/91831/875/132/20/
032790/20121122/92030/873/144/10/
032790/20121122/92146/872/268/10/
032790/20121122/92146/871/1452/10/
032790/20121122/92159/873/187/20/
032790/20121122/92159/875/313/20/
032790/20121122/92241/875/2000/20/
032790/20121122/92254/875/481/20/
032790/20121122/92639/877/500/20/
032790/20121122/92829/877/169/20/
032790/20121122/93046/876/501/20/
032790/20121122/93046/877/499/20/
032790/20121122/93418/870/1059/10/
032790/20121122/94000/871/88/10/
032790/20121122/94008/871/229/10/
032790/20121122/94008/870/595/10/
032790/20121122/94013/870/481/10/
032790/20121122/94039/870/300/10/
032790/20121122/94336/870/138/10/
032790/20121122/94336/869/111/10/
032790/20121122/94336/868/356/10/
032790/20121122/94336/867/1640/10/
032790/20121122/94352/867/10000/10/
032790/20121122/94356/867/3000/10/
032790/20121122/94422/867/380/10/
032790/20121122/94524/874/386/20/
032790/20121122/94533/874/202/10/
032790/20121122/94632/874/706/10/
032790/20121122/94632/874/214/10/
032790/20121122/94730/868/90/10/
032790/20121122/94741/867/2000/10/
032790/20121122/94818/873/90/20/
032790/20121122/94842/873/99/10/
032790/20121122/94849/870/5000/10/
032790/20121122/94854/873/502/20/
032790/20121122/94907/870/5000/10/
032790/20121122/94907/873/600/20/
032790/20121122/95007/866/676/20/
032790/20121122/95008/866/2604/20/
032790/20121122/95029/865/5002/10/
032790/20121122/95104/865/5002/10/
032790/20121122/95139/865/500/10/
032790/20121122/95245/864/320/10/
032790/20121122/95245/863/2682/10/
032790/20121122/95324/863/4412/10/
032790/20121122/95339/865/1000/10/
032790/20121122/95411/864/502/10/
032790/20121122/95634/864/9514/10/
032790/20121122/95634/863/8355/10/
032790/20121122/95634/862/10631/10/
032790/20121122/95634/861/5229/10/
032790/20121122/95634/860/20081/10/
032790/20121122/95809/860/1010/20/
032790/20121122/95825/860/1500/20/
032790/20121122/95839/860/1000/20/
032790/20121122/95845/860/118/20/
032790/20121122/95902/860/502/20/
032790/20121122/95904/860/1000/20/
032790/20121122/95921/860/1000/20/
032790/20121122/95933/860/801/20/
032790/20121122/100004/865/1504/10/
032790/20121122/100058/865/773/20/
032790/20121122/100112/860/10000/10/
032790/20121122/100358/861/166/10/
032790/20121122/100442/860/3605/10/
032790/20121122/100522/860/2000/20/
032790/20121122/100547/859/243/10/
032790/20121122/100552/860/465/20/
032790/20121122/100824/864/1004/20/
032790/20121122/101039/860/408/10/
032790/20121122/101209/864/1066/20/
032790/20121122/101234/864/500/10/
032790/20121122/101247/864/203/10/
032790/20121122/101407/860/5218/10/
032790/20121122/101743/864/90/20/
032790/20121122/101829/860/1030/10/
032790/20121122/101911/860/649/10/
032790/20121122/101911/859/83/10/
032790/20121122/101911/858/202/10/
032790/20121122/101911/857/201/10/
032790/20121122/101911/856/167/10/
032790/20121122/102159/860/2502/10/
032790/20121122/102159/858/2200/10/
032790/20121122/102542/858/1736/10/
032790/20121122/102709/859/86/10/
032790/20121122/102728/859/209/20/
032790/20121122/102812/859/94/10/
032790/20121122/103047/859/134/10/
032790/20121122/103143/860/403/10/
032790/20121122/103240/859/907/10/
032790/20121122/103336/860/311/10/
032790/20121122/103534/860/144/10/
032790/20121122/103534/859/1533/10/
032790/20121122/103534/858/326/10/
032790/20121122/103548/860/104/10/
032790/20121122/103720/858/879/10/
032790/20121122/103907/858/560/10/
032790/20121122/103907/857/2447/10/
032790/20121122/103925/857/3002/10/
032790/20121122/104241/857/2007/10/
032790/20121122/104318/857/2636/10/
032790/20121122/104318/855/966/10/
032790/20121122/104605/855/572/10/
032790/20121122/104605/854/201/10/
032790/20121122/104605/853/201/10/
032790/20121122/104605/852/1992/10/
032790/20121122/104605/851/1502/10/
032790/20121122/104605/850/15534/10/
032790/20121122/104836/859/1051/20/
032790/20121122/104836/860/451/20/
032790/20121122/105010/852/1000/10/
032790/20121122/105014/855/565/20/
032790/20121122/105145/859/1037/20/
032790/20121122/105230/859/598/20/
032790/20121122/105248/854/515/10/
032790/20121122/105248/853/489/10/
032790/20121122/105502/857/508/10/
032790/20121122/105531/857/499/20/
032790/20121122/105610/856/213/10/
032790/20121122/105610/855/289/10/
032790/20121122/105742/855/5073/10/
032790/20121122/105747/854/510/10/
032790/20121122/105831/854/1562/10/
032790/20121122/105848/854/440/10/
032790/20121122/105848/853/510/10/
032790/20121122/105855/853/110/10/
032790/20121122/105855/852/510/10/
032790/20121122/105855/851/585/10/
032790/20121122/105915/854/110/20/
032790/20121122/105938/851/1101/10/
032790/20121122/105938/850/699/10/
032790/20121122/105943/850/724/10/
032790/20121122/110042/850/1035/10/
032790/20121122/110229/851/501/10/
032790/20121122/110229/850/1039/10/
032790/20121122/110305/850/688/10/
032790/20121122/110352/850/311/20/
032790/20121122/110434/845/2213/10/
032790/20121122/110434/842/130/10/
032790/20121122/110435/842/2657/20/
032790/20121122/110435/842/3111/20/
032790/20121122/110508/850/945/20/
032790/20121122/110803/846/87/10/
032790/20121122/110914/847/1116/10/
032790/20121122/110918/847/87/20/
032790/20121122/110918/850/414/20/
032790/20121122/110957/850/300/20/
032790/20121122/111011/850/185/20/
032790/20121122/111454/850/279/10/
032790/20121122/111625/850/213/10/
032790/20121122/111720/849/81/10/
032790/20121122/111720/846/1214/10/
032790/20121122/111720/845/2000/10/
032790/20121122/111720/845/1205/20/
032790/20121122/111905/856/119/20/
032790/20121122/112008/850/162/10/
032790/20121122/112158/846/500/10/
032790/20121122/112158/845/2309/10/
032790/20121122/112158/844/4191/10/
032790/20121122/112303/845/173/10/
032790/20121122/112345/845/2005/10/
032790/20121122/112347/845/481/10/
032790/20121122/112347/844/3640/10/
032790/20121122/112414/844/120/20/
032790/20121122/112421/844/4054/20/
032790/20121122/112421/844/1705/20/
032790/20121122/112922/850/128/20/
032790/20121122/113407/849/107/20/
032790/20121122/113545/849/98/20/
032790/20121122/113614/850/102/20/
032790/20121122/113713/850/300/20/
032790/20121122/114134/850/170/20/
032790/20121122/114350/850/112/20/
032790/20121122/114655/851/116/10/
032790/20121122/114957/849/753/10/
032790/20121122/115117/849/302/10/
032790/20121122/115310/853/148/20/
032790/20121122/115310/855/513/20/
032790/20121122/115310/856/281/20/
032790/20121122/115331/856/286/20/
032790/20121122/115342/856/1200/20/
032790/20121122/120217/852/312/10/
032790/20121122/120741/855/751/10/
032790/20121122/120758/856/81/20/
032790/20121122/121019/855/180/10/
032790/20121122/121331/856/540/20/
032790/20121122/122837/852/825/10/
032790/20121122/123005/852/117/10/
032790/20121122/123005/851/585/10/
032790/20121122/123050/851/1002/10/
032790/20121122/123050/850/498/10/
032790/20121122/123402/850/1505/20/
032790/20121122/123514/848/131/10/
032790/20121122/123514/846/515/10/
032790/20121122/123514/845/330/10/
032790/20121122/123514/844/2020/10/
032790/20121122/123514/843/3015/10/
032790/20121122/123556/839/454/20/
032790/20121122/124243/841/145/10/
032790/20121122/124243/840/1290/10/
032790/20121122/124243/836/1988/10/
032790/20121122/124309/836/379/10/
032790/20121122/124309/835/3375/10/
032790/20121122/124354/836/1077/10/
032790/20121122/124354/835/6253/10/
032790/20121122/124354/831/2670/10/
032790/20121122/124522/831/450/10/
032790/20121122/124522/830/1763/10/
032790/20121122/124613/830/2482/10/
032790/20121122/125612/834/449/10/
032790/20121122/125612/831/116/10/
032790/20121122/125612/830/1483/10/
032790/20121122/125646/830/260/10/
032790/20121122/125739/831/392/10/
032790/20121122/130021/834/438/10/
032790/20121122/130021/830/107/10/
032790/20121122/130021/826/82/10/
032790/20121122/130021/825/3074/10/
032790/20121122/130926/829/102/10/
032790/20121122/130926/828/540/10/
032790/20121122/130926/827/250/10/
032790/20121122/130926/826/776/10/
032790/20121122/130926/825/3546/10/
032790/20121122/130926/824/265/10/
032790/20121122/130926/823/220/10/
032790/20121122/130926/822/236/10/
032790/20121122/130926/821/4067/10/
032790/20121122/131056/822/942/10/
032790/20121122/131056/821/1240/10/
032790/20121122/131056/820/2711/10/
032790/20121122/131056/819/201/10/
032790/20121122/131056/818/201/10/
032790/20121122/131105/817/151/10/
032790/20121122/131118/817/1702/10/
032790/20121122/131131/817/554/10/
032790/20121122/131147/818/84/20/
032790/20121122/131157/814/523/10/
032790/20121122/131157/812/202/10/
032790/20121122/131157/811/5001/10/
032790/20121122/131157/810/4294/10/
032790/20121122/131332/802/1201/10/
032790/20121122/131332/801/1001/10/
032790/20121122/131332/800/4709/10/
032790/20121122/131410/800/511/10/
032790/20121122/131410/799/101/10/
032790/20121122/131410/791/200/10/
032790/20121122/131410/790/1050/10/
032790/20121122/131410/782/1100/10/
032790/20121122/131410/780/1646/10/
032790/20121122/131418/781/120/10/
032790/20121122/131425/810/1000/20/
032790/20121122/131425/817/221/20/
032790/20121122/131426/783/300/10/
032790/20121122/131517/805/103/20/
032790/20121122/131518/805/101/10/
032790/20121122/131525/805/600/20/
032790/20121122/131545/792/126/10/
032790/20121122/131620/795/171/10/
032790/20121122/131631/804/380/20/
032790/20121122/131631/805/622/20/
032790/20121122/131701/805/177/20/
032790/20121122/131710/805/223/20/
032790/20121122/131714/797/237/10/
032790/20121122/131714/796/4763/10/
032790/20121122/131723/806/209/20/
032790/20121122/131730/806/2017/20/
032790/20121122/131730/805/193/10/
032790/20121122/131806/806/2714/20/
032790/20121122/131809/806/1000/20/
032790/20121122/131818/805/123/10/
032790/20121122/131827/805/2034/20/
032790/20121122/131834/800/1611/10/
032790/20121122/131840/800/1000/20/
032790/20121122/131850/800/400/20/
032790/20121122/131859/800/603/10/
032790/20121122/131916/796/1505/10/
032790/20121122/131928/796/497/20/
032790/20121122/131943/797/1002/10/
032790/20121122/131943/796/520/10/
032790/20121122/131949/800/118/20/
032790/20121122/132003/800/1590/20/
032790/20121122/132006/783/667/10/
032790/20121122/132006/782/232/10/
032790/20121122/132006/781/1102/10/
032790/20121122/132006/780/725/10/
032790/20121122/132203/796/83/20/
032790/20121122/132308/798/1275/20/
032790/20121122/132330/798/749/20/
032790/20121122/132343/799/454/20/
032790/20121122/132357/799/196/20/
032790/20121122/132502/804/670/20/
032790/20121122/132512/805/105/20/
032790/20121122/132548/803/91/20/
032790/20121122/132559/800/2001/10/
032790/20121122/132652/800/99/10/
032790/20121122/132652/798/913/10/
032790/20121122/132659/803/217/20/
032790/20121122/132659/804/439/20/
032790/20121122/132659/805/1325/20/
032790/20121122/132749/805/3352/20/
032790/20121122/132801/806/549/20/
032790/20121122/132937/806/565/10/
032790/20121122/132937/805/1357/10/
032790/20121122/132937/800/100/10/
032790/20121122/132937/799/1585/10/
032790/20121122/132948/799/1000/20/
032790/20121122/132953/799/1002/20/
032790/20121122/132955/799/272/20/
032790/20121122/133206/808/244/20/
032790/20121122/133300/810/689/20/
032790/20121122/133306/810/1004/20/
032790/20121122/133337/810/1302/20/
032790/20121122/133351/810/211/20/
032790/20121122/133405/810/211/20/
032790/20121122/133443/810/87/20/
032790/20121122/133544/810/261/20/
032790/20121122/133557/810/259/20/
032790/20121122/133559/810/698/20/
032790/20121122/133702/815/1205/20/
032790/20121122/134000/807/149/20/
032790/20121122/134000/806/249/20/
032790/20121122/134000/805/1650/20/
032790/20121122/134059/815/204/20/
032790/20121122/134130/806/121/10/
032790/20121122/134130/805/600/10/
032790/20121122/134130/804/201/10/
032790/20121122/134130/802/100/10/
032790/20121122/134130/801/401/10/
032790/20121122/134130/800/579/10/
032790/20121122/134140/800/501/10/
032790/20121122/134148/800/201/10/
032790/20121122/134204/801/100/10/
032790/20121122/134206/801/261/10/
032790/20121122/134218/801/459/20/
032790/20121122/134224/800/2027/10/
032790/20121122/134231/801/234/20/
032790/20121122/134241/800/1051/10/
032790/20121122/134242/800/1000/10/
032790/20121122/134244/800/134/10/
032790/20121122/134250/800/117/20/
032790/20121122/134340/809/81/20/
032790/20121122/134417/800/280/10/
032790/20121122/134432/800/115/20/
032790/20121122/134655/805/207/20/
032790/20121122/134716/799/186/10/
032790/20121122/134729/796/119/10/
032790/20121122/134859/803/1101/20/
032790/20121122/135200/805/171/20/
032790/20121122/135301/806/280/20/
032790/20121122/135404/806/131/20/
032790/20121122/135443/806/99/20/
032790/20121122/135453/807/722/20/
032790/20121122/135500/807/274/20/
032790/20121122/135548/802/2007/10/
032790/20121122/135548/801/800/10/
032790/20121122/135548/800/3000/10/
032790/20121122/135628/800/2002/10/
032790/20121122/135730/801/2303/10/
032790/20121122/135730/800/4522/10/
032790/20121122/135741/800/176/20/
032790/20121122/135819/801/2389/10/
032790/20121122/135819/800/612/10/
032790/20121122/135834/800/1001/10/
032790/20121122/135850/801/101/10/
032790/20121122/135850/800/901/10/
032790/20121122/140013/801/1006/10/
032790/20121122/140031/802/1001/10/
032790/20121122/140121/806/88/20/
032790/20121122/140128/806/82/20/
032790/20121122/140200/805/2392/20/
032790/20121122/140201/805/4459/20/
032790/20121122/140206/805/2001/10/
032790/20121122/140210/805/363/10/
032790/20121122/140210/805/191/10/
032790/20121122/140210/803/309/10/
032790/20121122/140246/807/3267/20/
032790/20121122/140257/807/1005/10/
032790/20121122/140302/809/249/20/
032790/20121122/140307/807/1940/10/
032790/20121122/140311/810/100/20/
032790/20121122/140320/810/1988/20/
032790/20121122/140348/810/511/20/
032790/20121122/140357/805/413/10/
032790/20121122/140357/803/685/10/
032790/20121122/140357/802/5000/10/
032790/20121122/140357/801/505/10/
032790/20121122/140357/800/1260/10/
032790/20121122/140421/802/506/10/
032790/20121122/140622/810/2445/20/
032790/20121122/140653/810/86/10/
032790/20121122/140653/807/1186/10/
032790/20121122/140721/812/101/20/
032790/20121122/140730/812/1593/20/
032790/20121122/140730/813/1120/20/
032790/20121122/140749/813/880/20/
032790/20121122/140809/813/429/10/
032790/20121122/140902/815/512/20/
032790/20121122/140902/816/2505/20/
032790/20121122/140902/819/96/20/
032790/20121122/140902/820/16889/20/
032790/20121122/140934/815/99/20/
032790/20121122/140953/815/157/10/
032790/20121122/141032/817/175/20/
032790/20121122/141100/819/686/20/
032790/20121122/141100/820/86/20/
032790/20121122/141102/820/1000/20/
032790/20121122/141106/820/116/20/
032790/20121122/141112/820/111/20/
032790/20121122/141113/820/1000/20/
032790/20121122/141116/817/2076/10/
032790/20121122/141116/820/800/20/
032790/20121122/141117/820/1142/20/
032790/20121122/141122/820/1000/20/
032790/20121122/141125/820/1000/20/
032790/20121122/141128/820/100/20/
032790/20121122/141129/820/1000/20/
032790/20121122/141131/820/7435/20/
032790/20121122/141134/820/100/20/
032790/20121122/141136/820/1000/20/
032790/20121122/141138/820/1000/20/
032790/20121122/141146/820/1000/20/
032790/20121122/141152/820/1000/20/
032790/20121122/141154/820/500/20/
032790/20121122/141238/820/564/20/
032790/20121122/141307/820/199/20/
032790/20121122/141321/821/1051/20/
032790/20121122/141321/822/5193/20/
032790/20121122/141321/825/2800/20/
032790/20121122/141351/830/536/20/
032790/20121122/141410/830/592/20/
032790/20121122/141440/834/1010/20/
032790/20121122/141503/834/294/20/
032790/20121122/141517/835/151/20/
032790/20121122/141527/835/114/20/
032790/20121122/141607/834/131/10/
032790/20121122/141627/833/165/20/
032790/20121122/141627/834/364/20/
032790/20121122/141715/833/82/20/
032790/20121122/141738/828/97/10/
032790/20121122/141759/827/538/10/
032790/20121122/141803/827/201/10/
032790/20121122/141817/827/598/10/
032790/20121122/141817/826/692/10/
032790/20121122/141817/825/246/10/
032790/20121122/141832/825/503/10/
032790/20121122/141957/826/248/10/
032790/20121122/142013/825/262/10/
032790/20121122/142050/821/301/10/
032790/20121122/142208/819/101/10/
032790/20121122/142208/818/101/10/
032790/20121122/142208/817/799/10/
032790/20121122/142214/817/590/10/
032790/20121122/142214/816/202/10/
032790/20121122/142244/816/170/20/
032790/20121122/142248/815/250/10/
032790/20121122/142248/816/100/20/
032790/20121122/142251/816/100/20/
032790/20121122/142304/816/96/20/
032790/20121122/142407/828/89/20/
032790/20121122/142415/824/500/10/
032790/20121122/142548/828/458/20/
032790/20121122/142559/829/100/20/
032790/20121122/142632/829/81/20/
032790/20121122/142708/828/82/10/
032790/20121122/142708/828/1334/10/
032790/20121122/142821/828/108/10/
032790/20121122/142915/828/87/20/
032790/20121122/143011/824/94/10/
032790/20121122/143013/824/200/10/
032790/20121122/143029/824/694/10/
032790/20121122/143203/824/215/20/
032790/20121122/143247/828/88/20/
032790/20121122/143505/827/86/20/
032790/20121122/143510/827/10000/20/
032790/20121122/143635/821/553/10/
032790/20121122/143750/821/91/20/
032790/20121122/143840/821/529/20/
032790/20121122/143921/821/2013/20/
032790/20121122/143928/821/915/20/
032790/20121122/143936/820/136/10/
032790/20121122/143953/820/2011/20/
032790/20121122/144001/820/2000/20/
032790/20121122/144014/820/500/20/
032790/20121122/144036/820/3602/20/
032790/20121122/144048/820/500/20/
032790/20121122/144107/820/900/20/
032790/20121122/144223/821/7928/20/
032790/20121122/144356/827/1002/20/
032790/20121122/144415/827/116/20/
032790/20121122/144435/827/1162/20/
032790/20121122/144436/827/1869/10/
032790/20121122/144451/828/86/20/
032790/20121122/144526/828/100/20/
032790/20121122/144530/828/300/20/
032790/20121122/144619/828/113/20/
032790/20121122/144631/828/117/20/
032790/20121122/144644/828/111/20/
032790/20121122/144655/828/107/20/
032790/20121122/144702/828/5080/20/
032790/20121122/144702/829/4830/20/
032790/20121122/144731/833/85/20/
032790/20121122/144757/833/149/20/
032790/20121122/144809/833/108/20/
032790/20121122/144816/833/153/20/
032790/20121122/144816/834/200/20/
032790/20121122/144828/834/144/10/
032790/20121122/144833/834/111/10/
032790/20121122/144838/835/3305/20/
032790/20121122/144845/835/2955/20/
032790/20121122/144845/838/2103/20/
032790/20121122/144845/838/100/20/
032790/20121122/144855/834/122/10/
032790/20121122/144901/834/100/10/
032790/20121122/144902/837/100/20/
032790/20121122/144902/838/211/20/
032790/20121122/144904/838/2569/20/
032790/20121122/144904/840/1533/20/
032790/20121122/144907/840/252/10/
032790/20121122/144907/840/100/10/
032790/20121122/144912/840/122/10/
032790/20121122/144913/840/446/10/
032790/20121122/144918/840/111/20/
032790/20121122/144920/840/100/20/
032790/20121122/144926/834/122/10/
032790/20121122/144929/840/436/20/
032790/20121122/144929/841/100/20/
032790/20121122/144929/842/183/20/
032790/20121122/144929/845/510/20/
032790/20121122/144929/846/560/20/
032790/20121122/144929/847/500/10/
032790/20121122/144929/848/500/10/
032790/20121122/144929/849/288/20/
032790/20121122/144935/849/102/20/
032790/20121122/144946/849/437/20/
032790/20121122/144951/849/188/20/
032790/20121122/144951/850/1505/20/
032790/20121122/144952/850/100/10/
032790/20121122/144956/850/120/10/
032790/20121122/150000/844/6072/20/
