032790/20130401/90000/932/221/20/
032790/20130401/90006/925/100/10/
032790/20130401/90027/925/152/10/
032790/20130401/90114/925/89/10/
032790/20130401/90350/910/586/10/
032790/20130401/90358/910/902/20/
032790/20130401/90910/920/108/10/
032790/20130401/91141/911/86/10/
032790/20130401/91141/910/148/10/
032790/20130401/91214/910/1028/10/
032790/20130401/91442/919/101/20/
032790/20130401/91545/919/571/20/
032790/20130401/91709/910/440/10/
032790/20130401/91817/919/380/20/
032790/20130401/91826/919/99/10/
032790/20130401/92042/910/418/10/
032790/20130401/92110/910/134/10/
032790/20130401/92232/910/172/20/
032790/20130401/92308/909/91/20/
032790/20130401/92431/910/303/20/
032790/20130401/92443/906/483/10/
032790/20130401/93224/909/83/10/
032790/20130401/93224/908/973/10/
032790/20130401/93855/917/122/20/
032790/20130401/94218/917/360/20/
032790/20130401/94218/918/1189/20/
032790/20130401/94236/918/502/20/
032790/20130401/94433/919/231/20/
032790/20130401/94433/920/596/20/
032790/20130401/94433/920/1653/10/
032790/20130401/94539/925/81/20/
032790/20130401/94848/916/408/10/
032790/20130401/95021/916/94/10/
032790/20130401/95047/923/3006/20/
032790/20130401/95100/923/7000/20/
032790/20130401/95126/924/197/20/
032790/20130401/95126/924/2804/10/
032790/20130401/95138/925/183/20/
032790/20130401/95138/927/137/20/
032790/20130401/95138/928/650/20/
032790/20130401/95138/929/649/20/
032790/20130401/95140/929/381/10/
032790/20130401/95216/930/2003/20/
032790/20130401/95225/930/2500/20/
032790/20130401/95254/929/100/20/
032790/20130401/95309/929/200/20/
032790/20130401/95351/919/100/10/
032790/20130401/95351/918/100/10/
032790/20130401/95351/917/600/10/
032790/20130401/95351/916/253/10/
032790/20130401/95428/926/85/20/
032790/20130401/95639/916/768/10/
032790/20130401/95739/915/154/10/
032790/20130401/95834/925/107/20/
032790/20130401/95834/927/2620/20/
032790/20130401/95838/927/285/10/
032790/20130401/95902/927/597/20/
032790/20130401/100032/917/102/10/
032790/20130401/100132/917/430/10/
032790/20130401/100227/916/1593/10/
032790/20130401/100428/916/1101/10/
032790/20130401/100528/915/1902/10/
032790/20130401/100631/914/1588/10/
032790/20130401/100726/914/798/20/
032790/20130401/100732/913/1003/10/
032790/20130401/100753/914/511/20/
032790/20130401/100757/914/511/20/
032790/20130401/100804/914/111/20/
032790/20130401/100807/914/500/20/
032790/20130401/100833/912/1331/10/
032790/20130401/100847/912/242/10/
032790/20130401/100933/912/580/10/
032790/20130401/101006/912/829/10/
032790/20130401/101016/911/98/10/
032790/20130401/101033/911/1141/10/
032790/20130401/101143/911/82/20/
032790/20130401/101233/910/461/10/
032790/20130401/101251/910/434/10/
032790/20130401/101253/910/2213/10/
032790/20130401/101310/910/787/20/
032790/20130401/101333/910/285/10/
032790/20130401/101708/913/245/20/
032790/20130401/101741/914/3290/20/
032790/20130401/102230/910/354/10/
032790/20130401/102249/910/300/20/
032790/20130401/104728/911/152/10/
032790/20130401/104728/910/1046/10/
032790/20130401/104728/909/589/10/
032790/20130401/105117/910/541/10/
032790/20130401/105626/915/81/20/
032790/20130401/110346/910/2033/10/
032790/20130401/110438/910/6000/20/
032790/20130401/110757/910/334/10/
032790/20130401/110856/910/303/10/
032790/20130401/111555/914/101/20/
032790/20130401/111559/914/251/10/
032790/20130401/112508/911/393/10/
032790/20130401/112530/911/206/10/
032790/20130401/112552/911/94/20/
032790/20130401/112952/910/1043/10/
032790/20130401/113012/910/1001/10/
032790/20130401/113107/909/1008/10/
032790/20130401/113120/909/635/10/
032790/20130401/113216/909/113/10/
032790/20130401/113252/910/1010/20/
032790/20130401/113320/909/827/10/
032790/20130401/113323/910/500/20/
032790/20130401/113417/910/507/20/
032790/20130401/113520/910/579/10/
032790/20130401/113537/910/432/10/
032790/20130401/113625/909/444/10/
032790/20130401/113703/909/129/10/
032790/20130401/113703/908/1665/10/
032790/20130401/113721/907/353/10/
032790/20130401/113723/908/3692/20/
032790/20130401/113825/908/456/10/
032790/20130401/114231/908/95/10/
032790/20130401/114330/908/227/10/
032790/20130401/114342/908/200/10/
032790/20130401/114425/908/460/10/
032790/20130401/114634/907/371/10/
032790/20130401/115021/907/417/10/
032790/20130401/115116/906/281/10/
032790/20130401/115219/906/842/10/
032790/20130401/115421/906/135/10/
032790/20130401/115823/906/145/10/
032790/20130401/115823/905/1612/10/
032790/20130401/120213/904/1025/10/
032790/20130401/120213/903/102/10/
032790/20130401/120213/902/302/10/
032790/20130401/120213/901/1052/10/
032790/20130401/120741/902/710/10/
032790/20130401/120741/901/2580/10/
032790/20130401/120741/900/1720/10/
032790/20130401/120821/901/500/10/
032790/20130401/120821/900/600/10/
032790/20130401/121130/905/500/20/
032790/20130401/121439/901/112/10/
032790/20130401/121439/900/484/10/
032790/20130401/121453/900/3168/10/
032790/20130401/121505/900/300/20/
032790/20130401/121514/900/94/20/
032790/20130401/122030/905/583/20/
032790/20130401/122437/901/667/20/
032790/20130401/123011/905/239/20/
032790/20130401/123052/905/139/20/
032790/20130401/123154/905/152/20/
032790/20130401/123200/905/102/20/
032790/20130401/123249/905/351/20/
032790/20130401/123320/905/110/20/
032790/20130401/123508/905/201/20/
032790/20130401/123524/905/110/20/
032790/20130401/123614/905/308/20/
032790/20130401/124405/903/110/10/
032790/20130401/124606/904/102/10/
032790/20130401/124701/903/101/10/
032790/20130401/124937/902/132/10/
032790/20130401/124937/901/436/10/
032790/20130401/125547/905/1232/20/
032790/20130401/125555/906/1468/20/
032790/20130401/130318/907/340/20/
032790/20130401/130318/908/176/20/
032790/20130401/130826/904/577/10/
032790/20130401/130939/904/1243/10/
032790/20130401/130939/903/1214/10/
032790/20130401/130939/902/3103/10/
032790/20130401/130939/901/4443/10/
032790/20130401/131332/905/109/20/
032790/20130401/131435/903/83/10/
032790/20130401/131702/905/110/20/
032790/20130401/131840/903/158/10/
032790/20130401/131945/903/319/10/
032790/20130401/133229/903/91/10/
032790/20130401/133333/903/155/10/
032790/20130401/133703/902/94/10/
032790/20130401/133703/901/184/10/
032790/20130401/133822/902/518/10/
032790/20130401/134743/902/136/10/
032790/20130401/134743/901/976/10/
032790/20130401/135931/902/224/10/
032790/20130401/140152/906/81/20/
032790/20130401/140321/902/129/10/
032790/20130401/141030/905/90/20/
032790/20130401/141208/905/90/20/
032790/20130401/141437/905/330/20/
032790/20130401/141850/902/167/10/
032790/20130401/141933/901/5549/10/
032790/20130401/142110/900/1104/10/
032790/20130401/142409/904/100/20/
032790/20130401/142557/903/89/20/
032790/20130401/142647/901/113/10/
032790/20130401/142647/900/801/10/
032790/20130401/142918/901/207/10/
032790/20130401/143120/904/88/20/
032790/20130401/143218/904/319/20/
032790/20130401/143218/905/3705/20/
032790/20130401/143324/905/143/20/
032790/20130401/143525/905/84/20/
032790/20130401/143700/903/152/10/
032790/20130401/143728/905/158/20/
032790/20130401/143728/906/100/20/
032790/20130401/143734/907/100/20/
032790/20130401/143734/908/442/20/
032790/20130401/143807/909/116/20/
032790/20130401/144052/907/238/20/
032790/20130401/144110/907/801/10/
032790/20130401/144119/908/999/20/
032790/20130401/144739/908/501/20/
032790/20130401/144739/909/999/20/
032790/20130401/144739/910/1502/20/
032790/20130401/144955/910/527/20/
032790/20130401/144955/911/2001/20/
032790/20130401/150000/910/9074/10/
