032790/20121031/90000/1035/300/20/
032790/20121031/90235/1030/572/10/
032790/20121031/90329/1025/244/10/
032790/20121031/90341/1030/179/20/
032790/20121031/90428/1040/85/20/
032790/20121031/90927/1040/650/10/
032790/20121031/90942/1035/508/10/
032790/20121031/90949/1040/209/20/
032790/20121031/91006/1045/82/20/
032790/20121031/91021/1045/567/20/
032790/20121031/91027/1045/81/20/
032790/20121031/91200/1040/2043/10/
032790/20121031/91208/1045/1996/20/
032790/20121031/91231/1050/905/20/
032790/20121031/91325/1045/2001/20/
032790/20121031/91410/1055/89/20/
032790/20121031/91430/1055/176/20/
032790/20121031/91651/1045/484/10/
032790/20121031/92328/1040/956/10/
032790/20121031/92409/1040/2010/10/
032790/20121031/92740/1040/534/10/
032790/20121031/92758/1035/6500/10/
032790/20121031/92910/1035/1003/10/
032790/20121031/92913/1035/105/10/
032790/20121031/92936/1035/103/20/
032790/20121031/92949/1035/502/20/
032790/20121031/93117/1030/2958/10/
032790/20121031/93156/1035/123/20/
032790/20121031/93216/1030/715/10/
032790/20121031/93243/1025/775/10/
032790/20121031/93254/1030/457/20/
032790/20121031/93329/1025/4885/10/
032790/20121031/93359/1025/406/20/
032790/20121031/93422/1040/105/20/
032790/20121031/94027/1030/3036/10/
032790/20121031/94030/1030/314/10/
032790/20121031/94048/1025/2006/10/
032790/20121031/94116/1030/844/10/
032790/20121031/94123/1030/203/10/
032790/20121031/94205/1035/1002/20/
032790/20121031/94436/1040/1013/20/
032790/20121031/94515/1040/284/20/
032790/20121031/94526/1040/3137/20/
032790/20121031/94600/1045/82/20/
032790/20121031/94713/1040/90/10/
032790/20121031/94713/1035/6347/10/
032790/20121031/94714/1035/2584/20/
032790/20121031/94932/1035/2010/10/
032790/20121031/95032/1035/908/10/
032790/20121031/95110/1035/2003/20/
032790/20121031/95218/1035/303/20/
032790/20121031/95218/1035/2699/20/
032790/20121031/95621/1040/2068/20/
032790/20121031/95639/1040/242/20/
032790/20121031/95704/1045/2030/20/
032790/20121031/95714/1045/990/20/
032790/20121031/95828/1045/112/10/
032790/20121031/100012/1050/3349/20/
032790/20121031/100142/1050/1035/10/
032790/20121031/100213/1050/1610/10/
032790/20121031/100340/1055/808/20/
032790/20121031/100351/1055/81/20/
032790/20121031/100756/1050/692/20/
032790/20121031/100823/1045/1006/10/
032790/20121031/100848/1050/607/20/
032790/20121031/101151/1050/120/20/
032790/20121031/101154/1050/100/20/
032790/20121031/101156/1050/102/20/
032790/20121031/101159/1050/100/20/
032790/20121031/101201/1050/102/20/
032790/20121031/101206/1050/112/20/
032790/20121031/101207/1050/100/20/
032790/20121031/101219/1050/183/10/
032790/20121031/101219/1055/108/20/
032790/20121031/101327/1055/730/20/
032790/20121031/101346/1050/1004/20/
032790/20121031/101346/1050/878/10/
032790/20121031/101448/1045/716/10/
032790/20121031/101659/1045/772/10/
032790/20121031/101706/1050/624/20/
032790/20121031/101720/1055/148/20/
032790/20121031/101724/1055/152/20/
032790/20121031/101729/1055/102/20/
032790/20121031/101741/1055/1588/20/
032790/20121031/101831/1055/677/20/
032790/20121031/101905/1055/6088/20/
032790/20121031/101935/1060/978/20/
032790/20121031/101947/1060/417/20/
032790/20121031/102049/1055/161/10/
032790/20121031/102203/1055/848/10/
032790/20121031/102213/1055/100/20/
032790/20121031/102408/1050/736/10/
032790/20121031/102418/1050/2000/10/
032790/20121031/102444/1050/326/10/
032790/20121031/102446/1050/100/20/
032790/20121031/102448/1050/100/20/
032790/20121031/102453/1050/100/20/
032790/20121031/102459/1050/200/20/
032790/20121031/102532/1050/112/20/
032790/20121031/102616/1050/213/20/
032790/20121031/102748/1045/1615/10/
032790/20121031/102820/1045/966/10/
032790/20121031/103116/1050/917/20/
032790/20121031/103145/1050/102/20/
032790/20121031/103311/1040/1017/10/
032790/20121031/103548/1055/186/20/
032790/20121031/104300/1050/2083/20/
032790/20121031/104359/1050/5050/20/
032790/20121031/104359/1050/1652/20/
032790/20121031/105542/1055/1354/20/
032790/20121031/105551/1055/10697/20/
032790/20121031/105643/1055/109/20/
032790/20121031/105657/1055/4002/20/
032790/20121031/105748/1050/657/20/
032790/20121031/105755/1050/1002/10/
032790/20121031/105801/1055/153/20/
032790/20121031/105813/1060/95/20/
032790/20121031/105843/1060/7632/20/
032790/20121031/105850/1065/135/20/
032790/20121031/105854/1065/1002/20/
032790/20121031/105855/1065/125/20/
032790/20121031/105905/1065/163/20/
032790/20121031/105911/1065/3002/20/
032790/20121031/105912/1065/159/20/
032790/20121031/105912/1065/1024/20/
032790/20121031/105914/1065/1002/20/
032790/20121031/105923/1065/118/20/
032790/20121031/105931/1065/667/20/
032790/20121031/105931/1065/100/20/
032790/20121031/105932/1065/534/20/
032790/20121031/105944/1065/114/20/
032790/20121031/110030/1065/918/20/
032790/20121031/110040/1065/3370/20/
032790/20121031/110045/1070/4492/20/
032790/20121031/110055/1070/82/20/
032790/20121031/110056/1070/500/20/
032790/20121031/110057/1070/2000/20/
032790/20121031/110058/1070/1050/20/
032790/20121031/110059/1070/481/20/
032790/20121031/110059/1070/830/20/
032790/20121031/110059/1070/1062/20/
032790/20121031/110102/1075/87/20/
032790/20121031/110107/1075/1955/20/
032790/20121031/110108/1075/100/20/
032790/20121031/110113/1075/3390/20/
032790/20121031/110121/1080/169/20/
032790/20121031/110124/1075/144/10/
032790/20121031/110125/1080/796/20/
032790/20121031/110134/1080/1033/20/
032790/20121031/110144/1080/106/20/
032790/20121031/110157/1070/1422/10/
032790/20121031/110157/1065/963/10/
032790/20121031/110157/1060/12402/10/
032790/20121031/110158/1060/200/20/
032790/20121031/110206/1060/5028/20/
032790/20121031/110228/1070/117/20/
032790/20121031/110254/1060/107/10/
032790/20121031/110257/1065/100/20/
032790/20121031/110335/1070/203/20/
032790/20121031/110442/1060/514/10/
032790/20121031/110445/1060/466/10/
032790/20121031/110450/1060/330/20/
032790/20121031/110450/1070/670/20/
032790/20121031/110505/1060/162/10/
032790/20121031/110537/1060/1938/10/
032790/20121031/110656/1055/2001/10/
032790/20121031/110715/1065/98/20/
032790/20121031/110813/1060/1201/10/
032790/20121031/110819/1060/326/10/
032790/20121031/110830/1055/636/10/
032790/20121031/110838/1060/102/20/
032790/20121031/110855/1055/230/10/
032790/20121031/110903/1050/3806/10/
032790/20121031/110907/1055/100/20/
032790/20121031/111017/1050/104/10/
032790/20121031/111211/1050/1071/10/
032790/20121031/111244/1055/445/20/
032790/20121031/111343/1055/1849/10/
032790/20121031/111401/1055/2000/10/
032790/20121031/111401/1060/1482/20/
032790/20121031/111439/1055/3004/10/
032790/20121031/111450/1055/4200/10/
032790/20121031/111520/1055/2003/10/
032790/20121031/111520/1055/1600/10/
032790/20121031/111908/1055/875/10/
032790/20121031/111908/1050/9128/10/
032790/20121031/112409/1055/1013/20/
032790/20121031/112521/1055/81/20/
032790/20121031/112627/1055/86/20/
032790/20121031/113246/1055/119/10/
032790/20121031/113246/1045/2053/10/
032790/20121031/113627/1045/658/10/
032790/20121031/113632/1045/534/10/
032790/20121031/114443/1050/152/20/
032790/20121031/114734/1050/202/20/
032790/20121031/114813/1045/99/10/
032790/20121031/115030/1050/508/20/
032790/20121031/115229/1050/502/20/
032790/20121031/115237/1045/1000/10/
032790/20121031/115732/1050/252/20/
032790/20121031/115812/1050/1045/20/
032790/20121031/121132/1045/294/10/
032790/20121031/121150/1045/102/20/
032790/20121031/121339/1045/2438/10/
032790/20121031/121339/1040/1862/10/
032790/20121031/121339/1035/83/10/
032790/20121031/122635/1040/628/10/
032790/20121031/122649/1040/1001/10/
032790/20121031/123111/1050/1285/20/
032790/20121031/123150/1050/2000/20/
032790/20121031/123225/1050/402/20/
032790/20121031/123320/1050/402/20/
032790/20121031/123512/1045/513/10/
032790/20121031/123512/1040/4593/10/
032790/20121031/123719/1035/1583/10/
032790/20121031/123730/1035/4408/10/
032790/20121031/123923/1035/931/10/
032790/20121031/124252/1040/101/20/
032790/20121031/124322/1035/2780/10/
032790/20121031/124417/1035/3013/20/
032790/20121031/124539/1035/1238/10/
032790/20121031/124539/1030/1337/10/
032790/20121031/125102/1040/261/20/
032790/20121031/125516/1040/2023/20/
032790/20121031/130414/1035/509/10/
032790/20121031/130451/1035/1027/10/
032790/20121031/130750/1035/395/10/
032790/20121031/132353/1040/514/20/
032790/20121031/132432/1040/104/20/
032790/20121031/132718/1045/4246/20/
032790/20121031/132718/1050/2804/20/
032790/20121031/133229/1045/1012/10/
032790/20121031/133412/1045/1003/20/
032790/20121031/133425/1045/127/20/
032790/20121031/133538/1045/1001/10/
032790/20121031/133621/1040/502/10/
032790/20121031/133627/1045/474/10/
032790/20121031/133929/1050/1628/20/
032790/20121031/134016/1050/205/20/
032790/20121031/134028/1050/9526/20/
032790/20121031/134139/1050/149/10/
032790/20121031/134421/1050/160/10/
032790/20121031/134434/1050/100/10/
032790/20121031/134501/1050/501/10/
032790/20121031/134845/1055/5004/20/
032790/20121031/134910/1055/89/20/
032790/20121031/134921/1055/767/20/
032790/20121031/134921/1055/248/10/
032790/20121031/134933/1060/81/20/
032790/20121031/134934/1060/1000/20/
032790/20121031/134936/1060/8987/20/
032790/20121031/135009/1060/148/10/
032790/20121031/135022/1060/1649/10/
032790/20121031/135029/1060/160/20/
032790/20121031/135234/1055/116/10/
032790/20121031/135258/1055/1004/10/
032790/20121031/135320/1060/502/20/
032790/20121031/135452/1055/504/10/
032790/20121031/135731/1055/1015/10/
032790/20121031/135831/1060/114/20/
032790/20121031/140010/1055/125/10/
032790/20121031/140137/1050/790/10/
032790/20121031/140151/1055/100/20/
032790/20121031/140151/1060/900/20/
032790/20121031/140230/1060/1025/20/
032790/20121031/140410/1055/136/10/
032790/20121031/140528/1055/1000/20/
032790/20121031/140803/1050/537/10/
032790/20121031/141056/1050/1061/10/
032790/20121031/141206/1050/1013/10/
032790/20121031/141206/1050/1250/10/
032790/20121031/141258/1045/264/10/
032790/20121031/141358/1045/102/10/
032790/20121031/141512/1045/439/10/
032790/20121031/141648/1045/225/10/
032790/20121031/141705/1045/200/10/
032790/20121031/141721/1050/1500/20/
032790/20121031/141805/1045/1011/10/
032790/20121031/141816/1055/566/20/
032790/20121031/141855/1055/108/20/
032790/20121031/142047/1055/612/20/
032790/20121031/142223/1050/503/10/
032790/20121031/143036/1055/98/20/
032790/20121031/143102/1050/102/10/
032790/20121031/143436/1050/1534/20/
032790/20121031/143957/1050/903/20/
032790/20121031/143958/1045/237/10/
032790/20121031/144247/1050/349/20/
032790/20121031/144412/1050/1038/10/
032790/20121031/144728/1055/81/20/
032790/20121031/144747/1050/1007/10/
032790/20121031/144905/1050/977/20/
032790/20121031/144929/1050/1200/20/
032790/20121031/150000/1045/8645/10/
