032790/20130104/90528/801/914/10/
032790/20130104/90707/805/212/20/
032790/20130104/90807/805/209/20/
032790/20130104/91302/805/116/20/
032790/20130104/91714/805/110/20/
032790/20130104/92049/801/150/10/
032790/20130104/93241/797/89/10/
032790/20130104/94120/800/118/20/
032790/20130104/94421/800/81/20/
032790/20130104/94826/801/266/20/
032790/20130104/94930/802/197/20/
032790/20130104/95126/804/346/20/
032790/20130104/95332/804/117/20/
032790/20130104/95633/804/87/20/
032790/20130104/100617/801/167/10/
032790/20130104/100817/800/691/10/
032790/20130104/101251/799/520/10/
032790/20130104/101331/798/700/10/
032790/20130104/102112/799/121/10/
032790/20130104/102610/798/434/10/
032790/20130104/103718/805/87/20/
032790/20130104/104335/800/109/10/
032790/20130104/104909/805/215/20/
032790/20130104/104917/805/300/20/
032790/20130104/105014/804/210/10/
032790/20130104/105132/804/93/10/
032790/20130104/105132/801/2907/10/
032790/20130104/105153/801/104/10/
032790/20130104/105153/800/3396/10/
032790/20130104/112725/804/301/20/
032790/20130104/112725/805/49300/20/
032790/20130104/112731/805/8000/20/
032790/20130104/112927/806/3121/20/
032790/20130104/112927/807/140/20/
032790/20130104/112927/808/169/20/
032790/20130104/112939/809/153/20/
032790/20130104/112944/809/100/20/
032790/20130104/113009/809/5809/20/
032790/20130104/113013/809/169/20/
032790/20130104/113013/810/1521/20/
032790/20130104/113018/811/115/20/
032790/20130104/113018/812/652/20/
032790/20130104/113018/813/233/20/
032790/20130104/113022/814/257/20/
032790/20130104/113027/810/353/10/
032790/20130104/113027/800/4690/10/
032790/20130104/113523/809/182/20/
032790/20130104/113532/810/1005/20/
032790/20130104/113541/813/115/20/
032790/20130104/113605/810/388/20/
032790/20130104/114032/809/105/20/
032790/20130104/114111/809/88/20/
032790/20130104/114141/809/102/20/
032790/20130104/114210/809/102/20/
032790/20130104/114227/809/113/20/
032790/20130104/114320/809/102/20/
032790/20130104/114409/807/689/10/
032790/20130104/114415/807/313/20/
032790/20130104/114644/807/694/10/
032790/20130104/114904/807/109/20/
032790/20130104/115040/809/492/20/
032790/20130104/115057/810/522/20/
032790/20130104/115159/810/221/20/
032790/20130104/115318/809/245/10/
032790/20130104/115619/809/738/20/
032790/20130104/115641/810/1219/20/
032790/20130104/115949/811/91/20/
032790/20130104/120018/811/618/20/
032790/20130104/120039/810/92/20/
032790/20130104/120544/811/138/20/
032790/20130104/120546/811/571/20/
032790/20130104/120608/808/102/10/
032790/20130104/120702/811/4048/20/
032790/20130104/120711/812/500/20/
032790/20130104/120733/813/151/20/
032790/20130104/120741/813/191/20/
032790/20130104/120745/813/336/20/
032790/20130104/120748/813/257/20/
032790/20130104/120748/813/92/20/
032790/20130104/120750/813/351/20/
032790/20130104/120753/814/468/20/
032790/20130104/120800/815/1580/20/
032790/20130104/120806/816/1022/20/
032790/20130104/120810/817/164/20/
032790/20130104/120812/817/1014/20/
032790/20130104/120812/818/1360/20/
032790/20130104/120812/819/1410/20/
032790/20130104/120812/820/1216/20/
032790/20130104/120817/820/127/20/
032790/20130104/120825/820/1017/20/
032790/20130104/120829/820/280/10/
032790/20130104/120830/821/122/20/
032790/20130104/120831/820/257/10/
032790/20130104/120835/821/667/20/
032790/20130104/120839/821/150/20/
032790/20130104/120841/821/166/20/
032790/20130104/120841/822/134/20/
032790/20130104/120846/822/96/20/
032790/20130104/120855/822/200/20/
032790/20130104/120856/822/84/20/
032790/20130104/120901/822/634/20/
032790/20130104/120904/822/200/20/
032790/20130104/120908/822/307/20/
032790/20130104/120912/823/152/20/
032790/20130104/120945/823/1053/20/
032790/20130104/120945/824/1002/20/
032790/20130104/120954/825/112/20/
032790/20130104/120956/820/502/10/
032790/20130104/120956/816/2998/10/
032790/20130104/121005/824/559/20/
032790/20130104/121115/816/106/10/
032790/20130104/121147/816/147/10/
032790/20130104/121203/820/150/20/
032790/20130104/121221/816/113/10/
032790/20130104/121240/815/1062/10/
032790/20130104/121546/815/470/10/
032790/20130104/121558/820/85/20/
032790/20130104/121708/814/122/10/
032790/20130104/121708/813/214/10/
032790/20130104/121950/818/163/20/
032790/20130104/122012/818/100/20/
032790/20130104/122100/813/105/10/
032790/20130104/122225/814/142/10/
032790/20130104/122445/816/132/10/
032790/20130104/122445/815/214/10/
032790/20130104/122500/813/341/10/
032790/20130104/122500/811/971/10/
032790/20130104/122500/810/188/10/
032790/20130104/123009/809/84/10/
032790/20130104/123032/809/84/10/
032790/20130104/123032/808/1765/10/
032790/20130104/123032/807/3151/10/
032790/20130104/123312/813/127/20/
032790/20130104/123609/809/445/10/
032790/20130104/124104/810/386/10/
032790/20130104/124305/809/188/10/
032790/20130104/124345/810/135/20/
032790/20130104/124902/812/123/20/
032790/20130104/124914/812/102/20/
032790/20130104/124931/812/102/20/
032790/20130104/125002/811/302/10/
032790/20130104/125032/811/136/10/
032790/20130104/125152/812/504/20/
032790/20130104/125158/812/97/20/
032790/20130104/125204/812/87/20/
032790/20130104/125456/813/261/10/
032790/20130104/125503/813/114/10/
032790/20130104/125519/813/102/10/
032790/20130104/125525/813/1700/10/
032790/20130104/125533/816/599/20/
032790/20130104/125533/817/423/20/
032790/20130104/125546/818/107/20/
032790/20130104/125546/818/122/20/
032790/20130104/125606/815/148/10/
032790/20130104/125607/818/100/20/
032790/20130104/125618/815/119/10/
032790/20130104/125634/818/100/20/
032790/20130104/125755/816/168/10/
032790/20130104/130047/818/349/20/
032790/20130104/130054/818/710/10/
032790/20130104/130350/816/131/10/
032790/20130104/130356/816/99/20/
032790/20130104/130416/815/100/10/
032790/20130104/130419/818/99/20/
032790/20130104/130430/818/100/20/
032790/20130104/130441/815/115/10/
032790/20130104/130537/815/3008/10/
032790/20130104/130615/814/2025/10/
032790/20130104/130621/813/1818/10/
032790/20130104/130622/813/1051/10/
032790/20130104/130844/812/430/10/
032790/20130104/130906/812/130/20/
032790/20130104/131000/810/122/10/
032790/20130104/131000/809/5526/10/
032790/20130104/131212/810/431/10/
032790/20130104/131242/810/154/20/
032790/20130104/131300/810/142/10/
032790/20130104/131308/810/189/20/
032790/20130104/131422/814/82/20/
032790/20130104/131534/810/530/10/
032790/20130104/131543/809/340/10/
032790/20130104/132314/809/158/10/
032790/20130104/132314/808/347/10/
032790/20130104/132314/807/299/10/
032790/20130104/133116/806/215/10/
032790/20130104/133121/806/209/10/
032790/20130104/133121/805/954/10/
032790/20130104/133121/804/988/10/
032790/20130104/133152/804/2532/10/
032790/20130104/133200/804/156/20/
032790/20130104/133205/803/314/10/
032790/20130104/133220/804/304/20/
032790/20130104/135051/809/756/20/
032790/20130104/135755/806/156/10/
032790/20130104/140117/806/400/20/
032790/20130104/140659/808/1011/20/
032790/20130104/140734/809/3740/20/
032790/20130104/141036/810/791/20/
032790/20130104/141100/810/740/10/
032790/20130104/141256/809/1013/10/
032790/20130104/141701/809/757/10/
032790/20130104/142307/806/518/10/
032790/20130104/142544/807/384/10/
032790/20130104/142621/807/150/20/
032790/20130104/142723/808/94/20/
032790/20130104/142804/808/90/20/
032790/20130104/142812/808/236/20/
032790/20130104/143147/808/82/20/
032790/20130104/143315/808/451/20/
032790/20130104/143510/810/110/20/
032790/20130104/143614/813/358/20/
032790/20130104/143638/813/203/10/
032790/20130104/143639/813/515/10/
032790/20130104/143646/810/208/10/
032790/20130104/143655/810/1012/10/
032790/20130104/143658/810/200/10/
032790/20130104/143754/810/118/10/
032790/20130104/143815/810/142/10/
032790/20130104/143856/810/101/10/
032790/20130104/144023/810/1007/10/
032790/20130104/144030/810/1218/10/
032790/20130104/144036/810/1033/10/
032790/20130104/144519/808/95/10/
032790/20130104/144519/806/1278/10/
032790/20130104/144519/805/3665/10/
032790/20130104/144927/809/301/20/
032790/20130104/144937/809/204/10/
032790/20130104/150000/807/9298/10/
