032790/20121210/90000/830/110/20/
032790/20121210/90052/822/1521/10/
032790/20121210/91434/812/134/10/
032790/20121210/91434/811/1000/10/
032790/20121210/91434/810/500/10/
032790/20121210/91434/809/1000/10/
032790/20121210/91450/809/366/20/
032790/20121210/91619/809/152/10/
032790/20121210/91619/808/500/10/
032790/20121210/91619/807/1000/10/
032790/20121210/91619/806/349/10/
032790/20121210/91757/809/141/10/
032790/20121210/91757/808/710/10/
032790/20121210/91757/807/315/10/
032790/20121210/91757/806/351/10/
032790/20121210/92017/823/160/20/
032790/20121210/92017/826/221/20/
032790/20121210/92733/817/156/10/
032790/20121210/92759/815/100/10/
032790/20121210/92806/821/726/20/
032790/20121210/92817/822/2000/20/
032790/20121210/94134/814/102/10/
032790/20121210/94548/811/178/10/
032790/20121210/94614/811/132/20/
032790/20121210/94617/811/100/20/
032790/20121210/94620/811/100/20/
032790/20121210/94635/811/103/20/
032790/20121210/95758/813/2072/10/
032790/20121210/95758/812/100/10/
032790/20121210/95758/810/101/10/
032790/20121210/95758/809/112/10/
032790/20121210/95758/808/107/10/
032790/20121210/95758/807/169/10/
032790/20121210/100021/813/122/10/
032790/20121210/100119/813/100/10/
032790/20121210/100216/813/100/10/
032790/20121210/100220/812/1110/10/
032790/20121210/100225/812/90/20/
032790/20121210/100614/812/474/10/
032790/20121210/100630/812/738/10/
032790/20121210/100651/812/740/20/
032790/20121210/100704/812/5000/20/
032790/20121210/100713/811/110/10/
032790/20121210/100734/812/548/20/
032790/20121210/102039/812/84/20/
032790/20121210/102045/812/100/20/
032790/20121210/102047/812/100/20/
032790/20121210/102101/811/92/20/
032790/20121210/102101/810/109/10/
032790/20121210/102238/810/177/10/
032790/20121210/102238/809/120/10/
032790/20121210/102238/808/257/10/
032790/20121210/102238/807/1017/10/
032790/20121210/102238/806/605/10/
032790/20121210/102657/810/110/10/
032790/20121210/102854/812/105/20/
032790/20121210/102854/813/896/20/
032790/20121210/102858/813/104/20/
032790/20121210/102904/813/196/10/
032790/20121210/102936/816/200/20/
032790/20121210/103043/816/4511/10/
032790/20121210/103344/816/125/20/
032790/20121210/103735/816/396/20/
032790/20121210/103806/816/108/10/
032790/20121210/104239/819/224/20/
032790/20121210/104406/820/540/20/
032790/20121210/105043/820/89/20/
032790/20121210/112021/815/90/10/
032790/20121210/112021/813/114/10/
032790/20121210/112021/812/100/10/
032790/20121210/112021/811/110/10/
032790/20121210/112021/810/100/10/
032790/20121210/112021/809/100/10/
032790/20121210/112021/808/100/10/
032790/20121210/112021/807/100/10/
032790/20121210/112021/806/254/10/
032790/20121210/112414/805/1176/10/
032790/20121210/113026/810/109/10/
032790/20121210/113026/809/100/10/
032790/20121210/113026/808/100/10/
032790/20121210/113026/807/100/10/
032790/20121210/113026/806/500/10/
032790/20121210/113026/805/1092/10/
032790/20121210/113347/811/81/20/
032790/20121210/113811/816/92/20/
032790/20121210/114519/812/117/20/
032790/20121210/114535/813/300/20/
032790/20121210/115000/815/122/20/
032790/20121210/120300/814/84/20/
032790/20121210/120755/812/182/10/
032790/20121210/120853/811/100/10/
032790/20121210/121015/810/122/10/
032790/20121210/121015/809/102/10/
032790/20121210/121015/808/110/10/
032790/20121210/121015/807/100/10/
032790/20121210/121015/806/476/10/
032790/20121210/121015/805/2381/10/
032790/20121210/121030/805/511/20/
032790/20121210/121256/811/90/20/
032790/20121210/121807/812/90/20/
032790/20121210/122127/809/132/10/
032790/20121210/122127/808/100/10/
032790/20121210/122127/807/100/10/
032790/20121210/122127/806/100/10/
032790/20121210/122127/805/489/10/
032790/20121210/122142/805/93/20/
032790/20121210/122420/810/90/10/
032790/20121210/122656/810/90/10/
032790/20121210/123604/812/471/20/
032790/20121210/124558/812/108/20/
032790/20121210/125650/812/118/20/
032790/20121210/130037/810/158/10/
032790/20121210/130143/812/2000/20/
032790/20121210/130311/812/267/20/
032790/20121210/130405/812/95/10/
032790/20121210/130655/812/113/10/
032790/20121210/131029/813/1025/20/
032790/20121210/131818/813/317/20/
032790/20121210/132625/815/188/20/
032790/20121210/134030/813/117/10/
032790/20121210/134030/812/97/10/
032790/20121210/134259/812/1000/20/
032790/20121210/135137/811/156/10/
032790/20121210/135137/810/101/10/
032790/20121210/135137/809/101/10/
032790/20121210/135137/808/101/10/
032790/20121210/135137/807/500/10/
032790/20121210/135137/806/107/10/
032790/20121210/135137/805/685/10/
032790/20121210/135812/812/119/10/
032790/20121210/140844/811/101/10/
032790/20121210/140900/812/100/20/
032790/20121210/141045/813/137/20/
032790/20121210/141117/813/136/10/
032790/20121210/141145/812/127/10/
032790/20121210/141214/810/100/10/
032790/20121210/141225/807/122/10/
032790/20121210/141225/806/100/10/
032790/20121210/141225/805/789/10/
032790/20121210/141308/805/680/10/
032790/20121210/141308/804/150/10/
032790/20121210/141308/803/212/10/
032790/20121210/141308/802/1300/10/
032790/20121210/141308/801/1658/10/
032790/20121210/141347/801/1842/10/
032790/20121210/141347/800/33840/10/
032790/20121210/141358/795/110/10/
032790/20121210/141358/793/890/10/
032790/20121210/141402/800/200/20/
032790/20121210/141402/793/211/10/
032790/20121210/141402/791/1010/10/
032790/20121210/141402/790/3360/10/
032790/20121210/141405/791/1001/10/
032790/20121210/141405/790/999/10/
032790/20121210/141417/792/100/10/
032790/20121210/141417/791/90/10/
032790/20121210/141423/791/200/10/
032790/20121210/141430/791/100/10/
032790/20121210/141442/792/100/10/
032790/20121210/141442/791/600/10/
032790/20121210/141529/798/90/20/
032790/20121210/141648/798/90/20/
032790/20121210/141706/798/4144/20/
032790/20121210/141753/797/91/20/
032790/20121210/141812/797/90/20/
032790/20121210/141855/797/90/20/
032790/20121210/141856/797/112/20/
032790/20121210/141936/798/9294/20/
032790/20121210/141936/800/14169/20/
032790/20121210/142300/809/801/20/
032790/20121210/142446/809/990/20/
032790/20121210/143803/805/1001/20/
032790/20121210/143816/809/1000/20/
032790/20121210/143828/803/298/10/
032790/20121210/143828/802/1001/10/
032790/20121210/143828/801/125/10/
032790/20121210/143828/800/3672/10/
032790/20121210/144101/808/831/20/
032790/20121210/144112/808/100/10/
032790/20121210/144114/809/1248/20/
032790/20121210/144120/809/100/10/
032790/20121210/144133/812/118/20/
032790/20121210/144133/813/153/20/
032790/20121210/144133/814/118/20/
032790/20121210/144133/815/133/20/
032790/20121210/144133/816/897/20/
032790/20121210/144219/816/231/10/
032790/20121210/144225/816/100/10/
032790/20121210/144231/816/250/10/
032790/20121210/144243/816/1000/10/
032790/20121210/144600/810/200/10/
032790/20121210/144614/810/301/10/
032790/20121210/144614/809/200/10/
032790/20121210/144712/810/1001/10/
032790/20121210/144716/809/452/10/
032790/20121210/144812/809/246/20/
032790/20121210/144825/809/301/10/
032790/20121210/150000/812/5093/20/
