032790/20130131/90000/707/510/10/
032790/20130131/90106/708/117/10/
032790/20130131/90314/708/139/10/
032790/20130131/90314/707/320/10/
032790/20130131/90611/710/104/20/
032790/20130131/90644/707/1000/10/
032790/20130131/90903/710/100/20/
032790/20130131/90930/710/1612/10/
032790/20130131/90958/710/249/20/
032790/20130131/91148/707/118/10/
032790/20130131/91148/705/372/10/
032790/20130131/91321/707/1211/10/
032790/20130131/91936/707/242/10/
032790/20130131/92056/707/1309/10/
032790/20130131/92108/707/550/10/
032790/20130131/92204/705/1540/10/
032790/20130131/92352/707/480/10/
032790/20130131/92431/705/235/10/
032790/20130131/92458/701/3201/10/
032790/20130131/92459/701/100/20/
032790/20130131/92511/701/225/20/
032790/20130131/92511/702/412/20/
032790/20130131/92557/707/300/10/
032790/20130131/92557/702/363/10/
032790/20130131/92557/700/937/10/
032790/20130131/92605/707/274/20/
032790/20130131/92619/707/226/10/
032790/20130131/92758/703/100/10/
032790/20130131/92935/704/120/10/
032790/20130131/93022/700/587/10/
032790/20130131/93022/700/100/20/
032790/20130131/93035/700/344/20/
032790/20130131/93046/700/1000/10/
032790/20130131/93104/701/92/20/
032790/20130131/93104/704/950/20/
032790/20130131/93114/704/969/10/
032790/20130131/93135/704/950/20/
032790/20130131/93250/702/90/10/
032790/20130131/93521/703/324/20/
032790/20130131/93620/703/114/20/
032790/20130131/93823/703/546/20/
032790/20130131/93919/705/106/20/
032790/20130131/94055/705/181/20/
032790/20130131/94450/705/108/20/
032790/20130131/95352/704/84/10/
032790/20130131/100652/704/129/20/
032790/20130131/100704/704/102/20/
032790/20130131/100716/704/102/20/
032790/20130131/100731/704/102/20/
032790/20130131/101650/704/84/20/
032790/20130131/102004/704/162/20/
032790/20130131/102355/704/118/20/
032790/20130131/102648/704/103/20/
032790/20130131/103026/704/158/20/
032790/20130131/103302/704/181/20/
032790/20130131/103319/705/5000/20/
032790/20130131/103333/705/3023/20/
032790/20130131/103449/705/2721/20/
032790/20130131/103501/705/110/10/
032790/20130131/103505/705/114/10/
032790/20130131/103511/705/110/10/
032790/20130131/103629/705/140/20/
032790/20130131/103631/706/100/20/
032790/20130131/104004/705/140/20/
032790/20130131/104153/705/212/20/
032790/20130131/104208/706/1716/20/
032790/20130131/104215/706/318/10/
032790/20130131/104221/707/982/20/
032790/20130131/104240/708/399/20/
032790/20130131/104258/708/111/20/
032790/20130131/104316/708/120/10/
032790/20130131/104320/709/122/20/
032790/20130131/104332/709/799/20/
032790/20130131/104341/710/1989/20/
032790/20130131/104357/708/96/20/
032790/20130131/104402/709/81/20/
032790/20130131/104407/709/473/20/
032790/20130131/104415/710/81/20/
032790/20130131/104421/710/98/20/
032790/20130131/104423/711/1407/20/
032790/20130131/104427/713/143/20/
032790/20130131/104435/713/92/20/
032790/20130131/104456/713/1454/20/
032790/20130131/104458/715/112/20/
032790/20130131/104513/720/1564/20/
032790/20130131/104522/720/556/20/
032790/20130131/104617/725/353/20/
032790/20130131/104716/714/144/10/
032790/20130131/104727/719/114/20/
032790/20130131/104800/713/107/10/
032790/20130131/104843/711/111/10/
032790/20130131/104902/713/90/20/
032790/20130131/105928/710/1801/20/
032790/20130131/110345/710/147/10/
032790/20130131/110403/710/100/10/
032790/20130131/111117/710/151/10/
032790/20130131/111122/710/100/10/
032790/20130131/111127/709/100/10/
032790/20130131/111134/708/87/10/
032790/20130131/111145/707/539/10/
032790/20130131/111145/706/549/10/
032790/20130131/111145/704/414/10/
032790/20130131/111738/707/95/10/
032790/20130131/112254/709/89/20/
032790/20130131/112418/714/116/20/
032790/20130131/113226/712/3027/20/
032790/20130131/113238/712/3000/20/
032790/20130131/113249/712/1000/20/
032790/20130131/113301/712/3000/20/
032790/20130131/113326/712/716/10/
032790/20130131/113333/713/92/20/
032790/20130131/113410/712/88/10/
032790/20130131/114244/712/125/10/
032790/20130131/114513/711/179/10/
032790/20130131/115307/714/89/20/
032790/20130131/115543/714/206/20/
032790/20130131/115812/714/86/10/
032790/20130131/121304/712/242/10/
032790/20130131/121449/711/250/10/
032790/20130131/122311/710/96/20/
032790/20130131/122325/708/112/10/
032790/20130131/122330/708/100/10/
032790/20130131/122455/709/88/20/
032790/20130131/123742/710/89/20/
032790/20130131/123804/710/1987/20/
032790/20130131/124156/708/120/10/
032790/20130131/124322/710/180/20/
032790/20130131/124400/707/100/10/
032790/20130131/131508/708/160/20/
032790/20130131/131958/707/500/10/
032790/20130131/132010/707/146/20/
032790/20130131/132058/707/85/20/
032790/20130131/132152/706/1000/10/
032790/20130131/132159/705/3058/10/
032790/20130131/132159/704/3011/10/
032790/20130131/132159/703/1002/10/
032790/20130131/132159/702/1488/10/
032790/20130131/132220/702/1441/20/
032790/20130131/132305/703/483/20/
032790/20130131/132331/701/2000/10/
032790/20130131/133027/706/101/20/
032790/20130131/133433/702/100/10/
032790/20130131/133505/701/1217/10/
032790/20130131/133519/700/500/10/
032790/20130131/133519/700/4737/10/
032790/20130131/134549/701/99/20/
032790/20130131/135039/700/420/10/
032790/20130131/135127/699/115/10/
032790/20130131/135127/698/181/10/
032790/20130131/135127/697/261/10/
032790/20130131/135240/700/553/20/
032790/20130131/135520/699/111/10/
032790/20130131/140110/697/250/10/
032790/20130131/140110/696/294/10/
032790/20130131/140116/696/500/10/
032790/20130131/140502/698/131/20/
032790/20130131/140510/698/707/20/
032790/20130131/140524/698/142/20/
032790/20130131/141332/697/343/10/
032790/20130131/141412/697/707/10/
032790/20130131/141940/698/143/20/
032790/20130131/141953/698/124/20/
032790/20130131/142048/698/333/20/
032790/20130131/142105/698/333/20/
032790/20130131/142119/698/333/20/
032790/20130131/142207/698/111/20/
032790/20130131/142242/698/347/20/
032790/20130131/142304/698/2011/20/
032790/20130131/142639/699/411/20/
032790/20130131/142708/699/220/20/
032790/20130131/142711/699/167/20/
032790/20130131/142829/700/95/20/
032790/20130131/142901/700/92/20/
032790/20130131/142946/697/458/10/
032790/20130131/142946/696/987/10/
032790/20130131/142946/695/827/10/
032790/20130131/142946/693/591/10/
032790/20130131/142946/692/137/10/
032790/20130131/144231/699/85/20/
032790/20130131/144648/698/82/20/
032790/20130131/144722/693/643/10/
032790/20130131/144722/692/590/10/
032790/20130131/144909/698/142/20/
032790/20130131/144909/699/901/20/
032790/20130131/144909/700/8908/20/
032790/20130131/144909/701/91/20/
032790/20130131/144958/701/92/20/
032790/20130131/144959/701/100/20/
032790/20130131/150000/701/2402/20/
