032790/20130114/90116/780/300/20/
032790/20130114/90316/773/7044/10/
032790/20130114/90429/773/7988/10/
032790/20130114/90452/772/3002/10/
032790/20130114/90827/772/1019/10/
032790/20130114/90827/770/2027/10/
032790/20130114/91633/773/1997/20/
032790/20130114/92039/770/3020/10/
032790/20130114/92254/772/316/10/
032790/20130114/92409/771/324/10/
032790/20130114/92409/770/112/10/
032790/20130114/92534/770/1465/20/
032790/20130114/92616/770/458/20/
032790/20130114/93325/773/390/10/
032790/20130114/93332/772/802/10/
032790/20130114/93720/772/1154/20/
032790/20130114/93814/771/1594/10/
032790/20130114/93814/770/406/10/
032790/20130114/94145/770/88/20/
032790/20130114/94340/770/412/20/
032790/20130114/95217/770/785/10/
032790/20130114/95219/770/408/20/
032790/20130114/95226/771/492/10/
032790/20130114/95335/771/141/20/
032790/20130114/95912/772/494/20/
032790/20130114/100001/771/88/20/
032790/20130114/100322/770/92/20/
032790/20130114/100401/769/125/10/
032790/20130114/100505/770/303/20/
032790/20130114/101119/771/504/20/
032790/20130114/101130/771/502/10/
032790/20130114/101159/771/257/10/
032790/20130114/101216/771/252/10/
032790/20130114/101408/769/165/10/
032790/20130114/101426/770/438/20/
032790/20130114/101520/769/161/10/
032790/20130114/101700/769/92/10/
032790/20130114/101700/768/1999/10/
032790/20130114/101700/767/432/10/
032790/20130114/101726/770/2486/20/
032790/20130114/101918/768/121/10/
032790/20130114/101918/767/5082/10/
032790/20130114/102948/767/1022/10/
032790/20130114/103122/767/943/10/
032790/20130114/103200/766/6374/10/
032790/20130114/103310/765/812/10/
032790/20130114/103314/765/4791/10/
032790/20130114/103331/765/794/20/
032790/20130114/103945/764/1592/10/
032790/20130114/103945/763/5861/10/
032790/20130114/104211/766/88/20/
032790/20130114/104535/763/1005/10/
032790/20130114/104612/763/1000/20/
032790/20130114/104648/762/1290/10/
032790/20130114/104648/761/3983/10/
032790/20130114/104715/761/3037/10/
032790/20130114/104742/761/965/20/
032790/20130114/104821/761/165/10/
032790/20130114/104828/760/8772/10/
032790/20130114/104945/760/3874/10/
032790/20130114/105008/760/3024/10/
032790/20130114/105024/760/1976/20/
032790/20130114/105209/765/129/20/
032790/20130114/105340/760/1008/20/
032790/20130114/105410/759/193/10/
032790/20130114/105410/758/1207/10/
032790/20130114/105636/758/2000/10/
032790/20130114/105718/758/1000/10/
032790/20130114/105842/758/8000/10/
032790/20130114/105921/758/457/10/
032790/20130114/105921/757/105/10/
032790/20130114/105959/757/122/20/
032790/20130114/110101/756/243/10/
032790/20130114/110101/755/505/10/
032790/20130114/110101/754/13000/10/
032790/20130114/110101/753/2001/10/
032790/20130114/110101/752/3020/10/
032790/20130114/110101/751/7000/10/
032790/20130114/110101/750/6269/10/
032790/20130114/110123/750/1322/10/
032790/20130114/110131/750/3000/10/
032790/20130114/110149/750/3987/10/
032790/20130114/110452/750/123/10/
032790/20130114/110527/750/460/10/
032790/20130114/110723/757/1834/20/
032790/20130114/111113/760/90/20/
032790/20130114/111223/759/96/10/
032790/20130114/111844/760/482/20/
032790/20130114/113229/764/110/20/
032790/20130114/113408/758/100/10/
032790/20130114/113415/756/104/10/
032790/20130114/113557/756/97/10/
032790/20130114/113557/755/119/10/
032790/20130114/113557/752/180/10/
032790/20130114/113557/751/170/10/
032790/20130114/113557/750/441/10/
032790/20130114/113700/752/143/10/
032790/20130114/113700/751/1857/10/
032790/20130114/114413/752/130/10/
032790/20130114/114413/751/114/10/
032790/20130114/114413/750/320/10/
032790/20130114/114421/750/438/20/
032790/20130114/115304/759/94/20/
032790/20130114/115526/751/178/10/
032790/20130114/115526/750/822/10/
032790/20130114/120843/755/132/20/
032790/20130114/121023/755/130/10/
032790/20130114/121645/753/271/10/
032790/20130114/121810/753/99/10/
032790/20130114/122202/753/251/10/
032790/20130114/122639/755/81/20/
032790/20130114/123033/753/1534/10/
032790/20130114/123033/752/5057/10/
032790/20130114/123044/751/480/10/
032790/20130114/123443/755/170/10/
032790/20130114/123447/755/101/10/
032790/20130114/123452/755/101/10/
032790/20130114/123614/755/315/10/
032790/20130114/123650/755/121/10/
032790/20130114/123841/755/165/10/
032790/20130114/124414/755/177/10/
032790/20130114/124417/755/100/10/
032790/20130114/124418/755/365/10/
032790/20130114/124614/754/1074/10/
032790/20130114/124849/752/101/10/
032790/20130114/125156/752/1111/10/
032790/20130114/125202/751/81/10/
032790/20130114/125258/752/119/20/
032790/20130114/125359/752/1524/20/
032790/20130114/125521/752/118/20/
032790/20130114/125526/752/2400/20/
032790/20130114/125533/752/100/20/
032790/20130114/125551/752/1018/20/
032790/20130114/125556/752/220/20/
032790/20130114/125608/752/137/20/
032790/20130114/130522/752/1036/10/
032790/20130114/130739/755/576/20/
032790/20130114/131030/756/102/20/
032790/20130114/131033/756/85/20/
032790/20130114/131040/756/100/20/
032790/20130114/131233/756/602/20/
032790/20130114/131316/757/232/20/
032790/20130114/131358/758/132/20/
032790/20130114/131436/759/157/20/
032790/20130114/131436/760/100/20/
032790/20130114/131436/761/100/20/
032790/20130114/131450/761/145/10/
032790/20130114/132629/762/117/20/
032790/20130114/133033/763/91/20/
032790/20130114/133248/763/157/20/
032790/20130114/133248/764/397/20/
032790/20130114/133248/765/900/20/
032790/20130114/133252/765/548/10/
032790/20130114/133304/765/452/20/
032790/20130114/133304/766/1912/20/
032790/20130114/133304/769/1000/20/
032790/20130114/133304/769/1639/10/
032790/20130114/134853/767/93/20/
032790/20130114/135139/766/130/10/
032790/20130114/135432/766/134/20/
032790/20130114/135534/766/251/20/
032790/20130114/135736/766/251/20/
032790/20130114/140527/765/251/20/
032790/20130114/140621/765/100/20/
032790/20130114/140627/765/100/20/
032790/20130114/140643/765/250/20/
032790/20130114/140807/767/995/20/
032790/20130114/140926/762/376/10/
032790/20130114/140942/767/100/20/
032790/20130114/140942/768/1318/20/
032790/20130114/141031/768/102/10/
032790/20130114/141036/769/598/20/
032790/20130114/141036/769/100/10/
032790/20130114/141041/769/100/10/
032790/20130114/141046/769/102/10/
032790/20130114/141050/769/102/10/
032790/20130114/141051/770/100/20/
032790/20130114/141112/770/871/20/
032790/20130114/141126/770/122/20/
032790/20130114/141314/770/502/10/
032790/20130114/141318/770/380/10/
032790/20130114/141345/770/120/20/
032790/20130114/141417/770/384/10/
032790/20130114/141517/770/118/20/
032790/20130114/141706/771/123/20/
032790/20130114/141755/770/1014/10/
032790/20130114/141952/771/92/20/
032790/20130114/142104/770/105/20/
032790/20130114/142111/770/302/10/
032790/20130114/142252/770/108/10/
032790/20130114/142504/770/203/20/
032790/20130114/142529/770/312/10/
032790/20130114/142548/770/190/20/
032790/20130114/142548/770/310/10/
032790/20130114/142548/769/3690/10/
032790/20130114/142609/769/950/10/
032790/20130114/143031/769/529/10/
032790/20130114/143206/770/871/20/
032790/20130114/143216/770/144/10/
032790/20130114/143231/770/358/20/
032790/20130114/143246/770/111/10/
032790/20130114/143303/770/546/10/
032790/20130114/143309/771/1490/20/
032790/20130114/143330/772/1110/20/
032790/20130114/143334/772/202/10/
032790/20130114/143349/773/3003/20/
032790/20130114/143400/773/546/10/
032790/20130114/143401/773/457/10/
032790/20130114/143424/773/564/10/
032790/20130114/143434/773/202/10/
032790/20130114/143447/773/302/10/
032790/20130114/143500/773/244/20/
032790/20130114/143514/774/502/20/
032790/20130114/143531/774/502/20/
032790/20130114/143544/774/502/20/
032790/20130114/143553/774/1502/20/
032790/20130114/143611/774/3002/20/
032790/20130114/143638/774/502/20/
032790/20130114/143656/774/502/20/
032790/20130114/143718/773/102/10/
032790/20130114/143751/774/1002/20/
032790/20130114/143820/774/5002/20/
032790/20130114/143828/774/102/20/
032790/20130114/143833/775/100/20/
032790/20130114/143845/775/3184/20/
032790/20130114/143936/774/170/10/
032790/20130114/143949/774/302/10/
032790/20130114/144012/773/536/10/
032790/20130114/144023/774/466/20/
032790/20130114/144029/774/367/10/
032790/20130114/144201/774/2002/20/
032790/20130114/144215/774/113/20/
032790/20130114/144249/775/3022/20/
032790/20130114/144305/775/15875/20/
032790/20130114/144305/777/8127/20/
032790/20130114/144316/774/100/20/
032790/20130114/144456/776/104/20/
032790/20130114/144533/776/402/10/
032790/20130114/150000/776/3218/10/
