032790/20130103/90125/808/160/20/
032790/20130103/90144/808/150/20/
032790/20130103/90200/808/113/20/
032790/20130103/90207/809/130/20/
032790/20130103/90210/810/3000/20/
032790/20130103/90218/810/97/20/
032790/20130103/90218/812/123/20/
032790/20130103/90220/813/87/20/
032790/20130103/90220/815/113/20/
032790/20130103/90222/815/87/20/
032790/20130103/90222/817/100/20/
032790/20130103/90232/819/100/20/
032790/20130103/90252/825/255/20/
032790/20130103/90305/810/508/20/
032790/20130103/91116/809/119/10/
032790/20130103/91152/809/100/10/
032790/20130103/91714/810/103/10/
032790/20130103/92020/810/1000/10/
032790/20130103/92121/810/1068/10/
032790/20130103/92442/812/97/20/
032790/20130103/92643/810/90/10/
032790/20130103/92906/809/114/10/
032790/20130103/93018/808/1298/10/
032790/20130103/93109/808/100/10/
032790/20130103/93127/807/1200/10/
032790/20130103/93139/806/1000/10/
032790/20130103/93358/805/252/10/
032790/20130103/93408/802/1200/10/
032790/20130103/93418/801/2002/10/
032790/20130103/93947/810/506/20/
032790/20130103/95424/802/728/10/
032790/20130103/95424/801/200/10/
032790/20130103/95424/800/1758/10/
032790/20130103/95424/799/1051/10/
032790/20130103/95424/798/275/10/
032790/20130103/101628/807/1238/20/
032790/20130103/102605/802/1100/10/
032790/20130103/102624/801/1000/10/
032790/20130103/102704/802/2868/20/
032790/20130103/103451/801/1504/10/
032790/20130103/103454/801/502/20/
032790/20130103/103528/802/824/10/
032790/20130103/103639/802/87/20/
032790/20130103/103945/801/1060/10/
032790/20130103/104408/802/558/20/
032790/20130103/104926/801/131/10/
032790/20130103/105004/800/1300/10/
032790/20130103/110054/800/1607/10/
032790/20130103/110223/800/1200/10/
032790/20130103/110233/799/1100/10/
032790/20130103/110249/798/2000/10/
032790/20130103/110923/799/880/10/
032790/20130103/113500/803/216/20/
032790/20130103/113558/801/189/10/
032790/20130103/113642/800/2000/10/
032790/20130103/114449/801/300/20/
032790/20130103/115028/802/636/20/
032790/20130103/115110/802/94/20/
032790/20130103/115208/802/107/20/
032790/20130103/115353/802/174/20/
032790/20130103/115510/801/500/10/
032790/20130103/115611/800/600/10/
032790/20130103/115712/800/995/10/
032790/20130103/115831/800/100/10/
032790/20130103/120254/800/560/20/
032790/20130103/120258/800/500/20/
032790/20130103/120302/800/107/20/
032790/20130103/120601/800/460/10/
032790/20130103/121703/800/190/10/
032790/20130103/122234/800/525/10/
032790/20130103/122315/800/100/20/
032790/20130103/122321/800/500/20/
032790/20130103/122329/800/85/20/
032790/20130103/123550/804/140/20/
032790/20130103/125904/803/154/20/
032790/20130103/130335/803/500/20/
032790/20130103/130452/803/900/20/
032790/20130103/130601/804/173/20/
032790/20130103/130710/804/979/20/
032790/20130103/130714/804/900/20/
032790/20130103/130722/804/600/20/
032790/20130103/130904/805/660/20/
032790/20130103/130908/805/663/20/
032790/20130103/130913/805/600/20/
032790/20130103/131301/805/642/20/
032790/20130103/131313/805/263/20/
032790/20130103/131336/806/606/20/
032790/20130103/131340/806/600/20/
032790/20130103/131348/806/294/20/
032790/20130103/131440/807/100/20/
032790/20130103/132008/807/260/20/
032790/20130103/132106/807/106/20/
032790/20130103/132956/807/89/20/
032790/20130103/133253/806/209/20/
032790/20130103/133433/804/89/10/
032790/20130103/133433/803/220/10/
032790/20130103/133433/802/580/10/
032790/20130103/133433/801/2051/10/
032790/20130103/133433/800/93/10/
032790/20130103/133646/805/123/20/
032790/20130103/133754/805/95/20/
032790/20130103/134849/805/110/20/
032790/20130103/134944/802/2000/10/
032790/20130103/135001/805/394/20/
032790/20130103/135011/806/984/20/
032790/20130103/135011/807/996/20/
032790/20130103/135011/808/517/20/
032790/20130103/135011/809/110/20/
032790/20130103/135105/802/1055/10/
032790/20130103/135112/808/150/20/
032790/20130103/135112/809/1150/20/
032790/20130103/140506/808/86/20/
032790/20130103/142340/808/456/20/
032790/20130103/143150/803/81/10/
032790/20130103/143150/801/243/10/
032790/20130103/144417/802/766/10/
032790/20130103/144417/801/1313/10/
032790/20130103/144441/801/327/10/
032790/20130103/144635/801/3001/10/
032790/20130103/144714/801/917/10/
032790/20130103/144722/801/85/20/
032790/20130103/144944/801/501/10/
032790/20130103/150000/801/3963/10/
