032790/20121127/90000/940/4402/10/
032790/20121127/90001/960/147/10/
032790/20121127/90001/961/138/10/
032790/20121127/90055/942/417/10/
032790/20121127/90137/941/504/10/
032790/20121127/90234/943/111/10/
032790/20121127/90253/941/180/10/
032790/20121127/90253/940/750/10/
032790/20121127/90253/933/500/10/
032790/20121127/90253/932/733/10/
032790/20121127/90339/933/294/10/
032790/20121127/90402/933/202/10/
032790/20121127/90417/932/966/10/
032790/20121127/90433/930/545/10/
032790/20121127/90501/931/155/10/
032790/20121127/90501/930/383/10/
032790/20121127/90609/931/101/10/
032790/20121127/90648/931/421/10/
032790/20121127/90649/931/2021/20/
032790/20121127/90806/939/2001/10/
032790/20121127/90810/939/193/10/
032790/20121127/90814/931/155/10/
032790/20121127/90820/931/1741/10/
032790/20121127/90821/931/1260/20/
032790/20121127/90832/930/190/10/
032790/20121127/90832/928/1050/10/
032790/20121127/90836/928/164/20/
032790/20121127/90850/928/81/20/
032790/20121127/90942/923/213/10/
032790/20121127/90942/922/500/10/
032790/20121127/90942/921/300/10/
032790/20121127/91001/921/311/10/
032790/20121127/91005/921/90/10/
032790/20121127/91008/920/474/10/
032790/20121127/91014/920/228/10/
032790/20121127/91024/920/200/10/
032790/20121127/91154/921/516/10/
032790/20121127/91154/920/1625/10/
032790/20121127/91154/919/172/10/
032790/20121127/91341/921/308/10/
032790/20121127/91352/921/243/10/
032790/20121127/91357/921/524/20/
032790/20121127/91357/926/811/20/
032790/20121127/91415/926/250/10/
032790/20121127/91426/926/538/10/
032790/20121127/91436/927/277/20/
032790/20121127/91436/928/100/20/
032790/20121127/91719/926/257/10/
032790/20121127/91828/929/92/20/
032790/20121127/91852/926/502/10/
032790/20121127/91912/926/83/10/
032790/20121127/91940/922/432/10/
032790/20121127/91940/921/1111/10/
032790/20121127/91940/920/1023/10/
032790/20121127/91940/919/1000/10/
032790/20121127/91953/918/108/10/
032790/20121127/92016/916/132/10/
032790/20121127/92016/915/100/10/
032790/20121127/92016/914/100/10/
032790/20121127/92016/911/1100/10/
032790/20121127/92016/910/1100/10/
032790/20121127/92024/910/1000/10/
032790/20121127/92133/912/101/10/
032790/20121127/92133/911/547/10/
032790/20121127/92133/910/1340/10/
032790/20121127/92257/911/209/10/
032790/20121127/92257/910/736/10/
032790/20121127/92257/909/200/10/
032790/20121127/92257/908/200/10/
032790/20121127/92257/907/1100/10/
032790/20121127/92257/906/600/10/
032790/20121127/92257/905/600/10/
032790/20121127/92257/904/9074/10/
032790/20121127/92309/905/100/10/
032790/20121127/92309/904/188/10/
032790/20121127/92343/905/102/10/
032790/20121127/92343/904/1458/10/
032790/20121127/92343/903/100/10/
032790/20121127/92343/902/100/10/
032790/20121127/92343/901/820/10/
032790/20121127/92343/900/663/10/
032790/20121127/92343/900/2200/10/
032790/20121127/92402/901/260/10/
032790/20121127/92407/901/1204/20/
032790/20121127/92449/901/174/10/
032790/20121127/92528/901/2319/10/
032790/20121127/92529/901/3503/20/
032790/20121127/92549/900/1299/10/
032790/20121127/92618/900/140/20/
032790/20121127/92618/901/7469/20/
032790/20121127/92620/901/5000/20/
032790/20121127/92624/901/100/20/
032790/20121127/92724/901/168/20/
032790/20121127/92748/900/83/10/
032790/20121127/92748/891/342/10/
032790/20121127/92759/901/1680/20/
032790/20121127/92828/901/511/20/
032790/20121127/92830/901/1000/20/
032790/20121127/92844/901/511/20/
032790/20121127/92846/901/1000/20/
032790/20121127/92902/901/100/20/
032790/20121127/92906/901/6000/20/
032790/20121127/92908/901/1000/20/
032790/20121127/92915/901/550/20/
032790/20121127/92915/901/115/20/
032790/20121127/92920/901/1000/20/
032790/20121127/92922/901/415/20/
032790/20121127/92924/901/500/20/
032790/20121127/92924/901/1000/20/
032790/20121127/92926/901/180/20/
032790/20121127/92939/901/113/20/
032790/20121127/92949/901/500/20/
032790/20121127/92953/901/2000/20/
032790/20121127/92955/901/1000/20/
032790/20121127/92955/901/1000/20/
032790/20121127/92955/901/500/20/
032790/20121127/92956/901/806/20/
032790/20121127/92956/901/1594/10/
032790/20121127/92956/900/1490/10/
032790/20121127/92956/891/506/10/
032790/20121127/92956/890/110/10/
032790/20121127/93058/899/127/20/
032790/20121127/93104/899/120/20/
032790/20121127/93110/899/100/20/
032790/20121127/93111/899/1000/20/
032790/20121127/93127/899/90/20/
032790/20121127/93244/906/1419/20/
032790/20121127/93414/902/1031/10/
032790/20121127/93531/906/320/20/
032790/20121127/93654/906/249/20/
032790/20121127/93801/905/463/10/
032790/20121127/93815/906/500/20/
032790/20121127/93840/906/213/20/
032790/20121127/93848/907/1123/20/
032790/20121127/93945/907/116/10/
032790/20121127/93950/907/2000/10/
032790/20121127/94016/907/200/20/
032790/20121127/94339/909/172/20/
032790/20121127/94534/909/100/20/
032790/20121127/94534/910/100/20/
032790/20121127/94623/911/101/20/
032790/20121127/95019/907/2351/10/
032790/20121127/95443/906/552/20/
032790/20121127/95518/904/550/10/
032790/20121127/95557/904/546/10/
032790/20121127/95557/903/505/10/
032790/20121127/95557/906/323/20/
032790/20121127/95645/906/96/10/
032790/20121127/95646/907/500/20/
032790/20121127/95702/907/84/20/
032790/20121127/95758/906/354/10/
032790/20121127/95758/902/1706/10/
032790/20121127/95758/901/2943/10/
032790/20121127/100639/904/515/10/
032790/20121127/100639/903/221/10/
032790/20121127/100639/902/579/10/
032790/20121127/101200/902/106/10/
032790/20121127/101241/902/563/10/
032790/20121127/101311/902/110/20/
032790/20121127/101406/902/1029/10/
032790/20121127/101554/903/501/10/
032790/20121127/101902/906/2598/20/
032790/20121127/102235/907/86/20/
032790/20121127/102247/907/431/20/
032790/20121127/102401/907/1536/20/
032790/20121127/102446/907/131/20/
032790/20121127/102509/904/1638/10/
032790/20121127/102509/903/322/10/
032790/20121127/102757/909/317/10/
032790/20121127/102821/909/122/10/
032790/20121127/102930/910/563/20/
032790/20121127/103053/908/100/10/
032790/20121127/103111/908/100/10/
032790/20121127/103410/907/1016/20/
032790/20121127/103622/907/202/10/
032790/20121127/103711/908/190/20/
032790/20121127/103726/907/1500/10/
032790/20121127/103825/907/300/10/
032790/20121127/103836/907/200/10/
032790/20121127/104028/907/807/10/
032790/20121127/104127/907/193/20/
032790/20121127/104318/906/197/10/
032790/20121127/104332/905/1310/10/
032790/20121127/104613/907/224/20/
032790/20121127/104905/905/3671/10/
032790/20121127/104924/905/300/10/
032790/20121127/105033/905/500/10/
032790/20121127/105105/905/393/10/
032790/20121127/105118/905/200/10/
032790/20121127/105132/905/200/10/
032790/20121127/105238/906/160/10/
032790/20121127/105238/905/454/10/
032790/20121127/105711/907/252/20/
032790/20121127/105733/908/200/20/
032790/20121127/105747/908/468/20/
032790/20121127/105850/911/234/20/
032790/20121127/105859/912/2002/20/
032790/20121127/105934/915/100/20/
032790/20121127/110104/915/1138/20/
032790/20121127/110114/915/1003/10/
032790/20121127/110119/916/197/20/
032790/20121127/110131/917/85/20/
032790/20121127/110134/917/82/20/
032790/20121127/110136/917/88/20/
032790/20121127/110138/917/82/20/
032790/20121127/110141/917/89/20/
032790/20121127/110143/917/83/20/
032790/20121127/110145/917/81/20/
032790/20121127/110147/917/82/20/
032790/20121127/110149/917/81/20/
032790/20121127/110151/917/81/20/
032790/20121127/110153/917/81/20/
032790/20121127/110156/917/81/20/
032790/20121127/110158/917/81/20/
032790/20121127/110200/917/81/20/
032790/20121127/110202/917/81/20/
032790/20121127/110204/917/84/20/
032790/20121127/110206/917/85/20/
032790/20121127/110208/917/88/20/
032790/20121127/110211/917/85/20/
032790/20121127/110214/917/81/20/
032790/20121127/110221/917/82/20/
032790/20121127/110223/917/83/20/
032790/20121127/110225/915/81/10/
032790/20121127/110230/917/83/20/
032790/20121127/110232/915/81/10/
032790/20121127/110234/917/82/20/
032790/20121127/110237/917/82/20/
032790/20121127/110239/919/89/20/
032790/20121127/110241/919/81/20/
032790/20121127/110244/919/87/20/
032790/20121127/110248/915/734/10/
032790/20121127/110256/915/81/20/
032790/20121127/110258/915/137/20/
032790/20121127/110303/907/623/10/
032790/20121127/110412/907/553/10/
032790/20121127/110425/907/100/10/
032790/20121127/110436/906/280/10/
032790/20121127/110445/906/99/20/
032790/20121127/110638/906/101/10/
032790/20121127/110739/906/207/10/
032790/20121127/111100/913/7846/20/
032790/20121127/111113/913/2229/10/
032790/20121127/111116/915/230/20/
032790/20121127/111134/915/248/20/
032790/20121127/111139/917/100/20/
032790/20121127/111141/919/115/20/
032790/20121127/111148/919/415/20/
032790/20121127/111152/918/100/20/
032790/20121127/111158/920/101/20/
032790/20121127/111200/920/89/20/
032790/20121127/111209/922/120/20/
032790/20121127/111223/923/301/20/
032790/20121127/111227/922/100/20/
032790/20121127/111231/924/100/20/
032790/20121127/111235/923/100/20/
032790/20121127/111237/925/100/20/
032790/20121127/111237/926/300/20/
032790/20121127/111237/928/101/20/
032790/20121127/111301/917/83/20/
032790/20121127/111336/924/258/20/
032790/20121127/111336/925/115/20/
032790/20121127/111408/915/89/10/
032790/20121127/111421/919/2100/20/
032790/20121127/111458/919/933/10/
032790/20121127/111550/914/141/10/
032790/20121127/111550/913/8119/10/
032790/20121127/111740/914/92/10/
032790/20121127/111805/914/310/10/
032790/20121127/111836/914/300/10/
032790/20121127/111852/914/100/10/
032790/20121127/111907/914/540/10/
032790/20121127/111952/914/90/10/
032790/20121127/112045/913/4739/10/
032790/20121127/112203/911/300/20/
032790/20121127/112642/911/89/10/
032790/20121127/112723/911/231/10/
032790/20121127/113126/915/140/20/
032790/20121127/113311/912/230/10/
032790/20121127/113311/911/102/10/
032790/20121127/113311/910/330/10/
032790/20121127/113311/909/1838/10/
032790/20121127/113320/909/650/10/
032790/20121127/113344/908/1223/10/
032790/20121127/113344/907/1430/10/
032790/20121127/113344/906/2238/10/
032790/20121127/113355/906/1310/10/
032790/20121127/113432/905/1472/10/
032790/20121127/113437/904/389/10/
032790/20121127/113455/904/369/10/
032790/20121127/114227/910/345/20/
032790/20121127/114241/907/110/10/
032790/20121127/114241/906/261/10/
032790/20121127/114348/906/800/10/
032790/20121127/114551/906/838/10/
032790/20121127/114638/910/136/20/
032790/20121127/115010/908/81/10/
032790/20121127/115135/908/129/20/
032790/20121127/115218/908/381/20/
032790/20121127/115338/910/452/20/
032790/20121127/115752/912/94/10/
032790/20121127/115752/911/200/10/
032790/20121127/115752/910/2470/10/
032790/20121127/115904/908/84/10/
032790/20121127/115904/906/453/10/
032790/20121127/115904/905/563/10/
032790/20121127/120218/913/112/20/
032790/20121127/121306/910/1741/10/
032790/20121127/121400/910/2430/10/
032790/20121127/121917/913/86/20/
032790/20121127/121938/910/4001/10/
032790/20121127/122505/913/87/20/
032790/20121127/123024/908/162/10/
032790/20121127/123148/905/1314/10/
032790/20121127/123309/905/178/10/
032790/20121127/123431/906/101/10/
032790/20121127/123431/905/1399/10/
032790/20121127/123504/906/99/10/
032790/20121127/123504/905/150/10/
032790/20121127/123640/905/2000/10/
032790/20121127/124144/908/438/10/
032790/20121127/124214/907/100/10/
032790/20121127/124218/908/139/20/
032790/20121127/124426/908/500/20/
032790/20121127/125035/908/102/20/
032790/20121127/125105/908/109/20/
032790/20121127/125105/914/89/20/
032790/20121127/130203/913/81/20/
032790/20121127/130309/908/84/10/
032790/20121127/130309/907/582/10/
032790/20121127/130309/906/264/10/
032790/20121127/130932/906/203/10/
032790/20121127/130932/905/284/10/
032790/20121127/131122/913/101/20/
032790/20121127/131307/907/350/10/
032790/20121127/131307/906/955/10/
032790/20121127/131307/905/1989/10/
032790/20121127/131307/904/2464/10/
032790/20121127/131618/905/401/10/
032790/20121127/131630/905/100/20/
032790/20121127/131914/905/165/10/
032790/20121127/131930/904/1530/10/
032790/20121127/131958/904/106/10/
032790/20121127/132039/904/1875/10/
032790/20121127/132039/903/828/10/
032790/20121127/132420/903/1532/10/
032790/20121127/132549/903/100/10/
032790/20121127/132636/903/586/10/
032790/20121127/132649/908/106/20/
032790/20121127/132649/910/599/20/
032790/20121127/132649/914/295/20/
032790/20121127/132720/913/397/20/
032790/20121127/132720/914/103/20/
032790/20121127/132819/913/130/20/
032790/20121127/132819/914/385/20/
032790/20121127/133303/905/100/10/
032790/20121127/133944/905/109/10/
032790/20121127/133944/904/180/10/
032790/20121127/133944/903/562/10/
032790/20121127/134213/904/200/10/
032790/20121127/134237/904/201/20/
032790/20121127/134238/904/599/20/
032790/20121127/135018/911/258/20/
032790/20121127/135018/912/1749/20/
032790/20121127/135019/904/653/10/
032790/20121127/135655/906/1003/10/
032790/20121127/135936/906/173/10/
032790/20121127/140145/905/323/10/
032790/20121127/140432/905/166/10/
032790/20121127/140432/904/739/10/
032790/20121127/141054/905/111/10/
032790/20121127/141054/904/1422/10/
032790/20121127/142320/910/82/20/
032790/20121127/142354/910/864/20/
032790/20121127/142354/911/1000/20/
032790/20121127/142510/910/1002/10/
032790/20121127/142520/910/1040/10/
032790/20121127/142704/911/98/20/
032790/20121127/142839/908/539/10/
032790/20121127/143106/908/102/10/
032790/20121127/143151/909/100/10/
032790/20121127/143204/908/100/10/
032790/20121127/143214/911/1374/20/
032790/20121127/143214/912/628/20/
032790/20121127/143221/912/292/20/
032790/20121127/143221/914/798/20/
032790/20121127/143221/915/100/20/
032790/20121127/143221/916/100/20/
032790/20121127/143221/917/100/20/
032790/20121127/143221/918/100/20/
032790/20121127/143221/919/102/20/
032790/20121127/143236/920/304/10/
032790/20121127/143242/920/110/10/
032790/20121127/143242/907/292/10/
032790/20121127/143512/910/98/10/
032790/20121127/143512/908/1934/10/
032790/20121127/143709/909/106/10/
032790/20121127/143902/909/553/10/
032790/20121127/143902/908/696/10/
032790/20121127/143902/907/510/10/
032790/20121127/144130/915/86/20/
032790/20121127/144142/919/102/20/
032790/20121127/144142/920/208/20/
032790/20121127/144206/919/112/20/
032790/20121127/144207/919/100/20/
032790/20121127/144248/916/330/10/
032790/20121127/144255/919/270/20/
032790/20121127/144324/919/125/20/
032790/20121127/144335/920/94/20/
032790/20121127/144358/919/596/10/
032790/20121127/144528/919/172/20/
032790/20121127/144555/920/518/20/
032790/20121127/144723/919/133/20/
032790/20121127/144723/920/1240/20/
032790/20121127/144723/921/1664/20/
032790/20121127/144749/920/104/20/
032790/20121127/144759/920/102/10/
032790/20121127/144806/920/98/20/
032790/20121127/144826/920/102/20/
032790/20121127/144842/921/102/20/
032790/20121127/144851/921/100/20/
032790/20121127/144853/921/172/20/
032790/20121127/144900/922/102/20/
032790/20121127/144900/921/81/10/
032790/20121127/144906/921/102/10/
032790/20121127/144915/922/111/20/
032790/20121127/144923/921/100/10/
032790/20121127/144929/922/102/20/
032790/20121127/144941/922/104/20/
032790/20121127/144950/922/102/20/
032790/20121127/150000/921/7750/10/
