032790/20121130/90000/882/1500/10/
032790/20121130/90318/884/164/10/
032790/20121130/90318/883/1373/10/
032790/20121130/90318/882/540/10/
032790/20121130/90318/881/4495/10/
032790/20121130/90342/885/400/10/
032790/20121130/90413/885/83/20/
032790/20121130/90414/885/241/20/
032790/20121130/91248/887/96/10/
032790/20121130/91742/893/90/20/
032790/20121130/92005/892/90/10/
032790/20121130/92816/887/95/10/
032790/20121130/92935/887/610/10/
032790/20121130/93313/891/462/20/
032790/20121130/93356/891/1128/20/
032790/20121130/93451/891/90/20/
032790/20121130/93509/891/90/20/
032790/20121130/93950/898/509/20/
032790/20121130/94205/890/350/10/
032790/20121130/94256/898/814/20/
032790/20121130/94321/890/1027/10/
032790/20121130/94652/890/178/20/
032790/20121130/95110/890/195/20/
032790/20121130/95913/891/1042/10/
032790/20121130/100205/898/902/20/
032790/20121130/101220/891/739/10/
032790/20121130/102220/890/251/10/
032790/20121130/102425/890/929/10/
032790/20121130/103017/890/500/10/
032790/20121130/103432/895/201/20/
032790/20121130/103446/895/100/20/
032790/20121130/103457/895/100/20/
032790/20121130/103505/895/100/20/
032790/20121130/103507/895/120/20/
032790/20121130/103510/895/100/20/
032790/20121130/103515/895/100/20/
032790/20121130/104233/895/429/20/
032790/20121130/104233/897/869/20/
032790/20121130/104233/898/202/20/
032790/20121130/104322/898/2622/20/
032790/20121130/104550/899/446/20/
032790/20121130/104650/899/300/20/
032790/20121130/110259/898/100/20/
032790/20121130/110259/899/240/20/
032790/20121130/110536/903/651/20/
032790/20121130/111503/900/105/10/
032790/20121130/112906/899/126/10/
032790/20121130/113033/892/400/10/
032790/20121130/114646/891/1130/10/
032790/20121130/115638/891/150/10/
032790/20121130/115733/891/652/10/
032790/20121130/115740/891/948/20/
032790/20121130/121104/897/341/20/
032790/20121130/121154/897/259/10/
032790/20121130/121418/897/161/20/
032790/20121130/123555/897/93/20/
032790/20121130/123747/897/190/20/
032790/20121130/123753/897/118/20/
032790/20121130/123758/897/118/20/
032790/20121130/123803/897/118/20/
032790/20121130/123807/897/118/20/
032790/20121130/123811/897/118/20/
032790/20121130/123901/897/126/10/
032790/20121130/123929/897/148/20/
032790/20121130/123934/897/118/20/
032790/20121130/123939/897/118/20/
032790/20121130/124015/897/110/10/
032790/20121130/124958/896/214/10/
032790/20121130/125022/896/118/20/
032790/20121130/125026/896/118/20/
032790/20121130/125030/896/118/20/
032790/20121130/125033/896/118/20/
032790/20121130/125037/896/118/20/
032790/20121130/125040/896/118/20/
032790/20121130/125044/896/118/20/
032790/20121130/125048/896/118/20/
032790/20121130/125340/895/1066/10/
032790/20121130/125752/896/110/20/
032790/20121130/125825/895/257/10/
032790/20121130/125825/893/118/10/
032790/20121130/125825/892/425/10/
032790/20121130/125840/892/156/10/
032790/20121130/125936/892/150/10/
032790/20121130/125936/891/1850/10/
032790/20121130/130004/896/150/20/
032790/20121130/132211/894/711/10/
032790/20121130/132324/892/1202/10/
032790/20121130/132428/893/2000/20/
032790/20121130/132829/895/100/20/
032790/20121130/132835/895/100/20/
032790/20121130/132838/895/100/20/
032790/20121130/132842/895/100/20/
032790/20121130/132846/895/100/20/
032790/20121130/133003/895/100/20/
032790/20121130/133345/895/100/20/
032790/20121130/133455/894/88/20/
032790/20121130/133649/894/100/20/
032790/20121130/133653/894/111/20/
032790/20121130/133657/894/100/20/
032790/20121130/133700/894/111/20/
032790/20121130/133704/894/100/20/
032790/20121130/133707/894/111/20/
032790/20121130/133711/894/100/20/
032790/20121130/133714/894/111/20/
032790/20121130/133731/894/100/10/
032790/20121130/133832/894/125/20/
032790/20121130/133839/894/304/20/
032790/20121130/133839/895/802/20/
032790/20121130/133839/896/3905/20/
032790/20121130/133843/896/100/20/
032790/20121130/133954/897/2265/20/
032790/20121130/134124/894/2220/10/
032790/20121130/134759/895/382/10/
032790/20121130/135201/894/199/10/
032790/20121130/135201/893/1300/10/
032790/20121130/135201/892/111/10/
032790/20121130/135818/892/854/10/
032790/20121130/140403/896/101/20/
032790/20121130/140425/896/495/20/
032790/20121130/140632/897/191/20/
032790/20121130/140742/896/502/10/
032790/20121130/140843/896/805/20/
032790/20121130/140946/894/898/10/
032790/20121130/140946/893/1100/10/
032790/20121130/140946/892/2013/10/
032790/20121130/140946/891/2587/10/
032790/20121130/140946/890/10150/10/
032790/20121130/142412/892/311/10/
032790/20121130/142412/891/1320/10/
032790/20121130/142412/890/13370/10/
032790/20121130/142630/890/1005/10/
032790/20121130/142845/897/1069/20/
032790/20121130/143028/892/160/10/
032790/20121130/143150/897/150/20/
032790/20121130/143150/898/1174/20/
032790/20121130/143630/892/340/10/
032790/20121130/143630/891/300/10/
032790/20121130/143630/890/4360/10/
032790/20121130/143637/880/1655/10/
032790/20121130/143637/875/100/10/
032790/20121130/143637/870/2170/10/
032790/20121130/143637/869/6900/10/
032790/20121130/143637/865/200/10/
032790/20121130/143637/856/3827/10/
032790/20121130/143637/851/1381/10/
032790/20121130/143638/865/132/20/
032790/20121130/143638/865/123/20/
032790/20121130/143640/865/3938/20/
032790/20121130/144009/890/702/10/
032790/20121130/144016/890/102/10/
032790/20121130/144102/890/852/10/
032790/20121130/144103/890/500/20/
032790/20121130/144329/890/2588/20/
032790/20121130/144551/890/1040/20/
032790/20121130/144557/889/100/10/
032790/20121130/144729/887/337/10/
032790/20121130/144740/887/1000/20/
032790/20121130/144817/891/93/20/
032790/20121130/144817/893/426/20/
032790/20121130/144935/886/1026/10/
032790/20121130/150000/890/1302/10/
