032790/20130204/90000/733/3359/10/
032790/20130204/90007/740/81/20/
032790/20130204/90019/740/500/20/
032790/20130204/90023/741/105/20/
032790/20130204/90032/742/166/20/
032790/20130204/90033/743/100/20/
032790/20130204/90035/743/252/10/
032790/20130204/90035/741/585/10/
032790/20130204/90035/740/1885/10/
032790/20130204/90035/734/352/10/
032790/20130204/90035/733/3006/10/
032790/20130204/90041/733/1222/20/
032790/20130204/90051/733/95/20/
032790/20130204/90052/733/516/20/
032790/20130204/90103/743/212/20/
032790/20130204/90103/744/100/20/
032790/20130204/90103/745/101/20/
032790/20130204/90103/746/100/20/
032790/20130204/90103/747/100/20/
032790/20130204/90103/748/100/20/
032790/20130204/90103/749/361/20/
032790/20130204/90109/749/211/20/
032790/20130204/90110/750/229/20/
032790/20130204/90110/751/100/20/
032790/20130204/90110/752/100/20/
032790/20130204/90110/754/86/20/
032790/20130204/90124/743/593/20/
032790/20130204/90129/743/370/20/
032790/20130204/90129/752/1100/20/
032790/20130204/90129/753/442/20/
032790/20130204/90129/754/203/20/
032790/20130204/90129/755/501/20/
032790/20130204/90129/756/125/20/
032790/20130204/90129/758/800/20/
032790/20130204/90129/759/4500/20/
032790/20130204/90150/755/165/20/
032790/20130204/90150/756/454/20/
032790/20130204/90202/755/126/20/
032790/20130204/90205/754/100/10/
032790/20130204/90206/754/2955/10/
032790/20130204/90216/753/315/20/
032790/20130204/90216/749/430/10/
032790/20130204/90228/753/1185/20/
032790/20130204/90237/753/89/20/
032790/20130204/90240/753/1564/10/
032790/20130204/90241/753/1834/10/
032790/20130204/90246/753/100/20/
032790/20130204/90301/749/1009/20/
032790/20130204/90305/749/100/20/
032790/20130204/90328/746/956/20/
032790/20130204/90328/747/1044/20/
032790/20130204/90423/737/244/10/
032790/20130204/90524/737/217/10/
032790/20130204/90524/740/523/20/
032790/20130204/90540/735/553/10/
032790/20130204/90548/740/211/20/
032790/20130204/90556/735/91/10/
032790/20130204/90601/735/439/10/
032790/20130204/90613/735/301/20/
032790/20130204/90659/735/250/20/
032790/20130204/90753/733/201/10/
032790/20130204/90807/733/110/20/
032790/20130204/90931/730/170/10/
032790/20130204/90936/727/163/20/
032790/20130204/91000/733/81/20/
032790/20130204/91022/733/2030/20/
032790/20130204/91035/733/100/20/
032790/20130204/91038/726/853/10/
032790/20130204/91043/726/397/20/
032790/20130204/91139/726/170/10/
032790/20130204/91335/726/568/10/
032790/20130204/91358/725/652/10/
032790/20130204/91437/726/105/20/
032790/20130204/91437/732/250/20/
032790/20130204/91516/725/300/10/
032790/20130204/91821/731/202/20/
032790/20130204/91837/731/98/20/
032790/20130204/91837/725/332/10/
032790/20130204/92012/732/85/20/
032790/20130204/92150/732/545/20/
032790/20130204/92228/732/246/20/
032790/20130204/92347/732/215/20/
032790/20130204/92347/733/500/20/
032790/20130204/92452/732/117/20/
032790/20130204/92606/732/161/20/
032790/20130204/92624/732/302/20/
032790/20130204/92903/732/95/20/
032790/20130204/93047/733/996/20/
032790/20130204/93049/733/1841/10/
032790/20130204/93049/726/702/10/
032790/20130204/93049/725/492/10/
032790/20130204/93109/730/3013/10/
032790/20130204/93135/727/1510/10/
032790/20130204/93219/727/498/10/
032790/20130204/93229/727/1000/10/
032790/20130204/93325/731/106/20/
032790/20130204/93351/728/102/20/
032790/20130204/93433/727/632/10/
032790/20130204/93517/733/151/20/
032790/20130204/93517/734/100/20/
032790/20130204/93517/735/264/20/
032790/20130204/93517/736/100/20/
032790/20130204/93517/737/200/20/
032790/20130204/93517/738/938/20/
032790/20130204/93528/737/180/20/
032790/20130204/93625/735/89/20/
032790/20130204/93930/731/118/10/
032790/20130204/93930/730/101/10/
032790/20130204/93945/730/1002/10/
032790/20130204/94133/730/1052/10/
032790/20130204/94210/733/325/20/
032790/20130204/94234/734/170/20/
032790/20130204/94247/735/1161/20/
032790/20130204/94247/736/110/20/
032790/20130204/94247/737/303/20/
032790/20130204/94247/738/762/20/
032790/20130204/94248/738/708/10/
032790/20130204/94354/730/221/10/
032790/20130204/94400/729/200/10/
032790/20130204/94451/730/201/10/
032790/20130204/94455/730/200/10/
032790/20130204/94555/731/1002/10/
032790/20130204/94650/731/125/10/
032790/20130204/94656/730/103/10/
032790/20130204/94903/729/762/10/
032790/20130204/94903/728/5798/10/
032790/20130204/94903/727/3469/10/
032790/20130204/94927/727/520/10/
032790/20130204/94943/727/265/10/
032790/20130204/94951/727/268/20/
032790/20130204/94951/729/232/20/
032790/20130204/94951/730/171/20/
032790/20130204/94958/730/9906/20/
032790/20130204/94959/730/105/10/
032790/20130204/95005/729/95/20/
032790/20130204/95005/733/91/20/
032790/20130204/95235/724/131/10/
032790/20130204/95925/723/209/10/
032790/20130204/95937/723/354/10/
032790/20130204/95958/722/518/10/
032790/20130204/95958/723/128/20/
032790/20130204/100002/723/500/10/
032790/20130204/100107/724/85/20/
032790/20130204/100128/723/809/10/
032790/20130204/100128/722/551/10/
032790/20130204/100128/721/1132/10/
032790/20130204/100128/720/1400/10/
032790/20130204/100128/719/100/10/
032790/20130204/100128/717/6571/10/
032790/20130204/100201/724/423/20/
032790/20130204/100201/731/87/20/
032790/20130204/101246/730/89/20/
032790/20130204/101526/730/141/10/
032790/20130204/101706/724/414/10/
032790/20130204/101735/722/1000/10/
032790/20130204/101856/722/90/20/
032790/20130204/101903/722/202/20/
032790/20130204/101929/730/737/20/
032790/20130204/102542/723/577/10/
032790/20130204/102542/722/111/10/
032790/20130204/102542/721/132/10/
032790/20130204/102542/720/783/10/
032790/20130204/102542/719/332/10/
032790/20130204/102542/718/2029/10/
032790/20130204/102542/717/1951/10/
032790/20130204/102931/722/344/20/
032790/20130204/103012/723/106/20/
032790/20130204/103930/720/203/10/
032790/20130204/103930/719/111/10/
032790/20130204/103930/718/969/10/
032790/20130204/104127/719/100/10/
032790/20130204/104127/718/300/10/
032790/20130204/104743/721/84/20/
032790/20130204/105255/724/372/20/
032790/20130204/105452/724/190/10/
032790/20130204/105522/724/197/10/
032790/20130204/105528/724/93/10/
032790/20130204/105547/724/169/10/
032790/20130204/105755/725/124/20/
032790/20130204/105847/725/382/10/
032790/20130204/110813/727/104/20/
032790/20130204/111448/728/1164/20/
032790/20130204/111448/729/1000/20/
032790/20130204/111448/730/875/20/
032790/20130204/111503/730/655/20/
032790/20130204/111805/722/100/10/
032790/20130204/111805/721/161/10/
032790/20130204/111805/720/388/10/
032790/20130204/111823/731/200/20/
032790/20130204/111929/730/82/20/
032790/20130204/112217/726/100/10/
032790/20130204/112910/722/1097/10/
032790/20130204/112910/721/1826/10/
032790/20130204/112910/720/113/10/
032790/20130204/113317/721/142/10/
032790/20130204/113317/720/3520/10/
032790/20130204/113317/719/1343/10/
032790/20130204/113538/721/100/10/
032790/20130204/114335/721/2017/10/
032790/20130204/114335/720/2301/10/
032790/20130204/114335/719/2183/10/
032790/20130204/114335/718/2023/10/
032790/20130204/114545/720/106/10/
032790/20130204/115436/720/502/10/
032790/20130204/115449/719/112/10/
032790/20130204/115449/718/1340/10/
032790/20130204/115449/717/3623/10/
032790/20130204/115449/716/112/10/
032790/20130204/115449/715/5813/10/
032790/20130204/121329/719/91/20/
032790/20130204/121400/719/500/20/
032790/20130204/122108/720/84/20/
032790/20130204/122108/722/200/20/
032790/20130204/122108/727/86/20/
032790/20130204/124247/724/154/20/
032790/20130204/124247/727/92/20/
032790/20130204/124247/727/2057/10/
032790/20130204/131314/721/93/20/
032790/20130204/131337/722/127/20/
032790/20130204/131713/718/111/10/
032790/20130204/131713/716/634/10/
032790/20130204/131713/715/669/10/
032790/20130204/133204/717/515/10/
032790/20130204/133553/718/115/10/
032790/20130204/133713/720/85/20/
032790/20130204/133737/720/2037/20/
032790/20130204/133825/720/88/20/
032790/20130204/133933/721/89/20/
032790/20130204/134211/718/83/20/
032790/20130204/134348/718/170/20/
032790/20130204/134400/717/526/10/
032790/20130204/134418/718/305/20/
032790/20130204/134435/718/152/20/
032790/20130204/134521/718/831/20/
032790/20130204/135656/718/262/10/
032790/20130204/135735/717/487/10/
032790/20130204/135748/717/619/10/
032790/20130204/135831/717/222/10/
032790/20130204/140009/719/102/20/
032790/20130204/140009/720/1019/20/
032790/20130204/140333/720/217/10/
032790/20130204/140338/720/200/10/
032790/20130204/140338/720/362/10/
032790/20130204/140344/720/147/10/
032790/20130204/141320/718/232/10/
032790/20130204/141816/719/83/20/
032790/20130204/142105/720/632/20/
032790/20130204/142249/720/1061/20/
032790/20130204/142329/721/1202/20/
032790/20130204/142330/721/3503/20/
032790/20130204/142423/721/117/20/
032790/20130204/143007/720/85/20/
032790/20130204/143127/721/1024/20/
032790/20130204/143148/721/502/20/
032790/20130204/143212/722/90/20/
032790/20130204/143430/722/167/20/
032790/20130204/143535/720/105/10/
032790/20130204/143545/720/98/20/
032790/20130204/143700/719/1232/10/
032790/20130204/144114/722/582/20/
032790/20130204/144200/722/275/10/
032790/20130204/144202/722/131/10/
032790/20130204/144205/722/102/10/
032790/20130204/144329/722/120/20/
032790/20130204/144329/723/277/20/
032790/20130204/144457/725/285/20/
032790/20130204/144644/724/266/20/
032790/20130204/144856/724/82/10/
032790/20130204/144913/722/619/10/
032790/20130204/144948/724/290/20/
032790/20130204/144955/724/143/20/
032790/20130204/150000/724/1630/20/
