048470/20121213/90000/2775/2710/20/
048470/20121213/90736/2765/321/20/
048470/20121213/91507/2760/89/10/
048470/20121213/91958/2760/161/10/
048470/20121213/93125/2750/300/10/
048470/20121213/93933/2745/350/10/
048470/20121213/93933/2740/1733/10/
048470/20121213/94315/2750/1818/20/
048470/20121213/94802/2740/100/10/
048470/20121213/95028/2745/1838/20/
048470/20121213/95036/2750/2232/20/
048470/20121213/95052/2760/84/20/
048470/20121213/95052/2760/561/20/
048470/20121213/95133/2760/112/20/
048470/20121213/95135/2760/600/20/
048470/20121213/95141/2760/100/20/
048470/20121213/95145/2760/100/20/
048470/20121213/95149/2760/200/20/
048470/20121213/95156/2775/100/20/
048470/20121213/100522/2765/1012/20/
048470/20121213/101508/2765/400/20/
048470/20121213/101537/2765/90/20/
048470/20121213/101637/2770/94/20/
048470/20121213/101717/2770/106/20/
048470/20121213/101901/2770/100/20/
048470/20121213/101945/2770/900/20/
048470/20121213/102350/2770/300/20/
048470/20121213/103351/2770/100/10/
048470/20121213/103355/2770/100/10/
048470/20121213/103407/2775/1029/20/
048470/20121213/103423/2780/100/20/
048470/20121213/103442/2775/100/10/
048470/20121213/103459/2775/100/10/
048470/20121213/103501/2775/100/10/
048470/20121213/103503/2775/100/10/
048470/20121213/103611/2775/401/10/
048470/20121213/103956/2775/419/10/
048470/20121213/103956/2780/856/10/
048470/20121213/103956/2785/2677/20/
048470/20121213/104416/2785/1013/20/
048470/20121213/104436/2785/105/20/
048470/20121213/104641/2790/215/20/
048470/20121213/104707/2790/156/20/
048470/20121213/105845/2775/699/10/
048470/20121213/105845/2770/1011/10/
048470/20121213/105858/2770/91/20/
048470/20121213/105903/2770/279/20/
048470/20121213/112519/2780/1001/20/
048470/20121213/112659/2780/500/20/
048470/20121213/112814/2780/149/20/
048470/20121213/113516/2780/406/20/
048470/20121213/113516/2790/1819/20/
048470/20121213/113539/2790/555/10/
048470/20121213/113617/2790/145/20/
048470/20121213/114114/2775/201/10/
048470/20121213/115117/2790/195/20/
048470/20121213/115229/2790/100/10/
048470/20121213/120602/2785/131/20/
048470/20121213/121015/2775/537/10/
048470/20121213/121314/2775/100/10/
048470/20121213/122440/2790/825/20/
048470/20121213/122634/2790/300/20/
048470/20121213/123845/2790/300/20/
048470/20121213/124015/2790/160/20/
048470/20121213/124015/2795/140/20/
048470/20121213/124107/2795/700/20/
048470/20121213/124938/2800/129/20/
048470/20121213/125011/2800/128/20/
048470/20121213/125043/2800/100/20/
048470/20121213/125228/2800/316/20/
048470/20121213/125327/2800/95/20/
048470/20121213/125710/2805/1273/20/
048470/20121213/125730/2805/249/10/
048470/20121213/130242/2805/137/10/
048470/20121213/130350/2805/161/10/
048470/20121213/131905/2805/213/10/
048470/20121213/131906/2800/510/10/
048470/20121213/132755/2805/101/20/
048470/20121213/133700/2800/100/20/
048470/20121213/133956/2795/100/10/
048470/20121213/134623/2790/610/10/
048470/20121213/134912/2785/160/10/
048470/20121213/135741/2790/105/20/
048470/20121213/140301/2785/997/10/
048470/20121213/140301/2780/1510/10/
048470/20121213/140301/2775/1933/10/
048470/20121213/140301/2770/1423/10/
048470/20121213/140301/2765/2213/10/
048470/20121213/140301/2765/2194/20/
048470/20121213/140312/2765/1500/20/
048470/20121213/140827/2790/503/20/
048470/20121213/141407/2780/1002/10/
048470/20121213/141523/2780/2000/20/
048470/20121213/141625/2780/5001/10/
048470/20121213/141854/2770/1020/10/
048470/20121213/141854/2765/530/10/
048470/20121213/141854/2760/1244/10/
048470/20121213/141854/2755/1000/10/
048470/20121213/141854/2750/1759/10/
048470/20121213/141909/2760/260/10/
048470/20121213/142422/2780/1032/20/
048470/20121213/142531/2780/502/10/
048470/20121213/143042/2780/144/10/
048470/20121213/143042/2770/102/10/
048470/20121213/143042/2765/707/10/
048470/20121213/143049/2765/200/20/
048470/20121213/143054/2765/88/20/
048470/20121213/144542/2790/290/20/
048470/20121213/144551/2790/711/10/
048470/20121213/144557/2775/100/10/
048470/20121213/144722/2775/201/10/
048470/20121213/150000/2785/588/20/
