048470/20130313/90000/3595/5056/20/
048470/20130313/90001/3590/100/10/
048470/20130313/90001/3595/300/20/
048470/20130313/90022/3575/880/10/
048470/20130313/90049/3575/525/20/
048470/20130313/90118/3585/273/20/
048470/20130313/90119/3585/1757/20/
048470/20130313/90119/3590/243/20/
048470/20130313/90123/3590/1161/20/
048470/20130313/90124/3595/2048/20/
048470/20130313/90125/3595/402/20/
048470/20130313/90128/3600/260/20/
048470/20130313/90130/3600/200/20/
048470/20130313/90130/3600/1624/20/
048470/20130313/90131/3600/1000/10/
048470/20130313/90133/3610/115/20/
048470/20130313/90133/3610/100/20/
048470/20130313/90136/3610/109/10/
048470/20130313/90139/3625/114/20/
048470/20130313/90140/3610/945/10/
048470/20130313/90140/3605/155/10/
048470/20130313/90143/3615/560/20/
048470/20130313/90152/3610/253/20/
048470/20130313/90152/3615/262/20/
048470/20130313/90153/3605/964/10/
048470/20130313/90153/3600/1036/10/
048470/20130313/90157/3605/100/10/
048470/20130313/90157/3600/934/10/
048470/20130313/90200/3600/606/10/
048470/20130313/90203/3600/300/20/
048470/20130313/90206/3600/94/20/
048470/20130313/90206/3610/600/20/
048470/20130313/90206/3615/306/20/
048470/20130313/90213/3600/1045/20/
048470/20130313/90217/3600/90/20/
048470/20130313/90219/3600/554/20/
048470/20130313/90223/3600/501/20/
048470/20130313/90226/3600/1001/20/
048470/20130313/90235/3600/2238/20/
048470/20130313/90236/3615/648/20/
048470/20130313/90239/3600/1800/10/
048470/20130313/90241/3600/741/10/
048470/20130313/90245/3600/301/20/
048470/20130313/90246/3595/200/10/
048470/20130313/90253/3590/1001/10/
048470/20130313/90256/3590/726/10/
048470/20130313/90317/3590/497/10/
048470/20130313/90317/3590/90/10/
048470/20130313/90317/3590/278/10/
048470/20130313/90318/3590/200/20/
048470/20130313/90351/3590/3736/20/
048470/20130313/90402/3595/278/20/
048470/20130313/90406/3600/1500/20/
048470/20130313/90407/3600/777/20/
048470/20130313/90410/3600/162/20/
048470/20130313/90411/3600/200/20/
048470/20130313/90413/3600/200/20/
048470/20130313/90426/3600/1501/20/
048470/20130313/90427/3600/1962/20/
048470/20130313/90429/3600/591/20/
048470/20130313/90429/3600/1365/20/
048470/20130313/90434/3615/310/20/
048470/20130313/90454/3610/1152/10/
048470/20130313/90503/3610/91/20/
048470/20130313/90505/3610/277/20/
048470/20130313/90505/3610/200/20/
048470/20130313/90516/3605/100/20/
048470/20130313/90518/3605/120/20/
048470/20130313/90518/3610/1440/20/
048470/20130313/90521/3610/1000/20/
048470/20130313/90523/3610/398/20/
048470/20130313/90526/3615/1471/20/
048470/20130313/90526/3620/1110/20/
048470/20130313/90526/3625/420/20/
048470/20130313/90534/3625/209/20/
048470/20130313/90537/3625/206/20/
048470/20130313/90539/3625/301/20/
048470/20130313/90551/3625/272/20/
048470/20130313/90551/3625/1000/10/
048470/20130313/90552/3630/300/20/
048470/20130313/90552/3625/201/10/
048470/20130313/90554/3625/101/10/
048470/20130313/90558/3625/502/10/
048470/20130313/90559/3630/501/20/
048470/20130313/90559/3625/941/10/
048470/20130313/90602/3625/1198/20/
048470/20130313/90603/3620/418/10/
048470/20130313/90605/3625/1311/20/
048470/20130313/90607/3625/137/10/
048470/20130313/90614/3620/262/10/
048470/20130313/90626/3620/104/10/
048470/20130313/90632/3620/124/10/
048470/20130313/90643/3615/100/10/
048470/20130313/90647/3615/100/10/
048470/20130313/90647/3615/401/10/
048470/20130313/90647/3610/1799/10/
048470/20130313/90651/3610/100/10/
048470/20130313/90653/3610/100/10/
048470/20130313/90653/3610/1374/10/
048470/20130313/90711/3605/206/10/
048470/20130313/90712/3605/404/10/
048470/20130313/90732/3610/1250/20/
048470/20130313/90739/3615/1067/20/
048470/20130313/90742/3615/302/20/
048470/20130313/90747/3615/450/20/
048470/20130313/90754/3620/2198/20/
048470/20130313/90805/3625/90/20/
048470/20130313/90806/3625/2000/20/
048470/20130313/90808/3625/234/20/
048470/20130313/90812/3625/160/20/
048470/20130313/90823/3625/546/20/
048470/20130313/90833/3630/931/20/
048470/20130313/90834/3630/536/20/
048470/20130313/90837/3630/398/20/
048470/20130313/90837/3630/100/20/
048470/20130313/90843/3630/300/20/
048470/20130313/90844/3630/413/20/
048470/20130313/90845/3630/418/20/
048470/20130313/90849/3635/201/20/
048470/20130313/90857/3635/582/20/
048470/20130313/90857/3640/600/20/
048470/20130313/90859/3635/501/10/
048470/20130313/90906/3640/201/20/
048470/20130313/90908/3640/530/20/
048470/20130313/90910/3640/136/20/
048470/20130313/90912/3645/201/20/
048470/20130313/90917/3645/200/20/
048470/20130313/90918/3645/410/20/
048470/20130313/90918/3640/1000/10/
048470/20130313/90918/3645/1248/20/
048470/20130313/90919/3645/2191/20/
048470/20130313/90919/3650/2809/20/
048470/20130313/90920/3650/7427/20/
048470/20130313/90921/3650/410/20/
048470/20130313/90921/3650/1960/20/
048470/20130313/90921/3655/142/20/
048470/20130313/90922/3655/2128/20/
048470/20130313/90923/3665/100/20/
048470/20130313/90923/3670/100/20/
048470/20130313/90924/3670/208/20/
048470/20130313/90925/3670/1276/20/
048470/20130313/90926/3670/809/10/
048470/20130313/90927/3670/200/20/
048470/20130313/90927/3670/500/20/
048470/20130313/90928/3670/1015/20/
048470/20130313/90929/3670/2485/20/
048470/20130313/90929/3680/281/20/
048470/20130313/90930/3665/264/20/
048470/20130313/90930/3680/2494/20/
048470/20130313/90930/3685/248/20/
048470/20130313/90932/3680/112/10/
048470/20130313/90932/3685/404/20/
048470/20130313/90933/3685/282/20/
048470/20130313/90933/3680/316/10/
048470/20130313/90933/3675/500/10/
048470/20130313/90934/3675/188/20/
048470/20130313/90934/3685/433/20/
048470/20130313/90936/3680/89/20/
048470/20130313/90937/3675/1008/10/
048470/20130313/90938/3680/510/20/
048470/20130313/90939/3680/122/20/
048470/20130313/90939/3680/185/10/
048470/20130313/90940/3680/1019/20/
048470/20130313/90940/3680/150/20/
048470/20130313/90940/3675/370/10/
048470/20130313/90940/3680/271/20/
048470/20130313/90941/3675/120/10/
048470/20130313/90942/3680/135/20/
048470/20130313/90942/3680/204/20/
048470/20130313/90942/3680/846/20/
048470/20130313/90943/3680/818/20/
048470/20130313/90944/3685/1096/20/
048470/20130313/90945/3680/2019/10/
048470/20130313/90945/3685/744/20/
048470/20130313/90946/3680/1960/10/
048470/20130313/90948/3680/94/20/
048470/20130313/90951/3680/522/20/
048470/20130313/90955/3675/135/10/
048470/20130313/90955/3675/1981/10/
048470/20130313/90958/3675/263/20/
048470/20130313/90958/3680/580/20/
048470/20130313/90959/3680/153/20/
048470/20130313/90959/3680/1730/20/
048470/20130313/91005/3670/628/20/
048470/20130313/91005/3670/502/20/
048470/20130313/91007/3670/870/20/
048470/20130313/91007/3675/156/20/
048470/20130313/91009/3675/314/20/
048470/20130313/91010/3670/1500/10/
048470/20130313/91013/3660/152/10/
048470/20130313/91020/3660/520/10/
048470/20130313/91021/3660/920/10/
048470/20130313/91022/3660/1690/20/
048470/20130313/91022/3665/346/20/
048470/20130313/91025/3665/222/20/
048470/20130313/91030/3665/208/10/
048470/20130313/91031/3670/720/20/
048470/20130313/91036/3665/288/10/
048470/20130313/91036/3670/245/20/
048470/20130313/91041/3670/1071/20/
048470/20130313/91043/3665/1000/20/
048470/20130313/91044/3670/81/20/
048470/20130313/91047/3665/306/10/
048470/20130313/91056/3670/162/20/
048470/20130313/91106/3670/118/20/
048470/20130313/91106/3670/220/20/
048470/20130313/91108/3670/288/20/
048470/20130313/91111/3670/786/20/
048470/20130313/91112/3670/200/20/
048470/20130313/91112/3670/1026/10/
048470/20130313/91113/3670/300/20/
048470/20130313/91118/3665/1090/10/
048470/20130313/91118/3660/1592/10/
048470/20130313/91122/3655/250/10/
048470/20130313/91124/3655/254/10/
048470/20130313/91126/3655/232/10/
048470/20130313/91128/3660/828/20/
048470/20130313/91137/3660/89/10/
048470/20130313/91138/3670/503/20/
048470/20130313/91140/3670/497/20/
048470/20130313/91142/3675/620/20/
048470/20130313/91143/3675/518/20/
048470/20130313/91145/3680/5048/20/
048470/20130313/91146/3680/455/20/
048470/20130313/91147/3680/202/20/
048470/20130313/91149/3680/511/20/
048470/20130313/91149/3680/163/20/
048470/20130313/91149/3680/374/20/
048470/20130313/91150/3680/312/20/
048470/20130313/91151/3680/94/20/
048470/20130313/91151/3680/91/20/
048470/20130313/91152/3685/1362/20/
048470/20130313/91153/3685/353/20/
048470/20130313/91153/3690/357/20/
048470/20130313/91153/3690/1059/20/
048470/20130313/91154/3690/179/20/
048470/20130313/91154/3690/123/20/
048470/20130313/91155/3690/1356/20/
048470/20130313/91156/3690/134/20/
048470/20130313/91157/3690/308/20/
048470/20130313/91158/3690/128/20/
048470/20130313/91158/3690/173/20/
048470/20130313/91159/3690/898/20/
048470/20130313/91201/3695/420/20/
048470/20130313/91202/3695/2803/20/
048470/20130313/91203/3695/1042/20/
048470/20130313/91205/3695/533/20/
048470/20130313/91205/3695/439/20/
048470/20130313/91206/3695/940/20/
048470/20130313/91206/3695/1006/20/
048470/20130313/91207/3695/513/20/
048470/20130313/91207/3695/1031/20/
048470/20130313/91208/3695/636/20/
048470/20130313/91209/3695/97/20/
048470/20130313/91212/3695/1454/20/
048470/20130313/91215/3700/320/20/
048470/20130313/91216/3700/135/20/
048470/20130313/91217/3700/2008/20/
048470/20130313/91218/3700/579/20/
048470/20130313/91218/3700/3029/20/
048470/20130313/91218/3700/201/20/
048470/20130313/91219/3700/11820/20/
048470/20130313/91219/3705/800/20/
048470/20130313/91219/3710/305/20/
048470/20130313/91220/3705/82/10/
048470/20130313/91220/3710/271/20/
048470/20130313/91224/3710/725/20/
048470/20130313/91225/3710/170/10/
048470/20130313/91225/3715/130/20/
048470/20130313/91225/3720/328/20/
048470/20130313/91226/3710/200/20/
048470/20130313/91226/3710/443/10/
048470/20130313/91226/3710/401/10/
048470/20130313/91228/3710/415/10/
048470/20130313/91228/3715/992/20/
048470/20130313/91228/3715/101/10/
048470/20130313/91229/3715/101/10/
048470/20130313/91229/3715/586/10/
048470/20130313/91229/3715/1322/10/
048470/20130313/91230/3715/840/20/
048470/20130313/91233/3715/553/20/
048470/20130313/91233/3715/1644/20/
048470/20130313/91233/3720/631/20/
048470/20130313/91234/3720/82/20/
048470/20130313/91234/3715/1002/10/
048470/20130313/91236/3715/438/10/
048470/20130313/91237/3715/207/10/
048470/20130313/91237/3720/100/20/
048470/20130313/91238/3715/134/10/
048470/20130313/91238/3715/479/10/
048470/20130313/91239/3710/129/10/
048470/20130313/91240/3715/204/20/
048470/20130313/91240/3710/5001/10/
048470/20130313/91241/3710/108/10/
048470/20130313/91241/3710/1186/10/
048470/20130313/91242/3700/84/10/
048470/20130313/91242/3710/586/20/
048470/20130313/91244/3700/120/10/
048470/20130313/91247/3705/451/20/
048470/20130313/91247/3700/142/10/
048470/20130313/91249/3700/577/10/
048470/20130313/91249/3690/1200/10/
048470/20130313/91253/3690/234/20/
048470/20130313/91253/3690/101/10/
048470/20130313/91253/3690/101/10/
048470/20130313/91254/3690/403/10/
048470/20130313/91255/3690/207/10/
048470/20130313/91257/3695/161/20/
048470/20130313/91257/3690/369/10/
048470/20130313/91259/3690/2428/10/
048470/20130313/91300/3690/218/20/
048470/20130313/91301/3690/841/20/
048470/20130313/91303/3685/301/10/
048470/20130313/91303/3685/716/10/
048470/20130313/91303/3685/640/20/
048470/20130313/91303/3690/2765/20/
048470/20130313/91305/3690/3052/20/
048470/20130313/91306/3690/300/20/
048470/20130313/91306/3695/1613/20/
048470/20130313/91306/3700/1388/20/
048470/20130313/91306/3690/100/10/
048470/20130313/91309/3700/505/20/
048470/20130313/91311/3700/4012/20/
048470/20130313/91312/3700/187/20/
048470/20130313/91315/3700/117/10/
048470/20130313/91315/3705/100/20/
048470/20130313/91317/3700/112/10/
048470/20130313/91318/3705/83/20/
048470/20130313/91323/3715/1411/20/
048470/20130313/91323/3710/112/10/
048470/20130313/91324/3715/666/20/
048470/20130313/91324/3715/1690/20/
048470/20130313/91325/3715/572/10/
048470/20130313/91326/3705/101/10/
048470/20130313/91326/3715/251/20/
048470/20130313/91328/3715/2002/20/
048470/20130313/91330/3715/280/20/
048470/20130313/91331/3715/586/20/
048470/20130313/91332/3715/527/20/
048470/20130313/91335/3715/3304/20/
048470/20130313/91335/3720/3729/20/
048470/20130313/91336/3715/1091/20/
048470/20130313/91337/3720/101/20/
048470/20130313/91338/3715/101/10/
048470/20130313/91340/3715/81/20/
048470/20130313/91342/3705/168/10/
048470/20130313/91346/3715/142/20/
048470/20130313/91346/3705/3852/10/
048470/20130313/91346/3705/149/20/
048470/20130313/91346/3715/351/20/
048470/20130313/91347/3700/545/10/
048470/20130313/91347/3695/250/10/
048470/20130313/91347/3690/416/10/
048470/20130313/91351/3700/324/20/
048470/20130313/91351/3700/636/20/
048470/20130313/91353/3700/94/20/
048470/20130313/91353/3710/221/20/
048470/20130313/91359/3690/511/10/
048470/20130313/91405/3690/159/10/
048470/20130313/91405/3690/1559/10/
048470/20130313/91407/3680/86/10/
048470/20130313/91409/3680/828/10/
048470/20130313/91411/3680/100/10/
048470/20130313/91412/3680/373/10/
048470/20130313/91415/3690/246/20/
048470/20130313/91419/3685/102/10/
048470/20130313/91426/3685/347/20/
048470/20130313/91428/3680/201/10/
048470/20130313/91431/3680/2000/10/
048470/20130313/91431/3685/460/20/
048470/20130313/91432/3685/279/10/
048470/20130313/91433/3685/3001/10/
048470/20130313/91433/3685/260/10/
048470/20130313/91435/3680/100/10/
048470/20130313/91437/3680/993/10/
048470/20130313/91439/3680/1051/10/
048470/20130313/91440/3685/187/20/
048470/20130313/91440/3680/549/10/
048470/20130313/91458/3680/108/10/
048470/20130313/91513/3680/430/10/
048470/20130313/91514/3690/100/20/
048470/20130313/91515/3680/110/10/
048470/20130313/91518/3680/1764/10/
048470/20130313/91519/3680/99/20/
048470/20130313/91519/3680/248/20/
048470/20130313/91519/3690/752/20/
048470/20130313/91521/3690/99/20/
048470/20130313/91526/3690/501/20/
048470/20130313/91536/3680/405/20/
048470/20130313/91546/3690/504/20/
048470/20130313/91609/3680/914/10/
048470/20130313/91613/3680/100/20/
048470/20130313/91626/3675/503/10/
048470/20130313/91630/3675/613/10/
048470/20130313/91631/3675/325/10/
048470/20130313/91632/3675/200/10/
048470/20130313/91632/3680/500/20/
048470/20130313/91649/3675/174/10/
048470/20130313/91657/3675/701/10/
048470/20130313/91700/3675/758/10/
048470/20130313/91700/3670/301/10/
048470/20130313/91703/3670/835/10/
048470/20130313/91712/3670/473/10/
048470/20130313/91729/3670/376/10/
048470/20130313/91729/3675/500/20/
048470/20130313/91751/3675/100/20/
048470/20130313/91801/3670/188/10/
048470/20130313/91813/3670/1296/10/
048470/20130313/91818/3670/243/10/
048470/20130313/91821/3665/309/10/
048470/20130313/91824/3665/270/10/
048470/20130313/91832/3665/267/10/
048470/20130313/91839/3665/137/10/
048470/20130313/91840/3660/92/10/
048470/20130313/91841/3660/2778/10/
048470/20130313/91844/3660/300/10/
048470/20130313/91845/3660/200/10/
048470/20130313/91846/3660/864/10/
048470/20130313/91847/3660/100/10/
048470/20130313/91848/3660/202/10/
048470/20130313/91858/3655/793/10/
048470/20130313/91913/3660/353/10/
048470/20130313/91919/3665/783/20/
048470/20130313/91935/3670/2068/20/
048470/20130313/91935/3670/304/20/
048470/20130313/91941/3670/712/10/
048470/20130313/91942/3670/308/20/
048470/20130313/91942/3675/192/20/
048470/20130313/91956/3680/200/20/
048470/20130313/92029/3680/558/20/
048470/20130313/92046/3665/439/10/
048470/20130313/92147/3670/424/10/
048470/20130313/92147/3665/947/10/
048470/20130313/92151/3665/3000/10/
048470/20130313/92153/3665/557/10/
048470/20130313/92200/3660/270/10/
048470/20130313/92202/3660/263/10/
048470/20130313/92216/3660/224/10/
048470/20130313/92222/3660/109/10/
048470/20130313/92233/3660/1001/10/
048470/20130313/92234/3665/820/20/
048470/20130313/92255/3665/1249/10/
048470/20130313/92346/3665/118/10/
048470/20130313/92353/3665/160/10/
048470/20130313/92400/3670/256/20/
048470/20130313/92402/3670/130/10/
048470/20130313/92406/3670/195/10/
048470/20130313/92505/3670/122/10/
048470/20130313/92514/3670/81/20/
048470/20130313/92523/3670/90/20/
048470/20130313/92535/3670/300/20/
048470/20130313/92541/3670/500/10/
048470/20130313/92553/3675/201/20/
048470/20130313/92554/3670/100/10/
048470/20130313/92604/3675/100/20/
048470/20130313/92605/3670/831/10/
048470/20130313/92605/3670/311/10/
048470/20130313/92616/3665/102/10/
048470/20130313/92619/3665/162/10/
048470/20130313/92623/3665/379/10/
048470/20130313/92632/3665/160/20/
048470/20130313/92714/3670/891/20/
048470/20130313/92720/3665/2305/10/
048470/20130313/92728/3665/1667/20/
048470/20130313/92911/3665/949/10/
048470/20130313/92921/3665/1849/10/
048470/20130313/92923/3660/2931/10/
048470/20130313/92923/3655/1758/10/
048470/20130313/92926/3655/1005/10/
048470/20130313/92946/3655/179/10/
048470/20130313/92949/3655/2295/10/
048470/20130313/92949/3650/2532/10/
048470/20130313/92951/3650/1533/10/
048470/20130313/92951/3645/367/10/
048470/20130313/93029/3640/379/10/
048470/20130313/93033/3640/1981/10/
048470/20130313/93040/3650/81/20/
048470/20130313/93053/3640/150/10/
048470/20130313/93057/3640/500/10/
048470/20130313/93101/3640/2110/10/
048470/20130313/93114/3645/248/20/
048470/20130313/93120/3650/2904/20/
048470/20130313/93120/3650/588/10/
048470/20130313/93120/3645/174/10/
048470/20130313/93121/3650/136/10/
048470/20130313/93142/3660/93/20/
048470/20130313/93202/3655/147/10/
048470/20130313/93208/3650/100/10/
048470/20130313/93211/3650/1514/10/
048470/20130313/93225/3645/687/10/
048470/20130313/93225/3640/1968/10/
048470/20130313/93225/3635/1732/10/
048470/20130313/93225/3630/1665/10/
048470/20130313/93225/3625/1815/10/
048470/20130313/93225/3620/3791/10/
048470/20130313/93225/3615/733/10/
048470/20130313/93225/3610/1600/10/
048470/20130313/93225/3605/1009/10/
048470/20130313/93247/3625/258/10/
048470/20130313/93252/3625/637/20/
048470/20130313/93253/3625/400/20/
048470/20130313/93300/3610/1275/10/
048470/20130313/93300/3605/235/10/
048470/20130313/93300/3600/2185/10/
048470/20130313/93300/3595/100/10/
048470/20130313/93303/3600/800/20/
048470/20130313/93304/3600/100/20/
048470/20130313/93304/3595/765/10/
048470/20130313/93304/3590/261/10/
048470/20130313/93312/3590/398/10/
048470/20130313/93312/3585/1292/10/
048470/20130313/93318/3600/407/20/
048470/20130313/93338/3605/219/10/
048470/20130313/93339/3605/200/10/
048470/20130313/93344/3605/122/10/
048470/20130313/93344/3600/1531/10/
048470/20130313/93347/3600/1474/10/
048470/20130313/93356/3600/100/20/
048470/20130313/93406/3600/341/20/
048470/20130313/93410/3595/202/10/
048470/20130313/93422/3610/96/20/
048470/20130313/93428/3610/535/20/
048470/20130313/93430/3610/530/20/
048470/20130313/93433/3610/424/20/
048470/20130313/93437/3615/110/20/
048470/20130313/93439/3615/1729/20/
048470/20130313/93443/3625/280/20/
048470/20130313/93446/3625/154/20/
048470/20130313/93447/3625/261/20/
048470/20130313/93456/3635/130/20/
048470/20130313/93507/3630/106/10/
048470/20130313/93509/3625/744/10/
048470/20130313/93510/3625/147/10/
048470/20130313/93523/3620/187/10/
048470/20130313/93524/3620/347/10/
048470/20130313/93534/3625/95/10/
048470/20130313/93534/3620/233/10/
048470/20130313/93550/3620/100/20/
048470/20130313/93555/3620/700/20/
048470/20130313/93607/3620/81/20/
048470/20130313/93640/3615/2023/10/
048470/20130313/93652/3615/90/10/
048470/20130313/93745/3610/82/20/
048470/20130313/93754/3605/1000/10/
048470/20130313/93819/3605/82/10/
048470/20130313/93824/3610/163/20/
048470/20130313/93921/3610/1283/10/
048470/20130313/93927/3610/88/10/
048470/20130313/93930/3615/222/20/
048470/20130313/94012/3615/242/20/
048470/20130313/94050/3620/790/20/
048470/20130313/94056/3625/288/20/
048470/20130313/94059/3625/223/10/
048470/20130313/94132/3625/261/10/
048470/20130313/94144/3625/1240/10/
048470/20130313/94152/3620/220/10/
048470/20130313/94152/3625/1738/20/
048470/20130313/94219/3620/177/10/
048470/20130313/94238/3620/1431/20/
048470/20130313/94239/3625/679/20/
048470/20130313/94239/3630/1445/20/
048470/20130313/94239/3635/2005/20/
048470/20130313/94239/3645/578/20/
048470/20130313/94246/3650/1050/20/
048470/20130313/94247/3655/200/20/
048470/20130313/94248/3655/276/20/
048470/20130313/94248/3655/200/20/
048470/20130313/94248/3655/698/20/
048470/20130313/94249/3660/256/20/
048470/20130313/94249/3665/1061/20/
048470/20130313/94249/3670/345/20/
048470/20130313/94250/3670/911/20/
048470/20130313/94250/3675/470/20/
048470/20130313/94250/3675/382/20/
048470/20130313/94251/3675/261/20/
048470/20130313/94251/3680/279/20/
048470/20130313/94252/3680/2411/20/
048470/20130313/94252/3685/332/20/
048470/20130313/94252/3685/1000/20/
048470/20130313/94254/3680/101/20/
048470/20130313/94254/3680/989/10/
048470/20130313/94300/3675/100/20/
048470/20130313/94300/3680/608/20/
048470/20130313/94310/3665/1048/20/
048470/20130313/94314/3650/1050/10/
048470/20130313/94314/3640/150/10/
048470/20130313/94314/3635/750/10/
048470/20130313/94322/3650/617/20/
048470/20130313/94324/3650/272/20/
048470/20130313/94324/3650/405/20/
048470/20130313/94326/3650/595/10/
048470/20130313/94340/3640/1320/10/
048470/20130313/94348/3640/180/20/
048470/20130313/94352/3635/197/10/
048470/20130313/94355/3640/106/20/
048470/20130313/94404/3650/271/20/
048470/20130313/94428/3645/111/20/
048470/20130313/94428/3645/331/20/
048470/20130313/94429/3640/205/10/
048470/20130313/94429/3640/500/20/
048470/20130313/94429/3640/400/20/
048470/20130313/94429/3640/895/20/
048470/20130313/94435/3650/504/20/
048470/20130313/94443/3645/200/20/
048470/20130313/94504/3635/808/10/
048470/20130313/94508/3630/276/10/
048470/20130313/94508/3630/224/10/
048470/20130313/94547/3635/795/20/
048470/20130313/94547/3640/336/20/
048470/20130313/94601/3650/524/20/
048470/20130313/94610/3650/326/20/
048470/20130313/94617/3650/1140/20/
048470/20130313/94618/3650/303/20/
048470/20130313/94618/3650/102/20/
048470/20130313/94619/3650/502/20/
048470/20130313/94619/3650/227/20/
048470/20130313/94628/3640/423/20/
048470/20130313/94628/3645/385/20/
048470/20130313/94633/3640/444/20/
048470/20130313/94641/3640/634/20/
048470/20130313/94642/3640/653/10/
048470/20130313/94645/3630/366/10/
048470/20130313/94645/3625/693/10/
048470/20130313/94709/3625/2089/10/
048470/20130313/94711/3625/540/10/
048470/20130313/94712/3625/279/10/
048470/20130313/94725/3625/213/10/
048470/20130313/94725/3620/289/10/
048470/20130313/94725/3620/500/10/
048470/20130313/94725/3620/500/10/
048470/20130313/94729/3620/1446/10/
048470/20130313/94730/3620/500/10/
048470/20130313/94730/3620/850/10/
048470/20130313/94843/3620/326/10/
048470/20130313/94843/3615/1410/10/
048470/20130313/94902/3615/89/20/
048470/20130313/94913/3610/276/10/
048470/20130313/94913/3605/324/10/
048470/20130313/94918/3605/82/10/
048470/20130313/94918/3600/972/10/
048470/20130313/94942/3600/101/10/
048470/20130313/95015/3625/100/20/
048470/20130313/95143/3620/275/20/
048470/20130313/95148/3620/700/10/
048470/20130313/95154/3610/500/10/
048470/20130313/95236/3610/241/10/
048470/20130313/95236/3620/113/20/
048470/20130313/95239/3620/887/10/
048470/20130313/95242/3610/800/10/
048470/20130313/95252/3610/127/10/
048470/20130313/95252/3605/1373/10/
048470/20130313/95341/3605/1001/10/
048470/20130313/95427/3615/100/20/
048470/20130313/95514/3610/200/10/
048470/20130313/95520/3605/327/10/
048470/20130313/95525/3605/439/10/
048470/20130313/95525/3600/649/10/
048470/20130313/95544/3600/1135/10/
048470/20130313/95544/3595/1700/10/
048470/20130313/95544/3595/627/10/
048470/20130313/95544/3590/1233/10/
048470/20130313/95544/3585/1318/10/
048470/20130313/95544/3580/3227/10/
048470/20130313/95545/3575/100/10/
048470/20130313/95545/3575/100/10/
048470/20130313/95548/3580/155/20/
048470/20130313/95551/3575/952/10/
048470/20130313/95551/3575/985/10/
048470/20130313/95551/3570/763/10/
048470/20130313/95553/3580/110/20/
048470/20130313/95555/3580/110/20/
048470/20130313/95557/3580/6481/20/
048470/20130313/95558/3580/355/20/
048470/20130313/95558/3580/340/20/
048470/20130313/95558/3580/565/20/
048470/20130313/95559/3580/130/20/
048470/20130313/95559/3580/89/20/
048470/20130313/95600/3590/81/10/
048470/20130313/95645/3600/148/20/
048470/20130313/95647/3600/101/20/
048470/20130313/95703/3595/116/20/
048470/20130313/95704/3595/300/20/
048470/20130313/95721/3595/115/20/
048470/20130313/95729/3595/95/20/
048470/20130313/95736/3595/167/20/
048470/20130313/95743/3595/179/20/
048470/20130313/95743/3595/164/20/
048470/20130313/95812/3600/153/20/
048470/20130313/95837/3610/81/20/
048470/20130313/95840/3610/390/20/
048470/20130313/95847/3595/202/10/
048470/20130313/95904/3595/95/10/
048470/20130313/95911/3600/441/20/
048470/20130313/95917/3595/140/10/
048470/20130313/95940/3600/97/20/
048470/20130313/95943/3600/150/10/
048470/20130313/100034/3600/203/20/
048470/20130313/100043/3600/300/20/
048470/20130313/100125/3595/637/10/
048470/20130313/100254/3595/104/10/
048470/20130313/100444/3595/217/10/
048470/20130313/100507/3595/268/10/
048470/20130313/100630/3595/334/10/
048470/20130313/100707/3590/337/10/
048470/20130313/100833/3590/992/10/
048470/20130313/100845/3585/271/10/
048470/20130313/100901/3595/101/20/
048470/20130313/101111/3595/673/20/
048470/20130313/101111/3600/234/20/
048470/20130313/101200/3600/82/20/
048470/20130313/101228/3595/506/10/
048470/20130313/101329/3595/510/10/
048470/20130313/101418/3590/1004/10/
048470/20130313/101418/3585/3971/10/
048470/20130313/101418/3580/2197/10/
048470/20130313/101425/3580/283/20/
048470/20130313/101434/3595/180/20/
048470/20130313/101434/3600/1861/20/
048470/20130313/101434/3600/959/10/
048470/20130313/101612/3590/217/20/
048470/20130313/101612/3595/1335/20/
048470/20130313/101702/3600/314/20/
048470/20130313/101747/3600/2500/20/
048470/20130313/101749/3600/388/20/
048470/20130313/102028/3585/199/10/
048470/20130313/102243/3590/201/10/
048470/20130313/102247/3590/292/20/
048470/20130313/102323/3590/153/10/
048470/20130313/102343/3600/1800/20/
048470/20130313/102428/3605/131/20/
048470/20130313/102531/3600/1003/10/
048470/20130313/102531/3600/451/10/
048470/20130313/102531/3585/769/10/
048470/20130313/102616/3590/271/10/
048470/20130313/102624/3585/686/10/
048470/20130313/102628/3585/353/10/
048470/20130313/102655/3580/625/10/
048470/20130313/102720/3580/126/10/
048470/20130313/102800/3585/100/20/
048470/20130313/102806/3585/226/20/
048470/20130313/102811/3585/875/20/
048470/20130313/102840/3580/588/10/
048470/20130313/102840/3575/829/10/
048470/20130313/102840/3570/1609/10/
048470/20130313/102840/3570/1089/10/
048470/20130313/103045/3585/261/20/
048470/20130313/103143/3585/186/20/
048470/20130313/103344/3585/216/10/
048470/20130313/103346/3585/740/10/
048470/20130313/103353/3590/462/20/
048470/20130313/103420/3595/101/20/
048470/20130313/103420/3600/704/20/
048470/20130313/103420/3605/379/20/
048470/20130313/103504/3590/2341/10/
048470/20130313/103552/3595/501/10/
048470/20130313/103636/3590/1242/10/
048470/20130313/103729/3600/113/20/
048470/20130313/103924/3585/639/10/
048470/20130313/103926/3585/424/10/
048470/20130313/104031/3580/313/10/
048470/20130313/104039/3585/360/20/
048470/20130313/104233/3585/113/10/
048470/20130313/104238/3585/618/10/
048470/20130313/104240/3585/282/10/
048470/20130313/104240/3585/1039/10/
048470/20130313/104640/3580/101/10/
048470/20130313/104740/3580/82/10/
048470/20130313/104809/3575/1001/10/
048470/20130313/105032/3580/136/20/
048470/20130313/105105/3580/190/20/
048470/20130313/105224/3580/239/10/
048470/20130313/105238/3575/982/10/
048470/20130313/105252/3575/2153/10/
048470/20130313/105303/3575/100/20/
048470/20130313/105313/3575/85/20/
048470/20130313/105434/3575/85/10/
048470/20130313/105434/3570/930/10/
048470/20130313/105448/3570/1500/10/
048470/20130313/105529/3580/1147/20/
048470/20130313/105534/3580/215/10/
048470/20130313/105534/3570/85/10/
048470/20130313/110022/3580/170/20/
048470/20130313/110032/3580/182/10/
048470/20130313/110117/3580/507/20/
048470/20130313/110117/3585/265/20/
048470/20130313/110128/3585/429/10/
048470/20130313/110128/3585/450/10/
048470/20130313/110244/3590/322/20/
048470/20130313/110314/3590/879/20/
048470/20130313/110314/3595/504/20/
048470/20130313/110314/3600/3617/20/
048470/20130313/110350/3600/708/20/
048470/20130313/110407/3600/408/20/
048470/20130313/110451/3600/124/10/
048470/20130313/110732/3580/558/10/
048470/20130313/110922/3600/1005/20/
048470/20130313/111031/3600/651/20/
048470/20130313/111121/3600/150/10/
048470/20130313/111319/3600/822/20/
048470/20130313/111319/3605/710/20/
048470/20130313/111319/3610/430/20/
048470/20130313/111319/3620/211/20/
048470/20130313/111319/3625/944/10/
048470/20130313/111319/3630/560/10/
048470/20130313/111319/3635/1339/20/
048470/20130313/111701/3600/333/10/
048470/20130313/111701/3615/308/20/
048470/20130313/111705/3615/164/10/
048470/20130313/111730/3615/204/20/
048470/20130313/112149/3590/1040/10/
048470/20130313/112155/3585/1416/10/
048470/20130313/112214/3585/95/20/
048470/20130313/112220/3585/98/20/
048470/20130313/112332/3600/119/20/
048470/20130313/112343/3605/84/20/
048470/20130313/112440/3605/179/20/
048470/20130313/112455/3585/1000/10/
048470/20130313/112629/3595/623/10/
048470/20130313/112755/3605/522/20/
048470/20130313/113243/3595/578/10/
048470/20130313/113632/3590/322/10/
048470/20130313/113632/3585/679/10/
048470/20130313/113844/3585/84/10/
048470/20130313/113947/3585/165/10/
048470/20130313/114132/3580/501/10/
048470/20130313/114242/3585/972/10/
048470/20130313/114338/3580/510/10/
048470/20130313/114649/3580/239/10/
048470/20130313/114746/3580/294/10/
048470/20130313/114847/3580/273/10/
048470/20130313/114951/3580/3091/10/
048470/20130313/114951/3575/909/10/
048470/20130313/115027/3575/200/10/
048470/20130313/115047/3575/656/10/
048470/20130313/115109/3575/100/10/
048470/20130313/115127/3575/236/10/
048470/20130313/115127/3570/764/10/
048470/20130313/115143/3570/380/10/
048470/20130313/115349/3570/126/10/
048470/20130313/115405/3580/956/20/
048470/20130313/115455/3580/1096/20/
048470/20130313/115748/3575/103/10/
048470/20130313/115817/3575/460/10/
048470/20130313/115850/3570/168/10/
048470/20130313/115943/3570/1000/10/
048470/20130313/115954/3570/176/10/
048470/20130313/120056/3570/177/10/
048470/20130313/120143/3575/1200/20/
048470/20130313/120324/3575/117/20/
048470/20130313/120359/3575/100/20/
048470/20130313/120407/3575/100/20/
048470/20130313/120414/3575/500/20/
048470/20130313/120524/3575/204/20/
048470/20130313/120551/3570/1001/10/
048470/20130313/120602/3570/103/10/
048470/20130313/120705/3565/743/10/
048470/20130313/120727/3570/682/20/
048470/20130313/120804/3570/201/20/
048470/20130313/120922/3565/1510/10/
048470/20130313/120923/3565/1089/10/
048470/20130313/121103/3565/106/10/
048470/20130313/121112/3560/1637/10/
048470/20130313/121112/3560/2396/10/
048470/20130313/121117/3555/711/10/
048470/20130313/121203/3560/150/10/
048470/20130313/121241/3560/101/20/
048470/20130313/121328/3560/501/20/
048470/20130313/121358/3560/161/10/
048470/20130313/121358/3560/337/10/
048470/20130313/121420/3555/179/10/
048470/20130313/121909/3560/109/10/
048470/20130313/121930/3570/460/20/
048470/20130313/121930/3575/498/20/
048470/20130313/121930/3580/158/20/
048470/20130313/121930/3585/220/20/
048470/20130313/121930/3590/132/20/
048470/20130313/122102/3565/140/10/
048470/20130313/122449/3565/1700/20/
048470/20130313/122503/3560/456/10/
048470/20130313/122504/3560/300/10/
048470/20130313/122538/3560/252/10/
048470/20130313/122606/3560/277/10/
048470/20130313/122723/3560/84/20/
048470/20130313/122952/3570/85/20/
048470/20130313/123305/3570/152/20/
048470/20130313/123505/3565/178/10/
048470/20130313/123505/3560/1052/10/
048470/20130313/123505/3555/299/10/
048470/20130313/123718/3565/263/10/
048470/20130313/123728/3565/519/10/
048470/20130313/123728/3560/1581/10/
048470/20130313/123728/3555/300/10/
048470/20130313/124020/3565/104/10/
048470/20130313/124539/3560/581/10/
048470/20130313/124539/3555/1017/10/
048470/20130313/124559/3550/501/10/
048470/20130313/125106/3555/111/10/
048470/20130313/125132/3555/90/10/
048470/20130313/125150/3555/191/10/
048470/20130313/125150/3550/698/10/
048470/20130313/125150/3545/955/10/
048470/20130313/125150/3540/1157/10/
048470/20130313/125230/3540/93/10/
048470/20130313/125500/3555/94/20/
048470/20130313/125515/3555/149/10/
048470/20130313/125613/3555/110/10/
048470/20130313/125654/3550/520/10/
048470/20130313/125715/3550/202/10/
048470/20130313/125721/3550/100/10/
048470/20130313/125809/3555/256/20/
048470/20130313/125948/3560/230/20/
048470/20130313/130028/3555/1003/10/
048470/20130313/130033/3555/1171/10/
048470/20130313/130100/3555/101/10/
048470/20130313/130129/3560/394/20/
048470/20130313/130142/3560/96/10/
048470/20130313/130142/3555/104/10/
048470/20130313/130602/3570/249/20/
048470/20130313/130617/3565/242/10/
048470/20130313/130649/3570/100/20/
048470/20130313/130818/3565/204/10/
048470/20130313/130916/3565/146/10/
048470/20130313/131318/3570/108/20/
048470/20130313/131327/3565/126/10/
048470/20130313/131359/3565/110/10/
048470/20130313/131431/3570/917/20/
048470/20130313/131714/3570/151/10/
048470/20130313/131737/3565/1000/10/
048470/20130313/131824/3565/1012/10/
048470/20130313/132306/3565/153/10/
048470/20130313/132424/3560/594/10/
048470/20130313/132459/3555/257/10/
048470/20130313/132527/3560/1132/20/
048470/20130313/132558/3575/156/20/
048470/20130313/132558/3580/350/20/
048470/20130313/132903/3580/90/20/
048470/20130313/133140/3580/82/20/
048470/20130313/133400/3580/88/20/
048470/20130313/133419/3580/330/20/
048470/20130313/133613/3575/100/10/
048470/20130313/133759/3570/116/10/
048470/20130313/133759/3570/125/10/
048470/20130313/133904/3570/86/20/
048470/20130313/134037/3565/174/10/
048470/20130313/134037/3560/206/10/
048470/20130313/134112/3560/541/10/
048470/20130313/134203/3560/327/10/
048470/20130313/134203/3555/713/10/
048470/20130313/134317/3565/101/20/
048470/20130313/134334/3560/1050/10/
048470/20130313/134349/3560/151/20/
048470/20130313/134403/3560/634/20/
048470/20130313/134423/3555/667/10/
048470/20130313/134423/3550/6193/10/
048470/20130313/134433/3550/1001/10/
048470/20130313/134505/3550/334/10/
048470/20130313/134510/3555/486/20/
048470/20130313/134517/3550/1010/10/
048470/20130313/134518/3555/151/20/
048470/20130313/134545/3550/1500/10/
048470/20130313/134600/3555/101/20/
048470/20130313/134605/3555/302/20/
048470/20130313/134609/3555/100/20/
048470/20130313/134615/3555/200/20/
048470/20130313/134621/3555/400/20/
048470/20130313/134628/3555/421/20/
048470/20130313/134631/3555/100/20/
048470/20130313/134833/3560/580/20/
048470/20130313/134900/3555/262/10/
048470/20130313/135001/3560/81/20/
048470/20130313/135040/3560/284/20/
048470/20130313/135110/3560/251/10/
048470/20130313/135215/3560/230/20/
048470/20130313/135228/3555/1000/10/
048470/20130313/135453/3555/933/10/
048470/20130313/135513/3555/153/20/
048470/20130313/135741/3555/281/20/
048470/20130313/135807/3555/200/20/
048470/20130313/140041/3550/1055/10/
048470/20130313/140600/3555/215/20/
048470/20130313/140606/3555/279/20/
048470/20130313/140614/3555/272/10/
048470/20130313/140644/3555/449/10/
048470/20130313/140644/3550/552/10/
048470/20130313/141022/3555/196/10/
048470/20130313/141121/3555/547/10/
048470/20130313/141129/3555/95/10/
048470/20130313/141153/3555/84/10/
048470/20130313/141230/3555/100/10/
048470/20130313/141432/3550/1024/10/
048470/20130313/141555/3545/88/10/
048470/20130313/141639/3550/102/20/
048470/20130313/141644/3550/338/20/
048470/20130313/141711/3550/323/10/
048470/20130313/141820/3550/672/10/
048470/20130313/141822/3550/150/10/
048470/20130313/141823/3550/161/10/
048470/20130313/141823/3545/100/10/
048470/20130313/141834/3550/449/20/
048470/20130313/141921/3550/150/20/
048470/20130313/142049/3545/2057/10/
048470/20130313/142137/3540/857/10/
048470/20130313/142240/3540/665/10/
048470/20130313/142300/3535/949/10/
048470/20130313/142303/3535/521/10/
048470/20130313/142303/3530/5935/10/
048470/20130313/142312/3530/1001/20/
048470/20130313/142316/3530/260/20/
048470/20130313/142326/3535/100/20/
048470/20130313/142345/3535/102/10/
048470/20130313/142352/3535/695/10/
048470/20130313/142434/3535/265/20/
048470/20130313/142435/3535/400/20/
048470/20130313/142436/3535/200/20/
048470/20130313/142437/3535/500/20/
048470/20130313/142440/3535/135/20/
048470/20130313/142515/3540/240/20/
048470/20130313/142528/3540/100/20/
048470/20130313/142529/3540/150/20/
048470/20130313/142553/3535/1564/10/
048470/20130313/142601/3535/710/10/
048470/20130313/142625/3535/146/10/
048470/20130313/142625/3530/535/10/
048470/20130313/142628/3530/1000/10/
048470/20130313/142646/3530/267/10/
048470/20130313/142724/3530/88/10/
048470/20130313/142732/3535/180/20/
048470/20130313/142737/3535/100/20/
048470/20130313/142749/3535/260/20/
048470/20130313/142851/3535/183/20/
048470/20130313/143000/3530/680/10/
048470/20130313/143010/3530/2400/10/
048470/20130313/143010/3525/1386/10/
048470/20130313/143010/3520/1818/10/
048470/20130313/143010/3515/603/10/
048470/20130313/143131/3535/180/20/
048470/20130313/143155/3535/180/10/
048470/20130313/143254/3545/355/20/
048470/20130313/143302/3545/708/10/
048470/20130313/143338/3545/346/20/
048470/20130313/143425/3550/111/20/
048470/20130313/143446/3550/589/10/
048470/20130313/143515/3545/500/10/
048470/20130313/143515/3545/188/10/
048470/20130313/143950/3535/490/10/
048470/20130313/144020/3530/200/10/
048470/20130313/144243/3535/133/20/
048470/20130313/144246/3535/1000/20/
048470/20130313/144300/3535/189/20/
048470/20130313/144434/3530/222/10/
048470/20130313/144440/3530/532/10/
048470/20130313/144449/3530/408/20/
048470/20130313/144457/3530/94/10/
048470/20130313/144502/3530/500/20/
048470/20130313/144638/3530/1407/10/
048470/20130313/144649/3530/500/20/
048470/20130313/144738/3525/106/10/
048470/20130313/144809/3530/1113/20/
048470/20130313/144847/3530/1351/10/
048470/20130313/144900/3530/1000/10/
048470/20130313/144912/3530/231/10/
048470/20130313/144915/3530/805/10/
048470/20130313/144946/3525/396/10/
048470/20130313/144946/3525/2403/10/
048470/20130313/150000/3520/24433/10/
