048470/20130225/90000/4240/50399/20/
048470/20130225/90001/4225/560/10/
048470/20130225/90001/4220/406/10/
048470/20130225/90001/4220/5938/10/
048470/20130225/90001/4215/510/10/
048470/20130225/90001/4210/1550/10/
048470/20130225/90001/4200/6002/10/
048470/20130225/90013/4200/1545/10/
048470/20130225/90014/4200/250/20/
048470/20130225/90016/4200/165/20/
048470/20130225/90017/4200/1000/20/
048470/20130225/90020/4200/100/20/
048470/20130225/90021/4200/280/10/
048470/20130225/90023/4200/342/10/
048470/20130225/90023/4200/100/10/
048470/20130225/90025/4190/250/10/
048470/20130225/90027/4200/100/20/
048470/20130225/90027/4200/200/20/
048470/20130225/90027/4200/300/20/
048470/20130225/90027/4200/300/20/
048470/20130225/90027/4200/300/20/
048470/20130225/90027/4200/300/20/
048470/20130225/90028/4200/300/20/
048470/20130225/90028/4200/100/20/
048470/20130225/90029/4200/350/20/
048470/20130225/90033/4200/288/10/
048470/20130225/90036/4200/440/10/
048470/20130225/90036/4190/560/10/
048470/20130225/90055/4200/204/10/
048470/20130225/90103/4200/574/10/
048470/20130225/90104/4200/200/10/
048470/20130225/90106/4200/701/10/
048470/20130225/90113/4200/216/10/
048470/20130225/90117/4195/150/10/
048470/20130225/90117/4195/350/10/
048470/20130225/90118/4200/2697/20/
048470/20130225/90119/4200/150/10/
048470/20130225/90122/4200/540/10/
048470/20130225/90123/4210/200/20/
048470/20130225/90126/4210/290/20/
048470/20130225/90130/4215/1186/20/
048470/20130225/90130/4210/100/10/
048470/20130225/90131/4215/217/20/
048470/20130225/90142/4215/1062/10/
048470/20130225/90152/4215/325/10/
048470/20130225/90155/4215/102/20/
048470/20130225/90155/4210/260/10/
048470/20130225/90201/4215/173/20/
048470/20130225/90201/4220/400/20/
048470/20130225/90202/4220/800/20/
048470/20130225/90202/4225/994/20/
048470/20130225/90202/4235/2948/20/
048470/20130225/90205/4240/5258/10/
048470/20130225/90205/4215/472/10/
048470/20130225/90207/4250/100/20/
048470/20130225/90214/4250/100/20/
048470/20130225/90216/4250/200/20/
048470/20130225/90223/4250/1000/20/
048470/20130225/90239/4250/1578/20/
048470/20130225/90239/4255/200/20/
048470/20130225/90239/4260/607/20/
048470/20130225/90244/4245/100/20/
048470/20130225/90246/4245/599/20/
048470/20130225/90246/4250/402/20/
048470/20130225/90253/4245/1627/20/
048470/20130225/90253/4250/1453/20/
048470/20130225/90256/4250/401/20/
048470/20130225/90257/4250/100/20/
048470/20130225/90259/4250/146/20/
048470/20130225/90312/4240/252/10/
048470/20130225/90337/4235/172/10/
048470/20130225/90337/4240/300/20/
048470/20130225/90342/4235/306/10/
048470/20130225/90349/4230/262/10/
048470/20130225/90358/4230/645/20/
048470/20130225/90358/4235/545/20/
048470/20130225/90406/4235/100/20/
048470/20130225/90415/4235/250/20/
048470/20130225/90415/4225/1000/10/
048470/20130225/90416/4225/929/10/
048470/20130225/90416/4220/570/10/
048470/20130225/90418/4220/2590/10/
048470/20130225/90420/4220/1003/10/
048470/20130225/90421/4220/1658/10/
048470/20130225/90424/4220/85/10/
048470/20130225/90425/4220/100/20/
048470/20130225/90426/4215/1300/10/
048470/20130225/90429/4215/1468/10/
048470/20130225/90435/4210/1110/10/
048470/20130225/90435/4205/1890/10/
048470/20130225/90438/4205/221/10/
048470/20130225/90443/4205/476/10/
048470/20130225/90444/4205/715/10/
048470/20130225/90446/4200/3000/10/
048470/20130225/90449/4200/1300/10/
048470/20130225/90455/4200/1182/10/
048470/20130225/90500/4195/91/10/
048470/20130225/90504/4195/230/10/
048470/20130225/90504/4190/370/10/
048470/20130225/90515/4195/100/10/
048470/20130225/90523/4195/100/20/
048470/20130225/90526/4195/100/10/
048470/20130225/90526/4190/1362/10/
048470/20130225/90528/4190/500/10/
048470/20130225/90530/4195/108/20/
048470/20130225/90530/4200/777/20/
048470/20130225/90537/4200/395/10/
048470/20130225/90537/4190/1558/10/
048470/20130225/90540/4200/100/20/
048470/20130225/90546/4200/500/20/
048470/20130225/90551/4200/200/10/
048470/20130225/90552/4195/224/10/
048470/20130225/90554/4195/540/10/
048470/20130225/90555/4200/150/20/
048470/20130225/90601/4200/762/10/
048470/20130225/90602/4215/100/20/
048470/20130225/90606/4215/580/20/
048470/20130225/90630/4215/243/20/
048470/20130225/90636/4205/500/10/
048470/20130225/90637/4220/250/20/
048470/20130225/90645/4205/200/10/
048470/20130225/90658/4210/180/20/
048470/20130225/90704/4205/174/20/
048470/20130225/90712/4205/100/10/
048470/20130225/90713/4205/726/10/
048470/20130225/90713/4200/1274/10/
048470/20130225/90723/4200/200/10/
048470/20130225/90725/4200/320/10/
048470/20130225/90725/4195/1177/10/
048470/20130225/90725/4190/630/10/
048470/20130225/90729/4190/886/10/
048470/20130225/90735/4190/193/10/
048470/20130225/90735/4185/506/10/
048470/20130225/90737/4185/674/10/
048470/20130225/90740/4185/382/10/
048470/20130225/90740/4180/9618/10/
048470/20130225/90746/4175/204/10/
048470/20130225/90752/4165/395/10/
048470/20130225/90752/4160/370/10/
048470/20130225/90752/4150/498/10/
048470/20130225/90755/4150/1390/10/
048470/20130225/90756/4150/400/20/
048470/20130225/90757/4140/501/10/
048470/20130225/90758/4130/155/10/
048470/20130225/90758/4150/150/20/
048470/20130225/90802/4130/128/10/
048470/20130225/90802/4120/1311/10/
048470/20130225/90802/4115/150/10/
048470/20130225/90802/4110/981/10/
048470/20130225/90804/4120/275/20/
048470/20130225/90808/4150/147/20/
048470/20130225/90840/4155/313/20/
048470/20130225/90847/4155/107/20/
048470/20130225/90857/4150/110/10/
048470/20130225/90858/4150/404/10/
048470/20130225/90859/4140/220/10/
048470/20130225/90859/4150/296/20/
048470/20130225/90859/4155/704/20/
048470/20130225/90911/4155/200/20/
048470/20130225/90912/4155/1000/20/
048470/20130225/90916/4155/157/20/
048470/20130225/90919/4155/300/20/
048470/20130225/90922/4155/126/20/
048470/20130225/90922/4150/295/10/
048470/20130225/90926/4150/100/20/
048470/20130225/90929/4150/109/20/
048470/20130225/90931/4140/1230/10/
048470/20130225/90931/4135/1948/10/
048470/20130225/90931/4130/3692/10/
048470/20130225/90931/4125/1942/10/
048470/20130225/90931/4120/2688/10/
048470/20130225/90945/4120/517/10/
048470/20130225/90959/4140/95/20/
048470/20130225/91006/4130/83/10/
048470/20130225/91006/4140/200/20/
048470/20130225/91010/4140/1633/20/
048470/20130225/91018/4130/504/10/
048470/20130225/91025/4130/1000/10/
048470/20130225/91054/4145/152/10/
048470/20130225/91103/4130/169/10/
048470/20130225/91109/4140/335/20/
048470/20130225/91114/4140/300/20/
048470/20130225/91119/4140/836/20/
048470/20130225/91119/4135/225/10/
048470/20130225/91119/4130/375/10/
048470/20130225/91134/4140/150/20/
048470/20130225/91153/4145/88/20/
048470/20130225/91201/4145/100/10/
048470/20130225/91216/4145/115/20/
048470/20130225/91219/4140/300/20/
048470/20130225/91226/4150/269/20/
048470/20130225/91231/4150/334/20/
048470/20130225/91231/4155/94/20/
048470/20130225/91231/4160/491/20/
048470/20130225/91231/4170/81/20/
048470/20130225/91235/4170/270/20/
048470/20130225/91301/4165/100/20/
048470/20130225/91307/4170/105/20/
048470/20130225/91311/4185/1160/20/
048470/20130225/91311/4190/373/20/
048470/20130225/91319/4185/127/20/
048470/20130225/91320/4190/100/20/
048470/20130225/91326/4165/117/10/
048470/20130225/91328/4190/97/20/
048470/20130225/91338/4190/100/20/
048470/20130225/91351/4190/200/20/
048470/20130225/91352/4190/500/20/
048470/20130225/91401/4185/200/20/
048470/20130225/91409/4185/256/20/
048470/20130225/91413/4170/100/10/
048470/20130225/91430/4185/200/20/
048470/20130225/91439/4190/450/20/
048470/20130225/91459/4170/551/10/
048470/20130225/91505/4170/500/10/
048470/20130225/91506/4170/481/10/
048470/20130225/91514/4165/1000/10/
048470/20130225/91514/4170/500/20/
048470/20130225/91515/4165/923/10/
048470/20130225/91543/4150/102/20/
048470/20130225/91546/4150/100/20/
048470/20130225/91549/4150/112/20/
048470/20130225/91551/4150/100/20/
048470/20130225/91552/4150/100/10/
048470/20130225/91552/4145/415/10/
048470/20130225/91555/4165/755/20/
048470/20130225/91555/4170/470/20/
048470/20130225/91617/4150/151/10/
048470/20130225/91633/4150/100/10/
048470/20130225/91647/4150/463/10/
048470/20130225/91647/4145/1629/10/
048470/20130225/91658/4145/500/10/
048470/20130225/91710/4145/376/10/
048470/20130225/91716/4145/1100/10/
048470/20130225/91740/4145/114/10/
048470/20130225/91740/4140/286/10/
048470/20130225/91749/4140/200/10/
048470/20130225/91751/4140/480/10/
048470/20130225/91814/4140/1027/10/
048470/20130225/91823/4140/500/10/
048470/20130225/91830/4140/200/10/
048470/20130225/91942/4145/548/10/
048470/20130225/92011/4145/300/10/
048470/20130225/92051/4150/201/20/
048470/20130225/92109/4150/535/10/
048470/20130225/92120/4160/112/20/
048470/20130225/92120/4170/662/20/
048470/20130225/92236/4170/106/20/
048470/20130225/92332/4170/983/20/
048470/20130225/92400/4170/99/10/
048470/20130225/92409/4175/93/20/
048470/20130225/92421/4170/450/10/
048470/20130225/92442/4170/184/10/
048470/20130225/92442/4160/422/10/
048470/20130225/92500/4160/150/10/
048470/20130225/92500/4175/90/20/
048470/20130225/92500/4175/123/10/
048470/20130225/92517/4175/84/10/
048470/20130225/92548/4175/255/10/
048470/20130225/92559/4175/640/10/
048470/20130225/92633/4175/240/20/
048470/20130225/92633/4180/260/20/
048470/20130225/92641/4180/100/20/
048470/20130225/92658/4175/590/10/
048470/20130225/92746/4180/201/20/
048470/20130225/92850/4160/2200/10/
048470/20130225/92858/4160/511/10/
048470/20130225/92923/4160/201/10/
048470/20130225/92923/4155/114/10/
048470/20130225/93052/4155/510/10/
048470/20130225/93112/4155/426/10/
048470/20130225/93112/4155/83/20/
048470/20130225/93156/4155/266/10/
048470/20130225/93249/4155/200/10/
048470/20130225/93316/4150/1192/10/
048470/20130225/93326/4150/521/10/
048470/20130225/93333/4155/300/20/
048470/20130225/93428/4155/100/10/
048470/20130225/93442/4155/157/20/
048470/20130225/93447/4150/1154/10/
048470/20130225/93447/4150/131/10/
048470/20130225/93522/4150/490/10/
048470/20130225/93701/4150/3036/10/
048470/20130225/93714/4150/160/10/
048470/20130225/93724/4145/1822/10/
048470/20130225/93732/4145/1010/10/
048470/20130225/93800/4150/261/20/
048470/20130225/93824/4145/147/10/
048470/20130225/93836/4145/600/10/
048470/20130225/93844/4145/3462/10/
048470/20130225/93844/4150/1000/20/
048470/20130225/93915/4155/1095/20/
048470/20130225/93920/4155/100/20/
048470/20130225/94022/4155/90/20/
048470/20130225/94111/4150/463/10/
048470/20130225/94111/4145/537/10/
048470/20130225/94232/4150/269/10/
048470/20130225/94318/4155/90/20/
048470/20130225/94334/4150/510/10/
048470/20130225/94334/4145/2490/10/
048470/20130225/94337/4155/840/20/
048470/20130225/94349/4155/100/20/
048470/20130225/94359/4155/200/20/
048470/20130225/94450/4145/854/10/
048470/20130225/94450/4140/146/10/
048470/20130225/94508/4155/210/20/
048470/20130225/94607/4150/1020/20/
048470/20130225/94610/4150/500/20/
048470/20130225/94641/4150/575/20/
048470/20130225/94647/4150/157/20/
048470/20130225/94651/4150/100/10/
048470/20130225/94723/4155/104/20/
048470/20130225/94734/4155/238/10/
048470/20130225/94740/4155/100/20/
048470/20130225/94847/4150/228/10/
048470/20130225/94957/4150/507/10/
048470/20130225/95008/4145/1491/10/
048470/20130225/95008/4140/109/10/
048470/20130225/95014/4140/1000/10/
048470/20130225/95017/4140/980/10/
048470/20130225/95017/4140/3278/10/
048470/20130225/95042/4150/122/20/
048470/20130225/95046/4140/710/10/
048470/20130225/95102/4140/85/10/
048470/20130225/95107/4135/4020/10/
048470/20130225/95110/4135/2419/10/
048470/20130225/95111/4130/2000/10/
048470/20130225/95113/4135/123/20/
048470/20130225/95124/4130/2217/10/
048470/20130225/95135/4125/363/10/
048470/20130225/95143/4125/3000/10/
048470/20130225/95145/4125/107/10/
048470/20130225/95151/4125/110/20/
048470/20130225/95224/4125/1466/10/
048470/20130225/95244/4125/200/10/
048470/20130225/95246/4120/1503/10/
048470/20130225/95248/4120/1330/10/
048470/20130225/95248/4120/1307/10/
048470/20130225/95252/4120/820/20/
048470/20130225/95255/4115/5926/10/
048470/20130225/95255/4110/995/10/
048470/20130225/95255/4120/300/20/
048470/20130225/95255/4110/2200/10/
048470/20130225/95304/4115/300/10/
048470/20130225/95311/4115/239/10/
048470/20130225/95314/4115/473/10/
048470/20130225/95314/4110/838/10/
048470/20130225/95316/4110/1500/10/
048470/20130225/95337/4120/105/10/
048470/20130225/95337/4115/218/10/
048470/20130225/95345/4115/1243/10/
048470/20130225/95406/4120/150/20/
048470/20130225/95412/4120/200/20/
048470/20130225/95445/4120/110/10/
048470/20130225/95458/4125/200/20/
048470/20130225/95500/4125/100/20/
048470/20130225/95535/4125/167/20/
048470/20130225/95541/4120/355/10/
048470/20130225/95639/4115/1698/10/
048470/20130225/95653/4110/220/10/
048470/20130225/95705/4115/246/20/
048470/20130225/95706/4110/230/10/
048470/20130225/95721/4110/900/10/
048470/20130225/95721/4110/3248/10/
048470/20130225/95737/4115/105/20/
048470/20130225/95739/4110/205/10/
048470/20130225/95746/4110/650/10/
048470/20130225/95801/4105/4371/10/
048470/20130225/95803/4105/240/20/
048470/20130225/95803/4105/200/20/
048470/20130225/95811/4105/705/20/
048470/20130225/95815/4105/100/20/
048470/20130225/95817/4105/300/20/
048470/20130225/95825/4105/200/20/
048470/20130225/95829/4100/2410/10/
048470/20130225/95831/4100/108/10/
048470/20130225/95836/4100/2000/10/
048470/20130225/95846/4100/2066/10/
048470/20130225/95847/4100/441/10/
048470/20130225/95847/4100/1349/10/
048470/20130225/95900/4100/100/20/
048470/20130225/95907/4095/291/10/
048470/20130225/95908/4095/200/10/
048470/20130225/95911/4090/300/10/
048470/20130225/95943/4095/178/10/
048470/20130225/95958/4100/92/20/
048470/20130225/100001/4090/2690/10/
048470/20130225/100007/4090/233/20/
048470/20130225/100013/4085/471/10/
048470/20130225/100013/4085/239/10/
048470/20130225/100036/4090/81/20/
048470/20130225/100041/4095/715/10/
048470/20130225/100059/4100/109/20/
048470/20130225/100059/4100/691/10/
048470/20130225/100106/4100/267/20/
048470/20130225/100116/4100/233/10/
048470/20130225/100121/4100/324/20/
048470/20130225/100121/4105/885/20/
048470/20130225/100137/4105/743/10/
048470/20130225/100146/4095/500/10/
048470/20130225/100153/4115/90/20/
048470/20130225/100203/4095/260/10/
048470/20130225/100315/4095/310/10/
048470/20130225/100530/4100/658/10/
048470/20130225/100537/4100/308/20/
048470/20130225/100559/4100/275/10/
048470/20130225/100601/4100/1000/10/
048470/20130225/100626/4100/350/10/
048470/20130225/100722/4115/122/20/
048470/20130225/100735/4115/500/20/
048470/20130225/100735/4110/403/10/
048470/20130225/100740/4110/437/20/
048470/20130225/100756/4110/321/10/
048470/20130225/100759/4110/100/10/
048470/20130225/100848/4110/201/10/
048470/20130225/100848/4110/300/10/
048470/20130225/100924/4115/101/20/
048470/20130225/100952/4115/129/10/
048470/20130225/101041/4105/851/10/
048470/20130225/101051/4120/1280/20/
048470/20130225/101201/4120/4000/20/
048470/20130225/101216/4120/500/20/
048470/20130225/101231/4120/777/20/
048470/20130225/101231/4120/743/10/
048470/20130225/101247/4130/151/20/
048470/20130225/101459/4125/160/20/
048470/20130225/101610/4130/530/20/
048470/20130225/101625/4120/101/20/
048470/20130225/101655/4115/172/10/
048470/20130225/101747/4115/107/10/
048470/20130225/101956/4120/243/20/
048470/20130225/101956/4115/285/10/
048470/20130225/102101/4120/360/20/
048470/20130225/102232/4125/1001/20/
048470/20130225/102538/4130/116/20/
048470/20130225/102654/4130/702/20/
048470/20130225/102719/4125/300/10/
048470/20130225/102719/4130/1724/20/
048470/20130225/102739/4130/464/10/
048470/20130225/102744/4130/200/10/
048470/20130225/102806/4130/276/10/
048470/20130225/102806/4125/4797/10/
048470/20130225/102814/4125/2391/10/
048470/20130225/102825/4125/396/10/
048470/20130225/102828/4125/1000/10/
048470/20130225/102835/4125/510/10/
048470/20130225/102848/4125/2001/10/
048470/20130225/102855/4125/500/10/
048470/20130225/102906/4125/500/10/
048470/20130225/102921/4125/208/10/
048470/20130225/102934/4125/111/10/
048470/20130225/103027/4135/88/20/
048470/20130225/103305/4130/102/20/
048470/20130225/103314/4130/700/10/
048470/20130225/103439/4130/200/10/
048470/20130225/103453/4130/180/10/
048470/20130225/103507/4130/263/10/
048470/20130225/103528/4130/726/10/
048470/20130225/103536/4130/100/10/
048470/20130225/103550/4130/3946/10/
048470/20130225/103641/4130/523/10/
048470/20130225/103646/4135/725/20/
048470/20130225/103646/4140/385/20/
048470/20130225/103734/4140/100/20/
048470/20130225/103814/4140/300/20/
048470/20130225/103820/4135/200/10/
048470/20130225/103909/4135/200/10/
048470/20130225/103937/4135/130/10/
048470/20130225/104020/4135/362/10/
048470/20130225/104130/4135/312/10/
048470/20130225/104145/4130/526/10/
048470/20130225/104146/4135/100/20/
048470/20130225/104230/4135/539/20/
048470/20130225/104231/4135/100/20/
048470/20130225/104232/4135/415/20/
048470/20130225/104348/4135/88/10/
048470/20130225/104408/4140/996/20/
048470/20130225/104558/4140/120/20/
048470/20130225/104701/4140/300/10/
048470/20130225/104708/4140/96/10/
048470/20130225/105000/4145/144/20/
048470/20130225/105031/4140/150/10/
048470/20130225/105146/4145/100/20/
048470/20130225/105206/4140/2430/10/
048470/20130225/105253/4150/287/20/
048470/20130225/105307/4150/1492/20/
048470/20130225/105307/4155/448/20/
048470/20130225/105401/4150/100/20/
048470/20130225/105551/4150/1051/10/
048470/20130225/105601/4150/300/10/
048470/20130225/105604/4150/201/10/
048470/20130225/105613/4150/201/10/
048470/20130225/105617/4150/243/10/
048470/20130225/105626/4150/157/20/
048470/20130225/105626/4155/273/20/
048470/20130225/105642/4150/200/10/
048470/20130225/105650/4150/500/20/
048470/20130225/110052/4150/509/20/
048470/20130225/110155/4155/190/20/
048470/20130225/110209/4150/186/10/
048470/20130225/110220/4150/382/10/
048470/20130225/110220/4145/289/10/
048470/20130225/110225/4145/4349/10/
048470/20130225/110257/4150/859/20/
048470/20130225/110300/4150/99/10/
048470/20130225/110325/4150/302/10/
048470/20130225/110357/4140/602/10/
048470/20130225/110405/4135/402/10/
048470/20130225/110405/4130/291/10/
048470/20130225/110405/4120/307/10/
048470/20130225/110517/4120/244/10/
048470/20130225/110756/4140/211/20/
048470/20130225/111325/4130/386/10/
048470/20130225/111342/4125/230/10/
048470/20130225/111410/4125/95/10/
048470/20130225/111445/4140/201/20/
048470/20130225/111601/4130/101/10/
048470/20130225/111615/4125/1134/10/
048470/20130225/111615/4120/2784/10/
048470/20130225/111615/4115/1067/10/
048470/20130225/112246/4130/516/10/
048470/20130225/112316/4125/1341/10/
048470/20130225/112341/4120/1100/10/
048470/20130225/112341/4115/2202/10/
048470/20130225/112341/4110/2644/10/
048470/20130225/112408/4110/151/10/
048470/20130225/112417/4110/1500/10/
048470/20130225/112518/4110/151/10/
048470/20130225/112600/4110/538/10/
048470/20130225/112600/4105/962/10/
048470/20130225/112620/4125/102/20/
048470/20130225/112834/4120/137/10/
048470/20130225/113000/4120/111/10/
048470/20130225/113116/4110/254/10/
048470/20130225/113118/4110/289/10/
048470/20130225/113138/4110/400/10/
048470/20130225/113145/4110/100/10/
048470/20130225/113209/4110/90/10/
048470/20130225/113240/4110/100/10/
048470/20130225/113343/4110/147/10/
048470/20130225/113343/4105/208/10/
048470/20130225/113351/4110/100/10/
048470/20130225/113351/4105/1383/10/
048470/20130225/113359/4100/3211/10/
048470/20130225/113411/4100/122/10/
048470/20130225/113419/4100/1376/20/
048470/20130225/113432/4100/202/20/
048470/20130225/113831/4100/816/10/
048470/20130225/113831/4095/189/10/
048470/20130225/113900/4095/1028/10/
048470/20130225/113953/4095/1356/10/
048470/20130225/114003/4095/100/10/
048470/20130225/114056/4095/500/10/
048470/20130225/114112/4095/1261/10/
048470/20130225/114112/4090/4830/10/
048470/20130225/114112/4085/1909/10/
048470/20130225/114210/4085/384/10/
048470/20130225/114227/4085/115/10/
048470/20130225/114311/4100/822/20/
048470/20130225/114319/4100/101/10/
048470/20130225/114336/4100/179/20/
048470/20130225/114347/4100/100/10/
048470/20130225/114415/4100/666/10/
048470/20130225/114416/4100/136/10/
048470/20130225/114416/4085/1286/10/
048470/20130225/114424/4085/300/20/
048470/20130225/114425/4085/421/10/
048470/20130225/114426/4080/450/10/
048470/20130225/114501/4085/160/10/
048470/20130225/114531/4085/100/10/
048470/20130225/114649/4115/100/20/
048470/20130225/114710/4115/155/20/
048470/20130225/114943/4115/177/20/
048470/20130225/115253/4125/1247/20/
048470/20130225/115836/4115/131/10/
048470/20130225/115913/4115/155/10/
048470/20130225/120251/4115/160/20/
048470/20130225/120310/4115/300/20/
048470/20130225/120455/4115/96/20/
048470/20130225/120546/4120/127/20/
048470/20130225/120558/4110/130/10/
048470/20130225/120614/4110/274/10/
048470/20130225/120614/4105/130/10/
048470/20130225/120808/4120/123/20/
048470/20130225/120922/4110/295/10/
048470/20130225/121116/4110/260/10/
048470/20130225/121230/4110/476/10/
048470/20130225/121253/4110/163/10/
048470/20130225/121415/4115/111/20/
048470/20130225/121425/4115/1285/20/
048470/20130225/121449/4120/1916/20/
048470/20130225/121555/4125/1779/20/
048470/20130225/121800/4125/101/20/
048470/20130225/122209/4120/144/10/
048470/20130225/122214/4115/90/10/
048470/20130225/122513/4125/100/20/
048470/20130225/122526/4115/690/10/
048470/20130225/122948/4115/276/10/
048470/20130225/123026/4115/901/10/
048470/20130225/123232/4115/370/10/
048470/20130225/123306/4115/220/20/
048470/20130225/123430/4110/722/10/
048470/20130225/123852/4125/499/20/
048470/20130225/124128/4125/179/20/
048470/20130225/124635/4120/175/20/
048470/20130225/124757/4115/809/10/
048470/20130225/124803/4115/86/10/
048470/20130225/124914/4115/108/20/
048470/20130225/125013/4110/602/10/
048470/20130225/125053/4115/338/20/
048470/20130225/125123/4115/266/20/
048470/20130225/125212/4115/99/10/
048470/20130225/125230/4120/801/20/
048470/20130225/125303/4120/933/10/
048470/20130225/125456/4120/129/10/
048470/20130225/125600/4120/97/10/
048470/20130225/125817/4120/159/20/
048470/20130225/125842/4120/88/20/
048470/20130225/125928/4120/133/20/
048470/20130225/125947/4120/436/20/
048470/20130225/130046/4120/99/10/
048470/20130225/130125/4120/198/10/
048470/20130225/130332/4125/136/20/
048470/20130225/130357/4125/163/20/
048470/20130225/130711/4125/181/10/
048470/20130225/130743/4120/128/10/
048470/20130225/130846/4120/819/10/
048470/20130225/130903/4120/126/20/
048470/20130225/130944/4120/100/10/
048470/20130225/130955/4120/190/10/
048470/20130225/131002/4120/93/10/
048470/20130225/131205/4120/219/20/
048470/20130225/131317/4115/455/10/
048470/20130225/131328/4115/300/10/
048470/20130225/131332/4115/1000/10/
048470/20130225/131337/4115/360/10/
048470/20130225/131409/4115/246/10/
048470/20130225/131512/4115/904/20/
048470/20130225/131520/4115/81/20/
048470/20130225/131710/4115/274/10/
048470/20130225/131737/4115/100/20/
048470/20130225/131807/4110/1000/10/
048470/20130225/131824/4110/655/10/
048470/20130225/131958/4110/541/20/
048470/20130225/132043/4110/101/10/
048470/20130225/132054/4110/400/10/
048470/20130225/132058/4105/5000/10/
048470/20130225/132115/4105/2454/10/
048470/20130225/132133/4105/1816/10/
048470/20130225/132134/4105/2400/10/
048470/20130225/132135/4105/6500/10/
048470/20130225/132135/4105/3951/10/
048470/20130225/132153/4100/510/10/
048470/20130225/132155/4100/6000/10/
048470/20130225/132156/4100/300/10/
048470/20130225/132209/4100/294/10/
048470/20130225/132211/4100/100/20/
048470/20130225/132239/4100/296/20/
048470/20130225/132708/4090/925/10/
048470/20130225/132708/4085/300/10/
048470/20130225/132740/4085/943/10/
048470/20130225/132743/4085/308/20/
048470/20130225/132749/4085/509/10/
048470/20130225/132750/4085/84/10/
048470/20130225/132805/4085/126/10/
048470/20130225/132805/4080/446/10/
048470/20130225/132807/4085/99/10/
048470/20130225/132807/4080/481/10/
048470/20130225/132812/4080/156/10/
048470/20130225/132826/4080/370/10/
048470/20130225/132826/4080/430/20/
048470/20130225/133006/4095/100/20/
048470/20130225/133051/4095/99/20/
048470/20130225/133221/4095/285/20/
048470/20130225/133221/4100/1715/20/
048470/20130225/133249/4100/99/20/
048470/20130225/133430/4100/135/20/
048470/20130225/133453/4100/200/20/
048470/20130225/133557/4090/210/10/
048470/20130225/133557/4085/770/10/
048470/20130225/133618/4085/100/10/
048470/20130225/133627/4085/300/10/
048470/20130225/133643/4085/257/10/
048470/20130225/133657/4085/200/10/
048470/20130225/133801/4085/128/10/
048470/20130225/133813/4085/100/10/
048470/20130225/133819/4085/100/20/
048470/20130225/133943/4085/100/10/
048470/20130225/134039/4085/186/10/
048470/20130225/134135/4085/340/10/
048470/20130225/134512/4090/257/20/
048470/20130225/134516/4085/109/10/
048470/20130225/134524/4095/89/20/
048470/20130225/134602/4090/120/20/
048470/20130225/134609/4090/188/20/
048470/20130225/134620/4085/2809/10/
048470/20130225/134630/4085/155/10/
048470/20130225/134640/4090/100/20/
048470/20130225/134728/4085/300/10/
048470/20130225/134731/4085/357/10/
048470/20130225/134740/4080/977/10/
048470/20130225/134740/4075/4322/10/
048470/20130225/134746/4070/1940/10/
048470/20130225/134754/4070/420/10/
048470/20130225/134756/4070/3344/10/
048470/20130225/134756/4070/3702/10/
048470/20130225/134756/4065/298/10/
048470/20130225/134757/4065/1154/10/
048470/20130225/134757/4060/741/10/
048470/20130225/134813/4060/201/20/
048470/20130225/134820/4060/550/20/
048470/20130225/134821/4060/400/20/
048470/20130225/134821/4060/1479/20/
048470/20130225/134822/4060/191/20/
048470/20130225/134844/4075/100/20/
048470/20130225/134859/4075/99/20/
048470/20130225/134924/4085/82/20/
048470/20130225/134955/4085/104/10/
048470/20130225/135248/4085/129/20/
048470/20130225/135250/4090/134/20/
048470/20130225/135302/4080/370/10/
048470/20130225/135359/4090/775/20/
048470/20130225/135359/4100/1067/20/
048470/20130225/135429/4080/113/20/
048470/20130225/135440/4095/909/20/
048470/20130225/135454/4100/2589/20/
048470/20130225/135558/4105/426/20/
048470/20130225/135558/4115/601/20/
048470/20130225/135558/4120/3861/20/
048470/20130225/135613/4120/500/20/
048470/20130225/135625/4125/100/20/
048470/20130225/135716/4120/163/20/
048470/20130225/135810/4100/207/10/
048470/20130225/135837/4100/145/10/
048470/20130225/140016/4105/522/20/
048470/20130225/140016/4110/1003/20/
048470/20130225/140016/4115/1358/20/
048470/20130225/140025/4115/120/10/
048470/20130225/140040/4120/3000/20/
048470/20130225/140138/4100/849/10/
048470/20130225/140159/4100/201/10/
048470/20130225/140347/4120/101/20/
048470/20130225/140432/4110/100/10/
048470/20130225/140436/4120/728/20/
048470/20130225/140438/4120/2000/20/
048470/20130225/140439/4120/188/20/
048470/20130225/140439/4120/712/10/
048470/20130225/140441/4125/1308/20/
048470/20130225/140444/4125/149/10/
048470/20130225/140444/4130/900/20/
048470/20130225/140445/4130/319/20/
048470/20130225/140445/4135/1120/20/
048470/20130225/140445/4140/1561/20/
048470/20130225/140446/4130/99/10/
048470/20130225/140448/4140/387/20/
048470/20130225/140448/4145/163/20/
048470/20130225/140448/4130/99/10/
048470/20130225/140452/4130/99/10/
048470/20130225/140504/4140/1647/20/
048470/20130225/140504/4145/1987/20/
048470/20130225/140504/4145/1093/10/
048470/20130225/140507/4145/105/10/
048470/20130225/140512/4145/530/20/
048470/20130225/140512/4145/479/20/
048470/20130225/140513/4145/485/20/
048470/20130225/140513/4150/2298/20/
048470/20130225/140516/4150/99/10/
048470/20130225/140517/4150/1500/10/
048470/20130225/140523/4155/182/20/
048470/20130225/140524/4155/200/20/
048470/20130225/140529/4155/212/20/
048470/20130225/140529/4150/99/10/
048470/20130225/140537/4150/246/10/
048470/20130225/140541/4150/173/20/
048470/20130225/140548/4150/327/10/
048470/20130225/140551/4150/500/20/
048470/20130225/140552/4150/172/20/
048470/20130225/140554/4155/459/20/
048470/20130225/140557/4155/222/20/
048470/20130225/140557/4160/493/20/
048470/20130225/140558/4160/500/20/
048470/20130225/140600/4155/100/20/
048470/20130225/140602/4155/112/10/
048470/20130225/140605/4160/626/20/
048470/20130225/140620/4160/116/10/
048470/20130225/140631/4150/1778/10/
048470/20130225/140631/4150/150/20/
048470/20130225/140635/4150/100/20/
048470/20130225/140635/4150/991/20/
048470/20130225/140649/4150/607/10/
048470/20130225/140651/4150/217/20/
048470/20130225/140654/4150/515/10/
048470/20130225/140656/4155/111/20/
048470/20130225/140704/4150/510/10/
048470/20130225/140707/4155/100/20/
048470/20130225/140713/4150/300/10/
048470/20130225/140716/4160/100/20/
048470/20130225/140717/4150/350/10/
048470/20130225/140738/4150/101/10/
048470/20130225/140739/4150/150/10/
048470/20130225/140745/4150/1060/10/
048470/20130225/140747/4150/100/10/
048470/20130225/140750/4150/180/10/
048470/20130225/140756/4150/850/10/
048470/20130225/140757/4150/100/10/
048470/20130225/140758/4150/217/10/
048470/20130225/140906/4130/180/10/
048470/20130225/141024/4145/119/20/
048470/20130225/141024/4145/99/20/
048470/20130225/141025/4130/560/10/
048470/20130225/141152/4145/119/20/
048470/20130225/141247/4145/100/20/
048470/20130225/141248/4130/891/10/
048470/20130225/141254/4130/602/20/
048470/20130225/141447/4145/1556/20/
048470/20130225/141538/4135/1700/10/
048470/20130225/141908/4135/611/10/
048470/20130225/141945/4135/113/20/
048470/20130225/141948/4135/99/20/
048470/20130225/141952/4130/209/10/
048470/20130225/142015/4135/144/20/
048470/20130225/142023/4135/124/20/
048470/20130225/142121/4135/1077/10/
048470/20130225/142347/4135/1368/10/
048470/20130225/142347/4130/1757/10/
048470/20130225/142347/4125/900/10/
048470/20130225/142535/4125/811/10/
048470/20130225/142535/4120/2219/10/
048470/20130225/142541/4120/150/10/
048470/20130225/142548/4120/400/10/
048470/20130225/142603/4120/215/10/
048470/20130225/142606/4120/418/10/
048470/20130225/142612/4120/87/20/
048470/20130225/142816/4115/82/10/
048470/20130225/142822/4115/144/10/
048470/20130225/142903/4115/88/10/
048470/20130225/142928/4115/100/10/
048470/20130225/142933/4115/130/10/
048470/20130225/143035/4130/510/20/
048470/20130225/143136/4135/941/20/
048470/20130225/143348/4135/87/20/
048470/20130225/143404/4135/349/20/
048470/20130225/143404/4140/4060/20/
048470/20130225/143515/4135/502/20/
048470/20130225/143516/4130/900/10/
048470/20130225/143524/4130/100/20/
048470/20130225/143529/4130/110/20/
048470/20130225/143532/4130/455/20/
048470/20130225/143532/4135/217/20/
048470/20130225/143548/4140/1026/20/
048470/20130225/143551/4140/900/20/
048470/20130225/143552/4140/196/20/
048470/20130225/143558/4145/1762/20/
048470/20130225/143558/4150/2074/20/
048470/20130225/143600/4150/1080/10/
048470/20130225/143602/4150/84/10/
048470/20130225/143611/4150/251/10/
048470/20130225/143615/4150/260/20/
048470/20130225/143618/4155/2500/20/
048470/20130225/143635/4150/100/10/
048470/20130225/143702/4150/364/20/
048470/20130225/143702/4155/1048/20/
048470/20130225/143702/4160/1375/20/
048470/20130225/143722/4150/211/20/
048470/20130225/143727/4150/99/10/
048470/20130225/143741/4155/110/20/
048470/20130225/143742/4155/95/10/
048470/20130225/143823/4155/154/20/
048470/20130225/143835/4155/308/20/
048470/20130225/143835/4160/499/20/
048470/20130225/143838/4160/801/20/
048470/20130225/143843/4160/1814/20/
048470/20130225/143843/4165/1854/20/
048470/20130225/143843/4170/2028/20/
048470/20130225/143918/4160/200/10/
048470/20130225/143920/4165/200/20/
048470/20130225/143922/4165/203/20/
048470/20130225/143922/4170/1403/20/
048470/20130225/143922/4175/1394/20/
048470/20130225/143929/4175/200/20/
048470/20130225/143937/4175/600/20/
048470/20130225/143939/4175/239/20/
048470/20130225/143948/4175/563/20/
048470/20130225/143948/4175/100/20/
048470/20130225/143951/4175/236/20/
048470/20130225/143953/4175/350/20/
048470/20130225/143955/4175/198/20/
048470/20130225/144000/4175/218/10/
048470/20130225/144016/4175/558/10/
048470/20130225/144018/4175/136/10/
048470/20130225/144028/4170/564/10/
048470/20130225/144030/4170/500/10/
048470/20130225/144052/4160/981/10/
048470/20130225/144056/4160/200/10/
048470/20130225/144101/4160/103/10/
048470/20130225/144114/4160/500/10/
048470/20130225/144117/4165/232/10/
048470/20130225/144120/4170/490/20/
048470/20130225/144123/4170/221/20/
048470/20130225/144130/4165/493/10/
048470/20130225/144131/4165/186/20/
048470/20130225/144134/4165/100/20/
048470/20130225/144138/4165/100/10/
048470/20130225/144150/4170/82/20/
048470/20130225/144159/4175/681/20/
048470/20130225/144209/4175/600/20/
048470/20130225/144217/4175/270/10/
048470/20130225/144222/4175/130/10/
048470/20130225/144223/4175/370/20/
048470/20130225/144223/4180/630/20/
048470/20130225/144234/4180/117/20/
048470/20130225/144236/4180/678/20/
048470/20130225/144237/4180/916/20/
048470/20130225/144238/4180/2200/20/
048470/20130225/144249/4180/501/20/
048470/20130225/144258/4185/230/20/
048470/20130225/144259/4185/100/20/
048470/20130225/144304/4185/300/20/
048470/20130225/144330/4185/112/20/
048470/20130225/144330/4185/200/20/
048470/20130225/144331/4185/1154/20/
048470/20130225/144336/4185/83/10/
048470/20130225/144347/4185/572/10/
048470/20130225/144349/4190/93/20/
048470/20130225/144351/4190/100/20/
048470/20130225/144356/4190/121/20/
048470/20130225/144404/4190/1010/20/
048470/20130225/144405/4190/360/20/
048470/20130225/144417/4185/122/10/
048470/20130225/144422/4190/119/20/
048470/20130225/144423/4190/537/20/
048470/20130225/144424/4190/353/20/
048470/20130225/144424/4195/361/20/
048470/20130225/144426/4190/194/10/
048470/20130225/144432/4185/2089/10/
048470/20130225/144436/4185/200/10/
048470/20130225/144438/4185/161/10/
048470/20130225/144443/4180/115/10/
048470/20130225/144448/4185/310/20/
048470/20130225/144456/4185/311/10/
048470/20130225/144524/4180/373/10/
048470/20130225/144557/4180/81/10/
048470/20130225/144631/4170/128/10/
048470/20130225/144654/4170/81/20/
048470/20130225/144700/4170/127/10/
048470/20130225/144702/4165/493/10/
048470/20130225/144702/4160/1507/10/
048470/20130225/144712/4160/311/10/
048470/20130225/144717/4155/558/10/
048470/20130225/144717/4160/345/20/
048470/20130225/144723/4160/87/20/
048470/20130225/144805/4155/328/10/
048470/20130225/144832/4155/254/10/
048470/20130225/144832/4150/195/10/
048470/20130225/144832/4145/3401/10/
048470/20130225/144834/4145/423/20/
048470/20130225/144834/4165/303/20/
048470/20130225/144834/4170/1000/20/
048470/20130225/144834/4180/4001/20/
048470/20130225/144834/4185/1503/20/
048470/20130225/144920/4160/550/10/
048470/20130225/144927/4165/100/10/
048470/20130225/144927/4160/674/10/
048470/20130225/144927/4175/656/20/
048470/20130225/144927/4180/644/20/
048470/20130225/144947/4180/150/20/
048470/20130225/150000/4115/32851/10/
