048470/20121114/90000/3020/8576/10/
048470/20121114/90122/3050/830/20/
048470/20121114/90125/3070/100/20/
048470/20121114/90130/3070/900/10/
048470/20121114/90250/3070/300/20/
048470/20121114/90359/3070/197/20/
048470/20121114/90359/3090/490/20/
048470/20121114/90359/3095/223/20/
048470/20121114/91349/3055/116/10/
048470/20121114/91349/3050/910/10/
048470/20121114/91915/3070/278/10/
048470/20121114/92126/3070/1010/10/
048470/20121114/92222/3070/101/10/
048470/20121114/92231/3070/100/10/
048470/20121114/92650/3070/245/20/
048470/20121114/93155/3070/1006/10/
048470/20121114/93320/3070/204/10/
048470/20121114/93320/3070/96/10/
048470/20121114/93337/3065/1000/10/
048470/20121114/93456/3050/230/10/
048470/20121114/93542/3045/170/10/
048470/20121114/93623/3040/120/10/
048470/20121114/93645/3040/340/10/
048470/20121114/93718/3035/100/10/
048470/20121114/93724/3035/100/10/
048470/20121114/93724/3040/100/20/
048470/20121114/93911/3040/500/20/
048470/20121114/94102/3045/110/20/
048470/20121114/94607/3045/453/20/
048470/20121114/94607/3050/600/20/
048470/20121114/94725/3035/189/10/
048470/20121114/94725/3030/600/10/
048470/20121114/94725/3025/313/10/
048470/20121114/94753/3025/1000/10/
048470/20121114/95134/3025/1046/10/
048470/20121114/95201/3025/136/10/
048470/20121114/95704/3020/662/10/
048470/20121114/95804/3020/234/10/
048470/20121114/100128/3020/118/10/
048470/20121114/100142/3015/106/10/
048470/20121114/100156/3010/605/10/
048470/20121114/100203/3010/200/10/
048470/20121114/100231/3010/476/10/
048470/20121114/100231/3005/2080/10/
048470/20121114/100231/3000/6444/10/
048470/20121114/100747/3005/122/10/
048470/20121114/100800/3005/732/10/
048470/20121114/100800/3000/268/10/
048470/20121114/100844/3000/153/10/
048470/20121114/100844/2995/681/10/
048470/20121114/100844/2990/609/10/
048470/20121114/100916/2985/550/20/
048470/20121114/101008/2990/508/20/
048470/20121114/101035/3000/205/10/
048470/20121114/101046/3000/100/10/
048470/20121114/101047/3000/100/10/
048470/20121114/101049/3000/98/10/
048470/20121114/101324/3000/520/10/
048470/20121114/101840/3000/206/20/
048470/20121114/101845/3000/100/20/
048470/20121114/101854/3000/203/20/
048470/20121114/102440/3015/261/20/
048470/20121114/103712/3010/105/10/
048470/20121114/103929/3015/106/20/
048470/20121114/105135/3010/100/10/
048470/20121114/105240/3010/83/20/
048470/20121114/105430/3010/510/20/
048470/20121114/105725/3010/1000/20/
048470/20121114/110626/3005/107/10/
048470/20121114/110706/3010/100/20/
048470/20121114/110711/3010/100/20/
048470/20121114/110716/3010/100/20/
048470/20121114/110728/3010/100/20/
048470/20121114/111016/3005/100/10/
048470/20121114/111806/3005/238/10/
048470/20121114/111838/3005/300/10/
048470/20121114/111855/3010/1000/20/
048470/20121114/111959/3010/500/20/
048470/20121114/112105/3005/1550/10/
048470/20121114/112111/3010/700/20/
048470/20121114/112220/3010/500/20/
048470/20121114/112246/3010/500/20/
048470/20121114/112303/3010/335/20/
048470/20121114/112515/3010/400/20/
048470/20121114/112659/3005/100/10/
048470/20121114/112742/3005/266/10/
048470/20121114/112814/3000/131/10/
048470/20121114/112910/3000/1313/20/
048470/20121114/113004/2995/181/10/
048470/20121114/113103/2995/94/10/
048470/20121114/113121/3000/100/20/
048470/20121114/113306/2995/465/10/
048470/20121114/113314/2995/329/10/
048470/20121114/113407/2995/306/10/
048470/20121114/113501/2990/1396/10/
048470/20121114/113517/2990/100/20/
048470/20121114/113524/2990/100/20/
048470/20121114/113553/2990/100/20/
048470/20121114/114800/2990/690/10/
048470/20121114/114857/2990/257/10/
048470/20121114/114958/2990/210/10/
048470/20121114/115053/2990/124/10/
048470/20121114/115152/2990/132/10/
048470/20121114/115241/2990/534/10/
048470/20121114/115247/2985/114/10/
048470/20121114/115335/2990/846/20/
048470/20121114/115356/2995/127/20/
048470/20121114/120227/2995/501/10/
048470/20121114/120508/3000/819/20/
048470/20121114/121229/3000/194/10/
048470/20121114/121325/2990/163/10/
048470/20121114/121521/2990/1389/10/
048470/20121114/121521/2985/791/10/
048470/20121114/123035/2985/130/10/
048470/20121114/124058/2985/229/10/
048470/20121114/124516/2985/2011/10/
048470/20121114/124844/2985/361/10/
048470/20121114/124941/2985/89/10/
048470/20121114/130346/2990/126/10/
048470/20121114/130543/2985/172/10/
048470/20121114/130617/2990/1000/20/
048470/20121114/130806/3000/947/20/
048470/20121114/130941/3005/303/20/
048470/20121114/130959/3005/100/20/
048470/20121114/132030/2990/352/10/
048470/20121114/132030/2985/648/10/
048470/20121114/132115/3000/1000/10/
048470/20121114/132419/3000/250/20/
048470/20121114/132946/3000/400/20/
048470/20121114/133202/2990/664/10/
048470/20121114/133446/2990/103/10/
048470/20121114/133722/2990/253/10/
048470/20121114/133741/2985/163/10/
048470/20121114/133841/2985/107/10/
048470/20121114/133929/2985/87/10/
048470/20121114/134034/2985/721/10/
048470/20121114/134034/2980/2033/10/
048470/20121114/134712/2990/185/10/
048470/20121114/135019/2985/196/10/
048470/20121114/135117/2985/103/10/
048470/20121114/135212/2985/684/10/
048470/20121114/135317/2985/263/10/
048470/20121114/135617/2985/123/10/
048470/20121114/135904/2985/237/10/
048470/20121114/140239/2990/574/20/
048470/20121114/140354/2990/401/10/
048470/20121114/140354/2985/5879/10/
048470/20121114/141353/3000/101/20/
048470/20121114/141905/3000/100/20/
048470/20121114/141943/3000/475/20/
048470/20121114/142210/3000/1089/10/
048470/20121114/142334/3000/124/10/
048470/20121114/142348/3000/1000/10/
048470/20121114/142358/3000/312/10/
048470/20121114/142432/2995/153/10/
048470/20121114/142506/2995/347/10/
048470/20121114/142552/2990/1654/10/
048470/20121114/142749/2990/502/10/
048470/20121114/142825/2990/104/10/
048470/20121114/142825/2985/146/10/
048470/20121114/142832/2985/600/10/
048470/20121114/142845/2995/500/20/
048470/20121114/142955/2985/600/10/
048470/20121114/143503/2990/520/10/
048470/20121114/143543/2990/392/10/
048470/20121114/143640/2990/100/10/
048470/20121114/144031/2990/349/10/
048470/20121114/144031/2985/1731/10/
048470/20121114/144224/2985/3950/10/
048470/20121114/144224/2980/2551/10/
048470/20121114/144224/2975/2032/10/
048470/20121114/144224/2970/1383/10/
048470/20121114/144224/2965/114/10/
048470/20121114/144809/2980/118/10/
048470/20121114/144809/2975/100/10/
048470/20121114/144919/2970/457/10/
048470/20121114/144928/2970/269/20/
048470/20121114/144941/2970/733/10/
048470/20121114/144941/2965/221/10/
048470/20121114/150000/2965/5206/10/
