048470/20121129/90000/2915/2250/20/
048470/20121129/90118/2890/500/10/
048470/20121129/90341/2895/88/20/
048470/20121129/90451/2890/227/10/
048470/20121129/90512/2895/102/20/
048470/20121129/90641/2900/110/20/
048470/20121129/90700/2895/412/10/
048470/20121129/90804/2890/1200/10/
048470/20121129/90847/2885/99/10/
048470/20121129/91041/2890/834/20/
048470/20121129/91125/2900/800/20/
048470/20121129/91413/2900/1505/20/
048470/20121129/91515/2900/100/20/
048470/20121129/91614/2900/300/20/
048470/20121129/91707/2900/1000/20/
048470/20121129/92201/2900/1044/20/
048470/20121129/92609/2895/551/10/
048470/20121129/93630/2890/182/10/
048470/20121129/93638/2890/550/20/
048470/20121129/93727/2885/1499/10/
048470/20121129/93738/2885/101/10/
048470/20121129/93820/2885/899/20/
048470/20121129/93820/2890/101/20/
048470/20121129/93910/2885/644/10/
048470/20121129/93949/2880/373/10/
048470/20121129/94028/2885/326/20/
048470/20121129/94128/2885/174/10/
048470/20121129/94128/2880/112/10/
048470/20121129/94206/2880/5000/10/
048470/20121129/94543/2880/209/10/
048470/20121129/94922/2890/1158/20/
048470/20121129/94941/2890/850/10/
048470/20121129/95029/2890/1361/20/
048470/20121129/95110/2890/266/10/
048470/20121129/95110/2890/373/10/
048470/20121129/95111/2900/409/20/
048470/20121129/95111/2900/1591/10/
048470/20121129/95959/2890/92/10/
048470/20121129/95959/2885/178/10/
048470/20121129/100013/2900/1000/20/
048470/20121129/101134/2885/100/10/
048470/20121129/101230/2885/550/10/
048470/20121129/102150/2885/1195/10/
048470/20121129/102500/2885/500/10/
048470/20121129/103650/2885/213/10/
048470/20121129/103650/2880/838/10/
048470/20121129/103738/2880/4501/10/
048470/20121129/104354/2885/211/10/
048470/20121129/104354/2880/1190/10/
048470/20121129/104403/2880/270/10/
048470/20121129/104617/2890/150/20/
048470/20121129/105202/2890/1300/20/
048470/20121129/105953/2890/112/20/
048470/20121129/110030/2895/274/20/
048470/20121129/110527/2890/1045/10/
048470/20121129/110553/2885/722/10/
048470/20121129/110733/2885/251/10/
048470/20121129/110836/2890/857/20/
048470/20121129/111002/2885/500/10/
048470/20121129/111005/2885/132/10/
048470/20121129/111019/2885/525/10/
048470/20121129/111255/2890/100/20/
048470/20121129/112028/2885/1107/10/
048470/20121129/112739/2885/501/10/
048470/20121129/112749/2885/499/20/
048470/20121129/113017/2885/252/10/
048470/20121129/113318/2885/286/10/
048470/20121129/113537/2890/177/20/
048470/20121129/113702/2890/404/20/
048470/20121129/114623/2885/500/10/
048470/20121129/114736/2885/220/10/
048470/20121129/115541/2885/122/10/
048470/20121129/115758/2885/283/10/
048470/20121129/120032/2885/307/10/
048470/20121129/120032/2880/1761/10/
048470/20121129/121107/2890/1001/20/
048470/20121129/121157/2890/200/20/
048470/20121129/121416/2885/638/10/
048470/20121129/121416/2880/422/10/
048470/20121129/121444/2880/103/10/
048470/20121129/121837/2880/275/10/
048470/20121129/122357/2880/1664/10/
048470/20121129/122436/2880/232/10/
048470/20121129/122447/2880/269/20/
048470/20121129/122635/2880/121/10/
048470/20121129/122839/2880/120/10/
048470/20121129/123124/2875/1677/10/
048470/20121129/123124/2870/1226/10/
048470/20121129/123646/2875/113/10/
048470/20121129/124232/2875/130/10/
048470/20121129/125051/2870/400/10/
048470/20121129/125108/2870/1400/10/
048470/20121129/125129/2870/2831/10/
048470/20121129/125154/2870/180/10/
048470/20121129/125332/2865/220/10/
048470/20121129/125437/2865/1500/10/
048470/20121129/130408/2865/230/10/
048470/20121129/130507/2865/184/10/
048470/20121129/130700/2865/123/10/
048470/20121129/131135/2865/744/10/
048470/20121129/131910/2865/3051/10/
048470/20121129/131958/2865/83/10/
048470/20121129/132203/2865/128/10/
048470/20121129/132400/2865/96/10/
048470/20121129/132455/2865/134/10/
048470/20121129/132525/2865/100/10/
048470/20121129/132610/2870/6588/20/
048470/20121129/133521/2870/121/10/
048470/20121129/133726/2870/348/10/
048470/20121129/133954/2870/2582/10/
048470/20121129/140143/2890/111/20/
048470/20121129/141653/2890/500/20/
048470/20121129/142826/2890/1200/20/
048470/20121129/143645/2885/300/10/
048470/20121129/143645/2880/4700/10/
048470/20121129/143737/2880/105/10/
048470/20121129/144356/2880/1088/10/
048470/20121129/144356/2875/1971/10/
048470/20121129/150000/2870/550/10/
