048470/20130220/90000/3885/1115/20/
048470/20130220/90001/3865/89/10/
048470/20130220/90033/3865/1000/10/
048470/20130220/90113/3875/200/10/
048470/20130220/90114/3875/200/10/
048470/20130220/90124/3875/100/10/
048470/20130220/90124/3870/102/10/
048470/20130220/90124/3865/84/10/
048470/20130220/90130/3870/543/10/
048470/20130220/90137/3865/1230/10/
048470/20130220/90137/3860/225/10/
048470/20130220/90151/3855/2000/10/
048470/20130220/90158/3850/4538/10/
048470/20130220/90158/3845/400/10/
048470/20130220/90253/3860/454/10/
048470/20130220/90303/3870/786/20/
048470/20130220/90310/3870/81/10/
048470/20130220/90320/3870/146/10/
048470/20130220/90328/3860/183/10/
048470/20130220/90345/3875/305/20/
048470/20130220/90354/3870/277/20/
048470/20130220/90354/3870/95/20/
048470/20130220/90358/3875/200/20/
048470/20130220/90409/3860/170/10/
048470/20130220/90409/3850/1830/10/
048470/20130220/90639/3870/1057/20/
048470/20130220/90652/3875/217/20/
048470/20130220/90748/3880/240/20/
048470/20130220/90752/3880/391/20/
048470/20130220/90832/3885/752/20/
048470/20130220/90832/3890/753/20/
048470/20130220/91019/3870/1261/10/
048470/20130220/91036/3875/215/20/
048470/20130220/91036/3875/300/20/
048470/20130220/91057/3880/311/10/
048470/20130220/91124/3880/108/10/
048470/20130220/91241/3885/105/10/
048470/20130220/91250/3890/801/20/
048470/20130220/91318/3895/506/20/
048470/20130220/91318/3900/504/20/
048470/20130220/91419/3895/830/20/
048470/20130220/91419/3900/87/20/
048470/20130220/91453/3900/100/20/
048470/20130220/91502/3900/504/20/
048470/20130220/91508/3900/102/10/
048470/20130220/91513/3900/500/10/
048470/20130220/91550/3900/101/20/
048470/20130220/91707/3900/980/20/
048470/20130220/91720/3885/1491/10/
048470/20130220/91733/3885/509/20/
048470/20130220/91740/3885/500/10/
048470/20130220/91756/3885/1500/20/
048470/20130220/91829/3885/1058/10/
048470/20130220/91838/3885/500/20/
048470/20130220/91847/3885/458/20/
048470/20130220/91910/3880/400/10/
048470/20130220/91929/3895/200/20/
048470/20130220/91951/3885/2877/10/
048470/20130220/92000/3880/1300/10/
048470/20130220/92006/3885/1143/20/
048470/20130220/92050/3895/100/20/
048470/20130220/92053/3880/1020/10/
048470/20130220/92336/3880/500/10/
048470/20130220/92401/3880/167/20/
048470/20130220/92529/3875/607/10/
048470/20130220/92543/3875/96/20/
048470/20130220/92628/3875/300/10/
048470/20130220/92646/3875/264/10/
048470/20130220/92726/3870/574/10/
048470/20130220/92727/3875/162/20/
048470/20130220/92753/3875/373/10/
048470/20130220/92758/3875/250/10/
048470/20130220/92811/3880/317/20/
048470/20130220/92906/3875/340/10/
048470/20130220/92947/3875/747/10/
048470/20130220/93104/3880/149/20/
048470/20130220/93139/3880/101/10/
048470/20130220/93259/3880/190/10/
048470/20130220/93353/3880/812/10/
048470/20130220/93358/3875/1716/10/
048470/20130220/93732/3875/400/10/
048470/20130220/93848/3875/91/10/
048470/20130220/93848/3870/309/10/
048470/20130220/93915/3870/200/10/
048470/20130220/93934/3870/589/10/
048470/20130220/94013/3870/411/20/
048470/20130220/94135/3870/601/10/
048470/20130220/94207/3870/152/10/
048470/20130220/94305/3870/327/10/
048470/20130220/94305/3865/3800/10/
048470/20130220/94321/3865/100/20/
048470/20130220/94334/3865/509/20/
048470/20130220/94338/3860/865/10/
048470/20130220/94431/3865/967/20/
048470/20130220/94504/3865/108/20/
048470/20130220/94517/3865/100/20/
048470/20130220/94529/3865/222/20/
048470/20130220/94547/3860/495/10/
048470/20130220/94547/3855/1124/10/
048470/20130220/94547/3850/3874/10/
048470/20130220/94547/3845/1507/10/
048470/20130220/94547/3845/321/10/
048470/20130220/94614/3850/100/10/
048470/20130220/94614/3845/140/10/
048470/20130220/94619/3855/470/10/
048470/20130220/94619/3850/130/10/
048470/20130220/94621/3850/212/10/
048470/20130220/94621/3845/288/10/
048470/20130220/94736/3855/360/10/
048470/20130220/94736/3850/3000/10/
048470/20130220/94736/3850/641/20/
048470/20130220/94819/3850/535/10/
048470/20130220/94819/3845/1765/10/
048470/20130220/94904/3850/1000/10/
048470/20130220/94906/3845/300/10/
048470/20130220/94952/3850/136/20/
048470/20130220/95025/3865/515/10/
048470/20130220/95025/3865/553/10/
048470/20130220/95057/3865/109/20/
048470/20130220/95629/3850/165/10/
048470/20130220/95657/3850/116/20/
048470/20130220/95710/3845/1460/10/
048470/20130220/95710/3840/1771/10/
048470/20130220/95728/3840/469/10/
048470/20130220/95751/3850/442/20/
048470/20130220/100030/3845/339/10/
048470/20130220/100030/3840/400/10/
048470/20130220/100150/3840/248/10/
048470/20130220/100306/3850/130/20/
048470/20130220/100420/3850/118/20/
048470/20130220/100442/3850/952/20/
048470/20130220/100515/3860/200/20/
048470/20130220/100811/3855/142/10/
048470/20130220/101213/3855/552/10/
048470/20130220/101239/3850/100/10/
048470/20130220/101241/3850/500/10/
048470/20130220/101421/3850/439/10/
048470/20130220/101541/3845/100/10/
048470/20130220/101546/3845/300/10/
048470/20130220/101741/3845/759/10/
048470/20130220/101859/3845/1106/20/
048470/20130220/101954/3840/2080/10/
048470/20130220/102021/3840/115/20/
048470/20130220/102027/3835/3869/10/
048470/20130220/102028/3835/131/20/
048470/20130220/102028/3840/169/20/
048470/20130220/102057/3835/313/20/
048470/20130220/102059/3830/1508/10/
048470/20130220/102111/3830/1253/10/
048470/20130220/102111/3825/172/10/
048470/20130220/102153/3830/602/10/
048470/20130220/102153/3825/1106/10/
048470/20130220/102201/3825/1530/10/
048470/20130220/102225/3830/300/20/
048470/20130220/102242/3830/920/10/
048470/20130220/102242/3825/1020/10/
048470/20130220/102318/3835/500/20/
048470/20130220/102436/3835/142/20/
048470/20130220/102517/3840/140/20/
048470/20130220/103103/3845/90/10/
048470/20130220/103128/3840/95/10/
048470/20130220/103509/3835/330/10/
048470/20130220/103512/3835/199/10/
048470/20130220/103543/3835/183/20/
048470/20130220/103629/3835/142/20/
048470/20130220/103701/3830/320/10/
048470/20130220/103717/3830/853/10/
048470/20130220/103733/3830/966/10/
048470/20130220/103733/3825/1678/10/
048470/20130220/103831/3830/201/20/
048470/20130220/103841/3825/248/10/
048470/20130220/103846/3830/1559/20/
048470/20130220/103850/3830/179/20/
048470/20130220/103928/3830/380/10/
048470/20130220/103942/3830/120/20/
048470/20130220/104050/3835/300/20/
048470/20130220/104147/3840/1470/20/
048470/20130220/104303/3850/121/20/
048470/20130220/104318/3845/257/10/
048470/20130220/104550/3845/505/10/
048470/20130220/104554/3850/2000/20/
048470/20130220/104601/3850/460/20/
048470/20130220/104606/3850/278/20/
048470/20130220/104700/3855/150/20/
048470/20130220/104701/3855/2361/20/
048470/20130220/104735/3860/1005/20/
048470/20130220/104735/3865/1005/20/
048470/20130220/104807/3870/187/20/
048470/20130220/104811/3870/659/10/
048470/20130220/104812/3870/154/10/
048470/20130220/104837/3870/587/20/
048470/20130220/104859/3875/1059/20/
048470/20130220/104925/3875/533/10/
048470/20130220/104936/3875/100/20/
048470/20130220/104936/3880/955/20/
048470/20130220/105036/3880/500/20/
048470/20130220/105042/3880/220/20/
048470/20130220/105050/3880/500/10/
048470/20130220/105138/3885/161/20/
048470/20130220/105138/3890/590/20/
048470/20130220/105206/3880/820/10/
048470/20130220/105221/3870/200/10/
048470/20130220/105221/3865/1519/10/
048470/20130220/105221/3865/281/20/
048470/20130220/105258/3880/283/20/
048470/20130220/105301/3890/1000/20/
048470/20130220/105305/3890/546/20/
048470/20130220/105305/3895/2627/20/
048470/20130220/105305/3900/1827/20/
048470/20130220/105308/3900/3391/20/
048470/20130220/105312/3905/88/20/
048470/20130220/105319/3905/139/20/
048470/20130220/105328/3910/220/20/
048470/20130220/105328/3915/500/20/
048470/20130220/105328/3920/163/20/
048470/20130220/105332/3920/500/10/
048470/20130220/105333/3920/646/10/
048470/20130220/105335/3920/185/20/
048470/20130220/105342/3915/200/20/
048470/20130220/105343/3920/591/20/
048470/20130220/105347/3920/409/10/
048470/20130220/105405/3915/1042/20/
048470/20130220/105414/3915/3000/10/
048470/20130220/105415/3915/1000/10/
048470/20130220/105417/3915/663/10/
048470/20130220/105433/3915/1000/20/
048470/20130220/105439/3915/249/10/
048470/20130220/105441/3915/864/10/
048470/20130220/105456/3905/536/10/
048470/20130220/105503/3900/2103/10/
048470/20130220/105507/3900/3309/10/
048470/20130220/105513/3900/1001/10/
048470/20130220/105515/3900/339/10/
048470/20130220/105553/3890/118/20/
048470/20130220/105556/3890/100/20/
048470/20130220/105721/3890/129/20/
048470/20130220/105859/3885/292/10/
048470/20130220/105859/3885/281/20/
048470/20130220/105932/3880/443/10/
048470/20130220/105946/3880/200/10/
048470/20130220/110000/3880/100/10/
048470/20130220/110027/3885/175/20/
048470/20130220/110236/3880/229/10/
048470/20130220/110347/3880/200/10/
048470/20130220/110351/3880/139/10/
048470/20130220/110415/3885/260/20/
048470/20130220/110514/3885/264/20/
048470/20130220/110610/3885/139/20/
048470/20130220/110615/3885/1000/20/
048470/20130220/110631/3885/764/20/
048470/20130220/110642/3900/90/20/
048470/20130220/110749/3900/1072/20/
048470/20130220/110749/3905/1937/20/
048470/20130220/111125/3905/783/20/
048470/20130220/111206/3905/1649/20/
048470/20130220/111206/3910/115/20/
048470/20130220/111209/3910/1000/20/
048470/20130220/111211/3910/686/20/
048470/20130220/111223/3910/87/10/
048470/20130220/111225/3910/513/20/
048470/20130220/111235/3910/230/10/
048470/20130220/111241/3910/200/10/
048470/20130220/111301/3910/107/20/
048470/20130220/111404/3900/1016/10/
048470/20130220/111431/3900/180/20/
048470/20130220/111432/3910/150/20/
048470/20130220/111548/3905/201/20/
048470/20130220/111658/3905/501/20/
048470/20130220/111658/3910/300/20/
048470/20130220/111925/3910/100/20/
048470/20130220/111929/3910/100/20/
048470/20130220/112037/3910/1053/20/
048470/20130220/112037/3910/285/20/
048470/20130220/112114/3915/1023/20/
048470/20130220/112128/3920/502/20/
048470/20130220/112157/3920/225/20/
048470/20130220/112201/3920/100/10/
048470/20130220/112212/3920/100/10/
048470/20130220/112216/3920/275/10/
048470/20130220/112223/3920/190/20/
048470/20130220/112231/3915/200/10/
048470/20130220/112232/3920/1254/20/
048470/20130220/112232/3925/825/20/
048470/20130220/112232/3930/575/20/
048470/20130220/112235/3930/105/10/
048470/20130220/112238/3930/241/10/
048470/20130220/112239/3930/87/20/
048470/20130220/112243/3930/681/10/
048470/20130220/112243/3940/759/10/
048470/20130220/112243/3945/865/10/
048470/20130220/112243/3950/1430/10/
048470/20130220/112243/3955/642/10/
048470/20130220/112243/3960/668/20/
048470/20130220/112313/3950/150/20/
048470/20130220/112322/3935/436/10/
048470/20130220/112322/3930/1564/10/
048470/20130220/112323/3945/425/20/
048470/20130220/112326/3945/130/20/
048470/20130220/112344/3945/333/20/
048470/20130220/112344/3950/1423/20/
048470/20130220/112350/3950/395/10/
048470/20130220/112355/3950/200/20/
048470/20130220/112356/3950/438/20/
048470/20130220/112407/3950/105/20/
048470/20130220/112407/3950/900/20/
048470/20130220/112425/3950/304/20/
048470/20130220/112429/3950/100/20/
048470/20130220/112451/3950/530/20/
048470/20130220/112456/3950/1054/10/
048470/20130220/112458/3950/355/10/
048470/20130220/112502/3950/614/10/
048470/20130220/112510/3950/787/20/
048470/20130220/112517/3950/227/10/
048470/20130220/112518/3945/518/10/
048470/20130220/112518/3940/1386/10/
048470/20130220/112518/3935/1222/10/
048470/20130220/112518/3930/305/10/
048470/20130220/112551/3950/487/20/
048470/20130220/112602/3950/209/20/
048470/20130220/112603/3950/432/10/
048470/20130220/112617/3950/100/20/
048470/20130220/112709/3950/91/20/
048470/20130220/112741/3935/2063/10/
048470/20130220/112741/3930/2791/10/
048470/20130220/112741/3925/1446/10/
048470/20130220/112904/3925/1560/10/
048470/20130220/112908/3920/6569/10/
048470/20130220/112922/3920/2614/10/
048470/20130220/112922/3920/386/20/
048470/20130220/113019/3920/576/10/
048470/20130220/113019/3920/426/20/
048470/20130220/113032/3920/499/20/
048470/20130220/113055/3920/937/10/
048470/20130220/113055/3920/564/10/
048470/20130220/113108/3920/344/10/
048470/20130220/113108/3920/657/20/
048470/20130220/113142/3920/862/10/
048470/20130220/113142/3920/1138/20/
048470/20130220/113530/3940/136/20/
048470/20130220/113746/3930/88/10/
048470/20130220/113805/3925/335/10/
048470/20130220/113807/3925/500/10/
048470/20130220/113813/3925/124/20/
048470/20130220/113823/3925/744/10/
048470/20130220/114008/3930/83/20/
048470/20130220/114229/3930/91/10/
048470/20130220/114327/3935/201/20/
048470/20130220/114519/3935/131/10/
048470/20130220/114528/3935/313/20/
048470/20130220/114602/3935/314/10/
048470/20130220/114633/3930/553/10/
048470/20130220/114633/3925/229/10/
048470/20130220/114918/3935/220/20/
048470/20130220/115006/3930/503/10/
048470/20130220/115125/3935/141/10/
048470/20130220/115358/3930/421/10/
048470/20130220/115401/3930/164/10/
048470/20130220/115422/3930/236/20/
048470/20130220/115438/3930/480/10/
048470/20130220/115550/3925/166/10/
048470/20130220/115655/3925/195/10/
048470/20130220/115757/3930/257/20/
048470/20130220/115805/3930/346/20/
048470/20130220/115814/3935/100/20/
048470/20130220/115859/3930/477/10/
048470/20130220/115926/3930/232/20/
048470/20130220/115930/3930/125/20/
048470/20130220/115952/3935/107/20/
048470/20130220/120645/3935/582/20/
048470/20130220/120911/3935/600/10/
048470/20130220/120927/3935/103/10/
048470/20130220/121126/3930/300/10/
048470/20130220/121206/3930/600/10/
048470/20130220/121506/3930/279/10/
048470/20130220/121511/3930/771/20/
048470/20130220/121540/3935/100/20/
048470/20130220/121851/3930/500/10/
048470/20130220/121959/3930/683/10/
048470/20130220/122016/3930/400/10/
048470/20130220/122154/3935/240/20/
048470/20130220/122229/3930/903/10/
048470/20130220/122229/3925/3531/10/
048470/20130220/122229/3920/335/10/
048470/20130220/122359/3920/414/10/
048470/20130220/122454/3935/621/20/
048470/20130220/122519/3935/422/10/
048470/20130220/122724/3935/248/20/
048470/20130220/122752/3935/302/10/
048470/20130220/122839/3930/190/10/
048470/20130220/122839/3925/208/10/
048470/20130220/123130/3925/101/10/
048470/20130220/123155/3940/500/20/
048470/20130220/123426/3940/242/20/
048470/20130220/123549/3945/501/20/
048470/20130220/123611/3945/505/20/
048470/20130220/123619/3950/500/20/
048470/20130220/123624/3945/1297/10/
048470/20130220/123849/3950/1108/20/
048470/20130220/123849/3955/894/20/
048470/20130220/123849/3960/4337/20/
048470/20130220/123849/3965/740/20/
048470/20130220/123854/3965/1290/20/
048470/20130220/123854/3970/1710/20/
048470/20130220/123908/3970/601/20/
048470/20130220/123924/3975/148/20/
048470/20130220/123926/3975/349/20/
048470/20130220/123926/3980/151/20/
048470/20130220/123942/3980/229/20/
048470/20130220/124016/3975/200/20/
048470/20130220/124022/3975/665/20/
048470/20130220/124022/3980/1745/20/
048470/20130220/124022/3980/300/10/
048470/20130220/124027/3985/1000/20/
048470/20130220/124104/3985/515/20/
048470/20130220/124109/3985/200/20/
048470/20130220/124119/3985/200/20/
048470/20130220/124134/3985/1000/20/
048470/20130220/124136/3985/200/20/
048470/20130220/124149/3980/100/10/
048470/20130220/124149/3985/1247/20/
048470/20130220/124158/3985/1801/10/
048470/20130220/124159/3985/251/10/
048470/20130220/124203/3985/500/10/
048470/20130220/124218/3985/1051/10/
048470/20130220/124219/3985/111/10/
048470/20130220/124223/3985/517/10/
048470/20130220/124225/3985/101/10/
048470/20130220/124237/3990/1017/20/
048470/20130220/124242/3990/2611/20/
048470/20130220/124254/3990/1000/20/
048470/20130220/124258/3990/106/20/
048470/20130220/124259/3990/1000/20/
048470/20130220/124259/3990/2327/20/
048470/20130220/124301/3995/1000/20/
048470/20130220/124322/3995/371/20/
048470/20130220/124323/3995/498/20/
048470/20130220/124324/3995/372/20/
048470/20130220/124325/3995/100/20/
048470/20130220/124327/3995/300/20/
048470/20130220/124334/3995/2210/20/
048470/20130220/124336/3995/372/20/
048470/20130220/124337/4000/743/20/
048470/20130220/124345/4000/1023/20/
048470/20130220/124352/4000/101/20/
048470/20130220/124358/4000/580/20/
048470/20130220/124414/3995/82/10/
048470/20130220/124417/3995/500/10/
048470/20130220/124418/3995/300/10/
048470/20130220/124420/3995/101/10/
048470/20130220/124426/3995/98/20/
048470/20130220/124426/4000/571/20/
048470/20130220/124502/3995/136/10/
048470/20130220/124515/3995/100/20/
048470/20130220/124521/3995/793/20/
048470/20130220/124558/3995/503/20/
048470/20130220/124622/3990/501/10/
048470/20130220/124623/3995/100/20/
048470/20130220/124637/3990/129/10/
048470/20130220/124857/3990/164/10/
048470/20130220/125013/3985/151/10/
048470/20130220/125229/3975/510/10/
048470/20130220/125229/3970/199/10/
048470/20130220/125243/3975/500/20/
048470/20130220/125243/3975/100/10/
048470/20130220/125320/3975/499/10/
048470/20130220/125329/3975/123/20/
048470/20130220/125338/3975/128/20/
048470/20130220/125345/3975/200/10/
048470/20130220/125519/3975/672/10/
048470/20130220/125519/3975/317/20/
048470/20130220/125537/3975/392/10/
048470/20130220/125557/3975/608/10/
048470/20130220/125558/3975/426/20/
048470/20130220/125604/3975/996/20/
048470/20130220/125635/3975/500/10/
048470/20130220/125746/3975/508/10/
048470/20130220/125808/3980/82/20/
048470/20130220/125818/3980/500/20/
048470/20130220/125913/3980/307/20/
048470/20130220/125943/3985/2022/20/
048470/20130220/130004/3990/290/20/
048470/20130220/130017/3995/1710/20/
048470/20130220/130030/3995/168/20/
048470/20130220/130039/4000/1002/20/
048470/20130220/130040/4000/859/20/
048470/20130220/130044/4000/3404/20/
048470/20130220/130044/4000/1939/20/
048470/20130220/130044/4005/676/20/
048470/20130220/130050/4010/98/20/
048470/20130220/130059/4005/100/10/
048470/20130220/130103/4005/152/10/
048470/20130220/130117/4005/151/10/
048470/20130220/130123/4005/103/20/
048470/20130220/130125/4005/100/20/
048470/20130220/130200/4010/138/20/
048470/20130220/130212/4005/500/20/
048470/20130220/130231/4000/500/10/
048470/20130220/130235/4000/100/10/
048470/20130220/130253/4000/85/10/
048470/20130220/130324/3995/314/10/
048470/20130220/130333/3995/150/10/
048470/20130220/130416/4000/175/20/
048470/20130220/130421/3995/500/10/
048470/20130220/130445/3995/112/10/
048470/20130220/130620/4000/156/20/
048470/20130220/130713/3995/545/10/
048470/20130220/130713/3990/733/10/
048470/20130220/130713/3980/1399/10/
048470/20130220/130845/3990/500/20/
048470/20130220/130849/3990/377/20/
048470/20130220/130917/3995/901/10/
048470/20130220/130948/3995/2001/10/
048470/20130220/131118/4000/101/20/
048470/20130220/131121/3995/872/10/
048470/20130220/131146/3995/128/20/
048470/20130220/131148/3990/874/10/
048470/20130220/131148/3980/1154/10/
048470/20130220/131148/3975/356/10/
048470/20130220/131423/3975/97/10/
048470/20130220/131529/3980/150/10/
048470/20130220/131545/3990/150/20/
048470/20130220/131600/3990/200/20/
048470/20130220/131604/3990/450/20/
048470/20130220/131705/3985/203/20/
048470/20130220/131719/3985/103/20/
048470/20130220/131739/3985/500/10/
048470/20130220/131803/3980/1119/10/
048470/20130220/131820/3980/475/20/
048470/20130220/131829/3980/165/10/
048470/20130220/131953/3980/155/10/
048470/20130220/132208/3980/131/20/
048470/20130220/132218/3980/90/20/
048470/20130220/132537/3985/510/20/
048470/20130220/132537/3990/2716/20/
048470/20130220/132558/3990/100/10/
048470/20130220/132622/3990/195/10/
048470/20130220/132728/3985/1261/10/
048470/20130220/132746/3990/1000/20/
048470/20130220/132809/3995/109/20/
048470/20130220/132842/3995/2220/20/
048470/20130220/132847/3995/154/20/
048470/20130220/132915/3995/500/20/
048470/20130220/132926/3995/150/20/
048470/20130220/132927/3995/240/20/
048470/20130220/132945/3995/1914/20/
048470/20130220/132945/4000/1086/20/
048470/20130220/133010/4000/2418/20/
048470/20130220/133010/4005/632/20/
048470/20130220/133021/4005/1000/20/
048470/20130220/133023/4005/667/20/
048470/20130220/133023/4010/333/20/
048470/20130220/133028/4010/100/20/
048470/20130220/133051/4005/500/20/
048470/20130220/133052/4005/91/20/
048470/20130220/133055/4005/500/20/
048470/20130220/133057/4005/100/20/
048470/20130220/133102/4005/110/20/
048470/20130220/133111/4005/195/20/
048470/20130220/133131/4010/205/20/
048470/20130220/133131/4010/180/20/
048470/20130220/133201/4010/1226/20/
048470/20130220/133203/4010/500/20/
048470/20130220/133213/4010/1721/20/
048470/20130220/133213/4010/669/20/
048470/20130220/133253/4015/351/20/
048470/20130220/133257/4015/260/20/
048470/20130220/133300/4010/1000/20/
048470/20130220/133327/4015/187/20/
048470/20130220/133331/4015/124/20/
048470/20130220/133351/4010/396/10/
048470/20130220/133352/4010/100/20/
048470/20130220/133352/4010/554/20/
048470/20130220/133437/4015/155/20/
048470/20130220/133448/4015/121/20/
048470/20130220/133510/4010/550/20/
048470/20130220/133551/4005/311/10/
048470/20130220/133553/4005/445/10/
048470/20130220/133553/4000/555/10/
048470/20130220/133559/4005/395/10/
048470/20130220/133809/4005/548/20/
048470/20130220/133823/4005/1000/20/
048470/20130220/133856/4000/180/10/
048470/20130220/133915/4005/133/20/
048470/20130220/133937/4005/94/20/
048470/20130220/133946/4005/300/20/
048470/20130220/134040/4010/599/20/
048470/20130220/134100/4010/805/20/
048470/20130220/134123/4010/288/10/
048470/20130220/134139/4010/676/10/
048470/20130220/134219/4010/99/20/
048470/20130220/134303/4010/200/20/
048470/20130220/134338/4005/1050/10/
048470/20130220/134340/4005/99/10/
048470/20130220/134340/4005/598/10/
048470/20130220/134347/4000/200/10/
048470/20130220/134349/4000/683/10/
048470/20130220/134350/3995/2206/10/
048470/20130220/134405/3990/139/10/
048470/20130220/134419/3995/3002/20/
048470/20130220/134419/3995/789/20/
048470/20130220/134711/4000/102/20/
048470/20130220/134724/4000/109/10/
048470/20130220/134735/4000/100/20/
048470/20130220/134752/4000/364/20/
048470/20130220/134757/4000/936/10/
048470/20130220/134840/4000/101/20/
048470/20130220/134844/4000/100/20/
048470/20130220/134853/4000/190/20/
048470/20130220/135038/3995/2000/10/
048470/20130220/135040/3995/417/10/
048470/20130220/135040/3990/1224/10/
048470/20130220/135040/3985/859/10/
048470/20130220/135623/3985/2496/10/
048470/20130220/135628/3985/500/20/
048470/20130220/135705/3985/154/10/
048470/20130220/135712/3990/100/10/
048470/20130220/135721/3990/100/10/
048470/20130220/135943/3990/157/10/
048470/20130220/135951/3990/100/10/
048470/20130220/135959/3990/101/10/
048470/20130220/140109/3990/844/10/
048470/20130220/140151/3995/1029/20/
048470/20130220/140321/3995/551/20/
048470/20130220/140334/3995/300/20/
048470/20130220/140337/3995/750/20/
048470/20130220/140459/4000/100/20/
048470/20130220/140618/3995/115/10/
048470/20130220/140708/3995/118/10/
048470/20130220/140718/3995/108/20/
048470/20130220/140725/3995/160/20/
048470/20130220/140802/3990/344/10/
048470/20130220/140802/3985/656/10/
048470/20130220/140839/3995/100/20/
048470/20130220/140912/3990/1312/20/
048470/20130220/140921/3985/513/10/
048470/20130220/140940/3980/1723/10/
048470/20130220/140945/3985/283/10/
048470/20130220/140953/3985/100/10/
048470/20130220/141001/3985/149/10/
048470/20130220/141115/3985/104/10/
048470/20130220/141208/3985/639/10/
048470/20130220/141208/3980/1363/10/
048470/20130220/141213/3990/101/20/
048470/20130220/141242/3990/330/20/
048470/20130220/141330/3980/276/20/
048470/20130220/141335/3980/879/20/
048470/20130220/141411/3975/356/10/
048470/20130220/141418/3975/334/10/
048470/20130220/141418/3975/1000/10/
048470/20130220/141424/3975/453/10/
048470/20130220/141424/3970/1506/10/
048470/20130220/141424/3965/2031/10/
048470/20130220/141424/3960/3400/10/
048470/20130220/141424/3955/3110/10/
048470/20130220/141449/3975/164/20/
048470/20130220/141449/3975/901/10/
048470/20130220/141856/3975/205/20/
048470/20130220/141856/3980/2759/20/
048470/20130220/141856/3985/1000/20/
048470/20130220/141856/3985/314/10/
048470/20130220/142051/3980/88/20/
048470/20130220/142101/3970/100/10/
048470/20130220/142141/3980/917/20/
048470/20130220/142236/3980/500/20/
048470/20130220/142335/3985/777/20/
048470/20130220/142347/3980/100/20/
048470/20130220/142418/3985/344/20/
048470/20130220/142439/3990/105/20/
048470/20130220/142455/3990/300/20/
048470/20130220/142635/3990/114/20/
048470/20130220/142705/3990/810/20/
048470/20130220/142740/3990/978/20/
048470/20130220/142755/3990/99/20/
048470/20130220/142758/3990/100/10/
048470/20130220/142810/3990/105/20/
048470/20130220/142823/3990/143/20/
048470/20130220/142828/3990/547/20/
048470/20130220/142831/3990/88/20/
048470/20130220/142837/3990/99/20/
048470/20130220/142845/3990/189/20/
048470/20130220/143005/3985/803/10/
048470/20130220/143005/3980/608/10/
048470/20130220/143031/3985/284/20/
048470/20130220/143143/3985/650/20/
048470/20130220/143244/3990/223/20/
048470/20130220/143254/3990/301/20/
048470/20130220/143258/3990/426/20/
048470/20130220/143316/3995/1354/20/
048470/20130220/143413/3995/101/20/
048470/20130220/143635/3995/202/20/
048470/20130220/143712/3990/1501/10/
048470/20130220/143757/3995/1333/20/
048470/20130220/143804/3995/500/10/
048470/20130220/143814/4000/1211/20/
048470/20130220/143818/4000/415/20/
048470/20130220/143820/4000/300/20/
048470/20130220/143850/4000/253/20/
048470/20130220/143908/4000/641/20/
048470/20130220/143915/4005/1122/20/
048470/20130220/143915/4010/1375/20/
048470/20130220/143919/4010/527/20/
048470/20130220/143926/4015/756/20/
048470/20130220/143929/4015/297/20/
048470/20130220/143929/4015/394/10/
048470/20130220/143929/4020/2606/20/
048470/20130220/143931/4020/138/20/
048470/20130220/143932/4025/1377/20/
048470/20130220/143933/4025/136/20/
048470/20130220/143933/4030/864/20/
048470/20130220/143939/4030/1076/20/
048470/20130220/143940/4030/605/20/
048470/20130220/143940/4035/665/20/
048470/20130220/143941/4035/2481/20/
048470/20130220/143942/4035/274/20/
048470/20130220/143942/4040/2262/20/
048470/20130220/143943/4040/262/20/
048470/20130220/143943/4040/175/20/
048470/20130220/143943/4040/100/20/
048470/20130220/143944/4040/249/20/
048470/20130220/143944/4040/335/20/
048470/20130220/143944/4040/2578/20/
048470/20130220/143944/4045/83/20/
048470/20130220/143944/4045/762/20/
048470/20130220/143945/4050/795/20/
048470/20130220/143945/4055/1350/20/
048470/20130220/143948/4060/390/20/
048470/20130220/143949/4065/500/20/
048470/20130220/143949/4070/292/20/
048470/20130220/143952/4070/492/20/
048470/20130220/143953/4050/193/20/
048470/20130220/143953/4050/730/20/
048470/20130220/143953/4050/112/20/
048470/20130220/143955/4050/465/20/
048470/20130220/143956/4050/500/10/
048470/20130220/143957/4050/140/20/
048470/20130220/144001/4060/560/20/
048470/20130220/144001/4060/165/20/
048470/20130220/144003/4060/168/20/
048470/20130220/144008/4060/551/20/
048470/20130220/144012/4060/374/20/
048470/20130220/144015/4050/114/20/
048470/20130220/144019/4050/377/20/
048470/20130220/144020/4050/200/20/
048470/20130220/144021/4050/200/20/
048470/20130220/144022/4050/250/20/
048470/20130220/144025/4050/763/10/
048470/20130220/144026/4050/419/20/
048470/20130220/144026/4050/1000/20/
048470/20130220/144026/4050/1182/20/
048470/20130220/144026/4055/542/20/
048470/20130220/144029/4045/236/20/
048470/20130220/144029/4050/356/20/
048470/20130220/144030/4050/384/20/
048470/20130220/144031/4050/1616/10/
048470/20130220/144033/4050/200/20/
048470/20130220/144035/4050/1063/20/
048470/20130220/144035/4040/125/10/
048470/20130220/144036/4050/247/20/
048470/20130220/144037/4050/248/20/
048470/20130220/144044/4050/233/20/
048470/20130220/144046/4050/950/20/
048470/20130220/144047/4050/206/20/
048470/20130220/144048/4050/1225/20/
048470/20130220/144052/4055/88/20/
048470/20130220/144053/4055/200/20/
048470/20130220/144054/4055/502/20/
048470/20130220/144056/4060/973/20/
048470/20130220/144057/4060/98/20/
048470/20130220/144057/4065/188/20/
048470/20130220/144058/4060/99/20/
048470/20130220/144100/4060/162/10/
048470/20130220/144102/4065/849/20/
048470/20130220/144103/4065/100/10/
048470/20130220/144104/4065/162/10/
048470/20130220/144104/4065/239/10/
048470/20130220/144104/4065/239/10/
048470/20130220/144105/4070/467/20/
048470/20130220/144105/4075/534/20/
048470/20130220/144105/4065/100/10/
048470/20130220/144105/4065/239/10/
048470/20130220/144106/4060/530/10/
048470/20130220/144107/4060/150/20/
048470/20130220/144109/4060/447/20/
048470/20130220/144109/4065/954/20/
048470/20130220/144111/4065/492/20/
048470/20130220/144112/4065/147/20/
048470/20130220/144113/4065/362/20/
048470/20130220/144113/4070/500/20/
048470/20130220/144113/4075/107/20/
048470/20130220/144119/4070/201/20/
048470/20130220/144120/4070/99/10/
048470/20130220/144120/4075/144/20/
048470/20130220/144121/4075/253/20/
048470/20130220/144121/4075/403/20/
048470/20130220/144122/4075/98/20/
048470/20130220/144123/4075/148/20/
048470/20130220/144126/4070/245/10/
048470/20130220/144126/4070/537/10/
048470/20130220/144126/4070/201/10/
048470/20130220/144126/4075/799/20/
048470/20130220/144129/4065/532/10/
048470/20130220/144129/4070/501/20/
048470/20130220/144130/4070/1421/20/
048470/20130220/144130/4070/100/20/
048470/20130220/144133/4070/101/20/
048470/20130220/144134/4070/1000/20/
048470/20130220/144134/4070/543/20/
048470/20130220/144135/4075/3250/20/
048470/20130220/144135/4075/2587/20/
048470/20130220/144135/4080/640/20/
048470/20130220/144135/4080/173/20/
048470/20130220/144136/4085/369/20/
048470/20130220/144136/4085/100/20/
048470/20130220/144136/4080/333/10/
048470/20130220/144136/4085/100/20/
048470/20130220/144137/4080/100/10/
048470/20130220/144137/4085/153/20/
048470/20130220/144137/4085/97/20/
048470/20130220/144140/4085/3237/20/
048470/20130220/144140/4090/1634/20/
048470/20130220/144141/4090/500/20/
048470/20130220/144141/4090/101/20/
048470/20130220/144142/4090/100/20/
048470/20130220/144145/4090/399/20/
048470/20130220/144147/4085/672/10/
048470/20130220/144147/4085/932/20/
048470/20130220/144148/4085/202/20/
048470/20130220/144148/4085/197/20/
048470/20130220/144148/4090/402/20/
048470/20130220/144150/4090/1039/20/
048470/20130220/144150/4090/92/20/
048470/20130220/144150/4090/526/20/
048470/20130220/144154/4085/100/10/
048470/20130220/144155/4090/100/20/
048470/20130220/144155/4090/700/20/
048470/20130220/144156/4090/1744/20/
048470/20130220/144156/4095/7431/20/
048470/20130220/144156/4100/10825/20/
048470/20130220/144156/4090/124/10/
048470/20130220/144157/4095/100/20/
048470/20130220/144158/4090/155/20/
048470/20130220/144158/4090/244/20/
048470/20130220/144159/4100/1001/20/
048470/20130220/144200/4100/2439/20/
048470/20130220/144200/4105/594/10/
048470/20130220/144200/4090/1681/10/
048470/20130220/144201/4090/2761/20/
048470/20130220/144202/4115/492/20/
048470/20130220/144203/4115/789/20/
048470/20130220/144203/4120/2212/20/
048470/20130220/144203/4120/500/20/
048470/20130220/144203/4120/842/20/
048470/20130220/144204/4120/922/20/
048470/20130220/144204/4125/1327/20/
048470/20130220/144204/4125/185/20/
048470/20130220/144204/4130/845/20/
048470/20130220/144204/4130/858/20/
048470/20130220/144205/4130/3930/10/
048470/20130220/144205/4125/750/10/
048470/20130220/144205/4110/183/10/
048470/20130220/144205/4105/222/10/
048470/20130220/144205/4100/1984/10/
048470/20130220/144205/4115/172/10/
048470/20130220/144205/4110/492/10/
048470/20130220/144205/4105/500/10/
048470/20130220/144205/4100/337/10/
048470/20130220/144206/4135/285/10/
048470/20130220/144206/4135/171/10/
048470/20130220/144207/4135/500/10/
048470/20130220/144208/4135/101/20/
048470/20130220/144208/4140/600/20/
048470/20130220/144208/4145/379/20/
048470/20130220/144209/4135/494/20/
048470/20130220/144209/4140/579/20/
048470/20130220/144209/4145/487/20/
048470/20130220/144209/4150/4144/20/
048470/20130220/144209/4150/481/20/
048470/20130220/144210/4150/1257/20/
048470/20130220/144210/4155/634/20/
048470/20130220/144210/4160/894/20/
048470/20130220/144210/4155/1590/10/
048470/20130220/144211/4155/199/10/
048470/20130220/144211/4160/105/20/
048470/20130220/144211/4160/499/10/
048470/20130220/144211/4155/501/10/
048470/20130220/144212/4160/100/10/
048470/20130220/144212/4165/1003/20/
048470/20130220/144212/4175/226/20/
048470/20130220/144212/4180/185/20/
048470/20130220/144212/4190/1500/20/
048470/20130220/144212/4195/86/20/
048470/20130220/144212/4160/137/10/
048470/20130220/144213/4160/114/10/
048470/20130220/144213/4160/100/10/
048470/20130220/144213/4175/620/20/
048470/20130220/144214/4160/290/10/
048470/20130220/144214/4155/1710/10/
048470/20130220/144214/4170/91/20/
048470/20130220/144215/4155/910/10/
048470/20130220/144215/4160/90/20/
048470/20130220/144215/4170/310/20/
048470/20130220/144215/4155/250/10/
048470/20130220/144215/4170/99/20/
048470/20130220/144216/4170/1220/20/
048470/20130220/144216/4175/175/20/
048470/20130220/144216/4180/2145/20/
048470/20130220/144216/4185/312/20/
048470/20130220/144216/4190/272/20/
048470/20130220/144217/4190/107/20/
048470/20130220/144217/4195/272/20/
048470/20130220/144217/4165/3391/10/
048470/20130220/144218/4160/196/20/
048470/20130220/144218/4160/1063/20/
048470/20130220/144218/4180/500/20/
048470/20130220/144218/4195/779/20/
048470/20130220/144219/4160/278/10/
048470/20130220/144219/4170/122/20/
048470/20130220/144219/4175/726/20/
048470/20130220/144219/4170/140/10/
048470/20130220/144219/4180/2571/20/
048470/20130220/144219/4190/429/20/
048470/20130220/144219/4195/500/20/
048470/20130220/144220/4195/497/20/
048470/20130220/144220/4170/106/10/
048470/20130220/144221/4190/1850/20/
048470/20130220/144221/4195/650/20/
048470/20130220/144221/4190/100/20/
048470/20130220/144222/4175/126/10/
048470/20130220/144223/4180/146/20/
048470/20130220/144223/4180/1049/20/
048470/20130220/144224/4180/318/20/
048470/20130220/144224/4175/1186/10/
048470/20130220/144225/4170/511/10/
048470/20130220/144226/4170/428/10/
048470/20130220/144226/4175/266/20/
048470/20130220/144226/4180/146/20/
048470/20130220/144227/4170/106/20/
048470/20130220/144227/4180/247/20/
048470/20130220/144227/4180/100/20/
048470/20130220/144227/4180/179/20/
048470/20130220/144228/4180/1069/20/
048470/20130220/144228/4175/1006/10/
048470/20130220/144228/4175/300/10/
048470/20130220/144229/4175/105/20/
048470/20130220/144229/4180/99/20/
048470/20130220/144230/4175/292/20/
048470/20130220/144230/4180/1317/20/
048470/20130220/144230/4180/209/20/
048470/20130220/144230/4170/114/10/
048470/20130220/144231/4180/1206/20/
048470/20130220/144231/4180/720/20/
048470/20130220/144231/4180/541/20/
048470/20130220/144231/4175/859/10/
048470/20130220/144231/4175/500/10/
048470/20130220/144232/4180/1193/20/
048470/20130220/144232/4180/251/20/
048470/20130220/144232/4180/791/20/
048470/20130220/144232/4180/323/20/
048470/20130220/144233/4180/229/20/
048470/20130220/144233/4180/527/20/
048470/20130220/144234/4175/250/10/
048470/20130220/144234/4180/102/20/
048470/20130220/144234/4180/2130/20/
048470/20130220/144235/4180/143/20/
048470/20130220/144235/4175/104/10/
048470/20130220/144235/4175/396/10/
048470/20130220/144235/4170/107/10/
048470/20130220/144235/4175/1609/20/
048470/20130220/144235/4180/1391/20/
048470/20130220/144237/4180/933/20/
048470/20130220/144237/4180/313/20/
048470/20130220/144237/4180/84/20/
048470/20130220/144237/4180/185/20/
048470/20130220/144238/4175/143/20/
048470/20130220/144238/4175/247/20/
048470/20130220/144238/4175/587/20/
048470/20130220/144239/4170/127/10/
048470/20130220/144239/4175/122/20/
048470/20130220/144240/4170/96/10/
048470/20130220/144240/4175/96/20/
048470/20130220/144240/4170/103/10/
048470/20130220/144240/4170/114/10/
048470/20130220/144241/4170/104/10/
048470/20130220/144241/4170/335/10/
048470/20130220/144241/4170/400/10/
048470/20130220/144241/4170/102/10/
048470/20130220/144241/4175/762/20/
048470/20130220/144242/4175/512/20/
048470/20130220/144243/4175/302/20/
048470/20130220/144243/4170/250/10/
048470/20130220/144243/4175/579/20/
048470/20130220/144244/4175/215/20/
048470/20130220/144245/4175/328/20/
048470/20130220/144246/4175/93/20/
048470/20130220/144248/4170/122/10/
048470/20130220/144248/4175/304/20/
048470/20130220/144249/4175/1926/20/
048470/20130220/144249/4175/500/20/
048470/20130220/144249/4175/144/20/
048470/20130220/144249/4170/208/10/
048470/20130220/144249/4175/137/20/
048470/20130220/144250/4175/678/20/
048470/20130220/144250/4170/222/10/
048470/20130220/144251/4170/504/10/
048470/20130220/144251/4170/106/10/
048470/20130220/144252/4170/287/10/
048470/20130220/144253/4170/1955/20/
048470/20130220/144254/4175/935/20/
048470/20130220/144255/4170/509/10/
048470/20130220/144255/4175/124/20/
048470/20130220/144256/4175/516/20/
048470/20130220/144257/4170/577/10/
048470/20130220/144257/4165/125/10/
048470/20130220/144300/4165/953/10/
048470/20130220/144300/4165/107/10/
048470/20130220/144300/4160/2038/10/
048470/20130220/144300/4155/600/10/
048470/20130220/144300/4155/761/10/
048470/20130220/144301/4155/738/10/
048470/20130220/144301/4150/141/10/
048470/20130220/144303/4150/171/10/
048470/20130220/144303/4150/200/10/
048470/20130220/144305/4150/217/10/
048470/20130220/144305/4150/200/10/
048470/20130220/144310/4160/274/20/
048470/20130220/144312/4150/386/10/
048470/20130220/144313/4140/144/10/
048470/20130220/144313/4135/358/10/
048470/20130220/144313/4150/1196/20/
048470/20130220/144314/4150/459/20/
048470/20130220/144314/4135/991/10/
048470/20130220/144314/4130/1042/10/
048470/20130220/144317/4135/179/20/
048470/20130220/144319/4135/816/20/
048470/20130220/144323/4135/162/20/
048470/20130220/144324/4135/432/20/
048470/20130220/144326/4135/324/10/
048470/20130220/144328/4140/394/20/
048470/20130220/144330/4140/326/20/
048470/20130220/144330/4140/1152/20/
048470/20130220/144331/4135/123/10/
048470/20130220/144331/4130/426/10/
048470/20130220/144331/4140/92/20/
048470/20130220/144331/4145/708/20/
048470/20130220/144331/4130/3294/10/
048470/20130220/144331/4125/520/10/
048470/20130220/144331/4120/1187/10/
048470/20130220/144332/4135/260/20/
048470/20130220/144332/4120/280/10/
048470/20130220/144332/4115/4729/10/
048470/20130220/144334/4115/99/10/
048470/20130220/144335/4120/99/20/
048470/20130220/144336/4120/81/20/
048470/20130220/144337/4120/84/20/
048470/20130220/144338/4135/363/20/
048470/20130220/144340/4135/220/10/
048470/20130220/144341/4140/208/20/
048470/20130220/144343/4140/513/10/
048470/20130220/144347/4140/252/10/
048470/20130220/144347/4140/114/20/
048470/20130220/144348/4145/405/20/
048470/20130220/144349/4145/102/20/
048470/20130220/144349/4145/1233/20/
048470/20130220/144349/4150/2167/20/
048470/20130220/144351/4150/517/20/
048470/20130220/144352/4150/405/20/
048470/20130220/144355/4150/815/10/
048470/20130220/144359/4150/135/10/
048470/20130220/144359/4140/420/10/
048470/20130220/144401/4135/3644/10/
048470/20130220/144401/4120/83/10/
048470/20130220/144401/4115/301/10/
048470/20130220/144401/4115/130/10/
048470/20130220/144401/4110/495/10/
048470/20130220/144401/4110/252/10/
048470/20130220/144403/4140/504/10/
048470/20130220/144403/4110/691/10/
048470/20130220/144403/4110/1191/10/
048470/20130220/144404/4140/83/20/
048470/20130220/144414/4120/128/20/
048470/20130220/144415/4120/204/20/
048470/20130220/144420/4130/888/20/
048470/20130220/144424/4120/115/10/
048470/20130220/144425/4120/162/10/
048470/20130220/144425/4130/846/20/
048470/20130220/144425/4135/166/20/
048470/20130220/144427/4125/346/20/
048470/20130220/144429/4130/500/20/
048470/20130220/144429/4135/1138/20/
048470/20130220/144430/4120/806/10/
048470/20130220/144431/4120/199/20/
048470/20130220/144431/4135/203/20/
048470/20130220/144433/4125/104/20/
048470/20130220/144436/4135/511/20/
048470/20130220/144436/4135/99/20/
048470/20130220/144437/4135/140/20/
048470/20130220/144437/4135/105/20/
048470/20130220/144439/4135/86/20/
048470/20130220/144440/4130/97/20/
048470/20130220/144441/4130/952/20/
048470/20130220/144442/4130/282/20/
048470/20130220/144443/4135/1919/20/
048470/20130220/144443/4140/481/20/
048470/20130220/144444/4140/388/20/
048470/20130220/144444/4140/96/20/
048470/20130220/144444/4140/1770/20/
048470/20130220/144445/4140/96/20/
048470/20130220/144446/4140/392/20/
048470/20130220/144446/4140/134/20/
048470/20130220/144449/4145/81/20/
048470/20130220/144450/4140/102/10/
048470/20130220/144451/4145/114/20/
048470/20130220/144454/4140/320/10/
048470/20130220/144455/4140/601/20/
048470/20130220/144457/4140/140/20/
048470/20130220/144458/4140/314/20/
048470/20130220/144459/4140/115/20/
048470/20130220/144459/4145/1960/20/
048470/20130220/144500/4150/627/20/
048470/20130220/144503/4150/220/20/
048470/20130220/144503/4145/1922/10/
048470/20130220/144506/4140/240/10/
048470/20130220/144507/4140/111/20/
048470/20130220/144507/4145/1043/20/
048470/20130220/144507/4150/468/20/
048470/20130220/144507/4140/442/20/
048470/20130220/144507/4145/298/10/
048470/20130220/144507/4130/2238/10/
048470/20130220/144511/4145/141/20/
048470/20130220/144511/4145/326/20/
048470/20130220/144511/4150/359/20/
048470/20130220/144512/4150/513/10/
048470/20130220/144513/4150/213/10/
048470/20130220/144513/4140/500/10/
048470/20130220/144517/4140/242/10/
048470/20130220/144517/4130/248/10/
048470/20130220/144519/4130/1327/10/
048470/20130220/144519/4120/226/10/
048470/20130220/144521/4120/1002/10/
048470/20130220/144521/4120/101/10/
048470/20130220/144523/4130/204/20/
048470/20130220/144523/4130/103/20/
048470/20130220/144523/4130/100/20/
048470/20130220/144528/4130/113/20/
048470/20130220/144530/4125/92/10/
048470/20130220/144531/4125/93/10/
048470/20130220/144531/4120/295/10/
048470/20130220/144532/4125/91/20/
048470/20130220/144532/4120/152/10/
048470/20130220/144534/4120/192/20/
048470/20130220/144534/4125/194/20/
048470/20130220/144535/4115/102/10/
048470/20130220/144536/4120/261/20/
048470/20130220/144537/4115/358/10/
048470/20130220/144538/4120/212/20/
048470/20130220/144538/4115/130/10/
048470/20130220/144539/4125/600/10/
048470/20130220/144544/4125/101/20/
048470/20130220/144544/4125/302/20/
048470/20130220/144544/4125/100/20/
048470/20130220/144544/4130/100/20/
048470/20130220/144554/4115/356/10/
048470/20130220/144555/4110/264/10/
048470/20130220/144604/4110/173/10/
048470/20130220/144605/4125/606/20/
048470/20130220/144607/4130/957/20/
048470/20130220/144607/4130/1000/20/
048470/20130220/144609/4130/142/20/
048470/20130220/144609/4130/101/20/
048470/20130220/144609/4130/100/20/
048470/20130220/144611/4125/105/10/
048470/20130220/144612/4125/153/20/
048470/20130220/144612/4130/848/20/
048470/20130220/144613/4120/183/20/
048470/20130220/144613/4130/187/20/
048470/20130220/144623/4120/734/10/
048470/20130220/144624/4120/762/10/
048470/20130220/144628/4120/92/20/
048470/20130220/144629/4110/961/10/
048470/20130220/144629/4105/1252/10/
048470/20130220/144629/4100/541/10/
048470/20130220/144630/4120/738/20/
048470/20130220/144636/4110/459/10/
048470/20130220/144636/4100/100/10/
048470/20130220/144641/4100/934/10/
048470/20130220/144642/4100/514/10/
048470/20130220/144645/4100/383/10/
048470/20130220/144645/4100/654/10/
048470/20130220/144645/4095/212/10/
048470/20130220/144646/4095/99/10/
048470/20130220/144646/4090/883/10/
048470/20130220/144647/4090/1543/10/
048470/20130220/144648/4100/514/10/
048470/20130220/144650/4100/83/10/
048470/20130220/144650/4100/567/10/
048470/20130220/144651/4100/348/10/
048470/20130220/144651/4090/304/10/
048470/20130220/144651/4085/425/10/
048470/20130220/144652/4100/100/10/
048470/20130220/144653/4100/1400/20/
048470/20130220/144655/4100/231/20/
048470/20130220/144656/4085/300/10/
048470/20130220/144657/4100/552/20/
048470/20130220/144657/4085/155/10/
048470/20130220/144700/4100/918/20/
048470/20130220/144700/4105/155/20/
048470/20130220/144703/4090/254/10/
048470/20130220/144703/4085/1133/10/
048470/20130220/144703/4080/1615/10/
048470/20130220/144703/4100/998/20/
048470/20130220/144705/4110/101/20/
048470/20130220/144705/4110/901/10/
048470/20130220/144709/4110/87/10/
048470/20130220/144711/4100/515/10/
048470/20130220/144711/4090/1486/10/
048470/20130220/144712/4105/212/10/
048470/20130220/144714/4100/221/20/
048470/20130220/144718/4090/210/10/
048470/20130220/144718/4085/1749/10/
048470/20130220/144722/4085/1009/10/
048470/20130220/144724/4095/113/20/
048470/20130220/144729/4085/329/10/
048470/20130220/144729/4090/449/20/
048470/20130220/144731/4095/101/20/
048470/20130220/144738/4090/266/20/
048470/20130220/144740/4090/90/20/
048470/20130220/144742/4090/1158/20/
048470/20130220/144742/4095/223/20/
048470/20130220/144743/4095/1221/20/
048470/20130220/144744/4100/113/20/
048470/20130220/144745/4100/501/20/
048470/20130220/144745/4095/431/10/
048470/20130220/144750/4100/184/20/
048470/20130220/144750/4100/120/20/
048470/20130220/144751/4100/200/20/
048470/20130220/144752/4100/182/20/
048470/20130220/144752/4100/159/20/
048470/20130220/144754/4100/1025/20/
048470/20130220/144756/4095/1011/10/
048470/20130220/144807/4100/1028/20/
048470/20130220/144808/4095/620/10/
048470/20130220/144810/4100/157/20/
048470/20130220/144811/4100/773/20/
048470/20130220/144812/4110/522/20/
048470/20130220/144812/4100/264/10/
048470/20130220/144813/4100/267/20/
048470/20130220/144815/4100/180/20/
048470/20130220/144815/4105/876/20/
048470/20130220/144816/4100/424/10/
048470/20130220/144818/4100/176/10/
048470/20130220/144819/4105/263/20/
048470/20130220/144822/4105/88/20/
048470/20130220/144822/4105/82/20/
048470/20130220/144824/4105/86/20/
048470/20130220/144828/4105/93/20/
048470/20130220/144837/4105/172/20/
048470/20130220/144837/4100/103/10/
048470/20130220/144838/4100/930/10/
048470/20130220/144839/4100/393/10/
048470/20130220/144839/4100/224/10/
048470/20130220/144841/4095/241/10/
048470/20130220/144843/4095/574/10/
048470/20130220/144844/4100/110/20/
048470/20130220/144845/4095/124/10/
048470/20130220/144845/4095/120/10/
048470/20130220/144846/4090/346/10/
048470/20130220/144851/4090/532/10/
048470/20130220/144852/4090/129/10/
048470/20130220/144852/4090/164/10/
048470/20130220/144904/4095/279/20/
048470/20130220/144910/4095/84/20/
048470/20130220/144912/4090/206/10/
048470/20130220/144913/4090/156/10/
048470/20130220/144914/4095/122/20/
048470/20130220/144914/4095/200/20/
048470/20130220/144921/4090/185/10/
048470/20130220/144922/4090/148/10/
048470/20130220/144924/4085/220/10/
048470/20130220/144933/4080/848/10/
048470/20130220/144936/4075/386/10/
048470/20130220/144936/4070/102/10/
048470/20130220/144936/4070/440/10/
048470/20130220/144936/4080/304/20/
048470/20130220/144936/4070/163/10/
048470/20130220/144937/4070/132/10/
048470/20130220/144937/4070/215/10/
048470/20130220/144939/4070/146/10/
048470/20130220/144941/4070/209/10/
048470/20130220/144942/4070/105/20/
048470/20130220/144943/4065/1517/10/
048470/20130220/144943/4060/103/10/
048470/20130220/144946/4060/1551/10/
048470/20130220/144946/4055/159/10/
048470/20130220/144947/4055/618/10/
048470/20130220/144948/4055/226/10/
048470/20130220/144949/4055/242/10/
048470/20130220/144949/4050/1178/10/
048470/20130220/144950/4050/879/10/
048470/20130220/144950/4055/120/20/
048470/20130220/144951/4050/863/10/
048470/20130220/144951/4045/1191/10/
048470/20130220/144951/4045/373/10/
048470/20130220/144952/4045/342/10/
048470/20130220/144952/4040/442/10/
048470/20130220/144954/4045/623/20/
048470/20130220/144955/4050/268/10/
048470/20130220/144956/4050/1211/10/
048470/20130220/144956/4045/1100/10/
048470/20130220/144956/4040/5043/10/
048470/20130220/144956/4035/157/10/
048470/20130220/144957/4035/149/10/
048470/20130220/144957/4035/102/10/
048470/20130220/144957/4035/1522/10/
048470/20130220/144957/4030/2278/10/
048470/20130220/144957/4040/105/20/
048470/20130220/144958/4030/97/10/
048470/20130220/144958/4025/1876/10/
048470/20130220/144958/4020/1827/10/
048470/20130220/144958/4020/608/10/
048470/20130220/144958/4020/371/10/
048470/20130220/144958/4015/231/10/
048470/20130220/144959/4015/3800/10/
048470/20130220/150000/4045/41864/10/
