048470/20130228/90000/3710/10892/20/
048470/20130228/90002/3710/2019/20/
048470/20130228/90016/3740/117/20/
048470/20130228/90021/3750/501/20/
048470/20130228/90034/3745/542/10/
048470/20130228/90051/3740/112/10/
048470/20130228/90051/3735/170/10/
048470/20130228/90051/3725/300/10/
048470/20130228/90113/3720/2351/10/
048470/20130228/90146/3725/82/10/
048470/20130228/90146/3720/127/10/
048470/20130228/90146/3715/250/10/
048470/20130228/90146/3710/657/10/
048470/20130228/90205/3740/388/20/
048470/20130228/90213/3740/108/10/
048470/20130228/90227/3740/413/20/
048470/20130228/90229/3740/500/10/
048470/20130228/90251/3740/91/10/
048470/20130228/90302/3745/1004/20/
048470/20130228/90413/3730/557/10/
048470/20130228/90434/3720/516/10/
048470/20130228/90434/3710/590/10/
048470/20130228/90541/3745/348/20/
048470/20130228/90543/3745/671/10/
048470/20130228/90550/3740/301/10/
048470/20130228/90641/3735/730/10/
048470/20130228/90644/3730/1000/10/
048470/20130228/90647/3730/1000/10/
048470/20130228/90651/3730/1000/10/
048470/20130228/90707/3730/398/20/
048470/20130228/90721/3725/169/10/
048470/20130228/90742/3720/148/10/
048470/20130228/90751/3720/1000/10/
048470/20130228/90754/3720/1693/10/
048470/20130228/90802/3720/100/20/
048470/20130228/90831/3720/100/20/
048470/20130228/90832/3710/1000/10/
048470/20130228/90837/3710/1000/10/
048470/20130228/90849/3720/89/20/
048470/20130228/91006/3710/1006/10/
048470/20130228/91012/3715/500/10/
048470/20130228/91025/3710/540/10/
048470/20130228/91038/3710/1000/10/
048470/20130228/91041/3710/114/10/
048470/20130228/91101/3710/387/20/
048470/20130228/91136/3705/1001/10/
048470/20130228/91146/3705/5000/10/
048470/20130228/91203/3705/1001/10/
048470/20130228/91210/3700/1000/10/
048470/20130228/91210/3700/300/10/
048470/20130228/91215/3705/120/10/
048470/20130228/91215/3700/730/10/
048470/20130228/91232/3705/211/10/
048470/20130228/91232/3700/440/10/
048470/20130228/91235/3700/1000/10/
048470/20130228/91241/3700/1284/10/
048470/20130228/91243/3700/1286/10/
048470/20130228/91244/3700/2300/10/
048470/20130228/91245/3700/300/10/
048470/20130228/91308/3705/170/10/
048470/20130228/91308/3700/5304/10/
048470/20130228/91308/3695/1894/10/
048470/20130228/91316/3695/500/10/
048470/20130228/91323/3695/3001/10/
048470/20130228/91336/3700/152/20/
048470/20130228/91407/3700/1352/10/
048470/20130228/91411/3700/100/20/
048470/20130228/91419/3700/500/10/
048470/20130228/91427/3700/452/10/
048470/20130228/91435/3700/98/20/
048470/20130228/91501/3710/121/20/
048470/20130228/91516/3710/601/10/
048470/20130228/91553/3710/202/10/
048470/20130228/91629/3715/801/20/
048470/20130228/91639/3710/3106/10/
048470/20130228/91641/3710/800/20/
048470/20130228/91700/3710/100/20/
048470/20130228/91718/3710/199/20/
048470/20130228/91741/3710/115/20/
048470/20130228/91825/3710/1075/20/
048470/20130228/91828/3710/1615/20/
048470/20130228/91831/3710/96/10/
048470/20130228/91839/3710/1024/20/
048470/20130228/91841/3710/83/20/
048470/20130228/91853/3710/393/20/
048470/20130228/91935/3715/151/20/
048470/20130228/91953/3710/401/10/
048470/20130228/91959/3710/450/10/
048470/20130228/92107/3715/864/20/
048470/20130228/92250/3725/81/20/
048470/20130228/92259/3715/250/10/
048470/20130228/92309/3725/832/20/
048470/20130228/92327/3720/400/10/
048470/20130228/92330/3720/600/20/
048470/20130228/92400/3725/301/20/
048470/20130228/92403/3725/500/20/
048470/20130228/92405/3725/778/20/
048470/20130228/92429/3730/110/20/
048470/20130228/92431/3730/100/20/
048470/20130228/92502/3735/281/20/
048470/20130228/92503/3735/388/20/
048470/20130228/92531/3730/194/10/
048470/20130228/92617/3730/344/20/
048470/20130228/92659/3735/263/20/
048470/20130228/92703/3735/100/20/
048470/20130228/92703/3735/338/20/
048470/20130228/92721/3735/113/20/
048470/20130228/92733/3735/587/20/
048470/20130228/92742/3740/741/20/
048470/20130228/92743/3740/500/20/
048470/20130228/92746/3740/1300/20/
048470/20130228/92804/3740/122/20/
048470/20130228/92816/3745/154/20/
048470/20130228/92833/3745/285/20/
048470/20130228/93018/3745/1387/10/
048470/20130228/93022/3750/101/20/
048470/20130228/93032/3745/300/10/
048470/20130228/93047/3745/101/10/
048470/20130228/93107/3750/84/20/
048470/20130228/93107/3750/351/20/
048470/20130228/93156/3750/116/20/
048470/20130228/93159/3750/405/10/
048470/20130228/93209/3750/295/20/
048470/20130228/93242/3750/221/10/
048470/20130228/93323/3750/280/20/
048470/20130228/93354/3750/301/10/
048470/20130228/93412/3750/501/10/
048470/20130228/93418/3750/177/10/
048470/20130228/93433/3745/150/10/
048470/20130228/93445/3745/151/10/
048470/20130228/93450/3745/150/10/
048470/20130228/93452/3750/504/20/
048470/20130228/93510/3750/751/20/
048470/20130228/93528/3750/2001/20/
048470/20130228/93626/3750/2007/20/
048470/20130228/93706/3755/484/20/
048470/20130228/93718/3755/611/20/
048470/20130228/93823/3755/552/10/
048470/20130228/93830/3760/2011/20/
048470/20130228/93833/3760/305/20/
048470/20130228/93833/3765/101/20/
048470/20130228/93855/3765/500/20/
048470/20130228/93912/3765/884/20/
048470/20130228/93912/3770/441/20/
048470/20130228/94008/3765/425/20/
048470/20130228/94053/3765/151/10/
048470/20130228/94100/3765/264/20/
048470/20130228/94131/3760/866/10/
048470/20130228/94140/3760/180/10/
048470/20130228/94144/3760/394/10/
048470/20130228/94201/3755/888/10/
048470/20130228/94211/3760/81/20/
048470/20130228/94211/3755/300/10/
048470/20130228/94317/3755/322/10/
048470/20130228/94346/3755/123/10/
048470/20130228/94409/3755/356/10/
048470/20130228/94442/3750/151/10/
048470/20130228/94523/3745/503/10/
048470/20130228/94524/3745/250/10/
048470/20130228/94535/3745/171/10/
048470/20130228/94536/3745/161/10/
048470/20130228/94602/3745/141/20/
048470/20130228/94622/3740/112/10/
048470/20130228/94719/3745/1002/10/
048470/20130228/94746/3745/260/10/
048470/20130228/94755/3745/501/20/
048470/20130228/94759/3745/100/20/
048470/20130228/94802/3745/101/20/
048470/20130228/94852/3740/587/10/
048470/20130228/94903/3740/567/20/
048470/20130228/95006/3745/1925/20/
048470/20130228/95017/3735/618/10/
048470/20130228/95044/3750/1503/20/
048470/20130228/95046/3750/118/20/
048470/20130228/95104/3735/202/10/
048470/20130228/95117/3740/325/20/
048470/20130228/95150/3740/203/10/
048470/20130228/95212/3740/980/20/
048470/20130228/95314/3750/910/20/
048470/20130228/95314/3755/336/20/
048470/20130228/95314/3760/1141/20/
048470/20130228/95337/3765/402/20/
048470/20130228/95344/3765/319/20/
048470/20130228/95405/3765/130/20/
048470/20130228/95412/3760/201/10/
048470/20130228/95414/3760/1330/10/
048470/20130228/95416/3760/200/10/
048470/20130228/95419/3760/101/10/
048470/20130228/95430/3760/260/10/
048470/20130228/95432/3760/100/10/
048470/20130228/95445/3760/501/10/
048470/20130228/95459/3760/104/10/
048470/20130228/95501/3760/250/10/
048470/20130228/95504/3760/100/10/
048470/20130228/95511/3760/100/10/
048470/20130228/95540/3765/90/20/
048470/20130228/95646/3760/988/10/
048470/20130228/95725/3750/2006/10/
048470/20130228/95851/3760/622/20/
048470/20130228/95858/3765/442/20/
048470/20130228/95905/3770/502/20/
048470/20130228/95929/3770/887/20/
048470/20130228/95930/3770/120/10/
048470/20130228/95930/3765/380/10/
048470/20130228/95948/3775/260/20/
048470/20130228/100036/3775/1007/20/
048470/20130228/100041/3775/264/10/
048470/20130228/100142/3770/402/10/
048470/20130228/100244/3770/214/10/
048470/20130228/100252/3770/3800/10/
048470/20130228/100409/3770/100/20/
048470/20130228/100441/3770/150/20/
048470/20130228/100441/3775/450/20/
048470/20130228/100605/3770/362/20/
048470/20130228/100750/3765/146/10/
048470/20130228/100853/3765/123/10/
048470/20130228/101010/3745/84/10/
048470/20130228/101414/3760/1030/10/
048470/20130228/101450/3760/101/10/
048470/20130228/101617/3750/1026/10/
048470/20130228/101737/3750/1712/10/
048470/20130228/101803/3755/453/20/
048470/20130228/101958/3755/561/10/
048470/20130228/102006/3755/145/20/
048470/20130228/102159/3760/511/20/
048470/20130228/102239/3750/484/10/
048470/20130228/102256/3760/515/20/
048470/20130228/102620/3750/981/10/
048470/20130228/103114/3760/182/20/
048470/20130228/103123/3760/100/20/
048470/20130228/103216/3755/300/10/
048470/20130228/103321/3760/254/20/
048470/20130228/103437/3755/93/10/
048470/20130228/103650/3760/741/20/
048470/20130228/103916/3765/1001/20/
048470/20130228/104052/3765/289/20/
048470/20130228/104111/3765/103/20/
048470/20130228/104113/3765/99/20/
048470/20130228/104211/3765/97/20/
048470/20130228/104348/3770/502/20/
048470/20130228/104359/3770/1048/20/
048470/20130228/104943/3770/716/20/
048470/20130228/104959/3770/200/10/
048470/20130228/105424/3770/82/20/
048470/20130228/105521/3765/100/10/
048470/20130228/105552/3765/363/10/
048470/20130228/105905/3765/315/10/
048470/20130228/105921/3765/100/10/
048470/20130228/105954/3765/121/10/
048470/20130228/105954/3760/1279/10/
048470/20130228/110152/3760/126/10/
048470/20130228/110527/3760/173/20/
048470/20130228/110629/3760/333/20/
048470/20130228/110827/3765/500/20/
048470/20130228/110925/3760/167/10/
048470/20130228/111325/3770/104/20/
048470/20130228/111344/3770/426/20/
048470/20130228/111358/3760/400/10/
048470/20130228/111438/3760/275/10/
048470/20130228/111621/3760/1151/20/
048470/20130228/111659/3760/616/20/
048470/20130228/111722/3760/467/20/
048470/20130228/113132/3770/144/20/
048470/20130228/113146/3770/815/20/
048470/20130228/113201/3770/100/10/
048470/20130228/113239/3770/95/10/
048470/20130228/113444/3770/107/20/
048470/20130228/114118/3775/129/20/
048470/20130228/114118/3775/713/20/
048470/20130228/114516/3775/605/20/
048470/20130228/114550/3780/1874/20/
048470/20130228/114559/3780/100/10/
048470/20130228/114629/3785/531/20/
048470/20130228/114631/3785/1056/20/
048470/20130228/114826/3785/346/20/
048470/20130228/115011/3780/510/10/
048470/20130228/115021/3780/300/10/
048470/20130228/115453/3780/164/10/
048470/20130228/120341/3785/120/20/
048470/20130228/120629/3785/100/20/
048470/20130228/120702/3785/100/20/
048470/20130228/121003/3780/100/10/
048470/20130228/121043/3785/777/20/
048470/20130228/121052/3785/100/10/
048470/20130228/121059/3785/629/10/
048470/20130228/121101/3785/873/20/
048470/20130228/121101/3785/127/10/
048470/20130228/121124/3785/373/20/
048470/20130228/121137/3785/134/10/
048470/20130228/121248/3785/834/20/
048470/20130228/121254/3790/81/20/
048470/20130228/121300/3790/82/20/
048470/20130228/121307/3785/81/10/
048470/20130228/121313/3790/81/20/
048470/20130228/121319/3790/81/20/
048470/20130228/121319/3790/501/20/
048470/20130228/121320/3790/1786/20/
048470/20130228/121323/3795/551/20/
048470/20130228/121324/3795/355/20/
048470/20130228/121326/3795/528/20/
048470/20130228/121331/3790/81/10/
048470/20130228/121333/3795/2033/20/
048470/20130228/121333/3795/850/20/
048470/20130228/121335/3800/296/20/
048470/20130228/121337/3800/506/20/
048470/20130228/121339/3800/310/20/
048470/20130228/121340/3800/109/20/
048470/20130228/121340/3800/105/20/
048470/20130228/121342/3800/348/20/
048470/20130228/121349/3800/82/20/
048470/20130228/121351/3800/234/20/
048470/20130228/121357/3800/366/10/
048470/20130228/121401/3805/2084/20/
048470/20130228/121406/3805/430/10/
048470/20130228/121410/3810/81/20/
048470/20130228/121415/3810/635/20/
048470/20130228/121420/3800/837/10/
048470/20130228/121420/3800/404/10/
048470/20130228/121426/3805/81/20/
048470/20130228/121432/3805/83/20/
048470/20130228/121433/3800/212/10/
048470/20130228/121433/3800/243/20/
048470/20130228/121437/3800/81/10/
048470/20130228/121438/3800/85/10/
048470/20130228/121442/3800/81/20/
048470/20130228/121445/3805/81/20/
048470/20130228/121446/3805/98/20/
048470/20130228/121453/3805/81/20/
048470/20130228/121457/3805/1128/20/
048470/20130228/121458/3805/114/20/
048470/20130228/121459/3805/86/20/
048470/20130228/121502/3805/729/20/
048470/20130228/121502/3810/269/20/
048470/20130228/121512/3810/92/20/
048470/20130228/121528/3805/167/10/
048470/20130228/121531/3810/109/20/
048470/20130228/121539/3810/171/20/
048470/20130228/121611/3810/177/20/
048470/20130228/121648/3805/1205/10/
048470/20130228/121649/3805/262/20/
048470/20130228/121649/3805/366/20/
048470/20130228/121719/3800/333/10/
048470/20130228/121724/3800/200/10/
048470/20130228/121732/3800/374/10/
048470/20130228/121845/3800/86/20/
048470/20130228/122123/3795/337/10/
048470/20130228/122125/3790/100/10/
048470/20130228/122125/3785/1268/10/
048470/20130228/122125/3780/1031/10/
048470/20130228/122254/3785/198/10/
048470/20130228/122304/3785/850/10/
048470/20130228/122304/3785/939/20/
048470/20130228/122535/3785/216/10/
048470/20130228/122535/3780/353/10/
048470/20130228/122958/3785/133/20/
048470/20130228/122958/3790/500/20/
048470/20130228/123017/3790/394/10/
048470/20130228/123019/3795/177/20/
048470/20130228/123110/3795/129/20/
048470/20130228/123152/3795/151/10/
048470/20130228/123319/3800/782/20/
048470/20130228/123427/3800/191/20/
048470/20130228/123427/3805/133/20/
048470/20130228/123646/3805/353/20/
048470/20130228/123750/3805/250/20/
048470/20130228/123838/3800/502/10/
048470/20130228/123844/3800/338/10/
048470/20130228/123857/3800/100/20/
048470/20130228/124011/3800/186/20/
048470/20130228/124018/3805/1022/20/
048470/20130228/124018/3810/1199/20/
048470/20130228/124018/3815/1512/20/
048470/20130228/124037/3815/100/10/
048470/20130228/124037/3815/282/10/
048470/20130228/124044/3815/215/10/
048470/20130228/124055/3815/200/10/
048470/20130228/124059/3815/200/10/
048470/20130228/124101/3815/300/10/
048470/20130228/124102/3815/200/10/
048470/20130228/124110/3815/730/20/
048470/20130228/124135/3815/201/20/
048470/20130228/124159/3820/2163/20/
048470/20130228/124159/3825/1357/20/
048470/20130228/124220/3825/153/20/
048470/20130228/124223/3825/1898/20/
048470/20130228/124223/3830/3102/20/
048470/20130228/124245/3830/115/20/
048470/20130228/124321/3815/105/10/
048470/20130228/124326/3805/165/10/
048470/20130228/124326/3800/925/10/
048470/20130228/124329/3820/133/20/
048470/20130228/124329/3825/267/20/
048470/20130228/124350/3825/500/20/
048470/20130228/124508/3820/1322/20/
048470/20130228/124543/3825/1096/20/
048470/20130228/124949/3810/367/10/
048470/20130228/125046/3805/125/10/
048470/20130228/125159/3800/926/10/
048470/20130228/125237/3810/178/20/
048470/20130228/125439/3800/474/10/
048470/20130228/125620/3795/610/10/
048470/20130228/125620/3790/650/10/
048470/20130228/125644/3795/102/10/
048470/20130228/125650/3800/1192/20/
048470/20130228/125703/3795/486/10/
048470/20130228/125708/3805/115/20/
048470/20130228/125801/3800/201/20/
048470/20130228/125828/3810/476/20/
048470/20130228/125830/3810/241/10/
048470/20130228/125830/3810/241/10/
048470/20130228/125837/3810/97/10/
048470/20130228/125850/3795/159/10/
048470/20130228/130007/3810/101/10/
048470/20130228/130037/3820/104/20/
048470/20130228/130048/3820/100/20/
048470/20130228/130209/3820/1208/20/
048470/20130228/130342/3820/300/20/
048470/20130228/130720/3805/258/10/
048470/20130228/131021/3815/210/20/
048470/20130228/131144/3810/126/20/
048470/20130228/131910/3815/194/20/
048470/20130228/131944/3820/354/20/
048470/20130228/131949/3815/512/10/
048470/20130228/132135/3815/2279/10/
048470/20130228/132135/3820/697/20/
048470/20130228/132204/3820/701/20/
048470/20130228/132228/3820/111/10/
048470/20130228/132303/3820/200/10/
048470/20130228/132326/3815/385/10/
048470/20130228/132448/3815/5000/10/
048470/20130228/132452/3815/1520/10/
048470/20130228/132458/3815/100/10/
048470/20130228/132458/3815/93/10/
048470/20130228/132542/3815/90/20/
048470/20130228/132755/3815/120/20/
048470/20130228/132758/3815/100/20/
048470/20130228/132804/3815/98/20/
048470/20130228/132822/3810/202/10/
048470/20130228/132842/3810/126/10/
048470/20130228/132842/3805/1829/10/
048470/20130228/133033/3805/151/10/
048470/20130228/133048/3810/324/20/
048470/20130228/133059/3810/506/10/
048470/20130228/133126/3810/110/10/
048470/20130228/133205/3810/85/10/
048470/20130228/133224/3805/300/10/
048470/20130228/133419/3800/146/10/
048470/20130228/133441/3800/200/10/
048470/20130228/133453/3800/200/20/
048470/20130228/133504/3800/600/20/
048470/20130228/133514/3800/300/10/
048470/20130228/133535/3800/100/10/
048470/20130228/133635/3800/351/10/
048470/20130228/133635/3795/149/10/
048470/20130228/133648/3795/873/10/
048470/20130228/133729/3800/500/10/
048470/20130228/133737/3800/500/10/
048470/20130228/133834/3800/200/20/
048470/20130228/133839/3800/500/10/
048470/20130228/133950/3800/510/10/
048470/20130228/134023/3800/741/10/
048470/20130228/134155/3800/361/10/
048470/20130228/134202/3795/315/10/
048470/20130228/134430/3795/500/10/
048470/20130228/134527/3800/225/20/
048470/20130228/134624/3795/144/10/
048470/20130228/134741/3790/491/10/
048470/20130228/134753/3790/205/10/
048470/20130228/134851/3785/1126/10/
048470/20130228/134906/3785/200/10/
048470/20130228/134917/3785/111/10/
048470/20130228/134924/3785/124/10/
048470/20130228/134926/3785/284/10/
048470/20130228/134955/3785/100/20/
048470/20130228/134957/3780/316/10/
048470/20130228/135001/3785/116/20/
048470/20130228/135054/3785/250/10/
048470/20130228/135100/3790/179/20/
048470/20130228/135126/3785/300/10/
048470/20130228/135216/3785/590/10/
048470/20130228/135551/3785/1000/10/
048470/20130228/135848/3795/600/20/
048470/20130228/135951/3795/91/20/
048470/20130228/140010/3795/100/10/
048470/20130228/140047/3795/189/20/
048470/20130228/140115/3790/478/10/
048470/20130228/140442/3790/801/10/
048470/20130228/140653/3795/150/20/
048470/20130228/140749/3790/494/10/
048470/20130228/140749/3795/778/20/
048470/20130228/140949/3795/400/20/
048470/20130228/141030/3795/113/10/
048470/20130228/141315/3795/143/10/
048470/20130228/141323/3795/100/10/
048470/20130228/141337/3795/200/10/
048470/20130228/141426/3795/230/10/
048470/20130228/141426/3795/825/10/
048470/20130228/141447/3795/157/20/
048470/20130228/141610/3795/518/20/
048470/20130228/141649/3795/500/10/
048470/20130228/142053/3795/101/10/
048470/20130228/142143/3800/1056/20/
048470/20130228/142244/3800/903/20/
048470/20130228/142346/3800/1025/20/
048470/20130228/142349/3800/499/20/
048470/20130228/142424/3800/100/20/
048470/20130228/142427/3800/484/20/
048470/20130228/142450/3795/215/10/
048470/20130228/142551/3800/608/20/
048470/20130228/142716/3805/656/20/
048470/20130228/142757/3805/212/20/
048470/20130228/142855/3800/180/10/
048470/20130228/142932/3800/580/10/
048470/20130228/142934/3800/171/10/
048470/20130228/143221/3800/221/10/
048470/20130228/143226/3795/2621/10/
048470/20130228/143318/3805/2417/20/
048470/20130228/143400/3805/313/10/
048470/20130228/143408/3805/2000/10/
048470/20130228/143419/3805/271/10/
048470/20130228/143553/3800/90/10/
048470/20130228/143658/3805/333/20/
048470/20130228/143727/3805/450/20/
048470/20130228/143741/3805/159/10/
048470/20130228/143817/3805/499/10/
048470/20130228/143819/3805/393/10/
048470/20130228/143912/3805/1035/20/
048470/20130228/144012/3805/1073/10/
048470/20130228/144103/3810/401/20/
048470/20130228/144108/3810/165/20/
048470/20130228/144206/3805/419/10/
048470/20130228/144224/3810/200/20/
048470/20130228/144246/3805/190/10/
048470/20130228/144301/3805/600/10/
048470/20130228/144333/3805/591/10/
048470/20130228/144351/3805/599/10/
048470/20130228/144441/3805/101/10/
048470/20130228/144500/3805/220/10/
048470/20130228/144534/3805/301/10/
048470/20130228/144600/3805/102/10/
048470/20130228/144636/3810/501/20/
048470/20130228/144641/3800/500/10/
048470/20130228/144720/3800/501/10/
048470/20130228/144752/3800/310/10/
048470/20130228/144828/3795/500/10/
048470/20130228/144902/3795/1000/10/
048470/20130228/144911/3795/100/10/
048470/20130228/144922/3795/700/10/
048470/20130228/144928/3800/291/20/
048470/20130228/144928/3805/108/20/
048470/20130228/144937/3800/184/10/
048470/20130228/144944/3800/116/10/
048470/20130228/150000/3810/16698/20/
