048470/20130319/90000/3405/164/10/
048470/20130319/90052/3380/1938/10/
048470/20130319/90052/3375/1262/10/
048470/20130319/90055/3365/330/10/
048470/20130319/90108/3370/571/20/
048470/20130319/90117/3360/1000/10/
048470/20130319/90134/3370/100/20/
048470/20130319/90144/3370/8429/20/
048470/20130319/90214/3370/278/10/
048470/20130319/90231/3370/2031/20/
048470/20130319/90231/3370/1271/20/
048470/20130319/90311/3370/800/10/
048470/20130319/90356/3370/301/10/
048470/20130319/90524/3370/351/10/
048470/20130319/90616/3395/120/20/
048470/20130319/90616/3400/200/20/
048470/20130319/90732/3400/590/20/
048470/20130319/90740/3400/100/20/
048470/20130319/90827/3370/380/10/
048470/20130319/90958/3370/154/20/
048470/20130319/91004/3370/96/20/
048470/20130319/91059/3365/179/10/
048470/20130319/91059/3360/821/10/
048470/20130319/91123/3360/1000/20/
048470/20130319/91123/3395/200/20/
048470/20130319/91321/3390/100/20/
048470/20130319/91321/3395/400/20/
048470/20130319/91330/3370/550/10/
048470/20130319/91330/3365/1250/10/
048470/20130319/91453/3365/664/10/
048470/20130319/91453/3360/2241/10/
048470/20130319/91555/3385/99/20/
048470/20130319/91624/3365/222/10/
048470/20130319/91631/3390/121/20/
048470/20130319/91753/3370/135/10/
048470/20130319/91753/3365/539/10/
048470/20130319/91753/3360/2355/10/
048470/20130319/91930/3375/100/10/
048470/20130319/92121/3385/100/20/
048470/20130319/92205/3370/500/10/
048470/20130319/92626/3375/130/20/
048470/20130319/92824/3380/90/20/
048470/20130319/92851/3380/410/20/
048470/20130319/92851/3385/90/20/
048470/20130319/92900/3370/5000/10/
048470/20130319/92946/3370/400/10/
048470/20130319/93350/3375/280/10/
048470/20130319/93615/3385/265/20/
048470/20130319/93918/3385/240/20/
048470/20130319/93944/3380/1048/10/
048470/20130319/94005/3380/311/20/
048470/20130319/94020/3365/602/10/
048470/20130319/94020/3365/100/10/
048470/20130319/94124/3365/163/10/
048470/20130319/94200/3365/283/10/
048470/20130319/94204/3360/1666/10/
048470/20130319/94210/3360/400/10/
048470/20130319/94248/3365/200/20/
048470/20130319/94253/3360/171/10/
048470/20130319/94253/3355/1149/10/
048470/20130319/94312/3365/140/20/
048470/20130319/94702/3370/242/10/
048470/20130319/94752/3370/87/20/
048470/20130319/95411/3375/1011/20/
048470/20130319/95435/3375/216/20/
048470/20130319/95822/3375/201/10/
048470/20130319/95944/3375/300/10/
048470/20130319/100052/3380/132/10/
048470/20130319/100052/3375/1268/10/
048470/20130319/100143/3375/142/10/
048470/20130319/100157/3370/343/10/
048470/20130319/100204/3370/101/10/
048470/20130319/100219/3370/1601/10/
048470/20130319/100231/3375/321/20/
048470/20130319/100231/3385/131/20/
048470/20130319/100258/3385/504/10/
048470/20130319/100307/3390/499/20/
048470/20130319/100307/3390/502/10/
048470/20130319/100307/3385/1498/10/
048470/20130319/100325/3385/501/10/
048470/20130319/100445/3390/102/20/
048470/20130319/100445/3395/155/20/
048470/20130319/100452/3385/400/10/
048470/20130319/100455/3395/100/20/
048470/20130319/100512/3380/500/10/
048470/20130319/100702/3390/168/20/
048470/20130319/100751/3390/82/20/
048470/20130319/101030/3390/83/20/
048470/20130319/101252/3390/271/20/
048470/20130319/101333/3380/1000/10/
048470/20130319/101335/3380/260/10/
048470/20130319/101348/3375/1000/10/
048470/20130319/101355/3375/1000/10/
048470/20130319/101403/3375/560/10/
048470/20130319/101409/3375/280/20/
048470/20130319/101630/3385/331/20/
048470/20130319/101630/3390/1242/20/
048470/20130319/101630/3395/1994/20/
048470/20130319/101630/3400/1310/20/
048470/20130319/101649/3400/160/10/
048470/20130319/101659/3405/250/20/
048470/20130319/101853/3390/305/10/
048470/20130319/101905/3400/196/10/
048470/20130319/101942/3395/705/10/
048470/20130319/101955/3390/100/10/
048470/20130319/102034/3400/360/10/
048470/20130319/102715/3395/142/20/
048470/20130319/102757/3395/155/10/
048470/20130319/102834/3400/110/20/
048470/20130319/103023/3395/100/10/
048470/20130319/103110/3385/713/10/
048470/20130319/103314/3385/398/10/
048470/20130319/103639/3385/202/10/
048470/20130319/103839/3390/145/10/
048470/20130319/103851/3390/166/10/
048470/20130319/103925/3380/700/10/
048470/20130319/104004/3380/87/10/
048470/20130319/104037/3380/456/10/
048470/20130319/104037/3375/544/10/
048470/20130319/105125/3380/785/10/
048470/20130319/105125/3375/237/10/
048470/20130319/105304/3385/100/20/
048470/20130319/105532/3385/102/10/
048470/20130319/105934/3385/134/20/
048470/20130319/105959/3385/100/20/
048470/20130319/110150/3380/105/10/
048470/20130319/110202/3385/110/20/
048470/20130319/110340/3380/501/10/
048470/20130319/110617/3375/1049/10/
048470/20130319/110617/3370/1541/10/
048470/20130319/110633/3370/500/20/
048470/20130319/110634/3370/111/20/
048470/20130319/110815/3375/293/10/
048470/20130319/110947/3370/115/10/
048470/20130319/111258/3375/102/10/
048470/20130319/111403/3370/497/10/
048470/20130319/111500/3370/84/20/
048470/20130319/111930/3380/130/20/
048470/20130319/112702/3380/560/20/
048470/20130319/112712/3380/165/10/
048470/20130319/112851/3390/901/20/
048470/20130319/112856/3390/101/10/
048470/20130319/112952/3390/399/20/
048470/20130319/112958/3390/518/10/
048470/20130319/113005/3390/83/10/
048470/20130319/113039/3390/249/20/
048470/20130319/113118/3390/107/10/
048470/20130319/113156/3390/677/10/
048470/20130319/113411/3380/298/10/
048470/20130319/113411/3370/1470/10/
048470/20130319/113411/3370/805/20/
048470/20130319/113745/3380/511/10/
048470/20130319/115813/3380/109/10/
048470/20130319/120055/3385/200/20/
048470/20130319/120606/3385/418/20/
048470/20130319/120957/3390/128/20/
048470/20130319/121419/3385/2303/10/
048470/20130319/121419/3380/356/10/
048470/20130319/121457/3380/160/10/
048470/20130319/121830/3390/100/20/
048470/20130319/122014/3380/608/10/
048470/20130319/122141/3380/203/20/
048470/20130319/122454/3380/100/20/
048470/20130319/123118/3380/150/10/
048470/20130319/123427/3380/389/10/
048470/20130319/123502/3375/201/10/
048470/20130319/123545/3385/1128/20/
048470/20130319/123601/3390/420/20/
048470/20130319/123601/3395/685/20/
048470/20130319/123601/3400/1836/20/
048470/20130319/123605/3385/499/10/
048470/20130319/123643/3400/184/20/
048470/20130319/123711/3400/164/10/
048470/20130319/123719/3400/100/10/
048470/20130319/123743/3400/551/10/
048470/20130319/123808/3405/606/10/
048470/20130319/123819/3410/416/20/
048470/20130319/123838/3410/290/20/
048470/20130319/123958/3400/124/20/
048470/20130319/124505/3395/93/10/
048470/20130319/124801/3400/137/20/
048470/20130319/125129/3395/190/20/
048470/20130319/125236/3405/199/20/
048470/20130319/125518/3405/1171/20/
048470/20130319/125518/3410/993/20/
048470/20130319/125553/3410/100/20/
048470/20130319/125611/3410/100/20/
048470/20130319/125643/3400/365/10/
048470/20130319/125700/3410/100/20/
048470/20130319/125735/3405/100/20/
048470/20130319/130557/3405/546/20/
048470/20130319/130818/3410/273/20/
048470/20130319/130819/3410/1548/20/
048470/20130319/130820/3410/2517/20/
048470/20130319/130836/3415/100/20/
048470/20130319/130857/3420/200/20/
048470/20130319/130952/3425/295/20/
048470/20130319/131344/3425/127/20/
048470/20130319/131344/3430/736/20/
048470/20130319/131344/3435/142/20/
048470/20130319/131518/3435/479/20/
048470/20130319/131518/3440/531/20/
048470/20130319/131605/3420/796/10/
048470/20130319/131605/3420/1207/20/
048470/20130319/132055/3420/166/10/
048470/20130319/132144/3430/120/20/
048470/20130319/132218/3430/100/20/
048470/20130319/132237/3435/100/20/
048470/20130319/132256/3435/160/20/
048470/20130319/132305/3435/99/20/
048470/20130319/132348/3435/100/20/
048470/20130319/132350/3440/300/20/
048470/20130319/132403/3440/601/20/
048470/20130319/132417/3440/200/20/
048470/20130319/132424/3440/600/20/
048470/20130319/132609/3445/145/20/
048470/20130319/132642/3445/100/20/
048470/20130319/132720/3445/91/20/
048470/20130319/132756/3445/360/20/
048470/20130319/132756/3450/330/20/
048470/20130319/132756/3460/94/20/
048470/20130319/132818/3460/136/20/
048470/20130319/133053/3450/83/20/
048470/20130319/133451/3435/92/10/
048470/20130319/133643/3430/101/10/
048470/20130319/133808/3435/440/10/
048470/20130319/133823/3435/88/20/
048470/20130319/133829/3435/82/10/
048470/20130319/134002/3435/520/10/
048470/20130319/134143/3430/102/10/
048470/20130319/134253/3435/90/20/
048470/20130319/134633/3425/368/10/
048470/20130319/134633/3415/145/10/
048470/20130319/135310/3420/331/10/
048470/20130319/135310/3415/213/10/
048470/20130319/135445/3420/100/10/
048470/20130319/140139/3420/130/10/
048470/20130319/140253/3420/560/20/
048470/20130319/140312/3415/100/10/
048470/20130319/140404/3410/600/10/
048470/20130319/140404/3405/1220/10/
048470/20130319/140404/3400/917/10/
048470/20130319/141505/3415/545/20/
048470/20130319/141610/3420/347/20/
048470/20130319/142251/3420/87/20/
048470/20130319/142346/3420/202/20/
048470/20130319/142448/3420/141/20/
048470/20130319/143047/3415/628/10/
048470/20130319/143047/3405/153/10/
048470/20130319/143652/3420/587/20/
048470/20130319/143817/3425/85/20/
048470/20130319/144318/3420/423/10/
048470/20130319/144748/3420/1000/20/
048470/20130319/144952/3420/83/20/
048470/20130319/150000/3425/812/20/
