048470/20130108/90000/3455/8489/20/
048470/20130108/90002/3455/150/20/
048470/20130108/90007/3455/301/20/
048470/20130108/90022/3455/1001/20/
048470/20130108/90032/3450/210/10/
048470/20130108/90032/3455/100/20/
048470/20130108/90046/3455/423/20/
048470/20130108/90047/3455/200/20/
048470/20130108/90048/3455/200/20/
048470/20130108/90049/3455/398/20/
048470/20130108/90053/3455/100/10/
048470/20130108/90055/3455/82/10/
048470/20130108/90057/3450/500/10/
048470/20130108/90106/3455/807/20/
048470/20130108/90119/3450/100/10/
048470/20130108/90125/3450/700/10/
048470/20130108/90126/3450/377/10/
048470/20130108/90127/3450/293/10/
048470/20130108/90127/3450/100/10/
048470/20130108/90129/3450/113/10/
048470/20130108/90132/3450/87/20/
048470/20130108/90205/3450/763/20/
048470/20130108/90218/3450/103/20/
048470/20130108/90238/3450/1012/20/
048470/20130108/90244/3450/200/10/
048470/20130108/90249/3450/223/10/
048470/20130108/90250/3450/100/10/
048470/20130108/90259/3450/210/10/
048470/20130108/90314/3450/117/10/
048470/20130108/90330/3450/1010/20/
048470/20130108/90333/3455/200/20/
048470/20130108/90411/3450/100/10/
048470/20130108/90415/3450/250/10/
048470/20130108/90416/3450/574/10/
048470/20130108/90422/3450/200/10/
048470/20130108/90424/3450/500/10/
048470/20130108/90427/3450/294/10/
048470/20130108/90436/3450/561/20/
048470/20130108/90449/3450/439/10/
048470/20130108/90449/3445/1111/10/
048470/20130108/90455/3445/2001/10/
048470/20130108/90456/3445/200/10/
048470/20130108/90458/3445/627/10/
048470/20130108/90458/3440/520/10/
048470/20130108/90520/3440/101/10/
048470/20130108/90525/3440/500/10/
048470/20130108/90529/3440/100/10/
048470/20130108/90535/3440/101/10/
048470/20130108/90540/3440/2200/10/
048470/20130108/90541/3440/260/10/
048470/20130108/90543/3440/2046/10/
048470/20130108/90543/3440/707/10/
048470/20130108/90551/3440/100/20/
048470/20130108/90604/3435/123/10/
048470/20130108/90606/3435/3149/10/
048470/20130108/90606/3435/3000/10/
048470/20130108/90606/3435/713/10/
048470/20130108/90607/3435/99/10/
048470/20130108/90618/3435/500/10/
048470/20130108/90620/3435/986/10/
048470/20130108/90624/3435/114/20/
048470/20130108/90624/3430/915/10/
048470/20130108/90627/3430/294/10/
048470/20130108/90631/3440/629/20/
048470/20130108/90639/3440/300/10/
048470/20130108/90639/3440/671/10/
048470/20130108/90645/3430/997/10/
048470/20130108/90651/3440/1384/20/
048470/20130108/90728/3440/145/20/
048470/20130108/90736/3440/1500/20/
048470/20130108/90752/3440/1011/10/
048470/20130108/90832/3435/709/10/
048470/20130108/90832/3440/908/20/
048470/20130108/90837/3440/100/10/
048470/20130108/90841/3445/452/20/
048470/20130108/90842/3450/3174/20/
048470/20130108/90843/3450/805/20/
048470/20130108/90844/3450/633/20/
048470/20130108/90845/3450/582/20/
048470/20130108/90846/3450/224/20/
048470/20130108/90846/3450/1005/20/
048470/20130108/90847/3450/109/20/
048470/20130108/90847/3450/103/20/
048470/20130108/90848/3450/466/20/
048470/20130108/90849/3455/81/20/
048470/20130108/90849/3455/1005/20/
048470/20130108/90851/3455/82/20/
048470/20130108/90855/3455/81/20/
048470/20130108/90859/3455/81/20/
048470/20130108/90901/3455/81/20/
048470/20130108/90904/3455/141/20/
048470/20130108/90906/3455/81/20/
048470/20130108/90906/3455/1000/20/
048470/20130108/90906/3455/291/20/
048470/20130108/90906/3455/127/20/
048470/20130108/90906/3455/1000/20/
048470/20130108/90907/3455/1008/20/
048470/20130108/90907/3455/1835/20/
048470/20130108/90907/3460/1007/20/
048470/20130108/90908/3460/1603/20/
048470/20130108/90908/3460/303/20/
048470/20130108/90909/3460/89/20/
048470/20130108/90909/3465/228/20/
048470/20130108/90910/3465/230/20/
048470/20130108/90911/3465/516/20/
048470/20130108/90911/3465/127/20/
048470/20130108/90913/3465/429/20/
048470/20130108/90913/3465/157/20/
048470/20130108/90913/3465/119/20/
048470/20130108/90915/3470/88/20/
048470/20130108/90915/3470/112/20/
048470/20130108/90916/3470/1633/20/
048470/20130108/90917/3475/621/20/
048470/20130108/90918/3480/88/20/
048470/20130108/90918/3480/170/20/
048470/20130108/90920/3485/81/20/
048470/20130108/90920/3485/81/20/
048470/20130108/90921/3485/122/20/
048470/20130108/90921/3485/512/20/
048470/20130108/90922/3485/2053/20/
048470/20130108/90922/3485/111/20/
048470/20130108/90922/3485/522/20/
048470/20130108/90923/3480/1142/10/
048470/20130108/90923/3485/516/20/
048470/20130108/90924/3490/87/20/
048470/20130108/90925/3490/372/20/
048470/20130108/90925/3490/374/20/
048470/20130108/90925/3495/123/20/
048470/20130108/90926/3495/591/20/
048470/20130108/90926/3495/725/20/
048470/20130108/90928/3500/87/20/
048470/20130108/90928/3495/689/10/
048470/20130108/90929/3495/322/20/
048470/20130108/90929/3500/735/20/
048470/20130108/90931/3500/90/20/
048470/20130108/90932/3500/1435/20/
048470/20130108/90932/3495/111/10/
048470/20130108/90932/3495/310/10/
048470/20130108/90933/3500/727/20/
048470/20130108/90933/3495/847/10/
048470/20130108/90934/3500/123/20/
048470/20130108/90934/3500/1542/20/
048470/20130108/90935/3500/110/20/
048470/20130108/90935/3505/137/20/
048470/20130108/90935/3500/173/10/
048470/20130108/90936/3500/159/10/
048470/20130108/90936/3505/929/20/
048470/20130108/90937/3500/4287/10/
048470/20130108/90938/3500/142/20/
048470/20130108/90939/3500/309/20/
048470/20130108/90940/3500/175/20/
048470/20130108/90940/3500/1003/20/
048470/20130108/90942/3500/1009/20/
048470/20130108/90942/3500/102/20/
048470/20130108/90942/3500/347/20/
048470/20130108/90942/3500/261/20/
048470/20130108/90943/3500/435/20/
048470/20130108/90944/3500/291/20/
048470/20130108/90944/3500/100/20/
048470/20130108/90945/3495/540/10/
048470/20130108/90946/3500/245/20/
048470/20130108/90947/3500/618/20/
048470/20130108/90948/3500/1002/20/
048470/20130108/90949/3495/202/10/
048470/20130108/90954/3495/513/20/
048470/20130108/90955/3490/101/10/
048470/20130108/90955/3490/101/10/
048470/20130108/90959/3490/1078/20/
048470/20130108/91001/3485/86/10/
048470/20130108/91007/3485/311/20/
048470/20130108/91011/3475/226/10/
048470/20130108/91012/3475/495/10/
048470/20130108/91017/3470/615/10/
048470/20130108/91017/3470/102/10/
048470/20130108/91021/3480/109/20/
048470/20130108/91023/3475/104/10/
048470/20130108/91026/3470/409/10/
048470/20130108/91027/3470/285/10/
048470/20130108/91029/3470/107/10/
048470/20130108/91033/3475/101/20/
048470/20130108/91035/3470/300/10/
048470/20130108/91035/3470/100/10/
048470/20130108/91035/3470/451/10/
048470/20130108/91038/3470/98/20/
048470/20130108/91038/3470/989/20/
048470/20130108/91039/3465/166/10/
048470/20130108/91039/3460/365/10/
048470/20130108/91039/3470/300/20/
048470/20130108/91039/3470/1000/20/
048470/20130108/91040/3470/103/20/
048470/20130108/91042/3470/107/20/
048470/20130108/91045/3470/210/10/
048470/20130108/91048/3475/506/20/
048470/20130108/91051/3480/2431/20/
048470/20130108/91056/3485/91/20/
048470/20130108/91058/3480/104/10/
048470/20130108/91059/3485/2503/20/
048470/20130108/91100/3480/203/10/
048470/20130108/91102/3485/671/20/
048470/20130108/91108/3485/314/10/
048470/20130108/91109/3490/301/20/
048470/20130108/91112/3490/307/20/
048470/20130108/91113/3485/386/10/
048470/20130108/91116/3480/1195/10/
048470/20130108/91117/3480/248/20/
048470/20130108/91117/3485/252/20/
048470/20130108/91120/3485/1057/20/
048470/20130108/91125/3485/324/20/
048470/20130108/91126/3485/248/10/
048470/20130108/91126/3485/100/10/
048470/20130108/91126/3490/227/20/
048470/20130108/91128/3490/105/20/
048470/20130108/91130/3485/346/10/
048470/20130108/91132/3485/601/20/
048470/20130108/91133/3485/405/10/
048470/20130108/91133/3480/595/10/
048470/20130108/91135/3485/268/10/
048470/20130108/91136/3485/104/10/
048470/20130108/91137/3490/1003/20/
048470/20130108/91138/3490/602/20/
048470/20130108/91138/3485/137/10/
048470/20130108/91141/3485/314/10/
048470/20130108/91144/3485/463/10/
048470/20130108/91153/3480/388/10/
048470/20130108/91153/3475/526/10/
048470/20130108/91159/3480/404/10/
048470/20130108/91206/3485/501/20/
048470/20130108/91207/3485/500/20/
048470/20130108/91212/3480/620/10/
048470/20130108/91218/3480/1000/10/
048470/20130108/91224/3480/94/20/
048470/20130108/91231/3480/200/20/
048470/20130108/91237/3480/170/20/
048470/20130108/91245/3480/100/20/
048470/20130108/91300/3475/500/10/
048470/20130108/91301/3475/668/10/
048470/20130108/91301/3475/111/10/
048470/20130108/91301/3470/518/10/
048470/20130108/91322/3465/347/10/
048470/20130108/91328/3465/143/10/
048470/20130108/91329/3465/136/10/
048470/20130108/91331/3465/100/20/
048470/20130108/91338/3465/100/10/
048470/20130108/91347/3460/152/10/
048470/20130108/91347/3465/98/20/
048470/20130108/91354/3465/102/10/
048470/20130108/91354/3460/865/10/
048470/20130108/91358/3460/229/20/
048470/20130108/91401/3460/349/10/
048470/20130108/91412/3460/522/10/
048470/20130108/91430/3460/150/20/
048470/20130108/91432/3460/391/20/
048470/20130108/91449/3470/1010/20/
048470/20130108/91455/3470/1043/10/
048470/20130108/91455/3465/193/10/
048470/20130108/91528/3465/333/10/
048470/20130108/91548/3465/1007/10/
048470/20130108/91636/3465/410/10/
048470/20130108/91659/3465/1000/10/
048470/20130108/91700/3465/83/10/
048470/20130108/91701/3465/86/10/
048470/20130108/91819/3465/236/10/
048470/20130108/91849/3465/1000/10/
048470/20130108/91850/3465/100/10/
048470/20130108/91853/3465/157/10/
048470/20130108/91855/3465/343/20/
048470/20130108/91856/3465/107/10/
048470/20130108/91856/3455/1557/10/
048470/20130108/91856/3450/1334/10/
048470/20130108/91856/3445/202/10/
048470/20130108/91900/3445/400/10/
048470/20130108/91906/3445/90/10/
048470/20130108/91913/3445/82/10/
048470/20130108/91913/3445/90/10/
048470/20130108/91915/3445/300/10/
048470/20130108/91921/3445/600/10/
048470/20130108/91925/3445/247/10/
048470/20130108/91925/3445/288/10/
048470/20130108/91941/3445/1000/10/
048470/20130108/91945/3440/152/10/
048470/20130108/91947/3440/300/10/
048470/20130108/91953/3435/1605/10/
048470/20130108/91953/3430/1703/10/
048470/20130108/91955/3435/100/10/
048470/20130108/91955/3430/2797/10/
048470/20130108/91958/3430/858/20/
048470/20130108/92017/3435/200/10/
048470/20130108/92020/3435/110/10/
048470/20130108/92037/3435/600/10/
048470/20130108/92053/3450/860/20/
048470/20130108/92053/3455/220/20/
048470/20130108/92138/3440/444/10/
048470/20130108/92152/3440/85/10/
048470/20130108/92155/3440/500/10/
048470/20130108/92247/3445/139/10/
048470/20130108/92345/3450/500/10/
048470/20130108/92420/3455/510/20/
048470/20130108/92421/3455/155/20/
048470/20130108/92430/3445/1200/10/
048470/20130108/92431/3455/600/20/
048470/20130108/92440/3445/124/10/
048470/20130108/92545/3445/928/10/
048470/20130108/92600/3440/1003/10/
048470/20130108/92609/3445/100/10/
048470/20130108/92612/3445/500/10/
048470/20130108/92615/3445/145/10/
048470/20130108/92641/3445/500/10/
048470/20130108/92652/3450/3000/10/
048470/20130108/92702/3445/297/10/
048470/20130108/92709/3450/118/20/
048470/20130108/92749/3445/1641/10/
048470/20130108/92804/3440/1407/10/
048470/20130108/92830/3440/108/10/
048470/20130108/92837/3440/962/10/
048470/20130108/92847/3440/400/10/
048470/20130108/92849/3435/2300/10/
048470/20130108/92856/3430/200/10/
048470/20130108/92919/3430/291/10/
048470/20130108/92936/3435/101/10/
048470/20130108/92942/3435/100/20/
048470/20130108/92950/3435/110/20/
048470/20130108/93017/3430/807/10/
048470/20130108/93021/3430/1481/10/
048470/20130108/93025/3430/885/10/
048470/20130108/93025/3425/1569/10/
048470/20130108/93025/3420/1244/10/
048470/20130108/93038/3435/100/20/
048470/20130108/93059/3425/1300/10/
048470/20130108/93111/3425/110/10/
048470/20130108/93113/3425/176/20/
048470/20130108/93202/3435/103/20/
048470/20130108/93205/3435/540/20/
048470/20130108/93459/3440/130/10/
048470/20130108/93501/3440/91/10/
048470/20130108/93506/3435/100/10/
048470/20130108/93510/3440/110/10/
048470/20130108/93522/3445/106/20/
048470/20130108/93526/3445/327/20/
048470/20130108/93553/3440/650/10/
048470/20130108/93733/3445/801/20/
048470/20130108/93751/3445/100/20/
048470/20130108/93815/3445/313/20/
048470/20130108/93821/3445/640/20/
048470/20130108/93824/3445/100/20/
048470/20130108/93835/3445/90/20/
048470/20130108/93837/3445/140/20/
048470/20130108/93909/3440/306/10/
048470/20130108/93925/3440/560/20/
048470/20130108/94153/3440/242/10/
048470/20130108/94239/3445/501/20/
048470/20130108/94252/3445/658/20/
048470/20130108/94312/3450/101/20/
048470/20130108/94330/3450/458/20/
048470/20130108/94345/3455/1096/20/
048470/20130108/94345/3460/605/20/
048470/20130108/94407/3460/123/20/
048470/20130108/94429/3455/1004/20/
048470/20130108/94431/3455/600/10/
048470/20130108/94435/3460/151/20/
048470/20130108/94442/3460/400/20/
048470/20130108/94442/3455/100/10/
048470/20130108/94447/3460/1251/20/
048470/20130108/94457/3460/299/10/
048470/20130108/94502/3460/500/20/
048470/20130108/94505/3460/574/20/
048470/20130108/94525/3460/981/20/
048470/20130108/94529/3460/176/20/
048470/20130108/94533/3460/296/20/
048470/20130108/94559/3460/1160/20/
048470/20130108/94600/3460/563/20/
048470/20130108/94609/3465/91/20/
048470/20130108/94633/3465/500/20/
048470/20130108/94659/3465/100/20/
048470/20130108/94735/3465/178/20/
048470/20130108/94737/3460/1641/10/
048470/20130108/94737/3455/2019/10/
048470/20130108/94815/3455/302/10/
048470/20130108/94848/3450/1751/10/
048470/20130108/94855/3445/88/10/
048470/20130108/94906/3445/345/10/
048470/20130108/94939/3450/463/20/
048470/20130108/95055/3450/264/10/
048470/20130108/95106/3450/100/20/
048470/20130108/95108/3450/100/20/
048470/20130108/95251/3460/138/20/
048470/20130108/95252/3460/100/20/
048470/20130108/95253/3460/100/20/
048470/20130108/95254/3460/100/20/
048470/20130108/95256/3460/100/20/
048470/20130108/95257/3460/100/20/
048470/20130108/95307/3460/85/20/
048470/20130108/95413/3460/303/10/
048470/20130108/95434/3460/610/10/
048470/20130108/95533/3460/129/10/
048470/20130108/95614/3460/82/10/
048470/20130108/95618/3465/176/20/
048470/20130108/95842/3450/2933/10/
048470/20130108/95842/3445/5167/10/
048470/20130108/95913/3460/1325/20/
048470/20130108/100239/3460/601/20/
048470/20130108/100307/3460/420/10/
048470/20130108/100343/3460/500/20/
048470/20130108/100412/3455/546/10/
048470/20130108/100416/3455/179/10/
048470/20130108/100419/3455/1265/10/
048470/20130108/100429/3455/83/20/
048470/20130108/100508/3460/501/20/
048470/20130108/100536/3460/420/20/
048470/20130108/100639/3460/430/20/
048470/20130108/100712/3460/149/10/
048470/20130108/100734/3465/421/20/
048470/20130108/100743/3465/1000/20/
048470/20130108/100747/3465/1000/20/
048470/20130108/100754/3465/354/20/
048470/20130108/100831/3465/416/20/
048470/20130108/100831/3470/3584/20/
048470/20130108/100835/3470/96/20/
048470/20130108/100853/3465/81/10/
048470/20130108/100857/3470/110/10/
048470/20130108/100858/3475/2067/20/
048470/20130108/100859/3480/3179/20/
048470/20130108/100901/3475/113/10/
048470/20130108/100904/3475/161/10/
048470/20130108/100905/3475/302/10/
048470/20130108/100905/3470/116/10/
048470/20130108/100908/3475/81/20/
048470/20130108/100920/3470/160/10/
048470/20130108/100920/3475/1053/20/
048470/20130108/100925/3475/224/20/
048470/20130108/100929/3480/1020/20/
048470/20130108/100932/3480/1023/20/
048470/20130108/100934/3480/307/20/
048470/20130108/100939/3480/92/20/
048470/20130108/100941/3480/520/20/
048470/20130108/100942/3480/249/20/
048470/20130108/100946/3480/173/20/
048470/20130108/100948/3480/2902/20/
048470/20130108/100949/3480/102/20/
048470/20130108/100950/3480/204/20/
048470/20130108/100950/3480/2013/20/
048470/20130108/100951/3480/1199/20/
048470/20130108/100951/3480/102/10/
048470/20130108/100953/3480/103/20/
048470/20130108/100959/3480/2380/10/
048470/20130108/101006/3480/1071/20/
048470/20130108/101007/3475/2001/10/
048470/20130108/101008/3480/1088/20/
048470/20130108/101008/3485/316/20/
048470/20130108/101016/3480/138/20/
048470/20130108/101017/3480/324/10/
048470/20130108/101019/3480/3012/20/
048470/20130108/101019/3485/1705/20/
048470/20130108/101030/3480/124/10/
048470/20130108/101034/3480/1000/10/
048470/20130108/101034/3480/682/10/
048470/20130108/101039/3475/502/10/
048470/20130108/101040/3475/502/10/
048470/20130108/101043/3475/121/10/
048470/20130108/101044/3480/204/20/
048470/20130108/101053/3480/164/20/
048470/20130108/101057/3475/4006/10/
048470/20130108/101058/3475/4155/10/
048470/20130108/101058/3475/1400/10/
048470/20130108/101058/3480/971/20/
048470/20130108/101059/3475/231/10/
048470/20130108/101059/3475/160/10/
048470/20130108/101100/3475/700/10/
048470/20130108/101100/3475/327/10/
048470/20130108/101101/3475/100/10/
048470/20130108/101101/3475/1119/10/
048470/20130108/101101/3475/1000/10/
048470/20130108/101102/3475/1601/10/
048470/20130108/101102/3475/257/10/
048470/20130108/101103/3475/590/10/
048470/20130108/101104/3475/2000/10/
048470/20130108/101104/3475/100/10/
048470/20130108/101104/3475/500/10/
048470/20130108/101105/3475/147/10/
048470/20130108/101107/3475/150/10/
048470/20130108/101109/3475/133/10/
048470/20130108/101109/3475/400/10/
048470/20130108/101112/3475/101/10/
048470/20130108/101130/3475/1001/10/
048470/20130108/101131/3475/800/10/
048470/20130108/101137/3475/100/10/
048470/20130108/101138/3475/863/10/
048470/20130108/101138/3475/200/10/
048470/20130108/101141/3475/362/10/
048470/20130108/101142/3475/2168/10/
048470/20130108/101208/3470/336/10/
048470/20130108/101216/3470/915/10/
048470/20130108/101216/3465/385/10/
048470/20130108/101318/3465/902/20/
048470/20130108/101321/3465/193/20/
048470/20130108/101340/3470/341/20/
048470/20130108/101344/3470/1353/10/
048470/20130108/101400/3470/307/10/
048470/20130108/101814/3470/100/20/
048470/20130108/101845/3470/439/20/
048470/20130108/101953/3465/90/10/
048470/20130108/102018/3465/951/10/
048470/20130108/102018/3460/3120/10/
048470/20130108/102053/3455/106/10/
048470/20130108/102103/3455/125/10/
048470/20130108/102103/3450/450/10/
048470/20130108/102208/3455/354/10/
048470/20130108/102312/3460/100/20/
048470/20130108/102343/3460/144/20/
048470/20130108/102344/3460/694/20/
048470/20130108/102440/3460/179/10/
048470/20130108/102628/3455/100/10/
048470/20130108/102647/3455/402/10/
048470/20130108/102656/3455/2687/10/
048470/20130108/102812/3460/120/10/
048470/20130108/102827/3455/445/10/
048470/20130108/103051/3455/319/10/
048470/20130108/103119/3465/101/20/
048470/20130108/103138/3455/337/10/
048470/20130108/103218/3455/200/20/
048470/20130108/103233/3465/300/20/
048470/20130108/103254/3455/163/10/
048470/20130108/103317/3455/120/10/
048470/20130108/103644/3455/172/10/
048470/20130108/103705/3455/678/10/
048470/20130108/103706/3455/800/10/
048470/20130108/103744/3455/130/10/
048470/20130108/103820/3455/542/10/
048470/20130108/103820/3450/1047/10/
048470/20130108/103853/3450/81/10/
048470/20130108/103940/3460/101/20/
048470/20130108/103942/3460/100/20/
048470/20130108/103943/3460/100/20/
048470/20130108/103945/3460/100/20/
048470/20130108/103946/3460/100/20/
048470/20130108/104045/3460/100/20/
048470/20130108/104059/3460/100/20/
048470/20130108/104059/3460/100/20/
048470/20130108/104101/3460/323/20/
048470/20130108/104109/3465/251/20/
048470/20130108/104112/3465/324/20/
048470/20130108/104118/3470/2729/20/
048470/20130108/104121/3470/327/10/
048470/20130108/104144/3475/773/20/
048470/20130108/104210/3475/301/10/
048470/20130108/104310/3475/273/20/
048470/20130108/104413/3475/510/20/
048470/20130108/104509/3480/3199/20/
048470/20130108/104512/3485/228/20/
048470/20130108/104515/3485/1100/20/
048470/20130108/104515/3485/1210/20/
048470/20130108/104526/3490/101/20/
048470/20130108/104551/3490/900/20/
048470/20130108/104557/3490/486/20/
048470/20130108/104558/3495/3000/20/
048470/20130108/104600/3495/1428/20/
048470/20130108/104601/3495/100/20/
048470/20130108/104602/3495/100/20/
048470/20130108/104604/3495/100/20/
048470/20130108/104605/3495/472/20/
048470/20130108/104606/3495/1840/20/
048470/20130108/104606/3500/2360/20/
048470/20130108/104610/3500/5000/20/
048470/20130108/104617/3500/100/20/
048470/20130108/104618/3500/1000/20/
048470/20130108/104620/3495/87/20/
048470/20130108/104625/3495/473/20/
048470/20130108/104629/3495/1700/10/
048470/20130108/104630/3495/238/10/
048470/20130108/104726/3485/144/20/
048470/20130108/104733/3485/100/20/
048470/20130108/104735/3485/81/20/
048470/20130108/104742/3485/99/10/
048470/20130108/104748/3485/131/20/
048470/20130108/104810/3490/501/20/
048470/20130108/104820/3490/2000/20/
048470/20130108/104835/3485/699/10/
048470/20130108/104839/3485/460/10/
048470/20130108/104908/3480/100/10/
048470/20130108/104908/3475/193/10/
048470/20130108/104949/3480/1422/10/
048470/20130108/105009/3480/867/10/
048470/20130108/105019/3480/100/20/
048470/20130108/105024/3480/100/10/
048470/20130108/105027/3480/734/20/
048470/20130108/105052/3480/501/10/
048470/20130108/105109/3485/101/20/
048470/20130108/105313/3480/100/10/
048470/20130108/105324/3480/385/20/
048470/20130108/105427/3480/106/10/
048470/20130108/105429/3480/193/20/
048470/20130108/105447/3480/309/10/
048470/20130108/105447/3475/693/10/
048470/20130108/105519/3480/420/20/
048470/20130108/105554/3480/302/10/
048470/20130108/105612/3475/1680/10/
048470/20130108/105612/3470/4020/10/
048470/20130108/105612/3465/4305/10/
048470/20130108/105620/3465/142/10/
048470/20130108/105736/3470/239/10/
048470/20130108/105755/3470/280/20/
048470/20130108/105849/3465/641/10/
048470/20130108/105903/3465/131/10/
048470/20130108/105943/3480/1289/20/
048470/20130108/110159/3475/131/10/
048470/20130108/110330/3465/96/10/
048470/20130108/110331/3465/90/10/
048470/20130108/110412/3465/296/10/
048470/20130108/110500/3470/630/20/
048470/20130108/110621/3475/112/20/
048470/20130108/110658/3470/1399/10/
048470/20130108/110728/3470/601/20/
048470/20130108/110740/3470/1511/10/
048470/20130108/110749/3470/504/20/
048470/20130108/110759/3470/497/10/
048470/20130108/110815/3470/100/20/
048470/20130108/110928/3465/184/10/
048470/20130108/110928/3460/316/10/
048470/20130108/111229/3470/100/20/
048470/20130108/111238/3470/238/20/
048470/20130108/111403/3465/439/10/
048470/20130108/111403/3460/574/10/
048470/20130108/111425/3460/776/10/
048470/20130108/111426/3460/386/10/
048470/20130108/111721/3465/279/10/
048470/20130108/111721/3460/790/10/
048470/20130108/111736/3465/376/20/
048470/20130108/111736/3470/2651/20/
048470/20130108/111739/3470/1897/10/
048470/20130108/111750/3470/1261/10/
048470/20130108/111753/3470/264/20/
048470/20130108/111756/3475/2214/20/
048470/20130108/111756/3480/1949/20/
048470/20130108/111757/3480/166/20/
048470/20130108/111757/3485/1426/20/
048470/20130108/111758/3485/1105/20/
048470/20130108/111758/3490/840/20/
048470/20130108/111804/3490/81/20/
048470/20130108/111811/3490/81/20/
048470/20130108/111814/3490/132/20/
048470/20130108/111815/3490/511/20/
048470/20130108/111818/3490/116/20/
048470/20130108/111827/3490/81/20/
048470/20130108/111829/3490/705/20/
048470/20130108/111836/3490/81/20/
048470/20130108/111842/3490/2075/20/
048470/20130108/111843/3490/305/20/
048470/20130108/111846/3490/232/20/
048470/20130108/111849/3495/81/20/
048470/20130108/111851/3495/1034/20/
048470/20130108/111852/3495/156/20/
048470/20130108/111853/3495/825/20/
048470/20130108/111855/3495/969/20/
048470/20130108/111900/3495/91/20/
048470/20130108/111902/3495/816/20/
048470/20130108/111904/3495/885/10/
048470/20130108/111906/3495/2173/20/
048470/20130108/111906/3500/890/20/
048470/20130108/111908/3495/304/20/
048470/20130108/111912/3495/162/20/
048470/20130108/111914/3495/262/20/
048470/20130108/111915/3500/106/20/
048470/20130108/111916/3495/118/10/
048470/20130108/111917/3500/409/20/
048470/20130108/111918/3500/100/20/
048470/20130108/111920/3500/259/20/
048470/20130108/111922/3500/1027/20/
048470/20130108/111922/3500/1438/20/
048470/20130108/111924/3500/123/20/
048470/20130108/111924/3500/687/20/
048470/20130108/111924/3500/303/20/
048470/20130108/111926/3500/1016/20/
048470/20130108/111926/3500/429/20/
048470/20130108/111926/3500/998/20/
048470/20130108/111927/3500/875/10/
048470/20130108/111929/3500/925/20/
048470/20130108/111931/3500/322/10/
048470/20130108/111932/3505/401/20/
048470/20130108/111936/3505/142/20/
048470/20130108/111937/3505/113/20/
048470/20130108/111939/3505/1527/20/
048470/20130108/111942/3505/1813/10/
048470/20130108/111945/3510/168/20/
048470/20130108/111945/3510/3915/20/
048470/20130108/111945/3505/802/10/
048470/20130108/111945/3505/199/10/
048470/20130108/111945/3510/86/20/
048470/20130108/111946/3510/106/20/
048470/20130108/111946/3510/1351/20/
048470/20130108/111947/3515/384/20/
048470/20130108/111950/3515/304/20/
048470/20130108/111950/3515/330/20/
048470/20130108/111951/3515/713/20/
048470/20130108/111952/3515/295/10/
048470/20130108/111952/3515/709/20/
048470/20130108/111952/3520/325/20/
048470/20130108/111955/3515/88/10/
048470/20130108/111959/3510/857/10/
048470/20130108/112000/3510/1247/10/
048470/20130108/112005/3510/120/20/
048470/20130108/112006/3510/690/20/
048470/20130108/112009/3510/226/20/
048470/20130108/112010/3510/92/20/
048470/20130108/112014/3510/93/20/
048470/20130108/112015/3505/500/10/
048470/20130108/112019/3510/904/20/
048470/20130108/112021/3510/1074/20/
048470/20130108/112022/3505/243/10/
048470/20130108/112022/3500/1082/10/
048470/20130108/112023/3510/82/20/
048470/20130108/112027/3500/543/10/
048470/20130108/112036/3500/320/20/
048470/20130108/112036/3500/164/20/
048470/20130108/112040/3495/648/10/
048470/20130108/112054/3495/254/10/
048470/20130108/112117/3495/158/20/
048470/20130108/112142/3495/236/20/
048470/20130108/112145/3490/936/10/
048470/20130108/112151/3490/115/10/
048470/20130108/112203/3490/282/20/
048470/20130108/112223/3490/229/10/
048470/20130108/112230/3490/428/10/
048470/20130108/112232/3490/457/10/
048470/20130108/112251/3490/1282/10/
048470/20130108/112302/3490/113/20/
048470/20130108/112314/3490/242/20/
048470/20130108/112333/3490/289/10/
048470/20130108/112353/3490/443/10/
048470/20130108/112359/3485/910/10/
048470/20130108/112401/3485/429/10/
048470/20130108/112401/3485/326/10/
048470/20130108/112520/3490/399/20/
048470/20130108/112540/3495/1110/20/
048470/20130108/112632/3490/111/20/
048470/20130108/112647/3490/100/20/
048470/20130108/112708/3490/101/20/
048470/20130108/112901/3485/238/10/
048470/20130108/112903/3485/200/10/
048470/20130108/112903/3485/1917/10/
048470/20130108/112905/3485/600/10/
048470/20130108/112905/3485/250/10/
048470/20130108/112916/3480/87/10/
048470/20130108/113041/3480/125/10/
048470/20130108/113239/3480/188/10/
048470/20130108/113239/3475/238/10/
048470/20130108/113247/3475/326/10/
048470/20130108/113334/3480/128/10/
048470/20130108/113412/3480/95/20/
048470/20130108/113611/3485/458/20/
048470/20130108/113816/3485/1003/10/
048470/20130108/113820/3485/148/10/
048470/20130108/113820/3480/152/10/
048470/20130108/113836/3490/337/20/
048470/20130108/114008/3490/244/20/
048470/20130108/114013/3490/148/20/
048470/20130108/114030/3495/320/20/
048470/20130108/114040/3495/252/20/
048470/20130108/114042/3495/349/20/
048470/20130108/114047/3495/252/10/
048470/20130108/114053/3495/249/20/
048470/20130108/114107/3500/4001/20/
048470/20130108/114115/3500/481/10/
048470/20130108/114115/3505/3000/20/
048470/20130108/114117/3505/135/20/
048470/20130108/114120/3510/501/20/
048470/20130108/114124/3515/851/20/
048470/20130108/114129/3515/105/20/
048470/20130108/114131/3515/1004/20/
048470/20130108/114131/3515/100/20/
048470/20130108/114132/3515/100/20/
048470/20130108/114133/3515/949/20/
048470/20130108/114136/3515/466/20/
048470/20130108/114139/3520/619/20/
048470/20130108/114140/3515/508/10/
048470/20130108/114142/3520/236/20/
048470/20130108/114213/3505/573/10/
048470/20130108/114216/3505/1125/20/
048470/20130108/114216/3510/1030/20/
048470/20130108/114216/3515/1572/20/
048470/20130108/114216/3520/3154/20/
048470/20130108/114233/3515/100/10/
048470/20130108/114234/3520/1451/20/
048470/20130108/114238/3520/990/20/
048470/20130108/114239/3520/570/20/
048470/20130108/114240/3520/186/20/
048470/20130108/114246/3515/86/10/
048470/20130108/114249/3515/346/10/
048470/20130108/114251/3515/1000/10/
048470/20130108/114251/3520/641/20/
048470/20130108/114302/3515/307/10/
048470/20130108/114304/3515/100/10/
048470/20130108/114307/3520/143/20/
048470/20130108/114313/3520/511/20/
048470/20130108/114316/3520/1912/20/
048470/20130108/114322/3520/964/20/
048470/20130108/114326/3520/555/20/
048470/20130108/114329/3520/97/20/
048470/20130108/114343/3520/201/20/
048470/20130108/114344/3520/845/10/
048470/20130108/114345/3520/380/20/
048470/20130108/114351/3525/759/20/
048470/20130108/114353/3525/246/20/
048470/20130108/114354/3525/2661/20/
048470/20130108/114355/3525/3264/20/
048470/20130108/114411/3525/146/10/
048470/20130108/114413/3525/1000/10/
048470/20130108/114413/3525/300/10/
048470/20130108/114414/3530/2001/20/
048470/20130108/114425/3525/551/10/
048470/20130108/114427/3525/162/10/
048470/20130108/114429/3525/120/20/
048470/20130108/114447/3520/300/10/
048470/20130108/114449/3520/850/10/
048470/20130108/114453/3520/82/20/
048470/20130108/114457/3525/328/20/
048470/20130108/114506/3525/527/20/
048470/20130108/114516/3520/247/10/
048470/20130108/114516/3515/100/10/
048470/20130108/114516/3510/422/10/
048470/20130108/114516/3505/412/10/
048470/20130108/114516/3500/219/10/
048470/20130108/114531/3510/133/20/
048470/20130108/114550/3505/405/10/
048470/20130108/114551/3500/300/10/
048470/20130108/114553/3500/167/10/
048470/20130108/114605/3505/605/20/
048470/20130108/114617/3510/104/20/
048470/20130108/114711/3505/1069/10/
048470/20130108/114713/3505/298/10/
048470/20130108/114726/3510/228/20/
048470/20130108/114735/3505/2000/10/
048470/20130108/114812/3505/1388/10/
048470/20130108/114909/3500/638/10/
048470/20130108/114911/3500/230/10/
048470/20130108/114939/3500/137/10/
048470/20130108/115001/3500/1000/10/
048470/20130108/115022/3500/528/10/
048470/20130108/115242/3500/120/10/
048470/20130108/115247/3495/1903/10/
048470/20130108/115407/3490/149/10/
048470/20130108/115409/3490/179/10/
048470/20130108/115516/3500/1009/20/
048470/20130108/115557/3495/103/10/
048470/20130108/115602/3495/1000/10/
048470/20130108/115655/3495/144/10/
048470/20130108/115655/3490/412/10/
048470/20130108/115723/3505/150/20/
048470/20130108/120245/3500/174/10/
048470/20130108/120250/3505/290/20/
048470/20130108/120259/3500/113/10/
048470/20130108/120317/3500/82/10/
048470/20130108/120434/3495/1168/20/
048470/20130108/120522/3490/2163/10/
048470/20130108/120526/3490/513/10/
048470/20130108/120531/3490/108/20/
048470/20130108/120533/3490/101/20/
048470/20130108/120607/3490/300/20/
048470/20130108/120617/3490/578/20/
048470/20130108/120728/3495/296/20/
048470/20130108/120931/3495/114/20/
048470/20130108/121013/3495/871/20/
048470/20130108/121121/3500/710/20/
048470/20130108/121128/3500/817/20/
048470/20130108/121146/3505/101/20/
048470/20130108/121252/3500/1502/10/
048470/20130108/121257/3500/226/20/
048470/20130108/121258/3500/135/20/
048470/20130108/121300/3500/144/20/
048470/20130108/121320/3500/694/10/
048470/20130108/121513/3500/183/20/
048470/20130108/121633/3495/100/10/
048470/20130108/121633/3490/1246/10/
048470/20130108/121633/3485/1360/10/
048470/20130108/121633/3485/300/10/
048470/20130108/122052/3495/555/20/
048470/20130108/122127/3495/5695/10/
048470/20130108/122142/3500/1086/20/
048470/20130108/122152/3505/1919/20/
048470/20130108/122220/3510/103/20/
048470/20130108/122223/3510/1399/20/
048470/20130108/122443/3510/338/10/
048470/20130108/122500/3510/364/20/
048470/20130108/122545/3510/143/10/
048470/20130108/122626/3510/846/20/
048470/20130108/122710/3510/220/10/
048470/20130108/122710/3510/463/10/
048470/20130108/122733/3505/352/10/
048470/20130108/122733/3500/100/10/
048470/20130108/122817/3500/954/10/
048470/20130108/122939/3500/551/10/
048470/20130108/122941/3500/659/20/
048470/20130108/123222/3505/114/10/
048470/20130108/123222/3500/387/10/
048470/20130108/123311/3500/2677/10/
048470/20130108/123315/3500/226/10/
048470/20130108/123454/3495/175/10/
048470/20130108/123501/3495/1222/10/
048470/20130108/123501/3485/212/10/
048470/20130108/123552/3495/183/20/
048470/20130108/123658/3500/90/20/
048470/20130108/123816/3500/100/20/
048470/20130108/123932/3495/218/10/
048470/20130108/123935/3495/350/10/
048470/20130108/123943/3495/89/10/
048470/20130108/124229/3495/347/20/
048470/20130108/124240/3495/265/20/
048470/20130108/124242/3495/171/20/
048470/20130108/124309/3500/452/20/
048470/20130108/124313/3495/83/10/
048470/20130108/124313/3490/1062/10/
048470/20130108/124453/3490/301/10/
048470/20130108/124456/3490/1750/10/
048470/20130108/124458/3490/238/10/
048470/20130108/124500/3490/100/10/
048470/20130108/124513/3490/500/10/
048470/20130108/124634/3490/206/10/
048470/20130108/124634/3485/751/10/
048470/20130108/124711/3485/529/10/
048470/20130108/124711/3480/1436/10/
048470/20130108/124725/3475/185/10/
048470/20130108/124959/3480/106/10/
048470/20130108/125004/3480/87/20/
048470/20130108/125131/3480/1001/10/
048470/20130108/125134/3480/683/10/
048470/20130108/125204/3480/517/10/
048470/20130108/125204/3475/452/10/
048470/20130108/125511/3480/84/10/
048470/20130108/125541/3485/98/20/
048470/20130108/125704/3485/815/20/
048470/20130108/125734/3485/639/10/
048470/20130108/130004/3485/1169/10/
048470/20130108/130013/3485/100/20/
048470/20130108/130015/3485/100/20/
048470/20130108/130101/3480/318/10/
048470/20130108/130115/3480/150/10/
048470/20130108/130118/3480/803/10/
048470/20130108/130354/3485/101/20/
048470/20130108/130510/3480/619/10/
048470/20130108/130516/3480/97/10/
048470/20130108/130611/3475/2262/10/
048470/20130108/130619/3475/102/20/
048470/20130108/130650/3470/400/10/
048470/20130108/130658/3475/144/20/
048470/20130108/130702/3475/992/20/
048470/20130108/130713/3475/101/10/
048470/20130108/130723/3475/101/10/
048470/20130108/130859/3475/187/10/
048470/20130108/130904/3475/181/20/
048470/20130108/131038/3475/116/10/
048470/20130108/131044/3475/140/20/
048470/20130108/131108/3475/101/20/
048470/20130108/131124/3475/101/20/
048470/20130108/131153/3475/101/20/
048470/20130108/131201/3475/160/10/
048470/20130108/131205/3475/100/10/
048470/20130108/131214/3470/751/10/
048470/20130108/131257/3470/90/10/
048470/20130108/131312/3475/1002/20/
048470/20130108/131313/3475/500/20/
048470/20130108/131320/3475/101/10/
048470/20130108/131628/3475/378/20/
048470/20130108/131644/3475/365/10/
048470/20130108/131823/3470/1897/10/
048470/20130108/131902/3470/264/20/
048470/20130108/131911/3465/1077/10/
048470/20130108/131940/3465/400/20/
048470/20130108/131941/3465/103/20/
048470/20130108/132044/3465/145/10/
048470/20130108/132058/3460/1002/10/
048470/20130108/132101/3460/413/10/
048470/20130108/132105/3460/405/10/
048470/20130108/132109/3460/482/10/
048470/20130108/132109/3455/419/10/
048470/20130108/132113/3460/101/10/
048470/20130108/132124/3460/134/10/
048470/20130108/132147/3465/101/10/
048470/20130108/132151/3460/3641/10/
048470/20130108/132151/3460/1180/10/
048470/20130108/132236/3455/176/10/
048470/20130108/132246/3460/501/20/
048470/20130108/132314/3455/1000/10/
048470/20130108/132347/3460/155/10/
048470/20130108/132405/3455/152/10/
048470/20130108/132413/3455/453/10/
048470/20130108/132424/3455/1153/10/
048470/20130108/132424/3450/1446/10/
048470/20130108/132424/3445/403/10/
048470/20130108/132424/3445/147/10/
048470/20130108/132430/3445/315/10/
048470/20130108/132448/3445/103/10/
048470/20130108/132457/3445/134/10/
048470/20130108/132525/3445/572/10/
048470/20130108/132530/3440/3000/10/
048470/20130108/132531/3440/207/10/
048470/20130108/132531/3435/6929/10/
048470/20130108/132535/3435/284/10/
048470/20130108/132537/3435/100/10/
048470/20130108/132543/3435/1866/10/
048470/20130108/132546/3435/164/20/
048470/20130108/132551/3435/1667/10/
048470/20130108/132556/3435/100/20/
048470/20130108/132556/3435/233/20/
048470/20130108/132558/3435/278/10/
048470/20130108/132558/3430/222/10/
048470/20130108/132558/3430/200/10/
048470/20130108/132558/3430/600/10/
048470/20130108/132608/3435/200/10/
048470/20130108/132636/3435/150/10/
048470/20130108/132703/3435/440/10/
048470/20130108/132712/3435/200/10/
048470/20130108/132742/3435/100/10/
048470/20130108/132743/3435/1100/10/
048470/20130108/132745/3435/137/10/
048470/20130108/132848/3440/315/10/
048470/20130108/132858/3440/191/20/
048470/20130108/132934/3445/602/20/
048470/20130108/133047/3445/721/10/
048470/20130108/133047/3440/1361/10/
048470/20130108/133107/3455/310/20/
048470/20130108/133110/3455/191/10/
048470/20130108/133202/3445/813/10/
048470/20130108/133202/3440/1187/10/
048470/20130108/133252/3440/98/10/
048470/20130108/133331/3440/1403/20/
048470/20130108/133429/3440/100/10/
048470/20130108/133503/3450/201/20/
048470/20130108/133506/3450/280/20/
048470/20130108/133512/3455/3708/10/
048470/20130108/133513/3455/292/10/
048470/20130108/133517/3455/200/20/
048470/20130108/133546/3455/612/10/
048470/20130108/133556/3455/221/20/
048470/20130108/133556/3460/280/20/
048470/20130108/133602/3460/180/20/
048470/20130108/133701/3460/1714/20/
048470/20130108/133701/3465/1165/20/
048470/20130108/133701/3470/4456/20/
048470/20130108/133705/3480/1000/20/
048470/20130108/133709/3480/245/20/
048470/20130108/133711/3480/755/10/
048470/20130108/133732/3480/706/20/
048470/20130108/133733/3480/295/10/
048470/20130108/133741/3480/287/20/
048470/20130108/133753/3475/1000/10/
048470/20130108/133753/3450/772/10/
048470/20130108/133831/3470/148/20/
048470/20130108/133831/3475/2200/20/
048470/20130108/133831/3475/988/10/
048470/20130108/133845/3455/90/10/
048470/20130108/134035/3475/290/20/
048470/20130108/134445/3460/84/10/
048470/20130108/134445/3455/310/10/
048470/20130108/134445/3450/456/10/
048470/20130108/134732/3455/212/10/
048470/20130108/134732/3450/1978/10/
048470/20130108/134848/3450/1069/10/
048470/20130108/134848/3445/308/10/
048470/20130108/134848/3440/624/10/
048470/20130108/134924/3450/1031/10/
048470/20130108/135000/3440/1013/10/
048470/20130108/135003/3440/210/10/
048470/20130108/135119/3460/82/20/
048470/20130108/135208/3455/100/10/
048470/20130108/135220/3455/85/10/
048470/20130108/135244/3455/201/20/
048470/20130108/135248/3460/1801/20/
048470/20130108/135325/3455/190/20/
048470/20130108/135418/3455/127/20/
048470/20130108/135445/3455/124/20/
048470/20130108/135520/3455/448/20/
048470/20130108/135952/3455/520/10/
048470/20130108/140207/3460/83/10/
048470/20130108/140207/3455/269/10/
048470/20130108/140433/3465/710/20/
048470/20130108/140439/3465/101/10/
048470/20130108/140637/3460/910/10/
048470/20130108/140643/3460/100/20/
048470/20130108/140700/3460/107/10/
048470/20130108/140700/3455/1995/10/
048470/20130108/140700/3450/1195/10/
048470/20130108/141028/3460/103/10/
048470/20130108/141308/3455/802/10/
048470/20130108/141456/3460/101/20/
048470/20130108/141717/3465/256/20/
048470/20130108/141747/3465/86/20/
048470/20130108/142142/3455/841/10/
048470/20130108/142231/3465/702/20/
048470/20130108/142241/3465/91/10/
048470/20130108/142242/3465/214/10/
048470/20130108/142317/3460/102/10/
048470/20130108/142339/3455/201/10/
048470/20130108/142411/3455/142/10/
048470/20130108/142428/3455/807/10/
048470/20130108/142429/3455/83/10/
048470/20130108/142439/3455/378/20/
048470/20130108/142442/3455/622/20/
048470/20130108/142550/3455/1604/10/
048470/20130108/142559/3455/455/20/
048470/20130108/142616/3460/327/20/
048470/20130108/142705/3460/323/20/
048470/20130108/142943/3465/93/20/
048470/20130108/142944/3465/400/20/
048470/20130108/142945/3465/1260/20/
048470/20130108/142951/3465/999/20/
048470/20130108/142954/3465/109/20/
048470/20130108/143034/3465/655/10/
048470/20130108/143059/3470/95/20/
048470/20130108/143116/3470/171/20/
048470/20130108/143130/3470/88/20/
048470/20130108/143140/3470/2007/20/
048470/20130108/143142/3470/124/20/
048470/20130108/143143/3470/100/20/
048470/20130108/143148/3470/146/20/
048470/20130108/143149/3470/85/20/
048470/20130108/143219/3475/1025/20/
048470/20130108/143236/3465/330/10/
048470/20130108/143343/3475/109/20/
048470/20130108/143648/3465/254/10/
048470/20130108/143650/3465/1000/10/
048470/20130108/143732/3465/396/10/
048470/20130108/143806/3465/553/20/
048470/20130108/143806/3470/457/20/
048470/20130108/143818/3470/625/20/
048470/20130108/143827/3475/601/20/
048470/20130108/143830/3480/1187/20/
048470/20130108/143837/3485/88/20/
048470/20130108/143840/3485/865/20/
048470/20130108/143848/3490/1029/20/
048470/20130108/143849/3490/892/20/
048470/20130108/143849/3495/143/20/
048470/20130108/143851/3490/100/10/
048470/20130108/143856/3490/301/10/
048470/20130108/143857/3495/102/20/
048470/20130108/143902/3495/909/20/
048470/20130108/143909/3490/926/10/
048470/20130108/143914/3495/117/20/
048470/20130108/143915/3490/200/10/
048470/20130108/143915/3490/1108/10/
048470/20130108/143927/3490/313/20/
048470/20130108/143959/3490/100/20/
048470/20130108/144055/3480/108/10/
048470/20130108/144109/3475/991/10/
048470/20130108/144152/3480/301/20/
048470/20130108/144216/3480/81/20/
048470/20130108/144313/3475/242/10/
048470/20130108/144313/3470/735/10/
048470/20130108/144315/3480/200/20/
048470/20130108/144317/3480/90/10/
048470/20130108/144337/3480/355/20/
048470/20130108/144433/3480/456/10/
048470/20130108/144508/3480/223/10/
048470/20130108/144546/3480/1013/20/
048470/20130108/144616/3475/146/10/
048470/20130108/144616/3470/227/10/
048470/20130108/144624/3470/401/10/
048470/20130108/144638/3470/684/10/
048470/20130108/144650/3475/718/20/
048470/20130108/144711/3475/281/10/
048470/20130108/144714/3475/1001/10/
048470/20130108/144722/3475/161/10/
048470/20130108/144747/3470/340/10/
048470/20130108/144800/3475/751/20/
048470/20130108/144824/3470/289/10/
048470/20130108/144842/3465/1001/10/
048470/20130108/144855/3465/380/10/
048470/20130108/144858/3465/350/20/
048470/20130108/144859/3465/111/20/
048470/20130108/144904/3465/160/20/
048470/20130108/144904/3470/586/20/
048470/20130108/144926/3470/1000/20/
048470/20130108/144932/3470/1131/20/
048470/20130108/144939/3465/310/10/
048470/20130108/144949/3465/690/20/
048470/20130108/150000/3470/18758/10/
