048470/20130315/90000/3430/1397/10/
048470/20130315/90001/3445/288/20/
048470/20130315/90038/3445/1097/10/
048470/20130315/90044/3445/100/10/
048470/20130315/90057/3445/454/10/
048470/20130315/90136/3445/289/20/
048470/20130315/90326/3435/606/10/
048470/20130315/90326/3430/94/10/
048470/20130315/90421/3440/101/10/
048470/20130315/90457/3435/700/10/
048470/20130315/90602/3440/238/20/
048470/20130315/90745/3440/1500/10/
048470/20130315/90745/3435/308/10/
048470/20130315/90745/3430/504/10/
048470/20130315/90914/3440/300/20/
048470/20130315/91108/3430/369/10/
048470/20130315/91504/3435/1051/10/
048470/20130315/91523/3435/826/10/
048470/20130315/91523/3430/174/10/
048470/20130315/91541/3445/680/20/
048470/20130315/92018/3445/82/20/
048470/20130315/92452/3435/405/10/
048470/20130315/92551/3440/388/20/
048470/20130315/92737/3435/626/10/
048470/20130315/92836/3435/111/10/
048470/20130315/93007/3435/1499/10/
048470/20130315/93021/3440/701/20/
048470/20130315/93315/3440/258/10/
048470/20130315/93459/3440/110/10/
048470/20130315/93508/3440/763/10/
048470/20130315/93518/3440/1000/20/
048470/20130315/93542/3440/1000/20/
048470/20130315/93548/3440/1000/20/
048470/20130315/93553/3440/500/20/
048470/20130315/93618/3440/459/20/
048470/20130315/93630/3435/347/10/
048470/20130315/93713/3440/441/20/
048470/20130315/93714/3440/149/20/
048470/20130315/93724/3440/922/20/
048470/20130315/93851/3440/120/10/
048470/20130315/93919/3445/444/20/
048470/20130315/93949/3445/124/20/
048470/20130315/94242/3450/96/20/
048470/20130315/94256/3450/100/20/
048470/20130315/94304/3450/549/20/
048470/20130315/94313/3450/100/10/
048470/20130315/94325/3455/391/20/
048470/20130315/94336/3450/100/10/
048470/20130315/94341/3450/251/10/
048470/20130315/94403/3450/334/20/
048470/20130315/94435/3460/318/20/
048470/20130315/94514/3460/120/20/
048470/20130315/94637/3460/464/20/
048470/20130315/94641/3465/1203/20/
048470/20130315/94648/3465/137/20/
048470/20130315/94701/3465/100/20/
048470/20130315/94751/3470/297/20/
048470/20130315/94827/3475/130/20/
048470/20130315/94835/3475/100/20/
048470/20130315/94845/3470/938/10/
048470/20130315/94850/3470/152/20/
048470/20130315/94855/3470/100/20/
048470/20130315/94855/3470/310/20/
048470/20130315/94954/3470/500/20/
048470/20130315/95031/3465/780/10/
048470/20130315/95031/3460/1720/10/
048470/20130315/95039/3460/618/10/
048470/20130315/95040/3460/882/20/
048470/20130315/95238/3460/501/10/
048470/20130315/95327/3455/340/10/
048470/20130315/95327/3450/710/10/
048470/20130315/95457/3460/245/20/
048470/20130315/95527/3460/125/10/
048470/20130315/95630/3460/131/10/
048470/20130315/95630/3460/324/20/
048470/20130315/100159/3470/550/20/
048470/20130315/100724/3475/93/20/
048470/20130315/100827/3475/1499/20/
048470/20130315/100827/3480/1552/20/
048470/20130315/100849/3480/100/10/
048470/20130315/100858/3480/177/10/
048470/20130315/100927/3490/100/20/
048470/20130315/101053/3490/1460/20/
048470/20130315/101053/3495/1603/20/
048470/20130315/101139/3495/101/10/
048470/20130315/101146/3495/582/10/
048470/20130315/101353/3495/300/20/
048470/20130315/101420/3495/150/20/
048470/20130315/101452/3495/97/20/
048470/20130315/101527/3495/503/10/
048470/20130315/101548/3495/559/20/
048470/20130315/101957/3495/193/20/
048470/20130315/102113/3495/332/20/
048470/20130315/102159/3490/1017/10/
048470/20130315/102240/3480/501/10/
048470/20130315/102405/3495/120/20/
048470/20130315/102436/3480/4000/10/
048470/20130315/103247/3480/449/10/
048470/20130315/103850/3480/259/20/
048470/20130315/104135/3480/100/20/
048470/20130315/104341/3475/200/10/
048470/20130315/104629/3470/443/10/
048470/20130315/104718/3465/1340/10/
048470/20130315/104800/3460/100/10/
048470/20130315/104803/3460/119/10/
048470/20130315/104810/3460/160/10/
048470/20130315/105326/3460/1001/10/
048470/20130315/105425/3455/1266/10/
048470/20130315/105429/3455/100/10/
048470/20130315/105644/3455/200/10/
048470/20130315/105723/3455/242/10/
048470/20130315/105738/3450/1000/10/
048470/20130315/105758/3450/300/10/
048470/20130315/105806/3450/91/10/
048470/20130315/105810/3450/1000/20/
048470/20130315/105832/3445/953/10/
048470/20130315/105832/3440/495/10/
048470/20130315/105832/3435/1266/10/
048470/20130315/105832/3430/2866/10/
048470/20130315/105903/3440/320/10/
048470/20130315/110107/3450/300/10/
048470/20130315/110213/3455/100/20/
048470/20130315/110316/3455/240/20/
048470/20130315/110455/3455/483/20/
048470/20130315/110748/3455/309/10/
048470/20130315/111535/3450/410/10/
048470/20130315/111958/3460/134/20/
048470/20130315/112735/3465/2795/20/
048470/20130315/112759/3470/287/20/
048470/20130315/112853/3465/275/10/
048470/20130315/112935/3465/225/20/
048470/20130315/113122/3465/832/10/
048470/20130315/113141/3465/225/20/
048470/20130315/113516/3470/200/20/
048470/20130315/113655/3470/151/10/
048470/20130315/113657/3470/100/10/
048470/20130315/113702/3470/100/10/
048470/20130315/113704/3470/100/10/
048470/20130315/113724/3470/115/10/
048470/20130315/113822/3470/100/10/
048470/20130315/113846/3470/127/10/
048470/20130315/113847/3475/1000/20/
048470/20130315/114049/3475/1009/20/
048470/20130315/114542/3470/260/20/
048470/20130315/114635/3470/890/20/
048470/20130315/114700/3465/99/10/
048470/20130315/114704/3465/676/10/
048470/20130315/115052/3470/85/20/
048470/20130315/115130/3470/103/20/
048470/20130315/115523/3470/409/20/
048470/20130315/115620/3470/190/20/
048470/20130315/120903/3470/100/20/
048470/20130315/121151/3470/1642/10/
048470/20130315/121506/3470/1358/20/
048470/20130315/122110/3475/1142/20/
048470/20130315/123611/3465/492/10/
048470/20130315/123611/3460/612/10/
048470/20130315/124205/3465/561/10/
048470/20130315/124243/3465/1000/10/
048470/20130315/124659/3465/110/20/
048470/20130315/124711/3465/1000/10/
048470/20130315/124927/3465/100/20/
048470/20130315/125229/3465/201/10/
048470/20130315/125306/3465/94/20/
048470/20130315/125626/3460/151/10/
048470/20130315/125757/3460/498/10/
048470/20130315/130130/3445/1362/10/
048470/20130315/130145/3445/200/20/
048470/20130315/130310/3440/556/10/
048470/20130315/130350/3440/303/20/
048470/20130315/130419/3440/211/20/
048470/20130315/130436/3435/800/10/
048470/20130315/130600/3440/267/10/
048470/20130315/131700/3445/201/10/
048470/20130315/131937/3445/358/10/
048470/20130315/132144/3445/100/20/
048470/20130315/132521/3445/250/10/
048470/20130315/132521/3435/467/10/
048470/20130315/132736/3435/95/10/
048470/20130315/133039/3435/304/10/
048470/20130315/133039/3430/1071/10/
048470/20130315/133039/3430/625/20/
048470/20130315/133403/3435/100/10/
048470/20130315/133659/3440/2700/10/
048470/20130315/133659/3440/1300/20/
048470/20130315/134257/3445/149/10/
048470/20130315/134441/3445/123/20/
048470/20130315/134546/3445/228/20/
048470/20130315/135453/3455/119/20/
048470/20130315/135839/3440/391/10/
048470/20130315/135840/3440/384/20/
048470/20130315/135923/3440/1995/10/
048470/20130315/135923/3440/1005/20/
048470/20130315/140053/3435/712/10/
048470/20130315/140053/3430/583/10/
048470/20130315/140053/3425/105/10/
048470/20130315/140114/3425/313/10/
048470/20130315/140236/3455/121/20/
048470/20130315/140555/3455/1632/20/
048470/20130315/140603/3455/350/10/
048470/20130315/140607/3455/100/10/
048470/20130315/140753/3455/110/10/
048470/20130315/140836/3455/2808/10/
048470/20130315/141219/3450/150/10/
048470/20130315/141301/3450/850/10/
048470/20130315/141337/3445/480/10/
048470/20130315/141620/3445/266/10/
048470/20130315/141944/3445/89/10/
048470/20130315/141944/3440/1329/10/
048470/20130315/141944/3440/381/20/
048470/20130315/142320/3455/1001/20/
048470/20130315/142607/3440/741/10/
048470/20130315/142607/3435/1000/10/
048470/20130315/142607/3430/2254/10/
048470/20130315/143151/3435/360/10/
048470/20130315/143738/3450/718/20/
048470/20130315/144427/3445/110/10/
048470/20130315/144625/3450/300/10/
048470/20130315/144638/3450/160/20/
048470/20130315/144657/3450/100/10/
048470/20130315/144704/3455/448/20/
048470/20130315/144704/3455/376/20/
048470/20130315/144936/3455/251/20/
048470/20130315/144945/3460/150/20/
048470/20130315/144949/3455/150/10/
048470/20130315/144949/3450/850/10/
048470/20130315/150000/3445/10731/10/
