048470/20130307/90000/3670/1327/10/
048470/20130307/90047/3670/327/10/
048470/20130307/90047/3675/283/20/
048470/20130307/90231/3695/101/20/
048470/20130307/90303/3670/795/10/
048470/20130307/90303/3665/1209/10/
048470/20130307/90303/3660/100/10/
048470/20130307/90303/3650/300/10/
048470/20130307/90303/3645/4150/10/
048470/20130307/90330/3690/301/20/
048470/20130307/90330/3695/905/20/
048470/20130307/90330/3700/111/20/
048470/20130307/90330/3705/280/20/
048470/20130307/90349/3660/114/10/
048470/20130307/90349/3655/320/10/
048470/20130307/90411/3655/82/10/
048470/20130307/90455/3685/201/20/
048470/20130307/90455/3690/360/20/
048470/20130307/90558/3700/639/20/
048470/20130307/90704/3700/481/20/
048470/20130307/90730/3700/631/20/
048470/20130307/90735/3700/150/10/
048470/20130307/91314/3670/728/10/
048470/20130307/91314/3665/649/10/
048470/20130307/91338/3665/201/20/
048470/20130307/91338/3665/1497/20/
048470/20130307/91621/3665/675/10/
048470/20130307/91621/3665/325/20/
048470/20130307/91701/3695/453/20/
048470/20130307/91722/3695/98/20/
048470/20130307/91956/3695/364/20/
048470/20130307/92022/3670/309/10/
048470/20130307/92022/3665/522/10/
048470/20130307/92022/3665/2169/20/
048470/20130307/92229/3695/245/20/
048470/20130307/92256/3700/301/20/
048470/20130307/92301/3695/100/20/
048470/20130307/92320/3700/303/20/
048470/20130307/92344/3700/260/20/
048470/20130307/92354/3700/300/20/
048470/20130307/92401/3700/456/20/
048470/20130307/92443/3695/1221/10/
048470/20130307/92443/3670/612/10/
048470/20130307/92443/3665/608/10/
048470/20130307/92443/3665/559/20/
048470/20130307/92933/3690/101/20/
048470/20130307/93212/3680/401/10/
048470/20130307/93212/3665/1921/10/
048470/20130307/93235/3690/487/20/
048470/20130307/93316/3680/204/20/
048470/20130307/93526/3690/99/20/
048470/20130307/93630/3690/300/20/
048470/20130307/94019/3670/1079/10/
048470/20130307/94054/3670/146/20/
048470/20130307/94101/3670/500/20/
048470/20130307/94112/3670/851/20/
048470/20130307/94136/3665/157/10/
048470/20130307/94455/3670/501/10/
048470/20130307/94539/3680/103/20/
048470/20130307/94947/3665/2897/10/
048470/20130307/95005/3665/230/20/
048470/20130307/95006/3665/100/20/
048470/20130307/95031/3660/2265/10/
048470/20130307/95055/3660/101/20/
048470/20130307/95110/3660/116/20/
048470/20130307/95138/3655/300/10/
048470/20130307/95212/3655/617/10/
048470/20130307/95213/3655/100/20/
048470/20130307/95215/3655/100/20/
048470/20130307/95224/3655/83/20/
048470/20130307/95300/3660/202/20/
048470/20130307/95430/3655/247/10/
048470/20130307/95801/3665/185/20/
048470/20130307/100243/3665/354/10/
048470/20130307/100243/3660/363/10/
048470/20130307/100243/3655/2336/10/
048470/20130307/100312/3675/97/20/
048470/20130307/101645/3665/206/10/
048470/20130307/101645/3660/640/10/
048470/20130307/101645/3655/3864/20/
048470/20130307/101701/3655/100/20/
048470/20130307/101726/3655/97/20/
048470/20130307/101735/3650/3000/10/
048470/20130307/101735/3645/1000/10/
048470/20130307/101746/3645/1193/10/
048470/20130307/101746/3640/4367/10/
048470/20130307/101748/3640/617/10/
048470/20130307/102003/3660/90/20/
048470/20130307/102312/3645/676/10/
048470/20130307/102312/3640/1781/10/
048470/20130307/102312/3635/2165/10/
048470/20130307/102312/3630/6515/10/
048470/20130307/102312/3625/1865/10/
048470/20130307/102539/3645/221/20/
048470/20130307/102909/3635/135/10/
048470/20130307/102909/3635/280/10/
048470/20130307/102932/3630/810/10/
048470/20130307/103156/3635/533/10/
048470/20130307/103200/3630/1557/10/
048470/20130307/103211/3625/500/10/
048470/20130307/103216/3625/188/10/
048470/20130307/103242/3625/1813/10/
048470/20130307/103242/3620/188/10/
048470/20130307/103313/3635/1623/20/
048470/20130307/103406/3625/552/10/
048470/20130307/103436/3625/500/10/
048470/20130307/103445/3625/120/10/
048470/20130307/103452/3625/281/10/
048470/20130307/103511/3625/700/10/
048470/20130307/104213/3630/1067/10/
048470/20130307/104213/3630/755/10/
048470/20130307/104256/3630/371/10/
048470/20130307/104921/3635/512/20/
048470/20130307/104931/3635/1010/20/
048470/20130307/105128/3635/241/20/
048470/20130307/105138/3635/231/20/
048470/20130307/105150/3635/128/20/
048470/20130307/110123/3650/181/20/
048470/20130307/110252/3650/170/20/
048470/20130307/110317/3650/154/20/
048470/20130307/111248/3640/1554/10/
048470/20130307/111500/3635/3666/10/
048470/20130307/111604/3630/2001/10/
048470/20130307/111714/3630/1689/10/
048470/20130307/111714/3625/5811/10/
048470/20130307/111750/3625/100/20/
048470/20130307/111753/3620/400/10/
048470/20130307/111951/3625/104/20/
048470/20130307/112007/3625/100/20/
048470/20130307/112054/3625/82/20/
048470/20130307/112220/3625/116/20/
048470/20130307/112234/3625/112/20/
048470/20130307/112415/3625/502/10/
048470/20130307/112749/3630/476/20/
048470/20130307/112802/3625/1829/10/
048470/20130307/112807/3620/3625/10/
048470/20130307/113012/3625/1076/20/
048470/20130307/113039/3620/807/10/
048470/20130307/113042/3620/250/20/
048470/20130307/113146/3615/1506/10/
048470/20130307/113146/3615/530/10/
048470/20130307/113218/3615/100/20/
048470/20130307/113327/3610/720/10/
048470/20130307/113328/3605/1049/10/
048470/20130307/113348/3605/3054/10/
048470/20130307/113348/3600/1820/10/
048470/20130307/113407/3600/423/10/
048470/20130307/113407/3600/933/10/
048470/20130307/113426/3595/115/10/
048470/20130307/113456/3600/102/20/
048470/20130307/113706/3600/1087/10/
048470/20130307/113706/3595/916/10/
048470/20130307/113953/3600/163/10/
048470/20130307/114136/3600/1021/20/
048470/20130307/114153/3595/142/10/
048470/20130307/114232/3600/109/20/
048470/20130307/114243/3600/100/20/
048470/20130307/114334/3595/205/10/
048470/20130307/114407/3595/976/10/
048470/20130307/114409/3600/347/20/
048470/20130307/114507/3600/664/10/
048470/20130307/114507/3590/1833/10/
048470/20130307/114544/3590/2171/10/
048470/20130307/114707/3600/201/20/
048470/20130307/115140/3600/102/10/
048470/20130307/115416/3590/328/10/
048470/20130307/115626/3595/118/10/
048470/20130307/115838/3595/136/10/
048470/20130307/120052/3600/114/20/
048470/20130307/120300/3600/389/20/
048470/20130307/120327/3590/466/10/
048470/20130307/120329/3590/2784/10/
048470/20130307/120329/3585/666/10/
048470/20130307/120400/3585/450/10/
048470/20130307/120400/3585/604/10/
048470/20130307/120510/3580/1554/10/
048470/20130307/120510/3575/3284/10/
048470/20130307/120510/3570/3073/10/
048470/20130307/120708/3585/406/20/
048470/20130307/120712/3590/83/20/
048470/20130307/121128/3610/82/20/
048470/20130307/121209/3600/117/10/
048470/20130307/121517/3595/137/10/
048470/20130307/121926/3590/105/10/
048470/20130307/121926/3585/100/10/
048470/20130307/123036/3580/136/10/
048470/20130307/123038/3575/1751/10/
048470/20130307/123047/3570/194/10/
048470/20130307/123118/3580/105/20/
048470/20130307/123122/3575/201/10/
048470/20130307/123221/3570/508/10/
048470/20130307/123222/3570/120/10/
048470/20130307/123242/3570/1775/10/
048470/20130307/123259/3580/285/20/
048470/20130307/123754/3580/139/10/
048470/20130307/123838/3605/105/20/
048470/20130307/123929/3585/152/10/
048470/20130307/124529/3585/116/10/
048470/20130307/124554/3585/726/20/
048470/20130307/124721/3600/354/10/
048470/20130307/125519/3585/84/10/
048470/20130307/125913/3600/281/20/
048470/20130307/125938/3615/144/20/
048470/20130307/125938/3620/863/20/
048470/20130307/130038/3615/404/20/
048470/20130307/130047/3630/89/20/
048470/20130307/130243/3600/442/10/
048470/20130307/130303/3615/1017/20/
048470/20130307/130353/3610/513/20/
048470/20130307/130411/3610/383/20/
048470/20130307/131008/3600/131/20/
048470/20130307/131425/3595/1061/10/
048470/20130307/131447/3595/1351/20/
048470/20130307/131519/3600/168/20/
048470/20130307/132341/3590/231/10/
048470/20130307/133046/3605/1492/20/
048470/20130307/133515/3605/105/20/
048470/20130307/133717/3605/154/20/
048470/20130307/133853/3600/2549/10/
048470/20130307/133917/3595/120/10/
048470/20130307/134252/3600/158/20/
048470/20130307/134911/3595/517/10/
048470/20130307/135129/3595/254/10/
048470/20130307/135129/3590/2291/10/
048470/20130307/135146/3590/482/10/
048470/20130307/135159/3585/1238/10/
048470/20130307/135159/3585/95/20/
048470/20130307/135159/3590/133/20/
048470/20130307/135222/3595/376/10/
048470/20130307/135249/3595/83/10/
048470/20130307/135252/3590/344/10/
048470/20130307/135608/3595/311/10/
048470/20130307/135712/3595/350/10/
048470/20130307/135725/3595/301/10/
048470/20130307/135755/3595/679/20/
048470/20130307/135847/3595/100/10/
048470/20130307/135915/3595/123/10/
048470/20130307/140018/3590/772/10/
048470/20130307/140019/3590/198/10/
048470/20130307/140019/3580/1883/10/
048470/20130307/140019/3575/3419/10/
048470/20130307/140026/3570/2969/10/
048470/20130307/140033/3570/1228/10/
048470/20130307/140033/3565/1946/10/
048470/20130307/140044/3575/2159/10/
048470/20130307/140048/3575/1084/10/
048470/20130307/140048/3565/1314/10/
048470/20130307/140048/3560/1473/10/
048470/20130307/140052/3560/500/10/
048470/20130307/140100/3565/82/10/
048470/20130307/140100/3560/1538/10/
048470/20130307/140118/3560/400/10/
048470/20130307/140135/3560/1663/10/
048470/20130307/140136/3560/338/20/
048470/20130307/140147/3590/102/20/
048470/20130307/140147/3590/699/10/
048470/20130307/140243/3595/481/20/
048470/20130307/140346/3560/165/10/
048470/20130307/140510/3560/612/10/
048470/20130307/140607/3560/1155/10/
048470/20130307/140706/3560/1166/10/
048470/20130307/140706/3560/911/20/
048470/20130307/140714/3555/184/10/
048470/20130307/140725/3555/451/10/
048470/20130307/140732/3555/570/10/
048470/20130307/140743/3560/109/10/
048470/20130307/140743/3555/179/10/
048470/20130307/140832/3560/546/10/
048470/20130307/140832/3555/3062/10/
048470/20130307/140832/3550/2573/10/
048470/20130307/140939/3560/1001/10/
048470/20130307/141023/3560/2041/10/
048470/20130307/141023/3555/2302/10/
048470/20130307/141029/3555/1050/20/
048470/20130307/141029/3555/500/20/
048470/20130307/141048/3555/87/20/
048470/20130307/141128/3555/1200/10/
048470/20130307/141236/3560/154/10/
048470/20130307/141236/3555/999/10/
048470/20130307/141346/3570/101/20/
048470/20130307/141637/3570/1050/20/
048470/20130307/142010/3570/217/20/
048470/20130307/142022/3570/481/10/
048470/20130307/142504/3575/776/20/
048470/20130307/142557/3575/276/10/
048470/20130307/142820/3575/144/10/
048470/20130307/143101/3570/442/10/
048470/20130307/143101/3565/365/10/
048470/20130307/143328/3565/110/20/
048470/20130307/143343/3565/99/20/
048470/20130307/143456/3575/81/20/
048470/20130307/143627/3560/854/10/
048470/20130307/143639/3560/801/10/
048470/20130307/143742/3560/364/10/
048470/20130307/143753/3555/1000/10/
048470/20130307/143816/3555/1466/10/
048470/20130307/143822/3555/302/10/
048470/20130307/143822/3550/6923/10/
048470/20130307/143823/3550/4014/10/
048470/20130307/143839/3545/1790/10/
048470/20130307/143846/3545/100/20/
048470/20130307/143846/3540/530/10/
048470/20130307/143846/3535/1470/10/
048470/20130307/143901/3540/560/20/
048470/20130307/143909/3540/1498/10/
048470/20130307/143909/3535/1502/10/
048470/20130307/143919/3535/915/10/
048470/20130307/143922/3535/155/10/
048470/20130307/143938/3545/242/20/
048470/20130307/143946/3545/1010/20/
048470/20130307/144213/3570/121/20/
048470/20130307/144434/3565/97/20/
048470/20130307/144434/3570/2072/20/
048470/20130307/144509/3570/1729/10/
048470/20130307/144513/3570/1014/10/
048470/20130307/144516/3570/163/10/
048470/20130307/144610/3555/985/10/
048470/20130307/144610/3545/817/10/
048470/20130307/144712/3550/696/10/
048470/20130307/144712/3545/1906/10/
048470/20130307/144712/3540/3400/10/
048470/20130307/150000/3535/8060/10/
