048470/20121210/90000/2710/1467/10/
048470/20121210/90048/2710/120/10/
048470/20121210/90140/2720/90/10/
048470/20121210/90156/2720/100/10/
048470/20121210/90239/2720/93/10/
048470/20121210/90307/2730/475/20/
048470/20121210/90308/2730/205/20/
048470/20121210/90315/2745/1150/20/
048470/20121210/90319/2745/379/10/
048470/20121210/90444/2720/2612/10/
048470/20121210/90556/2710/1000/10/
048470/20121210/91002/2715/201/10/
048470/20121210/91013/2720/590/10/
048470/20121210/91031/2730/100/20/
048470/20121210/91124/2720/172/10/
048470/20121210/91303/2720/130/10/
048470/20121210/91731/2715/101/10/
048470/20121210/91731/2710/223/10/
048470/20121210/91740/2710/150/20/
048470/20121210/91740/2710/546/20/
048470/20121210/92953/2715/150/20/
048470/20121210/93301/2710/1149/10/
048470/20121210/93427/2710/94/10/
048470/20121210/93530/2710/84/10/
048470/20121210/93626/2710/146/10/
048470/20121210/93808/2710/340/10/
048470/20121210/93826/2705/87/10/
048470/20121210/93850/2705/391/10/
048470/20121210/94001/2700/602/10/
048470/20121210/94023/2705/100/20/
048470/20121210/94033/2705/110/20/
048470/20121210/94338/2700/482/10/
048470/20121210/94612/2705/126/20/
048470/20121210/95536/2710/210/10/
048470/20121210/95536/2705/340/10/
048470/20121210/95719/2710/116/10/
048470/20121210/100116/2715/266/20/
048470/20121210/100558/2715/89/20/
048470/20121210/100630/2715/202/20/
048470/20121210/100914/2720/210/20/
048470/20121210/101249/2720/300/20/
048470/20121210/101357/2720/100/20/
048470/20121210/101501/2720/240/20/
048470/20121210/102011/2720/120/20/
048470/20121210/102320/2715/1303/10/
048470/20121210/102320/2710/515/10/
048470/20121210/102320/2705/170/10/
048470/20121210/103829/2725/151/20/
048470/20121210/104345/2710/100/10/
048470/20121210/105132/2705/400/10/
048470/20121210/111324/2710/159/10/
048470/20121210/112706/2715/100/10/
048470/20121210/113029/2705/411/10/
048470/20121210/114947/2720/132/20/
048470/20121210/120622/2710/123/10/
048470/20121210/125021/2720/403/20/
048470/20121210/125055/2725/201/10/
048470/20121210/125121/2720/703/10/
048470/20121210/125137/2720/100/10/
048470/20121210/125139/2720/100/10/
048470/20121210/125652/2720/319/10/
048470/20121210/130901/2715/150/10/
048470/20121210/131013/2715/200/10/
048470/20121210/131222/2715/191/10/
048470/20121210/131820/2715/128/20/
048470/20121210/133005/2715/332/10/
048470/20121210/134056/2715/122/10/
048470/20121210/135429/2710/500/10/
048470/20121210/135832/2710/260/10/
048470/20121210/135832/2705/427/10/
048470/20121210/140240/2705/1000/10/
048470/20121210/141446/2715/106/20/
048470/20121210/141642/2710/501/10/
048470/20121210/142529/2710/704/10/
048470/20121210/143103/2705/344/10/
048470/20121210/143114/2705/2065/10/
048470/20121210/143126/2705/213/10/
048470/20121210/143454/2710/1166/20/
048470/20121210/143637/2710/143/20/
048470/20121210/143838/2705/1052/10/
048470/20121210/143908/2710/2101/20/
048470/20121210/144014/2710/205/20/
048470/20121210/144350/2715/81/20/
048470/20121210/144417/2705/770/10/
048470/20121210/144443/2705/220/20/
048470/20121210/144445/2705/210/20/
048470/20121210/144514/2705/210/20/
048470/20121210/144523/2705/110/20/
048470/20121210/144529/2705/100/20/
048470/20121210/144535/2705/110/20/
048470/20121210/144614/2705/110/20/
048470/20121210/144635/2700/660/10/
048470/20121210/144944/2715/104/20/
048470/20121210/150000/2700/4636/10/
