048470/20130219/90000/3970/2174/10/
048470/20130219/90000/3990/200/20/
048470/20130219/90000/4000/100/10/
048470/20130219/90020/3990/101/10/
048470/20130219/90023/3990/431/10/
048470/20130219/90041/3990/1130/20/
048470/20130219/90045/3990/400/10/
048470/20130219/90106/3990/443/10/
048470/20130219/90132/3980/169/10/
048470/20130219/90132/3975/572/10/
048470/20130219/90132/3970/1020/10/
048470/20130219/90132/3965/2516/10/
048470/20130219/90132/3960/600/10/
048470/20130219/90132/3965/2723/20/
048470/20130219/90144/3965/550/10/
048470/20130219/90144/3965/222/10/
048470/20130219/90151/3960/561/10/
048470/20130219/90201/3960/354/10/
048470/20130219/90251/3990/101/20/
048470/20130219/90310/3970/1112/10/
048470/20130219/90310/3965/1272/10/
048470/20130219/90310/3960/4357/10/
048470/20130219/90310/3960/827/20/
048470/20130219/90323/3970/1000/10/
048470/20130219/90328/3970/1000/10/
048470/20130219/90346/3970/127/10/
048470/20130219/90346/3970/373/20/
048470/20130219/90355/3990/202/20/
048470/20130219/90414/3970/814/10/
048470/20130219/90414/3965/188/10/
048470/20130219/90450/3965/679/10/
048470/20130219/90450/3960/8475/10/
048470/20130219/90450/3955/8127/10/
048470/20130219/90451/3955/608/20/
048470/20130219/90452/3950/2711/10/
048470/20130219/90456/3950/101/20/
048470/20130219/90522/3945/986/10/
048470/20130219/90525/3945/452/10/
048470/20130219/90525/3940/367/10/
048470/20130219/90548/3945/247/20/
048470/20130219/90604/3955/101/20/
048470/20130219/90608/3955/111/20/
048470/20130219/90610/3955/500/20/
048470/20130219/90611/3955/1392/20/
048470/20130219/90655/3960/424/10/
048470/20130219/90655/3955/163/10/
048470/20130219/90655/3950/714/10/
048470/20130219/90730/3955/207/10/
048470/20130219/90730/3950/1775/10/
048470/20130219/90730/3945/4373/10/
048470/20130219/90736/3945/257/20/
048470/20130219/90747/3945/3508/20/
048470/20130219/90931/3975/89/20/
048470/20130219/91049/3960/142/10/
048470/20130219/91049/3955/767/10/
048470/20130219/91107/3955/250/10/
048470/20130219/91107/3950/2717/10/
048470/20130219/91107/3945/3864/10/
048470/20130219/91107/3940/3734/10/
048470/20130219/91107/3935/6380/10/
048470/20130219/91107/3930/3778/10/
048470/20130219/91107/3925/2464/10/
048470/20130219/91126/3930/247/10/
048470/20130219/91143/3935/116/10/
048470/20130219/91143/3930/5505/10/
048470/20130219/91147/3930/520/20/
048470/20130219/91149/3930/524/20/
048470/20130219/91150/3930/500/20/
048470/20130219/91154/3930/111/20/
048470/20130219/91157/3930/152/20/
048470/20130219/91158/3930/1011/20/
048470/20130219/91159/3930/393/20/
048470/20130219/91159/3930/443/20/
048470/20130219/91203/3925/1056/10/
048470/20130219/91205/3930/254/20/
048470/20130219/91208/3930/416/20/
048470/20130219/91229/3930/505/10/
048470/20130219/91239/3950/141/20/
048470/20130219/91240/3950/111/10/
048470/20130219/91240/3930/2815/10/
048470/20130219/91329/3935/1535/10/
048470/20130219/91329/3930/2612/10/
048470/20130219/91333/3930/1973/20/
048470/20130219/91334/3925/387/10/
048470/20130219/91352/3930/569/20/
048470/20130219/91359/3930/105/20/
048470/20130219/91359/3930/1000/20/
048470/20130219/91403/3930/1050/20/
048470/20130219/91403/3930/300/20/
048470/20130219/91404/3930/160/20/
048470/20130219/91407/3930/2065/20/
048470/20130219/91408/3930/141/20/
048470/20130219/91409/3930/393/20/
048470/20130219/91410/3930/1933/20/
048470/20130219/91410/3965/100/20/
048470/20130219/91410/3970/269/20/
048470/20130219/91410/3970/299/10/
048470/20130219/91503/3940/90/10/
048470/20130219/91503/3935/700/10/
048470/20130219/91511/3930/2986/10/
048470/20130219/91515/3930/1040/10/
048470/20130219/91517/3930/1674/10/
048470/20130219/91522/3925/1513/10/
048470/20130219/91526/3925/183/10/
048470/20130219/91532/3925/1003/10/
048470/20130219/91534/3925/471/10/
048470/20130219/91551/3930/87/20/
048470/20130219/91551/3930/896/20/
048470/20130219/91553/3930/500/20/
048470/20130219/91618/3960/84/20/
048470/20130219/91640/3950/1023/10/
048470/20130219/91640/3930/118/10/
048470/20130219/91640/3925/400/10/
048470/20130219/91642/3960/867/20/
048470/20130219/91642/3960/958/10/
048470/20130219/91732/3930/605/10/
048470/20130219/91732/3925/1808/10/
048470/20130219/91732/3920/342/10/
048470/20130219/91824/3930/256/20/
048470/20130219/91946/3940/429/10/
048470/20130219/92005/3955/111/20/
048470/20130219/92038/3955/390/20/
048470/20130219/92046/3955/184/10/
048470/20130219/92049/3955/276/10/
048470/20130219/92050/3955/100/10/
048470/20130219/92138/3955/84/10/
048470/20130219/92235/3940/620/10/
048470/20130219/92245/3940/89/20/
048470/20130219/92256/3955/133/20/
048470/20130219/92339/3940/100/10/
048470/20130219/92347/3955/185/20/
048470/20130219/92426/3945/100/10/
048470/20130219/92426/3940/219/10/
048470/20130219/92426/3935/508/10/
048470/20130219/92426/3930/160/10/
048470/20130219/92522/3925/652/10/
048470/20130219/92522/3920/797/10/
048470/20130219/92617/3925/361/10/
048470/20130219/92622/3925/702/10/
048470/20130219/92622/3920/298/10/
048470/20130219/92644/3935/200/10/
048470/20130219/92644/3920/110/10/
048470/20130219/92649/3920/1014/10/
048470/20130219/92649/3915/2119/10/
048470/20130219/92649/3910/1186/10/
048470/20130219/92653/3910/823/10/
048470/20130219/92700/3910/310/10/
048470/20130219/92706/3910/250/10/
048470/20130219/92710/3910/1957/10/
048470/20130219/92715/3905/1870/10/
048470/20130219/92715/3900/1130/10/
048470/20130219/92717/3900/110/10/
048470/20130219/92720/3900/300/10/
048470/20130219/92722/3900/800/10/
048470/20130219/92738/3900/2000/10/
048470/20130219/92740/3900/1000/10/
048470/20130219/92754/3910/533/20/
048470/20130219/92813/3910/253/10/
048470/20130219/92817/3910/680/20/
048470/20130219/92829/3910/170/20/
048470/20130219/92831/3910/350/20/
048470/20130219/92841/3910/348/20/
048470/20130219/92844/3910/106/10/
048470/20130219/92907/3925/205/20/
048470/20130219/92911/3930/140/10/
048470/20130219/92911/3910/455/10/
048470/20130219/92923/3910/1000/10/
048470/20130219/92941/3915/100/10/
048470/20130219/92941/3910/436/10/
048470/20130219/92952/3910/370/20/
048470/20130219/92954/3910/200/20/
048470/20130219/93006/3910/194/20/
048470/20130219/93023/3910/150/10/
048470/20130219/93259/3930/130/20/
048470/20130219/93329/3930/120/20/
048470/20130219/93401/3930/100/20/
048470/20130219/93441/3935/134/20/
048470/20130219/93515/3935/149/20/
048470/20130219/93607/3935/1027/20/
048470/20130219/93740/3935/1011/20/
048470/20130219/93742/3935/200/10/
048470/20130219/93818/3930/519/10/
048470/20130219/94119/3930/361/10/
048470/20130219/94125/3925/1000/10/
048470/20130219/94217/3930/250/20/
048470/20130219/94229/3930/778/10/
048470/20130219/94236/3925/551/10/
048470/20130219/94245/3925/587/10/
048470/20130219/94424/3925/127/10/
048470/20130219/94424/3920/873/10/
048470/20130219/94440/3920/664/10/
048470/20130219/94551/3920/1002/10/
048470/20130219/94709/3935/517/20/
048470/20130219/94848/3935/84/20/
048470/20130219/94918/3920/1197/10/
048470/20130219/94934/3915/101/10/
048470/20130219/94937/3915/108/10/
048470/20130219/95038/3915/1101/10/
048470/20130219/95042/3915/302/10/
048470/20130219/95149/3920/234/10/
048470/20130219/95219/3920/2000/10/
048470/20130219/95226/3930/200/20/
048470/20130219/95310/3930/416/20/
048470/20130219/95354/3930/288/10/
048470/20130219/95521/3930/197/20/
048470/20130219/95547/3930/198/20/
048470/20130219/95606/3930/110/20/
048470/20130219/95640/3920/292/10/
048470/20130219/95827/3920/93/10/
048470/20130219/100015/3930/616/10/
048470/20130219/100042/3935/853/20/
048470/20130219/100152/3935/574/10/
048470/20130219/100245/3935/180/10/
048470/20130219/100254/3935/99/20/
048470/20130219/100348/3930/865/10/
048470/20130219/100348/3920/135/10/
048470/20130219/100949/3935/758/20/
048470/20130219/101110/3945/456/20/
048470/20130219/101130/3950/95/20/
048470/20130219/101216/3940/100/10/
048470/20130219/101224/3945/587/20/
048470/20130219/101529/3945/101/20/
048470/20130219/101529/3950/185/20/
048470/20130219/101541/3950/126/20/
048470/20130219/101634/3940/500/10/
048470/20130219/101820/3950/168/20/
048470/20130219/101832/3940/495/10/
048470/20130219/101854/3940/305/10/
048470/20130219/101952/3940/387/10/
048470/20130219/101952/3935/1234/10/
048470/20130219/102009/3940/125/10/
048470/20130219/102045/3940/876/10/
048470/20130219/102045/3935/145/10/
048470/20130219/102442/3935/643/10/
048470/20130219/102514/3935/825/10/
048470/20130219/102514/3930/790/10/
048470/20130219/102759/3930/414/10/
048470/20130219/103107/3930/2362/10/
048470/20130219/103207/3925/778/10/
048470/20130219/103231/3925/200/10/
048470/20130219/103254/3930/501/20/
048470/20130219/103306/3925/598/10/
048470/20130219/103330/3930/502/20/
048470/20130219/103342/3930/543/20/
048470/20130219/103342/3930/511/20/
048470/20130219/103353/3945/82/20/
048470/20130219/103358/3945/81/20/
048470/20130219/103402/3945/81/20/
048470/20130219/103406/3945/83/20/
048470/20130219/103409/3945/116/20/
048470/20130219/103410/3945/1008/20/
048470/20130219/103411/3945/303/20/
048470/20130219/103411/3945/629/20/
048470/20130219/103413/3950/526/20/
048470/20130219/103422/3950/81/20/
048470/20130219/103428/3950/82/20/
048470/20130219/103436/3950/82/20/
048470/20130219/103440/3950/82/20/
048470/20130219/103445/3950/82/20/
048470/20130219/103450/3950/85/20/
048470/20130219/103455/3940/81/10/
048470/20130219/103504/3945/605/10/
048470/20130219/103505/3945/433/10/
048470/20130219/103511/3945/84/20/
048470/20130219/103514/3945/139/20/
048470/20130219/103515/3945/87/20/
048470/20130219/103519/3945/97/20/
048470/20130219/103524/3945/185/20/
048470/20130219/103533/3940/654/10/
048470/20130219/103540/3945/698/20/
048470/20130219/103540/3950/757/20/
048470/20130219/103626/3940/101/10/
048470/20130219/103736/3935/201/10/
048470/20130219/103743/3935/600/10/
048470/20130219/103931/3935/413/10/
048470/20130219/103931/3930/340/10/
048470/20130219/103946/3930/316/10/
048470/20130219/104013/3930/511/10/
048470/20130219/104023/3930/2453/10/
048470/20130219/104023/3925/3268/10/
048470/20130219/104052/3930/117/20/
048470/20130219/104151/3940/101/20/
048470/20130219/104459/3945/200/20/
048470/20130219/104512/3945/573/10/
048470/20130219/104710/3945/211/10/
048470/20130219/105345/3945/1006/20/
048470/20130219/105853/3935/134/10/
048470/20130219/105903/3935/254/20/
048470/20130219/110022/3930/251/10/
048470/20130219/110031/3930/500/10/
048470/20130219/110044/3930/514/10/
048470/20130219/110122/3930/543/20/
048470/20130219/110358/3935/438/20/
048470/20130219/110451/3935/136/20/
048470/20130219/110527/3940/620/20/
048470/20130219/111003/3930/1889/10/
048470/20130219/111045/3930/676/10/
048470/20130219/111133/3925/1050/10/
048470/20130219/111321/3925/450/10/
048470/20130219/111512/3935/209/20/
048470/20130219/111654/3930/323/10/
048470/20130219/111746/3930/253/10/
048470/20130219/112035/3930/442/10/
048470/20130219/112112/3930/218/10/
048470/20130219/112640/3940/655/20/
048470/20130219/112833/3945/303/20/
048470/20130219/113029/3945/527/20/
048470/20130219/113044/3945/264/20/
048470/20130219/113221/3950/549/20/
048470/20130219/113229/3950/500/20/
048470/20130219/113243/3950/100/20/
048470/20130219/113335/3945/647/10/
048470/20130219/113413/3945/218/20/
048470/20130219/113416/3945/171/20/
048470/20130219/113418/3950/120/20/
048470/20130219/113436/3945/218/10/
048470/20130219/113439/3945/200/20/
048470/20130219/113634/3945/382/10/
048470/20130219/113656/3940/1620/10/
048470/20130219/114058/3940/120/10/
048470/20130219/114338/3935/187/10/
048470/20130219/114434/3940/193/20/
048470/20130219/114434/3945/113/20/
048470/20130219/114434/3950/1223/20/
048470/20130219/114619/3955/235/20/
048470/20130219/114825/3955/879/20/
048470/20130219/114854/3955/312/20/
048470/20130219/115303/3960/134/20/
048470/20130219/115415/3940/400/10/
048470/20130219/115442/3960/201/20/
048470/20130219/115549/3960/100/20/
048470/20130219/115616/3960/1475/20/
048470/20130219/115712/3965/101/20/
048470/20130219/115845/3965/168/20/
048470/20130219/120101/3965/100/20/
048470/20130219/120233/3955/100/10/
048470/20130219/120552/3955/401/10/
048470/20130219/120640/3950/1000/10/
048470/20130219/120644/3950/99/10/
048470/20130219/121756/3950/442/10/
048470/20130219/121800/3950/99/10/
048470/20130219/121908/3950/350/10/
048470/20130219/122234/3950/250/20/
048470/20130219/122317/3950/250/10/
048470/20130219/122528/3950/155/20/
048470/20130219/122649/3950/340/20/
048470/20130219/122649/3955/647/20/
048470/20130219/123057/3960/495/20/
048470/20130219/123137/3960/200/20/
048470/20130219/123505/3950/500/10/
048470/20130219/123508/3960/3000/20/
048470/20130219/123532/3955/219/20/
048470/20130219/123532/3955/281/10/
048470/20130219/123616/3955/200/10/
048470/20130219/124500/3950/84/20/
048470/20130219/124606/3945/136/10/
048470/20130219/124612/3945/99/10/
048470/20130219/124857/3945/172/10/
048470/20130219/124926/3945/794/10/
048470/20130219/125010/3945/101/10/
048470/20130219/125100/3950/98/20/
048470/20130219/125100/3950/384/10/
048470/20130219/125332/3955/425/20/
048470/20130219/125531/3955/575/10/
048470/20130219/125657/3945/246/10/
048470/20130219/125745/3945/915/10/
048470/20130219/130453/3945/382/10/
048470/20130219/130453/3940/1619/10/
048470/20130219/131209/3950/597/20/
048470/20130219/131309/3950/130/10/
048470/20130219/131507/3940/4580/10/
048470/20130219/131531/3940/99/20/
048470/20130219/131757/3935/1001/10/
048470/20130219/132434/3935/1002/10/
048470/20130219/132553/3935/1001/10/
048470/20130219/132652/3935/1301/10/
048470/20130219/132746/3935/2001/10/
048470/20130219/132842/3935/236/10/
048470/20130219/132848/3930/476/10/
048470/20130219/132902/3930/177/20/
048470/20130219/133000/3930/501/10/
048470/20130219/133053/3930/322/10/
048470/20130219/133238/3930/446/10/
048470/20130219/133427/3930/455/20/
048470/20130219/133436/3930/103/10/
048470/20130219/133450/3925/3156/10/
048470/20130219/133450/3920/1117/10/
048470/20130219/133450/3930/131/20/
048470/20130219/133458/3930/246/20/
048470/20130219/133506/3930/254/10/
048470/20130219/133517/3920/2585/10/
048470/20130219/133521/3920/529/10/
048470/20130219/133526/3920/1000/10/
048470/20130219/133845/3925/551/10/
048470/20130219/133851/3920/1380/10/
048470/20130219/134043/3920/161/10/
048470/20130219/134051/3920/1441/10/
048470/20130219/134426/3920/680/10/
048470/20130219/134452/3920/346/20/
048470/20130219/134514/3920/169/10/
048470/20130219/134514/3915/781/10/
048470/20130219/134749/3920/1003/20/
048470/20130219/134836/3915/172/10/
048470/20130219/135012/3920/419/10/
048470/20130219/135107/3920/567/10/
048470/20130219/135116/3920/300/10/
048470/20130219/135229/3920/3825/10/
048470/20130219/135408/3920/89/20/
048470/20130219/135424/3915/242/10/
048470/20130219/135457/3920/301/20/
048470/20130219/135610/3920/500/20/
048470/20130219/135714/3920/100/20/
048470/20130219/135718/3920/400/20/
048470/20130219/135738/3920/100/20/
048470/20130219/135752/3920/286/20/
048470/20130219/135804/3915/1324/10/
048470/20130219/135807/3915/109/10/
048470/20130219/140020/3920/172/10/
048470/20130219/140020/3915/1002/10/
048470/20130219/140102/3915/2362/10/
048470/20130219/140102/3910/1639/10/
048470/20130219/140144/3910/1500/10/
048470/20130219/140207/3915/265/10/
048470/20130219/140238/3915/100/20/
048470/20130219/140329/3910/312/10/
048470/20130219/140335/3910/200/10/
048470/20130219/140339/3910/960/10/
048470/20130219/140409/3910/292/10/
048470/20130219/140626/3910/1370/10/
048470/20130219/140656/3905/4071/10/
048470/20130219/140705/3905/300/20/
048470/20130219/140712/3905/134/20/
048470/20130219/140725/3905/166/10/
048470/20130219/140729/3905/100/20/
048470/20130219/140730/3900/400/10/
048470/20130219/140730/3900/93/10/
048470/20130219/140731/3900/100/10/
048470/20130219/140733/3900/5274/10/
048470/20130219/140735/3900/100/10/
048470/20130219/140736/3900/1734/10/
048470/20130219/140736/3900/1000/10/
048470/20130219/140738/3900/149/10/
048470/20130219/140740/3900/191/10/
048470/20130219/140743/3900/300/10/
048470/20130219/140743/3895/200/10/
048470/20130219/140743/3895/2000/10/
048470/20130219/140759/3895/1074/10/
048470/20130219/140759/3890/1927/10/
048470/20130219/140801/3890/1081/10/
048470/20130219/140802/3890/1200/10/
048470/20130219/141108/3900/140/10/
048470/20130219/141122/3900/428/10/
048470/20130219/141122/3895/1496/10/
048470/20130219/141135/3890/1516/10/
048470/20130219/141146/3890/185/20/
048470/20130219/141147/3890/176/10/
048470/20130219/141153/3890/302/10/
048470/20130219/141212/3885/103/10/
048470/20130219/141224/3890/501/10/
048470/20130219/141241/3890/123/10/
048470/20130219/141241/3885/403/10/
048470/20130219/141243/3885/920/10/
048470/20130219/141255/3895/888/20/
048470/20130219/141454/3910/113/20/
048470/20130219/141656/3910/120/20/
048470/20130219/141737/3895/429/10/
048470/20130219/141737/3890/921/10/
048470/20130219/141823/3910/554/20/
048470/20130219/141823/3910/450/10/
048470/20130219/141936/3890/177/10/
048470/20130219/141936/3885/1967/10/
048470/20130219/141936/3880/1856/10/
048470/20130219/141956/3880/500/10/
048470/20130219/142019/3880/108/10/
048470/20130219/142019/3875/1693/10/
048470/20130219/142142/3885/521/10/
048470/20130219/142142/3880/102/10/
048470/20130219/142212/3880/400/10/
048470/20130219/142218/3880/400/10/
048470/20130219/142222/3880/100/20/
048470/20130219/142223/3880/448/10/
048470/20130219/142226/3875/812/10/
048470/20130219/142229/3875/927/10/
048470/20130219/142302/3875/493/10/
048470/20130219/142302/3870/1537/10/
048470/20130219/142319/3875/519/10/
048470/20130219/142327/3885/130/20/
048470/20130219/142426/3880/702/10/
048470/20130219/142447/3880/395/10/
048470/20130219/142451/3880/105/20/
048470/20130219/142512/3885/196/20/
048470/20130219/142525/3885/167/20/
048470/20130219/142555/3900/140/20/
048470/20130219/142600/3900/180/20/
048470/20130219/142610/3885/1162/10/
048470/20130219/142610/3880/1498/10/
048470/20130219/142610/3875/490/10/
048470/20130219/142610/3870/1850/10/
048470/20130219/142653/3895/101/20/
048470/20130219/142654/3895/127/10/
048470/20130219/142738/3895/119/20/
048470/20130219/142738/3895/259/10/
048470/20130219/142916/3895/660/20/
048470/20130219/142919/3895/150/10/
048470/20130219/142939/3895/82/10/
048470/20130219/143051/3890/121/20/
048470/20130219/143100/3890/302/20/
048470/20130219/143113/3885/250/10/
048470/20130219/143126/3890/101/20/
048470/20130219/143247/3900/89/20/
048470/20130219/143321/3890/100/10/
048470/20130219/143413/3890/818/10/
048470/20130219/143430/3890/200/10/
048470/20130219/143441/3890/150/10/
048470/20130219/143449/3890/383/10/
048470/20130219/143504/3885/1111/10/
048470/20130219/143528/3885/601/10/
048470/20130219/143550/3885/751/10/
048470/20130219/143603/3885/100/20/
048470/20130219/143607/3885/100/10/
048470/20130219/143619/3885/108/10/
048470/20130219/143632/3880/3052/10/
048470/20130219/143632/3875/6698/10/
048470/20130219/143656/3875/1074/10/
048470/20130219/143705/3875/600/20/
048470/20130219/143705/3875/326/20/
048470/20130219/143832/3890/97/20/
048470/20130219/143847/3875/110/10/
048470/20130219/143859/3875/400/10/
048470/20130219/143944/3875/180/10/
048470/20130219/144017/3880/88/10/
048470/20130219/144024/3880/214/10/
048470/20130219/144102/3890/200/20/
048470/20130219/144114/3880/300/20/
048470/20130219/144126/3880/143/10/
048470/20130219/144215/3890/758/20/
048470/20130219/144223/3895/671/20/
048470/20130219/144223/3900/3515/20/
048470/20130219/144232/3900/682/10/
048470/20130219/144239/3900/132/10/
048470/20130219/144541/3890/618/10/
048470/20130219/144620/3890/626/10/
048470/20130219/144722/3885/1000/10/
048470/20130219/144727/3885/134/10/
048470/20130219/144828/3885/103/10/
048470/20130219/144830/3890/997/20/
048470/20130219/144855/3890/1500/10/
048470/20130219/144856/3890/368/10/
048470/20130219/144902/3890/240/20/
048470/20130219/144906/3885/336/10/
048470/20130219/144912/3875/100/10/
048470/20130219/144923/3885/164/20/
048470/20130219/144929/3885/100/10/
048470/20130219/144931/3885/500/10/
048470/20130219/144938/3885/5007/10/
048470/20130219/144938/3875/3062/10/
048470/20130219/144938/3870/5723/10/
048470/20130219/144951/3870/100/20/
048470/20130219/150000/3850/22730/10/
