048470/20130111/90000/3345/107/10/
048470/20130111/90028/3370/95/20/
048470/20130111/90028/3375/307/20/
048470/20130111/90028/3380/715/20/
048470/20130111/90028/3385/179/20/
048470/20130111/90047/3385/426/10/
048470/20130111/90216/3375/175/10/
048470/20130111/90326/3380/101/20/
048470/20130111/90333/3385/100/20/
048470/20130111/90409/3380/93/20/
048470/20130111/90424/3380/115/10/
048470/20130111/90604/3370/247/20/
048470/20130111/90618/3365/500/10/
048470/20130111/90638/3350/217/10/
048470/20130111/90652/3350/200/10/
048470/20130111/90813/3360/121/10/
048470/20130111/90943/3350/649/10/
048470/20130111/91011/3350/357/10/
048470/20130111/91013/3350/383/10/
048470/20130111/91124/3350/1571/10/
048470/20130111/91142/3350/100/10/
048470/20130111/91147/3350/170/10/
048470/20130111/91147/3350/740/20/
048470/20130111/91207/3350/610/20/
048470/20130111/91433/3355/101/10/
048470/20130111/91452/3355/491/20/
048470/20130111/91718/3355/1026/10/
048470/20130111/91831/3355/890/10/
048470/20130111/91840/3370/223/20/
048470/20130111/91840/3380/499/20/
048470/20130111/91840/3385/200/20/
048470/20130111/91840/3390/305/20/
048470/20130111/91840/3395/1044/20/
048470/20130111/91840/3400/920/20/
048470/20130111/92043/3375/330/10/
048470/20130111/92057/3375/220/20/
048470/20130111/92206/3375/570/10/
048470/20130111/92401/3390/303/20/
048470/20130111/92747/3375/202/10/
048470/20130111/93009/3380/754/10/
048470/20130111/93030/3380/2357/10/
048470/20130111/93130/3370/117/10/
048470/20130111/93420/3385/401/20/
048470/20130111/93426/3370/257/10/
048470/20130111/93443/3370/248/10/
048470/20130111/93559/3365/132/10/
048470/20130111/93559/3355/169/10/
048470/20130111/93710/3370/1818/20/
048470/20130111/93746/3370/129/10/
048470/20130111/93914/3370/156/10/
048470/20130111/93914/3355/332/10/
048470/20130111/94044/3355/647/10/
048470/20130111/94044/3350/1910/10/
048470/20130111/94044/3345/361/10/
048470/20130111/94115/3345/500/10/
048470/20130111/94252/3375/549/20/
048470/20130111/94252/3375/1350/10/
048470/20130111/94337/3380/122/20/
048470/20130111/94418/3375/430/10/
048470/20130111/94513/3375/624/10/
048470/20130111/95031/3370/337/10/
048470/20130111/95052/3370/185/20/
048470/20130111/95254/3350/641/10/
048470/20130111/95254/3345/974/10/
048470/20130111/95326/3350/250/10/
048470/20130111/95334/3345/2103/10/
048470/20130111/95334/3340/3661/10/
048470/20130111/95336/3340/1348/10/
048470/20130111/95547/3345/251/10/
048470/20130111/95726/3345/260/10/
048470/20130111/95731/3345/300/10/
048470/20130111/95734/3345/125/10/
048470/20130111/95748/3345/100/20/
048470/20130111/95843/3340/745/10/
048470/20130111/95853/3340/1001/10/
048470/20130111/95944/3340/665/10/
048470/20130111/95944/3335/335/10/
048470/20130111/95952/3335/835/10/
048470/20130111/95952/3330/3637/10/
048470/20130111/95952/3325/146/10/
048470/20130111/95952/3320/1103/10/
048470/20130111/95952/3315/265/10/
048470/20130111/100143/3325/81/10/
048470/20130111/100216/3325/200/10/
048470/20130111/100233/3325/200/10/
048470/20130111/100235/3335/1380/20/
048470/20130111/100235/3345/120/20/
048470/20130111/100418/3340/100/10/
048470/20130111/100702/3335/123/20/
048470/20130111/100738/3335/298/10/
048470/20130111/100741/3335/314/10/
048470/20130111/100751/3335/100/10/
048470/20130111/100857/3330/127/10/
048470/20130111/100941/3330/350/10/
048470/20130111/100941/3335/97/20/
048470/20130111/101237/3335/251/20/
048470/20130111/101244/3325/171/10/
048470/20130111/101244/3320/129/10/
048470/20130111/101350/3320/1100/10/
048470/20130111/101359/3320/100/10/
048470/20130111/101411/3320/971/10/
048470/20130111/101514/3315/1140/10/
048470/20130111/101612/3315/1218/10/
048470/20130111/101612/3310/4277/10/
048470/20130111/101632/3305/530/10/
048470/20130111/101636/3305/1592/10/
048470/20130111/101636/3300/3708/10/
048470/20130111/101705/3300/351/10/
048470/20130111/101732/3310/101/20/
048470/20130111/101759/3310/100/20/
048470/20130111/101830/3310/1516/20/
048470/20130111/101832/3310/1000/10/
048470/20130111/101846/3310/500/10/
048470/20130111/101903/3310/101/10/
048470/20130111/101930/3320/100/20/
048470/20130111/102104/3310/1070/10/
048470/20130111/102242/3320/479/20/
048470/20130111/102345/3335/501/20/
048470/20130111/102405/3335/100/20/
048470/20130111/102427/3335/311/20/
048470/20130111/102604/3335/101/10/
048470/20130111/102800/3335/875/10/
048470/20130111/102800/3325/662/10/
048470/20130111/102947/3325/508/10/
048470/20130111/103315/3330/240/10/
048470/20130111/103315/3325/85/10/
048470/20130111/103436/3330/201/10/
048470/20130111/103445/3335/255/20/
048470/20130111/103715/3335/110/10/
048470/20130111/103753/3335/100/10/
048470/20130111/103836/3335/124/10/
048470/20130111/103836/3330/226/10/
048470/20130111/104652/3330/811/10/
048470/20130111/104652/3325/1022/10/
048470/20130111/104725/3325/2392/10/
048470/20130111/104821/3325/100/20/
048470/20130111/104826/3325/300/20/
048470/20130111/105357/3320/176/10/
048470/20130111/105415/3320/500/10/
048470/20130111/105422/3320/209/10/
048470/20130111/105631/3320/400/10/
048470/20130111/105631/3315/675/10/
048470/20130111/105858/3310/919/10/
048470/20130111/110404/3320/212/10/
048470/20130111/110700/3315/1463/10/
048470/20130111/110700/3310/1156/10/
048470/20130111/110700/3305/2330/10/
048470/20130111/110712/3305/200/20/
048470/20130111/110720/3305/550/20/
048470/20130111/110740/3305/208/20/
048470/20130111/112209/3320/501/10/
048470/20130111/112209/3310/351/10/
048470/20130111/112209/3305/1176/10/
048470/20130111/112247/3305/199/10/
048470/20130111/112419/3305/1237/10/
048470/20130111/112431/3305/183/20/
048470/20130111/112848/3310/131/20/
048470/20130111/112848/3310/500/20/
048470/20130111/113122/3310/300/20/
048470/20130111/113253/3310/85/20/
048470/20130111/113552/3305/2708/10/
048470/20130111/113610/3305/100/20/
048470/20130111/114007/3305/207/10/
048470/20130111/114313/3310/2235/20/
048470/20130111/114807/3325/638/20/
048470/20130111/114823/3325/100/10/
048470/20130111/114847/3325/250/10/
048470/20130111/115232/3325/139/10/
048470/20130111/115739/3330/103/20/
048470/20130111/120343/3330/100/20/
048470/20130111/121038/3325/366/10/
048470/20130111/121103/3325/881/10/
048470/20130111/121117/3325/100/10/
048470/20130111/121134/3325/598/10/
048470/20130111/121143/3320/712/10/
048470/20130111/121227/3320/794/10/
048470/20130111/121903/3320/280/20/
048470/20130111/122628/3315/230/10/
048470/20130111/122714/3320/94/20/
048470/20130111/123049/3320/326/20/
048470/20130111/123109/3320/300/10/
048470/20130111/123916/3320/85/10/
048470/20130111/124438/3310/616/10/
048470/20130111/124727/3305/2681/10/
048470/20130111/124805/3305/110/20/
048470/20130111/124807/3305/200/20/
048470/20130111/124808/3305/219/20/
048470/20130111/124836/3305/291/10/
048470/20130111/124910/3305/500/20/
048470/20130111/125207/3300/362/10/
048470/20130111/125317/3305/509/10/
048470/20130111/125626/3305/551/10/
048470/20130111/125710/3300/1058/10/
048470/20130111/125739/3305/100/10/
048470/20130111/125804/3305/212/20/
048470/20130111/125849/3305/240/20/
048470/20130111/125903/3305/500/10/
048470/20130111/130007/3305/260/10/
048470/20130111/130051/3305/115/20/
048470/20130111/130332/3305/113/20/
048470/20130111/130355/3305/524/20/
048470/20130111/130557/3310/460/20/
048470/20130111/130714/3320/211/20/
048470/20130111/130740/3320/282/20/
048470/20130111/130909/3325/2003/20/
048470/20130111/130940/3325/218/20/
048470/20130111/130955/3330/81/20/
048470/20130111/131056/3330/250/20/
048470/20130111/131107/3330/1040/20/
048470/20130111/131107/3335/634/20/
048470/20130111/131107/3340/1954/20/
048470/20130111/131107/3345/1800/20/
048470/20130111/131107/3350/410/20/
048470/20130111/131107/3355/1162/20/
048470/20130111/131147/3350/110/20/
048470/20130111/131147/3355/890/20/
048470/20130111/131253/3345/190/10/
048470/20130111/131615/3340/123/20/
048470/20130111/131844/3320/2004/10/
048470/20130111/132643/3330/109/10/
048470/20130111/133459/3330/81/10/
048470/20130111/133706/3320/100/10/
048470/20130111/134439/3330/1002/20/
048470/20130111/134752/3330/100/10/
048470/20130111/135131/3330/671/20/
048470/20130111/135143/3340/1000/20/
048470/20130111/135223/3340/1258/20/
048470/20130111/135232/3345/336/20/
048470/20130111/135232/3350/1147/20/
048470/20130111/135232/3355/174/20/
048470/20130111/135249/3340/980/20/
048470/20130111/135302/3355/214/20/
048470/20130111/135340/3330/786/10/
048470/20130111/135340/3325/251/10/
048470/20130111/135501/3350/300/20/
048470/20130111/135521/3355/846/20/
048470/20130111/135521/3360/2188/20/
048470/20130111/135659/3365/352/20/
048470/20130111/135731/3365/1200/20/
048470/20130111/135756/3365/100/10/
048470/20130111/135810/3370/1106/20/
048470/20130111/135850/3370/300/20/
048470/20130111/135853/3375/100/20/
048470/20130111/135858/3375/722/20/
048470/20130111/135859/3375/112/10/
048470/20130111/135941/3370/150/20/
048470/20130111/135942/3375/488/20/
048470/20130111/140024/3375/903/20/
048470/20130111/140041/3375/200/10/
048470/20130111/140053/3375/118/20/
048470/20130111/140108/3375/563/20/
048470/20130111/140130/3380/1794/20/
048470/20130111/140130/3385/206/20/
048470/20130111/140145/3380/103/20/
048470/20130111/140149/3380/100/10/
048470/20130111/140211/3380/100/10/
048470/20130111/140213/3380/446/10/
048470/20130111/140215/3380/100/10/
048470/20130111/140228/3380/163/20/
048470/20130111/140320/3380/105/20/
048470/20130111/140336/3380/110/20/
048470/20130111/140346/3380/1405/20/
048470/20130111/140348/3380/118/20/
048470/20130111/140403/3375/200/20/
048470/20130111/140416/3375/372/20/
048470/20130111/140426/3375/128/10/
048470/20130111/140532/3360/1009/10/
048470/20130111/140824/3360/131/10/
048470/20130111/141046/3360/1088/10/
048470/20130111/141115/3355/933/10/
048470/20130111/141138/3355/937/10/
048470/20130111/141146/3355/93/20/
048470/20130111/141245/3355/510/20/
048470/20130111/141327/3355/390/20/
048470/20130111/141408/3360/250/20/
048470/20130111/141454/3355/341/10/
048470/20130111/141536/3355/150/10/
048470/20130111/141629/3355/209/10/
048470/20130111/141637/3355/310/10/
048470/20130111/141811/3355/510/10/
048470/20130111/141811/3350/325/10/
048470/20130111/142234/3350/332/10/
048470/20130111/142236/3350/545/10/
048470/20130111/142246/3350/451/10/
048470/20130111/142422/3360/1097/20/
048470/20130111/142531/3365/100/20/
048470/20130111/142556/3365/210/20/
048470/20130111/142609/3365/92/20/
048470/20130111/142640/3365/300/20/
048470/20130111/142835/3370/1000/20/
048470/20130111/143013/3370/100/20/
048470/20130111/143025/3365/350/10/
048470/20130111/143113/3375/901/20/
048470/20130111/143201/3375/200/20/
048470/20130111/143204/3375/785/20/
048470/20130111/143231/3375/468/20/
048470/20130111/143306/3375/91/10/
048470/20130111/143313/3375/101/10/
048470/20130111/143316/3375/100/10/
048470/20130111/143357/3375/101/10/
048470/20130111/143359/3375/100/10/
048470/20130111/143533/3375/81/20/
048470/20130111/143723/3370/202/10/
048470/20130111/143725/3375/528/20/
048470/20130111/143752/3375/306/10/
048470/20130111/143848/3375/604/10/
048470/20130111/143853/3375/100/10/
048470/20130111/143930/3375/353/10/
048470/20130111/143939/3375/102/10/
048470/20130111/143943/3375/100/20/
048470/20130111/143943/3380/345/20/
048470/20130111/144034/3380/550/20/
048470/20130111/144048/3375/198/10/
048470/20130111/144102/3370/300/10/
048470/20130111/144122/3370/1512/10/
048470/20130111/144337/3375/355/20/
048470/20130111/144637/3370/838/10/
048470/20130111/144709/3370/163/10/
048470/20130111/144736/3370/81/10/
048470/20130111/144817/3375/101/20/
048470/20130111/144824/3375/400/20/
048470/20130111/144830/3375/1100/20/
048470/20130111/144926/3375/332/20/
048470/20130111/144952/3375/684/20/
048470/20130111/144956/3380/5000/20/
048470/20130111/150000/3400/13317/10/
