048470/20121106/90002/3095/340/10/
048470/20121106/90549/3095/90/10/
048470/20121106/90549/3090/345/10/
048470/20121106/90612/3090/200/20/
048470/20121106/90654/3090/100/20/
048470/20121106/90850/3090/475/20/
048470/20121106/91001/3100/966/20/
048470/20121106/91001/3110/784/20/
048470/20121106/91057/3090/102/10/
048470/20121106/91103/3090/150/20/
048470/20121106/91128/3090/573/20/
048470/20121106/91139/3090/263/20/
048470/20121106/91347/3100/82/20/
048470/20121106/91410/3110/500/20/
048470/20121106/91441/3110/116/20/
048470/20121106/91441/3115/84/20/
048470/20121106/91552/3125/213/20/
048470/20121106/91844/3125/305/20/
048470/20121106/91911/3125/200/20/
048470/20121106/92336/3110/116/10/
048470/20121106/92409/3120/125/20/
048470/20121106/92452/3105/510/10/
048470/20121106/92721/3115/104/20/
048470/20121106/92941/3110/110/10/
048470/20121106/93109/3105/104/10/
048470/20121106/93117/3105/100/10/
048470/20121106/93118/3105/100/10/
048470/20121106/93120/3105/100/10/
048470/20121106/93407/3100/115/20/
048470/20121106/93428/3095/499/10/
048470/20121106/93832/3100/501/20/
048470/20121106/94013/3100/170/20/
048470/20121106/94213/3110/309/20/
048470/20121106/94315/3110/160/20/
048470/20121106/94426/3115/159/20/
048470/20121106/94513/3120/621/20/
048470/20121106/94619/3110/1079/10/
048470/20121106/94644/3110/216/10/
048470/20121106/94708/3110/264/10/
048470/20121106/94723/3115/400/20/
048470/20121106/94959/3115/150/20/
048470/20121106/95009/3110/1513/10/
048470/20121106/95103/3115/239/20/
048470/20121106/95159/3115/122/20/
048470/20121106/95322/3115/200/20/
048470/20121106/100813/3105/453/20/
048470/20121106/101004/3110/222/20/
048470/20121106/101726/3110/1149/20/
048470/20121106/101745/3115/100/20/
048470/20121106/102248/3115/91/20/
048470/20121106/102348/3110/105/10/
048470/20121106/102544/3110/735/10/
048470/20121106/104131/3105/151/10/
048470/20121106/104131/3100/889/10/
048470/20121106/104909/3100/90/10/
048470/20121106/105045/3100/100/10/
048470/20121106/111254/3100/271/10/
048470/20121106/112319/3100/742/10/
048470/20121106/113401/3095/171/10/
048470/20121106/120647/3100/85/20/
048470/20121106/121118/3095/696/10/
048470/20121106/121148/3095/529/10/
048470/20121106/122014/3090/355/10/
048470/20121106/122810/3095/111/20/
048470/20121106/123544/3090/869/10/
048470/20121106/123544/3085/180/10/
048470/20121106/124159/3095/201/20/
048470/20121106/124616/3090/411/10/
048470/20121106/125440/3090/82/20/
048470/20121106/130709/3090/513/20/
048470/20121106/130815/3095/439/20/
048470/20121106/131057/3090/123/10/
048470/20121106/134707/3090/261/10/
048470/20121106/134723/3090/127/10/
048470/20121106/134818/3095/1000/20/
048470/20121106/134926/3095/109/20/
048470/20121106/134926/3100/150/10/
048470/20121106/135739/3110/87/20/
048470/20121106/135903/3100/206/10/
048470/20121106/140534/3105/120/20/
048470/20121106/140600/3105/100/20/
048470/20121106/140649/3105/2000/20/
048470/20121106/140805/3100/309/20/
048470/20121106/141227/3100/141/20/
048470/20121106/141354/3095/111/10/
048470/20121106/141354/3090/900/10/
048470/20121106/141511/3095/326/10/
048470/20121106/141609/3095/350/10/
048470/20121106/141750/3100/102/20/
048470/20121106/141830/3100/100/20/
048470/20121106/142647/3100/476/20/
048470/20121106/142902/3110/102/20/
048470/20121106/143245/3110/127/20/
048470/20121106/143245/3115/252/20/
048470/20121106/143252/3115/91/10/
048470/20121106/143304/3115/100/10/
048470/20121106/143312/3120/331/20/
048470/20121106/143314/3120/100/10/
048470/20121106/143331/3115/569/10/
048470/20121106/143600/3110/123/10/
048470/20121106/143646/3105/100/10/
048470/20121106/143851/3110/136/20/
048470/20121106/144004/3115/150/20/
048470/20121106/144004/3120/140/20/
048470/20121106/144004/3125/2710/20/
048470/20121106/144206/3120/112/20/
048470/20121106/144206/3125/429/20/
048470/20121106/144617/3120/173/20/
048470/20121106/144958/3110/126/10/
048470/20121106/144958/3105/91/10/
048470/20121106/144958/3100/857/10/
048470/20121106/150000/3140/5213/20/
