048470/20121107/90000/3140/4570/10/
048470/20121107/90106/3150/773/10/
048470/20121107/90106/3145/99/10/
048470/20121107/90137/3150/883/10/
048470/20121107/90140/3150/100/20/
048470/20121107/90306/3140/2000/10/
048470/20121107/91148/3145/244/10/
048470/20121107/91202/3140/541/10/
048470/20121107/91202/3140/451/10/
048470/20121107/91300/3135/111/10/
048470/20121107/91537/3135/82/10/
048470/20121107/92322/3150/178/20/
048470/20121107/92450/3150/200/10/
048470/20121107/92510/3150/91/20/
048470/20121107/92958/3140/100/10/
048470/20121107/93055/3140/200/20/
048470/20121107/93113/3140/298/10/
048470/20121107/93549/3140/204/10/
048470/20121107/93722/3145/142/20/
048470/20121107/93758/3135/1176/10/
048470/20121107/93849/3130/2357/10/
048470/20121107/93902/3130/500/10/
048470/20121107/93907/3130/484/10/
048470/20121107/93952/3125/301/10/
048470/20121107/94027/3125/100/10/
048470/20121107/94157/3125/1000/10/
048470/20121107/94201/3125/100/10/
048470/20121107/94303/3120/974/10/
048470/20121107/94455/3125/128/20/
048470/20121107/94739/3120/142/10/
048470/20121107/94808/3120/100/20/
048470/20121107/94853/3120/95/10/
048470/20121107/95045/3120/363/20/
048470/20121107/95419/3135/121/20/
048470/20121107/95610/3135/429/20/
048470/20121107/95613/3135/591/10/
048470/20121107/95655/3135/171/20/
048470/20121107/95721/3140/111/20/
048470/20121107/95852/3145/803/20/
048470/20121107/95852/3150/737/20/
048470/20121107/95955/3150/363/20/
048470/20121107/100011/3155/245/20/
048470/20121107/100110/3155/88/20/
048470/20121107/100111/3155/962/10/
048470/20121107/100145/3150/1400/10/
048470/20121107/100251/3155/279/20/
048470/20121107/100251/3160/715/20/
048470/20121107/100251/3165/507/20/
048470/20121107/100254/3165/100/20/
048470/20121107/100439/3150/202/10/
048470/20121107/100442/3140/115/10/
048470/20121107/100442/3135/295/10/
048470/20121107/100538/3160/501/20/
048470/20121107/100613/3150/201/20/
048470/20121107/100933/3145/100/10/
048470/20121107/100948/3145/150/10/
048470/20121107/101103/3145/101/10/
048470/20121107/101105/3145/100/10/
048470/20121107/101107/3145/100/10/
048470/20121107/101108/3145/100/10/
048470/20121107/101246/3140/2269/10/
048470/20121107/101311/3140/290/20/
048470/20121107/101525/3140/308/20/
048470/20121107/101530/3145/350/20/
048470/20121107/101619/3160/81/20/
048470/20121107/101958/3160/200/20/
048470/20121107/104150/3140/369/10/
048470/20121107/104333/3140/291/10/
048470/20121107/104353/3140/111/20/
048470/20121107/104359/3135/848/10/
048470/20121107/104408/3135/100/20/
048470/20121107/104427/3130/1500/10/
048470/20121107/104742/3135/101/20/
048470/20121107/104834/3135/100/20/
048470/20121107/105251/3130/1002/10/
048470/20121107/105805/3135/101/20/
048470/20121107/105918/3135/100/20/
048470/20121107/110112/3135/100/20/
048470/20121107/110115/3135/100/20/
048470/20121107/110125/3135/100/20/
048470/20121107/110632/3135/100/20/
048470/20121107/110633/3135/100/20/
048470/20121107/111304/3135/100/10/
048470/20121107/111711/3140/173/20/
048470/20121107/112026/3135/101/20/
048470/20121107/112109/3135/100/20/
048470/20121107/112901/3130/221/10/
048470/20121107/112905/3130/125/10/
048470/20121107/112926/3130/95/10/
048470/20121107/113013/3130/100/20/
048470/20121107/113613/3125/237/10/
048470/20121107/113715/3130/155/10/
048470/20121107/114340/3135/373/20/
048470/20121107/114900/3130/161/10/
048470/20121107/115023/3125/211/10/
048470/20121107/115027/3125/1500/10/
048470/20121107/115052/3125/100/10/
048470/20121107/115108/3125/200/10/
048470/20121107/115120/3125/84/10/
048470/20121107/115529/3120/145/10/
048470/20121107/115625/3120/210/10/
048470/20121107/115630/3120/87/10/
048470/20121107/115700/3120/100/10/
048470/20121107/115824/3120/82/10/
048470/20121107/120135/3120/82/10/
048470/20121107/120141/3120/198/10/
048470/20121107/120225/3120/180/10/
048470/20121107/120422/3120/133/10/
048470/20121107/120519/3120/323/10/
048470/20121107/120614/3120/184/10/
048470/20121107/120659/3120/500/10/
048470/20121107/120746/3120/300/10/
048470/20121107/120815/3120/101/10/
048470/20121107/121200/3120/97/10/
048470/20121107/122117/3120/101/10/
048470/20121107/122318/3120/395/10/
048470/20121107/122355/3115/2001/10/
048470/20121107/122443/3115/1001/10/
048470/20121107/122453/3115/421/10/
048470/20121107/122610/3110/311/10/
048470/20121107/122908/3115/104/20/
048470/20121107/122946/3110/210/10/
048470/20121107/122952/3110/163/10/
048470/20121107/123004/3110/114/10/
048470/20121107/123010/3110/150/10/
048470/20121107/123551/3110/234/10/
048470/20121107/123718/3105/1072/10/
048470/20121107/123754/3100/121/10/
048470/20121107/123820/3100/1000/10/
048470/20121107/123906/3100/108/10/
048470/20121107/123906/3095/1373/10/
048470/20121107/123906/3090/1285/10/
048470/20121107/123912/3090/216/10/
048470/20121107/124801/3100/87/20/
048470/20121107/125058/3105/84/20/
048470/20121107/125454/3100/107/10/
048470/20121107/125950/3090/100/10/
048470/20121107/131746/3095/266/10/
048470/20121107/131746/3090/353/10/
048470/20121107/131940/3090/131/10/
048470/20121107/131940/3085/1738/10/
048470/20121107/132944/3105/254/20/
048470/20121107/133350/3100/450/10/
048470/20121107/133611/3100/102/10/
048470/20121107/133611/3095/1071/10/
048470/20121107/133611/3090/901/10/
048470/20121107/133831/3090/163/10/
048470/20121107/133831/3085/838/10/
048470/20121107/134411/3090/152/10/
048470/20121107/134558/3090/111/20/
048470/20121107/134640/3090/194/20/
048470/20121107/134730/3095/317/20/
048470/20121107/134731/3095/183/20/
048470/20121107/134750/3100/525/20/
048470/20121107/135427/3105/349/20/
048470/20121107/140635/3105/135/20/
048470/20121107/140749/3105/748/20/
048470/20121107/140804/3105/100/10/
048470/20121107/141322/3115/301/20/
048470/20121107/141852/3105/654/10/
048470/20121107/142258/3105/100/10/
048470/20121107/142342/3095/373/10/
048470/20121107/142342/3090/1623/10/
048470/20121107/143710/3095/104/10/
048470/20121107/143846/3105/98/20/
048470/20121107/144005/3095/120/10/
048470/20121107/144031/3090/244/10/
048470/20121107/144120/3090/292/10/
048470/20121107/144459/3090/170/10/
048470/20121107/144639/3095/97/20/
048470/20121107/144808/3090/149/10/
048470/20121107/150000/3055/5999/10/
