048470/20130308/90000/3545/1422/10/
048470/20130308/90001/3550/110/10/
048470/20130308/90242/3550/250/10/
048470/20130308/90259/3550/250/10/
048470/20130308/90344/3555/100/10/
048470/20130308/90429/3555/200/10/
048470/20130308/90550/3555/100/10/
048470/20130308/90604/3550/639/10/
048470/20130308/90622/3545/134/10/
048470/20130308/90627/3540/1017/10/
048470/20130308/90657/3545/100/10/
048470/20130308/90848/3540/1196/10/
048470/20130308/90916/3535/130/10/
048470/20130308/90929/3535/141/20/
048470/20130308/90932/3535/141/20/
048470/20130308/91021/3525/199/10/
048470/20130308/91048/3530/210/20/
048470/20130308/91111/3525/109/10/
048470/20130308/91111/3520/604/10/
048470/20130308/91111/3515/504/10/
048470/20130308/91116/3515/1871/20/
048470/20130308/91143/3520/101/10/
048470/20130308/91143/3515/1018/10/
048470/20130308/91252/3520/700/10/
048470/20130308/91308/3520/300/20/
048470/20130308/91326/3520/301/10/
048470/20130308/91326/3515/2211/10/
048470/20130308/91326/3510/1141/10/
048470/20130308/91326/3505/2670/10/
048470/20130308/91326/3500/1481/10/
048470/20130308/91417/3505/1009/10/
048470/20130308/91611/3510/512/10/
048470/20130308/91639/3505/356/10/
048470/20130308/91651/3500/500/10/
048470/20130308/91659/3500/600/10/
048470/20130308/91707/3500/300/10/
048470/20130308/91716/3500/5365/10/
048470/20130308/91716/3500/3261/10/
048470/20130308/91721/3495/703/10/
048470/20130308/91731/3495/230/10/
048470/20130308/91732/3490/200/10/
048470/20130308/91737/3495/280/20/
048470/20130308/91741/3495/100/20/
048470/20130308/91754/3495/200/20/
048470/20130308/91758/3495/474/20/
048470/20130308/91810/3495/230/20/
048470/20130308/91816/3495/143/20/
048470/20130308/91828/3495/188/20/
048470/20130308/91830/3495/500/20/
048470/20130308/91831/3495/99/20/
048470/20130308/91914/3500/762/20/
048470/20130308/91922/3500/200/20/
048470/20130308/91923/3500/100/20/
048470/20130308/91937/3500/510/20/
048470/20130308/91940/3500/161/20/
048470/20130308/92021/3500/152/10/
048470/20130308/92028/3500/988/10/
048470/20130308/92031/3500/520/20/
048470/20130308/92153/3510/132/20/
048470/20130308/92207/3510/100/20/
048470/20130308/92218/3510/191/20/
048470/20130308/92233/3505/83/10/
048470/20130308/92325/3500/639/10/
048470/20130308/92325/3495/1649/10/
048470/20130308/92345/3495/1978/20/
048470/20130308/92346/3490/200/10/
048470/20130308/92459/3490/100/10/
048470/20130308/92525/3490/948/10/
048470/20130308/93044/3500/750/10/
048470/20130308/93044/3495/304/10/
048470/20130308/93206/3505/120/20/
048470/20130308/93238/3505/432/20/
048470/20130308/93245/3505/197/20/
048470/20130308/93245/3510/803/20/
048470/20130308/93259/3510/340/20/
048470/20130308/93329/3510/150/20/
048470/20130308/93337/3510/207/20/
048470/20130308/93445/3515/100/20/
048470/20130308/93452/3510/400/10/
048470/20130308/93452/3495/1000/10/
048470/20130308/93501/3490/504/10/
048470/20130308/93603/3520/600/20/
048470/20130308/93620/3520/247/10/
048470/20130308/93704/3505/1000/10/
048470/20130308/93738/3505/200/10/
048470/20130308/93932/3530/500/20/
048470/20130308/94011/3530/1834/20/
048470/20130308/94057/3535/900/20/
048470/20130308/94259/3545/149/20/
048470/20130308/94310/3550/199/20/
048470/20130308/94424/3550/250/20/
048470/20130308/94432/3555/100/20/
048470/20130308/94514/3555/509/10/
048470/20130308/94521/3555/1405/10/
048470/20130308/94541/3550/148/20/
048470/20130308/94541/3555/1165/20/
048470/20130308/94733/3570/90/20/
048470/20130308/94754/3570/776/20/
048470/20130308/94757/3570/429/10/
048470/20130308/94850/3570/2000/20/
048470/20130308/95026/3575/635/20/
048470/20130308/95035/3575/1099/20/
048470/20130308/95049/3575/308/20/
048470/20130308/95053/3575/1500/10/
048470/20130308/95053/3575/477/10/
048470/20130308/95140/3560/240/10/
048470/20130308/95203/3560/500/10/
048470/20130308/95208/3560/100/10/
048470/20130308/95218/3560/210/10/
048470/20130308/95501/3545/95/10/
048470/20130308/95542/3535/131/10/
048470/20130308/100037/3540/520/10/
048470/20130308/100134/3535/590/10/
048470/20130308/100139/3540/228/10/
048470/20130308/100139/3535/906/10/
048470/20130308/100139/3530/1985/10/
048470/20130308/100417/3540/101/20/
048470/20130308/100617/3540/82/20/
048470/20130308/100927/3535/472/10/
048470/20130308/101642/3540/131/20/
048470/20130308/101649/3540/138/20/
048470/20130308/101724/3540/268/10/
048470/20130308/102104/3545/181/20/
048470/20130308/102137/3545/350/20/
048470/20130308/102332/3545/277/20/
048470/20130308/102332/3550/623/20/
048470/20130308/102424/3550/82/10/
048470/20130308/102630/3550/665/20/
048470/20130308/102848/3540/2500/10/
048470/20130308/103028/3540/135/20/
048470/20130308/103200/3535/2000/10/
048470/20130308/103436/3540/1000/20/
048470/20130308/105237/3550/478/20/
048470/20130308/105300/3550/122/10/
048470/20130308/105317/3550/478/10/
048470/20130308/105344/3540/500/10/
048470/20130308/105503/3540/996/10/
048470/20130308/105503/3535/1026/10/
048470/20130308/105527/3535/254/10/
048470/20130308/105527/3530/1055/10/
048470/20130308/105527/3530/1478/20/
048470/20130308/105616/3530/900/10/
048470/20130308/105616/3525/671/10/
048470/20130308/105616/3525/429/20/
048470/20130308/105815/3520/201/10/
048470/20130308/110146/3545/480/20/
048470/20130308/110221/3545/123/20/
048470/20130308/110432/3540/551/10/
048470/20130308/110432/3535/450/10/
048470/20130308/111225/3535/385/10/
048470/20130308/111412/3535/442/20/
048470/20130308/112131/3540/165/20/
048470/20130308/112331/3535/518/10/
048470/20130308/112331/3530/384/10/
048470/20130308/113319/3540/201/10/
048470/20130308/113616/3540/644/10/
048470/20130308/114215/3530/1203/10/
048470/20130308/114425/3530/1855/10/
048470/20130308/114514/3530/7000/10/
048470/20130308/115305/3535/626/10/
048470/20130308/115408/3530/874/10/
048470/20130308/120117/3535/144/20/
048470/20130308/120503/3530/561/10/
048470/20130308/120559/3535/280/20/
048470/20130308/121855/3535/451/10/
048470/20130308/122007/3535/741/10/
048470/20130308/122823/3535/821/10/
048470/20130308/124524/3535/100/20/
048470/20130308/124603/3535/169/20/
048470/20130308/124821/3535/145/20/
048470/20130308/124901/3535/200/20/
048470/20130308/124957/3535/120/20/
048470/20130308/125119/3535/81/20/
048470/20130308/125148/3535/354/20/
048470/20130308/125834/3530/573/10/
048470/20130308/125923/3530/1274/20/
048470/20130308/130036/3530/150/20/
048470/20130308/130135/3530/120/20/
048470/20130308/130256/3525/201/10/
048470/20130308/130256/3520/1067/10/
048470/20130308/130256/3515/1132/10/
048470/20130308/130256/3510/1210/10/
048470/20130308/130256/3505/3155/10/
048470/20130308/130256/3500/1235/10/
048470/20130308/130534/3510/530/10/
048470/20130308/130651/3510/522/20/
048470/20130308/130708/3510/437/20/
048470/20130308/131551/3525/586/20/
048470/20130308/131750/3525/98/20/
048470/20130308/131750/3530/152/20/
048470/20130308/132117/3530/2000/20/
048470/20130308/132259/3530/352/20/
048470/20130308/132513/3535/1541/20/
048470/20130308/132515/3540/200/20/
048470/20130308/132537/3540/120/20/
048470/20130308/132847/3535/131/10/
048470/20130308/132948/3535/100/10/
048470/20130308/133523/3540/833/20/
048470/20130308/133530/3540/336/20/
048470/20130308/133550/3540/552/20/
048470/20130308/133623/3545/111/20/
048470/20130308/133637/3545/123/20/
048470/20130308/133739/3545/100/20/
048470/20130308/134218/3540/314/10/
048470/20130308/134218/3535/1239/10/
048470/20130308/134537/3535/514/20/
048470/20130308/134537/3545/86/20/
048470/20130308/134649/3540/300/10/
048470/20130308/134926/3540/500/20/
048470/20130308/134926/3535/304/10/
048470/20130308/134939/3540/161/20/
048470/20130308/135112/3545/88/20/
048470/20130308/135152/3545/330/20/
048470/20130308/135326/3545/120/10/
048470/20130308/135336/3550/100/20/
048470/20130308/135545/3545/150/10/
048470/20130308/135614/3545/193/20/
048470/20130308/135644/3540/507/10/
048470/20130308/135644/3535/2260/10/
048470/20130308/135656/3530/4525/10/
048470/20130308/135819/3530/1075/10/
048470/20130308/135950/3525/101/10/
048470/20130308/140032/3545/301/20/
048470/20130308/140136/3525/1070/10/
048470/20130308/140136/3520/630/10/
048470/20130308/140422/3520/705/10/
048470/20130308/140422/3515/1591/10/
048470/20130308/140422/3510/2564/10/
048470/20130308/141227/3510/800/10/
048470/20130308/141322/3515/160/10/
048470/20130308/141529/3510/1000/10/
048470/20130308/141638/3510/680/10/
048470/20130308/141812/3510/244/20/
048470/20130308/141822/3510/100/20/
048470/20130308/141845/3510/1120/20/
048470/20130308/141848/3510/510/20/
048470/20130308/142105/3525/800/20/
048470/20130308/142404/3530/2600/20/
048470/20130308/142553/3530/798/10/
048470/20130308/142553/3525/198/10/
048470/20130308/142553/3515/230/10/
048470/20130308/142553/3510/224/10/
048470/20130308/142737/3540/801/20/
048470/20130308/142756/3540/460/10/
048470/20130308/142836/3540/129/20/
048470/20130308/142839/3540/530/20/
048470/20130308/143040/3540/491/10/
048470/20130308/143139/3540/229/10/
048470/20130308/143141/3540/282/10/
048470/20130308/143252/3535/530/10/
048470/20130308/143539/3540/131/20/
048470/20130308/143636/3545/180/20/
048470/20130308/143645/3540/474/10/
048470/20130308/143854/3540/107/10/
048470/20130308/143933/3540/980/10/
048470/20130308/144115/3545/616/20/
048470/20130308/144248/3540/1401/10/
048470/20130308/144259/3540/734/10/
048470/20130308/144347/3550/1651/20/
048470/20130308/144426/3550/113/10/
048470/20130308/144435/3550/100/10/
048470/20130308/144443/3555/201/20/
048470/20130308/144510/3560/1169/20/
048470/20130308/144521/3560/100/10/
048470/20130308/144557/3565/1403/20/
048470/20130308/144603/3565/215/20/
048470/20130308/144615/3565/222/20/
048470/20130308/144625/3565/214/20/
048470/20130308/144629/3565/100/20/
048470/20130308/144651/3560/102/10/
048470/20130308/144709/3560/251/10/
048470/20130308/144736/3560/524/10/
048470/20130308/144755/3560/1028/20/
048470/20130308/144800/3560/100/10/
048470/20130308/144915/3560/112/20/
048470/20130308/144941/3565/152/20/
048470/20130308/144956/3560/100/10/
048470/20130308/150000/3560/8538/20/
