048470/20130128/90000/3475/7679/10/
048470/20130128/90008/3480/240/10/
048470/20130128/90017/3480/228/10/
048470/20130128/90041/3490/1384/20/
048470/20130128/90053/3480/300/10/
048470/20130128/90101/3480/2232/10/
048470/20130128/90108/3480/116/20/
048470/20130128/90119/3480/1000/20/
048470/20130128/90125/3480/500/20/
048470/20130128/90125/3480/240/20/
048470/20130128/90127/3480/100/20/
048470/20130128/90130/3475/907/10/
048470/20130128/90146/3475/104/20/
048470/20130128/90148/3480/1000/20/
048470/20130128/90150/3475/116/10/
048470/20130128/90157/3470/7500/10/
048470/20130128/90159/3470/7000/10/
048470/20130128/90203/3470/881/10/
048470/20130128/90208/3470/1000/10/
048470/20130128/90209/3470/2000/10/
048470/20130128/90210/3470/5400/10/
048470/20130128/90212/3470/4402/10/
048470/20130128/90213/3470/2387/10/
048470/20130128/90214/3465/971/10/
048470/20130128/90220/3470/300/20/
048470/20130128/90255/3470/584/20/
048470/20130128/90255/3470/316/20/
048470/20130128/90255/3460/950/10/
048470/20130128/90310/3460/535/20/
048470/20130128/90334/3465/127/20/
048470/20130128/90347/3465/184/10/
048470/20130128/90352/3465/674/20/
048470/20130128/90415/3465/300/10/
048470/20130128/90416/3460/1639/10/
048470/20130128/90422/3460/100/20/
048470/20130128/90435/3460/500/20/
048470/20130128/90451/3460/218/20/
048470/20130128/90459/3460/200/20/
048470/20130128/90501/3460/100/20/
048470/20130128/90506/3455/700/10/
048470/20130128/90507/3455/3610/10/
048470/20130128/90526/3455/789/10/
048470/20130128/90526/3450/4421/10/
048470/20130128/90530/3450/1000/10/
048470/20130128/90534/3450/177/10/
048470/20130128/90535/3450/116/10/
048470/20130128/90545/3460/100/20/
048470/20130128/90547/3450/3000/10/
048470/20130128/90554/3450/1212/10/
048470/20130128/90556/3455/100/10/
048470/20130128/90556/3450/620/10/
048470/20130128/90601/3450/1000/10/
048470/20130128/90608/3450/3000/10/
048470/20130128/90608/3450/1000/10/
048470/20130128/90610/3450/201/10/
048470/20130128/90611/3450/360/10/
048470/20130128/90620/3460/1000/20/
048470/20130128/90623/3450/2071/10/
048470/20130128/90626/3450/1200/10/
048470/20130128/90629/3450/1000/10/
048470/20130128/90705/3450/1010/10/
048470/20130128/90706/3450/120/10/
048470/20130128/90718/3450/300/10/
048470/20130128/90731/3450/102/10/
048470/20130128/90749/3455/490/20/
048470/20130128/90811/3455/335/10/
048470/20130128/90812/3460/382/20/
048470/20130128/90829/3455/290/10/
048470/20130128/90832/3470/488/20/
048470/20130128/90834/3450/200/10/
048470/20130128/90837/3470/784/20/
048470/20130128/90837/3475/216/20/
048470/20130128/90846/3450/589/10/
048470/20130128/90943/3450/511/10/
048470/20130128/90949/3450/128/10/
048470/20130128/91013/3460/200/10/
048470/20130128/91013/3450/215/10/
048470/20130128/91023/3450/1510/10/
048470/20130128/91048/3455/216/10/
048470/20130128/91130/3455/400/10/
048470/20130128/91159/3455/200/10/
048470/20130128/91216/3470/207/20/
048470/20130128/91314/3455/300/10/
048470/20130128/91402/3455/2147/10/
048470/20130128/91402/3450/953/10/
048470/20130128/91443/3455/1304/10/
048470/20130128/91443/3450/776/10/
048470/20130128/91453/3450/4954/10/
048470/20130128/91557/3455/1010/10/
048470/20130128/91557/3450/8400/10/
048470/20130128/91600/3450/1000/10/
048470/20130128/91611/3450/3220/10/
048470/20130128/91714/3450/100/10/
048470/20130128/91722/3450/447/10/
048470/20130128/91800/3445/196/10/
048470/20130128/91809/3445/650/10/
048470/20130128/91836/3445/5035/10/
048470/20130128/91837/3445/100/10/
048470/20130128/91848/3445/385/10/
048470/20130128/91856/3445/240/10/
048470/20130128/91946/3445/650/10/
048470/20130128/91955/3445/250/10/
048470/20130128/91957/3445/659/10/
048470/20130128/92010/3445/1000/10/
048470/20130128/92016/3445/1470/10/
048470/20130128/92038/3445/1200/10/
048470/20130128/92054/3445/930/10/
048470/20130128/92120/3445/100/20/
048470/20130128/92122/3440/90/10/
048470/20130128/92204/3440/87/10/
048470/20130128/92244/3445/2010/20/
048470/20130128/92254/3440/3000/10/
048470/20130128/92304/3440/301/10/
048470/20130128/92320/3440/201/10/
048470/20130128/92351/3440/1000/10/
048470/20130128/92358/3440/419/10/
048470/20130128/92358/3435/581/10/
048470/20130128/92405/3435/998/10/
048470/20130128/92417/3435/81/10/
048470/20130128/92419/3430/930/10/
048470/20130128/92427/3430/220/10/
048470/20130128/92433/3430/100/10/
048470/20130128/92435/3430/2286/10/
048470/20130128/92440/3420/442/10/
048470/20130128/92454/3420/274/10/
048470/20130128/92502/3410/324/10/
048470/20130128/92511/3410/200/10/
048470/20130128/92513/3410/600/10/
048470/20130128/92524/3410/119/10/
048470/20130128/92524/3405/231/10/
048470/20130128/92537/3405/123/10/
048470/20130128/92602/3405/230/10/
048470/20130128/92612/3410/100/20/
048470/20130128/92612/3410/100/20/
048470/20130128/92616/3405/1164/10/
048470/20130128/92616/3400/3672/10/
048470/20130128/92628/3400/230/10/
048470/20130128/92636/3390/699/10/
048470/20130128/92636/3385/100/10/
048470/20130128/92636/3380/151/10/
048470/20130128/92636/3375/248/10/
048470/20130128/92636/3370/500/10/
048470/20130128/92636/3360/480/10/
048470/20130128/92654/3370/117/10/
048470/20130128/92701/3360/131/10/
048470/20130128/92715/3365/152/10/
048470/20130128/92721/3365/560/10/
048470/20130128/92721/3360/481/10/
048470/20130128/92735/3360/240/10/
048470/20130128/92736/3360/200/10/
048470/20130128/92759/3370/236/20/
048470/20130128/92800/3370/334/10/
048470/20130128/92800/3365/906/10/
048470/20130128/92817/3370/210/10/
048470/20130128/92833/3370/548/10/
048470/20130128/92929/3390/122/20/
048470/20130128/93018/3390/100/10/
048470/20130128/93027/3390/550/20/
048470/20130128/93031/3395/148/20/
048470/20130128/93038/3395/100/20/
048470/20130128/93042/3395/618/20/
048470/20130128/93054/3400/1002/20/
048470/20130128/93057/3400/1047/20/
048470/20130128/93058/3400/500/20/
048470/20130128/93154/3400/530/10/
048470/20130128/93234/3400/519/20/
048470/20130128/93250/3410/2012/20/
048470/20130128/93412/3415/138/20/
048470/20130128/93420/3420/150/20/
048470/20130128/93420/3435/1850/20/
048470/20130128/93433/3435/100/20/
048470/20130128/93504/3435/108/20/
048470/20130128/93525/3435/150/20/
048470/20130128/93605/3435/1044/20/
048470/20130128/93620/3435/130/10/
048470/20130128/93634/3435/355/10/
048470/20130128/93659/3435/100/20/
048470/20130128/93714/3430/344/20/
048470/20130128/93722/3420/800/10/
048470/20130128/93742/3420/102/10/
048470/20130128/93954/3420/308/10/
048470/20130128/94042/3420/192/20/
048470/20130128/94400/3415/130/10/
048470/20130128/94400/3410/138/10/
048470/20130128/94513/3410/562/10/
048470/20130128/94633/3415/101/20/
048470/20130128/94638/3410/776/10/
048470/20130128/94638/3405/524/10/
048470/20130128/94903/3420/350/20/
048470/20130128/94922/3410/220/10/
048470/20130128/94942/3410/1324/10/
048470/20130128/94950/3405/409/10/
048470/20130128/95015/3405/90/10/
048470/20130128/95031/3410/200/20/
048470/20130128/95134/3420/107/20/
048470/20130128/95303/3410/1954/10/
048470/20130128/95329/3405/1380/10/
048470/20130128/95529/3425/1646/20/
048470/20130128/95645/3430/264/20/
048470/20130128/95757/3425/484/10/
048470/20130128/95757/3415/175/10/
048470/20130128/95757/3410/804/10/
048470/20130128/100052/3425/101/20/
048470/20130128/100450/3430/102/20/
048470/20130128/100545/3430/902/20/
048470/20130128/100627/3435/123/20/
048470/20130128/100704/3435/82/20/
048470/20130128/100746/3430/721/10/
048470/20130128/100746/3410/768/10/
048470/20130128/100936/3420/1961/10/
048470/20130128/101038/3420/217/20/
048470/20130128/101155/3420/100/20/
048470/20130128/101238/3415/2032/10/
048470/20130128/101256/3415/200/10/
048470/20130128/101302/3415/312/10/
048470/20130128/101302/3415/688/20/
048470/20130128/101307/3410/2000/10/
048470/20130128/101333/3410/1512/10/
048470/20130128/101333/3405/387/10/
048470/20130128/101400/3405/500/10/
048470/20130128/101405/3405/796/10/
048470/20130128/101406/3405/140/20/
048470/20130128/101441/3405/164/10/
048470/20130128/101441/3400/1000/10/
048470/20130128/101508/3405/100/10/
048470/20130128/101508/3400/676/10/
048470/20130128/101516/3400/300/10/
048470/20130128/101522/3400/1000/10/
048470/20130128/101639/3405/306/10/
048470/20130128/101945/3410/123/10/
048470/20130128/101945/3405/191/10/
048470/20130128/102209/3405/501/10/
048470/20130128/102227/3425/158/20/
048470/20130128/102254/3405/2000/10/
048470/20130128/102331/3405/228/10/
048470/20130128/102331/3400/207/10/
048470/20130128/102455/3405/283/10/
048470/20130128/102455/3400/2219/10/
048470/20130128/102625/3410/201/10/
048470/20130128/102625/3400/181/10/
048470/20130128/102651/3400/320/10/
048470/20130128/102709/3400/295/10/
048470/20130128/102729/3400/101/10/
048470/20130128/102754/3400/1157/10/
048470/20130128/102912/3395/770/10/
048470/20130128/104025/3415/120/20/
048470/20130128/104139/3405/352/10/
048470/20130128/104140/3405/170/20/
048470/20130128/104430/3405/174/10/
048470/20130128/104430/3400/889/10/
048470/20130128/104540/3400/300/10/
048470/20130128/104823/3400/200/10/
048470/20130128/105207/3415/643/20/
048470/20130128/105339/3415/90/20/
048470/20130128/105400/3415/393/20/
048470/20130128/105441/3420/237/20/
048470/20130128/105512/3420/280/10/
048470/20130128/105520/3420/100/10/
048470/20130128/110348/3410/126/10/
048470/20130128/110515/3420/100/20/
048470/20130128/110614/3410/500/10/
048470/20130128/110718/3425/92/20/
048470/20130128/110844/3410/340/10/
048470/20130128/110859/3410/105/20/
048470/20130128/110954/3410/250/10/
048470/20130128/110954/3405/1802/10/
048470/20130128/111055/3405/151/10/
048470/20130128/111055/3400/1762/10/
048470/20130128/111543/3400/1702/10/
048470/20130128/112007/3405/1321/10/
048470/20130128/112007/3400/1184/10/
048470/20130128/112246/3420/2001/20/
048470/20130128/112838/3405/1000/10/
048470/20130128/112931/3405/400/10/
048470/20130128/113149/3405/81/10/
048470/20130128/113149/3400/219/10/
048470/20130128/113230/3410/87/20/
048470/20130128/113302/3400/200/10/
048470/20130128/113430/3400/315/10/
048470/20130128/113436/3400/700/10/
048470/20130128/113541/3400/490/10/
048470/20130128/114358/3410/301/20/
048470/20130128/114446/3405/423/10/
048470/20130128/114446/3400/1472/10/
048470/20130128/114538/3400/2163/10/
048470/20130128/114811/3400/555/10/
048470/20130128/114945/3405/115/10/
048470/20130128/114945/3400/440/10/
048470/20130128/114950/3400/130/10/
048470/20130128/115026/3400/109/20/
048470/20130128/115041/3400/261/20/
048470/20130128/120127/3410/499/20/
048470/20130128/120204/3410/1293/20/
048470/20130128/120504/3415/141/20/
048470/20130128/120827/3415/402/20/
048470/20130128/120907/3410/2002/10/
048470/20130128/121017/3410/100/10/
048470/20130128/121152/3410/100/10/
048470/20130128/121611/3415/130/20/
048470/20130128/121647/3415/100/20/
048470/20130128/121710/3415/141/20/
048470/20130128/122524/3415/924/10/
048470/20130128/123240/3410/252/10/
048470/20130128/123248/3405/111/10/
048470/20130128/123501/3410/214/20/
048470/20130128/123551/3405/979/10/
048470/20130128/123757/3405/616/10/
048470/20130128/123757/3400/570/10/
048470/20130128/123852/3400/84/10/
048470/20130128/124129/3405/351/20/
048470/20130128/124220/3410/800/20/
048470/20130128/124246/3410/560/20/
048470/20130128/124937/3415/193/20/
048470/20130128/125005/3415/100/20/
048470/20130128/125015/3415/170/20/
048470/20130128/125057/3420/4000/20/
048470/20130128/125111/3420/104/20/
048470/20130128/125224/3420/90/10/
048470/20130128/125516/3425/2340/20/
048470/20130128/125516/3430/1700/20/
048470/20130128/125713/3430/500/20/
048470/20130128/125713/3435/435/20/
048470/20130128/125849/3435/1000/20/
048470/20130128/125849/3440/2003/20/
048470/20130128/130155/3440/100/20/
048470/20130128/130537/3440/2060/20/
048470/20130128/130923/3440/161/20/
048470/20130128/131010/3430/223/10/
048470/20130128/131106/3430/100/10/
048470/20130128/131123/3440/252/20/
048470/20130128/131445/3440/325/20/
048470/20130128/131445/3445/700/20/
048470/20130128/132129/3440/147/20/
048470/20130128/132157/3440/1502/10/
048470/20130128/132204/3440/376/10/
048470/20130128/132343/3440/200/20/
048470/20130128/132403/3440/573/20/
048470/20130128/132409/3440/100/10/
048470/20130128/132432/3440/840/10/
048470/20130128/132436/3440/218/10/
048470/20130128/132606/3440/211/10/
048470/20130128/132807/3445/2010/20/
048470/20130128/132807/3445/1084/20/
048470/20130128/132811/3450/2000/20/
048470/20130128/132811/3450/2000/20/
048470/20130128/132812/3450/907/20/
048470/20130128/132818/3455/2000/20/
048470/20130128/132818/3455/2183/20/
048470/20130128/132932/3465/470/20/
048470/20130128/132948/3470/1893/20/
048470/20130128/132956/3470/100/10/
048470/20130128/133035/3470/100/20/
048470/20130128/133035/3475/1908/20/
048470/20130128/133037/3475/876/20/
048470/20130128/133037/3480/1180/20/
048470/20130128/133056/3485/3000/20/
048470/20130128/133056/3485/1100/20/
048470/20130128/133215/3495/2650/20/
048470/20130128/133219/3500/961/20/
048470/20130128/133246/3500/159/20/
048470/20130128/133253/3500/510/10/
048470/20130128/133257/3500/100/10/
048470/20130128/133428/3500/89/10/
048470/20130128/133452/3500/100/10/
048470/20130128/133601/3505/108/20/
048470/20130128/133612/3505/739/20/
048470/20130128/133612/3510/1261/20/
048470/20130128/133624/3515/939/20/
048470/20130128/133645/3515/185/10/
048470/20130128/133718/3515/300/20/
048470/20130128/133735/3515/300/10/
048470/20130128/133916/3505/243/10/
048470/20130128/133933/3500/100/10/
048470/20130128/133936/3500/352/10/
048470/20130128/133956/3495/1218/10/
048470/20130128/133956/3490/2002/10/
048470/20130128/134006/3485/300/10/
048470/20130128/134314/3485/125/10/
048470/20130128/134447/3500/1020/20/
048470/20130128/134627/3485/100/10/
048470/20130128/135606/3500/2950/20/
048470/20130128/135639/3500/81/10/
048470/20130128/135709/3485/597/10/
048470/20130128/135709/3480/403/10/
048470/20130128/135717/3500/936/20/
048470/20130128/140002/3500/103/10/
048470/20130128/140047/3500/680/10/
048470/20130128/140051/3500/281/10/
048470/20130128/140940/3485/101/10/
048470/20130128/141143/3485/200/10/
048470/20130128/141152/3485/938/10/
048470/20130128/141211/3485/100/10/
048470/20130128/141235/3485/95/10/
048470/20130128/141627/3480/538/10/
048470/20130128/142119/3485/103/20/
048470/20130128/142125/3485/100/20/
048470/20130128/142201/3485/100/20/
048470/20130128/142321/3480/718/10/
048470/20130128/142331/3480/252/10/
048470/20130128/142355/3485/179/20/
048470/20130128/142355/3490/749/20/
048470/20130128/142454/3480/202/10/
048470/20130128/142952/3470/100/10/
048470/20130128/142952/3465/263/10/
048470/20130128/142952/3460/1064/10/
048470/20130128/142952/3455/1353/10/
048470/20130128/142952/3450/543/10/
048470/20130128/142952/3440/1286/20/
048470/20130128/143208/3460/300/10/
048470/20130128/143208/3455/617/10/
048470/20130128/143303/3480/300/20/
048470/20130128/143303/3485/434/20/
048470/20130128/143303/3490/266/20/
048470/20130128/143331/3490/398/20/
048470/20130128/143331/3495/1602/20/
048470/20130128/143342/3495/1000/20/
048470/20130128/143627/3475/132/10/
048470/20130128/143627/3470/98/10/
048470/20130128/143628/3490/100/20/
048470/20130128/143852/3470/341/10/
048470/20130128/144127/3490/443/20/
048470/20130128/144127/3495/1084/20/
048470/20130128/144303/3495/134/20/
048470/20130128/144455/3480/380/10/
048470/20130128/144457/3480/120/10/
048470/20130128/144517/3480/300/20/
048470/20130128/144525/3480/413/20/
048470/20130128/144532/3480/1652/20/
048470/20130128/144740/3495/300/20/
048470/20130128/144840/3490/102/20/
048470/20130128/144840/3495/530/20/
048470/20130128/144925/3495/115/10/
048470/20130128/144943/3495/200/10/
048470/20130128/144949/3500/897/20/
048470/20130128/144956/3500/500/20/
048470/20130128/150000/3515/17377/10/
