048470/20121121/90000/2930/1000/20/
048470/20121121/90019/2930/380/20/
048470/20121121/90022/2930/200/10/
048470/20121121/90026/2930/200/10/
048470/20121121/90110/2930/220/20/
048470/20121121/90110/2945/119/20/
048470/20121121/90515/2925/1001/20/
048470/20121121/90521/2925/100/20/
048470/20121121/90525/2920/100/20/
048470/20121121/90546/2920/100/20/
048470/20121121/90548/2925/1000/20/
048470/20121121/90758/2910/219/10/
048470/20121121/91105/2910/205/10/
048470/20121121/91110/2910/205/10/
048470/20121121/91117/2910/90/10/
048470/20121121/91121/2905/205/10/
048470/20121121/91129/2905/102/10/
048470/20121121/91130/2905/102/10/
048470/20121121/91200/2905/100/10/
048470/20121121/91234/2905/200/10/
048470/20121121/91455/2905/100/10/
048470/20121121/91639/2910/118/10/
048470/20121121/91653/2905/409/10/
048470/20121121/91901/2905/200/20/
048470/20121121/91950/2905/3000/20/
048470/20121121/91955/2905/757/20/
048470/20121121/94628/2915/101/10/
048470/20121121/95733/2910/235/10/
048470/20121121/100452/2910/234/20/
048470/20121121/100452/2920/473/20/
048470/20121121/100452/2925/170/20/
048470/20121121/101150/2925/138/20/
048470/20121121/101201/2930/100/20/
048470/20121121/101353/2925/2862/10/
048470/20121121/101554/2925/158/20/
048470/20121121/102123/2925/228/20/
048470/20121121/102202/2925/200/10/
048470/20121121/102358/2930/100/20/
048470/20121121/103913/2935/1023/20/
048470/20121121/104126/2935/400/20/
048470/20121121/104422/2930/127/10/
048470/20121121/104500/2935/99/20/
048470/20121121/104839/2935/400/10/
048470/20121121/105453/2930/934/10/
048470/20121121/110147/2925/515/10/
048470/20121121/110211/2925/500/10/
048470/20121121/110231/2925/120/10/
048470/20121121/112326/2925/580/10/
048470/20121121/112447/2925/351/10/
048470/20121121/112825/2925/101/10/
048470/20121121/113141/2925/501/10/
048470/20121121/114045/2910/130/10/
048470/20121121/121712/2910/253/10/
048470/20121121/121747/2905/249/10/
048470/20121121/123312/2910/268/10/
048470/20121121/123537/2905/330/10/
048470/20121121/123918/2900/1401/10/
048470/20121121/123948/2900/744/10/
048470/20121121/124106/2885/246/10/
048470/20121121/124106/2880/1754/10/
048470/20121121/124353/2885/201/10/
048470/20121121/124353/2880/1725/10/
048470/20121121/124400/2875/121/10/
048470/20121121/124440/2880/100/20/
048470/20121121/124443/2880/100/20/
048470/20121121/124448/2880/100/20/
048470/20121121/124451/2880/100/20/
048470/20121121/124454/2880/100/20/
048470/20121121/124457/2875/111/10/
048470/20121121/124459/2880/100/20/
048470/20121121/124742/2880/210/20/
048470/20121121/125732/2875/1550/10/
048470/20121121/125742/2875/1200/10/
048470/20121121/125830/2875/664/10/
048470/20121121/125830/2860/236/10/
048470/20121121/130220/2865/101/20/
048470/20121121/130249/2865/170/20/
048470/20121121/130427/2865/90/10/
048470/20121121/130633/2880/200/20/
048470/20121121/130919/2860/1130/10/
048470/20121121/130919/2855/280/10/
048470/20121121/130925/2855/307/10/
048470/20121121/130938/2855/100/20/
048470/20121121/131251/2860/88/10/
048470/20121121/131256/2855/118/10/
048470/20121121/131538/2855/177/10/
048470/20121121/131628/2850/520/10/
048470/20121121/131705/2850/156/10/
048470/20121121/131716/2845/82/10/
048470/20121121/131720/2845/510/10/
048470/20121121/131908/2845/254/10/
048470/20121121/131908/2840/749/10/
048470/20121121/132045/2840/139/20/
048470/20121121/133503/2850/274/20/
048470/20121121/133646/2855/663/20/
048470/20121121/133724/2875/300/20/
048470/20121121/134454/2875/108/20/
048470/20121121/140630/2875/120/20/
048470/20121121/140833/2865/210/10/
048470/20121121/140833/2855/110/10/
048470/20121121/140833/2845/302/10/
048470/20121121/140833/2840/1418/10/
048470/20121121/142058/2855/81/10/
048470/20121121/142302/2855/142/10/
048470/20121121/142333/2870/472/20/
048470/20121121/142333/2880/928/20/
048470/20121121/142721/2875/600/20/
048470/20121121/143252/2875/216/20/
048470/20121121/143254/2875/100/20/
048470/20121121/144954/2875/336/20/
048470/20121121/150000/2875/293/10/
