012160/20130206/90000/1650/9470/10/
012160/20130206/90025/1660/100/20/
012160/20130206/90031/1660/1160/20/
012160/20130206/90037/1660/2000/20/
012160/20130206/90141/1660/140/20/
012160/20130206/90201/1660/1010/10/
012160/20130206/90203/1660/100/20/
012160/20130206/90203/1660/700/10/
012160/20130206/90216/1665/160/20/
012160/20130206/90249/1660/380/20/
012160/20130206/90613/1655/400/10/
012160/20130206/90718/1655/1610/20/
012160/20130206/91150/1655/90/10/
012160/20130206/91219/1655/1640/10/
012160/20130206/91224/1655/190/10/
012160/20130206/91235/1650/3000/10/
012160/20130206/91311/1650/830/10/
012160/20130206/91408/1650/840/20/
012160/20130206/91408/1650/1360/20/
012160/20130206/91513/1650/1780/10/
012160/20130206/91513/1645/2570/10/
012160/20130206/91551/1655/2500/20/
012160/20130206/91609/1660/3000/20/
012160/20130206/91647/1660/3000/20/
012160/20130206/91729/1660/1030/10/
012160/20130206/91744/1660/2000/10/
012160/20130206/91837/1655/2020/10/
012160/20130206/91909/1650/1100/10/
012160/20130206/92053/1655/110/10/
012160/20130206/92312/1655/90/10/
012160/20130206/92650/1660/760/20/
012160/20130206/92743/1660/3220/20/
012160/20130206/92802/1665/3130/20/
012160/20130206/92802/1670/830/20/
012160/20130206/92912/1660/150/10/
012160/20130206/93142/1665/3720/20/
012160/20130206/93429/1665/510/20/
012160/20130206/94046/1665/420/20/
012160/20130206/94111/1665/580/20/
012160/20130206/94443/1660/140/10/
012160/20130206/94715/1655/180/20/
012160/20130206/95008/1660/140/20/
012160/20130206/95112/1660/790/20/
012160/20130206/95159/1660/1020/10/
012160/20130206/95818/1660/520/10/
012160/20130206/95931/1660/1700/10/
012160/20130206/95942/1660/1000/20/
012160/20130206/100148/1660/650/20/
012160/20130206/100448/1665/3130/20/
012160/20130206/101337/1660/1010/10/
012160/20130206/101411/1660/170/10/
012160/20130206/101423/1660/500/10/
012160/20130206/101552/1660/1130/10/
012160/20130206/101817/1665/170/20/
012160/20130206/102305/1660/1000/10/
012160/20130206/102319/1660/760/10/
012160/20130206/102518/1660/240/20/
012160/20130206/102641/1660/320/10/
012160/20130206/102648/1660/200/10/
012160/20130206/102946/1660/120/10/
012160/20130206/103019/1660/100/10/
012160/20130206/103121/1660/560/10/
012160/20130206/104006/1660/1000/10/
012160/20130206/104346/1655/2510/10/
012160/20130206/104449/1660/210/20/
012160/20130206/104640/1660/1000/20/
012160/20130206/104640/1660/1820/20/
012160/20130206/104918/1660/1010/10/
012160/20130206/105113/1660/1010/10/
012160/20130206/105304/1660/4140/10/
012160/20130206/105626/1660/130/20/
012160/20130206/110018/1660/3200/20/
012160/20130206/110028/1660/3420/20/
012160/20130206/110437/1660/2930/10/
012160/20130206/110454/1660/440/20/
012160/20130206/110654/1660/570/20/
012160/20130206/110937/1665/190/20/
012160/20130206/111022/1665/2160/20/
012160/20130206/111209/1665/260/20/
012160/20130206/111318/1660/4800/10/
012160/20130206/111341/1660/200/20/
012160/20130206/112012/1665/360/20/
012160/20130206/112715/1665/400/20/
012160/20130206/112725/1665/1000/20/
012160/20130206/112910/1660/800/10/
012160/20130206/112932/1665/3010/20/
012160/20130206/112932/1665/1790/20/
012160/20130206/113041/1665/510/20/
012160/20130206/113105/1665/150/20/
012160/20130206/113530/1670/1100/20/
012160/20130206/113857/1665/510/10/
012160/20130206/113915/1665/530/10/
012160/20130206/113919/1665/510/10/
012160/20130206/113946/1665/520/10/
012160/20130206/114022/1665/3010/10/
012160/20130206/114912/1665/200/10/
012160/20130206/114912/1660/3400/10/
012160/20130206/114912/1655/14150/10/
012160/20130206/114912/1650/270/10/
012160/20130206/114955/1660/510/10/
012160/20130206/115234/1660/510/10/
012160/20130206/115308/1660/160/10/
012160/20130206/115322/1660/510/10/
012160/20130206/115340/1665/1290/20/
012160/20130206/115500/1670/730/20/
012160/20130206/115716/1665/1420/10/
012160/20130206/115716/1660/560/10/
012160/20130206/121003/1665/90/20/
012160/20130206/121626/1665/170/20/
012160/20130206/121958/1670/90/20/
012160/20130206/122621/1665/520/10/
012160/20130206/123140/1665/270/10/
012160/20130206/124208/1665/210/10/
012160/20130206/124243/1665/100/20/
012160/20130206/124639/1665/1470/20/
012160/20130206/124715/1665/1170/20/
012160/20130206/125810/1665/1230/10/
012160/20130206/125851/1665/150/10/
012160/20130206/125852/1670/1610/20/
012160/20130206/130820/1665/2050/10/
012160/20130206/130958/1665/980/10/
012160/20130206/131242/1665/3170/10/
012160/20130206/131317/1665/610/20/
012160/20130206/131340/1665/390/10/
012160/20130206/131445/1660/1540/10/
012160/20130206/131523/1665/890/20/
012160/20130206/131640/1660/5000/10/
012160/20130206/131652/1660/1620/10/
012160/20130206/131712/1660/2490/10/
012160/20130206/131726/1660/210/20/
012160/20130206/132016/1665/570/20/
012160/20130206/132047/1665/460/10/
012160/20130206/132047/1655/2570/10/
012160/20130206/132628/1655/3080/10/
012160/20130206/132659/1655/2830/10/
012160/20130206/132742/1655/170/20/
012160/20130206/132829/1655/4000/10/
012160/20130206/133025/1665/1000/20/
012160/20130206/134415/1660/4630/20/
012160/20130206/134531/1655/2110/10/
012160/20130206/134616/1655/100/20/
012160/20130206/134635/1655/100/20/
012160/20130206/134726/1655/520/20/
012160/20130206/134843/1655/240/20/
012160/20130206/134936/1655/2610/20/
012160/20130206/135001/1655/320/20/
012160/20130206/135232/1655/1500/10/
012160/20130206/135347/1655/1350/10/
012160/20130206/135347/1650/670/10/
012160/20130206/135459/1660/410/20/
012160/20130206/135949/1660/550/20/
012160/20130206/140136/1655/2000/10/
012160/20130206/140915/1655/1540/10/
012160/20130206/141304/1655/120/10/
012160/20130206/141505/1660/1530/20/
012160/20130206/141528/1660/670/20/
012160/20130206/141840/1655/5000/10/
012160/20130206/142040/1655/810/10/
012160/20130206/142414/1655/300/10/
012160/20130206/142415/1655/500/10/
012160/20130206/142549/1660/90/20/
012160/20130206/142733/1655/200/10/
012160/20130206/142747/1655/500/10/
012160/20130206/142753/1655/1900/10/
012160/20130206/142914/1650/110/10/
012160/20130206/142923/1650/1510/10/
012160/20130206/142932/1650/160/10/
012160/20130206/143032/1655/1030/20/
012160/20130206/143842/1650/170/10/
012160/20130206/144415/1650/7220/10/
012160/20130206/144416/1650/3660/10/
012160/20130206/144453/1655/230/20/
012160/20130206/144456/1655/3020/20/
012160/20130206/144457/1655/1000/20/
012160/20130206/144501/1655/1000/20/
012160/20130206/144703/1655/1580/20/
012160/20130206/144735/1655/220/10/
012160/20130206/144859/1655/200/10/
012160/20130206/144918/1655/2960/10/
012160/20130206/144931/1655/110/10/
012160/20130206/150000/1660/11880/20/
