012160/20121031/90000/1875/5960/20/
012160/20121031/90107/1875/260/20/
012160/20121031/90206/1860/1060/10/
012160/20121031/90219/1860/1000/20/
012160/20121031/90222/1860/1150/20/
012160/20121031/90239/1860/2420/20/
012160/20121031/90449/1875/410/20/
012160/20121031/90522/1875/1400/20/
012160/20121031/90653/1880/130/20/
012160/20121031/90710/1880/100/20/
012160/20121031/90752/1875/410/10/
012160/20121031/90818/1875/250/20/
012160/20121031/91002/1875/850/20/
012160/20121031/91034/1875/240/10/
012160/20121031/91144/1875/630/20/
012160/20121031/91147/1875/380/20/
012160/20121031/91314/1875/980/20/
012160/20121031/91435/1875/2020/20/
012160/20121031/91451/1875/1500/20/
012160/20121031/91455/1875/160/20/
012160/20121031/91456/1875/340/10/
012160/20121031/91459/1875/680/20/
012160/20121031/91511/1870/100/10/
012160/20121031/91523/1875/1980/20/
012160/20121031/91644/1875/1000/10/
012160/20121031/91731/1875/1000/10/
012160/20121031/91809/1875/210/10/
012160/20121031/91820/1875/890/20/
012160/20121031/91852/1875/200/10/
012160/20121031/91856/1875/100/10/
012160/20121031/91914/1875/500/10/
012160/20121031/92001/1880/1140/20/
012160/20121031/92001/1885/1130/20/
012160/20121031/92017/1885/1020/20/
012160/20121031/92111/1890/180/20/
012160/20121031/92112/1890/1000/20/
012160/20121031/92113/1890/420/20/
012160/20121031/92113/1895/580/20/
012160/20121031/92114/1895/540/20/
012160/20121031/92122/1895/300/10/
012160/20121031/92127/1895/160/10/
012160/20121031/92144/1895/1970/20/
012160/20121031/92234/1885/2070/20/
012160/20121031/92237/1890/300/20/
012160/20121031/92237/1895/920/20/
012160/20121031/92300/1895/1800/20/
012160/20121031/92301/1895/90/20/
012160/20121031/92423/1895/730/20/
012160/20121031/92431/1895/200/20/
012160/20121031/92434/1885/3050/10/
012160/20121031/92434/1880/2910/10/
012160/20121031/92434/1875/4040/10/
012160/20121031/92533/1890/520/20/
012160/20121031/92615/1890/990/20/
012160/20121031/92721/1890/550/10/
012160/20121031/92825/1890/590/10/
012160/20121031/93018/1885/750/10/
012160/20121031/93029/1885/730/20/
012160/20121031/93157/1885/700/20/
012160/20121031/93335/1885/1270/10/
012160/20121031/93335/1885/1730/20/
012160/20121031/93357/1885/1000/10/
012160/20121031/93357/1880/1000/10/
012160/20121031/93359/1890/1360/20/
012160/20121031/93449/1885/200/20/
012160/20121031/93449/1890/8900/20/
012160/20121031/93452/1890/3320/20/
012160/20121031/93509/1890/1000/10/
012160/20121031/93534/1895/120/20/
012160/20121031/93534/1900/1230/20/
012160/20121031/93544/1900/1000/20/
012160/20121031/93555/1900/1000/20/
012160/20121031/93607/1905/5290/20/
012160/20121031/93607/1910/1530/20/
012160/20121031/93629/1920/90/20/
012160/20121031/93639/1920/440/20/
012160/20121031/93643/1915/680/10/
012160/20121031/93648/1925/1000/20/
012160/20121031/93738/1925/130/20/
012160/20121031/93847/1920/200/20/
012160/20121031/94029/1920/450/20/
012160/20121031/94047/1920/670/20/
012160/20121031/94113/1920/320/20/
012160/20121031/94151/1910/110/10/
012160/20121031/94203/1910/150/10/
012160/20121031/94239/1910/350/20/
012160/20121031/94251/1910/1000/10/
012160/20121031/94259/1910/820/20/
012160/20121031/94311/1910/180/10/
012160/20121031/94356/1910/270/20/
012160/20121031/94505/1905/370/10/
012160/20121031/94540/1905/300/10/
012160/20121031/94543/1905/1620/10/
012160/20121031/94543/1900/1890/10/
012160/20121031/94601/1900/200/10/
012160/20121031/94624/1900/160/10/
012160/20121031/94646/1900/1000/10/
012160/20121031/94834/1900/290/10/
012160/20121031/94911/1895/1960/10/
012160/20121031/95026/1895/100/10/
012160/20121031/95049/1900/500/20/
012160/20121031/95159/1905/700/20/
012160/20121031/95317/1900/100/10/
012160/20121031/95333/1900/650/10/
012160/20121031/95511/1900/1210/10/
012160/20121031/95511/1900/1790/20/
012160/20121031/95544/1900/730/10/
012160/20121031/95719/1900/980/10/
012160/20121031/95719/1900/1020/20/
012160/20121031/95747/1905/3390/20/
012160/20121031/95848/1910/1000/10/
012160/20121031/95903/1910/520/10/
012160/20121031/95931/1910/210/20/
012160/20121031/95957/1905/200/10/
012160/20121031/100002/1910/100/20/
012160/20121031/100005/1910/100/20/
012160/20121031/100008/1910/100/20/
012160/20121031/100012/1910/100/20/
012160/20121031/100015/1910/100/20/
012160/20121031/100018/1910/100/20/
012160/20121031/100022/1910/100/20/
012160/20121031/100025/1910/100/20/
012160/20121031/100027/1910/120/20/
012160/20121031/100030/1910/100/20/
012160/20121031/100032/1910/1360/20/
012160/20121031/100037/1910/660/10/
012160/20121031/100040/1910/100/20/
012160/20121031/100044/1910/100/20/
012160/20121031/100104/1910/550/20/
012160/20121031/100140/1905/2000/10/
012160/20121031/100218/1905/640/10/
012160/20121031/100218/1900/140/10/
012160/20121031/100229/1900/600/10/
012160/20121031/100309/1910/530/20/
012160/20121031/100327/1910/950/20/
012160/20121031/100428/1910/1000/10/
012160/20121031/100447/1910/1000/10/
012160/20121031/100600/1910/2010/10/
012160/20121031/100622/1910/1000/20/
012160/20121031/100911/1910/760/20/
012160/20121031/100924/1910/240/10/
012160/20121031/101053/1910/760/20/
012160/20121031/101329/1910/100/10/
012160/20121031/101353/1910/350/20/
012160/20121031/101421/1915/350/20/
012160/20121031/101609/1915/510/20/
012160/20121031/101631/1915/950/20/
012160/20121031/101811/1910/2050/10/
012160/20121031/101813/1915/3690/10/
012160/20121031/101854/1915/1010/10/
012160/20121031/101914/1915/1450/10/
012160/20121031/102032/1910/2000/10/
012160/20121031/102157/1915/90/10/
012160/20121031/102850/1910/500/10/
012160/20121031/103236/1910/320/10/
012160/20121031/103245/1910/2020/10/
012160/20121031/103248/1910/350/10/
012160/20121031/103326/1910/1000/10/
012160/20121031/103327/1910/540/10/
012160/20121031/103710/1910/1000/10/
012160/20121031/103820/1910/100/20/
012160/20121031/103849/1910/100/10/
012160/20121031/103910/1915/350/20/
012160/20121031/104032/1910/100/10/
012160/20121031/104159/1905/950/10/
012160/20121031/104224/1905/100/10/
012160/20121031/104502/1905/350/10/
012160/20121031/104517/1905/1100/10/
012160/20121031/104636/1905/1500/10/
012160/20121031/104637/1905/150/10/
012160/20121031/104642/1905/730/10/
012160/20121031/104737/1905/90/10/
012160/20121031/104851/1905/550/10/
012160/20121031/104909/1905/100/10/
012160/20121031/104940/1905/410/10/
012160/20121031/105109/1905/880/10/
012160/20121031/105111/1905/620/20/
012160/20121031/105111/1910/1280/20/
012160/20121031/105137/1905/140/10/
012160/20121031/105759/1910/2180/20/
012160/20121031/105759/1905/100/10/
012160/20121031/110106/1905/560/10/
012160/20121031/110123/1905/3030/10/
012160/20121031/110125/1905/110/10/
012160/20121031/110215/1900/520/10/
012160/20121031/110320/1900/180/10/
012160/20121031/110459/1905/290/20/
012160/20121031/110557/1905/110/20/
012160/20121031/110657/1905/1010/20/
012160/20121031/110801/1905/500/20/
012160/20121031/110912/1905/90/10/
012160/20121031/111057/1905/300/10/
012160/20121031/112916/1910/750/20/
012160/20121031/113400/1915/2980/20/
012160/20121031/113400/1910/150/10/
012160/20121031/113420/1910/100/10/
012160/20121031/113712/1915/530/20/
012160/20121031/113922/1915/120/10/
012160/20121031/114257/1915/210/10/
012160/20121031/114335/1915/240/10/
012160/20121031/114919/1920/420/20/
012160/20121031/115020/1920/180/20/
012160/20121031/115133/1920/320/20/
012160/20121031/115453/1915/1010/10/
012160/20121031/115703/1920/1210/20/
012160/20121031/120408/1925/110/20/
012160/20121031/121212/1915/2160/10/
012160/20121031/121517/1910/130/10/
012160/20121031/121628/1910/120/10/
012160/20121031/121908/1910/300/10/
012160/20121031/122134/1915/140/20/
012160/20121031/122229/1915/750/20/
012160/20121031/122326/1915/180/20/
012160/20121031/122355/1910/1010/10/
012160/20121031/122434/1910/800/10/
012160/20121031/122725/1915/350/20/
012160/20121031/122737/1915/2000/20/
012160/20121031/122742/1915/100/20/
012160/20121031/122804/1915/110/10/
012160/20121031/122909/1915/100/10/
012160/20121031/123348/1915/350/10/
012160/20121031/123348/1915/700/20/
012160/20121031/123918/1915/560/10/
012160/20121031/124305/1920/300/20/
012160/20121031/124921/1920/390/20/
012160/20121031/125136/1920/1170/20/
012160/20121031/125432/1925/160/20/
012160/20121031/125607/1925/110/20/
012160/20121031/125628/1925/1000/20/
012160/20121031/125649/1925/1000/20/
012160/20121031/125725/1925/820/20/
012160/20121031/125735/1925/510/20/
012160/20121031/125758/1925/430/20/
012160/20121031/125759/1925/90/10/
012160/20121031/125933/1925/810/20/
012160/20121031/130010/1925/180/20/
012160/20121031/130010/1925/280/10/
012160/20121031/130218/1930/6800/20/
012160/20121031/130245/1930/100/20/
012160/20121031/130313/1930/340/10/
012160/20121031/130313/1935/1630/20/
012160/20121031/130313/1940/3370/20/
012160/20121031/130314/1940/5000/20/
012160/20121031/130336/1940/5000/20/
012160/20121031/130432/1940/100/20/
012160/20121031/130435/1940/150/20/
012160/20121031/130435/1940/350/10/
012160/20121031/130710/1935/610/20/
012160/20121031/130727/1935/290/20/
012160/20121031/130727/1935/160/10/
012160/20121031/130845/1935/200/10/
012160/20121031/130920/1930/2000/10/
012160/20121031/130945/1930/250/10/
012160/20121031/131006/1930/360/10/
012160/20121031/131114/1930/530/10/
012160/20121031/131125/1930/180/10/
012160/20121031/131222/1930/1040/10/
012160/20121031/131236/1930/200/10/
012160/20121031/131245/1930/160/10/
012160/20121031/131524/1930/200/20/
012160/20121031/131736/1930/200/10/
012160/20121031/131822/1930/450/10/
012160/20121031/131824/1935/100/20/
012160/20121031/131837/1930/1670/10/
012160/20121031/131936/1925/200/10/
012160/20121031/132001/1925/2120/10/
012160/20121031/132002/1925/3070/10/
012160/20121031/132118/1925/1660/20/
012160/20121031/132118/1925/620/20/
012160/20121031/132139/1925/380/10/
012160/20121031/132152/1925/1450/10/
012160/20121031/132215/1925/510/20/
012160/20121031/132217/1925/100/20/
012160/20121031/132223/1925/720/20/
012160/20121031/132240/1925/160/10/
012160/20121031/132507/1925/430/10/
012160/20121031/132533/1925/220/10/
012160/20121031/133004/1925/890/10/
012160/20121031/133028/1925/1120/20/
012160/20121031/133028/1925/100/10/
012160/20121031/133204/1930/400/20/
012160/20121031/133417/1925/140/10/
012160/20121031/133530/1930/2000/20/
012160/20121031/133530/1925/100/10/
012160/20121031/133541/1930/460/20/
012160/20121031/133542/1935/3480/20/
012160/20121031/133543/1935/270/20/
012160/20121031/133543/1940/1280/20/
012160/20121031/133543/1940/770/20/
012160/20121031/133543/1945/5630/20/
012160/20121031/133545/1950/520/20/
012160/20121031/133547/1950/160/20/
012160/20121031/133603/1950/3450/20/
012160/20121031/133604/1950/3450/20/
012160/20121031/133604/1950/1800/20/
012160/20121031/133604/1955/2140/20/
012160/20121031/133605/1950/460/10/
012160/20121031/133611/1950/2040/10/
012160/20121031/133611/1955/300/20/
012160/20121031/133613/1955/530/20/
012160/20121031/133614/1960/1030/20/
012160/20121031/133614/1965/500/20/
012160/20121031/133614/1970/1170/20/
012160/20121031/133617/1970/120/20/
012160/20121031/133617/1970/2810/20/
012160/20121031/133617/1970/3010/20/
012160/20121031/133618/1970/1420/20/
012160/20121031/133618/1970/370/10/
012160/20121031/133619/1970/500/10/
012160/20121031/133619/1975/2570/20/
012160/20121031/133619/1975/5070/20/
012160/20121031/133620/1975/1060/20/
012160/20121031/133622/1975/380/20/
012160/20121031/133623/1980/3100/20/
012160/20121031/133624/1975/2950/10/
012160/20121031/133624/1980/1900/20/
012160/20121031/133625/1980/2920/10/
012160/20121031/133626/1975/1580/10/
012160/20121031/133628/1980/100/10/
012160/20121031/133628/1985/270/20/
012160/20121031/133630/1985/810/20/
012160/20121031/133631/1985/3630/20/
012160/20121031/133632/1985/1370/10/
012160/20121031/133632/1975/2280/10/
012160/20121031/133632/1985/500/10/
012160/20121031/133633/1985/400/10/
012160/20121031/133634/1985/1000/10/
012160/20121031/133635/1985/1000/10/
012160/20121031/133636/1985/100/10/
012160/20121031/133646/1985/950/20/
012160/20121031/133653/1980/2000/20/
012160/20121031/133653/1980/200/20/
012160/20121031/133700/1970/250/10/
012160/20121031/133704/1970/1000/20/
012160/20121031/133706/1970/1260/20/
012160/20121031/133706/1980/740/20/
012160/20121031/133706/1980/2770/20/
012160/20121031/133706/1980/1980/20/
012160/20121031/133707/1970/120/20/
012160/20121031/133708/1970/1980/20/
012160/20121031/133708/1970/660/20/
012160/20121031/133708/1985/1510/20/
012160/20121031/133708/1985/3580/20/
012160/20121031/133709/1970/2500/10/
012160/20121031/133715/1975/230/20/
012160/20121031/133716/1975/2000/20/
012160/20121031/133723/1970/7330/10/
012160/20121031/133725/1975/250/20/
012160/20121031/133730/1965/980/10/
012160/20121031/133735/1965/220/10/
012160/20121031/133735/1960/780/10/
012160/20121031/133738/1960/100/10/
012160/20121031/133738/1960/120/10/
012160/20121031/133744/1960/1000/20/
012160/20121031/133745/1960/520/10/
012160/20121031/133746/1960/300/20/
012160/20121031/133748/1960/200/20/
012160/20121031/133751/1960/2000/20/
012160/20121031/133751/1960/250/20/
012160/20121031/133755/1960/1750/10/
012160/20121031/133759/1960/2000/20/
012160/20121031/133807/1965/100/20/
012160/20121031/133815/1960/1020/10/
012160/20121031/133819/1965/180/20/
012160/20121031/133822/1960/120/10/
012160/20121031/133829/1960/690/20/
012160/20121031/133838/1960/410/20/
012160/20121031/133839/1960/190/10/
012160/20121031/133856/1960/1000/20/
012160/20121031/133856/1960/200/20/
012160/20121031/133858/1960/800/10/
012160/20121031/133900/1960/650/20/
012160/20121031/133903/1965/3640/20/
012160/20121031/133903/1970/3220/20/
012160/20121031/133905/1975/2000/20/
012160/20121031/133906/1975/1970/20/
012160/20121031/133906/1980/2130/20/
012160/20121031/133907/1980/1170/20/
012160/20121031/133907/1985/3830/20/
012160/20121031/133910/1985/1410/20/
012160/20121031/133910/1990/8590/20/
012160/20121031/133910/1990/1460/20/
012160/20121031/133910/1995/8710/20/
012160/20121031/133911/1995/570/20/
012160/20121031/133911/2000/7790/20/
012160/20121031/133911/2000/9640/10/
012160/20121031/133912/1990/100/10/
012160/20121031/133912/1985/380/10/
012160/20121031/133912/1980/980/10/
012160/20121031/133912/1990/140/20/
012160/20121031/133912/2005/4860/20/
012160/20121031/133917/1995/500/20/
012160/20121031/133917/2000/7090/20/
012160/20121031/133917/2000/500/20/
012160/20121031/133918/1995/500/10/
012160/20121031/133918/1995/1000/10/
012160/20121031/133919/2000/1280/20/
012160/20121031/133919/2000/350/10/
012160/20121031/133919/2000/200/10/
012160/20121031/133919/2000/250/10/
012160/20121031/133920/2000/250/10/
012160/20121031/133920/2000/670/20/
012160/20121031/133922/2000/570/20/
012160/20121031/133923/2000/100/20/
012160/20121031/133924/1995/2900/10/
012160/20121031/133927/1995/1880/20/
012160/20121031/133927/1990/4000/10/
012160/20121031/133931/1995/90/20/
012160/20121031/133932/1990/310/10/
012160/20121031/133932/1990/230/20/
012160/20121031/133932/1995/270/20/
012160/20121031/133934/1990/190/10/
012160/20121031/133935/1990/190/10/
012160/20121031/133936/1990/510/10/
012160/20121031/133938/1990/1160/10/
012160/20121031/133938/1990/1280/10/
012160/20121031/133940/1985/210/10/
012160/20121031/133950/1985/510/20/
012160/20121031/134002/1980/980/20/
012160/20121031/134003/1980/1020/20/
012160/20121031/134004/1975/1500/10/
012160/20121031/134007/1975/300/20/
012160/20121031/134007/1975/210/20/
012160/20121031/134007/1980/290/20/
012160/20121031/134009/1980/500/20/
012160/20121031/134022/1970/1610/10/
012160/20121031/134022/1970/600/20/
012160/20121031/134031/1970/250/10/
012160/20121031/134034/1970/370/10/
012160/20121031/134035/1970/100/20/
012160/20121031/134038/1970/300/10/
012160/20121031/134042/1970/3000/10/
012160/20121031/134054/1970/1830/10/
012160/20121031/134057/1970/250/10/
012160/20121031/134058/1965/2000/10/
012160/20121031/134059/1960/2100/10/
012160/20121031/134102/1960/3750/10/
012160/20121031/134105/1960/400/20/
012160/20121031/134106/1960/850/20/
012160/20121031/134116/1965/500/20/
012160/20121031/134124/1955/390/10/
012160/20121031/134125/1955/620/10/
012160/20121031/134129/1955/1000/10/
012160/20121031/134130/1955/1000/10/
012160/20121031/134131/1955/230/10/
012160/20121031/134138/1955/7090/10/
012160/20121031/134139/1955/2210/10/
012160/20121031/134139/1950/610/10/
012160/20121031/134140/1960/90/20/
012160/20121031/134141/1960/410/10/
012160/20121031/134202/1960/1010/10/
012160/20121031/134203/1960/390/10/
012160/20121031/134209/1955/1000/10/
012160/20121031/134211/1950/1420/10/
012160/20121031/134212/1950/2770/10/
012160/20121031/134220/1950/620/10/
012160/20121031/134231/1950/450/10/
012160/20121031/134236/1950/1010/10/
012160/20121031/134240/1945/10200/10/
012160/20121031/134241/1945/4320/10/
012160/20121031/134247/1945/620/10/
012160/20121031/134256/1950/510/20/
012160/20121031/134306/1950/520/20/
012160/20121031/134310/1955/340/20/
012160/20121031/134310/1955/530/10/
012160/20121031/134310/1950/730/10/
012160/20121031/134312/1965/1000/20/
012160/20121031/134322/1965/120/20/
012160/20121031/134331/1965/400/20/
012160/20121031/134333/1960/1000/10/
012160/20121031/134350/1960/190/20/
012160/20121031/134400/1960/200/20/
012160/20121031/134402/1960/100/20/
012160/20121031/134406/1960/1500/20/
012160/20121031/134406/1955/300/10/
012160/20121031/134426/1950/930/10/
012160/20121031/134435/1945/3850/10/
012160/20121031/134435/1940/150/10/
012160/20121031/134443/1950/270/10/
012160/20121031/134450/1950/740/10/
012160/20121031/134450/1945/2180/10/
012160/20121031/134509/1945/770/10/
012160/20121031/134524/1950/1010/20/
012160/20121031/134525/1950/4000/20/
012160/20121031/134525/1960/100/20/
012160/20121031/134527/1955/1010/10/
012160/20121031/134531/1955/9080/20/
012160/20121031/134536/1960/1440/20/
012160/20121031/134536/1965/1560/20/
012160/20121031/134552/1975/1240/20/
012160/20121031/134554/1975/140/20/
012160/20121031/134554/1975/660/10/
012160/20121031/134600/1970/510/20/
012160/20121031/134600/1975/650/20/
012160/20121031/134607/1975/100/20/
012160/20121031/134610/1970/230/20/
012160/20121031/134612/1970/1000/20/
012160/20121031/134627/1970/1000/20/
012160/20121031/134627/1970/3260/20/
012160/20121031/134627/1975/1730/20/
012160/20121031/134628/1980/1400/20/
012160/20121031/134629/1980/1770/10/
012160/20121031/134629/1985/230/20/
012160/20121031/134629/1975/1000/10/
012160/20121031/134630/1985/3650/20/
012160/20121031/134630/1990/1350/20/
012160/20121031/134631/1990/2970/20/
012160/20121031/134631/1990/20000/20/
012160/20121031/134632/1980/1000/10/
012160/20121031/134632/1990/200/20/
012160/20121031/134632/1990/10000/20/
012160/20121031/134633/1990/5000/20/
012160/20121031/134633/1990/970/20/
012160/20121031/134634/1990/2530/20/
012160/20121031/134634/1990/2530/20/
012160/20121031/134634/1990/2530/20/
012160/20121031/134634/1990/3810/20/
012160/20121031/134634/1995/3060/20/
012160/20121031/134634/1995/2270/10/
012160/20121031/134636/1985/100/20/
012160/20121031/134636/1985/400/20/
012160/20121031/134636/1990/10000/20/
012160/20121031/134636/2000/9600/20/
012160/20121031/134636/2000/17960/20/
012160/20121031/134636/2005/10740/20/
012160/20121031/134636/2010/1300/20/
012160/20121031/134636/2010/1170/20/
012160/20121031/134637/2010/1860/20/
012160/20121031/134637/2010/1140/10/
012160/20121031/134637/2010/3000/10/
012160/20121031/134637/2015/1680/20/
012160/20121031/134637/2020/3280/20/
012160/20121031/134638/2015/500/20/
012160/20121031/134638/2015/2470/10/
012160/20121031/134638/2020/10000/20/
012160/20121031/134638/2020/1000/20/
012160/20121031/134639/2000/400/10/
012160/20121031/134639/2010/1640/20/
012160/20121031/134639/2015/1000/20/
012160/20121031/134639/2020/4850/20/
012160/20121031/134639/2025/750/20/
012160/20121031/134639/2025/4400/20/
012160/20121031/134639/2000/1600/10/
012160/20121031/134639/1990/200/20/
012160/20121031/134639/1990/200/20/
012160/20121031/134640/1990/600/20/
012160/20121031/134641/2010/100/20/
012160/20121031/134641/2000/1770/10/
012160/20121031/134641/2000/2000/10/
012160/20121031/134642/2000/2180/10/
012160/20121031/134642/2000/6860/10/
012160/20121031/134643/2000/510/10/
012160/20121031/134645/2000/540/20/
012160/20121031/134645/2010/1900/20/
012160/20121031/134645/1995/2010/10/
012160/20121031/134647/2000/10140/20/
012160/20121031/134648/1990/280/10/
012160/20121031/134649/1990/650/10/
012160/20121031/134649/2000/1320/20/
012160/20121031/134650/1990/3100/10/
012160/20121031/134651/2000/90/20/
012160/20121031/134651/1990/340/10/
012160/20121031/134652/1990/140/20/
012160/20121031/134654/1995/90/20/
012160/20121031/134655/1975/530/10/
012160/20121031/134659/1990/430/20/
012160/20121031/134704/1995/90/20/
012160/20121031/134705/1995/4950/20/
012160/20121031/134705/2000/90/20/
012160/20121031/134706/1990/410/10/
012160/20121031/134707/1990/130/20/
012160/20121031/134708/1990/2470/20/
012160/20121031/134708/1995/2020/20/
012160/20121031/134708/1995/1010/20/
012160/20121031/134709/1995/1020/20/
012160/20121031/134710/1985/1820/10/
012160/20121031/134710/1980/330/10/
012160/20121031/134710/1995/120/20/
012160/20121031/134712/1990/2050/10/
012160/20121031/134713/1990/300/20/
012160/20121031/134713/1990/5000/20/
012160/20121031/134715/1990/1360/20/
012160/20121031/134715/1995/3710/20/
012160/20121031/134715/1990/500/20/
012160/20121031/134716/1990/300/20/
012160/20121031/134721/1990/530/20/
012160/20121031/134723/1985/90/20/
012160/20121031/134725/1985/5040/20/
012160/20121031/134726/1985/370/20/
012160/20121031/134728/1985/260/20/
012160/20121031/134729/1985/1030/20/
012160/20121031/134731/1985/710/20/
012160/20121031/134733/1985/1050/20/
012160/20121031/134735/1985/1050/20/
012160/20121031/134736/1985/1010/20/
012160/20121031/134736/1985/2000/20/
012160/20121031/134738/1980/3030/10/
012160/20121031/134738/1985/300/20/
012160/20121031/134740/1985/1850/20/
012160/20121031/134740/1985/320/10/
012160/20121031/134741/1985/190/20/
012160/20121031/134741/1990/1080/20/
012160/20121031/134744/1990/90/20/
012160/20121031/134744/1990/9890/20/
012160/20121031/134745/1995/700/20/
012160/20121031/134745/2000/1320/20/
012160/20121031/134745/2000/3010/20/
012160/20121031/134746/2000/720/20/
012160/20121031/134746/1995/150/10/
012160/20121031/134746/2000/3000/20/
012160/20121031/134746/2000/110/20/
012160/20121031/134746/2000/1010/20/
012160/20121031/134746/2000/150/20/
012160/20121031/134746/2005/1000/20/
012160/20121031/134746/2010/4830/20/
012160/20121031/134748/2015/90/20/
012160/20121031/134748/2005/3020/10/
012160/20121031/134749/2015/90/20/
012160/20121031/134750/2015/120/20/
012160/20121031/134750/2005/870/10/
012160/20121031/134752/2005/240/20/
012160/20121031/134752/2005/510/20/
012160/20121031/134752/2010/2960/20/
012160/20121031/134752/2015/250/20/
012160/20121031/134753/2015/430/20/
012160/20121031/134756/2010/2070/20/
012160/20121031/134756/2010/6840/20/
012160/20121031/134757/2010/210/20/
012160/20121031/134757/2010/220/20/
012160/20121031/134758/2010/120/20/
012160/20121031/134759/2010/2570/20/
012160/20121031/134800/2010/5480/10/
012160/20121031/134801/2010/90/20/
012160/20121031/134801/2010/1200/20/
012160/20121031/134802/2010/520/20/
012160/20121031/134803/2005/290/10/
012160/20121031/134804/2005/870/10/
012160/20121031/134804/2010/1010/20/
012160/20121031/134805/2005/120/20/
012160/20121031/134806/2005/780/20/
012160/20121031/134806/2005/310/20/
012160/20121031/134807/2005/330/20/
012160/20121031/134810/2005/190/20/
012160/20121031/134811/2005/2020/20/
012160/20121031/134813/2010/90/20/
012160/20121031/134813/2005/740/10/
012160/20121031/134814/2010/2010/20/
012160/20121031/134814/2010/830/20/
012160/20121031/134815/2010/3640/20/
012160/20121031/134815/2010/3430/20/
012160/20121031/134815/2015/12790/10/
012160/20121031/134815/2020/10980/20/
012160/20121031/134816/2010/1030/10/
012160/20121031/134816/2010/1500/10/
012160/20121031/134817/2010/220/20/
012160/20121031/134817/2010/1000/20/
012160/20121031/134820/2010/90/20/
012160/20121031/134820/2010/980/20/
012160/20121031/134821/2010/90/20/
012160/20121031/134822/2005/1200/10/
012160/20121031/134822/2010/1590/20/
012160/20121031/134824/2010/360/20/
012160/20121031/134825/2005/1040/10/
012160/20121031/134825/2000/1710/10/
012160/20121031/134826/2000/280/20/
012160/20121031/134826/2010/8710/20/
012160/20121031/134827/2010/140/20/
012160/20121031/134828/2010/400/20/
012160/20121031/134828/2010/90/20/
012160/20121031/134828/2010/1000/20/
012160/20121031/134829/2010/90/20/
012160/20121031/134830/2010/560/20/
012160/20121031/134832/2010/140/20/
012160/20121031/134832/2010/3250/20/
012160/20121031/134832/2010/890/10/
012160/20121031/134833/2010/450/20/
012160/20121031/134834/2010/2390/20/
012160/20121031/134835/2010/570/20/
012160/20121031/134837/2010/1980/20/
012160/20121031/134840/2005/3270/10/
012160/20121031/134842/2005/510/20/
012160/20121031/134842/2005/760/20/
012160/20121031/134843/2000/3260/10/
012160/20121031/134843/1995/1000/10/
012160/20121031/134843/1990/1400/10/
012160/20121031/134844/2000/200/20/
012160/20121031/134844/2000/1000/20/
012160/20121031/134845/2000/730/20/
012160/20121031/134853/1990/3020/10/
012160/20121031/134858/1995/190/20/
012160/20121031/134858/2000/1210/20/
012160/20121031/134901/1995/200/20/
012160/20121031/134901/1995/800/20/
012160/20121031/134905/1995/570/10/
012160/20121031/134908/2000/910/20/
012160/20121031/134910/2005/100/20/
012160/20121031/134910/2000/9000/10/
012160/20121031/134911/2000/390/10/
012160/20121031/134911/2000/100/20/
012160/20121031/134913/2000/5020/20/
012160/20121031/134914/2000/490/20/
012160/20121031/134915/2005/9710/20/
012160/20121031/134916/2005/200/10/
012160/20121031/134916/2005/100/10/
012160/20121031/134916/2010/300/20/
012160/20121031/134919/2005/5020/10/
012160/20121031/134919/2005/4000/10/
012160/20121031/134920/2005/8670/10/
012160/20121031/134920/2000/2760/10/
012160/20121031/134929/2000/200/10/
012160/20121031/134931/2000/140/10/
012160/20121031/134931/2000/2100/10/
012160/20121031/134932/2000/1850/10/
012160/20121031/134934/2000/1250/20/
012160/20121031/134938/2000/1230/20/
012160/20121031/134939/2000/1670/20/
012160/20121031/134944/2005/2730/20/
012160/20121031/134945/2000/3190/10/
012160/20121031/134947/2000/5000/20/
012160/20121031/134955/1995/180/10/
012160/20121031/134955/1995/2040/10/
012160/20121031/135002/1995/3620/10/
012160/20121031/135007/1995/1000/20/
012160/20121031/135013/1995/1060/20/
012160/20121031/135013/1995/140/20/
012160/20121031/135013/2000/2360/20/
012160/20121031/135019/2000/2000/20/
012160/20121031/135020/2000/3000/20/
012160/20121031/135021/2000/5000/20/
012160/20121031/135021/2000/2730/20/
012160/20121031/135021/2000/1000/20/
012160/20121031/135022/2000/4050/20/
012160/20121031/135022/2000/4550/20/
012160/20121031/135026/2005/1930/20/
012160/20121031/135027/2005/990/20/
012160/20121031/135032/2005/170/20/
012160/20121031/135037/2005/90/20/
012160/20121031/135043/2000/2990/10/
012160/20121031/135043/1995/3320/10/
012160/20121031/135046/2000/7050/20/
012160/20121031/135048/2000/5000/10/
012160/20121031/135048/2000/1500/10/
012160/20121031/135049/2000/4880/10/
012160/20121031/135049/2000/2100/10/
012160/20121031/135051/2000/1500/20/
012160/20121031/135056/2000/200/10/
012160/20121031/135057/1995/600/10/
012160/20121031/135101/1995/400/10/
012160/20121031/135104/1995/300/10/
012160/20121031/135106/1995/120/10/
012160/20121031/135106/1995/500/10/
012160/20121031/135106/1990/4510/10/
012160/20121031/135107/2000/5000/20/
012160/20121031/135127/1995/500/10/
012160/20121031/135131/1995/550/10/
012160/20121031/135132/1995/160/20/
012160/20121031/135134/1995/390/20/
012160/20121031/135149/1990/2070/10/
012160/20121031/135207/1990/180/10/
012160/20121031/135207/1990/100/10/
012160/20121031/135207/1990/600/10/
012160/20121031/135208/1990/100/10/
012160/20121031/135208/1990/110/10/
012160/20121031/135209/1990/610/10/
012160/20121031/135210/1990/300/10/
012160/20121031/135214/1985/440/10/
012160/20121031/135220/1990/100/20/
012160/20121031/135220/1985/6270/10/
012160/20121031/135220/1990/240/20/
012160/20121031/135237/1995/740/20/
012160/20121031/135245/1990/5000/10/
012160/20121031/135246/1990/3110/10/
012160/20121031/135248/1985/2030/10/
012160/20121031/135250/1985/130/10/
012160/20121031/135253/1985/870/20/
012160/20121031/135254/1985/290/10/
012160/20121031/135301/1980/340/10/
012160/20121031/135301/1975/390/10/
012160/20121031/135313/1980/500/10/
012160/20121031/135315/1980/100/10/
012160/20121031/135318/1985/200/20/
012160/20121031/135321/1985/100/20/
012160/20121031/135325/1980/2000/10/
012160/20121031/135325/1985/610/20/
012160/20121031/135331/1985/970/10/
012160/20121031/135332/1985/760/10/
012160/20121031/135332/1980/1240/10/
012160/20121031/135337/1980/1500/10/
012160/20121031/135345/1980/630/10/
012160/20121031/135348/1980/520/10/
012160/20121031/135356/1980/2350/10/
012160/20121031/135358/1980/520/10/
012160/20121031/135359/1980/850/10/
012160/20121031/135411/1985/100/20/
012160/20121031/135412/1980/200/10/
012160/20121031/135413/1985/110/20/
012160/20121031/135422/1985/100/20/
012160/20121031/135423/1985/4690/20/
012160/20121031/135423/1990/570/20/
012160/20121031/135437/1990/350/20/
012160/20121031/135437/1990/400/20/
012160/20121031/135439/1990/14510/20/
012160/20121031/135439/1990/100/20/
012160/20121031/135439/1990/4260/20/
012160/20121031/135439/1990/4780/20/
012160/20121031/135439/1990/21690/20/
012160/20121031/135440/1995/500/20/
012160/20121031/135443/1995/2180/20/
012160/20121031/135444/1995/230/20/
012160/20121031/135444/1995/100/20/
012160/20121031/135444/1995/4880/20/
012160/20121031/135445/1995/1200/20/
012160/20121031/135445/1995/1300/20/
012160/20121031/135447/1995/100/20/
012160/20121031/135447/1995/1800/20/
012160/20121031/135450/2000/1000/20/
012160/20121031/135453/2000/1000/20/
012160/20121031/135500/2000/140/20/
012160/20121031/135501/1995/1000/10/
012160/20121031/135510/1995/100/10/
012160/20121031/135512/1995/2580/10/
012160/20121031/135512/1995/200/20/
012160/20121031/135515/1990/500/10/
012160/20121031/135519/1990/90/20/
012160/20121031/135522/1990/90/20/
012160/20121031/135523/1990/110/20/
012160/20121031/135524/1990/640/20/
012160/20121031/135527/1990/110/20/
012160/20121031/135527/1990/100/20/
012160/20121031/135527/1990/420/20/
012160/20121031/135527/1995/4200/20/
012160/20121031/135531/1995/90/20/
012160/20121031/135534/1995/90/20/
012160/20121031/135536/1990/250/10/
012160/20121031/135536/1985/710/10/
012160/20121031/135537/1985/1420/10/
012160/20121031/135537/1985/1570/10/
012160/20121031/135538/1980/2020/10/
012160/20121031/135539/1980/8180/10/
012160/20121031/135539/1980/1410/10/
012160/20121031/135539/1975/6210/10/
012160/20121031/135539/1975/570/20/
012160/20121031/135540/1975/960/20/
012160/20121031/135543/1990/90/20/
012160/20121031/135546/1990/90/20/
012160/20121031/135550/1985/90/20/
012160/20121031/135553/1985/90/20/
012160/20121031/135555/1980/750/10/
012160/20121031/135557/1985/1000/20/
012160/20121031/135600/1985/90/20/
012160/20121031/135604/1985/90/20/
012160/20121031/135607/1985/510/20/
012160/20121031/135607/1980/300/10/
012160/20121031/135608/1985/500/20/
012160/20121031/135613/1985/90/20/
012160/20121031/135614/1980/340/10/
012160/20121031/135617/1985/90/20/
012160/20121031/135619/1985/460/20/
012160/20121031/135622/1985/320/20/
012160/20121031/135622/1985/3500/20/
012160/20121031/135623/1985/820/10/
012160/20121031/135626/1990/90/20/
012160/20121031/135630/1990/90/20/
012160/20121031/135633/1990/300/20/
012160/20121031/135636/1990/90/20/
012160/20121031/135640/1990/90/20/
012160/20121031/135643/1990/90/20/
012160/20121031/135645/1990/90/20/
012160/20121031/135646/1990/3990/20/
012160/20121031/135648/1990/1070/10/
012160/20121031/135649/1990/90/20/
012160/20121031/135651/1985/1050/10/
012160/20121031/135652/1990/260/20/
012160/20121031/135654/1985/1310/10/
012160/20121031/135657/1990/90/20/
012160/20121031/135700/1985/140/10/
012160/20121031/135702/1985/140/10/
012160/20121031/135704/1990/90/20/
012160/20121031/135708/1985/90/20/
012160/20121031/135712/1985/90/20/
012160/20121031/135714/1980/1460/10/
012160/20121031/135714/1985/950/20/
012160/20121031/135717/1985/90/20/
012160/20121031/135718/1985/90/20/
012160/20121031/135719/1985/1680/20/
012160/20121031/135722/1990/90/20/
012160/20121031/135726/1985/1500/10/
012160/20121031/135729/1985/90/20/
012160/20121031/135733/1980/730/10/
012160/20121031/135733/1980/4400/10/
012160/20121031/135733/1980/1230/20/
012160/20121031/135738/1975/1070/10/
012160/20121031/135739/1975/8550/10/
012160/20121031/135739/1970/13140/10/
012160/20121031/135741/1980/250/20/
012160/20121031/135746/1970/240/10/
012160/20121031/135755/1970/560/10/
012160/20121031/135757/1975/600/20/
012160/20121031/135757/1980/4630/20/
012160/20121031/135759/1970/1070/10/
012160/20121031/135759/1965/2210/10/
012160/20121031/135759/1960/140/10/
012160/20121031/135807/1965/100/10/
012160/20121031/135807/1960/2800/10/
012160/20121031/135827/1975/120/10/
012160/20121031/135845/1975/260/20/
012160/20121031/135855/1975/500/20/
012160/20121031/135857/1970/2000/10/
012160/20121031/135913/1970/200/10/
012160/20121031/135925/1965/100/10/
012160/20121031/135927/1970/1770/20/
012160/20121031/135928/1970/2030/20/
012160/20121031/135930/1970/330/10/
012160/20121031/135938/1975/610/20/
012160/20121031/135939/1970/5960/10/
012160/20121031/135951/1970/1000/10/
012160/20121031/140007/1970/1790/10/
012160/20121031/140010/1970/210/20/
012160/20121031/140015/1970/1000/10/
012160/20121031/140024/1975/1630/20/
012160/20121031/140027/1980/10040/20/
012160/20121031/140028/1980/830/20/
012160/20121031/140037/1985/90/20/
012160/20121031/140042/1985/390/20/
012160/20121031/140052/1985/90/20/
012160/20121031/140058/1985/1300/20/
012160/20121031/140058/1990/1490/20/
012160/20121031/140058/1990/4050/20/
012160/20121031/140059/1990/8000/20/
012160/20121031/140059/1990/2940/20/
012160/20121031/140103/1995/450/20/
012160/20121031/140103/2000/1600/20/
012160/20121031/140105/1995/970/10/
012160/20121031/140118/1990/1000/20/
012160/20121031/140131/1990/3330/20/
012160/20121031/140132/1990/990/20/
012160/20121031/140133/1990/380/10/
012160/20121031/140144/1990/130/20/
012160/20121031/140144/1990/1500/20/
012160/20121031/140144/1990/2000/20/
012160/20121031/140145/1990/530/20/
012160/20121031/140147/1990/1470/10/
012160/20121031/140152/1990/130/20/
012160/20121031/140214/1985/1200/20/
012160/20121031/140216/1985/300/10/
012160/20121031/140220/1980/410/10/
012160/20121031/140224/1980/630/20/
012160/20121031/140244/1975/110/10/
012160/20121031/140246/1980/100/20/
012160/20121031/140246/1985/200/20/
012160/20121031/140246/1990/600/20/
012160/20121031/140254/1985/270/20/
012160/20121031/140305/1985/1740/10/
012160/20121031/140305/1980/700/10/
012160/20121031/140328/1990/2000/20/
012160/20121031/140329/1990/8970/20/
012160/20121031/140329/1990/700/20/
012160/20121031/140329/1995/2570/20/
012160/20121031/140329/2000/930/20/
012160/20121031/140333/1985/4210/10/
012160/20121031/140342/1990/3050/10/
012160/20121031/140343/1990/1640/10/
012160/20121031/140354/1990/1640/10/
012160/20121031/140354/1990/730/10/
012160/20121031/140356/1990/1670/20/
012160/20121031/140356/1995/1330/20/
012160/20121031/140418/1995/3290/20/
012160/20121031/140421/1995/430/10/
012160/20121031/140421/1995/1000/10/
012160/20121031/140422/1995/820/10/
012160/20121031/140429/1995/200/20/
012160/20121031/140436/1995/2180/20/
012160/20121031/140438/2000/810/20/
012160/20121031/140438/1995/8970/10/
012160/20121031/140439/1995/850/10/
012160/20121031/140449/1995/2000/20/
012160/20121031/140500/1995/1160/20/
012160/20121031/140508/1990/110/10/
012160/20121031/140508/1985/860/10/
012160/20121031/140515/1990/500/20/
012160/20121031/140521/1990/600/10/
012160/20121031/140524/1990/530/20/
012160/20121031/140524/1995/5910/20/
012160/20121031/140528/1995/560/10/
012160/20121031/140532/1995/500/20/
012160/20121031/140534/1995/100/20/
012160/20121031/140535/1995/200/20/
012160/20121031/140536/1990/600/20/
012160/20121031/140536/1995/100/20/
012160/20121031/140536/1995/200/20/
012160/20121031/140537/1995/100/20/
012160/20121031/140540/1995/100/20/
012160/20121031/140542/1995/100/20/
012160/20121031/140544/1995/120/20/
012160/20121031/140552/1995/3130/20/
012160/20121031/140601/2000/1110/20/
012160/20121031/140611/2000/510/20/
012160/20121031/140611/2000/6420/20/
012160/20121031/140611/2000/200/10/
012160/20121031/140611/2000/500/10/
012160/20121031/140613/2000/1000/10/
012160/20121031/140613/2000/3000/10/
012160/20121031/140615/2000/180/10/
012160/20121031/140616/2000/1000/20/
012160/20121031/140624/1995/810/20/
012160/20121031/140630/1995/2200/20/
012160/20121031/140636/2005/1010/20/
012160/20121031/140640/2005/1560/20/
012160/20121031/140641/2005/2120/10/
012160/20121031/140643/2005/240/10/
012160/20121031/140647/2005/1000/20/
012160/20121031/140658/2005/810/20/
012160/20121031/140659/2005/190/10/
012160/20121031/140708/2005/1010/20/
012160/20121031/140718/2005/550/20/
012160/20121031/140735/2005/7500/20/
012160/20121031/140736/2005/2000/10/
012160/20121031/140738/2005/210/10/
012160/20121031/140740/2005/290/10/
012160/20121031/140804/2000/1110/10/
012160/20121031/140805/2000/1000/10/
012160/20121031/140806/2000/1000/10/
012160/20121031/140806/2000/2400/10/
012160/20121031/140807/2000/1080/10/
012160/20121031/140807/2000/3000/10/
012160/20121031/140807/2000/220/10/
012160/20121031/140810/2000/2000/20/
012160/20121031/140828/2000/1580/20/
012160/20121031/140832/2000/990/10/
012160/20121031/140833/2000/700/10/
012160/20121031/140839/2000/400/10/
012160/20121031/140847/2000/150/10/
012160/20121031/140938/1995/100/10/
012160/20121031/140942/1995/870/10/
012160/20121031/140959/1990/3030/10/
012160/20121031/141004/1990/470/20/
012160/20121031/141004/2000/1530/20/
012160/20121031/141049/1990/310/10/
012160/20121031/141055/1995/1490/20/
012160/20121031/141104/1995/1210/10/
012160/20121031/141106/1995/520/10/
012160/20121031/141111/1990/1000/10/
012160/20121031/141113/1990/4790/10/
012160/20121031/141120/1990/100/20/
012160/20121031/141204/1985/100/10/
012160/20121031/141205/1990/100/20/
012160/20121031/141235/1990/300/10/
012160/20121031/141248/1995/100/20/
012160/20121031/141301/1995/200/20/
012160/20121031/141316/1995/100/20/
012160/20121031/141332/1985/3550/10/
012160/20121031/141344/1985/100/20/
012160/20121031/141353/1985/90/20/
012160/20121031/141356/1985/800/20/
012160/20121031/141400/1980/1690/10/
012160/20121031/141403/1980/700/10/
012160/20121031/141415/1980/4000/10/
012160/20121031/141417/1980/320/10/
012160/20121031/141418/1980/660/10/
012160/20121031/141419/1980/350/10/
012160/20121031/141422/1980/1600/10/
012160/20121031/141423/1980/200/20/
012160/20121031/141425/1980/1000/20/
012160/20121031/141426/1980/530/20/
012160/20121031/141431/1980/470/10/
012160/20121031/141432/1975/1060/10/
012160/20121031/141442/1980/1530/20/
012160/20121031/141444/1980/1300/10/
012160/20121031/141502/1985/1670/10/
012160/20121031/141502/1980/380/10/
012160/20121031/141556/1985/2060/10/
012160/20121031/141600/1985/500/20/
012160/20121031/141616/1980/340/10/
012160/20121031/141632/1980/4200/10/
012160/20121031/141638/1980/1970/10/
012160/20121031/141650/1980/360/10/
012160/20121031/141707/1980/300/10/
012160/20121031/141710/1980/960/10/
012160/20121031/141710/1975/440/10/
012160/20121031/141710/1970/570/10/
012160/20121031/141735/1985/250/20/
012160/20121031/141837/1980/310/20/
012160/20121031/141841/1980/210/10/
012160/20121031/141904/1970/300/10/
012160/20121031/141911/1970/400/10/
012160/20121031/141912/1970/200/10/
012160/20121031/141913/1970/500/10/
012160/20121031/141914/1970/1490/10/
012160/20121031/141914/1965/2680/10/
012160/20121031/141919/1965/100/10/
012160/20121031/141922/1965/3830/10/
012160/20121031/141949/1970/800/20/
012160/20121031/141954/1970/300/10/
012160/20121031/141954/1965/3080/10/
012160/20121031/142021/1965/4690/10/
012160/20121031/142021/1960/2140/10/
012160/20121031/142026/1960/3220/10/
012160/20121031/142029/1960/1300/10/
012160/20121031/142036/1975/1800/20/
012160/20121031/142057/1980/3000/20/
012160/20121031/142133/1975/240/20/
012160/20121031/142142/1970/900/10/
012160/20121031/142155/1970/370/10/
012160/20121031/142155/1970/670/10/
012160/20121031/142206/1970/300/10/
012160/20121031/142221/1975/1190/20/
012160/20121031/142221/1980/810/20/
012160/20121031/142231/1975/320/10/
012160/20121031/142241/1975/510/10/
012160/20121031/142244/1975/170/10/
012160/20121031/142248/1975/130/20/
012160/20121031/142318/1975/170/20/
012160/20121031/142319/1970/3270/10/
012160/20121031/142320/1970/500/20/
012160/20121031/142326/1965/1840/10/
012160/20121031/142331/1965/4460/10/
012160/20121031/142353/1965/3500/10/
012160/20121031/142354/1970/1000/20/
012160/20121031/142357/1975/200/20/
012160/20121031/142357/1970/500/10/
012160/20121031/142417/1970/330/20/
012160/20121031/142420/1970/160/10/
012160/20121031/142431/1970/1980/20/
012160/20121031/142518/1970/100/10/
012160/20121031/142525/1970/1980/10/
012160/20121031/142533/1975/2320/20/
012160/20121031/142536/1980/4260/20/
012160/20121031/142544/1980/2770/10/
012160/20121031/142546/1985/430/20/
012160/20121031/142546/1990/3550/20/
012160/20121031/142549/1995/500/20/
012160/20121031/142554/1995/1700/20/
012160/20121031/142621/1995/2980/20/
012160/20121031/142637/1995/2910/20/
012160/20121031/142640/1995/620/20/
012160/20121031/142643/1995/1020/10/
012160/20121031/142651/1995/1620/20/
012160/20121031/142657/2000/390/20/
012160/20121031/142713/1995/310/10/
012160/20121031/142728/1995/780/10/
012160/20121031/142733/1995/230/20/
012160/20121031/142742/1995/100/10/
012160/20121031/142753/1995/300/10/
012160/20121031/142754/1995/1000/10/
012160/20121031/142804/1995/3000/10/
012160/20121031/142808/1995/660/10/
012160/20121031/142809/1995/540/20/
012160/20121031/142821/1995/700/20/
012160/20121031/142823/1995/1300/10/
012160/20121031/142918/1990/4050/10/
012160/20121031/142925/1990/1690/20/
012160/20121031/142933/1990/310/10/
012160/20121031/142933/1980/510/10/
012160/20121031/143049/1985/90/10/
012160/20121031/143106/1985/320/10/
012160/20121031/143108/1985/730/20/
012160/20121031/143132/1985/720/10/
012160/20121031/143134/1985/280/20/
012160/20121031/143149/1985/140/10/
012160/20121031/143155/1985/870/10/
012160/20121031/143210/1985/710/10/
012160/20121031/143210/1980/2290/10/
012160/20121031/143308/1980/100/10/
012160/20121031/143310/1980/100/10/
012160/20121031/143319/1980/180/10/
012160/20121031/143320/1980/100/10/
012160/20121031/143327/1980/200/10/
012160/20121031/143331/1980/100/10/
012160/20121031/143334/1980/570/10/
012160/20121031/143334/1975/4230/10/
012160/20121031/143351/1975/1000/20/
012160/20121031/143412/1970/150/10/
012160/20121031/143417/1970/620/10/
012160/20121031/143421/1975/1000/20/
012160/20121031/143435/1970/7340/10/
012160/20121031/143435/1965/13920/10/
012160/20121031/143508/1965/4050/10/
012160/20121031/143538/1965/4930/10/
012160/20121031/143549/1965/550/10/
012160/20121031/143608/1965/600/10/
012160/20121031/143711/1975/240/20/
012160/20121031/143712/1975/660/10/
012160/20121031/143712/1970/740/10/
012160/20121031/143754/1970/5300/10/
012160/20121031/143754/1970/1880/10/
012160/20121031/143909/1975/310/20/
012160/20121031/143916/1975/1420/20/
012160/20121031/143916/1980/2200/20/
012160/20121031/143920/1985/6320/20/
012160/20121031/143949/1985/100/20/
012160/20121031/144016/1985/5220/20/
012160/20121031/144018/1985/100/10/
012160/20121031/144040/1990/110/20/
012160/20121031/144142/1990/12240/20/
012160/20121031/144202/1995/7010/20/
012160/20121031/144210/1995/2700/20/
012160/20121031/144210/1995/400/20/
012160/20121031/144220/2000/9090/20/
012160/20121031/144223/1995/2360/10/
012160/20121031/144224/1995/3000/20/
012160/20121031/144230/1995/3000/20/
012160/20121031/144232/1995/300/20/
012160/20121031/144234/1995/1640/20/
012160/20121031/144252/2000/90/20/
012160/20121031/144258/2000/500/20/
012160/20121031/144311/1995/500/10/
012160/20121031/144320/1995/500/10/
012160/20121031/144342/1995/1500/20/
012160/20121031/144349/1995/1250/10/
012160/20121031/144349/1990/1660/10/
012160/20121031/144411/1995/110/20/
012160/20121031/144420/2000/6610/20/
012160/20121031/144421/2000/4010/20/
012160/20121031/144421/2000/1500/20/
012160/20121031/144422/2000/2000/20/
012160/20121031/144423/2000/2410/20/
012160/20121031/144423/2000/3000/20/
012160/20121031/144423/2000/1000/20/
012160/20121031/144423/2000/2000/20/
012160/20121031/144425/2000/510/20/
012160/20121031/144426/2000/5000/20/
012160/20121031/144427/1995/110/10/
012160/20121031/144428/2000/4080/20/
012160/20121031/144428/2005/220/20/
012160/20121031/144430/2005/6180/20/
012160/20121031/144430/2010/1430/20/
012160/20121031/144430/2010/6020/20/
012160/20121031/144442/2010/1030/20/
012160/20121031/144500/2000/110/10/
012160/20121031/144503/2010/5100/20/
012160/20121031/144510/2000/1000/10/
012160/20121031/144510/2000/2910/10/
012160/20121031/144519/1995/410/10/
012160/20121031/144527/1995/90/10/
012160/20121031/144530/1990/9140/10/
012160/20121031/144531/1990/3000/10/
012160/20121031/144531/1990/1500/10/
012160/20121031/144531/1990/7040/10/
012160/20121031/144532/1990/2000/10/
012160/20121031/144532/1990/4000/10/
012160/20121031/144532/1990/3000/10/
012160/20121031/144532/1990/2200/10/
012160/20121031/144532/1990/1970/10/
012160/20121031/144535/1990/140/20/
012160/20121031/144537/1990/790/20/
012160/20121031/144538/1990/2800/20/
012160/20121031/144543/1995/250/20/
012160/20121031/144543/1990/600/20/
012160/20121031/144546/1990/400/10/
012160/20121031/144551/1985/620/10/
012160/20121031/144606/1990/500/20/
012160/20121031/144609/1985/530/10/
012160/20121031/144609/1980/1370/10/
012160/20121031/144612/1980/1000/10/
012160/20121031/144616/1980/3000/10/
012160/20121031/144632/1990/1510/20/
012160/20121031/144633/1990/2630/20/
012160/20121031/144634/1990/360/20/
012160/20121031/144644/1995/110/20/
012160/20121031/144646/1995/10000/20/
012160/20121031/144646/1995/5800/20/
012160/20121031/144647/1995/1590/20/
012160/20121031/144648/2000/2070/20/
012160/20121031/144648/2005/2930/20/
012160/20121031/144655/1995/410/10/
012160/20121031/144701/1995/2140/20/
012160/20121031/144701/1995/450/20/
012160/20121031/144704/2005/2420/20/
012160/20121031/144707/2005/500/20/
012160/20121031/144708/2005/2060/20/
012160/20121031/144709/2005/300/20/
012160/20121031/144709/2005/1700/10/
012160/20121031/144710/2005/440/20/
012160/20121031/144711/2010/140/20/
012160/20121031/144712/2005/110/10/
012160/20121031/144712/2005/100/20/
012160/20121031/144714/2000/1300/20/
012160/20121031/144719/2000/150/20/
012160/20121031/144720/2000/330/20/
012160/20121031/144722/2000/100/20/
012160/20121031/144726/2000/2000/20/
012160/20121031/144740/2005/1720/20/
012160/20121031/144741/2005/1020/20/
012160/20121031/144745/2005/900/20/
012160/20121031/144747/2005/1000/20/
012160/20121031/144748/2005/1000/20/
012160/20121031/144748/2005/200/20/
012160/20121031/144751/2005/170/20/
012160/20121031/144754/2005/530/10/
012160/20121031/144754/2005/890/20/
012160/20121031/144758/2005/600/20/
012160/20121031/144758/2000/1340/10/
012160/20121031/144800/2000/1960/20/
012160/20121031/144801/2005/2130/20/
012160/20121031/144803/2005/1670/10/
012160/20121031/144810/2000/2140/20/
012160/20121031/144814/2000/500/20/
012160/20121031/144817/2000/2650/20/
012160/20121031/144819/2000/350/10/
012160/20121031/144819/1995/1650/10/
012160/20121031/144821/1995/2000/10/
012160/20121031/144821/1995/350/10/
012160/20121031/144822/1990/2280/10/
012160/20121031/144824/1990/1510/10/
012160/20121031/144824/1990/1930/20/
012160/20121031/144824/1995/1070/20/
012160/20121031/144826/1990/950/20/
012160/20121031/144828/1990/3000/20/
012160/20121031/144846/1990/380/10/
012160/20121031/144847/1990/2720/10/
012160/20121031/144849/1990/1060/20/
012160/20121031/144849/1995/10330/20/
012160/20121031/144854/1995/2550/10/
012160/20121031/144855/1995/1000/10/
012160/20121031/144855/1995/1060/10/
012160/20121031/144858/1990/1000/20/
012160/20121031/144904/1990/2020/10/
012160/20121031/144910/1990/2450/10/
012160/20121031/144916/1990/550/10/
012160/20121031/144919/1990/360/10/
012160/20121031/144923/1990/2750/10/
012160/20121031/144926/1990/770/20/
012160/20121031/144928/1990/2000/10/
012160/20121031/144928/1990/230/10/
012160/20121031/144931/1990/270/20/
012160/20121031/144934/1990/1940/10/
012160/20121031/144941/1990/500/10/
012160/20121031/144942/1990/1200/10/
012160/20121031/144943/1990/450/10/
012160/20121031/144944/1995/500/20/
012160/20121031/144949/1990/1130/10/
012160/20121031/144951/1990/1960/10/
012160/20121031/150001/1980/67860/10/
