012160/20130130/90000/1730/5950/20/
012160/20130130/90105/1730/300/20/
012160/20130130/90140/1725/300/10/
012160/20130130/90150/1725/200/10/
012160/20130130/90234/1720/1790/10/
012160/20130130/90234/1715/10070/10/
012160/20130130/90253/1715/1150/20/
012160/20130130/90353/1715/100/10/
012160/20130130/90449/1725/1520/20/
012160/20130130/90522/1725/4110/20/
012160/20130130/90522/1730/4390/20/
012160/20130130/90643/1725/330/10/
012160/20130130/90658/1725/1020/10/
012160/20130130/90658/1720/2360/10/
012160/20130130/90806/1720/2580/10/
012160/20130130/90810/1715/110/10/
012160/20130130/91157/1725/1620/20/
012160/20130130/91340/1720/360/10/
012160/20130130/91400/1720/1550/10/
012160/20130130/91447/1720/2420/20/
012160/20130130/91622/1715/480/10/
012160/20130130/91813/1715/4270/10/
012160/20130130/91848/1715/160/10/
012160/20130130/92026/1710/1030/10/
012160/20130130/92612/1720/3030/20/
012160/20130130/92618/1720/110/20/
012160/20130130/92800/1715/2630/10/
012160/20130130/92811/1715/2410/20/
012160/20130130/92821/1715/190/10/
012160/20130130/92821/1710/2410/10/
012160/20130130/93128/1720/4020/20/
012160/20130130/93134/1720/500/10/
012160/20130130/93318/1720/5020/10/
012160/20130130/93353/1725/2340/20/
012160/20130130/93353/1730/670/20/
012160/20130130/93501/1725/540/10/
012160/20130130/93515/1725/210/10/
012160/20130130/93533/1725/1320/20/
012160/20130130/93812/1720/2140/10/
012160/20130130/93833/1720/4620/20/
012160/20130130/93844/1720/510/10/
012160/20130130/93901/1720/510/10/
012160/20130130/93929/1725/520/20/
012160/20130130/93930/1725/700/20/
012160/20130130/94002/1725/200/20/
012160/20130130/94017/1725/3540/20/
012160/20130130/94017/1730/1130/20/
012160/20130130/94022/1730/240/20/
012160/20130130/94046/1725/110/10/
012160/20130130/94130/1725/1200/10/
012160/20130130/94452/1720/120/10/
012160/20130130/94458/1720/500/10/
012160/20130130/94611/1725/4040/20/
012160/20130130/94651/1725/10850/20/
012160/20130130/94732/1730/3040/20/
012160/20130130/94733/1730/2150/20/
012160/20130130/94735/1730/500/20/
012160/20130130/94735/1730/2000/20/
012160/20130130/94735/1730/1000/20/
012160/20130130/94737/1730/500/20/
012160/20130130/94737/1730/1000/20/
012160/20130130/94744/1730/3860/20/
012160/20130130/94744/1735/4120/20/
012160/20130130/94744/1740/6020/20/
012160/20130130/94756/1740/2000/20/
012160/20130130/94757/1740/230/20/
012160/20130130/94816/1735/1000/20/
012160/20130130/94816/1740/1910/20/
012160/20130130/94825/1735/1000/20/
012160/20130130/94835/1735/800/20/
012160/20130130/94858/1735/510/20/
012160/20130130/94917/1735/500/20/
012160/20130130/94919/1735/90/20/
012160/20130130/94919/1740/4910/20/
012160/20130130/94931/1740/3000/20/
012160/20130130/94942/1740/920/20/
012160/20130130/94945/1740/2000/20/
012160/20130130/94947/1740/10000/20/
012160/20130130/94949/1740/740/20/
012160/20130130/95004/1740/530/20/
012160/20130130/95013/1740/420/20/
012160/20130130/95039/1735/120/10/
012160/20130130/95047/1735/120/10/
012160/20130130/95052/1735/5330/10/
012160/20130130/95209/1735/1060/20/
012160/20130130/95214/1735/720/20/
012160/20130130/95219/1735/90/10/
012160/20130130/95228/1735/420/10/
012160/20130130/95229/1735/700/20/
012160/20130130/95229/1740/3760/20/
012160/20130130/95236/1740/4000/20/
012160/20130130/95239/1740/2820/20/
012160/20130130/95239/1745/180/20/
012160/20130130/95247/1740/510/20/
012160/20130130/95256/1745/90/20/
012160/20130130/95319/1745/2080/20/
012160/20130130/95326/1745/90/20/
012160/20130130/95327/1745/10010/20/
012160/20130130/95328/1745/1160/20/
012160/20130130/95328/1750/160/20/
012160/20130130/95331/1750/90/20/
012160/20130130/95333/1750/630/20/
012160/20130130/95333/1745/500/10/
012160/20130130/95335/1750/170/20/
012160/20130130/95340/1750/8760/20/
012160/20130130/95344/1750/510/20/
012160/20130130/95346/1750/5370/20/
012160/20130130/95358/1755/150/20/
012160/20130130/95400/1755/5710/20/
012160/20130130/95401/1760/120/20/
012160/20130130/95406/1755/100/10/
012160/20130130/95407/1755/500/10/
012160/20130130/95413/1760/130/20/
012160/20130130/95414/1760/3240/20/
012160/20130130/95420/1755/2510/10/
012160/20130130/95420/1755/1490/10/
012160/20130130/95420/1760/780/20/
012160/20130130/95422/1755/1000/20/
012160/20130130/95422/1760/1000/20/
012160/20130130/95423/1760/4200/20/
012160/20130130/95423/1755/660/10/
012160/20130130/95433/1755/300/20/
012160/20130130/95454/1750/2550/10/
012160/20130130/95553/1750/1790/10/
012160/20130130/95559/1750/1000/10/
012160/20130130/95600/1750/500/10/
012160/20130130/95614/1755/1870/20/
012160/20130130/95614/1760/14340/20/
012160/20130130/95614/1760/3040/10/
012160/20130130/95653/1760/220/20/
012160/20130130/95741/1760/180/20/
012160/20130130/95748/1760/1700/20/
012160/20130130/95751/1755/300/10/
012160/20130130/95755/1755/2720/10/
012160/20130130/95800/1755/540/20/
012160/20130130/95828/1755/510/10/
012160/20130130/95835/1755/940/10/
012160/20130130/95846/1760/5010/20/
012160/20130130/95851/1760/380/20/
012160/20130130/95909/1760/3950/20/
012160/20130130/95914/1760/1080/10/
012160/20130130/95923/1755/4120/10/
012160/20130130/95934/1755/210/20/
012160/20130130/100014/1750/3000/10/
012160/20130130/100030/1750/1010/10/
012160/20130130/100033/1755/5160/20/
012160/20130130/100053/1755/110/10/
012160/20130130/100121/1755/2060/10/
012160/20130130/100122/1755/7980/10/
012160/20130130/100130/1755/2000/20/
012160/20130130/100132/1755/4020/20/
012160/20130130/100138/1755/100/10/
012160/20130130/100209/1760/1040/20/
012160/20130130/100217/1760/400/20/
012160/20130130/100220/1760/3000/20/
012160/20130130/100237/1755/4860/10/
012160/20130130/100314/1755/100/20/
012160/20130130/100336/1755/450/10/
012160/20130130/100344/1755/290/20/
012160/20130130/100403/1755/2090/20/
012160/20130130/100413/1755/4980/10/
012160/20130130/100416/1755/4300/10/
012160/20130130/100431/1755/100/20/
012160/20130130/100434/1750/130/10/
012160/20130130/100435/1750/1140/10/
012160/20130130/100440/1750/1940/10/
012160/20130130/100500/1750/100/10/
012160/20130130/100513/1750/120/10/
012160/20130130/100523/1750/8830/10/
012160/20130130/100523/1745/11170/10/
012160/20130130/100534/1750/510/10/
012160/20130130/100540/1750/240/10/
012160/20130130/100552/1750/200/10/
012160/20130130/100605/1750/1050/10/
012160/20130130/100607/1750/320/10/
012160/20130130/100623/1750/790/20/
012160/20130130/100638/1745/3000/10/
012160/20130130/100706/1750/1500/20/
012160/20130130/100733/1750/1060/20/
012160/20130130/100946/1745/1020/10/
012160/20130130/100947/1745/150/10/
012160/20130130/101011/1745/1400/10/
012160/20130130/101017/1745/760/10/
012160/20130130/101210/1745/90/10/
012160/20130130/101218/1745/300/10/
012160/20130130/101234/1745/1000/10/
012160/20130130/101243/1745/830/10/
012160/20130130/101313/1745/360/20/
012160/20130130/101315/1745/1430/10/
012160/20130130/101317/1745/1020/10/
012160/20130130/101344/1740/10000/10/
012160/20130130/101352/1740/690/10/
012160/20130130/101401/1740/500/10/
012160/20130130/101402/1740/90/10/
012160/20130130/101405/1740/1980/10/
012160/20130130/101412/1740/300/10/
012160/20130130/101432/1740/1000/20/
012160/20130130/101502/1735/100/10/
012160/20130130/101541/1735/330/10/
012160/20130130/101600/1735/1710/10/
012160/20130130/101600/1730/6830/10/
012160/20130130/101618/1730/2210/20/
012160/20130130/101641/1730/110/10/
012160/20130130/101653/1740/5000/20/
012160/20130130/101740/1740/3700/20/
012160/20130130/101813/1740/1000/10/
012160/20130130/101855/1740/100/10/
012160/20130130/102153/1740/220/10/
012160/20130130/102245/1730/690/10/
012160/20130130/102245/1725/310/10/
012160/20130130/102413/1730/110/10/
012160/20130130/103342/1740/2450/20/
012160/20130130/103414/1740/2730/10/
012160/20130130/103705/1740/2070/20/
012160/20130130/103728/1740/210/20/
012160/20130130/103733/1740/150/20/
012160/20130130/103826/1745/200/20/
012160/20130130/104143/1740/180/20/
012160/20130130/104146/1735/120/10/
012160/20130130/104358/1735/100/10/
012160/20130130/104806/1740/350/20/
012160/20130130/105201/1740/1520/20/
012160/20130130/105616/1735/4080/10/
012160/20130130/105629/1735/3070/10/
012160/20130130/105714/1740/110/20/
012160/20130130/105906/1740/320/20/
012160/20130130/105928/1735/160/10/
012160/20130130/105934/1735/1270/10/
012160/20130130/110046/1740/520/20/
012160/20130130/110238/1740/3010/20/
012160/20130130/110320/1735/8000/10/
012160/20130130/110337/1735/5000/10/
012160/20130130/110350/1735/410/10/
012160/20130130/110355/1735/1140/10/
012160/20130130/110451/1735/3000/20/
012160/20130130/110619/1735/5060/20/
012160/20130130/110805/1735/100/20/
012160/20130130/110912/1730/2980/10/
012160/20130130/111048/1730/1000/10/
012160/20130130/111254/1735/110/20/
012160/20130130/111301/1735/810/20/
012160/20130130/111718/1735/200/20/
012160/20130130/111737/1730/8230/10/
012160/20130130/112051/1730/3590/10/
012160/20130130/112108/1730/1000/20/
012160/20130130/112114/1730/170/20/
012160/20130130/112208/1735/3110/20/
012160/20130130/112217/1735/1930/10/
012160/20130130/112257/1735/2370/20/
012160/20130130/112306/1735/640/10/
012160/20130130/112320/1735/700/20/
012160/20130130/112325/1735/2660/20/
012160/20130130/112332/1740/100/20/
012160/20130130/112357/1735/390/10/
012160/20130130/112409/1735/3010/20/
012160/20130130/112453/1735/320/20/
012160/20130130/112515/1735/110/20/
012160/20130130/112516/1735/4000/20/
012160/20130130/112541/1735/110/20/
012160/20130130/112622/1735/500/20/
012160/20130130/112629/1735/200/20/
012160/20130130/112640/1735/100/20/
012160/20130130/113022/1735/90/20/
012160/20130130/113029/1735/1000/20/
012160/20130130/113201/1735/110/20/
012160/20130130/113400/1735/960/20/
012160/20130130/113916/1735/8940/20/
012160/20130130/114110/1735/1220/10/
012160/20130130/114117/1740/1480/20/
012160/20130130/114120/1740/180/20/
012160/20130130/114227/1735/1530/10/
012160/20130130/114319/1740/830/20/
012160/20130130/114505/1740/7000/20/
012160/20130130/114512/1740/1970/20/
012160/20130130/114513/1740/4230/20/
012160/20130130/114525/1740/1000/20/
012160/20130130/114526/1740/840/20/
012160/20130130/114622/1745/320/20/
012160/20130130/114650/1745/1000/20/
012160/20130130/114700/1745/330/20/
012160/20130130/114707/1745/120/20/
012160/20130130/114730/1745/2000/20/
012160/20130130/114741/1745/2130/20/
012160/20130130/114747/1745/2000/20/
012160/20130130/114749/1745/1500/20/
012160/20130130/114751/1745/150/20/
012160/20130130/114755/1745/580/20/
012160/20130130/114756/1745/90/20/
012160/20130130/114756/1745/1130/20/
012160/20130130/114804/1745/730/20/
012160/20130130/114829/1745/800/10/
012160/20130130/114837/1745/380/20/
012160/20130130/114926/1745/360/20/
012160/20130130/114934/1750/1150/20/
012160/20130130/114943/1750/310/20/
012160/20130130/115101/1750/610/20/
012160/20130130/115234/1750/1000/20/
012160/20130130/115351/1750/2010/20/
012160/20130130/115414/1750/4010/20/
012160/20130130/115415/1750/480/20/
012160/20130130/115425/1750/3270/20/
012160/20130130/115445/1750/100/20/
012160/20130130/115455/1750/170/20/
012160/20130130/115519/1750/220/10/
012160/20130130/115539/1750/210/10/
012160/20130130/115540/1750/1350/10/
012160/20130130/115549/1750/1010/20/
012160/20130130/115609/1750/230/20/
012160/20130130/115700/1750/100/20/
012160/20130130/115732/1750/1380/20/
012160/20130130/115732/1750/500/10/
012160/20130130/115736/1750/120/10/
012160/20130130/115839/1750/1020/20/
012160/20130130/120040/1745/10000/10/
012160/20130130/120101/1740/1000/10/
012160/20130130/120136/1750/1190/20/
012160/20130130/121119/1745/90/10/
012160/20130130/121121/1750/1000/20/
012160/20130130/121511/1740/3010/10/
012160/20130130/121537/1740/1780/10/
012160/20130130/121817/1740/2990/10/
012160/20130130/122003/1740/100/10/
012160/20130130/122218/1745/140/20/
012160/20130130/122315/1745/210/20/
012160/20130130/122546/1745/220/10/
012160/20130130/122836/1745/160/10/
012160/20130130/122919/1745/310/10/
012160/20130130/123337/1740/190/10/
012160/20130130/123427/1745/200/20/
012160/20130130/124108/1740/2000/10/
012160/20130130/124328/1740/100/10/
012160/20130130/124341/1740/310/10/
012160/20130130/124437/1740/11530/10/
012160/20130130/124445/1740/100/20/
012160/20130130/124536/1740/1000/20/
012160/20130130/124555/1740/200/20/
012160/20130130/125007/1740/1200/10/
012160/20130130/125208/1740/230/10/
012160/20130130/125219/1740/2010/10/
012160/20130130/125300/1740/730/10/
012160/20130130/125331/1740/190/10/
012160/20130130/130031/1740/1940/10/
012160/20130130/130448/1740/2710/20/
012160/20130130/130457/1740/2010/10/
012160/20130130/130936/1740/360/10/
012160/20130130/131355/1740/890/20/
012160/20130130/131402/1740/1620/10/
012160/20130130/131545/1735/3020/10/
012160/20130130/131842/1735/1560/10/
012160/20130130/132157/1735/150/10/
012160/20130130/132249/1735/520/10/
012160/20130130/132657/1730/9080/10/
012160/20130130/132707/1730/1790/20/
012160/20130130/132720/1740/100/20/
012160/20130130/132949/1740/440/20/
012160/20130130/133232/1730/510/10/
012160/20130130/133400/1730/520/10/
012160/20130130/133934/1730/690/10/
012160/20130130/134424/1725/1000/10/
012160/20130130/134434/1725/1970/10/
012160/20130130/134443/1725/230/10/
012160/20130130/134443/1725/2820/10/
012160/20130130/134534/1725/520/10/
012160/20130130/134554/1725/100/10/
012160/20130130/134643/1730/130/20/
012160/20130130/134830/1730/300/20/
012160/20130130/135016/1730/440/20/
012160/20130130/135133/1730/1090/10/
012160/20130130/135429/1725/1200/10/
012160/20130130/135733/1725/1510/10/
012160/20130130/135755/1725/90/20/
012160/20130130/135816/1725/200/20/
012160/20130130/135907/1725/100/20/
012160/20130130/135917/1725/100/20/
012160/20130130/135946/1725/950/20/
012160/20130130/140354/1730/90/20/
012160/20130130/140458/1730/140/20/
012160/20130130/140504/1725/1170/10/
012160/20130130/140558/1725/1770/10/
012160/20130130/140617/1725/2760/20/
012160/20130130/140732/1725/1210/10/
012160/20130130/140943/1725/390/10/
012160/20130130/141523/1725/1010/10/
012160/20130130/141743/1730/1010/20/
012160/20130130/141748/1730/3350/20/
012160/20130130/141804/1730/1820/10/
012160/20130130/142132/1730/450/10/
012160/20130130/142138/1730/520/10/
012160/20130130/142508/1735/130/20/
012160/20130130/142605/1730/300/10/
012160/20130130/142943/1730/1050/10/
012160/20130130/143153/1735/90/20/
012160/20130130/143359/1730/510/10/
012160/20130130/143402/1730/2000/10/
012160/20130130/143604/1730/520/10/
012160/20130130/143648/1730/100/10/
012160/20130130/143942/1725/190/10/
012160/20130130/144011/1725/330/10/
012160/20130130/144031/1730/1340/20/
012160/20130130/144103/1730/1170/20/
012160/20130130/144115/1730/1150/10/
012160/20130130/144157/1730/310/20/
012160/20130130/144225/1725/1000/10/
012160/20130130/144229/1725/1000/10/
012160/20130130/144311/1725/1510/10/
012160/20130130/144312/1725/1010/10/
012160/20130130/144620/1730/1060/20/
012160/20130130/144810/1730/2900/20/
012160/20130130/144812/1725/500/10/
012160/20130130/144849/1730/560/20/
012160/20130130/144943/1735/180/20/
012160/20130130/150001/1720/42780/10/
