012160/20121114/90000/1810/37280/10/
012160/20121114/90040/1815/190/20/
012160/20121114/90041/1820/730/20/
012160/20121114/90051/1820/2000/20/
012160/20121114/90056/1825/2000/20/
012160/20121114/90150/1825/610/20/
012160/20121114/90201/1830/1000/20/
012160/20121114/90229/1825/700/10/
012160/20121114/90229/1825/200/10/
012160/20121114/90232/1825/2500/20/
012160/20121114/90243/1825/1000/20/
012160/20121114/90251/1825/200/20/
012160/20121114/90303/1825/310/20/
012160/20121114/90312/1825/500/20/
012160/20121114/90320/1820/1220/10/
012160/20121114/90357/1815/150/10/
012160/20121114/90418/1820/1000/20/
012160/20121114/90420/1820/1500/20/
012160/20121114/90439/1825/3000/20/
012160/20121114/90453/1825/1650/20/
012160/20121114/90604/1830/100/20/
012160/20121114/90605/1825/200/10/
012160/20121114/90609/1825/100/20/
012160/20121114/90617/1825/130/10/
012160/20121114/90619/1825/200/20/
012160/20121114/90634/1830/220/10/
012160/20121114/90635/1830/300/10/
012160/20121114/90640/1830/730/20/
012160/20121114/90642/1830/270/20/
012160/20121114/90652/1835/300/20/
012160/20121114/90706/1830/100/10/
012160/20121114/90719/1835/150/20/
012160/20121114/90726/1835/190/20/
012160/20121114/90735/1835/250/20/
012160/20121114/90751/1840/200/20/
012160/20121114/90833/1840/1300/20/
012160/20121114/90835/1840/520/10/
012160/20121114/90836/1840/680/10/
012160/20121114/90850/1835/200/10/
012160/20121114/90909/1840/300/20/
012160/20121114/90920/1840/200/20/
012160/20121114/90922/1840/2000/10/
012160/20121114/90926/1840/1000/10/
012160/20121114/90934/1845/1980/20/
012160/20121114/90934/1850/2250/20/
012160/20121114/90952/1850/1050/10/
012160/20121114/91014/1850/280/10/
012160/20121114/91025/1850/1300/10/
012160/20121114/91026/1850/1180/20/
012160/20121114/91026/1850/550/20/
012160/20121114/91037/1855/90/20/
012160/20121114/91051/1850/1010/10/
012160/20121114/91056/1850/2000/10/
012160/20121114/91057/1850/2000/10/
012160/20121114/91058/1855/270/20/
012160/20121114/91110/1850/1000/10/
012160/20121114/91144/1850/5450/10/
012160/20121114/91201/1850/3550/20/
012160/20121114/91212/1850/2040/10/
012160/20121114/91212/1850/310/10/
012160/20121114/91245/1850/690/20/
012160/20121114/91249/1850/1680/10/
012160/20121114/91341/1840/1000/10/
012160/20121114/91359/1850/3320/20/
012160/20121114/91433/1855/130/20/
012160/20121114/91511/1865/820/20/
012160/20121114/91511/1870/1510/20/
012160/20121114/91523/1870/5000/10/
012160/20121114/91524/1870/3410/10/
012160/20121114/91540/1855/2130/10/
012160/20121114/91540/1850/2870/10/
012160/20121114/91544/1865/280/20/
012160/20121114/91629/1865/770/20/
012160/20121114/91643/1855/140/10/
012160/20121114/91701/1855/3020/10/
012160/20121114/91730/1855/470/20/
012160/20121114/91805/1860/530/20/
012160/20121114/91826/1855/100/10/
012160/20121114/91826/1850/400/10/
012160/20121114/91837/1860/220/20/
012160/20121114/91927/1850/950/10/
012160/20121114/91927/1845/650/10/
012160/20121114/91927/1840/670/10/
012160/20121114/91927/1835/2720/10/
012160/20121114/91952/1840/570/10/
012160/20121114/91956/1840/300/20/
012160/20121114/92014/1840/200/20/
012160/20121114/92023/1840/1300/10/
012160/20121114/92023/1835/1590/10/
012160/20121114/92023/1830/2110/10/
012160/20121114/92044/1835/600/10/
012160/20121114/92145/1840/1500/10/
012160/20121114/92337/1850/350/20/
012160/20121114/92337/1855/100/20/
012160/20121114/92408/1840/1120/10/
012160/20121114/92408/1835/3890/10/
012160/20121114/92437/1840/800/10/
012160/20121114/92452/1840/200/10/
012160/20121114/92455/1850/1000/20/
012160/20121114/92516/1850/90/20/
012160/20121114/92528/1850/450/20/
012160/20121114/92602/1845/350/20/
012160/20121114/92609/1845/100/10/
012160/20121114/92617/1845/200/20/
012160/20121114/92617/1850/900/20/
012160/20121114/92703/1850/1110/20/
012160/20121114/92712/1840/2200/10/
012160/20121114/92712/1835/1740/10/
012160/20121114/92712/1830/1060/10/
012160/20121114/92810/1835/90/10/
012160/20121114/92822/1840/1520/20/
012160/20121114/93041/1835/2990/10/
012160/20121114/93058/1830/3190/10/
012160/20121114/93114/1825/590/10/
012160/20121114/93134/1840/110/20/
012160/20121114/93204/1825/310/10/
012160/20121114/93310/1825/120/10/
012160/20121114/93426/1825/150/10/
012160/20121114/93426/1820/310/10/
012160/20121114/93546/1820/3020/10/
012160/20121114/93553/1820/700/10/
012160/20121114/93559/1820/420/10/
012160/20121114/93611/1820/110/10/
012160/20121114/93648/1820/100/10/
012160/20121114/93714/1820/500/10/
012160/20121114/93840/1820/280/10/
012160/20121114/93921/1825/220/20/
012160/20121114/94015/1825/800/10/
012160/20121114/94103/1830/550/20/
012160/20121114/94108/1825/1270/10/
012160/20121114/94137/1825/200/10/
012160/20121114/94230/1825/2000/10/
012160/20121114/94325/1830/100/20/
012160/20121114/94342/1825/1000/10/
012160/20121114/94506/1830/1010/20/
012160/20121114/94546/1825/1370/10/
012160/20121114/94546/1820/2930/10/
012160/20121114/94556/1830/800/20/
012160/20121114/94645/1835/100/20/
012160/20121114/94752/1830/110/20/
012160/20121114/94856/1825/200/10/
012160/20121114/94901/1825/100/20/
012160/20121114/94914/1830/610/20/
012160/20121114/94921/1830/920/20/
012160/20121114/95006/1830/1720/20/
012160/20121114/95017/1830/780/20/
012160/20121114/95050/1830/90/10/
012160/20121114/95139/1830/130/10/
012160/20121114/95205/1825/100/10/
012160/20121114/95432/1825/500/10/
012160/20121114/95551/1830/920/20/
012160/20121114/95551/1835/1650/20/
012160/20121114/95709/1825/1000/10/
012160/20121114/95735/1825/310/10/
012160/20121114/95814/1820/610/10/
012160/20121114/95816/1820/500/10/
012160/20121114/95820/1820/5000/10/
012160/20121114/95822/1820/390/10/
012160/20121114/95856/1820/1000/20/
012160/20121114/95907/1815/510/10/
012160/20121114/95916/1815/3000/10/
012160/20121114/95931/1815/1070/20/
012160/20121114/95945/1810/2230/10/
012160/20121114/95945/1805/2770/10/
012160/20121114/95953/1805/1180/10/
012160/20121114/95953/1800/8820/10/
012160/20121114/95954/1800/4000/10/
012160/20121114/100001/1800/1000/10/
012160/20121114/100001/1800/2470/10/
012160/20121114/100037/1795/190/10/
012160/20121114/100041/1795/830/20/
012160/20121114/100042/1795/670/10/
012160/20121114/100045/1795/520/20/
012160/20121114/100046/1795/2810/20/
012160/20121114/100230/1800/510/20/
012160/20121114/100237/1800/320/10/
012160/20121114/100257/1800/3000/10/
012160/20121114/100335/1810/570/20/
012160/20121114/100348/1810/110/20/
012160/20121114/100405/1810/1000/10/
012160/20121114/100405/1810/940/10/
012160/20121114/100439/1810/270/10/
012160/20121114/100439/1810/830/10/
012160/20121114/100455/1810/150/20/
012160/20121114/100546/1810/1380/10/
012160/20121114/100557/1810/120/20/
012160/20121114/100626/1810/1000/10/
012160/20121114/100627/1810/90/20/
012160/20121114/100652/1815/230/20/
012160/20121114/100700/1815/500/20/
012160/20121114/100702/1815/500/20/
012160/20121114/100717/1820/1510/20/
012160/20121114/100925/1815/130/10/
012160/20121114/100937/1815/380/10/
012160/20121114/100937/1810/150/10/
012160/20121114/100937/1800/460/10/
012160/20121114/101016/1805/1380/10/
012160/20121114/101016/1800/1620/10/
012160/20121114/101445/1805/140/10/
012160/20121114/101534/1805/5670/10/
012160/20121114/101534/1800/4330/10/
012160/20121114/101712/1800/2000/10/
012160/20121114/101949/1805/300/10/
012160/20121114/102114/1805/310/10/
012160/20121114/102240/1805/400/10/
012160/20121114/102300/1805/600/10/
012160/20121114/102558/1810/200/10/
012160/20121114/102615/1820/250/20/
012160/20121114/102906/1820/1000/20/
012160/20121114/103406/1820/600/20/
012160/20121114/103528/1820/430/10/
012160/20121114/103810/1820/520/10/
012160/20121114/103858/1815/2080/10/
012160/20121114/103858/1815/2930/20/
012160/20121114/103914/1820/910/20/
012160/20121114/103930/1825/1110/20/
012160/20121114/104006/1830/1550/20/
012160/20121114/104458/1835/1520/20/
012160/20121114/104553/1830/1350/10/
012160/20121114/104722/1825/500/10/
012160/20121114/104940/1825/310/10/
012160/20121114/105048/1830/200/20/
012160/20121114/105116/1825/710/10/
012160/20121114/105117/1835/580/20/
012160/20121114/105547/1825/110/10/
012160/20121114/105843/1830/500/20/
012160/20121114/105855/1830/500/10/
012160/20121114/110033/1830/560/10/
012160/20121114/110317/1830/2150/20/
012160/20121114/110354/1825/2710/10/
012160/20121114/110559/1825/2000/10/
012160/20121114/110619/1825/500/20/
012160/20121114/110731/1820/100/10/
012160/20121114/110951/1820/110/10/
012160/20121114/111018/1820/100/10/
012160/20121114/111140/1825/11000/20/
012160/20121114/111149/1825/1760/20/
012160/20121114/111152/1825/2950/20/
012160/20121114/111445/1825/100/10/
012160/20121114/112120/1830/5010/20/
012160/20121114/112136/1825/2860/10/
012160/20121114/112403/1830/440/20/
012160/20121114/112405/1830/2230/20/
012160/20121114/112449/1835/2010/20/
012160/20121114/112513/1830/380/10/
012160/20121114/112546/1825/2640/10/
012160/20121114/112900/1840/490/20/
012160/20121114/112921/1840/510/20/
012160/20121114/112926/1840/500/20/
012160/20121114/112946/1840/520/20/
012160/20121114/113028/1840/290/20/
012160/20121114/113039/1840/1470/20/
012160/20121114/113043/1840/500/10/
012160/20121114/113046/1840/430/10/
012160/20121114/113417/1835/100/10/
012160/20121114/113534/1835/500/10/
012160/20121114/113853/1835/160/10/
012160/20121114/113937/1835/240/10/
012160/20121114/114401/1835/150/20/
012160/20121114/114556/1835/380/20/
012160/20121114/115459/1830/1490/10/
012160/20121114/115459/1825/240/10/
012160/20121114/115512/1835/590/20/
012160/20121114/120347/1830/100/10/
012160/20121114/120915/1830/120/10/
012160/20121114/121049/1830/910/10/
012160/20121114/121112/1825/570/10/
012160/20121114/121237/1830/580/20/
012160/20121114/121240/1830/460/20/
012160/20121114/121240/1835/6730/20/
012160/20121114/121259/1835/100/20/
012160/20121114/121507/1835/1230/20/
012160/20121114/121557/1835/1600/20/
012160/20121114/121707/1835/120/10/
012160/20121114/121709/1835/200/10/
012160/20121114/122031/1840/3000/20/
012160/20121114/122135/1840/110/20/
012160/20121114/122252/1845/90/20/
012160/20121114/122441/1840/300/10/
012160/20121114/122557/1840/170/10/
012160/20121114/122608/1840/500/10/
012160/20121114/122630/1840/2000/10/
012160/20121114/122633/1840/2000/10/
012160/20121114/122654/1840/410/10/
012160/20121114/122656/1840/1520/10/
012160/20121114/122921/1840/260/20/
012160/20121114/122921/1845/1920/20/
012160/20121114/122921/1850/1820/20/
012160/20121114/123254/1850/670/20/
012160/20121114/123519/1840/570/10/
012160/20121114/123519/1835/2050/10/
012160/20121114/123519/1830/420/10/
012160/20121114/123654/1835/1000/10/
012160/20121114/123707/1835/110/20/
012160/20121114/123808/1840/390/10/
012160/20121114/123950/1840/1060/10/
012160/20121114/123951/1845/550/20/
012160/20121114/123952/1845/550/20/
012160/20121114/123953/1845/140/20/
012160/20121114/124000/1845/620/10/
012160/20121114/124001/1845/380/20/
012160/20121114/124001/1850/120/20/
012160/20121114/124003/1850/1230/20/
012160/20121114/124011/1850/200/20/
012160/20121114/124011/1850/450/20/
012160/20121114/124012/1850/100/20/
012160/20121114/124019/1850/1040/20/
012160/20121114/124022/1850/800/20/
012160/20121114/124023/1850/470/20/
012160/20121114/124024/1850/200/10/
012160/20121114/124030/1855/3430/20/
012160/20121114/124033/1855/1590/20/
012160/20121114/124036/1860/270/20/
012160/20121114/124036/1860/3000/20/
012160/20121114/124037/1860/130/20/
012160/20121114/124037/1865/1870/20/
012160/20121114/124042/1865/1450/20/
012160/20121114/124053/1865/550/10/
012160/20121114/124053/1865/540/10/
012160/20121114/124053/1865/500/10/
012160/20121114/124054/1865/800/10/
012160/20121114/124055/1865/1050/10/
012160/20121114/124107/1870/500/20/
012160/20121114/124126/1870/960/20/
012160/20121114/124130/1870/1210/20/
012160/20121114/124140/1865/370/20/
012160/20121114/124149/1865/690/20/
012160/20121114/124154/1865/970/10/
012160/20121114/124257/1860/550/20/
012160/20121114/124310/1850/750/10/
012160/20121114/124324/1850/520/10/
012160/20121114/124431/1850/290/10/
012160/20121114/124446/1860/1640/20/
012160/20121114/124733/1855/120/10/
012160/20121114/124733/1850/700/10/
012160/20121114/124733/1850/1690/20/
012160/20121114/124802/1850/110/20/
012160/20121114/124810/1850/1500/10/
012160/20121114/124824/1850/220/10/
012160/20121114/124841/1845/1980/10/
012160/20121114/124841/1840/480/10/
012160/20121114/125351/1840/1600/10/
012160/20121114/125406/1840/820/10/
012160/20121114/125548/1840/470/10/
012160/20121114/125641/1840/90/20/
012160/20121114/125911/1845/110/20/
012160/20121114/130136/1840/1280/10/
012160/20121114/130616/1845/390/20/
012160/20121114/130632/1845/2620/20/
012160/20121114/130649/1845/810/20/
012160/20121114/130652/1845/2200/10/
012160/20121114/130710/1845/300/20/
012160/20121114/131141/1845/1500/10/
012160/20121114/131156/1845/1000/10/
012160/20121114/131344/1845/500/10/
012160/20121114/131401/1845/300/10/
012160/20121114/131405/1845/1000/10/
012160/20121114/131444/1845/140/10/
012160/20121114/131458/1845/300/10/
012160/20121114/131501/1845/300/10/
012160/20121114/131556/1845/310/10/
012160/20121114/131657/1845/560/10/
012160/20121114/132101/1845/110/10/
012160/20121114/132246/1845/1000/10/
012160/20121114/132349/1845/200/10/
012160/20121114/132349/1845/500/10/
012160/20121114/132411/1845/250/10/
012160/20121114/132501/1845/500/10/
012160/20121114/132551/1845/100/10/
012160/20121114/132602/1845/1000/10/
012160/20121114/132723/1845/2870/10/
012160/20121114/132734/1845/150/10/
012160/20121114/132738/1845/1000/10/
012160/20121114/132806/1845/720/10/
012160/20121114/132913/1840/510/10/
012160/20121114/133208/1840/11480/10/
012160/20121114/133215/1840/3540/10/
012160/20121114/133226/1840/1000/20/
012160/20121114/133555/1840/460/20/
012160/20121114/133611/1840/2000/10/
012160/20121114/133619/1840/500/10/
012160/20121114/133659/1840/1000/10/
012160/20121114/133725/1845/7300/20/
012160/20121114/133834/1845/1010/20/
012160/20121114/133919/1845/2000/10/
012160/20121114/134013/1845/2000/10/
012160/20121114/134220/1845/1040/10/
012160/20121114/134220/1845/960/20/
012160/20121114/134312/1845/1000/10/
012160/20121114/134317/1845/2000/20/
012160/20121114/134424/1850/7130/20/
012160/20121114/134457/1850/130/20/
012160/20121114/134624/1855/5000/20/
012160/20121114/134624/1860/1330/20/
012160/20121114/134634/1865/380/20/
012160/20121114/134645/1865/1540/20/
012160/20121114/134648/1865/1000/10/
012160/20121114/134658/1865/680/10/
012160/20121114/134714/1865/1000/10/
012160/20121114/134717/1865/190/10/
012160/20121114/134844/1860/420/10/
012160/20121114/134856/1860/330/20/
012160/20121114/134927/1855/800/10/
012160/20121114/135442/1850/900/10/
012160/20121114/135702/1850/500/10/
012160/20121114/135749/1850/2650/10/
012160/20121114/135810/1850/460/10/
012160/20121114/135923/1850/220/10/
012160/20121114/140241/1850/100/10/
012160/20121114/140335/1850/1000/10/
012160/20121114/140417/1850/1000/10/
012160/20121114/140546/1850/1000/10/
012160/20121114/140614/1850/1980/10/
012160/20121114/140614/1845/6520/10/
012160/20121114/141225/1850/110/10/
012160/20121114/141226/1850/380/20/
012160/20121114/141246/1850/100/10/
012160/20121114/141413/1850/100/10/
012160/20121114/141536/1850/620/10/
012160/20121114/141605/1850/1520/10/
012160/20121114/141739/1850/510/10/
012160/20121114/141802/1850/90/10/
012160/20121114/141825/1850/1790/10/
012160/20121114/142534/1845/4450/10/
012160/20121114/142547/1845/2000/10/
012160/20121114/142557/1845/4440/10/
012160/20121114/142623/1845/200/10/
012160/20121114/142725/1845/1000/10/
012160/20121114/142735/1845/200/10/
012160/20121114/142803/1845/2640/10/
012160/20121114/142803/1840/5820/10/
012160/20121114/142947/1845/100/10/
012160/20121114/143022/1850/610/20/
012160/20121114/143151/1850/1000/20/
012160/20121114/143316/1850/100/20/
012160/20121114/143444/1850/100/20/
012160/20121114/143500/1850/100/20/
012160/20121114/143555/1845/2050/10/
012160/20121114/143655/1845/700/10/
012160/20121114/143844/1845/1000/10/
012160/20121114/143849/1845/200/10/
012160/20121114/143906/1845/400/10/
012160/20121114/143946/1845/1910/10/
012160/20121114/143953/1845/2000/20/
012160/20121114/144009/1845/740/20/
012160/20121114/144103/1845/90/20/
012160/20121114/144223/1845/330/20/
012160/20121114/144303/1840/5000/10/
012160/20121114/144308/1840/500/10/
012160/20121114/144311/1840/770/10/
012160/20121114/144311/1840/500/10/
012160/20121114/144321/1840/500/10/
012160/20121114/144429/1840/4990/10/
012160/20121114/144546/1835/2810/10/
012160/20121114/144546/1835/300/10/
012160/20121114/144608/1835/910/10/
012160/20121114/144631/1835/100/10/
012160/20121114/144703/1835/1070/10/
012160/20121114/144704/1835/2200/10/
012160/20121114/144715/1835/490/10/
012160/20121114/144738/1835/200/10/
012160/20121114/144738/1835/1230/10/
012160/20121114/144751/1835/570/20/
012160/20121114/144751/1840/430/20/
012160/20121114/144908/1840/540/20/
012160/20121114/144909/1840/330/20/
012160/20121114/144923/1840/100/10/
012160/20121114/144925/1840/100/20/
012160/20121114/150000/1850/8260/10/
