012160/20130115/90000/1705/5950/20/
012160/20130115/90006/1705/400/20/
012160/20130115/90015/1705/840/20/
012160/20130115/90102/1705/720/10/
012160/20130115/90106/1705/780/10/
012160/20130115/90121/1700/500/10/
012160/20130115/90128/1700/640/10/
012160/20130115/90159/1705/2060/20/
012160/20130115/90203/1705/140/20/
012160/20130115/90232/1705/1010/20/
012160/20130115/90256/1705/970/20/
012160/20130115/90319/1705/400/10/
012160/20130115/90419/1700/230/10/
012160/20130115/90425/1705/1000/20/
012160/20130115/90433/1705/1200/20/
012160/20130115/90520/1705/160/10/
012160/20130115/90542/1705/1510/10/
012160/20130115/90608/1710/1260/20/
012160/20130115/90642/1705/3370/10/
012160/20130115/90643/1705/1240/20/
012160/20130115/90724/1705/200/20/
012160/20130115/90734/1705/100/20/
012160/20130115/90757/1700/1000/10/
012160/20130115/90809/1700/7950/10/
012160/20130115/90809/1695/2090/10/
012160/20130115/90850/1700/540/20/
012160/20130115/90852/1700/300/20/
012160/20130115/90920/1700/430/20/
012160/20130115/90940/1700/1010/10/
012160/20130115/91004/1705/310/20/
012160/20130115/91033/1705/100/20/
012160/20130115/91049/1700/1100/10/
012160/20130115/91114/1700/580/10/
012160/20130115/91221/1700/940/10/
012160/20130115/91239/1705/1000/20/
012160/20130115/91253/1700/5700/10/
012160/20130115/91253/1695/5670/10/
012160/20130115/91253/1690/6790/10/
012160/20130115/91253/1685/5490/10/
012160/20130115/91253/1680/6110/10/
012160/20130115/91253/1700/1240/10/
012160/20130115/91255/1700/100/20/
012160/20130115/91321/1700/100/10/
012160/20130115/91331/1700/480/20/
012160/20130115/91437/1690/2000/10/
012160/20130115/91438/1690/640/10/
012160/20130115/91547/1690/2040/10/
012160/20130115/91556/1690/680/10/
012160/20130115/91644/1695/200/20/
012160/20130115/91644/1700/90/20/
012160/20130115/91653/1690/1500/20/
012160/20130115/91756/1700/260/20/
012160/20130115/91803/1700/90/20/
012160/20130115/91807/1700/90/20/
012160/20130115/91811/1700/90/20/
012160/20130115/91816/1700/90/20/
012160/20130115/91820/1700/90/20/
012160/20130115/91824/1700/90/20/
012160/20130115/91829/1700/90/20/
012160/20130115/91833/1700/90/20/
012160/20130115/91838/1700/90/20/
012160/20130115/91843/1700/90/20/
012160/20130115/91847/1700/90/20/
012160/20130115/91852/1700/90/20/
012160/20130115/91856/1700/90/20/
012160/20130115/91900/1700/350/20/
012160/20130115/91904/1700/90/20/
012160/20130115/91910/1700/90/20/
012160/20130115/91911/1700/510/20/
012160/20130115/91914/1700/90/20/
012160/20130115/91918/1700/90/20/
012160/20130115/91922/1700/90/20/
012160/20130115/91927/1700/90/20/
012160/20130115/91927/1700/230/20/
012160/20130115/91931/1700/90/20/
012160/20130115/91937/1705/90/20/
012160/20130115/91941/1705/90/20/
012160/20130115/91946/1705/90/20/
012160/20130115/91950/1705/90/20/
012160/20130115/91954/1705/90/20/
012160/20130115/91958/1705/90/20/
012160/20130115/92002/1705/90/20/
012160/20130115/92007/1705/90/20/
012160/20130115/92011/1705/90/20/
012160/20130115/92016/1705/90/20/
012160/20130115/92020/1705/90/20/
012160/20130115/92025/1705/90/20/
012160/20130115/92029/1705/90/20/
012160/20130115/92034/1705/90/20/
012160/20130115/92038/1705/90/20/
012160/20130115/92042/1705/90/20/
012160/20130115/92047/1705/90/20/
012160/20130115/92051/1705/90/20/
012160/20130115/92056/1705/90/20/
012160/20130115/92100/1705/90/20/
012160/20130115/92105/1705/90/20/
012160/20130115/92110/1705/90/20/
012160/20130115/92114/1705/90/20/
012160/20130115/92119/1705/90/20/
012160/20130115/92123/1705/90/20/
012160/20130115/92124/1705/1010/20/
012160/20130115/92124/1705/1520/20/
012160/20130115/92127/1705/90/20/
012160/20130115/92132/1705/90/20/
012160/20130115/92136/1705/90/20/
012160/20130115/92140/1705/90/20/
012160/20130115/92143/1705/160/20/
012160/20130115/92147/1710/90/20/
012160/20130115/92152/1710/90/20/
012160/20130115/92156/1710/90/20/
012160/20130115/92201/1710/90/20/
012160/20130115/92206/1710/90/20/
012160/20130115/92210/1710/90/20/
012160/20130115/92215/1710/90/20/
012160/20130115/92219/1710/90/20/
012160/20130115/92223/1710/90/20/
012160/20130115/92228/1710/90/20/
012160/20130115/92429/1700/4800/10/
012160/20130115/92429/1700/2080/10/
012160/20130115/92429/1695/2870/10/
012160/20130115/92429/1690/510/10/
012160/20130115/92447/1705/1000/10/
012160/20130115/92454/1690/790/10/
012160/20130115/92514/1690/4730/10/
012160/20130115/92514/1690/4270/20/
012160/20130115/92516/1685/540/10/
012160/20130115/92648/1700/270/20/
012160/20130115/92700/1695/1000/10/
012160/20130115/92809/1705/100/20/
012160/20130115/92819/1705/1880/20/
012160/20130115/92822/1705/200/20/
012160/20130115/92834/1705/500/20/
012160/20130115/92846/1705/500/20/
012160/20130115/92848/1705/1480/20/
012160/20130115/93005/1705/1010/10/
012160/20130115/93027/1705/930/10/
012160/20130115/93111/1705/210/20/
012160/20130115/93202/1705/100/20/
012160/20130115/93236/1705/500/20/
012160/20130115/93330/1705/1780/20/
012160/20130115/93419/1710/1160/20/
012160/20130115/93548/1710/90/20/
012160/20130115/93551/1710/3740/20/
012160/20130115/93642/1710/100/10/
012160/20130115/93642/1705/1280/10/
012160/20130115/93642/1700/230/10/
012160/20130115/93736/1715/3020/20/
012160/20130115/93743/1715/700/20/
012160/20130115/93747/1715/500/10/
012160/20130115/93751/1715/300/10/
012160/20130115/94003/1710/200/20/
012160/20130115/94021/1710/100/10/
012160/20130115/94221/1715/440/20/
012160/20130115/94238/1710/510/10/
012160/20130115/94238/1705/2780/10/
012160/20130115/94238/1700/4510/10/
012160/20130115/94238/1695/1190/10/
012160/20130115/94347/1695/1010/10/
012160/20130115/94446/1695/200/10/
012160/20130115/94605/1700/310/20/
012160/20130115/94626/1700/110/20/
012160/20130115/94752/1695/1970/10/
012160/20130115/94759/1695/2900/10/
012160/20130115/94818/1695/1300/10/
012160/20130115/94818/1690/4700/10/
012160/20130115/94921/1695/150/10/
012160/20130115/94935/1700/700/20/
012160/20130115/95024/1690/3730/10/
012160/20130115/95102/1690/2030/10/
012160/20130115/95125/1690/470/10/
012160/20130115/95125/1685/1060/10/
012160/20130115/95133/1690/400/20/
012160/20130115/95145/1690/1000/20/
012160/20130115/95145/1690/250/20/
012160/20130115/95156/1690/100/20/
012160/20130115/95210/1690/760/20/
012160/20130115/95304/1690/2310/10/
012160/20130115/95304/1685/1460/10/
012160/20130115/95339/1695/90/20/
012160/20130115/95343/1695/90/20/
012160/20130115/95348/1695/90/20/
012160/20130115/95355/1695/90/20/
012160/20130115/95404/1695/90/20/
012160/20130115/95413/1695/90/20/
012160/20130115/95511/1695/770/20/
012160/20130115/95519/1695/600/10/
012160/20130115/95546/1690/4070/10/
012160/20130115/95633/1690/2070/10/
012160/20130115/95653/1690/500/10/
012160/20130115/95703/1690/310/10/
012160/20130115/95728/1690/110/20/
012160/20130115/95815/1690/700/20/
012160/20130115/95816/1690/880/20/
012160/20130115/95918/1690/100/20/
012160/20130115/100030/1690/210/20/
012160/20130115/100032/1690/1000/20/
012160/20130115/100049/1690/500/20/
012160/20130115/100057/1690/1000/20/
012160/20130115/100111/1690/590/20/
012160/20130115/100119/1690/5900/20/
012160/20130115/100132/1690/2000/10/
012160/20130115/100314/1695/920/20/
012160/20130115/100403/1695/1000/20/
012160/20130115/100426/1695/950/20/
012160/20130115/100448/1695/780/10/
012160/20130115/100647/1695/110/10/
012160/20130115/100701/1695/600/10/
012160/20130115/100721/1695/190/10/
012160/20130115/100733/1695/90/10/
012160/20130115/100753/1700/220/20/
012160/20130115/100800/1700/310/20/
012160/20130115/100812/1700/1000/20/
012160/20130115/100849/1700/110/20/
012160/20130115/100919/1695/1000/10/
012160/20130115/100933/1690/320/10/
012160/20130115/101011/1700/600/20/
012160/20130115/101035/1695/120/20/
012160/20130115/101049/1690/1000/10/
012160/20130115/101057/1690/100/10/
012160/20130115/101103/1690/100/10/
012160/20130115/101109/1690/100/10/
012160/20130115/101116/1690/100/10/
012160/20130115/101116/1690/1000/10/
012160/20130115/101122/1690/100/10/
012160/20130115/101127/1690/100/10/
012160/20130115/101132/1690/100/10/
012160/20130115/101215/1690/650/10/
012160/20130115/101220/1690/420/10/
012160/20130115/101223/1695/400/20/
012160/20130115/101258/1690/850/10/
012160/20130115/101527/1695/420/20/
012160/20130115/101639/1690/2310/10/
012160/20130115/101715/1690/300/10/
012160/20130115/101759/1690/2360/10/
012160/20130115/101923/1690/220/10/
012160/20130115/101952/1690/1000/10/
012160/20130115/102011/1690/3200/10/
012160/20130115/102022/1690/1190/10/
012160/20130115/102027/1690/1000/10/
012160/20130115/102115/1690/110/10/
012160/20130115/102122/1690/1810/10/
012160/20130115/102124/1690/2190/20/
012160/20130115/102147/1690/580/10/
012160/20130115/102200/1690/1000/20/
012160/20130115/102205/1690/2300/20/
012160/20130115/102208/1690/2000/20/
012160/20130115/102208/1690/1540/20/
012160/20130115/102235/1690/2190/10/
012160/20130115/102239/1690/320/20/
012160/20130115/102258/1690/270/10/
012160/20130115/102354/1695/600/20/
012160/20130115/102411/1695/630/20/
012160/20130115/102428/1695/150/10/
012160/20130115/102446/1695/370/10/
012160/20130115/102446/1690/2660/10/
012160/20130115/102611/1695/140/20/
012160/20130115/102612/1695/110/20/
012160/20130115/102908/1690/1500/10/
012160/20130115/102911/1690/3450/10/
012160/20130115/102911/1685/2220/10/
012160/20130115/103438/1690/310/20/
012160/20130115/103527/1690/500/20/
012160/20130115/103553/1690/2460/20/
012160/20130115/103556/1690/500/20/
012160/20130115/103711/1690/300/20/
012160/20130115/103712/1690/2180/20/
012160/20130115/103736/1695/4730/20/
012160/20130115/103836/1695/200/20/
012160/20130115/104001/1690/2000/10/
012160/20130115/104416/1690/1510/10/
012160/20130115/104457/1695/500/20/
012160/20130115/104508/1695/500/20/
012160/20130115/104523/1695/500/20/
012160/20130115/105055/1690/1000/10/
012160/20130115/105308/1695/1060/20/
012160/20130115/105338/1695/860/20/
012160/20130115/105347/1695/9810/20/
012160/20130115/105647/1695/5060/10/
012160/20130115/105700/1695/710/10/
012160/20130115/105731/1695/420/10/
012160/20130115/105747/1695/130/10/
012160/20130115/105832/1695/310/10/
012160/20130115/110005/1695/4450/10/
012160/20130115/110005/1690/560/10/
012160/20130115/110440/1695/1040/10/
012160/20130115/110642/1700/860/20/
012160/20130115/110806/1700/4250/20/
012160/20130115/111037/1695/1890/10/
012160/20130115/111052/1695/900/10/
012160/20130115/111148/1695/1450/10/
012160/20130115/111319/1695/100/20/
012160/20130115/111452/1695/1440/20/
012160/20130115/111623/1690/610/10/
012160/20130115/111629/1690/1000/10/
012160/20130115/111726/1695/110/10/
012160/20130115/111845/1695/1820/20/
012160/20130115/111946/1695/420/20/
012160/20130115/111946/1700/100/20/
012160/20130115/112238/1700/110/20/
012160/20130115/112319/1700/90/20/
012160/20130115/112324/1700/100/20/
012160/20130115/113409/1700/1310/20/
012160/20130115/113437/1700/100/20/
012160/20130115/113502/1695/3000/10/
012160/20130115/113629/1695/500/20/
012160/20130115/113629/1700/680/20/
012160/20130115/113727/1700/90/20/
012160/20130115/113841/1690/5060/10/
012160/20130115/114007/1690/230/10/
012160/20130115/114016/1690/100/10/
012160/20130115/114140/1690/7000/10/
012160/20130115/114242/1690/4250/10/
012160/20130115/114311/1690/490/10/
012160/20130115/114316/1690/3000/10/
012160/20130115/114539/1695/1790/20/
012160/20130115/114600/1695/300/10/
012160/20130115/114610/1695/600/10/
012160/20130115/114619/1695/300/10/
012160/20130115/114634/1700/9020/20/
012160/20130115/115404/1690/1880/10/
012160/20130115/115943/1700/810/20/
012160/20130115/120125/1700/500/20/
012160/20130115/120719/1695/1130/10/
012160/20130115/120950/1700/90/20/
012160/20130115/121049/1695/4550/10/
012160/20130115/121154/1695/3000/10/
012160/20130115/121156/1695/1310/10/
012160/20130115/121246/1695/410/20/
012160/20130115/121308/1695/280/20/
012160/20130115/122038/1690/1700/10/
012160/20130115/122055/1690/1610/10/
012160/20130115/122143/1690/260/20/
012160/20130115/122210/1695/10000/20/
012160/20130115/122326/1690/1000/10/
012160/20130115/122627/1690/500/10/
012160/20130115/123032/1690/500/10/
012160/20130115/123249/1690/500/10/
012160/20130115/123302/1690/160/10/
012160/20130115/123410/1695/490/20/
012160/20130115/124001/1695/5000/10/
012160/20130115/124044/1695/300/10/
012160/20130115/124416/1695/3010/10/
012160/20130115/124616/1695/610/10/
012160/20130115/124622/1695/3000/10/
012160/20130115/124623/1695/500/10/
012160/20130115/124905/1695/410/10/
012160/20130115/125001/1695/90/20/
012160/20130115/125028/1695/1110/10/
012160/20130115/125134/1695/660/10/
012160/20130115/125648/1695/1010/10/
012160/20130115/125656/1695/2000/10/
012160/20130115/125717/1695/1640/10/
012160/20130115/125802/1690/5170/10/
012160/20130115/130221/1695/500/20/
012160/20130115/130543/1690/9050/10/
012160/20130115/130623/1690/580/20/
012160/20130115/130645/1690/370/20/
012160/20130115/130725/1690/540/10/
012160/20130115/130859/1695/310/20/
012160/20130115/131140/1695/200/20/
012160/20130115/131258/1695/210/20/
012160/20130115/131455/1690/310/10/
012160/20130115/131719/1690/160/10/
012160/20130115/132033/1690/5150/10/
012160/20130115/132126/1690/170/10/
012160/20130115/132203/1690/300/20/
012160/20130115/132241/1690/540/20/
012160/20130115/132339/1690/7640/10/
012160/20130115/132445/1690/200/10/
012160/20130115/132554/1690/300/10/
012160/20130115/132706/1690/310/10/
012160/20130115/132907/1690/650/10/
012160/20130115/133005/1690/300/10/
012160/20130115/133049/1690/100/10/
012160/20130115/133136/1690/1000/10/
012160/20130115/133847/1690/680/10/
012160/20130115/134402/1690/1240/20/
012160/20130115/134432/1690/410/20/
012160/20130115/134633/1690/540/20/
012160/20130115/134728/1685/150/10/
012160/20130115/135219/1690/510/20/
012160/20130115/135244/1690/650/20/
012160/20130115/135539/1690/820/10/
012160/20130115/135550/1690/800/10/
012160/20130115/135620/1690/2000/10/
012160/20130115/140142/1695/90/20/
012160/20130115/140316/1690/1350/10/
012160/20130115/140515/1695/11590/20/
012160/20130115/140623/1695/3020/10/
012160/20130115/140710/1695/120/10/
012160/20130115/140712/1695/1210/10/
012160/20130115/140856/1695/130/10/
012160/20130115/141143/1695/200/10/
012160/20130115/141143/1700/1000/20/
012160/20130115/141314/1695/150/10/
012160/20130115/141503/1695/120/10/
012160/20130115/141815/1695/4570/10/
012160/20130115/141846/1695/3000/10/
012160/20130115/141849/1695/510/10/
012160/20130115/141859/1695/1450/10/
012160/20130115/141921/1695/280/10/
012160/20130115/142012/1690/720/10/
012160/20130115/142131/1690/1500/10/
012160/20130115/142251/1690/500/10/
012160/20130115/142330/1690/3560/10/
012160/20130115/142410/1690/990/10/
012160/20130115/142459/1690/110/10/
012160/20130115/142504/1690/100/10/
012160/20130115/142509/1690/100/10/
012160/20130115/142514/1690/100/10/
012160/20130115/142612/1690/200/10/
012160/20130115/142617/1690/200/10/
012160/20130115/142622/1690/200/10/
012160/20130115/142654/1690/8090/10/
012160/20130115/142727/1690/1790/20/
012160/20130115/142738/1690/90/20/
012160/20130115/142754/1690/100/20/
012160/20130115/142915/1695/120/20/
012160/20130115/143035/1690/140/20/
012160/20130115/143046/1690/100/20/
012160/20130115/143106/1690/120/20/
012160/20130115/143123/1690/260/20/
012160/20130115/143142/1685/800/10/
012160/20130115/143149/1690/500/20/
012160/20130115/143206/1690/200/20/
012160/20130115/143211/1690/100/20/
012160/20130115/143306/1690/150/10/
012160/20130115/143314/1690/480/10/
012160/20130115/143349/1690/100/10/
012160/20130115/143357/1690/500/10/
012160/20130115/143423/1690/660/10/
012160/20130115/143441/1690/110/20/
012160/20130115/143457/1690/500/20/
012160/20130115/143529/1690/400/20/
012160/20130115/143703/1690/1400/20/
012160/20130115/143828/1690/1020/20/
012160/20130115/143851/1690/1600/20/
012160/20130115/143902/1690/1240/20/
012160/20130115/143926/1690/3000/10/
012160/20130115/144034/1695/7010/20/
012160/20130115/144443/1695/1010/20/
012160/20130115/144520/1695/100/20/
012160/20130115/144627/1695/200/20/
012160/20130115/144733/1690/1490/10/
012160/20130115/144742/1690/580/10/
012160/20130115/144809/1690/1860/10/
012160/20130115/144815/1690/1000/10/
012160/20130115/144847/1690/7590/10/
012160/20130115/144848/1690/2410/20/
012160/20130115/144914/1690/1500/20/
012160/20130115/144914/1690/1500/20/
012160/20130115/144934/1685/1440/10/
012160/20130115/150001/1685/43150/10/
