012160/20121128/90000/2005/50370/20/
012160/20121128/90001/2005/100/20/
012160/20121128/90001/2000/3610/10/
012160/20121128/90005/2005/500/20/
012160/20121128/90005/2005/800/20/
012160/20121128/90005/2010/510/20/
012160/20121128/90006/2010/520/10/
012160/20121128/90010/2015/110/20/
012160/20121128/90011/2015/1720/20/
012160/20121128/90011/2010/1860/10/
012160/20121128/90013/2010/140/20/
012160/20121128/90013/2015/860/20/
012160/20121128/90017/2010/200/10/
012160/20121128/90017/2010/310/10/
012160/20121128/90017/2015/320/20/
012160/20121128/90021/2015/440/20/
012160/20121128/90027/2010/500/10/
012160/20121128/90027/2010/490/20/
012160/20121128/90028/2010/1010/20/
012160/20121128/90028/2015/110/20/
012160/20121128/90028/2015/1400/20/
012160/20121128/90030/2005/310/10/
012160/20121128/90030/2000/1200/10/
012160/20121128/90031/2000/160/10/
012160/20121128/90032/2020/160/20/
012160/20121128/90034/2020/5000/20/
012160/20121128/90034/2015/380/10/
012160/20121128/90035/2015/1000/10/
012160/20121128/90037/2015/330/10/
012160/20121128/90042/2010/110/10/
012160/20121128/90042/2005/200/10/
012160/20121128/90043/2010/170/20/
012160/20121128/90048/2010/120/10/
012160/20121128/90049/2010/470/10/
012160/20121128/90050/2015/2570/20/
012160/20121128/90050/2020/1010/20/
012160/20121128/90050/2030/3020/20/
012160/20121128/90050/2035/400/20/
012160/20121128/90054/2015/300/20/
012160/20121128/90100/2030/2410/20/
012160/20121128/90100/2035/740/20/
012160/20121128/90101/2035/290/20/
012160/20121128/90111/2030/3710/20/
012160/20121128/90112/2030/650/10/
012160/20121128/90113/2020/120/10/
012160/20121128/90113/2015/150/10/
012160/20121128/90115/2020/510/20/
012160/20121128/90117/2020/490/10/
012160/20121128/90117/2015/3000/10/
012160/20121128/90122/2015/100/10/
012160/20121128/90125/2020/620/20/
012160/20121128/90125/2030/1840/20/
012160/20121128/90128/2030/5410/20/
012160/20121128/90129/2030/240/20/
012160/20121128/90130/2030/700/20/
012160/20121128/90130/2035/300/20/
012160/20121128/90132/2035/3460/20/
012160/20121128/90134/2035/1000/20/
012160/20121128/90135/2035/1580/20/
012160/20121128/90135/2035/8410/20/
012160/20121128/90135/2040/1590/20/
012160/20121128/90141/2040/1390/20/
012160/20121128/90141/2040/1610/10/
012160/20121128/90145/2040/410/20/
012160/20121128/90145/2040/140/20/
012160/20121128/90145/2045/860/20/
012160/20121128/90148/2045/490/20/
012160/20121128/90148/2035/200/10/
012160/20121128/90148/2020/730/10/
012160/20121128/90153/2035/4870/20/
012160/20121128/90154/2035/210/20/
012160/20121128/90154/2040/1200/20/
012160/20121128/90154/2045/890/20/
012160/20121128/90155/2045/260/20/
012160/20121128/90155/2040/3000/10/
012160/20121128/90156/2045/100/20/
012160/20121128/90157/2045/900/20/
012160/20121128/90158/2040/1270/10/
012160/20121128/90158/2045/2930/20/
012160/20121128/90159/2035/140/10/
012160/20121128/90205/2035/890/10/
012160/20121128/90205/2035/1510/20/
012160/20121128/90206/2035/100/20/
012160/20121128/90208/2035/560/20/
012160/20121128/90208/2040/3740/20/
012160/20121128/90208/2040/2000/20/
012160/20121128/90209/2040/700/10/
012160/20121128/90215/2040/290/20/
012160/20121128/90216/2040/480/20/
012160/20121128/90217/2040/350/20/
012160/20121128/90218/2040/550/20/
012160/20121128/90218/2035/1400/10/
012160/20121128/90218/2030/800/10/
012160/20121128/90218/2025/250/10/
012160/20121128/90222/2040/500/20/
012160/20121128/90239/2035/100/20/
012160/20121128/90242/2035/500/10/
012160/20121128/90245/2035/300/10/
012160/20121128/90247/2035/2870/20/
012160/20121128/90250/2035/3130/10/
012160/20121128/90253/2030/600/10/
012160/20121128/90254/2035/1380/20/
012160/20121128/90301/2030/410/10/
012160/20121128/90303/2035/500/20/
012160/20121128/90304/2030/560/10/
012160/20121128/90306/2030/360/10/
012160/20121128/90306/2025/2000/10/
012160/20121128/90309/2030/240/20/
012160/20121128/90311/2030/150/10/
012160/20121128/90316/2030/1000/10/
012160/20121128/90319/2030/1700/10/
012160/20121128/90323/2035/100/20/
012160/20121128/90326/2030/500/10/
012160/20121128/90327/2030/3000/10/
012160/20121128/90329/2030/1000/10/
012160/20121128/90333/2030/500/10/
012160/20121128/90334/2030/2420/10/
012160/20121128/90334/2025/3560/10/
012160/20121128/90334/2020/4200/10/
012160/20121128/90348/2030/2030/20/
012160/20121128/90358/2030/640/20/
012160/20121128/90411/2020/200/10/
012160/20121128/90413/2020/3000/10/
012160/20121128/90415/2020/1500/10/
012160/20121128/90415/2015/1500/10/
012160/20121128/90420/2015/1000/10/
012160/20121128/90433/2025/600/20/
012160/20121128/90435/2020/500/10/
012160/20121128/90448/2020/670/10/
012160/20121128/90448/2020/500/20/
012160/20121128/90501/2020/1960/20/
012160/20121128/90506/2020/1010/10/
012160/20121128/90509/2020/4710/10/
012160/20121128/90524/2020/240/10/
012160/20121128/90533/2020/510/10/
012160/20121128/90536/2020/1690/10/
012160/20121128/90538/2015/2000/10/
012160/20121128/90539/2015/4020/10/
012160/20121128/90542/2015/500/20/
012160/20121128/90547/2010/100/10/
012160/20121128/90557/2015/1680/20/
012160/20121128/90617/2015/940/10/
012160/20121128/90622/2015/130/10/
012160/20121128/90622/2010/380/10/
012160/20121128/90625/2010/5000/10/
012160/20121128/90626/2010/3150/10/
012160/20121128/90632/2010/710/10/
012160/20121128/90632/2005/3000/10/
012160/20121128/90634/2010/270/20/
012160/20121128/90639/2010/2730/10/
012160/20121128/90639/2005/8270/10/
012160/20121128/90657/2010/580/10/
012160/20121128/90657/2005/500/10/
012160/20121128/90657/2015/100/20/
012160/20121128/90733/2010/2010/10/
012160/20121128/90747/2010/1000/10/
012160/20121128/90751/2010/500/10/
012160/20121128/90752/2010/150/10/
012160/20121128/90811/2005/190/10/
012160/20121128/90813/2005/3120/10/
012160/20121128/90819/2005/110/10/
012160/20121128/90834/2000/10310/10/
012160/20121128/90835/2000/4700/10/
012160/20121128/90835/1995/390/10/
012160/20121128/90835/1995/1980/10/
012160/20121128/90835/1990/3020/10/
012160/20121128/90841/1990/1510/10/
012160/20121128/90843/1990/500/10/
012160/20121128/90846/1990/740/10/
012160/20121128/90849/1990/200/20/
012160/20121128/90855/1990/110/10/
012160/20121128/90855/1985/890/10/
012160/20121128/90902/1995/500/20/
012160/20121128/90921/1995/1130/20/
012160/20121128/90937/1995/240/10/
012160/20121128/90948/2000/560/20/
012160/20121128/90954/1995/1240/10/
012160/20121128/90954/1990/2000/10/
012160/20121128/90954/1985/1770/10/
012160/20121128/91017/1995/520/10/
012160/20121128/91041/1995/400/10/
012160/20121128/91102/1995/530/20/
012160/20121128/91107/1995/530/20/
012160/20121128/91112/1995/470/10/
012160/20121128/91114/1995/200/20/
012160/20121128/91117/1990/2000/10/
012160/20121128/91121/1990/430/10/
012160/20121128/91123/1990/790/10/
012160/20121128/91127/1985/5500/10/
012160/20121128/91127/1990/740/20/
012160/20121128/91128/1990/260/10/
012160/20121128/91129/1990/240/20/
012160/20121128/91131/1990/1640/10/
012160/20121128/91131/1990/120/10/
012160/20121128/91133/1995/1000/20/
012160/20121128/91135/1985/5180/10/
012160/20121128/91146/1985/110/10/
012160/20121128/91159/1985/1020/10/
012160/20121128/91217/1985/440/10/
012160/20121128/91217/1980/600/10/
012160/20121128/91250/1985/1090/10/
012160/20121128/91255/1985/180/20/
012160/20121128/91257/1985/1000/20/
012160/20121128/91257/1985/810/20/
012160/20121128/91302/1990/8320/20/
012160/20121128/91311/1995/110/20/
012160/20121128/91354/1990/350/10/
012160/20121128/91355/1995/100/20/
012160/20121128/91359/1995/2400/20/
012160/20121128/91407/1995/1200/20/
012160/20121128/91410/1995/1000/20/
012160/20121128/91411/1995/940/20/
012160/20121128/91414/1995/310/10/
012160/20121128/91414/1990/820/10/
012160/20121128/91418/2000/2020/20/
012160/20121128/91430/2000/3170/20/
012160/20121128/91430/2000/500/20/
012160/20121128/91431/2000/500/20/
012160/20121128/91432/1995/1030/10/
012160/20121128/91433/1995/1900/20/
012160/20121128/91437/2000/2330/20/
012160/20121128/91447/2010/90/20/
012160/20121128/91456/2010/1260/20/
012160/20121128/91513/2000/730/10/
012160/20121128/91532/2000/1020/20/
012160/20121128/91535/2000/1730/20/
012160/20121128/91538/2000/450/20/
012160/20121128/91550/2000/510/20/
012160/20121128/91552/2000/500/20/
012160/20121128/91604/2000/1680/20/
012160/20121128/91606/2000/220/20/
012160/20121128/91608/2000/160/20/
012160/20121128/91609/2000/500/10/
012160/20121128/91636/2005/260/20/
012160/20121128/91655/2005/2240/20/
012160/20121128/91655/2010/2880/20/
012160/20121128/91655/2010/2880/10/
012160/20121128/91707/2015/2560/20/
012160/20121128/91707/2015/650/10/
012160/20121128/91712/2015/480/20/
012160/20121128/91735/2010/140/20/
012160/20121128/91753/2015/1600/20/
012160/20121128/91753/2010/160/10/
012160/20121128/91754/2010/340/20/
012160/20121128/91754/2015/4660/20/
012160/20121128/91841/2010/120/20/
012160/20121128/91841/2010/820/10/
012160/20121128/91849/2005/510/10/
012160/20121128/91854/2015/1000/20/
012160/20121128/91930/2005/810/10/
012160/20121128/91949/2005/1220/10/
012160/20121128/92014/2005/1010/20/
012160/20121128/92023/2005/230/20/
012160/20121128/92024/2005/600/10/
012160/20121128/92028/2010/450/20/
012160/20121128/92125/2010/730/20/
012160/20121128/92150/2010/1610/20/
012160/20121128/92200/2015/1700/20/
012160/20121128/92202/2010/5390/10/
012160/20121128/92225/2005/2000/10/
012160/20121128/92225/2005/910/10/
012160/20121128/92236/2005/270/20/
012160/20121128/92304/2005/160/10/
012160/20121128/92307/2005/2350/10/
012160/20121128/92307/2005/500/10/
012160/20121128/92331/2005/460/10/
012160/20121128/92340/2005/1000/20/
012160/20121128/92343/2005/1540/20/
012160/20121128/92358/2005/2390/10/
012160/20121128/92401/2005/830/10/
012160/20121128/92402/2005/550/10/
012160/20121128/92404/2010/1000/20/
012160/20121128/92416/2005/300/20/
012160/20121128/92423/2005/1410/10/
012160/20121128/92428/2005/970/20/
012160/20121128/92436/2000/1000/10/
012160/20121128/92454/2005/170/20/
012160/20121128/92503/2000/3000/10/
012160/20121128/92510/2000/6610/10/
012160/20121128/92523/2000/550/10/
012160/20121128/92538/1995/2710/10/
012160/20121128/92544/1995/440/10/
012160/20121128/92550/1995/440/10/
012160/20121128/92613/1995/410/10/
012160/20121128/92622/1995/470/10/
012160/20121128/92642/1995/760/10/
012160/20121128/92656/1990/2000/10/
012160/20121128/92701/1990/300/10/
012160/20121128/92717/1990/1000/20/
012160/20121128/92721/1990/640/20/
012160/20121128/92737/1990/1000/10/
012160/20121128/92739/1990/1840/10/
012160/20121128/92741/1990/1580/10/
012160/20121128/92743/1985/120/10/
012160/20121128/92745/1990/200/20/
012160/20121128/92745/1985/950/10/
012160/20121128/92755/1985/500/10/
012160/20121128/92804/1985/4840/10/
012160/20121128/92805/1985/200/10/
012160/20121128/92806/1985/920/20/
012160/20121128/92814/1985/510/10/
012160/20121128/92835/1985/360/10/
012160/20121128/92929/1990/530/20/
012160/20121128/92940/1990/460/20/
012160/20121128/93030/1990/160/20/
012160/20121128/93056/1990/490/20/
012160/20121128/93112/1990/1100/20/
012160/20121128/93115/1990/380/20/
012160/20121128/93120/1990/620/10/
012160/20121128/93137/1990/180/20/
012160/20121128/93137/1995/1740/20/
012160/20121128/93137/2000/2090/20/
012160/20121128/93137/2000/1020/10/
012160/20121128/93213/2005/350/20/
012160/20121128/93306/2000/90/20/
012160/20121128/93320/2000/3220/20/
012160/20121128/93401/2000/1000/10/
012160/20121128/93401/2000/810/10/
012160/20121128/93432/2000/640/10/
012160/20121128/93432/1995/2360/10/
012160/20121128/93442/1995/2980/10/
012160/20121128/93515/1995/510/10/
012160/20121128/93524/1995/5110/10/
012160/20121128/93526/1995/90/20/
012160/20121128/93533/1990/970/10/
012160/20121128/93608/1990/1840/10/
012160/20121128/93629/1990/1000/20/
012160/20121128/93632/1990/1620/20/
012160/20121128/93642/1990/940/20/
012160/20121128/93656/1990/3610/10/
012160/20121128/93725/1990/460/10/
012160/20121128/93845/1990/130/10/
012160/20121128/93921/1985/1270/10/
012160/20121128/93937/1985/2000/10/
012160/20121128/93947/1985/5610/10/
012160/20121128/94018/1985/330/10/
012160/20121128/94026/1985/90/10/
012160/20121128/94053/1985/5020/10/
012160/20121128/94138/1990/110/10/
012160/20121128/94140/1985/300/10/
012160/20121128/94141/1990/900/20/
012160/20121128/94146/1990/2600/10/
012160/20121128/94200/1990/100/20/
012160/20121128/94206/1990/5100/20/
012160/20121128/94227/1995/810/20/
012160/20121128/94234/1995/2500/10/
012160/20121128/94304/2000/2020/20/
012160/20121128/94304/2000/2130/10/
012160/20121128/94342/2000/1000/20/
012160/20121128/94459/2000/100/10/
012160/20121128/94459/1995/220/10/
012160/20121128/94552/2000/1080/20/
012160/20121128/94553/2000/2120/20/
012160/20121128/94622/2005/90/20/
012160/20121128/94639/2005/3950/20/
012160/20121128/94649/2010/90/20/
012160/20121128/94652/2010/1920/20/
012160/20121128/94656/2010/1030/20/
012160/20121128/94718/2010/430/20/
012160/20121128/94732/2010/130/20/
012160/20121128/94741/2010/5780/20/
012160/20121128/94754/2010/340/10/
012160/20121128/94813/2010/1040/20/
012160/20121128/94814/2010/1120/20/
012160/20121128/94815/2010/370/20/
012160/20121128/94816/2010/130/20/
012160/20121128/94816/2010/1560/10/
012160/20121128/94817/2010/110/10/
012160/20121128/94850/2005/2160/10/
012160/20121128/94850/2000/2570/10/
012160/20121128/94853/2010/5050/20/
012160/20121128/94856/2010/10000/10/
012160/20121128/94902/2010/1830/10/
012160/20121128/94909/2010/670/20/
012160/20121128/94911/2010/1340/10/
012160/20121128/94938/2005/430/10/
012160/20121128/95024/2005/1000/10/
012160/20121128/95024/2005/330/10/
012160/20121128/95118/2000/310/10/
012160/20121128/95132/2000/480/10/
012160/20121128/95137/2000/1780/10/
012160/20121128/95157/1995/3000/10/
012160/20121128/95220/1995/2930/10/
012160/20121128/95338/1995/3290/20/
012160/20121128/95421/1995/2000/10/
012160/20121128/95434/1995/370/10/
012160/20121128/95518/1990/1220/10/
012160/20121128/95519/1995/500/20/
012160/20121128/95528/1990/240/10/
012160/20121128/95600/1995/1650/20/
012160/20121128/95606/1990/1240/10/
012160/20121128/95612/1990/500/10/
012160/20121128/95624/1995/140/20/
012160/20121128/95643/1995/230/20/
012160/20121128/95733/1995/1050/10/
012160/20121128/95733/1990/1980/10/
012160/20121128/95740/2000/170/20/
012160/20121128/95750/2000/1490/20/
012160/20121128/95941/1995/3240/20/
012160/20121128/95943/1995/1810/10/
012160/20121128/95943/1990/3530/10/
012160/20121128/95945/1990/9120/10/
012160/20121128/100002/1985/400/10/
012160/20121128/100006/1985/3000/10/
012160/20121128/100007/1985/370/10/
012160/20121128/100007/1985/240/10/
012160/20121128/100018/1985/2010/10/
012160/20121128/100040/1985/2510/10/
012160/20121128/100048/1985/8870/10/
012160/20121128/100051/1985/440/10/
012160/20121128/100055/1985/1480/10/
012160/20121128/100142/1985/1000/20/
012160/20121128/100143/1985/250/20/
012160/20121128/100144/1985/340/20/
012160/20121128/100145/1985/1630/20/
012160/20121128/100152/1985/860/10/
012160/20121128/100206/1985/110/20/
012160/20121128/100214/1985/220/10/
012160/20121128/100258/1980/10000/10/
012160/20121128/100301/1985/1270/20/
012160/20121128/100306/1985/4360/10/
012160/20121128/100356/1980/1300/10/
012160/20121128/100427/1980/1910/10/
012160/20121128/100430/1980/1000/10/
012160/20121128/100451/1980/830/10/
012160/20121128/100458/1980/400/20/
012160/20121128/100458/1980/100/10/
012160/20121128/100504/1980/500/10/
012160/20121128/100532/1980/880/10/
012160/20121128/100532/1975/1210/10/
012160/20121128/100615/1975/14780/10/
012160/20121128/100615/1970/29960/10/
012160/20121128/100615/1965/26790/10/
012160/20121128/100617/1965/500/20/
012160/20121128/100620/1965/110/20/
012160/20121128/100623/1960/3130/10/
012160/20121128/100632/1960/1100/10/
012160/20121128/100638/1960/650/10/
012160/20121128/100640/1960/570/10/
012160/20121128/100640/1965/1000/20/
012160/20121128/100658/1955/550/10/
012160/20121128/100714/1960/100/10/
012160/20121128/100714/1955/400/10/
012160/20121128/100717/1960/140/10/
012160/20121128/100724/1960/500/10/
012160/20121128/100729/1960/300/10/
012160/20121128/100755/1965/1650/20/
012160/20121128/100756/1965/1220/20/
012160/20121128/100757/1965/3000/20/
012160/20121128/100758/1965/2790/20/
012160/20121128/100814/1970/340/20/
012160/20121128/100844/1970/1000/10/
012160/20121128/100929/1970/1020/10/
012160/20121128/101043/1970/1000/10/
012160/20121128/101110/1970/500/10/
012160/20121128/101211/1980/410/20/
012160/20121128/101239/1970/1020/10/
012160/20121128/101239/1980/1330/20/
012160/20121128/101259/1985/1000/20/
012160/20121128/101401/1985/310/10/
012160/20121128/101408/1985/690/20/
012160/20121128/101408/1990/2310/20/
012160/20121128/101451/1990/1160/20/
012160/20121128/101458/1990/1000/10/
012160/20121128/101502/1990/840/10/
012160/20121128/101520/1985/6140/10/
012160/20121128/101520/1980/2020/10/
012160/20121128/101608/1990/1020/20/
012160/20121128/101627/1980/160/10/
012160/20121128/101707/1980/3070/10/
012160/20121128/101717/1980/1700/10/
012160/20121128/101825/1985/100/20/
012160/20121128/101916/1985/210/20/
012160/20121128/101919/1985/660/20/
012160/20121128/102010/1985/1030/20/
012160/20121128/102142/1985/660/20/
012160/20121128/102146/1985/710/10/
012160/20121128/102146/1980/1020/10/
012160/20121128/102203/1980/1000/10/
012160/20121128/102307/1980/800/10/
012160/20121128/102317/1975/2780/10/
012160/20121128/102320/1985/1000/20/
012160/20121128/102322/1985/300/10/
012160/20121128/102322/1975/2010/10/
012160/20121128/102338/1970/550/10/
012160/20121128/102342/1970/9250/10/
012160/20121128/102405/1970/1300/10/
012160/20121128/102405/1970/100/10/
012160/20121128/102410/1970/210/10/
012160/20121128/102411/1970/250/10/
012160/20121128/102416/1970/1940/10/
012160/20121128/102420/1970/220/10/
012160/20121128/102427/1970/500/10/
012160/20121128/102431/1970/240/10/
012160/20121128/102455/1970/510/10/
012160/20121128/102456/1965/520/10/
012160/20121128/102514/1965/2390/10/
012160/20121128/102519/1965/2650/10/
012160/20121128/102550/1965/100/20/
012160/20121128/102559/1965/230/20/
012160/20121128/102605/1965/1000/20/
012160/20121128/102614/1965/290/20/
012160/20121128/102627/1960/100/10/
012160/20121128/102627/1965/230/20/
012160/20121128/102631/1960/1630/10/
012160/20121128/102640/1960/2160/10/
012160/20121128/102642/1960/2030/10/
012160/20121128/102651/1960/1000/20/
012160/20121128/102655/1955/100/10/
012160/20121128/102655/1955/100/10/
012160/20121128/102656/1955/100/10/
012160/20121128/102657/1955/100/10/
012160/20121128/102715/1960/380/20/
012160/20121128/102720/1965/3140/20/
012160/20121128/102720/1970/390/20/
012160/20121128/102802/1970/100/20/
012160/20121128/102802/1980/200/20/
012160/20121128/102947/1980/800/20/
012160/20121128/102947/1980/690/10/
012160/20121128/103204/1970/170/10/
012160/20121128/103236/1970/470/10/
012160/20121128/103236/1965/2370/10/
012160/20121128/103340/1965/290/10/
012160/20121128/103346/1965/1260/10/
012160/20121128/103452/1965/1000/10/
012160/20121128/103708/1965/100/10/
012160/20121128/103745/1965/1680/10/
012160/20121128/103751/1965/1800/10/
012160/20121128/103752/1965/1120/10/
012160/20121128/103753/1965/1730/10/
012160/20121128/103824/1960/2000/10/
012160/20121128/104026/1965/550/20/
012160/20121128/104031/1965/930/20/
012160/20121128/104439/1965/1490/10/
012160/20121128/104455/1965/500/10/
012160/20121128/104736/1965/100/10/
012160/20121128/104817/1970/200/20/
012160/20121128/104819/1970/180/20/
012160/20121128/104832/1970/360/20/
012160/20121128/104937/1975/1000/20/
012160/20121128/104942/1975/90/20/
012160/20121128/104952/1975/200/20/
012160/20121128/104959/1975/520/20/
012160/20121128/105003/1975/480/10/
012160/20121128/105015/1975/520/20/
012160/20121128/105132/1980/200/20/
012160/20121128/105209/1980/560/20/
012160/20121128/105214/1980/1770/20/
012160/20121128/105223/1985/4000/20/
012160/20121128/105348/1985/110/10/
012160/20121128/105354/1985/100/20/
012160/20121128/105356/1990/1050/20/
012160/20121128/105405/1990/1900/20/
012160/20121128/105405/1990/920/20/
012160/20121128/105415/1990/900/10/
012160/20121128/105416/1990/480/10/
012160/20121128/105416/1985/570/10/
012160/20121128/105444/1990/490/20/
012160/20121128/105602/1990/230/20/
012160/20121128/105608/1990/100/10/
012160/20121128/105610/1990/1630/10/
012160/20121128/105803/1990/700/10/
012160/20121128/105805/1990/500/10/
012160/20121128/105914/1995/3030/20/
012160/20121128/105959/1995/160/20/
012160/20121128/110101/1995/3000/20/
012160/20121128/110105/1995/3440/20/
012160/20121128/110128/1995/370/10/
012160/20121128/110142/1995/170/10/
012160/20121128/110144/1995/100/20/
012160/20121128/110146/1995/100/20/
012160/20121128/110148/1995/90/20/
012160/20121128/110203/1995/240/10/
012160/20121128/110206/2000/90/20/
012160/20121128/110211/1995/100/10/
012160/20121128/110231/2000/100/20/
012160/20121128/110237/1995/5000/10/
012160/20121128/110243/1995/150/10/
012160/20121128/110249/1995/470/20/
012160/20121128/110304/1995/300/20/
012160/20121128/110315/1995/100/20/
012160/20121128/110315/1995/2000/20/
012160/20121128/110323/1995/830/20/
012160/20121128/110325/1995/190/20/
012160/20121128/110325/1995/910/10/
012160/20121128/110329/1995/3010/10/
012160/20121128/110401/1995/5050/10/
012160/20121128/110406/1995/1710/10/
012160/20121128/110409/1995/1710/20/
012160/20121128/110412/1995/210/20/
012160/20121128/110416/1990/1610/10/
012160/20121128/110417/1995/570/20/
012160/20121128/110438/1995/5020/20/
012160/20121128/110441/1995/200/20/
012160/20121128/110446/1995/1510/20/
012160/20121128/110447/1995/850/20/
012160/20121128/110451/1995/980/10/
012160/20121128/110456/1995/2010/20/
012160/20121128/110501/1995/330/10/
012160/20121128/110505/1995/250/10/
012160/20121128/110513/1995/1210/10/
012160/20121128/110514/1995/100/20/
012160/20121128/110518/1995/1720/20/
012160/20121128/110529/1995/1000/20/
012160/20121128/110535/1995/470/20/
012160/20121128/110540/1995/1940/10/
012160/20121128/110540/1995/300/20/
012160/20121128/110540/1995/770/20/
012160/20121128/110547/1995/1530/10/
012160/20121128/110549/1995/1500/20/
012160/20121128/110550/1995/1000/20/
012160/20121128/110557/1995/1500/20/
012160/20121128/110626/2000/510/20/
012160/20121128/110647/2000/3490/20/
012160/20121128/110648/2000/3000/20/
012160/20121128/110716/1995/310/10/
012160/20121128/110803/2000/360/20/
012160/20121128/110820/2000/1000/20/
012160/20121128/110831/2000/300/20/
012160/20121128/110842/2000/8080/20/
012160/20121128/110904/2000/210/10/
012160/20121128/110932/2000/4000/10/
012160/20121128/110934/2000/2620/10/
012160/20121128/110934/2000/1630/10/
012160/20121128/110934/1995/320/10/
012160/20121128/110950/1995/1440/10/
012160/20121128/110952/2000/350/10/
012160/20121128/111030/1995/3010/10/
012160/20121128/111041/1995/450/10/
012160/20121128/111044/1995/400/10/
012160/20121128/111048/1995/2390/20/
012160/20121128/111119/2000/3960/20/
012160/20121128/111138/2000/100/10/
012160/20121128/111141/2000/620/10/
012160/20121128/111215/2000/100/20/
012160/20121128/111217/2000/520/20/
012160/20121128/111219/2000/860/20/
012160/20121128/111235/2000/500/20/
012160/20121128/111246/2000/1980/20/
012160/20121128/111251/2000/510/20/
012160/20121128/111251/2000/480/20/
012160/20121128/111257/2000/590/20/
012160/20121128/111312/2000/1010/20/
012160/20121128/111323/2000/2070/20/
012160/20121128/111326/2000/2010/20/
012160/20121128/111329/2000/1500/20/
012160/20121128/111335/2000/130/20/
012160/20121128/111338/2000/2000/20/
012160/20121128/111346/2000/500/20/
012160/20121128/111350/2000/610/20/
012160/20121128/111350/2000/400/10/
012160/20121128/111358/2000/100/20/
012160/20121128/111359/2000/1000/20/
012160/20121128/111406/2000/1910/10/
012160/20121128/111406/1995/8110/10/
012160/20121128/111411/2005/10000/20/
012160/20121128/111456/2005/400/20/
012160/20121128/111523/2005/300/20/
012160/20121128/111534/2005/1020/20/
012160/20121128/111540/2005/100/20/
012160/20121128/111544/2005/3500/20/
012160/20121128/111551/2005/510/20/
012160/20121128/111551/2000/1050/10/
012160/20121128/111556/2000/500/10/
012160/20121128/111615/2005/2000/20/
012160/20121128/111640/2005/500/20/
012160/20121128/111645/2005/1000/20/
012160/20121128/111704/2005/5900/20/
012160/20121128/111706/2005/2000/20/
012160/20121128/111708/2005/610/20/
012160/20121128/111709/2005/1000/20/
012160/20121128/111715/2005/1460/20/
012160/20121128/111722/2010/3000/20/
012160/20121128/111723/2010/7410/20/
012160/20121128/111747/2015/10890/20/
012160/20121128/111750/2020/2030/20/
012160/20121128/111751/2015/2690/10/
012160/20121128/111752/2015/200/20/
012160/20121128/111803/2015/1270/20/
012160/20121128/111803/2015/780/20/
012160/20121128/111809/2015/1630/20/
012160/20121128/111815/2015/2360/20/
012160/20121128/111822/2015/150/10/
012160/20121128/111822/2015/500/10/
012160/20121128/111824/2015/810/10/
012160/20121128/111824/2020/4000/20/
012160/20121128/111827/2020/2010/20/
012160/20121128/111828/2020/410/20/
012160/20121128/111828/2020/1000/20/
012160/20121128/111829/2020/6920/20/
012160/20121128/111830/2020/660/20/
012160/20121128/111831/2020/210/20/
012160/20121128/111836/2020/1040/20/
012160/20121128/111840/2025/520/20/
012160/20121128/111842/2025/620/20/
012160/20121128/111845/2025/6390/20/
012160/20121128/111853/2025/140/20/
012160/20121128/111856/2025/3400/20/
012160/20121128/111857/2025/460/20/
012160/20121128/111858/2025/1650/20/
012160/20121128/111859/2025/1190/20/
012160/20121128/111859/2025/3910/20/
012160/20121128/111905/2030/520/20/
012160/20121128/111906/2030/1060/20/
012160/20121128/111909/2030/10580/20/
012160/20121128/111909/2035/12600/20/
012160/20121128/111911/2030/490/20/
012160/20121128/111916/2030/7050/10/
012160/20121128/111918/2030/1510/10/
012160/20121128/111930/2030/490/20/
012160/20121128/111948/2030/1130/20/
012160/20121128/111949/2025/130/10/
012160/20121128/111952/2025/1930/10/
012160/20121128/111953/2025/610/10/
012160/20121128/111955/2025/100/20/
012160/20121128/111959/2025/470/20/
012160/20121128/112000/2025/1000/10/
012160/20121128/112013/2030/3320/20/
012160/20121128/112023/2025/4470/10/
012160/20121128/112024/2025/230/20/
012160/20121128/112031/2025/170/20/
012160/20121128/112039/2025/780/20/
012160/20121128/112041/2020/100/10/
012160/20121128/112048/2020/1660/10/
012160/20121128/112048/2015/3360/10/
012160/20121128/112101/2015/510/20/
012160/20121128/112106/2015/2700/10/
012160/20121128/112107/2015/1570/20/
012160/20121128/112107/2015/730/20/
012160/20121128/112118/2015/400/10/
012160/20121128/112146/2015/1600/20/
012160/20121128/112146/2020/500/20/
012160/20121128/112216/2020/210/20/
012160/20121128/112222/2020/1100/20/
012160/20121128/112238/2020/150/20/
012160/20121128/112248/2020/2690/20/
012160/20121128/112308/2020/630/10/
012160/20121128/112314/2020/350/20/
012160/20121128/112321/2020/270/20/
012160/20121128/112326/2020/420/10/
012160/20121128/112340/2020/200/10/
012160/20121128/112353/2020/1500/20/
012160/20121128/112353/2025/1130/20/
012160/20121128/112432/2020/2000/20/
012160/20121128/112436/2020/500/10/
012160/20121128/112437/2020/620/10/
012160/20121128/112438/2020/690/10/
012160/20121128/112447/2025/4870/20/
012160/20121128/112452/2025/830/10/
012160/20121128/112456/2025/180/20/
012160/20121128/112500/2025/100/10/
012160/20121128/112501/2025/250/10/
012160/20121128/112502/2025/1470/10/
012160/20121128/112550/2025/6010/20/
012160/20121128/112601/2025/3020/10/
012160/20121128/112608/2025/140/10/
012160/20121128/112611/2025/100/10/
012160/20121128/112614/2025/200/10/
012160/20121128/112621/2030/100/20/
012160/20121128/112700/2025/1030/10/
012160/20121128/112701/2025/3000/10/
012160/20121128/112703/2025/880/10/
012160/20121128/112758/2015/1510/10/
012160/20121128/112808/2015/4000/10/
012160/20121128/112813/2015/1000/10/
012160/20121128/112819/2020/100/20/
012160/20121128/112829/2015/250/10/
012160/20121128/112840/2015/1180/10/
012160/20121128/112844/2015/230/10/
012160/20121128/113121/2015/1390/20/
012160/20121128/113132/2015/830/10/
012160/20121128/113137/2010/1630/10/
012160/20121128/113148/2010/100/20/
012160/20121128/113156/2010/210/10/
012160/20121128/113209/2010/90/20/
012160/20121128/113211/2015/7390/20/
012160/20121128/113244/2005/2780/10/
012160/20121128/113244/2000/950/10/
012160/20121128/113244/2000/400/10/
012160/20121128/113313/2000/410/10/
012160/20121128/113317/2000/2000/10/
012160/20121128/113332/2000/130/10/
012160/20121128/113423/2010/160/20/
012160/20121128/113424/2010/970/20/
012160/20121128/113436/2010/120/10/
012160/20121128/113531/2015/960/20/
012160/20121128/113548/2015/1000/20/
012160/20121128/113551/2015/4880/20/
012160/20121128/113611/2015/1810/10/
012160/20121128/113633/2015/500/20/
012160/20121128/113951/2010/2010/10/
012160/20121128/114113/2005/670/10/
012160/20121128/114113/2000/2360/10/
012160/20121128/114206/2000/4960/10/
012160/20121128/114212/2000/2000/20/
012160/20121128/114212/2000/3730/20/
012160/20121128/114245/2000/110/10/
012160/20121128/114504/2005/1970/10/
012160/20121128/114729/2010/3870/20/
012160/20121128/114750/2010/1500/20/
012160/20121128/114802/2005/460/10/
012160/20121128/114810/2010/1260/20/
012160/20121128/114820/2010/350/10/
012160/20121128/114958/2010/1660/10/
012160/20121128/115209/2010/1030/10/
012160/20121128/115230/2010/200/10/
012160/20121128/115311/2010/570/10/
012160/20121128/115319/2010/2700/10/
012160/20121128/115336/2010/780/10/
012160/20121128/115345/2010/1660/10/
012160/20121128/115409/2010/260/20/
012160/20121128/115454/2010/720/10/
012160/20121128/115500/2010/330/20/
012160/20121128/115533/2010/380/10/
012160/20121128/115643/2010/400/10/
012160/20121128/115653/2010/150/10/
012160/20121128/115728/2010/1350/10/
012160/20121128/115748/2005/9700/10/
012160/20121128/115749/2010/500/20/
012160/20121128/115826/2010/670/10/
012160/20121128/120144/2005/540/10/
012160/20121128/120149/2010/370/20/
012160/20121128/120222/2010/1960/10/
012160/20121128/120345/2005/90/10/
012160/20121128/120356/2010/1670/20/
012160/20121128/120404/2010/1210/20/
012160/20121128/120415/2010/300/10/
012160/20121128/120427/2010/710/20/
012160/20121128/120500/2010/3370/10/
012160/20121128/120512/2005/170/10/
012160/20121128/120529/2010/460/20/
012160/20121128/120537/2005/9060/10/
012160/20121128/120537/2010/1270/20/
012160/20121128/120551/2010/500/10/
012160/20121128/120607/2010/200/10/
012160/20121128/120717/2010/90/10/
012160/20121128/120750/2010/160/20/
012160/20121128/120927/2015/530/20/
012160/20121128/120931/2015/100/20/
012160/20121128/120935/2015/100/20/
012160/20121128/120939/2015/2070/20/
012160/20121128/120939/2015/1800/20/
012160/20121128/120940/2015/920/20/
012160/20121128/121014/2020/4480/20/
012160/20121128/121018/2020/330/20/
012160/20121128/121046/2025/160/20/
012160/20121128/121049/2025/1680/20/
012160/20121128/121056/2025/200/20/
012160/20121128/121125/2025/2050/20/
012160/20121128/121134/2025/200/20/
012160/20121128/121144/2020/250/10/
012160/20121128/121156/2025/2270/20/
012160/20121128/121203/2025/1510/20/
012160/20121128/121208/2020/1040/10/
012160/20121128/121228/2030/8160/20/
012160/20121128/121230/2030/1610/20/
012160/20121128/121231/2030/220/20/
012160/20121128/121236/2030/230/20/
012160/20121128/121239/2030/120/10/
012160/20121128/121245/2035/710/20/
012160/20121128/121246/2030/840/10/
012160/20121128/121258/2030/740/20/
012160/20121128/121303/2030/430/20/
012160/20121128/121307/2030/200/10/
012160/20121128/121311/2035/1200/20/
012160/20121128/121324/2035/100/20/
012160/20121128/121328/2035/200/20/
012160/20121128/121348/2035/430/20/
012160/20121128/121351/2035/3010/20/
012160/20121128/121353/2035/1390/10/
012160/20121128/121355/2035/1320/20/
012160/20121128/121356/2035/2110/10/
012160/20121128/121359/2035/1000/10/
012160/20121128/121400/2035/4570/10/
012160/20121128/121408/2035/2630/20/
012160/20121128/121416/2035/1100/20/
012160/20121128/121418/2035/260/10/
012160/20121128/121426/2035/170/20/
012160/20121128/121432/2035/1000/20/
012160/20121128/121433/2035/950/20/
012160/20121128/121438/2035/100/20/
012160/20121128/121440/2035/890/20/
012160/20121128/121444/2035/1110/10/
012160/20121128/121454/2035/290/20/
012160/20121128/121512/2035/2510/20/
012160/20121128/121526/2035/2950/20/
012160/20121128/121528/2035/180/20/
012160/20121128/121533/2035/180/20/
012160/20121128/121539/2035/5510/20/
012160/20121128/121542/2035/160/10/
012160/20121128/121543/2035/4370/10/
012160/20121128/121547/2035/1630/10/
012160/20121128/121548/2035/1000/10/
012160/20121128/121554/2035/1200/10/
012160/20121128/121558/2040/3750/20/
012160/20121128/121559/2035/500/10/
012160/20121128/121601/2035/4350/10/
012160/20121128/121605/2035/370/20/
012160/20121128/121626/2035/1070/20/
012160/20121128/121702/2030/810/10/
012160/20121128/121704/2030/2000/10/
012160/20121128/121705/2030/1500/10/
012160/20121128/121707/2030/200/10/
012160/20121128/121827/2030/170/10/
012160/20121128/121827/2035/7700/20/
012160/20121128/121852/2040/2020/20/
012160/20121128/121859/2035/1500/10/
012160/20121128/121911/2040/1190/20/
012160/20121128/121924/2040/1010/20/
012160/20121128/121932/2035/1000/10/
012160/20121128/121937/2035/690/10/
012160/20121128/121937/2040/400/20/
012160/20121128/121938/2040/200/20/
012160/20121128/121947/2040/10000/20/
012160/20121128/121949/2040/5000/20/
012160/20121128/121951/2040/1230/20/
012160/20121128/121951/2040/150/20/
012160/20121128/121952/2040/200/10/
012160/20121128/122014/2040/230/10/
012160/20121128/122017/2040/1590/10/
012160/20121128/122040/2040/730/10/
012160/20121128/122043/2040/1810/10/
012160/20121128/122044/2040/610/10/
012160/20121128/122048/2045/9200/20/
012160/20121128/122051/2045/320/20/
012160/20121128/122053/2045/210/10/
012160/20121128/122055/2045/4770/10/
012160/20121128/122100/2045/230/20/
012160/20121128/122104/2045/1000/20/
012160/20121128/122105/2045/620/20/
012160/20121128/122110/2050/240/20/
012160/20121128/122114/2050/7770/20/
012160/20121128/122117/2050/1840/10/
012160/20121128/122128/2055/90/20/
012160/20121128/122128/2050/100/10/
012160/20121128/122131/2055/3060/20/
012160/20121128/122132/2055/1150/20/
012160/20121128/122132/2055/2470/20/
012160/20121128/122132/2055/1750/20/
012160/20121128/122133/2055/290/20/
012160/20121128/122137/2060/150/20/
012160/20121128/122138/2060/1030/20/
012160/20121128/122140/2060/210/20/
012160/20121128/122142/2060/640/20/
012160/20121128/122144/2060/140/20/
012160/20121128/122147/2060/2670/20/
012160/20121128/122150/2060/90/20/
012160/20121128/122151/2060/520/20/
012160/20121128/122152/2060/1060/20/
012160/20121128/122155/2060/500/20/
012160/20121128/122155/2060/100/20/
012160/20121128/122157/2065/4760/20/
012160/20121128/122158/2060/4430/10/
012160/20121128/122158/2060/5570/20/
012160/20121128/122158/2065/9540/20/
012160/20121128/122158/2070/5690/20/
012160/20121128/122158/2075/4310/20/
012160/20121128/122158/2075/290/20/
012160/20121128/122201/2075/1290/20/
012160/20121128/122202/2075/1280/20/
012160/20121128/122203/2075/2770/20/
012160/20121128/122204/2075/240/20/
012160/20121128/122205/2075/370/20/
012160/20121128/122206/2070/110/10/
012160/20121128/122206/2075/170/20/
012160/20121128/122206/2075/1620/20/
012160/20121128/122206/2075/1400/20/
012160/20121128/122209/2080/700/20/
012160/20121128/122209/2075/290/10/
012160/20121128/122210/2080/990/20/
012160/20121128/122210/2075/120/10/
012160/20121128/122213/2075/160/10/
012160/20121128/122214/2075/350/20/
012160/20121128/122216/2070/920/10/
012160/20121128/122218/2070/780/20/
012160/20121128/122219/2070/1170/20/
012160/20121128/122219/2070/1000/20/
012160/20121128/122222/2070/190/20/
012160/20121128/122224/2070/100/20/
012160/20121128/122235/2070/100/20/
012160/20121128/122236/2065/2000/10/
012160/20121128/122236/2070/390/20/
012160/20121128/122237/2065/2460/10/
012160/20121128/122239/2065/470/10/
012160/20121128/122247/2060/1500/10/
012160/20121128/122250/2060/1000/10/
012160/20121128/122252/2060/330/10/
012160/20121128/122254/2060/870/20/
012160/20121128/122257/2060/1000/10/
012160/20121128/122301/2060/300/10/
012160/20121128/122304/2060/1230/10/
012160/20121128/122304/2060/590/10/
012160/20121128/122305/2060/1460/10/
012160/20121128/122305/2060/320/10/
012160/20121128/122313/2055/2670/10/
012160/20121128/122316/2055/110/20/
012160/20121128/122333/2050/1450/10/
012160/20121128/122335/2050/2770/10/
012160/20121128/122338/2050/830/20/
012160/20121128/122340/2050/540/10/
012160/20121128/122344/2050/830/10/
012160/20121128/122344/2050/1170/20/
012160/20121128/122345/2055/120/20/
012160/20121128/122355/2055/5000/20/
012160/20121128/122356/2050/4000/10/
012160/20121128/122359/2050/530/10/
012160/20121128/122410/2050/2200/10/
012160/20121128/122415/2050/3500/20/
012160/20121128/122415/2050/1870/20/
012160/20121128/122418/2050/300/10/
012160/20121128/122420/2050/150/10/
012160/20121128/122428/2050/110/10/
012160/20121128/122432/2050/210/20/
012160/20121128/122435/2050/3270/10/
012160/20121128/122438/2045/170/10/
012160/20121128/122438/2050/1000/20/
012160/20121128/122443/2050/2010/20/
012160/20121128/122449/2050/500/10/
012160/20121128/122450/2050/400/10/
012160/20121128/122453/2050/570/10/
012160/20121128/122453/2045/2430/10/
012160/20121128/122455/2045/200/10/
012160/20121128/122502/2045/280/10/
012160/20121128/122504/2045/910/10/
012160/20121128/122507/2050/500/20/
012160/20121128/122510/2045/1580/10/
012160/20121128/122512/2045/420/20/
012160/20121128/122515/2050/90/20/
012160/20121128/122522/2050/1470/20/
012160/20121128/122526/2050/1000/20/
012160/20121128/122529/2050/200/20/
012160/20121128/122533/2050/1130/20/
012160/20121128/122546/2055/9710/20/
012160/20121128/122548/2060/200/20/
012160/20121128/122550/2060/180/20/
012160/20121128/122612/2060/580/20/
012160/20121128/122620/2060/700/20/
012160/20121128/122621/2060/710/20/
012160/20121128/122631/2060/1000/10/
012160/20121128/122639/2060/2040/20/
012160/20121128/122640/2055/1120/10/
012160/20121128/122642/2055/380/20/
012160/20121128/122700/2055/3080/10/
012160/20121128/122701/2060/390/20/
012160/20121128/122712/2060/1280/10/
012160/20121128/122716/2060/520/20/
012160/20121128/122727/2060/900/20/
012160/20121128/122733/2060/670/10/
012160/20121128/122734/2060/1590/10/
012160/20121128/122743/2060/120/20/
012160/20121128/122750/2055/500/10/
012160/20121128/122759/2055/5000/10/
012160/20121128/122801/2055/1470/10/
012160/20121128/122804/2055/580/10/
012160/20121128/122806/2055/310/10/
012160/20121128/122830/2055/160/20/
012160/20121128/122905/2055/1760/20/
012160/20121128/122936/2050/13010/10/
012160/20121128/122946/2050/90/20/
012160/20121128/122954/2050/230/20/
012160/20121128/122956/2045/380/10/
012160/20121128/123006/2045/200/10/
012160/20121128/123013/2045/120/10/
012160/20121128/123020/2045/200/10/
012160/20121128/123026/2045/190/10/
012160/20121128/123030/2045/300/10/
012160/20121128/123031/2040/1460/10/
012160/20121128/123031/2040/1500/10/
012160/20121128/123036/2040/1750/10/
012160/20121128/123037/2035/200/10/
012160/20121128/123057/2040/750/10/
012160/20121128/123111/2035/90/10/
012160/20121128/123115/2035/1370/10/
012160/20121128/123117/2035/1870/10/
012160/20121128/123117/2030/3490/10/
012160/20121128/123117/2030/570/10/
012160/20121128/123126/2035/230/10/
012160/20121128/123140/2040/780/20/
012160/20121128/123142/2040/500/20/
012160/20121128/123150/2040/550/20/
012160/20121128/123153/2040/930/10/
012160/20121128/123155/2045/170/20/
012160/20121128/123158/2040/100/10/
012160/20121128/123211/2040/500/20/
012160/20121128/123214/2040/1000/20/
012160/20121128/123217/2040/1020/10/
012160/20121128/123217/2040/980/20/
012160/20121128/123346/2040/2470/10/
012160/20121128/123348/2040/3000/10/
012160/20121128/123349/2040/300/10/
012160/20121128/123351/2040/290/10/
012160/20121128/123354/2040/850/10/
012160/20121128/123354/2035/190/10/
012160/20121128/123400/2035/1500/10/
012160/20121128/123412/2035/640/10/
012160/20121128/123422/2030/1030/10/
012160/20121128/123427/2035/100/10/
012160/20121128/123433/2035/950/10/
012160/20121128/123442/2035/100/20/
012160/20121128/123445/2035/170/10/
012160/20121128/123458/2035/100/10/
012160/20121128/123508/2040/1050/20/
012160/20121128/123521/2040/770/20/
012160/20121128/123522/2040/200/20/
012160/20121128/123547/2040/1760/10/
012160/20121128/123555/2040/100/10/
012160/20121128/123556/2040/2000/10/
012160/20121128/123601/2040/400/10/
012160/20121128/123613/2040/800/20/
012160/20121128/123633/2040/2000/10/
012160/20121128/123648/2040/1330/10/
012160/20121128/123728/2035/260/10/
012160/20121128/123755/2035/130/10/
012160/20121128/123800/2040/100/20/
012160/20121128/123802/2035/1250/10/
012160/20121128/123807/2035/1210/10/
012160/20121128/123827/2035/250/20/
012160/20121128/123833/2035/540/20/
012160/20121128/123849/2035/2480/10/
012160/20121128/123902/2030/210/10/
012160/20121128/123943/2030/6810/10/
012160/20121128/123951/2030/1520/10/
012160/20121128/124004/2030/470/10/
012160/20121128/124004/2025/1980/10/
012160/20121128/124006/2025/100/10/
012160/20121128/124013/2025/1100/10/
012160/20121128/124023/2025/3240/10/
012160/20121128/124023/2020/6760/10/
012160/20121128/124025/2020/920/10/
012160/20121128/124026/2020/790/10/
012160/20121128/124028/2020/700/10/
012160/20121128/124033/2020/440/10/
012160/20121128/124035/2020/250/10/
012160/20121128/124105/2020/1050/10/
012160/20121128/124105/2020/1950/20/
012160/20121128/124210/2020/890/10/
012160/20121128/124306/2025/90/20/
012160/20121128/124315/2025/690/10/
012160/20121128/124315/2020/3360/10/
012160/20121128/124326/2020/2080/10/
012160/20121128/124326/2015/1150/10/
012160/20121128/124345/2015/630/10/
012160/20121128/124401/2020/100/20/
012160/20121128/124410/2020/2440/20/
012160/20121128/124526/2020/520/10/
012160/20121128/124533/2015/140/10/
012160/20121128/124602/2015/3680/10/
012160/20121128/124622/2015/380/10/
012160/20121128/124624/2015/270/10/
012160/20121128/124644/2015/480/10/
012160/20121128/124724/2015/340/10/
012160/20121128/124728/2015/1330/20/
012160/20121128/124820/2020/1370/20/
012160/20121128/124932/2025/5010/20/
012160/20121128/124959/2030/120/20/
012160/20121128/125109/2030/3000/20/
012160/20121128/125138/2030/330/20/
012160/20121128/125151/2025/1500/10/
012160/20121128/125204/2020/2180/10/
012160/20121128/125220/2015/5090/10/
012160/20121128/125733/2025/4010/10/
012160/20121128/125733/2020/2370/10/
012160/20121128/125821/2025/1630/20/
012160/20121128/125847/2025/270/10/
012160/20121128/125919/2025/200/20/
012160/20121128/125947/2025/100/20/
012160/20121128/130141/2025/870/20/
012160/20121128/130215/2030/510/20/
012160/20121128/130216/2030/100/20/
012160/20121128/130226/2030/1070/20/
012160/20121128/130231/2030/120/20/
012160/20121128/130239/2030/3320/20/
012160/20121128/130241/2030/350/20/
012160/20121128/130249/2030/500/20/
012160/20121128/130304/2030/520/20/
012160/20121128/130308/2030/550/10/
012160/20121128/130314/2030/760/10/
012160/20121128/130324/2030/110/10/
012160/20121128/130346/2035/1140/20/
012160/20121128/130350/2035/120/20/
012160/20121128/130354/2035/2230/20/
012160/20121128/130408/2040/440/20/
012160/20121128/130423/2035/520/10/
012160/20121128/130431/2040/810/20/
012160/20121128/130437/2040/400/20/
012160/20121128/130442/2040/350/10/
012160/20121128/130450/2040/100/20/
012160/20121128/130501/2040/100/20/
012160/20121128/130532/2040/300/20/
012160/20121128/130550/2040/110/20/
012160/20121128/130633/2040/2660/20/
012160/20121128/130639/2040/340/10/
012160/20121128/130659/2035/1130/10/
012160/20121128/130826/2030/100/10/
012160/20121128/130903/2025/3610/10/
012160/20121128/130903/2020/3150/10/
012160/20121128/130918/2030/350/20/
012160/20121128/131106/2030/1380/20/
012160/20121128/131125/2030/170/10/
012160/20121128/131126/2030/590/10/
012160/20121128/131138/2030/1290/20/
012160/20121128/131147/2030/710/10/
012160/20121128/131149/2030/260/20/
012160/20121128/131207/2020/490/10/
012160/20121128/131207/2020/4270/20/
012160/20121128/131214/2015/430/10/
012160/20121128/131215/2015/1000/10/
012160/20121128/131226/2020/170/10/
012160/20121128/131240/2030/550/20/
012160/20121128/131247/2030/100/10/
012160/20121128/131247/2030/350/10/
012160/20121128/131419/2020/2020/10/
012160/20121128/131422/2020/2320/10/
012160/20121128/131441/2015/1560/10/
012160/20121128/131511/2015/510/10/
012160/20121128/131547/2015/1410/10/
012160/20121128/131552/2020/1200/20/
012160/20121128/131556/2015/6830/10/
012160/20121128/131612/2010/3300/10/
012160/20121128/131619/2010/1060/10/
012160/20121128/131640/2015/220/20/
012160/20121128/131711/2015/110/20/
012160/20121128/131720/2010/1930/10/
012160/20121128/131734/2010/200/10/
012160/20121128/131752/2010/200/10/
012160/20121128/131801/2015/90/20/
012160/20121128/131847/2010/930/10/
012160/20121128/131848/2015/1500/20/
012160/20121128/131853/2015/1000/20/
012160/20121128/131920/2015/300/20/
012160/20121128/131943/2015/200/20/
012160/20121128/131944/2015/1150/20/
012160/20121128/131951/2020/140/20/
012160/20121128/131955/2020/90/20/
012160/20121128/132005/2020/1000/20/
012160/20121128/132007/2020/500/20/
012160/20121128/132010/2020/1000/20/
012160/20121128/132021/2015/650/10/
012160/20121128/132022/2020/110/20/
012160/20121128/132128/2020/550/10/
012160/20121128/132142/2020/170/10/
012160/20121128/132221/2020/200/10/
012160/20121128/132243/2020/770/10/
012160/20121128/132246/2020/1300/10/
012160/20121128/132252/2020/200/20/
012160/20121128/132405/2015/2970/10/
012160/20121128/132409/2020/150/20/
012160/20121128/132413/2020/220/20/
012160/20121128/132423/2020/670/20/
012160/20121128/132537/2020/120/20/
012160/20121128/132538/2020/380/10/
012160/20121128/132542/2020/240/20/
012160/20121128/132601/2020/1300/20/
012160/20121128/132722/2015/660/10/
012160/20121128/132847/2015/360/10/
012160/20121128/132906/2015/770/10/
012160/20121128/132906/2015/100/10/
012160/20121128/132927/2015/100/10/
012160/20121128/132950/2015/100/10/
012160/20121128/132952/2015/2000/10/
012160/20121128/133023/2020/2200/20/
012160/20121128/133035/2020/110/20/
012160/20121128/133049/2015/950/10/
012160/20121128/133126/2015/1010/10/
012160/20121128/133147/2015/1000/10/
012160/20121128/133155/2015/1750/10/
012160/20121128/133155/2010/780/10/
012160/20121128/133327/2015/640/10/
012160/20121128/133329/2020/1000/20/
012160/20121128/133357/2020/1030/20/
012160/20121128/133610/2020/210/20/
012160/20121128/133635/2020/110/10/
012160/20121128/133635/2015/3650/10/
012160/20121128/133635/2010/4390/10/
012160/20121128/134250/2010/1450/10/
012160/20121128/134252/2010/350/10/
012160/20121128/134447/2010/900/10/
012160/20121128/134504/2010/1710/10/
012160/20121128/134504/2005/2780/10/
012160/20121128/134514/2010/140/10/
012160/20121128/134601/2010/220/10/
012160/20121128/134604/2010/1270/10/
012160/20121128/134629/2010/500/10/
012160/20121128/134755/2015/360/20/
012160/20121128/134755/2015/100/10/
012160/20121128/134810/2015/540/10/
012160/20121128/134840/2010/240/10/
012160/20121128/134845/2015/110/20/
012160/20121128/134845/2020/390/20/
012160/20121128/134901/2010/110/10/
012160/20121128/134935/2015/340/10/
012160/20121128/135028/2015/1060/10/
012160/20121128/135105/2015/120/20/
012160/20121128/135105/2020/940/20/
012160/20121128/135214/2020/500/20/
012160/20121128/135237/2015/1000/10/
012160/20121128/135318/2010/260/10/
012160/20121128/135337/2015/170/10/
012160/20121128/135347/2015/230/10/
012160/20121128/135525/2015/1080/10/
012160/20121128/135607/2015/1050/10/
012160/20121128/135642/2015/1320/10/
012160/20121128/135652/2015/1270/10/
012160/20121128/135746/2010/3010/10/
012160/20121128/135807/2010/7600/10/
012160/20121128/135807/2005/2410/10/
012160/20121128/135831/2005/1690/10/
012160/20121128/135840/2005/5000/10/
012160/20121128/135850/2005/1960/10/
012160/20121128/135850/2000/21330/10/
012160/20121128/135909/2000/300/10/
012160/20121128/135918/2000/1710/10/
012160/20121128/135933/2000/750/10/
012160/20121128/135935/2000/3020/10/
012160/20121128/135946/2000/1000/10/
012160/20121128/135951/2000/180/10/
012160/20121128/135951/2000/500/20/
012160/20121128/135951/2000/320/20/
012160/20121128/135954/2000/500/10/
012160/20121128/140031/1995/1000/10/
012160/20121128/140031/1995/100/10/
012160/20121128/140034/1995/90/10/
012160/20121128/140053/1995/110/10/
012160/20121128/140057/1995/5000/10/
012160/20121128/140101/1995/2800/10/
012160/20121128/140103/1995/620/10/
012160/20121128/140103/1995/700/10/
012160/20121128/140117/1995/1370/10/
012160/20121128/140120/1990/5000/10/
012160/20121128/140120/1990/1210/10/
012160/20121128/140128/1995/930/20/
012160/20121128/140147/1995/1000/10/
012160/20121128/140149/1995/570/10/
012160/20121128/140155/1995/1050/20/
012160/20121128/140209/1995/1010/10/
012160/20121128/140227/1995/620/20/
012160/20121128/140238/1995/510/10/
012160/20121128/140301/1995/460/10/
012160/20121128/140311/1995/1180/10/
012160/20121128/140318/1995/1000/20/
012160/20121128/140318/1995/1440/20/
012160/20121128/140337/2000/210/20/
012160/20121128/140357/2000/1800/20/
012160/20121128/140417/2000/200/10/
012160/20121128/140417/1995/2010/10/
012160/20121128/140423/1995/570/20/
012160/20121128/140428/1995/1000/20/
012160/20121128/140430/1995/850/20/
012160/20121128/140438/1995/500/20/
012160/20121128/140514/2000/910/20/
012160/20121128/140520/2000/120/10/
012160/20121128/140523/2000/450/20/
012160/20121128/140552/2000/700/20/
012160/20121128/140619/2000/500/10/
012160/20121128/140621/2005/280/20/
012160/20121128/140622/2005/600/20/
012160/20121128/140710/2000/660/10/
012160/20121128/140710/1995/2410/10/
012160/20121128/140727/2000/1000/10/
012160/20121128/140727/1995/1000/10/
012160/20121128/140742/2000/500/20/
012160/20121128/140749/2000/500/20/
012160/20121128/140752/2000/200/20/
012160/20121128/140809/2000/800/10/
012160/20121128/140828/2000/500/20/
012160/20121128/140833/2000/1000/20/
012160/20121128/140916/2000/2250/10/
012160/20121128/140916/1995/3420/10/
012160/20121128/140938/1995/130/10/
012160/20121128/141016/2000/510/20/
012160/20121128/141032/2000/850/20/
012160/20121128/141059/2000/530/20/
012160/20121128/141059/2000/470/20/
012160/20121128/141105/2000/1500/10/
012160/20121128/141127/2000/300/10/
012160/20121128/141131/2000/1200/10/
012160/20121128/141135/2000/2000/10/
012160/20121128/141135/2000/1000/10/
012160/20121128/141139/2000/490/10/
012160/20121128/141140/2000/300/10/
012160/20121128/141143/2000/690/10/
012160/20121128/141334/1995/550/10/
012160/20121128/141338/2000/130/20/
012160/20121128/141338/1995/1000/10/
012160/20121128/141350/1995/500/10/
012160/20121128/141358/1995/100/10/
012160/20121128/141406/1995/100/10/
012160/20121128/141446/1995/100/10/
012160/20121128/141500/1995/90/10/
012160/20121128/141515/1995/150/10/
012160/20121128/141531/1995/270/10/
012160/20121128/141600/1995/760/10/
012160/20121128/141602/2000/1000/20/
012160/20121128/141612/2000/510/20/
012160/20121128/141617/2000/250/20/
012160/20121128/141629/2000/140/20/
012160/20121128/141629/2005/170/20/
012160/20121128/141648/2005/100/20/
012160/20121128/141703/2005/200/20/
012160/20121128/141711/2000/400/10/
012160/20121128/141719/2010/280/20/
012160/20121128/141828/2000/1000/10/
012160/20121128/141852/2000/100/10/
012160/20121128/141910/2000/2000/10/
012160/20121128/142042/2000/110/10/
012160/20121128/142114/2000/1740/10/
012160/20121128/142126/2000/1000/20/
012160/20121128/142135/2000/730/20/
012160/20121128/142211/2000/4680/10/
012160/20121128/142345/2010/1700/20/
012160/20121128/142347/2010/380/10/
012160/20121128/142443/2005/680/20/
012160/20121128/142537/2000/1000/10/
012160/20121128/142537/2005/370/20/
012160/20121128/142550/2005/170/10/
012160/20121128/142603/2005/960/10/
012160/20121128/142623/2000/1560/10/
012160/20121128/142628/2000/4540/10/
012160/20121128/142630/2000/1670/10/
012160/20121128/142658/2000/2000/20/
012160/20121128/142728/2000/130/20/
012160/20121128/142730/2000/350/20/
012160/20121128/142732/2000/120/10/
012160/20121128/142904/2000/2000/10/
012160/20121128/142942/2000/890/10/
012160/20121128/142945/2000/1010/10/
012160/20121128/142949/2000/130/10/
012160/20121128/143022/2000/1670/10/
012160/20121128/143045/2000/300/10/
012160/20121128/143048/2000/230/10/
012160/20121128/143055/2000/90/10/
012160/20121128/143107/2000/1070/20/
012160/20121128/143212/2000/380/10/
012160/20121128/143303/2000/600/10/
012160/20121128/143306/2000/6780/10/
012160/20121128/143330/2000/1000/20/
012160/20121128/143355/2000/730/20/
012160/20121128/143406/2000/280/10/
012160/20121128/143406/2000/130/20/
012160/20121128/143411/2000/2910/20/
012160/20121128/143420/2000/250/10/
012160/20121128/143435/2000/5670/10/
012160/20121128/143530/2000/2750/10/
012160/20121128/143531/2000/390/10/
012160/20121128/143541/2000/12060/10/
012160/20121128/143609/2000/5330/20/
012160/20121128/143647/2005/90/20/
012160/20121128/143647/2000/200/10/
012160/20121128/143659/2000/90/10/
012160/20121128/143702/2005/5240/20/
012160/20121128/143705/2005/3840/20/
012160/20121128/143708/2005/100/10/
012160/20121128/143715/2010/200/20/
012160/20121128/143724/2010/100/20/
012160/20121128/143732/2005/8370/10/
012160/20121128/143739/2000/90/10/
012160/20121128/143827/2000/1150/10/
012160/20121128/143849/2005/11580/20/
012160/20121128/143859/2005/140/10/
012160/20121128/143859/2000/3170/10/
012160/20121128/144014/2010/3010/20/
012160/20121128/144047/2010/510/20/
012160/20121128/144114/2010/3000/20/
012160/20121128/144129/2005/290/10/
012160/20121128/144129/2010/1510/20/
012160/20121128/144200/2010/300/10/
012160/20121128/144206/2010/1200/10/
012160/20121128/144224/2005/3560/10/
012160/20121128/144230/2005/100/10/
012160/20121128/144238/2000/5650/10/
012160/20121128/144347/2000/1060/10/
012160/20121128/144351/2000/3270/10/
012160/20121128/144355/2000/3630/20/
012160/20121128/144409/2000/1870/10/
012160/20121128/144409/1995/1390/10/
012160/20121128/144432/2000/1010/10/
012160/20121128/144441/2000/130/10/
012160/20121128/144458/1995/100/10/
012160/20121128/144504/1995/500/10/
012160/20121128/144504/1995/2460/10/
012160/20121128/144516/1995/100/10/
012160/20121128/144520/1995/600/10/
012160/20121128/144522/1995/1110/10/
012160/20121128/144522/1990/4580/10/
012160/20121128/144535/1990/400/10/
012160/20121128/144538/1990/2000/10/
012160/20121128/144539/1990/1320/10/
012160/20121128/144545/1990/500/20/
012160/20121128/144551/1990/5200/20/
012160/20121128/144611/1990/1260/10/
012160/20121128/144617/1990/530/20/
012160/20121128/144617/1990/980/20/
012160/20121128/144625/1990/200/10/
012160/20121128/144632/1990/200/10/
012160/20121128/144632/1985/8750/10/
012160/20121128/144632/1980/1090/10/
012160/20121128/144642/1995/900/20/
012160/20121128/144648/1995/3000/20/
012160/20121128/144655/1995/710/20/
012160/20121128/144758/1990/420/10/
012160/20121128/144803/1990/4020/10/
012160/20121128/144806/1990/100/20/
012160/20121128/144812/1990/1480/20/
012160/20121128/144834/1990/520/10/
012160/20121128/144838/1990/5000/10/
012160/20121128/144846/1990/130/10/
012160/20121128/144911/1995/740/20/
012160/20121128/144912/1995/630/20/
012160/20121128/144917/2000/200/20/
012160/20121128/144930/2000/2000/20/
012160/20121128/144939/2000/390/20/
012160/20121128/144942/2000/210/10/
012160/20121128/144952/2000/150/10/
012160/20121128/144956/2000/850/20/
012160/20121128/144958/2000/200/10/
012160/20121128/144959/2005/2000/20/
012160/20121128/150000/2010/100520/10/
