012160/20130129/90000/1705/270/10/
012160/20130129/90143/1705/130/10/
012160/20130129/90218/1715/560/20/
012160/20130129/90221/1720/5260/20/
012160/20130129/90229/1720/1000/10/
012160/20130129/90428/1725/140/20/
012160/20130129/90659/1715/720/10/
012160/20130129/90714/1725/200/20/
012160/20130129/90956/1720/110/10/
012160/20130129/90956/1715/2320/10/
012160/20130129/91240/1715/1010/20/
012160/20130129/91242/1715/400/20/
012160/20130129/91258/1715/150/20/
012160/20130129/91259/1715/1000/20/
012160/20130129/91517/1715/2500/10/
012160/20130129/91517/1710/2530/10/
012160/20130129/91605/1720/310/20/
012160/20130129/91616/1725/500/20/
012160/20130129/91646/1725/220/20/
012160/20130129/91801/1720/3020/10/
012160/20130129/91849/1715/810/10/
012160/20130129/91849/1710/3340/10/
012160/20130129/91849/1710/870/20/
012160/20130129/92023/1710/1530/10/
012160/20130129/92035/1710/3030/20/
012160/20130129/92124/1710/490/20/
012160/20130129/92124/1715/110/20/
012160/20130129/92316/1710/510/20/
012160/20130129/92341/1705/6070/10/
012160/20130129/92404/1715/1970/20/
012160/20130129/92526/1715/1010/10/
012160/20130129/92544/1720/970/20/
012160/20130129/92603/1720/2810/10/
012160/20130129/92629/1725/500/20/
012160/20130129/92630/1725/3000/20/
012160/20130129/92633/1725/540/20/
012160/20130129/92633/1730/2460/20/
012160/20130129/93040/1725/1020/20/
012160/20130129/93129/1720/460/10/
012160/20130129/93249/1725/330/20/
012160/20130129/93320/1725/700/20/
012160/20130129/93406/1725/1010/20/
012160/20130129/93426/1730/14070/20/
012160/20130129/93433/1735/10010/20/
012160/20130129/93438/1735/4480/20/
012160/20130129/93446/1735/250/10/
012160/20130129/93456/1735/200/10/
012160/20130129/93456/1735/870/10/
012160/20130129/93503/1735/140/10/
012160/20130129/93524/1725/5270/10/
012160/20130129/93524/1725/520/20/
012160/20130129/93524/1725/490/20/
012160/20130129/93527/1720/500/10/
012160/20130129/93645/1735/100/20/
012160/20130129/93835/1735/700/20/
012160/20130129/93900/1735/100/20/
012160/20130129/94113/1725/100/10/
012160/20130129/94121/1725/2010/10/
012160/20130129/94218/1725/1020/10/
012160/20130129/94235/1725/500/10/
012160/20130129/94345/1725/120/20/
012160/20130129/94553/1725/130/20/
012160/20130129/94631/1720/1470/10/
012160/20130129/94939/1720/850/10/
012160/20130129/95155/1720/2810/10/
012160/20130129/95748/1715/970/10/
012160/20130129/95852/1720/1410/20/
012160/20130129/95852/1720/90/10/
012160/20130129/95928/1720/920/20/
012160/20130129/100027/1720/1000/10/
012160/20130129/100452/1720/1980/20/
012160/20130129/100632/1720/2000/20/
012160/20130129/100709/1720/2000/20/
012160/20130129/100910/1720/390/20/
012160/20130129/101039/1720/210/10/
012160/20130129/101234/1725/3030/20/
012160/20130129/101247/1725/2500/20/
012160/20130129/101359/1720/12210/10/
012160/20130129/101516/1720/3120/20/
012160/20130129/101545/1725/5020/20/
012160/20130129/101625/1725/3610/20/
012160/20130129/101718/1725/1020/10/
012160/20130129/101750/1730/5240/20/
012160/20130129/101806/1730/2500/10/
012160/20130129/101812/1730/1000/10/
012160/20130129/101822/1730/1060/10/
012160/20130129/101903/1730/1220/10/
012160/20130129/102109/1730/3000/20/
012160/20130129/102132/1730/4930/20/
012160/20130129/102152/1730/1480/10/
012160/20130129/102204/1730/2620/20/
012160/20130129/102204/1735/29050/20/
012160/20130129/102217/1735/7550/10/
012160/20130129/102325/1735/5000/20/
012160/20130129/102336/1735/2760/20/
012160/20130129/102359/1740/3310/20/
012160/20130129/102407/1730/8010/10/
012160/20130129/102445/1730/8020/10/
012160/20130129/102728/1730/3360/10/
012160/20130129/102728/1725/8660/10/
012160/20130129/103211/1730/30070/10/
012160/20130129/103259/1730/930/20/
012160/20130129/103342/1730/9000/20/
012160/20130129/103404/1735/100/20/
012160/20130129/103618/1730/1070/10/
012160/20130129/103618/1725/13400/10/
012160/20130129/103631/1720/100/10/
012160/20130129/103634/1725/300/20/
012160/20130129/103943/1720/300/10/
012160/20130129/104015/1725/240/20/
012160/20130129/104240/1725/4390/10/
012160/20130129/104240/1720/10630/10/
012160/20130129/104453/1720/210/10/
012160/20130129/104700/1730/2370/20/
012160/20130129/104928/1725/720/10/
012160/20130129/104928/1720/9290/10/
012160/20130129/105210/1730/1340/20/
012160/20130129/105740/1720/3540/10/
012160/20130129/105821/1720/200/20/
012160/20130129/110004/1720/270/20/
012160/20130129/110100/1715/10330/10/
012160/20130129/110123/1715/120/20/
012160/20130129/110426/1720/640/20/
012160/20130129/110805/1725/900/20/
012160/20130129/111940/1715/950/10/
012160/20130129/112154/1725/540/20/
012160/20130129/112454/1715/2950/10/
012160/20130129/112756/1720/1810/20/
012160/20130129/113255/1715/290/10/
012160/20130129/113342/1715/300/20/
012160/20130129/113531/1715/1380/20/
012160/20130129/113555/1715/950/20/
012160/20130129/113737/1710/820/10/
012160/20130129/113853/1720/250/20/
012160/20130129/114913/1710/18500/10/
012160/20130129/114913/1705/26500/10/
012160/20130129/114913/1700/18040/10/
012160/20130129/114913/1715/1410/20/
012160/20130129/114955/1710/2000/10/
012160/20130129/115047/1705/440/20/
012160/20130129/120025/1710/90/20/
012160/20130129/120442/1705/3320/10/
012160/20130129/120455/1705/740/10/
012160/20130129/121429/1705/620/10/
012160/20130129/121532/1705/510/10/
012160/20130129/122054/1705/7590/10/
012160/20130129/122054/1700/2450/10/
012160/20130129/122132/1710/90/20/
012160/20130129/122208/1705/1380/10/
012160/20130129/122502/1710/2060/20/
012160/20130129/122528/1710/300/20/
012160/20130129/122749/1710/3010/20/
012160/20130129/123359/1710/90/20/
012160/20130129/123402/1710/90/20/
012160/20130129/123414/1710/120/20/
012160/20130129/123717/1705/4040/10/
012160/20130129/123844/1705/940/10/
012160/20130129/123920/1705/2370/20/
012160/20130129/124002/1705/90/10/
012160/20130129/124014/1705/3010/10/
012160/20130129/124444/1705/900/10/
012160/20130129/124446/1705/180/10/
012160/20130129/124630/1705/120/20/
012160/20130129/124747/1705/500/20/
012160/20130129/124807/1705/700/20/
012160/20130129/124839/1710/2680/20/
012160/20130129/124852/1715/5050/20/
012160/20130129/124853/1710/1000/10/
012160/20130129/125237/1715/5090/20/
012160/20130129/125242/1715/310/10/
012160/20130129/125249/1720/3020/20/
012160/20130129/125411/1715/1000/10/
012160/20130129/125422/1715/3000/10/
012160/20130129/125432/1715/500/10/
012160/20130129/125503/1715/130/10/
012160/20130129/125704/1710/1380/10/
012160/20130129/125704/1705/150/10/
012160/20130129/130128/1725/90/20/
012160/20130129/130131/1725/1770/20/
012160/20130129/130632/1715/2040/20/
012160/20130129/130639/1715/2500/10/
012160/20130129/130959/1715/1070/10/
012160/20130129/131412/1710/4000/10/
012160/20130129/131458/1710/120/10/
012160/20130129/131458/1705/4880/10/
012160/20130129/131640/1710/2690/10/
012160/20130129/131643/1710/370/10/
012160/20130129/131845/1710/520/10/
012160/20130129/131846/1710/200/20/
012160/20130129/131912/1710/2490/20/
012160/20130129/131914/1710/360/20/
012160/20130129/132055/1720/2020/20/
012160/20130129/132435/1715/370/20/
012160/20130129/132457/1715/700/20/
012160/20130129/132500/1715/410/20/
012160/20130129/132517/1710/240/10/
012160/20130129/132634/1720/6230/20/
012160/20130129/132652/1715/500/20/
012160/20130129/132652/1720/210/20/
012160/20130129/132733/1720/830/20/
012160/20130129/132847/1720/110/20/
012160/20130129/132906/1720/2890/10/
012160/20130129/133230/1715/1000/10/
012160/20130129/133230/1710/2090/10/
012160/20130129/133256/1710/1000/10/
012160/20130129/133439/1720/1390/20/
012160/20130129/133442/1725/1000/20/
012160/20130129/133457/1725/3370/20/
012160/20130129/133457/1725/1630/10/
012160/20130129/133552/1725/530/10/
012160/20130129/133609/1730/1010/20/
012160/20130129/133641/1725/110/10/
012160/20130129/133700/1725/4530/10/
012160/20130129/133738/1725/1100/20/
012160/20130129/133756/1730/250/20/
012160/20130129/134034/1730/2660/20/
012160/20130129/134035/1725/1780/10/
012160/20130129/134050/1725/2690/10/
012160/20130129/134106/1725/1800/10/
012160/20130129/134505/1720/750/10/
012160/20130129/134543/1720/430/20/
012160/20130129/134919/1720/1600/10/
012160/20130129/135301/1720/360/20/
012160/20130129/135644/1715/1110/10/
012160/20130129/135644/1710/1590/10/
012160/20130129/135704/1710/10000/10/
012160/20130129/135750/1710/400/10/
012160/20130129/135750/1705/6620/10/
012160/20130129/135820/1715/2010/20/
012160/20130129/135822/1720/5990/20/
012160/20130129/135848/1725/220/20/
012160/20130129/135915/1725/310/20/
012160/20130129/135918/1725/5010/20/
012160/20130129/135920/1725/570/20/
012160/20130129/135922/1725/200/20/
012160/20130129/135922/1725/1880/20/
012160/20130129/135926/1725/100/20/
012160/20130129/135927/1725/570/20/
012160/20130129/135928/1725/1000/20/
012160/20130129/135931/1725/1150/20/
012160/20130129/135935/1725/250/20/
012160/20130129/135935/1725/1000/20/
012160/20130129/135936/1725/1400/20/
012160/20130129/135937/1725/1160/20/
012160/20130129/135938/1725/1630/20/
012160/20130129/135941/1730/100/20/
012160/20130129/135949/1730/120/20/
012160/20130129/135950/1730/570/20/
012160/20130129/135951/1730/2900/20/
012160/20130129/135952/1730/1150/20/
012160/20130129/135952/1730/570/20/
012160/20130129/135954/1730/5360/20/
012160/20130129/135954/1730/1010/20/
012160/20130129/135956/1730/430/20/
012160/20130129/135957/1735/220/20/
012160/20130129/140004/1735/110/20/
012160/20130129/140005/1730/2010/10/
012160/20130129/140005/1735/570/20/
012160/20130129/140006/1735/1570/20/
012160/20130129/140014/1730/200/10/
012160/20130129/140016/1735/450/20/
012160/20130129/140022/1730/760/10/
012160/20130129/140026/1730/750/20/
012160/20130129/140031/1735/670/20/
012160/20130129/140040/1730/1400/10/
012160/20130129/140042/1730/850/10/
012160/20130129/140054/1725/410/10/
012160/20130129/140054/1720/580/10/
012160/20130129/140054/1715/4880/10/
012160/20130129/140144/1725/1830/10/
012160/20130129/140218/1725/4700/10/
012160/20130129/140230/1725/1460/20/
012160/20130129/140233/1725/1100/20/
012160/20130129/140236/1725/1950/10/
012160/20130129/140245/1725/3050/20/
012160/20130129/140254/1725/120/10/
012160/20130129/140257/1725/2000/10/
012160/20130129/140306/1725/1870/10/
012160/20130129/140402/1725/1000/10/
012160/20130129/140523/1725/860/10/
012160/20130129/140535/1725/200/20/
012160/20130129/140732/1725/1310/10/
012160/20130129/140740/1725/260/20/
012160/20130129/140844/1720/2040/10/
012160/20130129/140848/1720/980/10/
012160/20130129/140848/1720/1300/20/
012160/20130129/140930/1725/110/20/
012160/20130129/141046/1715/100/10/
012160/20130129/141214/1715/420/10/
012160/20130129/141621/1720/550/20/
012160/20130129/141737/1720/200/20/
012160/20130129/142006/1720/540/20/
012160/20130129/142153/1715/230/10/
012160/20130129/142554/1715/860/10/
012160/20130129/142718/1715/160/10/
012160/20130129/142754/1715/1070/10/
012160/20130129/142819/1715/2010/10/
012160/20130129/142831/1715/1000/10/
012160/20130129/143220/1715/1890/10/
012160/20130129/143237/1715/120/10/
012160/20130129/143311/1715/3500/10/
012160/20130129/143321/1715/1970/10/
012160/20130129/143415/1715/530/10/
012160/20130129/143557/1710/980/10/
012160/20130129/143612/1710/720/10/
012160/20130129/143850/1715/1020/20/
012160/20130129/143852/1715/1160/20/
012160/20130129/143856/1715/1000/20/
012160/20130129/143914/1715/300/20/
012160/20130129/143934/1710/2060/10/
012160/20130129/143943/1715/90/20/
012160/20130129/143948/1710/1460/10/
012160/20130129/143949/1715/200/20/
012160/20130129/144003/1715/170/20/
012160/20130129/144032/1715/150/20/
012160/20130129/144037/1715/200/20/
012160/20130129/144110/1715/100/20/
012160/20130129/144115/1715/100/20/
012160/20130129/144247/1715/90/10/
012160/20130129/144303/1715/1060/10/
012160/20130129/144312/1715/90/10/
012160/20130129/144313/1715/200/10/
012160/20130129/144322/1715/480/10/
012160/20130129/144345/1715/520/20/
012160/20130129/144455/1710/2500/10/
012160/20130129/144506/1710/10010/10/
012160/20130129/144510/1710/200/10/
012160/20130129/144726/1710/710/10/
012160/20130129/144748/1710/1500/10/
012160/20130129/144818/1710/310/10/
012160/20130129/144836/1710/2740/20/
012160/20130129/144926/1710/2170/10/
012160/20130129/144933/1710/500/10/
012160/20130129/144941/1710/1500/10/
012160/20130129/144946/1710/1000/10/
012160/20130129/150000/1715/18190/10/
