012160/20130313/90000/1655/1650/10/
012160/20130313/90003/1655/1800/10/
012160/20130313/90013/1655/650/10/
012160/20130313/90029/1655/110/20/
012160/20130313/90501/1660/220/20/
012160/20130313/90617/1660/250/20/
012160/20130313/90916/1650/5160/10/
012160/20130313/91047/1650/260/10/
012160/20130313/92044/1655/400/10/
012160/20130313/92154/1655/220/10/
012160/20130313/92222/1655/580/10/
012160/20130313/92343/1655/420/20/
012160/20130313/92355/1655/580/20/
012160/20130313/92558/1655/550/20/
012160/20130313/92659/1655/520/20/
012160/20130313/92721/1655/270/20/
012160/20130313/93109/1650/580/10/
012160/20130313/93139/1655/90/20/
012160/20130313/93152/1650/1000/10/
012160/20130313/93314/1650/460/10/
012160/20130313/93517/1655/1000/20/
012160/20130313/93713/1660/250/20/
012160/20130313/94124/1660/90/20/
012160/20130313/94321/1660/1020/20/
012160/20130313/94338/1655/1110/10/
012160/20130313/94400/1655/2510/10/
012160/20130313/95017/1660/4580/20/
012160/20130313/95114/1660/300/20/
012160/20130313/95139/1660/1010/20/
012160/20130313/95210/1665/520/20/
012160/20130313/95252/1660/140/10/
012160/20130313/95414/1665/3930/20/
012160/20130313/95551/1660/120/10/
012160/20130313/95613/1665/3520/20/
012160/20130313/95629/1665/2000/20/
012160/20130313/95630/1665/510/10/
012160/20130313/100214/1665/90/20/
012160/20130313/100355/1660/8040/10/
012160/20130313/100708/1660/230/10/
012160/20130313/100735/1660/700/10/
012160/20130313/100743/1660/100/10/
012160/20130313/101055/1665/10060/20/
012160/20130313/101112/1665/5030/10/
012160/20130313/101116/1665/1010/20/
012160/20130313/101121/1665/6000/10/
012160/20130313/101350/1670/5080/20/
012160/20130313/101409/1670/2000/20/
012160/20130313/101435/1665/3040/10/
012160/20130313/101444/1665/6970/20/
012160/20130313/101510/1665/14110/10/
012160/20130313/101524/1665/3030/20/
012160/20130313/101637/1665/110/10/
012160/20130313/101824/1670/1050/20/
012160/20130313/102226/1670/270/20/
012160/20130313/102920/1670/5050/20/
012160/20130313/102920/1670/810/20/
012160/20130313/103216/1670/160/20/
012160/20130313/103236/1665/2960/10/
012160/20130313/103240/1670/240/20/
012160/20130313/103453/1670/5010/20/
012160/20130313/103548/1675/2790/20/
012160/20130313/103553/1675/1990/20/
012160/20130313/103604/1675/1550/20/
012160/20130313/103632/1675/130/10/
012160/20130313/103644/1680/4630/20/
012160/20130313/103700/1685/220/20/
012160/20130313/103704/1685/2000/20/
012160/20130313/103708/1680/100/10/
012160/20130313/103709/1680/2390/10/
012160/20130313/103721/1680/610/20/
012160/20130313/103721/1685/200/20/
012160/20130313/103730/1685/460/20/
012160/20130313/103801/1685/220/20/
012160/20130313/103849/1680/930/20/
012160/20130313/103849/1685/150/20/
012160/20130313/103903/1675/5190/10/
012160/20130313/103903/1670/4810/10/
012160/20130313/103950/1680/1030/20/
012160/20130313/104022/1680/1650/20/
012160/20130313/104022/1680/1000/10/
012160/20130313/104033/1680/670/10/
012160/20130313/104040/1680/100/20/
012160/20130313/104234/1675/420/10/
012160/20130313/104326/1675/540/10/
012160/20130313/104610/1680/940/20/
012160/20130313/104948/1675/400/10/
012160/20130313/105003/1675/100/10/
012160/20130313/105057/1675/110/10/
012160/20130313/105106/1675/500/10/
012160/20130313/105204/1675/330/10/
012160/20130313/105230/1675/100/10/
012160/20130313/105245/1675/150/10/
012160/20130313/105300/1675/110/10/
012160/20130313/105309/1675/2020/10/
012160/20130313/105716/1675/140/10/
012160/20130313/105721/1675/1000/10/
012160/20130313/105835/1675/130/10/
012160/20130313/110023/1675/260/10/
012160/20130313/110050/1675/100/10/
012160/20130313/110109/1675/310/10/
012160/20130313/110145/1670/1020/10/
012160/20130313/110210/1670/4000/10/
012160/20130313/110250/1670/1930/10/
012160/20130313/110406/1665/4300/10/
012160/20130313/110515/1665/580/10/
012160/20130313/110638/1660/3110/10/
012160/20130313/110719/1660/100/10/
012160/20130313/110829/1670/2030/20/
012160/20130313/111122/1665/1020/10/
012160/20130313/111249/1670/740/20/
012160/20130313/111358/1670/300/10/
012160/20130313/111500/1665/1800/10/
012160/20130313/111524/1675/100/20/
012160/20130313/111524/1680/3850/20/
012160/20130313/111525/1680/8460/10/
012160/20130313/111552/1685/320/20/
012160/20130313/111613/1665/320/10/
012160/20130313/112028/1680/90/20/
012160/20130313/112702/1675/360/20/
012160/20130313/112921/1675/150/10/
012160/20130313/113325/1675/560/20/
012160/20130313/114845/1670/160/10/
012160/20130313/114914/1670/100/10/
012160/20130313/115532/1670/90/10/
012160/20130313/115541/1670/400/20/
012160/20130313/115716/1670/370/20/
012160/20130313/115726/1670/300/20/
012160/20130313/115733/1670/200/20/
012160/20130313/115739/1670/150/20/
012160/20130313/115816/1670/520/10/
012160/20130313/115856/1670/1490/20/
012160/20130313/120222/1670/200/10/
012160/20130313/120703/1670/570/10/
012160/20130313/120717/1670/980/10/
012160/20130313/120819/1670/1330/10/
012160/20130313/121905/1670/1070/10/
012160/20130313/122514/1665/160/10/
012160/20130313/122641/1670/1940/20/
012160/20130313/122712/1670/90/20/
012160/20130313/122843/1665/3610/10/
012160/20130313/123036/1670/90/20/
012160/20130313/123101/1665/110/10/
012160/20130313/123132/1665/230/10/
012160/20130313/123250/1670/370/20/
012160/20130313/123316/1670/310/20/
012160/20130313/123644/1670/120/20/
012160/20130313/123724/1665/1880/10/
012160/20130313/124147/1665/510/10/
012160/20130313/124203/1665/1050/10/
012160/20130313/124648/1670/160/20/
012160/20130313/124809/1670/100/20/
012160/20130313/125647/1670/90/20/
012160/20130313/125822/1670/140/20/
012160/20130313/130020/1670/1000/20/
012160/20130313/130049/1670/100/20/
012160/20130313/130105/1670/4260/20/
012160/20130313/130159/1670/540/10/
012160/20130313/130308/1670/1030/10/
012160/20130313/130332/1675/3250/20/
012160/20130313/130353/1675/5030/20/
012160/20130313/130501/1675/2250/20/
012160/20130313/130501/1680/2760/20/
012160/20130313/130759/1675/490/20/
012160/20130313/130820/1675/280/20/
012160/20130313/130855/1675/250/20/
012160/20130313/130949/1675/1030/20/
012160/20130313/131006/1675/1010/10/
012160/20130313/131127/1675/550/10/
012160/20130313/131320/1675/130/10/
012160/20130313/131341/1675/120/10/
012160/20130313/131724/1675/4000/10/
012160/20130313/132503/1675/160/20/
012160/20130313/132540/1680/13030/20/
012160/20130313/132540/1680/1030/20/
012160/20130313/132723/1685/20090/20/
012160/20130313/132723/1685/1180/20/
012160/20130313/132743/1690/2020/20/
012160/20130313/132746/1690/360/20/
012160/20130313/132754/1695/11060/20/
012160/20130313/132754/1700/2480/20/
012160/20130313/132757/1700/600/20/
012160/20130313/132809/1700/410/20/
012160/20130313/132941/1695/130/20/
012160/20130313/133001/1695/510/20/
012160/20130313/133034/1695/510/20/
012160/20130313/133117/1695/5070/20/
012160/20130313/133117/1700/5360/20/
012160/20130313/133150/1695/100/20/
012160/20130313/133151/1695/2790/10/
012160/20130313/133317/1695/230/20/
012160/20130313/133332/1690/700/10/
012160/20130313/133344/1690/1300/20/
012160/20130313/133435/1690/1020/10/
012160/20130313/133449/1690/170/10/
012160/20130313/133511/1690/380/10/
012160/20130313/133519/1690/3000/10/
012160/20130313/133530/1690/970/10/
012160/20130313/133825/1695/90/20/
012160/20130313/133851/1685/110/10/
012160/20130313/133924/1680/2020/10/
012160/20130313/133931/1685/500/20/
012160/20130313/134012/1685/370/20/
012160/20130313/134052/1690/2010/10/
012160/20130313/134214/1690/1490/10/
012160/20130313/134215/1690/100/10/
012160/20130313/134256/1695/120/20/
012160/20130313/134311/1695/100/20/
012160/20130313/134329/1695/3810/20/
012160/20130313/134410/1695/1820/20/
012160/20130313/134411/1695/280/10/
012160/20130313/134411/1690/1340/10/
012160/20130313/134436/1690/610/20/
012160/20130313/134514/1690/1420/10/
012160/20130313/134514/1685/2100/10/
012160/20130313/134514/1680/3640/10/
012160/20130313/134748/1695/4480/20/
012160/20130313/134911/1695/130/10/
012160/20130313/134958/1695/2930/20/
012160/20130313/135047/1700/24840/20/
012160/20130313/135108/1705/3010/20/
012160/20130313/135129/1700/5020/10/
012160/20130313/135201/1700/1220/10/
012160/20130313/135234/1700/1000/20/
012160/20130313/135434/1700/5890/20/
012160/20130313/135508/1700/90/10/
012160/20130313/135519/1700/1050/10/
012160/20130313/135524/1700/420/20/
012160/20130313/135530/1700/1580/10/
012160/20130313/135542/1695/1250/10/
012160/20130313/135550/1700/2500/20/
012160/20130313/135659/1695/1020/10/
012160/20130313/135810/1695/2060/10/
012160/20130313/135816/1695/1070/20/
012160/20130313/135903/1695/1110/10/
012160/20130313/140233/1695/4070/20/
012160/20130313/140332/1695/420/20/
012160/20130313/140937/1695/5920/20/
012160/20130313/141250/1695/1040/10/
012160/20130313/141442/1700/15850/20/
012160/20130313/141520/1705/920/20/
012160/20130313/141532/1700/2000/10/
012160/20130313/141538/1700/110/10/
012160/20130313/141544/1705/110/20/
012160/20130313/141608/1705/2220/20/
012160/20130313/141712/1700/1510/10/
012160/20130313/141713/1700/610/10/
012160/20130313/142043/1700/540/10/
012160/20130313/142046/1700/2350/10/
012160/20130313/142140/1700/530/10/
012160/20130313/142144/1700/100/10/
012160/20130313/142501/1700/170/10/
012160/20130313/142539/1705/10020/20/
012160/20130313/142557/1705/300/20/
012160/20130313/142601/1705/1990/20/
012160/20130313/142604/1705/2000/20/
012160/20130313/142608/1705/100/20/
012160/20130313/142612/1700/500/10/
012160/20130313/142659/1700/1050/10/
012160/20130313/142706/1700/3260/10/
012160/20130313/142709/1700/1740/20/
012160/20130313/142713/1700/2150/10/
012160/20130313/142713/1700/1110/10/
012160/20130313/142737/1700/7600/10/
012160/20130313/142752/1700/1420/20/
012160/20130313/142802/1700/590/10/
012160/20130313/142811/1695/1410/10/
012160/20130313/142847/1700/1410/20/
012160/20130313/142900/1700/1110/10/
012160/20130313/142915/1700/190/20/
012160/20130313/142918/1700/1810/10/
012160/20130313/143004/1700/1190/20/
012160/20130313/143019/1700/820/10/
012160/20130313/143143/1700/1020/20/
012160/20130313/143509/1695/610/10/
012160/20130313/143529/1695/1200/10/
012160/20130313/143546/1695/7500/10/
012160/20130313/143614/1695/3560/10/
012160/20130313/143708/1695/900/20/
012160/20130313/143725/1695/3000/20/
012160/20130313/143732/1695/500/20/
012160/20130313/143918/1695/2040/20/
012160/20130313/144015/1700/17920/20/
012160/20130313/144051/1705/330/20/
012160/20130313/144102/1705/160/20/
012160/20130313/144252/1700/1530/10/
012160/20130313/144255/1700/100/10/
012160/20130313/144306/1700/100/10/
012160/20130313/144354/1705/1030/20/
012160/20130313/144359/1700/100/10/
012160/20130313/144416/1705/700/20/
012160/20130313/144515/1700/5060/10/
012160/20130313/144515/1700/1080/10/
012160/20130313/144620/1700/210/20/
012160/20130313/144637/1700/130/10/
012160/20130313/144710/1700/1030/10/
012160/20130313/144710/1695/1210/10/
012160/20130313/144715/1705/1260/20/
012160/20130313/144741/1705/100/20/
012160/20130313/144855/1700/420/10/
012160/20130313/150000/1705/10620/10/
