012160/20121217/90000/1745/6830/10/
012160/20121217/90008/1760/90/20/
012160/20121217/90015/1760/240/20/
012160/20121217/90124/1740/2810/10/
012160/20121217/90132/1740/1090/20/
012160/20121217/90224/1740/1110/10/
012160/20121217/90231/1740/530/10/
012160/20121217/90233/1740/230/20/
012160/20121217/90302/1740/520/10/
012160/20121217/90307/1745/980/20/
012160/20121217/90310/1750/4960/20/
012160/20121217/90312/1750/2080/20/
012160/20121217/90424/1745/1000/10/
012160/20121217/90436/1745/7010/10/
012160/20121217/90443/1755/90/20/
012160/20121217/90515/1755/120/20/
012160/20121217/90519/1755/550/20/
012160/20121217/90525/1755/100/20/
012160/20121217/90528/1755/100/20/
012160/20121217/90531/1755/430/20/
012160/20121217/90603/1755/180/20/
012160/20121217/90611/1755/1000/20/
012160/20121217/90613/1755/370/20/
012160/20121217/90616/1750/13600/10/
012160/20121217/90617/1755/100/20/
012160/20121217/90626/1750/1420/10/
012160/20121217/90641/1745/200/10/
012160/20121217/90709/1750/100/20/
012160/20121217/90717/1750/600/20/
012160/20121217/90805/1750/130/20/
012160/20121217/90832/1750/200/10/
012160/20121217/90855/1750/380/10/
012160/20121217/90900/1755/860/20/
012160/20121217/90907/1755/850/10/
012160/20121217/90923/1755/100/20/
012160/20121217/90949/1755/950/20/
012160/20121217/90956/1755/200/10/
012160/20121217/90959/1755/240/10/
012160/20121217/90959/1755/110/20/
012160/20121217/91015/1755/270/20/
012160/20121217/91033/1760/800/20/
012160/20121217/91051/1755/1540/10/
012160/20121217/91055/1760/3610/20/
012160/20121217/91109/1765/1000/20/
012160/20121217/91118/1765/320/20/
012160/20121217/91153/1765/2480/20/
012160/20121217/91157/1765/520/10/
012160/20121217/91158/1765/1480/20/
012160/20121217/91211/1765/2000/10/
012160/20121217/91213/1765/790/10/
012160/20121217/91218/1765/1270/20/
012160/20121217/91221/1765/730/10/
012160/20121217/91225/1765/720/20/
012160/20121217/91227/1765/280/10/
012160/20121217/91241/1765/1460/20/
012160/20121217/91249/1765/100/20/
012160/20121217/91259/1765/950/20/
012160/20121217/91305/1765/1400/10/
012160/20121217/91312/1765/310/10/
012160/20121217/91324/1765/2000/20/
012160/20121217/91347/1775/440/20/
012160/20121217/91420/1770/1360/10/
012160/20121217/91424/1770/670/20/
012160/20121217/91424/1775/300/20/
012160/20121217/91452/1770/530/20/
012160/20121217/91459/1770/100/10/
012160/20121217/91533/1765/600/10/
012160/20121217/91544/1765/100/10/
012160/20121217/91621/1770/180/20/
012160/20121217/91621/1765/220/10/
012160/20121217/91626/1770/500/20/
012160/20121217/91727/1765/2060/10/
012160/20121217/91729/1765/3010/10/
012160/20121217/91733/1765/300/10/
012160/20121217/91751/1765/1130/10/
012160/20121217/91753/1765/300/10/
012160/20121217/91756/1765/500/10/
012160/20121217/91758/1765/500/10/
012160/20121217/91810/1765/200/10/
012160/20121217/91814/1765/280/10/
012160/20121217/91822/1765/720/20/
012160/20121217/91905/1765/500/20/
012160/20121217/91920/1760/1030/10/
012160/20121217/91923/1760/750/10/
012160/20121217/91935/1760/3350/10/
012160/20121217/91945/1760/300/10/
012160/20121217/92010/1760/730/10/
012160/20121217/92053/1760/100/10/
012160/20121217/92108/1760/1460/10/
012160/20121217/92156/1760/100/10/
012160/20121217/92201/1755/3980/10/
012160/20121217/92209/1755/1850/10/
012160/20121217/92344/1760/1080/10/
012160/20121217/92355/1760/720/10/
012160/20121217/92501/1760/2050/10/
012160/20121217/92636/1760/220/10/
012160/20121217/92744/1760/1350/10/
012160/20121217/92918/1760/90/10/
012160/20121217/92922/1750/500/10/
012160/20121217/93104/1755/160/10/
012160/20121217/93108/1755/650/10/
012160/20121217/93113/1755/100/10/
012160/20121217/93119/1755/100/10/
012160/20121217/93213/1755/1580/10/
012160/20121217/93249/1755/420/10/
012160/20121217/93249/1750/4580/10/
012160/20121217/93300/1750/440/10/
012160/20121217/93306/1750/250/10/
012160/20121217/93309/1750/220/10/
012160/20121217/93323/1750/250/20/
012160/20121217/93336/1750/160/20/
012160/20121217/93339/1750/380/20/
012160/20121217/93340/1750/120/10/
012160/20121217/93358/1745/3730/10/
012160/20121217/93426/1745/960/10/
012160/20121217/93434/1745/250/10/
012160/20121217/93434/1740/1210/10/
012160/20121217/93443/1745/1860/10/
012160/20121217/93443/1740/2920/10/
012160/20121217/93443/1735/2230/10/
012160/20121217/93534/1740/460/10/
012160/20121217/93616/1740/2410/10/
012160/20121217/93617/1740/530/10/
012160/20121217/93618/1740/1950/10/
012160/20121217/93624/1740/720/10/
012160/20121217/93625/1740/120/20/
012160/20121217/93652/1735/750/10/
012160/20121217/93654/1735/1650/10/
012160/20121217/93655/1735/830/10/
012160/20121217/93658/1735/1170/20/
012160/20121217/93706/1735/1610/10/
012160/20121217/93709/1735/210/10/
012160/20121217/93719/1730/4730/10/
012160/20121217/93719/1725/2300/10/
012160/20121217/93721/1735/1230/20/
012160/20121217/93739/1730/160/20/
012160/20121217/93802/1725/3320/10/
012160/20121217/93803/1725/670/10/
012160/20121217/93806/1720/4000/10/
012160/20121217/93824/1720/540/10/
012160/20121217/93832/1725/110/20/
012160/20121217/93842/1720/210/10/
012160/20121217/93846/1720/1150/10/
012160/20121217/93852/1720/100/20/
012160/20121217/93855/1715/5280/10/
012160/20121217/93855/1715/1040/10/
012160/20121217/93856/1715/90/20/
012160/20121217/93905/1710/10070/10/
012160/20121217/93905/1710/1400/10/
012160/20121217/93905/1715/1300/20/
012160/20121217/93908/1715/200/20/
012160/20121217/93911/1715/450/20/
012160/20121217/93924/1715/170/20/
012160/20121217/93925/1715/500/20/
012160/20121217/93928/1715/240/20/
012160/20121217/93929/1715/100/20/
012160/20121217/93936/1715/510/20/
012160/20121217/93938/1715/170/20/
012160/20121217/93944/1715/110/20/
012160/20121217/94005/1720/120/20/
012160/20121217/94008/1715/240/10/
012160/20121217/94008/1720/300/20/
012160/20121217/94013/1715/420/10/
012160/20121217/94015/1720/1740/20/
012160/20121217/94022/1720/500/20/
012160/20121217/94029/1715/220/10/
012160/20121217/94031/1720/1000/20/
012160/20121217/94042/1715/500/10/
012160/20121217/94049/1720/220/20/
012160/20121217/94129/1720/120/20/
012160/20121217/94136/1720/5000/20/
012160/20121217/94139/1720/1000/20/
012160/20121217/94140/1720/1000/20/
012160/20121217/94151/1720/2650/20/
012160/20121217/94153/1720/390/10/
012160/20121217/94156/1720/1000/20/
012160/20121217/94202/1720/100/20/
012160/20121217/94216/1720/240/20/
012160/20121217/94221/1720/400/10/
012160/20121217/94223/1720/370/10/
012160/20121217/94227/1720/140/20/
012160/20121217/94235/1725/9030/20/
012160/20121217/94235/1720/460/10/
012160/20121217/94242/1720/360/10/
012160/20121217/94249/1720/90/10/
012160/20121217/94252/1720/110/20/
012160/20121217/94258/1725/750/20/
012160/20121217/94335/1725/270/20/
012160/20121217/94351/1715/6530/10/
012160/20121217/94403/1715/500/20/
012160/20121217/94403/1715/980/20/
012160/20121217/94418/1715/120/20/
012160/20121217/94421/1715/1180/20/
012160/20121217/94429/1715/200/10/
012160/20121217/94523/1720/110/10/
012160/20121217/94535/1720/100/20/
012160/20121217/94544/1720/550/20/
012160/20121217/94601/1720/1000/10/
012160/20121217/94634/1720/300/20/
012160/20121217/94634/1720/1000/20/
012160/20121217/94637/1715/400/10/
012160/20121217/94638/1720/110/10/
012160/20121217/94747/1720/670/10/
012160/20121217/94837/1720/500/20/
012160/20121217/94846/1715/2000/10/
012160/20121217/94858/1715/2510/10/
012160/20121217/94905/1715/1030/20/
012160/20121217/94912/1710/6750/10/
012160/20121217/94919/1710/210/20/
012160/20121217/94920/1710/1000/20/
012160/20121217/94924/1710/480/20/
012160/20121217/94953/1715/210/20/
012160/20121217/95012/1715/1000/20/
012160/20121217/95113/1710/2010/10/
012160/20121217/95152/1710/380/10/
012160/20121217/95201/1710/930/10/
012160/20121217/95201/1705/9380/10/
012160/20121217/95209/1705/1360/10/
012160/20121217/95212/1705/100/20/
012160/20121217/95221/1705/90/20/
012160/20121217/95227/1705/100/20/
012160/20121217/95229/1705/370/20/
012160/20121217/95328/1710/110/20/
012160/20121217/95329/1705/120/10/
012160/20121217/95354/1705/3590/10/
012160/20121217/95354/1700/3610/10/
012160/20121217/95403/1700/510/10/
012160/20121217/95408/1705/1050/20/
012160/20121217/95409/1705/1760/20/
012160/20121217/95431/1705/550/10/
012160/20121217/95452/1705/120/20/
012160/20121217/95453/1705/1000/20/
012160/20121217/95503/1705/120/20/
012160/20121217/95507/1705/500/20/
012160/20121217/95515/1705/790/10/
012160/20121217/95610/1705/1420/10/
012160/20121217/95610/1700/4420/10/
012160/20121217/95624/1700/12880/10/
012160/20121217/95627/1700/1600/10/
012160/20121217/95631/1700/210/20/
012160/20121217/95634/1695/3360/10/
012160/20121217/95634/1695/2620/10/
012160/20121217/95637/1690/1520/10/
012160/20121217/95640/1690/4000/10/
012160/20121217/95708/1700/110/20/
012160/20121217/95725/1700/100/20/
012160/20121217/95758/1700/100/20/
012160/20121217/95811/1695/2640/10/
012160/20121217/95814/1695/1000/20/
012160/20121217/95824/1690/1550/10/
012160/20121217/95846/1695/510/20/
012160/20121217/95846/1695/1000/20/
012160/20121217/95904/1695/1010/20/
012160/20121217/95915/1695/340/20/
012160/20121217/95933/1700/1770/20/
012160/20121217/95934/1690/6000/10/
012160/20121217/95949/1695/1720/10/
012160/20121217/95949/1690/770/10/
012160/20121217/95949/1685/520/10/
012160/20121217/100011/1695/1210/20/
012160/20121217/100102/1690/1030/10/
012160/20121217/100225/1695/110/20/
012160/20121217/100231/1695/1000/20/
012160/20121217/100240/1695/100/20/
012160/20121217/100324/1695/100/20/
012160/20121217/100327/1695/2780/20/
012160/20121217/100328/1695/100/20/
012160/20121217/100330/1690/880/10/
012160/20121217/100331/1695/100/20/
012160/20121217/100348/1695/1000/20/
012160/20121217/100350/1695/100/20/
012160/20121217/100402/1695/200/20/
012160/20121217/100408/1695/500/20/
012160/20121217/100415/1695/100/20/
012160/20121217/100450/1695/150/20/
012160/20121217/100615/1695/970/10/
012160/20121217/100615/1690/4730/10/
012160/20121217/100641/1690/170/10/
012160/20121217/100703/1690/2430/10/
012160/20121217/100706/1690/370/10/
012160/20121217/100710/1690/520/10/
012160/20121217/100713/1690/970/10/
012160/20121217/100719/1690/230/10/
012160/20121217/100726/1685/6400/10/
012160/20121217/100728/1685/6210/10/
012160/20121217/100731/1685/100/20/
012160/20121217/100736/1685/100/20/
012160/20121217/100742/1685/350/20/
012160/20121217/100745/1685/1600/20/
012160/20121217/100755/1685/1800/10/
012160/20121217/100756/1685/200/20/
012160/20121217/100805/1685/700/10/
012160/20121217/100821/1690/320/20/
012160/20121217/100826/1690/4720/20/
012160/20121217/100837/1690/200/10/
012160/20121217/100838/1690/340/10/
012160/20121217/100904/1690/320/10/
012160/20121217/100947/1695/100/20/
012160/20121217/101019/1695/1100/20/
012160/20121217/101034/1695/1300/10/
012160/20121217/101038/1695/820/20/
012160/20121217/101135/1695/110/10/
012160/20121217/101150/1700/4050/20/
012160/20121217/101156/1700/500/20/
012160/20121217/101156/1700/2000/20/
012160/20121217/101158/1700/100/20/
012160/20121217/101203/1700/500/20/
012160/20121217/101206/1700/370/20/
012160/20121217/101214/1700/5000/20/
012160/20121217/101216/1700/1000/20/
012160/20121217/101220/1700/520/20/
012160/20121217/101224/1700/200/10/
012160/20121217/101336/1710/410/20/
012160/20121217/101338/1710/850/20/
012160/20121217/101356/1710/360/10/
012160/20121217/101356/1710/1000/10/
012160/20121217/101457/1710/100/10/
012160/20121217/101642/1710/510/20/
012160/20121217/101712/1710/200/10/
012160/20121217/101712/1710/600/10/
012160/20121217/101735/1715/400/20/
012160/20121217/102035/1705/1000/10/
012160/20121217/102035/1700/3320/10/
012160/20121217/102053/1700/2600/10/
012160/20121217/102326/1700/2330/10/
012160/20121217/102521/1705/1020/10/
012160/20121217/102521/1700/560/10/
012160/20121217/103120/1715/320/20/
012160/20121217/103129/1705/500/10/
012160/20121217/103129/1700/1000/10/
012160/20121217/103558/1710/490/10/
012160/20121217/103742/1705/2330/10/
012160/20121217/103745/1705/1000/10/
012160/20121217/103748/1705/450/10/
012160/20121217/103756/1705/1130/20/
012160/20121217/103801/1705/2450/20/
012160/20121217/103815/1705/120/20/
012160/20121217/103832/1705/340/10/
012160/20121217/103832/1700/4170/10/
012160/20121217/103914/1700/7300/10/
012160/20121217/103942/1700/3020/10/
012160/20121217/103942/1695/2040/10/
012160/20121217/104211/1710/420/20/
012160/20121217/104308/1700/1150/10/
012160/20121217/104412/1705/110/20/
012160/20121217/104432/1705/270/10/
012160/20121217/104950/1710/110/20/
012160/20121217/105101/1710/920/20/
012160/20121217/105132/1710/5460/20/
012160/20121217/105133/1710/1260/10/
012160/20121217/105247/1715/780/20/
012160/20121217/105247/1715/730/10/
012160/20121217/105257/1715/1200/20/
012160/20121217/105305/1715/300/20/
012160/20121217/105313/1715/200/20/
012160/20121217/105726/1715/110/20/
012160/20121217/105745/1710/110/10/
012160/20121217/105756/1710/220/10/
012160/20121217/105816/1710/500/10/
012160/20121217/110011/1715/280/20/
012160/20121217/110027/1715/230/20/
012160/20121217/110216/1715/470/10/
012160/20121217/110216/1710/5750/10/
012160/20121217/110216/1710/3230/20/
012160/20121217/110625/1710/360/10/
012160/20121217/110625/1705/440/10/
012160/20121217/111024/1705/2810/10/
012160/20121217/111338/1710/120/10/
012160/20121217/111401/1705/2480/10/
012160/20121217/111834/1710/170/20/
012160/20121217/111912/1710/320/10/
012160/20121217/111950/1710/870/20/
012160/20121217/112430/1710/2690/10/
012160/20121217/112432/1710/700/20/
012160/20121217/112833/1705/4650/10/
012160/20121217/112833/1700/1780/10/
012160/20121217/113051/1705/150/10/
012160/20121217/113051/1700/3270/10/
012160/20121217/113111/1700/150/20/
012160/20121217/113229/1700/5880/20/
012160/20121217/113519/1710/1810/20/
012160/20121217/114011/1705/2780/10/
012160/20121217/114027/1705/2420/20/
012160/20121217/114707/1705/250/10/
012160/20121217/115004/1710/1040/20/
012160/20121217/115233/1710/390/20/
012160/20121217/115305/1710/90/20/
012160/20121217/115502/1710/690/20/
012160/20121217/115525/1710/1020/20/
012160/20121217/115627/1710/2010/20/
012160/20121217/115816/1710/90/20/
012160/20121217/115855/1710/90/20/
012160/20121217/115939/1710/3190/20/
012160/20121217/120049/1710/520/10/
012160/20121217/120146/1720/90/20/
012160/20121217/120507/1720/130/20/
012160/20121217/120550/1720/110/20/
012160/20121217/120609/1720/110/20/
012160/20121217/120638/1720/90/20/
012160/20121217/120654/1720/180/20/
012160/20121217/120706/1720/100/20/
012160/20121217/120715/1720/120/20/
012160/20121217/120732/1720/1530/20/
012160/20121217/120823/1725/110/20/
012160/20121217/120947/1725/130/20/
012160/20121217/121006/1715/210/10/
012160/20121217/121038/1715/520/20/
012160/20121217/121222/1720/90/20/
012160/20121217/121231/1720/190/20/
012160/20121217/121406/1720/90/20/
012160/20121217/121431/1720/140/20/
012160/20121217/121640/1720/200/10/
012160/20121217/121801/1720/710/20/
012160/20121217/121804/1720/2550/10/
012160/20121217/121824/1720/940/20/
012160/20121217/121841/1720/820/20/
012160/20121217/122050/1720/90/20/
012160/20121217/122217/1720/350/20/
012160/20121217/122509/1720/170/20/
012160/20121217/122535/1710/1780/10/
012160/20121217/122548/1715/110/20/
012160/20121217/122555/1715/100/20/
012160/20121217/122601/1715/100/20/
012160/20121217/122608/1715/100/20/
012160/20121217/122624/1715/140/20/
012160/20121217/122624/1715/540/20/
012160/20121217/122643/1715/370/20/
012160/20121217/122743/1720/110/20/
012160/20121217/123035/1720/290/20/
012160/20121217/123358/1720/6320/20/
012160/20121217/123406/1720/240/20/
012160/20121217/123833/1710/2450/10/
012160/20121217/123833/1705/1570/10/
012160/20121217/124001/1705/580/10/
012160/20121217/124027/1705/430/20/
012160/20121217/124130/1710/370/20/
012160/20121217/124653/1715/240/20/
012160/20121217/125006/1705/900/10/
012160/20121217/125203/1705/1710/20/
012160/20121217/125355/1710/120/20/
012160/20121217/125436/1705/150/10/
012160/20121217/125450/1705/100/20/
012160/20121217/125537/1700/300/10/
012160/20121217/125544/1700/2000/10/
012160/20121217/125547/1700/2000/10/
012160/20121217/125737/1700/1210/10/
012160/20121217/125808/1700/1090/10/
012160/20121217/125839/1700/420/20/
012160/20121217/125853/1700/1700/10/
012160/20121217/130150/1700/4440/10/
012160/20121217/130249/1700/2670/20/
012160/20121217/130316/1700/340/20/
012160/20121217/130325/1695/1680/10/
012160/20121217/130443/1700/2490/20/
012160/20121217/130443/1700/830/10/
012160/20121217/130517/1700/1510/10/
012160/20121217/130536/1700/1450/10/
012160/20121217/130742/1700/610/10/
012160/20121217/130813/1705/330/20/
012160/20121217/130902/1700/170/10/
012160/20121217/130949/1700/510/10/
012160/20121217/131019/1705/550/20/
012160/20121217/131045/1700/600/10/
012160/20121217/131322/1705/210/20/
012160/20121217/131330/1705/1000/20/
012160/20121217/131340/1705/200/20/
012160/20121217/131405/1705/500/20/
012160/20121217/131510/1700/700/10/
012160/20121217/131736/1695/1050/10/
012160/20121217/131813/1695/2900/10/
012160/20121217/131941/1700/860/20/
012160/20121217/132049/1700/510/20/
012160/20121217/132315/1700/290/10/
012160/20121217/132523/1705/4030/20/
012160/20121217/132738/1700/120/10/
012160/20121217/133207/1700/1550/10/
012160/20121217/133243/1700/2970/10/
012160/20121217/133258/1700/1010/10/
012160/20121217/133433/1705/1920/20/
012160/20121217/133451/1705/100/10/
012160/20121217/133630/1705/190/10/
012160/20121217/133724/1700/330/10/
012160/20121217/133743/1705/310/20/
012160/20121217/133930/1700/310/10/
012160/20121217/134009/1705/310/20/
012160/20121217/134050/1700/500/10/
012160/20121217/134059/1705/1370/20/
012160/20121217/134123/1705/110/10/
012160/20121217/134142/1710/410/20/
012160/20121217/134211/1710/1160/20/
012160/20121217/134212/1710/1460/20/
012160/20121217/134212/1710/1260/10/
012160/20121217/134213/1710/1260/10/
012160/20121217/134213/1710/1260/10/
012160/20121217/134223/1710/550/10/
012160/20121217/134307/1710/90/20/
012160/20121217/134323/1710/1450/20/
012160/20121217/134326/1710/430/20/
012160/20121217/134341/1715/90/20/
012160/20121217/134352/1715/90/20/
012160/20121217/134405/1710/220/10/
012160/20121217/134440/1710/1050/20/
012160/20121217/134501/1705/3710/10/
012160/20121217/134525/1700/3010/10/
012160/20121217/134526/1700/140/10/
012160/20121217/134536/1705/120/20/
012160/20121217/134638/1705/1570/20/
012160/20121217/134733/1710/530/20/
012160/20121217/134837/1710/140/20/
012160/20121217/134840/1710/220/20/
012160/20121217/134844/1710/100/10/
012160/20121217/134856/1710/120/20/
012160/20121217/134938/1710/350/20/
012160/20121217/134949/1715/370/20/
012160/20121217/135034/1715/360/20/
012160/20121217/135310/1710/270/10/
012160/20121217/135330/1710/120/20/
012160/20121217/135437/1710/100/20/
012160/20121217/135503/1710/1400/20/
012160/20121217/135505/1710/500/20/
012160/20121217/135526/1710/100/20/
012160/20121217/135714/1705/320/10/
012160/20121217/135832/1705/3670/10/
012160/20121217/140226/1705/230/10/
012160/20121217/140432/1705/2010/10/
012160/20121217/140437/1705/990/10/
012160/20121217/140440/1705/240/10/
012160/20121217/140529/1700/2100/10/
012160/20121217/140653/1705/310/20/
012160/20121217/140830/1700/750/10/
012160/20121217/140841/1705/210/20/
012160/20121217/140901/1705/350/20/
012160/20121217/140926/1700/2850/10/
012160/20121217/141012/1700/3010/10/
012160/20121217/141015/1700/330/10/
012160/20121217/141021/1700/100/10/
012160/20121217/141029/1700/5420/10/
012160/20121217/141032/1700/130/10/
012160/20121217/141034/1700/3820/10/
012160/20121217/141052/1700/260/20/
012160/20121217/141139/1705/510/20/
012160/20121217/141254/1700/1680/10/
012160/20121217/141307/1700/900/10/
012160/20121217/141309/1700/820/10/
012160/20121217/141333/1695/11930/10/
012160/20121217/141336/1695/750/10/
012160/20121217/141349/1695/180/20/
012160/20121217/141358/1695/100/20/
012160/20121217/141404/1695/200/20/
012160/20121217/141410/1695/300/20/
012160/20121217/141431/1695/110/20/
012160/20121217/141453/1695/3070/20/
012160/20121217/141456/1695/90/20/
012160/20121217/141522/1695/860/10/
012160/20121217/141536/1695/3000/10/
012160/20121217/141629/1695/2130/10/
012160/20121217/141650/1695/210/20/
012160/20121217/141745/1695/160/20/
012160/20121217/141753/1695/100/20/
012160/20121217/141810/1690/100/10/
012160/20121217/141857/1690/2390/10/
012160/20121217/141943/1695/150/20/
012160/20121217/142011/1695/160/20/
012160/20121217/142029/1695/200/20/
012160/20121217/142102/1695/930/20/
012160/20121217/142136/1690/1200/10/
012160/20121217/142211/1695/1080/20/
012160/20121217/142233/1695/710/20/
012160/20121217/142254/1695/5050/20/
012160/20121217/142254/1695/1510/20/
012160/20121217/142339/1695/210/10/
012160/20121217/142342/1705/200/20/
012160/20121217/142440/1705/100/20/
012160/20121217/142510/1705/2000/20/
012160/20121217/142522/1700/1170/10/
012160/20121217/142612/1700/1250/10/
012160/20121217/142620/1700/3950/10/
012160/20121217/142645/1700/2000/20/
012160/20121217/142711/1700/250/20/
012160/20121217/142716/1700/170/20/
012160/20121217/142744/1705/100/20/
012160/20121217/142751/1705/100/20/
012160/20121217/142809/1705/280/20/
012160/20121217/142812/1700/3000/10/
012160/20121217/142929/1700/260/10/
012160/20121217/143110/1700/2660/10/
012160/20121217/143129/1700/100/20/
012160/20121217/143303/1700/2060/10/
012160/20121217/143308/1700/500/20/
012160/20121217/143343/1700/5000/20/
012160/20121217/143346/1700/100/20/
012160/20121217/143430/1700/2100/10/
012160/20121217/143508/1700/5180/20/
012160/20121217/143509/1700/840/10/
012160/20121217/143653/1700/270/20/
012160/20121217/143703/1700/250/20/
012160/20121217/143709/1700/470/10/
012160/20121217/143719/1700/1640/10/
012160/20121217/143804/1700/500/10/
012160/20121217/143811/1700/1600/10/
012160/20121217/143811/1695/10430/10/
012160/20121217/143839/1695/1210/10/
012160/20121217/143841/1695/1500/10/
012160/20121217/143849/1695/1000/10/
012160/20121217/143929/1700/1030/20/
012160/20121217/143950/1695/200/10/
012160/20121217/144032/1695/2010/10/
012160/20121217/144147/1695/2010/10/
012160/20121217/144205/1695/1010/10/
012160/20121217/144206/1695/400/10/
012160/20121217/144240/1700/130/20/
012160/20121217/144351/1700/890/20/
012160/20121217/144353/1700/2000/20/
012160/20121217/144418/1695/380/10/
012160/20121217/144418/1690/4620/10/
012160/20121217/144440/1690/1440/10/
012160/20121217/144523/1690/1010/10/
012160/20121217/144556/1690/14460/10/
012160/20121217/144601/1690/500/20/
012160/20121217/144610/1690/100/20/
012160/20121217/144610/1685/100/10/
012160/20121217/144620/1685/1030/10/
012160/20121217/144636/1685/370/10/
012160/20121217/144640/1685/2060/10/
012160/20121217/144708/1685/250/10/
012160/20121217/144732/1690/1060/20/
012160/20121217/144753/1690/200/20/
012160/20121217/144800/1690/90/20/
012160/20121217/144812/1690/840/20/
012160/20121217/144837/1685/5330/10/
012160/20121217/144840/1685/4070/10/
012160/20121217/144840/1680/17180/10/
012160/20121217/144908/1690/1080/20/
012160/20121217/144908/1690/100/20/
012160/20121217/144930/1685/120/10/
012160/20121217/144931/1690/300/20/
012160/20121217/144959/1690/370/20/
012160/20121217/150000/1700/44200/20/
