012160/20130201/90000/1740/22400/10/
012160/20130201/90006/1740/1000/10/
012160/20130201/90022/1745/150/20/
012160/20130201/90045/1740/1000/10/
012160/20130201/90049/1745/350/20/
012160/20130201/90057/1745/3650/10/
012160/20130201/90057/1740/2000/10/
012160/20130201/90100/1750/1010/20/
012160/20130201/90109/1750/150/20/
012160/20130201/90112/1750/170/10/
012160/20130201/90116/1755/1000/20/
012160/20130201/90147/1750/4230/10/
012160/20130201/90153/1750/500/10/
012160/20130201/90203/1750/2000/10/
012160/20130201/90220/1750/1130/10/
012160/20130201/90257/1755/1250/20/
012160/20130201/90319/1750/1530/10/
012160/20130201/90353/1750/680/10/
012160/20130201/90415/1750/1710/10/
012160/20130201/90422/1750/100/10/
012160/20130201/90424/1750/1100/10/
012160/20130201/90426/1750/540/10/
012160/20130201/90450/1750/800/10/
012160/20130201/90458/1750/4700/10/
012160/20130201/90458/1745/5820/10/
012160/20130201/90459/1745/2850/10/
012160/20130201/90511/1745/1000/10/
012160/20130201/90535/1745/810/10/
012160/20130201/90546/1745/1500/10/
012160/20130201/90600/1745/520/10/
012160/20130201/90600/1740/5340/10/
012160/20130201/90617/1740/2060/10/
012160/20130201/90626/1745/220/20/
012160/20130201/90627/1745/1320/20/
012160/20130201/90633/1745/400/10/
012160/20130201/90702/1745/500/10/
012160/20130201/90715/1745/100/10/
012160/20130201/90744/1750/1470/20/
012160/20130201/90815/1755/420/20/
012160/20130201/90818/1755/160/20/
012160/20130201/90826/1760/1030/20/
012160/20130201/90835/1760/2700/20/
012160/20130201/90835/1765/2300/20/
012160/20130201/90911/1760/1090/10/
012160/20130201/90918/1760/3970/10/
012160/20130201/90918/1760/1590/10/
012160/20130201/90945/1755/530/10/
012160/20130201/90947/1755/3000/10/
012160/20130201/90947/1750/4000/10/
012160/20130201/91036/1750/460/10/
012160/20130201/91036/1755/200/20/
012160/20130201/91048/1755/7000/10/
012160/20130201/91056/1755/3030/10/
012160/20130201/91124/1750/5010/10/
012160/20130201/91133/1750/10000/10/
012160/20130201/91140/1750/6500/10/
012160/20130201/91142/1750/400/10/
012160/20130201/91145/1750/1660/10/
012160/20130201/91145/1750/310/10/
012160/20130201/91145/1750/210/10/
012160/20130201/91205/1750/1000/20/
012160/20130201/91236/1745/5000/10/
012160/20130201/91258/1750/170/20/
012160/20130201/91348/1745/270/10/
012160/20130201/91440/1750/2020/20/
012160/20130201/91450/1750/120/20/
012160/20130201/91509/1750/100/20/
012160/20130201/91510/1745/100/10/
012160/20130201/91529/1750/610/20/
012160/20130201/91719/1750/2240/20/
012160/20130201/91751/1750/970/10/
012160/20130201/91757/1750/690/10/
012160/20130201/91909/1750/1080/20/
012160/20130201/91913/1745/240/10/
012160/20130201/91932/1745/220/10/
012160/20130201/91951/1750/100/20/
012160/20130201/92024/1745/2090/10/
012160/20130201/92039/1750/400/20/
012160/20130201/92100/1750/120/20/
012160/20130201/92133/1750/1070/20/
012160/20130201/92147/1750/700/20/
012160/20130201/92310/1750/190/20/
012160/20130201/92318/1745/100/10/
012160/20130201/92348/1750/100/20/
012160/20130201/92351/1750/1000/20/
012160/20130201/92557/1750/130/20/
012160/20130201/92725/1750/370/20/
012160/20130201/92836/1750/1060/20/
012160/20130201/92845/1750/270/20/
012160/20130201/92903/1750/420/20/
012160/20130201/92908/1750/260/10/
012160/20130201/92932/1750/90/20/
012160/20130201/92933/1750/200/20/
012160/20130201/92945/1750/750/20/
012160/20130201/92945/1755/2290/20/
012160/20130201/93035/1755/100/20/
012160/20130201/93039/1755/100/20/
012160/20130201/93039/1755/1090/20/
012160/20130201/93100/1760/3040/20/
012160/20130201/93226/1760/1010/20/
012160/20130201/93249/1760/2100/20/
012160/20130201/93249/1760/100/20/
012160/20130201/93252/1760/360/20/
012160/20130201/93318/1760/150/20/
012160/20130201/93327/1760/100/20/
012160/20130201/93443/1760/1430/20/
012160/20130201/93446/1760/3500/10/
012160/20130201/93447/1760/2070/10/
012160/20130201/93524/1760/90/20/
012160/20130201/93613/1760/5680/20/
012160/20130201/93615/1760/320/10/
012160/20130201/93638/1755/500/10/
012160/20130201/93646/1755/2510/10/
012160/20130201/93654/1760/100/20/
012160/20130201/93749/1760/1940/20/
012160/20130201/93757/1760/1000/20/
012160/20130201/93834/1760/900/20/
012160/20130201/93836/1760/2100/10/
012160/20130201/93842/1760/910/20/
012160/20130201/93842/1765/90/20/
012160/20130201/93848/1765/100/20/
012160/20130201/93926/1765/280/20/
012160/20130201/93955/1760/230/10/
012160/20130201/94010/1760/530/10/
012160/20130201/94017/1760/360/10/
012160/20130201/94037/1760/1000/20/
012160/20130201/94130/1760/800/20/
012160/20130201/94325/1760/3000/20/
012160/20130201/94500/1755/960/10/
012160/20130201/94534/1755/8080/10/
012160/20130201/94536/1755/420/10/
012160/20130201/94553/1755/300/10/
012160/20130201/94554/1755/150/10/
012160/20130201/94820/1750/3000/10/
012160/20130201/94826/1750/4360/10/
012160/20130201/94925/1745/170/10/
012160/20130201/94948/1745/300/10/
012160/20130201/94953/1745/2430/10/
012160/20130201/95005/1745/1000/10/
012160/20130201/95005/1745/1750/10/
012160/20130201/95020/1745/1370/10/
012160/20130201/95350/1750/1350/20/
012160/20130201/95735/1750/4060/20/
012160/20130201/95823/1745/1330/10/
012160/20130201/95846/1745/1390/20/
012160/20130201/100149/1745/190/10/
012160/20130201/100248/1745/440/10/
012160/20130201/100300/1740/5040/10/
012160/20130201/100307/1740/500/10/
012160/20130201/100310/1740/1430/10/
012160/20130201/100314/1740/1440/10/
012160/20130201/100316/1740/1000/10/
012160/20130201/100334/1740/930/10/
012160/20130201/100340/1740/200/10/
012160/20130201/100345/1740/7040/10/
012160/20130201/100415/1735/1000/10/
012160/20130201/100417/1735/1010/10/
012160/20130201/100417/1735/500/10/
012160/20130201/100417/1735/100/10/
012160/20130201/100417/1735/200/10/
012160/20130201/100417/1735/200/10/
012160/20130201/100417/1735/500/10/
012160/20130201/100418/1735/2000/10/
012160/20130201/100419/1735/500/10/
012160/20130201/100419/1735/500/10/
012160/20130201/100420/1735/6150/10/
012160/20130201/100420/1735/580/10/
012160/20130201/100451/1735/2000/10/
012160/20130201/100502/1735/1400/10/
012160/20130201/100536/1740/2010/20/
012160/20130201/100723/1735/880/10/
012160/20130201/100730/1735/250/10/
012160/20130201/100731/1735/1710/10/
012160/20130201/100735/1735/390/10/
012160/20130201/100738/1730/1610/10/
012160/20130201/100739/1730/2000/10/
012160/20130201/100741/1730/1150/10/
012160/20130201/100742/1730/1000/10/
012160/20130201/100744/1730/2840/10/
012160/20130201/100746/1730/500/10/
012160/20130201/100756/1730/2000/10/
012160/20130201/100758/1730/500/10/
012160/20130201/100806/1730/1270/10/
012160/20130201/100806/1730/1000/10/
012160/20130201/100808/1730/1000/10/
012160/20130201/100821/1730/1610/10/
012160/20130201/100822/1725/2400/10/
012160/20130201/100822/1720/100/10/
012160/20130201/100825/1720/500/10/
012160/20130201/100846/1720/5000/10/
012160/20130201/100914/1720/1000/10/
012160/20130201/100915/1720/1930/10/
012160/20130201/100928/1720/480/20/
012160/20130201/100931/1720/100/20/
012160/20130201/100947/1720/1700/20/
012160/20130201/101040/1720/1000/10/
012160/20130201/101055/1725/2190/20/
012160/20130201/101135/1730/1600/20/
012160/20130201/101147/1730/2000/10/
012160/20130201/101147/1730/1080/10/
012160/20130201/101350/1730/510/10/
012160/20130201/101513/1730/2050/20/
012160/20130201/101529/1730/130/20/
012160/20130201/101553/1730/500/20/
012160/20130201/101706/1725/300/10/
012160/20130201/101749/1725/9110/10/
012160/20130201/101749/1725/2320/10/
012160/20130201/101813/1720/2500/10/
012160/20130201/101823/1725/300/20/
012160/20130201/101904/1725/1050/10/
012160/20130201/101951/1725/180/10/
012160/20130201/102048/1730/3000/20/
012160/20130201/102142/1725/1000/10/
012160/20130201/102225/1725/2010/10/
012160/20130201/102232/1725/220/10/
012160/20130201/102325/1725/970/10/
012160/20130201/102424/1725/110/10/
012160/20130201/102431/1725/2000/10/
012160/20130201/102547/1730/1020/20/
012160/20130201/102556/1730/1860/20/
012160/20130201/102611/1730/830/20/
012160/20130201/102745/1730/710/10/
012160/20130201/102753/1730/170/10/
012160/20130201/102753/1725/1340/10/
012160/20130201/102936/1725/510/10/
012160/20130201/103206/1725/130/10/
012160/20130201/103226/1725/90/10/
012160/20130201/103336/1725/5070/10/
012160/20130201/103344/1725/500/10/
012160/20130201/103426/1725/1000/10/
012160/20130201/103500/1725/500/10/
012160/20130201/103515/1725/2160/10/
012160/20130201/103521/1725/200/10/
012160/20130201/103523/1725/2330/10/
012160/20130201/103535/1730/90/20/
012160/20130201/103746/1725/2730/10/
012160/20130201/103746/1720/290/10/
012160/20130201/103857/1725/1010/10/
012160/20130201/104022/1725/110/10/
012160/20130201/104022/1720/2740/10/
012160/20130201/104053/1720/2100/10/
012160/20130201/104122/1720/9740/10/
012160/20130201/104126/1720/1500/10/
012160/20130201/104126/1720/1600/10/
012160/20130201/104128/1720/2120/10/
012160/20130201/104129/1720/2000/10/
012160/20130201/104129/1720/800/10/
012160/20130201/104141/1715/2010/10/
012160/20130201/104144/1715/2000/10/
012160/20130201/104217/1715/90/10/
012160/20130201/104425/1720/1140/20/
012160/20130201/104456/1725/120/20/
012160/20130201/104629/1725/100/20/
012160/20130201/104913/1720/520/10/
012160/20130201/105038/1720/610/10/
012160/20130201/105304/1720/1200/10/
012160/20130201/105304/1715/4630/10/
012160/20130201/105304/1710/9180/10/
012160/20130201/105352/1720/340/20/
012160/20130201/105534/1720/1010/20/
012160/20130201/105546/1720/1010/10/
012160/20130201/105637/1720/980/10/
012160/20130201/110537/1725/360/20/
012160/20130201/110538/1720/690/10/
012160/20130201/110602/1720/120/20/
012160/20130201/111015/1720/1210/10/
012160/20130201/111201/1720/1580/10/
012160/20130201/111201/1715/7410/10/
012160/20130201/111201/1710/1010/10/
012160/20130201/111229/1710/1180/10/
012160/20130201/111401/1715/90/10/
012160/20130201/111445/1715/150/10/
012160/20130201/112149/1720/250/20/
012160/20130201/112606/1720/110/10/
012160/20130201/113312/1720/110/10/
012160/20130201/113330/1715/1200/10/
012160/20130201/113515/1720/100/20/
012160/20130201/113659/1720/900/10/
012160/20130201/113758/1720/4010/10/
012160/20130201/113849/1720/290/10/
012160/20130201/113850/1720/710/20/
012160/20130201/113949/1720/1620/10/
012160/20130201/114043/1720/590/20/
012160/20130201/114059/1720/300/20/
012160/20130201/114518/1720/120/10/
012160/20130201/114710/1720/200/10/
012160/20130201/114710/1715/4800/10/
012160/20130201/115623/1725/1120/10/
012160/20130201/115845/1725/90/10/
012160/20130201/120504/1730/270/20/
012160/20130201/120604/1730/200/20/
012160/20130201/120644/1725/110/10/
012160/20130201/121029/1725/240/20/
012160/20130201/121800/1725/1820/20/
012160/20130201/121831/1725/100/20/
012160/20130201/121851/1725/560/20/
012160/20130201/122620/1725/960/10/
012160/20130201/122705/1725/90/10/
012160/20130201/122713/1725/300/10/
012160/20130201/122956/1725/510/10/
012160/20130201/123359/1725/560/10/
012160/20130201/124530/1725/250/20/
012160/20130201/124530/1730/810/20/
012160/20130201/125536/1725/410/10/
012160/20130201/125536/1720/570/10/
012160/20130201/125657/1725/90/10/
012160/20130201/130154/1730/110/20/
012160/20130201/130444/1725/1000/10/
012160/20130201/130523/1725/600/10/
012160/20130201/131131/1725/4830/10/
012160/20130201/131154/1725/580/10/
012160/20130201/131337/1725/2300/10/
012160/20130201/131504/1725/2100/20/
012160/20130201/131718/1725/960/10/
012160/20130201/131808/1725/460/10/
012160/20130201/131814/1725/400/10/
012160/20130201/131953/1725/800/10/
012160/20130201/132201/1725/2060/10/
012160/20130201/132303/1725/230/20/
012160/20130201/132348/1730/2040/20/
012160/20130201/132405/1725/90/10/
012160/20130201/133026/1730/2010/20/
012160/20130201/133242/1730/370/20/
012160/20130201/133318/1730/310/20/
012160/20130201/133415/1725/1000/10/
012160/20130201/133611/1730/1050/20/
012160/20130201/133748/1725/3000/10/
012160/20130201/133902/1725/2010/10/
012160/20130201/134105/1730/870/20/
012160/20130201/134126/1725/500/10/
012160/20130201/134154/1730/160/20/
012160/20130201/134213/1730/270/10/
012160/20130201/134237/1730/590/20/
012160/20130201/134428/1725/4810/10/
012160/20130201/134510/1725/660/10/
012160/20130201/134510/1725/1030/20/
012160/20130201/134714/1725/2580/10/
012160/20130201/134714/1720/12640/10/
012160/20130201/135253/1720/2010/10/
012160/20130201/135932/1730/130/20/
012160/20130201/140135/1725/3500/10/
012160/20130201/140528/1725/220/10/
012160/20130201/140610/1725/90/10/
012160/20130201/140621/1725/510/10/
012160/20130201/140746/1725/1000/10/
012160/20130201/140849/1725/1040/10/
012160/20130201/140915/1725/510/10/
012160/20130201/140939/1725/300/10/
012160/20130201/140954/1725/280/10/
012160/20130201/141008/1725/400/10/
012160/20130201/141151/1730/90/20/
012160/20130201/141229/1725/2940/10/
012160/20130201/141249/1725/380/20/
012160/20130201/141249/1725/180/10/
012160/20130201/141253/1725/1000/10/
012160/20130201/141344/1725/830/10/
012160/20130201/141615/1725/230/20/
012160/20130201/141724/1725/1780/10/
012160/20130201/141843/1720/30840/10/
012160/20130201/142014/1720/550/20/
012160/20130201/142049/1715/2930/10/
012160/20130201/142056/1720/2600/20/
012160/20130201/142143/1715/110/10/
012160/20130201/142354/1715/11770/10/
012160/20130201/142356/1720/10000/20/
012160/20130201/142416/1720/470/20/
012160/20130201/142448/1720/4530/10/
012160/20130201/142454/1720/220/20/
012160/20130201/142540/1725/1000/20/
012160/20130201/142625/1720/4900/10/
012160/20130201/142627/1720/110/20/
012160/20130201/142701/1720/680/10/
012160/20130201/142844/1725/290/20/
012160/20130201/142930/1720/4000/10/
012160/20130201/143010/1720/710/10/
012160/20130201/143013/1720/4000/10/
012160/20130201/143104/1720/100/10/
012160/20130201/143150/1720/1600/10/
012160/20130201/143157/1720/1380/20/
012160/20130201/143217/1720/370/10/
012160/20130201/143234/1720/600/10/
012160/20130201/143254/1720/1200/10/
012160/20130201/143730/1720/3980/20/
012160/20130201/143745/1720/1010/10/
012160/20130201/143936/1725/100/20/
012160/20130201/143947/1725/100/20/
012160/20130201/144026/1725/660/20/
012160/20130201/144048/1725/560/20/
012160/20130201/144115/1720/1020/10/
012160/20130201/144118/1725/100/20/
012160/20130201/144141/1720/3810/10/
012160/20130201/144156/1715/1100/10/
012160/20130201/144241/1720/560/20/
012160/20130201/144341/1715/1540/10/
012160/20130201/144358/1715/1030/10/
012160/20130201/144412/1715/1500/10/
012160/20130201/144503/1720/5030/20/
012160/20130201/144704/1720/190/20/
012160/20130201/144731/1720/1500/20/
012160/20130201/144745/1715/600/10/
012160/20130201/144825/1715/5000/10/
012160/20130201/144907/1715/3500/10/
012160/20130201/144929/1720/2000/20/
012160/20130201/150000/1715/41330/10/
