012160/20130204/90000/1730/10000/20/
012160/20130204/90018/1730/1000/20/
012160/20130204/90023/1730/1690/20/
012160/20130204/90031/1730/100/10/
012160/20130204/90042/1730/1000/10/
012160/20130204/90051/1730/100/10/
012160/20130204/90053/1730/440/10/
012160/20130204/90114/1730/1080/10/
012160/20130204/90118/1735/90/20/
012160/20130204/90118/1730/1000/10/
012160/20130204/90122/1735/90/20/
012160/20130204/90126/1735/90/20/
012160/20130204/90130/1735/90/20/
012160/20130204/90133/1730/1150/10/
012160/20130204/90139/1730/1000/20/
012160/20130204/90145/1730/2000/20/
012160/20130204/90356/1725/1070/10/
012160/20130204/90455/1725/4660/10/
012160/20130204/90711/1725/1460/20/
012160/20130204/90727/1725/90/20/
012160/20130204/90817/1725/920/20/
012160/20130204/90820/1725/390/20/
012160/20130204/90821/1725/2110/10/
012160/20130204/90951/1725/1540/20/
012160/20130204/91136/1725/600/20/
012160/20130204/91138/1725/230/20/
012160/20130204/91150/1725/350/20/
012160/20130204/91157/1725/100/20/
012160/20130204/91207/1725/1540/20/
012160/20130204/91219/1725/380/10/
012160/20130204/91300/1720/1080/10/
012160/20130204/91316/1720/3010/10/
012160/20130204/91456/1720/5540/10/
012160/20130204/91513/1715/600/10/
012160/20130204/91526/1715/740/10/
012160/20130204/91602/1715/1010/10/
012160/20130204/91616/1715/2500/10/
012160/20130204/91626/1715/200/10/
012160/20130204/91629/1715/200/10/
012160/20130204/91647/1715/2010/10/
012160/20130204/91721/1715/2410/10/
012160/20130204/91738/1715/970/10/
012160/20130204/91739/1715/760/10/
012160/20130204/91743/1710/2000/10/
012160/20130204/91753/1710/5000/10/
012160/20130204/91826/1715/2010/20/
012160/20130204/91845/1710/3000/10/
012160/20130204/91845/1710/640/10/
012160/20130204/91845/1715/100/20/
012160/20130204/91915/1715/100/20/
012160/20130204/91940/1710/1030/10/
012160/20130204/91954/1710/3700/10/
012160/20130204/92001/1710/570/10/
012160/20130204/92005/1710/100/20/
012160/20130204/92013/1710/5010/20/
012160/20130204/92028/1710/120/20/
012160/20130204/92034/1705/2320/10/
012160/20130204/92035/1710/300/20/
012160/20130204/92038/1710/510/20/
012160/20130204/92039/1705/3870/10/
012160/20130204/92044/1705/100/20/
012160/20130204/92049/1705/1030/20/
012160/20130204/92054/1705/1390/10/
012160/20130204/92054/1705/700/10/
012160/20130204/92100/1705/160/20/
012160/20130204/92110/1705/1320/10/
012160/20130204/92111/1705/3620/10/
012160/20130204/92116/1705/4460/10/
012160/20130204/92123/1705/200/20/
012160/20130204/92128/1705/500/20/
012160/20130204/92131/1705/100/20/
012160/20130204/92133/1705/1000/20/
012160/20130204/92135/1705/2010/20/
012160/20130204/92139/1705/730/20/
012160/20130204/92140/1705/330/10/
012160/20130204/92149/1705/1000/20/
012160/20130204/92152/1705/110/20/
012160/20130204/92153/1705/500/20/
012160/20130204/92154/1705/1610/20/
012160/20130204/92210/1705/390/10/
012160/20130204/92212/1705/6120/20/
012160/20130204/92217/1705/550/10/
012160/20130204/92219/1705/510/20/
012160/20130204/92225/1705/150/20/
012160/20130204/92255/1700/8980/10/
012160/20130204/92255/1700/2270/10/
012160/20130204/92309/1695/470/10/
012160/20130204/92317/1695/3330/10/
012160/20130204/92323/1695/2040/10/
012160/20130204/92325/1695/2000/20/
012160/20130204/92325/1695/250/20/
012160/20130204/92326/1695/340/20/
012160/20130204/92340/1700/120/20/
012160/20130204/92410/1715/90/20/
012160/20130204/92437/1715/1600/20/
012160/20130204/92440/1700/1410/10/
012160/20130204/92440/1695/4280/10/
012160/20130204/92449/1715/90/20/
012160/20130204/92452/1715/220/20/
012160/20130204/92525/1695/5240/10/
012160/20130204/92526/1695/660/20/
012160/20130204/92754/1710/330/20/
012160/20130204/92812/1710/3250/20/
012160/20130204/92835/1715/920/20/
012160/20130204/92847/1710/1830/10/
012160/20130204/92920/1710/300/10/
012160/20130204/93035/1710/2010/10/
012160/20130204/93049/1710/3000/10/
012160/20130204/93136/1710/150/10/
012160/20130204/93159/1705/280/10/
012160/20130204/93326/1710/410/20/
012160/20130204/93333/1710/410/20/
012160/20130204/93337/1705/2980/10/
012160/20130204/93354/1710/570/20/
012160/20130204/93442/1710/170/20/
012160/20130204/93500/1705/2000/10/
012160/20130204/93639/1705/1020/10/
012160/20130204/93900/1710/2280/20/
012160/20130204/94012/1715/90/20/
012160/20130204/94222/1715/190/20/
012160/20130204/94227/1710/2730/10/
012160/20130204/94313/1715/90/20/
012160/20130204/94356/1715/290/20/
012160/20130204/94416/1715/670/10/
012160/20130204/94515/1715/500/20/
012160/20130204/94557/1715/560/20/
012160/20130204/94757/1710/3010/10/
012160/20130204/94953/1710/2510/10/
012160/20130204/95019/1715/90/20/
012160/20130204/95026/1715/110/20/
012160/20130204/95029/1710/1800/10/
012160/20130204/95036/1715/90/20/
012160/20130204/95136/1715/230/20/
012160/20130204/95210/1720/110/20/
012160/20130204/95453/1720/100/20/
012160/20130204/95614/1715/1810/10/
012160/20130204/95811/1715/210/20/
012160/20130204/100201/1710/7340/10/
012160/20130204/100201/1705/7660/10/
012160/20130204/100208/1705/90/10/
012160/20130204/100547/1705/6600/10/
012160/20130204/100649/1715/90/20/
012160/20130204/100842/1710/310/10/
012160/20130204/101021/1710/730/20/
012160/20130204/101039/1715/90/20/
012160/20130204/101803/1710/570/10/
012160/20130204/101815/1710/1240/10/
012160/20130204/101815/1705/1760/10/
012160/20130204/102134/1710/90/20/
012160/20130204/102152/1705/7120/10/
012160/20130204/102152/1700/2940/10/
012160/20130204/102157/1710/90/20/
012160/20130204/102314/1710/770/20/
012160/20130204/102326/1715/5020/20/
012160/20130204/102520/1710/930/10/
012160/20130204/102809/1710/3350/10/
012160/20130204/102944/1710/670/20/
012160/20130204/103039/1710/120/10/
012160/20130204/103309/1710/1200/10/
012160/20130204/103836/1710/310/10/
012160/20130204/103905/1710/2030/20/
012160/20130204/104240/1710/2970/10/
012160/20130204/104444/1710/200/20/
012160/20130204/104507/1710/300/20/
012160/20130204/104742/1705/1500/10/
012160/20130204/104910/1705/1510/10/
012160/20130204/104932/1710/2010/20/
012160/20130204/104951/1710/830/20/
012160/20130204/105055/1710/90/10/
012160/20130204/105113/1710/530/10/
012160/20130204/105233/1715/8380/20/
012160/20130204/105243/1710/3020/10/
012160/20130204/110558/1705/160/10/
012160/20130204/110619/1705/1500/10/
012160/20130204/111043/1710/110/20/
012160/20130204/111056/1705/290/10/
012160/20130204/111151/1705/1510/10/
012160/20130204/111620/1705/1030/10/
012160/20130204/112656/1705/1070/10/
012160/20130204/112735/1705/300/10/
012160/20130204/112931/1705/610/10/
012160/20130204/113053/1710/990/20/
012160/20130204/113833/1710/1010/20/
012160/20130204/114133/1710/1020/20/
012160/20130204/114656/1705/1000/10/
012160/20130204/114738/1705/590/10/
012160/20130204/114749/1705/660/10/
012160/20130204/115057/1710/1030/20/
012160/20130204/115202/1710/500/20/
012160/20130204/115923/1705/540/10/
012160/20130204/120045/1705/530/10/
012160/20130204/121805/1705/10050/10/
012160/20130204/122233/1705/1040/10/
012160/20130204/122806/1705/1310/10/
012160/20130204/122834/1705/5500/10/
012160/20130204/122834/1705/3330/10/
012160/20130204/122907/1700/5110/10/
012160/20130204/122943/1705/90/20/
012160/20130204/123018/1705/100/20/
012160/20130204/123112/1705/520/20/
012160/20130204/123114/1705/2000/20/
012160/20130204/123117/1705/370/20/
012160/20130204/123142/1705/150/20/
012160/20130204/123221/1705/100/20/
012160/20130204/123240/1705/100/20/
012160/20130204/123400/1700/2020/10/
012160/20130204/123756/1700/110/10/
012160/20130204/123817/1700/8480/10/
012160/20130204/124244/1700/430/10/
012160/20130204/124337/1700/3230/10/
012160/20130204/124405/1700/400/10/
012160/20130204/124417/1700/90/10/
012160/20130204/124500/1700/3500/10/
012160/20130204/124506/1700/1130/10/
012160/20130204/124542/1700/500/20/
012160/20130204/124734/1700/100/20/
012160/20130204/124741/1700/1000/20/
012160/20130204/124838/1700/1000/20/
012160/20130204/124905/1705/90/20/
012160/20130204/125015/1705/740/20/
012160/20130204/125443/1705/300/20/
012160/20130204/125705/1700/2500/10/
012160/20130204/125812/1700/370/10/
012160/20130204/125812/1695/5140/10/
012160/20130204/130434/1700/90/10/
012160/20130204/130632/1705/90/20/
012160/20130204/130703/1705/90/20/
012160/20130204/130732/1700/90/10/
012160/20130204/130739/1700/4750/10/
012160/20130204/130746/1705/90/20/
012160/20130204/130909/1700/460/10/
012160/20130204/130930/1700/400/10/
012160/20130204/131352/1700/760/10/
012160/20130204/131902/1700/710/10/
012160/20130204/131945/1700/670/10/
012160/20130204/132006/1700/5700/10/
012160/20130204/132155/1700/5060/10/
012160/20130204/132411/1700/1460/20/
012160/20130204/132524/1700/270/20/
012160/20130204/132610/1700/2790/10/
012160/20130204/132619/1700/1390/20/
012160/20130204/132655/1700/940/20/
012160/20130204/132800/1700/520/20/
012160/20130204/133027/1700/3000/20/
012160/20130204/133554/1705/1020/20/
012160/20130204/133827/1700/1700/10/
012160/20130204/133902/1700/3010/20/
012160/20130204/133913/1700/290/20/
012160/20130204/134021/1700/1000/10/
012160/20130204/134321/1700/130/10/
012160/20130204/134617/1700/330/10/
012160/20130204/134724/1700/500/10/
012160/20130204/134935/1700/1580/10/
012160/20130204/135013/1700/2000/20/
012160/20130204/135044/1700/900/20/
012160/20130204/135055/1700/500/10/
012160/20130204/135106/1700/500/20/
012160/20130204/135131/1700/230/20/
012160/20130204/135201/1700/770/10/
012160/20130204/135208/1700/1000/20/
012160/20130204/135215/1700/230/20/
012160/20130204/135240/1700/1480/10/
012160/20130204/135302/1700/500/20/
012160/20130204/135317/1700/1020/20/
012160/20130204/135329/1700/200/20/
012160/20130204/135333/1700/3310/20/
012160/20130204/135447/1700/500/10/
012160/20130204/135455/1705/8000/20/
012160/20130204/135459/1705/950/20/
012160/20130204/135505/1705/2000/20/
012160/20130204/135505/1705/1000/20/
012160/20130204/135511/1705/290/20/
012160/20130204/135647/1710/130/20/
012160/20130204/135711/1710/220/20/
012160/20130204/135724/1710/300/20/
012160/20130204/135729/1710/270/20/
012160/20130204/135735/1710/300/20/
012160/20130204/135810/1710/110/20/
012160/20130204/135845/1710/820/20/
012160/20130204/135904/1710/1000/20/
012160/20130204/135937/1710/500/20/
012160/20130204/140018/1710/300/20/
012160/20130204/140100/1710/4550/20/
012160/20130204/140102/1710/1740/20/
012160/20130204/140102/1710/3150/20/
012160/20130204/140154/1710/700/10/
012160/20130204/140213/1710/200/10/
012160/20130204/140450/1710/1040/10/
012160/20130204/140523/1710/280/10/
012160/20130204/140549/1710/300/20/
012160/20130204/140759/1710/3000/10/
012160/20130204/141021/1705/4630/10/
012160/20130204/141023/1705/950/10/
012160/20130204/141024/1705/1490/10/
012160/20130204/141026/1705/2410/10/
012160/20130204/141029/1705/470/20/
012160/20130204/141034/1705/830/10/
012160/20130204/141038/1705/270/20/
012160/20130204/141403/1705/3020/20/
012160/20130204/141720/1705/360/20/
012160/20130204/141830/1700/2010/10/
012160/20130204/141846/1700/1000/10/
012160/20130204/141849/1700/9950/10/
012160/20130204/141922/1700/6000/20/
012160/20130204/142002/1700/130/20/
012160/20130204/142043/1700/800/20/
012160/20130204/142106/1700/1290/10/
012160/20130204/142147/1700/1500/10/
012160/20130204/142338/1700/1030/20/
012160/20130204/142507/1700/430/20/
012160/20130204/142524/1700/110/10/
012160/20130204/142559/1700/860/10/
012160/20130204/142603/1700/270/10/
012160/20130204/142801/1700/1000/10/
012160/20130204/142807/1700/770/10/
012160/20130204/142831/1700/300/10/
012160/20130204/142918/1695/520/10/
012160/20130204/142930/1695/100/10/
012160/20130204/142943/1695/1000/10/
012160/20130204/143115/1695/3970/10/
012160/20130204/143220/1700/500/20/
012160/20130204/143259/1700/500/20/
012160/20130204/143356/1700/640/20/
012160/20130204/143411/1695/14030/10/
012160/20130204/143411/1690/2500/10/
012160/20130204/143429/1695/1000/20/
012160/20130204/143435/1695/300/10/
012160/20130204/143443/1690/410/10/
012160/20130204/143507/1695/500/20/
012160/20130204/143511/1695/200/20/
012160/20130204/143527/1695/120/10/
012160/20130204/143557/1695/830/10/
012160/20130204/143609/1695/100/20/
012160/20130204/143622/1695/1070/20/
012160/20130204/143645/1695/930/20/
012160/20130204/143715/1695/190/20/
012160/20130204/143746/1695/1010/10/
012160/20130204/143824/1695/520/10/
012160/20130204/143846/1695/500/20/
012160/20130204/143954/1690/2040/10/
012160/20130204/144000/1690/10230/10/
012160/20130204/144001/1690/1000/10/
012160/20130204/144011/1690/20430/10/
012160/20130204/144059/1690/510/20/
012160/20130204/144117/1690/3000/20/
012160/20130204/144120/1690/230/20/
012160/20130204/144135/1690/500/10/
012160/20130204/144145/1695/110/20/
012160/20130204/144146/1690/510/10/
012160/20130204/144312/1690/230/10/
012160/20130204/144337/1690/170/20/
012160/20130204/144354/1690/330/10/
012160/20130204/144431/1690/150/20/
012160/20130204/144625/1690/2030/10/
012160/20130204/144627/1690/1000/10/
012160/20130204/144627/1690/2000/20/
012160/20130204/144641/1690/1000/20/
012160/20130204/144753/1690/1100/10/
012160/20130204/144800/1690/2000/20/
012160/20130204/144803/1690/500/20/
012160/20130204/144809/1690/1500/20/
012160/20130204/144811/1690/100/20/
012160/20130204/144817/1690/1800/20/
012160/20130204/144911/1690/1010/10/
012160/20130204/144919/1690/2010/20/
012160/20130204/144922/1690/500/10/
012160/20130204/150000/1685/21210/10/
