012160/20130329/90000/2030/6970/10/
012160/20130329/90028/2040/250/20/
012160/20130329/90033/2040/550/20/
012160/20130329/90033/2045/1620/20/
012160/20130329/90033/2050/1180/20/
012160/20130329/90033/2050/300/20/
012160/20130329/90038/2050/850/20/
012160/20130329/90038/2050/1710/10/
012160/20130329/90040/2050/2100/10/
012160/20130329/90100/2050/1750/20/
012160/20130329/90101/2050/1310/10/
012160/20130329/90110/2040/600/10/
012160/20130329/90127/2040/1970/10/
012160/20130329/90127/2040/2270/10/
012160/20130329/90146/2040/1010/20/
012160/20130329/90149/2040/1700/20/
012160/20130329/90155/2040/8300/10/
012160/20130329/90210/2040/1000/20/
012160/20130329/90211/2040/450/20/
012160/20130329/90213/2040/300/20/
012160/20130329/90220/2040/240/10/
012160/20130329/90222/2040/210/20/
012160/20130329/90231/2040/1320/10/
012160/20130329/90256/2035/4000/10/
012160/20130329/90259/2035/100/10/
012160/20130329/90311/2040/300/20/
012160/20130329/90312/2035/700/10/
012160/20130329/90313/2035/4000/10/
012160/20130329/90313/2035/5150/10/
012160/20130329/90326/2035/560/20/
012160/20130329/90342/2030/800/10/
012160/20130329/90347/2030/1600/10/
012160/20130329/90347/2030/500/10/
012160/20130329/90351/2030/2100/10/
012160/20130329/90354/2030/5960/10/
012160/20130329/90354/2025/6480/10/
012160/20130329/90359/2025/1560/20/
012160/20130329/90420/2030/500/20/
012160/20130329/90424/2030/100/10/
012160/20130329/90425/2030/100/10/
012160/20130329/90441/2030/350/10/
012160/20130329/90501/2030/2950/10/
012160/20130329/90512/2030/2000/20/
012160/20130329/90523/2030/1000/20/
012160/20130329/90531/2030/450/20/
012160/20130329/90533/2030/200/10/
012160/20130329/90609/2030/130/10/
012160/20130329/90617/2030/5200/10/
012160/20130329/90629/2025/400/10/
012160/20130329/90641/2025/300/10/
012160/20130329/90642/2025/1000/10/
012160/20130329/90647/2025/350/10/
012160/20130329/90650/2025/2510/10/
012160/20130329/90706/2020/150/10/
012160/20130329/90712/2020/500/10/
012160/20130329/90722/2020/250/10/
012160/20130329/90724/2020/2540/10/
012160/20130329/90727/2020/990/10/
012160/20130329/90732/2020/2020/10/
012160/20130329/90740/2020/2070/10/
012160/20130329/90749/2020/100/10/
012160/20130329/90819/2020/1050/10/
012160/20130329/90819/2020/5980/10/
012160/20130329/90819/2015/5610/10/
012160/20130329/90819/2010/3410/10/
012160/20130329/90836/2015/200/20/
012160/20130329/90845/2015/800/10/
012160/20130329/90845/2015/700/20/
012160/20130329/90908/2015/1010/10/
012160/20130329/90926/2015/1560/10/
012160/20130329/90926/2010/450/10/
012160/20130329/90935/2010/3170/10/
012160/20130329/90944/2015/220/20/
012160/20130329/90944/2015/90/20/
012160/20130329/90959/2015/500/20/
012160/20130329/91007/2015/160/20/
012160/20130329/91031/2020/120/20/
012160/20130329/91037/2020/2500/20/
012160/20130329/91054/2020/610/20/
012160/20130329/91145/2025/800/20/
012160/20130329/91258/2025/840/20/
012160/20130329/91327/2025/160/20/
012160/20130329/91551/2025/260/20/
012160/20130329/91618/2025/180/10/
012160/20130329/91634/2025/870/20/
012160/20130329/91749/2025/140/10/
012160/20130329/91839/2020/360/10/
012160/20130329/91852/2020/100/10/
012160/20130329/91857/2025/300/20/
012160/20130329/91922/2025/200/20/
012160/20130329/91941/2025/500/20/
012160/20130329/92000/2025/1300/20/
012160/20130329/92042/2025/200/20/
012160/20130329/92057/2025/200/20/
012160/20130329/92128/2030/520/20/
012160/20130329/92129/2025/1730/10/
012160/20130329/92137/2030/160/20/
012160/20130329/92146/2030/110/20/
012160/20130329/92150/2030/1010/20/
012160/20130329/92150/2030/880/20/
012160/20130329/92301/2030/3170/10/
012160/20130329/92305/2030/500/10/
012160/20130329/92313/2030/500/10/
012160/20130329/92336/2030/460/10/
012160/20130329/92347/2030/100/10/
012160/20130329/92436/2035/230/20/
012160/20130329/92532/2030/510/10/
012160/20130329/92546/2030/4590/10/
012160/20130329/92612/2025/5080/10/
012160/20130329/92614/2030/1310/20/
012160/20130329/92619/2030/500/20/
012160/20130329/92621/2030/220/20/
012160/20130329/92750/2025/150/10/
012160/20130329/92808/2025/1010/10/
012160/20130329/92815/2025/90/10/
012160/20130329/92836/2030/330/20/
012160/20130329/92910/2030/620/10/
012160/20130329/92910/2030/500/20/
012160/20130329/92916/2030/880/20/
012160/20130329/92926/2030/120/10/
012160/20130329/93134/2030/100/10/
012160/20130329/93134/2025/260/10/
012160/20130329/93223/2025/3880/10/
012160/20130329/93245/2025/15000/10/
012160/20130329/93249/2025/1000/10/
012160/20130329/93306/2025/520/10/
012160/20130329/93358/2030/5630/20/
012160/20130329/93412/2030/200/10/
012160/20130329/93423/2030/3780/10/
012160/20130329/93427/2030/310/10/
012160/20130329/93453/2035/360/20/
012160/20130329/93604/2030/460/10/
012160/20130329/93853/2025/4070/10/
012160/20130329/93912/2025/500/10/
012160/20130329/93928/2025/1930/10/
012160/20130329/93953/2020/4010/10/
012160/20130329/94020/2020/1000/10/
012160/20130329/94059/2025/130/20/
012160/20130329/94201/2025/300/20/
012160/20130329/94209/2025/100/20/
012160/20130329/94231/2025/100/20/
012160/20130329/94240/2025/100/20/
012160/20130329/94421/2025/90/20/
012160/20130329/94635/2020/120/10/
012160/20130329/94757/2025/840/20/
012160/20130329/94804/2020/1080/10/
012160/20130329/94953/2025/850/20/
012160/20130329/95034/2025/110/20/
012160/20130329/95045/2025/440/20/
012160/20130329/95143/2025/2500/20/
012160/20130329/95233/2020/2160/10/
012160/20130329/95331/2020/9030/10/
012160/20130329/95335/2020/540/10/
012160/20130329/95404/2025/90/20/
012160/20130329/95427/2025/120/20/
012160/20130329/95748/2025/350/10/
012160/20130329/100143/2020/1590/10/
012160/20130329/100208/2020/1930/10/
012160/20130329/100220/2025/390/20/
012160/20130329/100229/2025/6410/20/
012160/20130329/100436/2025/630/10/
012160/20130329/100523/2025/720/10/
012160/20130329/100815/2025/100/10/
012160/20130329/100911/2025/2000/10/
012160/20130329/100953/2025/400/10/
012160/20130329/101015/2025/520/10/
012160/20130329/101117/2025/290/10/
012160/20130329/101145/2025/190/10/
012160/20130329/101624/2025/90/10/
012160/20130329/101803/2025/2010/10/
012160/20130329/101813/2025/320/10/
012160/20130329/101830/2025/400/10/
012160/20130329/101845/2025/1000/20/
012160/20130329/101908/2030/90/20/
012160/20130329/101928/2025/2660/10/
012160/20130329/101938/2025/100/20/
012160/20130329/102106/2025/2000/20/
012160/20130329/102113/2025/930/20/
012160/20130329/102125/2025/500/10/
012160/20130329/102135/2025/200/10/
012160/20130329/102139/2025/430/10/
012160/20130329/102334/2025/1320/10/
012160/20130329/102359/2025/4640/10/
012160/20130329/102540/2025/160/10/
012160/20130329/102650/2025/480/10/
012160/20130329/102740/2025/240/20/
012160/20130329/102807/2025/160/20/
012160/20130329/102928/2025/100/20/
012160/20130329/103009/2025/1170/20/
012160/20130329/103059/2025/900/10/
012160/20130329/103134/2020/760/10/
012160/20130329/103141/2025/100/10/
012160/20130329/103419/2025/310/20/
012160/20130329/103511/2020/120/10/
012160/20130329/103521/2020/2000/10/
012160/20130329/103559/2025/130/20/
012160/20130329/103616/2025/300/20/
012160/20130329/103652/2025/200/20/
012160/20130329/103653/2025/3720/20/
012160/20130329/103746/2030/100/20/
012160/20130329/104031/2025/390/10/
012160/20130329/104130/2030/100/20/
012160/20130329/104233/2025/2630/10/
012160/20130329/104903/2025/940/10/
012160/20130329/104908/2025/120/10/
012160/20130329/105105/2030/1700/20/
012160/20130329/105305/2030/5580/20/
012160/20130329/105334/2035/8110/20/
012160/20130329/105411/2035/120/10/
012160/20130329/105428/2040/8290/20/
012160/20130329/105440/2045/9730/20/
012160/20130329/105440/2050/36220/20/
012160/20130329/105445/2055/970/20/
012160/20130329/105445/2055/4860/20/
012160/20130329/105446/2055/1010/20/
012160/20130329/105452/2055/1040/20/
012160/20130329/105457/2055/690/20/
012160/20130329/105503/2055/11580/20/
012160/20130329/105508/2055/2130/20/
012160/20130329/105511/2055/240/20/
012160/20130329/105513/2060/500/20/
012160/20130329/105518/2055/420/10/
012160/20130329/105532/2055/740/20/
012160/20130329/105537/2060/110/20/
012160/20130329/105538/2060/1000/20/
012160/20130329/105545/2060/8850/20/
012160/20130329/105547/2060/100/10/
012160/20130329/105550/2060/1010/10/
012160/20130329/105606/2055/300/10/
012160/20130329/105607/2055/730/10/
012160/20130329/105615/2055/340/20/
012160/20130329/105631/2060/8350/20/
012160/20130329/105644/2060/990/20/
012160/20130329/105645/2060/700/20/
012160/20130329/105651/2060/6560/20/
012160/20130329/105654/2055/1020/10/
012160/20130329/105659/2055/1500/20/
012160/20130329/105705/2050/990/10/
012160/20130329/105735/2055/1390/20/
012160/20130329/105739/2055/100/20/
012160/20130329/105741/2055/500/20/
012160/20130329/105742/2055/500/20/
012160/20130329/105759/2055/420/20/
012160/20130329/105807/2055/230/10/
012160/20130329/105812/2055/500/10/
012160/20130329/105814/2055/200/10/
012160/20130329/105819/2060/190/20/
012160/20130329/105833/2060/500/20/
012160/20130329/105835/2060/200/20/
012160/20130329/105836/2060/3140/20/
012160/20130329/105836/2065/10720/20/
012160/20130329/105839/2065/200/10/
012160/20130329/105839/2065/200/10/
012160/20130329/105840/2065/200/10/
012160/20130329/105843/2065/680/10/
012160/20130329/105843/2065/100/20/
012160/20130329/105850/2065/100/20/
012160/20130329/105852/2065/1000/20/
012160/20130329/105904/2065/240/20/
012160/20130329/105905/2065/100/10/
012160/20130329/105906/2065/170/10/
012160/20130329/105910/2070/1110/20/
012160/20130329/105913/2070/6400/20/
012160/20130329/105914/2070/4760/10/
012160/20130329/105916/2070/100/10/
012160/20130329/105916/2070/400/10/
012160/20130329/105921/2070/450/10/
012160/20130329/105922/2070/100/10/
012160/20130329/105927/2075/5820/20/
012160/20130329/105927/2080/15500/20/
012160/20130329/105927/2085/16050/20/
012160/20130329/105927/2090/22070/20/
012160/20130329/105927/2095/10600/20/
012160/20130329/105927/2100/58170/20/
012160/20130329/105927/2100/5870/10/
012160/20130329/105936/2105/640/20/
012160/20130329/105936/2105/1360/20/
012160/20130329/105936/2110/230/20/
012160/20130329/105937/2100/110/10/
012160/20130329/105937/2110/230/20/
012160/20130329/105940/2100/3170/10/
012160/20130329/105940/2100/500/20/
012160/20130329/105941/2100/1330/20/
012160/20130329/105941/2105/880/20/
012160/20130329/105943/2105/2120/20/
012160/20130329/105944/2110/720/20/
012160/20130329/105944/2115/150/20/
012160/20130329/105945/2115/2450/20/
012160/20130329/105946/2115/230/20/
012160/20130329/105946/2120/620/20/
012160/20130329/105946/2125/110/20/
012160/20130329/105947/2125/2460/10/
012160/20130329/105947/2130/1590/20/
012160/20130329/105948/2130/240/20/
012160/20130329/105948/2130/1410/20/
012160/20130329/105948/2130/340/20/
012160/20130329/105949/2130/640/10/
012160/20130329/105949/2120/3450/10/
012160/20130329/105950/2135/1430/20/
012160/20130329/105950/2140/260/20/
012160/20130329/105951/2135/590/10/
012160/20130329/105951/2140/140/20/
012160/20130329/105952/2140/500/20/
012160/20130329/105953/2135/300/10/
012160/20130329/105953/2140/130/20/
012160/20130329/105954/2140/680/20/
012160/20130329/105954/2135/1000/10/
012160/20130329/105955/2140/4920/20/
012160/20130329/105955/2145/4650/20/
012160/20130329/105955/2150/13930/20/
012160/20130329/105955/2135/600/10/
012160/20130329/105956/2135/270/10/
012160/20130329/105958/2140/920/20/
012160/20130329/105958/2140/110/20/
012160/20130329/105959/2140/1200/20/
012160/20130329/105959/2140/610/20/
012160/20130329/110002/2140/700/20/
012160/20130329/110002/2140/300/10/
012160/20130329/110003/2135/500/10/
012160/20130329/110004/2135/240/10/
012160/20130329/110005/2135/1900/10/
012160/20130329/110007/2135/710/10/
012160/20130329/110008/2135/480/10/
012160/20130329/110008/2135/150/10/
012160/20130329/110008/2135/100/10/
012160/20130329/110009/2135/800/10/
012160/20130329/110010/2135/1000/10/
012160/20130329/110010/2135/750/10/
012160/20130329/110010/2135/500/10/
012160/20130329/110011/2140/1000/20/
012160/20130329/110012/2135/510/10/
012160/20130329/110017/2130/140/10/
012160/20130329/110021/2120/310/10/
012160/20130329/110026/2125/500/20/
012160/20130329/110027/2125/1140/20/
012160/20130329/110029/2125/360/10/
012160/20130329/110030/2125/210/20/
012160/20130329/110030/2120/1010/10/
012160/20130329/110030/2115/990/20/
012160/20130329/110033/2125/260/20/
012160/20130329/110036/2125/350/20/
012160/20130329/110038/2120/2000/10/
012160/20130329/110043/2125/140/20/
012160/20130329/110044/2125/480/20/
012160/20130329/110044/2120/1000/10/
012160/20130329/110045/2120/110/10/
012160/20130329/110047/2125/90/20/
012160/20130329/110050/2120/600/10/
012160/20130329/110059/2115/120/10/
012160/20130329/110100/2115/4100/10/
012160/20130329/110101/2120/100/20/
012160/20130329/110101/2120/1160/20/
012160/20130329/110109/2120/230/20/
012160/20130329/110113/2120/2260/20/
012160/20130329/110114/2120/940/10/
012160/20130329/110114/2120/400/10/
012160/20130329/110121/2120/1870/10/
012160/20130329/110121/2115/2410/10/
012160/20130329/110124/2115/840/20/
012160/20130329/110125/2110/340/10/
012160/20130329/110125/2105/530/10/
012160/20130329/110127/2115/160/20/
012160/20130329/110128/2120/980/20/
012160/20130329/110128/2120/1410/20/
012160/20130329/110129/2115/6200/10/
012160/20130329/110129/2120/220/20/
012160/20130329/110129/2125/5000/20/
012160/20130329/110131/2120/1470/10/
012160/20130329/110131/2115/1530/10/
012160/20130329/110135/2120/100/20/
012160/20130329/110135/2125/750/20/
012160/20130329/110135/2125/890/10/
012160/20130329/110138/2115/5000/10/
012160/20130329/110146/2120/240/10/
012160/20130329/110146/2120/2220/10/
012160/20130329/110147/2120/880/10/
012160/20130329/110148/2120/160/10/
012160/20130329/110154/2120/760/10/
012160/20130329/110154/2120/2390/10/
012160/20130329/110154/2115/110/10/
012160/20130329/110158/2115/850/10/
012160/20130329/110159/2115/300/10/
012160/20130329/110200/2115/10640/10/
012160/20130329/110204/2110/220/10/
012160/20130329/110214/2110/100/20/
012160/20130329/110218/2110/2760/20/
012160/20130329/110226/2110/1000/10/
012160/20130329/110234/2110/320/10/
012160/20130329/110235/2110/310/10/
012160/20130329/110236/2110/500/10/
012160/20130329/110237/2115/4960/20/
012160/20130329/110238/2110/150/10/
012160/20130329/110243/2110/1550/10/
012160/20130329/110245/2110/450/20/
012160/20130329/110250/2120/5010/20/
012160/20130329/110251/2120/2370/20/
012160/20130329/110252/2120/300/10/
012160/20130329/110256/2120/90/10/
012160/20130329/110304/2120/350/10/
012160/20130329/110310/2120/520/10/
012160/20130329/110311/2120/3790/10/
012160/20130329/110311/2125/2100/20/
012160/20130329/110312/2125/200/10/
012160/20130329/110312/2125/210/10/
012160/20130329/110314/2125/1530/10/
012160/20130329/110316/2130/170/20/
012160/20130329/110316/2125/1570/10/
012160/20130329/110319/2125/200/20/
012160/20130329/110322/2125/3250/20/
012160/20130329/110330/2125/120/10/
012160/20130329/110333/2125/5010/10/
012160/20130329/110334/2125/1410/10/
012160/20130329/110334/2125/820/10/
012160/20130329/110334/2125/900/10/
012160/20130329/110337/2120/740/10/
012160/20130329/110338/2120/250/20/
012160/20130329/110342/2120/740/20/
012160/20130329/110343/2120/480/10/
012160/20130329/110347/2120/760/10/
012160/20130329/110349/2120/700/20/
012160/20130329/110350/2120/460/10/
012160/20130329/110356/2120/90/10/
012160/20130329/110413/2120/600/10/
012160/20130329/110424/2115/380/10/
012160/20130329/110426/2115/170/10/
012160/20130329/110432/2110/1110/10/
012160/20130329/110436/2115/300/20/
012160/20130329/110436/2110/2980/10/
012160/20130329/110440/2115/300/20/
012160/20130329/110445/2115/690/20/
012160/20130329/110446/2110/480/10/
012160/20130329/110453/2110/100/10/
012160/20130329/110453/2110/1000/10/
012160/20130329/110454/2115/160/20/
012160/20130329/110456/2115/950/20/
012160/20130329/110457/2115/380/20/
012160/20130329/110458/2115/90/10/
012160/20130329/110515/2110/1420/10/
012160/20130329/110518/2110/970/10/
012160/20130329/110536/2105/1000/10/
012160/20130329/110544/2105/680/10/
012160/20130329/110547/2110/1580/20/
012160/20130329/110547/2105/1520/10/
012160/20130329/110551/2105/900/10/
012160/20130329/110555/2105/200/10/
012160/20130329/110607/2105/110/10/
012160/20130329/110607/2105/1000/10/
012160/20130329/110613/2105/410/10/
012160/20130329/110621/2100/130/10/
012160/20130329/110624/2100/2000/10/
012160/20130329/110624/2100/530/10/
012160/20130329/110625/2100/3320/10/
012160/20130329/110636/2095/700/10/
012160/20130329/110639/2095/420/10/
012160/20130329/110640/2095/100/20/
012160/20130329/110649/2095/750/20/
012160/20130329/110651/2095/250/20/
012160/20130329/110653/2095/1440/10/
012160/20130329/110653/2090/2820/10/
012160/20130329/110653/2085/3240/10/
012160/20130329/110653/2080/150/10/
012160/20130329/110710/2090/390/10/
012160/20130329/110712/2090/100/20/
012160/20130329/110715/2090/560/20/
012160/20130329/110725/2090/330/10/
012160/20130329/110731/2090/260/10/
012160/20130329/110732/2085/1000/10/
012160/20130329/110734/2090/2500/20/
012160/20130329/110736/2085/3260/10/
012160/20130329/110736/2080/3300/10/
012160/20130329/110736/2075/440/10/
012160/20130329/110737/2075/210/10/
012160/20130329/110755/2085/400/10/
012160/20130329/110800/2080/510/10/
012160/20130329/110815/2085/580/20/
012160/20130329/110823/2085/1200/20/
012160/20130329/110827/2085/800/10/
012160/20130329/110829/2085/700/20/
012160/20130329/110841/2090/920/20/
012160/20130329/110854/2095/1260/20/
012160/20130329/110857/2095/750/10/
012160/20130329/110858/2095/140/20/
012160/20130329/110909/2095/120/20/
012160/20130329/110916/2095/2000/20/
012160/20130329/110918/2095/300/20/
012160/20130329/110928/2095/510/10/
012160/20130329/110930/2095/420/10/
012160/20130329/110941/2095/100/10/
012160/20130329/110941/2095/270/10/
012160/20130329/110944/2095/300/20/
012160/20130329/110947/2095/100/20/
012160/20130329/111000/2095/3170/20/
012160/20130329/111008/2100/2370/20/
012160/20130329/111009/2100/100/20/
012160/20130329/111009/2100/400/10/
012160/20130329/111017/2100/90/20/
012160/20130329/111019/2100/1340/20/
012160/20130329/111021/2100/300/20/
012160/20130329/111021/2100/1420/20/
012160/20130329/111022/2100/120/20/
012160/20130329/111052/2100/350/10/
012160/20130329/111057/2100/1660/10/
012160/20130329/111058/2100/340/20/
012160/20130329/111129/2105/2130/20/
012160/20130329/111134/2105/2010/10/
012160/20130329/111135/2105/830/10/
012160/20130329/111136/2105/150/10/
012160/20130329/111141/2105/700/10/
012160/20130329/111142/2105/1010/10/
012160/20130329/111144/2105/100/10/
012160/20130329/111144/2105/1710/10/
012160/20130329/111145/2105/430/10/
012160/20130329/111149/2105/890/20/
012160/20130329/111218/2100/180/10/
012160/20130329/111229/2105/90/20/
012160/20130329/111232/2100/1320/10/
012160/20130329/111233/2100/800/20/
012160/20130329/111241/2095/10000/10/
012160/20130329/111244/2095/1740/10/
012160/20130329/111246/2095/190/10/
012160/20130329/111315/2090/890/10/
012160/20130329/111315/2090/1420/10/
012160/20130329/111316/2090/300/10/
012160/20130329/111318/2090/200/10/
012160/20130329/111321/2090/400/10/
012160/20130329/111335/2085/1820/10/
012160/20130329/111355/2080/500/10/
012160/20130329/111357/2085/110/20/
012160/20130329/111409/2085/530/20/
012160/20130329/111413/2085/100/20/
012160/20130329/111414/2080/190/10/
012160/20130329/111428/2080/500/10/
012160/20130329/111429/2080/350/10/
012160/20130329/111433/2080/2000/10/
012160/20130329/111435/2080/980/10/
012160/20130329/111436/2080/340/10/
012160/20130329/111442/2080/500/10/
012160/20130329/111448/2080/760/10/
012160/20130329/111454/2080/250/10/
012160/20130329/111458/2080/100/10/
012160/20130329/111459/2080/200/10/
012160/20130329/111506/2080/1000/10/
012160/20130329/111530/2080/210/10/
012160/20130329/111537/2080/210/10/
012160/20130329/111555/2085/860/20/
012160/20130329/111623/2080/2430/10/
012160/20130329/111623/2075/3890/10/
012160/20130329/111623/2070/5040/10/
012160/20130329/111623/2065/620/10/
012160/20130329/111623/2065/240/10/
012160/20130329/111628/2065/100/10/
012160/20130329/111725/2075/250/10/
012160/20130329/111725/2070/760/10/
012160/20130329/111735/2070/1690/10/
012160/20130329/111751/2080/130/20/
012160/20130329/111825/2075/650/10/
012160/20130329/111842/2075/120/10/
012160/20130329/111852/2075/100/10/
012160/20130329/111934/2075/760/10/
012160/20130329/111955/2080/480/20/
012160/20130329/112002/2080/100/20/
012160/20130329/112019/2075/890/10/
012160/20130329/112029/2075/3410/10/
012160/20130329/112029/2070/16590/10/
012160/20130329/112036/2070/500/10/
012160/20130329/112046/2070/1000/10/
012160/20130329/112105/2070/930/10/
012160/20130329/112106/2070/480/10/
012160/20130329/112106/2070/480/10/
012160/20130329/112108/2070/2000/10/
012160/20130329/112129/2070/360/10/
012160/20130329/112329/2070/380/10/
012160/20130329/112335/2070/250/10/
012160/20130329/112510/2070/220/10/
012160/20130329/112519/2070/760/10/
012160/20130329/112531/2065/400/10/
012160/20130329/112533/2065/2770/10/
012160/20130329/112533/2060/7230/10/
012160/20130329/112549/2065/300/10/
012160/20130329/112549/2060/1150/10/
012160/20130329/112554/2060/1500/10/
012160/20130329/112558/2060/3000/10/
012160/20130329/112612/2060/130/10/
012160/20130329/112633/2060/500/10/
012160/20130329/112705/2060/3420/10/
012160/20130329/112713/2060/100/20/
012160/20130329/112716/2055/90/10/
012160/20130329/112719/2055/90/10/
012160/20130329/112723/2055/90/10/
012160/20130329/112723/2060/220/20/
012160/20130329/112725/2060/2080/20/
012160/20130329/112727/2060/170/20/
012160/20130329/112727/2060/1010/20/
012160/20130329/112728/2060/880/20/
012160/20130329/112729/2060/100/20/
012160/20130329/112729/2060/2140/20/
012160/20130329/112733/2070/90/20/
012160/20130329/112737/2070/90/20/
012160/20130329/112741/2065/90/10/
012160/20130329/112744/2060/90/10/
012160/20130329/112748/2065/90/20/
012160/20130329/112751/2060/90/10/
012160/20130329/112756/2060/90/10/
012160/20130329/112800/2070/90/20/
012160/20130329/112804/2065/90/10/
012160/20130329/112809/2065/90/10/
012160/20130329/112813/2065/90/10/
012160/20130329/112817/2060/90/10/
012160/20130329/112821/2065/90/10/
012160/20130329/112825/2065/90/10/
012160/20130329/112829/2065/90/10/
012160/20130329/112830/2070/1700/20/
012160/20130329/112831/2070/180/20/
012160/20130329/112835/2070/170/20/
012160/20130329/112839/2065/90/10/
012160/20130329/112843/2065/90/10/
012160/20130329/112848/2065/90/10/
012160/20130329/112852/2065/90/10/
012160/20130329/112856/2065/90/10/
012160/20130329/112900/2065/90/10/
012160/20130329/112904/2065/90/10/
012160/20130329/112913/2065/90/10/
012160/20130329/112917/2065/90/10/
012160/20130329/112920/2065/90/10/
012160/20130329/112923/2065/90/10/
012160/20130329/112926/2065/90/10/
012160/20130329/112931/2065/90/10/
012160/20130329/112934/2065/90/10/
012160/20130329/112936/2065/90/10/
012160/20130329/112939/2065/90/10/
012160/20130329/112941/2070/160/20/
012160/20130329/112943/2065/90/10/
012160/20130329/112946/2065/90/10/
012160/20130329/112949/2065/90/10/
012160/20130329/112951/2070/240/20/
012160/20130329/112953/2065/90/10/
012160/20130329/112956/2065/90/10/
012160/20130329/112959/2065/90/10/
012160/20130329/113001/2070/700/20/
012160/20130329/113004/2065/90/10/
012160/20130329/113004/2065/330/10/
012160/20130329/113007/2065/90/10/
012160/20130329/113010/2065/90/10/
012160/20130329/113013/2070/100/10/
012160/20130329/113015/2070/90/10/
012160/20130329/113018/2075/600/20/
012160/20130329/113021/2070/90/10/
012160/20130329/113024/2070/90/10/
012160/20130329/113026/2070/90/10/
012160/20130329/113028/2075/180/20/
012160/20130329/113038/2070/5860/10/
012160/20130329/113042/2070/160/20/
012160/20130329/113144/2070/90/20/
012160/20130329/113220/2070/170/20/
012160/20130329/113222/2070/100/10/
012160/20130329/113238/2070/100/20/
012160/20130329/113321/2065/180/10/
012160/20130329/113330/2065/100/10/
012160/20130329/113431/2070/340/20/
012160/20130329/113436/2070/1000/20/
012160/20130329/113545/2070/130/20/
012160/20130329/113545/2070/520/20/
012160/20130329/113549/2070/140/10/
012160/20130329/113723/2075/440/20/
012160/20130329/113757/2070/2020/10/
012160/20130329/113839/2075/670/20/
012160/20130329/113850/2075/110/10/
012160/20130329/114024/2075/540/10/
012160/20130329/114028/2080/830/20/
012160/20130329/114038/2080/4860/20/
012160/20130329/114053/2075/540/10/
012160/20130329/114143/2080/2720/20/
012160/20130329/114146/2080/2250/20/
012160/20130329/114224/2080/90/20/
012160/20130329/114255/2075/2490/10/
012160/20130329/114256/2075/1070/10/
012160/20130329/114304/2075/150/20/
012160/20130329/114319/2075/110/20/
012160/20130329/114340/2070/400/10/
012160/20130329/114423/2075/1560/10/
012160/20130329/114511/2080/630/20/
012160/20130329/114619/2075/500/10/
012160/20130329/114619/2070/1530/10/
012160/20130329/114834/2075/360/20/
012160/20130329/114838/2075/320/20/
012160/20130329/114852/2075/120/10/
012160/20130329/114910/2075/330/10/
012160/20130329/114915/2075/160/10/
012160/20130329/114943/2080/640/20/
012160/20130329/115035/2075/90/10/
012160/20130329/115055/2070/220/10/
012160/20130329/115302/2070/1040/10/
012160/20130329/115335/2080/3780/20/
012160/20130329/115404/2080/150/20/
012160/20130329/115508/2080/90/20/
012160/20130329/115632/2080/260/10/
012160/20130329/115728/2085/90/20/
012160/20130329/115758/2080/1010/20/
012160/20130329/115852/2075/450/20/
012160/20130329/115928/2075/700/10/
012160/20130329/120036/2075/1650/20/
012160/20130329/120045/2075/1670/20/
012160/20130329/120330/2075/100/10/
012160/20130329/120508/2075/130/10/
012160/20130329/120518/2075/160/10/
012160/20130329/120623/2075/1280/10/
012160/20130329/120627/2075/550/10/
012160/20130329/120704/2070/150/10/
012160/20130329/120714/2075/1000/20/
012160/20130329/120804/2075/2320/20/
012160/20130329/120839/2070/430/10/
012160/20130329/120935/2075/130/20/
012160/20130329/121103/2075/860/20/
012160/20130329/121318/2075/330/10/
012160/20130329/121401/2075/1000/20/
012160/20130329/121545/2070/4580/10/
012160/20130329/121551/2070/200/10/
012160/20130329/121636/2075/140/20/
012160/20130329/121729/2075/1020/20/
012160/20130329/121759/2075/210/20/
012160/20130329/121848/2070/650/10/
012160/20130329/122028/2070/670/10/
012160/20130329/122116/2065/9250/10/
012160/20130329/122130/2065/1000/20/
012160/20130329/122149/2065/3020/10/
012160/20130329/122212/2065/1500/10/
012160/20130329/122225/2065/560/10/
012160/20130329/122317/2065/290/10/
012160/20130329/122433/2060/160/10/
012160/20130329/122640/2065/1060/20/
012160/20130329/122737/2065/3010/20/
012160/20130329/122750/2065/1020/20/
012160/20130329/122938/2070/90/20/
012160/20130329/123037/2060/100/10/
012160/20130329/123117/2070/510/20/
012160/20130329/123206/2060/200/10/
012160/20130329/123230/2060/5940/10/
012160/20130329/123230/2055/8470/10/
012160/20130329/123253/2060/150/20/
012160/20130329/123305/2060/100/10/
012160/20130329/123339/2060/190/10/
012160/20130329/123339/2055/1850/10/
012160/20130329/123553/2060/580/10/
012160/20130329/123723/2065/310/20/
012160/20130329/123813/2065/210/20/
012160/20130329/124115/2065/290/10/
012160/20130329/124119/2065/790/10/
012160/20130329/124147/2065/340/20/
012160/20130329/124211/2065/250/20/
012160/20130329/124224/2065/120/10/
012160/20130329/124332/2070/530/20/
012160/20130329/124355/2065/830/10/
012160/20130329/124615/2065/810/20/
012160/20130329/124741/2065/360/20/
012160/20130329/124745/2065/100/20/
012160/20130329/124746/2065/480/20/
012160/20130329/124748/2065/300/20/
012160/20130329/124804/2065/110/20/
012160/20130329/124810/2065/300/20/
012160/20130329/125045/2065/260/20/
012160/20130329/125320/2065/930/20/
012160/20130329/125344/2065/1260/20/
012160/20130329/125451/2070/4580/20/
012160/20130329/125541/2070/230/20/
012160/20130329/125727/2070/870/10/
012160/20130329/125955/2065/1790/10/
012160/20130329/130130/2065/290/10/
012160/20130329/130321/2065/270/10/
012160/20130329/130612/2060/540/10/
012160/20130329/130708/2065/210/20/
012160/20130329/130837/2070/2080/20/
012160/20130329/130920/2070/100/20/
012160/20130329/131054/2070/2950/20/
012160/20130329/131054/2075/3840/20/
012160/20130329/131054/2075/680/10/
012160/20130329/131203/2080/370/20/
012160/20130329/131246/2080/330/20/
012160/20130329/131250/2075/260/10/
012160/20130329/131356/2070/200/10/
012160/20130329/131431/2075/200/20/
012160/20130329/131532/2075/100/20/
012160/20130329/131535/2075/500/20/
012160/20130329/131546/2075/450/20/
012160/20130329/131556/2080/190/20/
012160/20130329/131613/2080/150/20/
012160/20130329/131622/2080/3300/20/
012160/20130329/131623/2080/320/20/
012160/20130329/131626/2080/2410/20/
012160/20130329/131628/2080/940/20/
012160/20130329/131630/2080/820/20/
012160/20130329/131709/2085/1100/20/
012160/20130329/131712/2085/720/20/
012160/20130329/131712/2085/240/20/
012160/20130329/131824/2080/190/10/
012160/20130329/131933/2080/600/10/
012160/20130329/131935/2080/470/10/
012160/20130329/132256/2080/110/20/
012160/20130329/132336/2085/2130/20/
012160/20130329/132350/2090/710/20/
012160/20130329/132352/2090/590/20/
012160/20130329/132403/2090/510/20/
012160/20130329/132409/2085/480/10/
012160/20130329/132446/2090/90/20/
012160/20130329/132548/2085/540/10/
012160/20130329/132603/2090/2020/20/
012160/20130329/132605/2090/540/20/
012160/20130329/132638/2095/2530/20/
012160/20130329/132653/2090/110/10/
012160/20130329/132700/2090/260/10/
012160/20130329/132712/2090/200/20/
012160/20130329/132730/2090/550/20/
012160/20130329/132749/2090/1520/20/
012160/20130329/132758/2090/200/10/
012160/20130329/132808/2095/790/20/
012160/20130329/132834/2090/770/10/
012160/20130329/132844/2090/530/10/
012160/20130329/132928/2090/940/10/
012160/20130329/133019/2090/340/10/
012160/20130329/133056/2090/150/20/
012160/20130329/133150/2090/470/20/
012160/20130329/133208/2085/130/10/
012160/20130329/133253/2090/1930/20/
012160/20130329/133327/2090/140/10/
012160/20130329/133411/2090/1080/20/
012160/20130329/133453/2090/130/20/
012160/20130329/133514/2090/100/20/
012160/20130329/133558/2090/1650/20/
012160/20130329/133633/2090/2380/10/
012160/20130329/133811/2090/270/20/
012160/20130329/133845/2085/1010/10/
012160/20130329/133846/2085/130/10/
012160/20130329/134009/2090/130/20/
012160/20130329/134047/2090/3420/20/
012160/20130329/134059/2090/500/20/
012160/20130329/134122/2085/4050/10/
012160/20130329/134143/2090/2020/20/
012160/20130329/134251/2095/90/20/
012160/20130329/134300/2095/100/20/
012160/20130329/134337/2095/800/20/
012160/20130329/134343/2095/250/20/
012160/20130329/134349/2095/1300/20/
012160/20130329/134534/2095/90/20/
012160/20130329/134558/2090/1020/10/
012160/20130329/134559/2090/3760/10/
012160/20130329/134601/2090/470/10/
012160/20130329/134607/2090/880/10/
012160/20130329/134609/2090/2000/10/
012160/20130329/134610/2090/800/10/
012160/20130329/134610/2090/550/10/
012160/20130329/134611/2090/1150/10/
012160/20130329/134636/2090/1340/20/
012160/20130329/134738/2085/2050/10/
012160/20130329/134820/2090/140/20/
012160/20130329/134821/2090/500/20/
012160/20130329/134823/2090/360/20/
012160/20130329/135047/2090/100/20/
012160/20130329/135204/2090/90/20/
012160/20130329/135305/2090/770/20/
012160/20130329/135408/2090/150/10/
012160/20130329/135416/2095/1910/20/
012160/20130329/135622/2095/270/20/
012160/20130329/135647/2095/1100/20/
012160/20130329/135649/2095/510/20/
012160/20130329/135653/2095/3070/20/
012160/20130329/135658/2095/1950/10/
012160/20130329/135719/2095/420/20/
012160/20130329/135740/2095/580/10/
012160/20130329/135810/2100/110/20/
012160/20130329/135812/2095/300/10/
012160/20130329/135826/2100/520/20/
012160/20130329/135925/2100/90/20/
012160/20130329/140033/2100/520/20/
012160/20130329/140108/2095/510/10/
012160/20130329/140130/2095/1000/10/
012160/20130329/140201/2095/430/10/
012160/20130329/140218/2100/10030/20/
012160/20130329/140311/2100/100/20/
012160/20130329/140406/2100/90/20/
012160/20130329/140420/2095/210/10/
012160/20130329/140513/2095/280/10/
012160/20130329/140535/2095/100/10/
012160/20130329/140551/2095/2020/10/
012160/20130329/140558/2095/210/10/
012160/20130329/140629/2095/160/10/
012160/20130329/140707/2100/100/20/
012160/20130329/140726/2100/24440/20/
012160/20130329/140737/2105/1990/20/
012160/20130329/140740/2105/910/20/
012160/20130329/140740/2110/1000/20/
012160/20130329/140751/2110/13960/20/
012160/20130329/140756/2110/310/10/
012160/20130329/140757/2110/200/10/
012160/20130329/140806/2115/90/20/
012160/20130329/140811/2115/480/20/
012160/20130329/140812/2110/1190/10/
012160/20130329/140813/2110/310/20/
012160/20130329/140813/2115/560/20/
012160/20130329/140817/2115/300/20/
012160/20130329/140831/2110/1500/10/
012160/20130329/140831/2110/200/10/
012160/20130329/140839/2110/500/10/
012160/20130329/140840/2105/980/10/
012160/20130329/140841/2105/210/20/
012160/20130329/140842/2105/150/20/
012160/20130329/140851/2105/100/20/
012160/20130329/140859/2105/520/20/
012160/20130329/140933/2105/130/20/
012160/20130329/140957/2110/190/20/
012160/20130329/141055/2100/810/10/
012160/20130329/141117/2105/510/20/
012160/20130329/141201/2110/90/20/
012160/20130329/141249/2105/2560/10/
012160/20130329/141310/2100/480/10/
012160/20130329/141341/2105/1020/20/
012160/20130329/141414/2100/6760/10/
012160/20130329/141448/2095/550/10/
012160/20130329/141455/2095/1510/10/
012160/20130329/141506/2095/3010/10/
012160/20130329/141506/2095/500/10/
012160/20130329/141516/2095/2010/10/
012160/20130329/141517/2095/910/10/
012160/20130329/141518/2095/190/10/
012160/20130329/141518/2095/600/10/
012160/20130329/141518/2095/1980/10/
012160/20130329/141518/2095/760/10/
012160/20130329/141519/2095/720/10/
012160/20130329/141519/2095/1170/10/
012160/20130329/141519/2095/780/10/
012160/20130329/141521/2095/760/10/
012160/20130329/141523/2095/300/10/
012160/20130329/141523/2095/700/10/
012160/20130329/141526/2090/300/10/
012160/20130329/141535/2090/810/10/
012160/20130329/141629/2090/2350/10/
012160/20130329/141629/2090/1650/10/
012160/20130329/141631/2090/100/10/
012160/20130329/141634/2090/100/10/
012160/20130329/141740/2090/340/10/
012160/20130329/141816/2090/180/20/
012160/20130329/141816/2095/2400/20/
012160/20130329/141858/2090/500/10/
012160/20130329/141858/2085/110/10/
012160/20130329/141930/2085/130/10/
012160/20130329/142305/2090/520/10/
012160/20130329/142309/2090/240/10/
012160/20130329/142317/2090/100/10/
012160/20130329/142326/2090/100/10/
012160/20130329/142445/2085/3590/10/
012160/20130329/142520/2085/300/20/
012160/20130329/142531/2085/3210/20/
012160/20130329/142549/2085/490/10/
012160/20130329/142556/2080/700/10/
012160/20130329/142635/2080/3270/10/
012160/20130329/142902/2090/940/10/
012160/20130329/142939/2095/90/20/
012160/20130329/143015/2090/430/10/
012160/20130329/143029/2090/230/10/
012160/20130329/143235/2085/6490/10/
012160/20130329/143353/2080/4620/10/
012160/20130329/143437/2090/1460/20/
012160/20130329/143442/2090/510/10/
012160/20130329/143443/2090/1000/10/
012160/20130329/143522/2090/110/10/
012160/20130329/143527/2090/210/20/
012160/20130329/143611/2090/760/10/
012160/20130329/143632/2085/1010/10/
012160/20130329/143636/2080/680/10/
012160/20130329/143713/2075/110/10/
012160/20130329/143716/2080/540/20/
012160/20130329/143742/2080/1470/10/
012160/20130329/143906/2085/2730/20/
012160/20130329/143928/2085/610/10/
012160/20130329/144012/2080/270/10/
012160/20130329/144027/2080/240/10/
012160/20130329/144034/2080/2000/10/
012160/20130329/144113/2080/2580/10/
012160/20130329/144121/2080/2540/10/
012160/20130329/144154/2080/110/20/
012160/20130329/144155/2080/900/20/
012160/20130329/144158/2085/1290/20/
012160/20130329/144158/2090/710/20/
012160/20130329/144323/2085/530/20/
012160/20130329/144333/2085/430/20/
012160/20130329/144355/2085/450/10/
012160/20130329/144443/2080/7780/10/
012160/20130329/144454/2075/730/10/
012160/20130329/144526/2075/1020/10/
012160/20130329/144534/2075/3750/10/
012160/20130329/144534/2070/4000/10/
012160/20130329/144534/2065/2270/10/
012160/20130329/144636/2070/520/10/
012160/20130329/144650/2070/400/10/
012160/20130329/144802/2075/90/20/
012160/20130329/144831/2070/220/10/
012160/20130329/144832/2070/2380/10/
012160/20130329/144844/2065/310/10/
012160/20130329/144906/2065/110/10/
012160/20130329/144906/2065/4860/10/
012160/20130329/144907/2065/190/10/
012160/20130329/144907/2065/130/10/
012160/20130329/144910/2065/380/20/
012160/20130329/144910/2070/430/20/
012160/20130329/144943/2070/410/20/
012160/20130329/144943/2075/2850/20/
012160/20130329/150000/2075/34780/10/
