012160/20121121/90000/1785/17570/10/
012160/20121121/90001/1790/1300/20/
012160/20121121/90001/1795/1110/20/
012160/20121121/90001/1800/1160/20/
012160/20121121/90005/1800/620/10/
012160/20121121/90015/1805/1220/20/
012160/20121121/90016/1805/900/10/
012160/20121121/90017/1805/680/10/
012160/20121121/90021/1805/450/20/
012160/20121121/90023/1805/200/20/
012160/20121121/90023/1805/500/20/
012160/20121121/90027/1800/300/10/
012160/20121121/90030/1805/1370/20/
012160/20121121/90030/1810/2150/20/
012160/20121121/90030/1815/1480/20/
012160/20121121/90042/1815/170/20/
012160/20121121/90045/1815/640/20/
012160/20121121/90045/1820/1200/20/
012160/20121121/90045/1830/3160/20/
012160/20121121/90049/1805/420/10/
012160/20121121/90051/1830/110/20/
012160/20121121/90052/1830/1860/20/
012160/20121121/90053/1830/1140/10/
012160/20121121/90100/1825/700/20/
012160/20121121/90100/1830/3360/20/
012160/20121121/90100/1835/990/20/
012160/20121121/90101/1820/500/20/
012160/20121121/90101/1825/300/20/
012160/20121121/90101/1835/2020/20/
012160/20121121/90103/1835/140/10/
012160/20121121/90115/1820/970/20/
012160/20121121/90115/1825/1250/20/
012160/20121121/90115/1830/2820/20/
012160/20121121/90119/1820/670/10/
012160/20121121/90127/1820/970/20/
012160/20121121/90127/1830/3130/20/
012160/20121121/90127/1835/900/20/
012160/20121121/90138/1835/5000/20/
012160/20121121/90147/1830/190/20/
012160/20121121/90148/1815/110/10/
012160/20121121/90149/1830/1810/20/
012160/20121121/90149/1835/1060/20/
012160/20121121/90149/1840/2130/20/
012160/20121121/90159/1835/4100/20/
012160/20121121/90159/1840/900/20/
012160/20121121/90210/1835/1010/10/
012160/20121121/90210/1840/3990/20/
012160/20121121/90212/1840/7620/20/
012160/20121121/90212/1840/930/10/
012160/20121121/90213/1840/1450/10/
012160/20121121/90218/1840/2630/20/
012160/20121121/90218/1845/1870/20/
012160/20121121/90218/1850/500/20/
012160/20121121/90223/1840/1010/20/
012160/20121121/90224/1835/1000/20/
012160/20121121/90224/1840/1490/20/
012160/20121121/90228/1840/1510/10/
012160/20121121/90231/1845/420/20/
012160/20121121/90231/1850/4580/20/
012160/20121121/90237/1840/100/20/
012160/20121121/90239/1840/1840/20/
012160/20121121/90243/1830/3000/10/
012160/20121121/90250/1840/1000/20/
012160/20121121/90254/1835/1000/20/
012160/20121121/90254/1840/250/20/
012160/20121121/90256/1840/1590/20/
012160/20121121/90258/1840/790/20/
012160/20121121/90258/1845/710/20/
012160/20121121/90258/1835/100/10/
012160/20121121/90258/1820/3550/10/
012160/20121121/90258/1815/3240/10/
012160/20121121/90258/1810/5960/10/
012160/20121121/90258/1805/250/10/
012160/20121121/90301/1840/5000/10/
012160/20121121/90306/1840/570/10/
012160/20121121/90308/1840/100/20/
012160/20121121/90308/1845/980/20/
012160/20121121/90315/1835/250/10/
012160/20121121/90315/1840/200/20/
012160/20121121/90315/1845/120/20/
012160/20121121/90320/1840/2750/10/
012160/20121121/90325/1840/150/20/
012160/20121121/90333/1835/750/10/
012160/20121121/90337/1820/550/10/
012160/20121121/90342/1820/430/10/
012160/20121121/90344/1820/120/10/
012160/20121121/90346/1830/100/20/
012160/20121121/90352/1820/100/10/
012160/20121121/90355/1830/1000/20/
012160/20121121/90408/1830/510/20/
012160/20121121/90408/1835/490/20/
012160/20121121/90419/1830/820/20/
012160/20121121/90419/1835/180/20/
012160/20121121/90441/1820/190/10/
012160/20121121/90444/1820/540/10/
012160/20121121/90444/1810/660/10/
012160/20121121/90449/1810/500/10/
012160/20121121/90452/1810/620/10/
012160/20121121/90454/1810/380/10/
012160/20121121/90454/1810/140/10/
012160/20121121/90454/1805/1080/10/
012160/20121121/90454/1830/600/20/
012160/20121121/90458/1805/3310/10/
012160/20121121/90458/1800/3190/10/
012160/20121121/90513/1800/720/10/
012160/20121121/90525/1805/1380/10/
012160/20121121/90526/1805/1740/10/
012160/20121121/90527/1805/1000/10/
012160/20121121/90528/1810/600/10/
012160/20121121/90528/1805/900/10/
012160/20121121/90529/1805/180/10/
012160/20121121/90529/1800/520/10/
012160/20121121/90547/1805/200/10/
012160/20121121/90549/1805/200/10/
012160/20121121/90551/1805/370/10/
012160/20121121/90610/1805/930/10/
012160/20121121/90611/1805/410/10/
012160/20121121/90611/1805/1630/20/
012160/20121121/90616/1805/300/10/
012160/20121121/90622/1805/200/10/
012160/20121121/90622/1805/770/10/
012160/20121121/90622/1800/1730/10/
012160/20121121/90637/1805/1750/10/
012160/20121121/90643/1800/260/10/
012160/20121121/90647/1805/810/20/
012160/20121121/90656/1800/10140/10/
012160/20121121/90658/1800/100/20/
012160/20121121/90704/1800/1000/20/
012160/20121121/90708/1800/1000/20/
012160/20121121/90710/1800/660/20/
012160/20121121/90712/1800/300/10/
012160/20121121/90719/1800/960/10/
012160/20121121/90723/1800/200/20/
012160/20121121/90736/1795/9260/10/
012160/20121121/90736/1795/1500/20/
012160/20121121/90746/1785/1300/10/
012160/20121121/90747/1785/2220/10/
012160/20121121/90755/1780/610/10/
012160/20121121/90759/1780/1130/10/
012160/20121121/90804/1780/1500/10/
012160/20121121/90805/1780/520/10/
012160/20121121/90806/1780/300/10/
012160/20121121/90808/1780/200/10/
012160/20121121/90809/1780/1000/10/
012160/20121121/90811/1780/570/10/
012160/20121121/90811/1780/1930/20/
012160/20121121/90817/1775/740/10/
012160/20121121/90819/1780/200/20/
012160/20121121/90827/1785/110/10/
012160/20121121/90827/1780/700/10/
012160/20121121/90844/1780/1130/10/
012160/20121121/90845/1780/590/10/
012160/20121121/90845/1780/1150/10/
012160/20121121/90850/1780/2550/20/
012160/20121121/90852/1780/100/10/
012160/20121121/90852/1780/110/10/
012160/20121121/90856/1785/2000/20/
012160/20121121/90856/1780/1660/10/
012160/20121121/90857/1785/6200/20/
012160/20121121/90858/1785/1000/20/
012160/20121121/90859/1785/2340/20/
012160/20121121/90859/1790/3000/20/
012160/20121121/90900/1785/1800/10/
012160/20121121/90905/1795/6720/20/
012160/20121121/90905/1800/3280/20/
012160/20121121/90906/1800/2860/20/
012160/20121121/90913/1810/220/20/
012160/20121121/90915/1810/150/10/
012160/20121121/90917/1810/100/20/
012160/20121121/90922/1810/130/20/
012160/20121121/90923/1810/200/20/
012160/20121121/90927/1810/200/20/
012160/20121121/90931/1810/2210/20/
012160/20121121/90932/1805/200/20/
012160/20121121/90938/1810/90/20/
012160/20121121/90954/1805/140/20/
012160/20121121/91004/1800/150/20/
012160/20121121/91012/1800/1380/20/
012160/20121121/91024/1800/270/20/
012160/20121121/91034/1800/500/20/
012160/20121121/91036/1800/200/20/
012160/20121121/91038/1790/1150/10/
012160/20121121/91041/1790/320/20/
012160/20121121/91049/1790/200/10/
012160/20121121/91049/1785/570/10/
012160/20121121/91055/1790/720/20/
012160/20121121/91110/1790/1150/20/
012160/20121121/91112/1790/340/20/
012160/20121121/91117/1785/200/10/
012160/20121121/91117/1785/90/10/
012160/20121121/91119/1785/5000/10/
012160/20121121/91128/1785/200/10/
012160/20121121/91143/1785/1890/10/
012160/20121121/91143/1780/160/10/
012160/20121121/91149/1780/200/10/
012160/20121121/91153/1780/3690/10/
012160/20121121/91159/1780/4290/10/
012160/20121121/91202/1780/100/20/
012160/20121121/91210/1780/5620/20/
012160/20121121/91221/1785/500/20/
012160/20121121/91223/1780/700/10/
012160/20121121/91224/1780/500/20/
012160/20121121/91224/1780/800/20/
012160/20121121/91228/1785/180/20/
012160/20121121/91231/1785/150/20/
012160/20121121/91235/1785/150/20/
012160/20121121/91240/1785/100/20/
012160/20121121/91243/1780/200/10/
012160/20121121/91243/1785/500/20/
012160/20121121/91244/1785/170/20/
012160/20121121/91252/1785/500/20/
012160/20121121/91311/1785/780/20/
012160/20121121/91324/1785/200/10/
012160/20121121/91340/1785/290/10/
012160/20121121/91343/1785/210/20/
012160/20121121/91353/1785/1880/10/
012160/20121121/91408/1785/1320/20/
012160/20121121/91409/1780/680/10/
012160/20121121/91440/1790/6870/20/
012160/20121121/91519/1795/110/20/
012160/20121121/91536/1795/200/20/
012160/20121121/91546/1790/1010/10/
012160/20121121/91606/1790/1000/20/
012160/20121121/91631/1785/2200/10/
012160/20121121/91647/1785/270/10/
012160/20121121/91716/1785/100/10/
012160/20121121/91742/1785/1530/10/
012160/20121121/91751/1785/1170/10/
012160/20121121/91754/1785/110/10/
012160/20121121/91759/1785/90/20/
012160/20121121/91802/1785/740/20/
012160/20121121/91829/1780/1520/10/
012160/20121121/91846/1780/300/10/
012160/20121121/91900/1780/1000/10/
012160/20121121/91907/1780/480/10/
012160/20121121/91915/1780/990/10/
012160/20121121/91915/1780/110/10/
012160/20121121/91915/1780/430/10/
012160/20121121/91924/1780/5260/10/
012160/20121121/91927/1780/980/10/
012160/20121121/91928/1775/120/10/
012160/20121121/91931/1775/450/10/
012160/20121121/91941/1775/730/10/
012160/20121121/91945/1775/8730/10/
012160/20121121/91945/1775/1000/20/
012160/20121121/91946/1775/1270/20/
012160/20121121/91956/1775/1230/10/
012160/20121121/92013/1775/1680/20/
012160/20121121/92014/1775/100/20/
012160/20121121/92021/1775/1050/10/
012160/20121121/92022/1775/1920/10/
012160/20121121/92024/1775/1000/20/
012160/20121121/92038/1775/2120/10/
012160/20121121/92052/1775/100/20/
012160/20121121/92054/1775/390/20/
012160/20121121/92116/1770/1700/10/
012160/20121121/92118/1775/250/20/
012160/20121121/92133/1775/7110/20/
012160/20121121/92134/1775/2540/20/
012160/20121121/92136/1775/1460/10/
012160/20121121/92142/1775/1160/20/
012160/20121121/92143/1775/120/20/
012160/20121121/92145/1775/120/20/
012160/20121121/92157/1775/560/20/
012160/20121121/92158/1775/390/20/
012160/20121121/92159/1775/100/20/
012160/20121121/92159/1775/500/20/
012160/20121121/92159/1775/1400/20/
012160/20121121/92225/1775/6060/10/
012160/20121121/92231/1775/400/20/
012160/20121121/92238/1770/4000/10/
012160/20121121/92244/1770/180/10/
012160/20121121/92255/1770/5330/10/
012160/20121121/92255/1765/4170/10/
012160/20121121/92255/1760/540/10/
012160/20121121/92300/1760/230/10/
012160/20121121/92323/1770/110/20/
012160/20121121/92326/1770/1000/20/
012160/20121121/92329/1770/110/20/
012160/20121121/92336/1770/320/20/
012160/20121121/92338/1770/170/20/
012160/20121121/92348/1770/830/10/
012160/20121121/92353/1770/130/20/
012160/20121121/92442/1765/6620/10/
012160/20121121/92443/1765/510/20/
012160/20121121/92452/1760/1160/10/
012160/20121121/92513/1760/1060/10/
012160/20121121/92514/1760/5730/10/
012160/20121121/92514/1760/100/20/
012160/20121121/92517/1755/4090/10/
012160/20121121/92522/1760/1030/20/
012160/20121121/92523/1755/1070/10/
012160/20121121/92523/1750/21670/10/
012160/20121121/92526/1745/540/10/
012160/20121121/92532/1745/2810/10/
012160/20121121/92532/1740/1900/10/
012160/20121121/92539/1740/5030/10/
012160/20121121/92539/1740/1100/10/
012160/20121121/92540/1740/5690/20/
012160/20121121/92540/1740/890/20/
012160/20121121/92541/1740/1000/10/
012160/20121121/92544/1740/3670/10/
012160/20121121/92548/1745/260/10/
012160/20121121/92548/1740/7350/10/
012160/20121121/92550/1740/1000/20/
012160/20121121/92551/1740/1520/20/
012160/20121121/92552/1735/5000/10/
012160/20121121/92552/1740/200/20/
012160/20121121/92552/1735/2800/10/
012160/20121121/92553/1740/1020/20/
012160/20121121/92554/1740/2000/20/
012160/20121121/92555/1740/5000/20/
012160/20121121/92555/1740/3280/20/
012160/20121121/92558/1740/150/10/
012160/20121121/92559/1740/1130/10/
012160/20121121/92559/1750/500/20/
012160/20121121/92612/1750/110/20/
012160/20121121/92615/1745/520/10/
012160/20121121/92615/1740/300/10/
012160/20121121/92633/1745/230/10/
012160/20121121/92636/1745/1010/10/
012160/20121121/92647/1745/760/10/
012160/20121121/92648/1745/800/10/
012160/20121121/92655/1745/170/10/
012160/20121121/92656/1745/3160/10/
012160/20121121/92707/1750/160/20/
012160/20121121/92707/1740/8770/10/
012160/20121121/92713/1745/150/10/
012160/20121121/92715/1745/100/20/
012160/20121121/92716/1745/1000/20/
012160/20121121/92718/1745/2990/20/
012160/20121121/92724/1745/1310/10/
012160/20121121/92729/1750/600/20/
012160/20121121/92739/1745/5600/10/
012160/20121121/92745/1745/1330/20/
012160/20121121/92748/1745/230/10/
012160/20121121/92757/1745/670/10/
012160/20121121/92821/1750/200/20/
012160/20121121/92823/1745/3180/20/
012160/20121121/92830/1745/4120/20/
012160/20121121/92848/1745/1040/10/
012160/20121121/92853/1745/1540/10/
012160/20121121/92853/1740/18190/10/
012160/20121121/92853/1735/11030/10/
012160/20121121/92853/1730/7840/10/
012160/20121121/92914/1735/2380/10/
012160/20121121/92915/1730/3000/10/
012160/20121121/92915/1735/310/20/
012160/20121121/92916/1735/690/10/
012160/20121121/92916/1730/10000/10/
012160/20121121/92916/1725/3740/10/
012160/20121121/92916/1720/4210/10/
012160/20121121/92919/1725/400/10/
012160/20121121/92921/1735/1130/20/
012160/20121121/92928/1740/450/20/
012160/20121121/92931/1740/1570/10/
012160/20121121/92939/1740/1330/10/
012160/20121121/92949/1740/3830/20/
012160/20121121/92952/1740/1210/20/
012160/20121121/92952/1740/1000/20/
012160/20121121/93000/1740/100/20/
012160/20121121/93002/1740/100/20/
012160/20121121/93006/1740/400/10/
012160/20121121/93006/1735/710/10/
012160/20121121/93015/1745/1000/20/
012160/20121121/93029/1745/850/20/
012160/20121121/93034/1745/960/20/
012160/20121121/93040/1745/820/20/
012160/20121121/93043/1745/190/10/
012160/20121121/93058/1745/100/20/
012160/20121121/93107/1745/200/20/
012160/20121121/93117/1745/500/20/
012160/20121121/93121/1745/120/20/
012160/20121121/93201/1745/380/10/
012160/20121121/93221/1750/610/20/
012160/20121121/93224/1750/100/20/
012160/20121121/93225/1750/100/20/
012160/20121121/93225/1750/6670/20/
012160/20121121/93227/1755/100/20/
012160/20121121/93228/1755/100/20/
012160/20121121/93233/1755/230/20/
012160/20121121/93234/1755/750/20/
012160/20121121/93243/1750/10080/10/
012160/20121121/93245/1745/500/10/
012160/20121121/93250/1750/3000/20/
012160/20121121/93250/1755/1560/20/
012160/20121121/93252/1755/1500/10/
012160/20121121/93255/1755/200/10/
012160/20121121/93256/1755/700/10/
012160/20121121/93300/1755/510/20/
012160/20121121/93303/1755/4990/20/
012160/20121121/93308/1750/270/10/
012160/20121121/93308/1745/800/10/
012160/20121121/93308/1760/1200/20/
012160/20121121/93352/1750/240/10/
012160/20121121/93358/1760/200/20/
012160/20121121/93432/1755/500/20/
012160/20121121/93514/1750/5030/10/
012160/20121121/93517/1750/100/10/
012160/20121121/93527/1750/500/20/
012160/20121121/93554/1750/3050/20/
012160/20121121/93604/1750/500/20/
012160/20121121/93605/1750/210/10/
012160/20121121/93626/1750/280/10/
012160/20121121/93629/1750/720/20/
012160/20121121/93653/1750/990/20/
012160/20121121/93702/1750/110/20/
012160/20121121/93704/1750/390/20/
012160/20121121/93712/1750/1000/10/
012160/20121121/93731/1750/5120/10/
012160/20121121/93731/1745/8780/10/
012160/20121121/93744/1750/130/10/
012160/20121121/93745/1750/1000/10/
012160/20121121/93755/1755/1000/20/
012160/20121121/93815/1750/430/10/
012160/20121121/93830/1750/330/20/
012160/20121121/93834/1750/670/10/
012160/20121121/93853/1750/300/20/
012160/20121121/93857/1750/500/20/
012160/20121121/93903/1750/1030/20/
012160/20121121/93905/1750/1970/10/
012160/20121121/93905/1745/8070/10/
012160/20121121/93927/1755/120/20/
012160/20121121/93935/1745/3500/10/
012160/20121121/93935/1740/3560/10/
012160/20121121/93939/1745/100/20/
012160/20121121/94027/1740/3010/10/
012160/20121121/94036/1740/1180/10/
012160/20121121/94036/1735/6820/10/
012160/20121121/94103/1735/1500/10/
012160/20121121/94104/1735/550/10/
012160/20121121/94105/1735/100/20/
012160/20121121/94105/1735/180/20/
012160/20121121/94105/1735/100/20/
012160/20121121/94108/1735/800/20/
012160/20121121/94136/1745/500/20/
012160/20121121/94149/1740/100/10/
012160/20121121/94155/1745/100/20/
012160/20121121/94215/1745/100/20/
012160/20121121/94226/1745/130/20/
012160/20121121/94232/1745/100/20/
012160/20121121/94242/1745/5000/20/
012160/20121121/94243/1745/3900/20/
012160/20121121/94251/1745/150/20/
012160/20121121/94309/1745/510/10/
012160/20121121/94320/1750/380/20/
012160/20121121/94353/1750/2710/20/
012160/20121121/94355/1750/380/20/
012160/20121121/94409/1750/840/10/
012160/20121121/94423/1750/160/20/
012160/20121121/94440/1745/3180/10/
012160/20121121/94440/1740/570/10/
012160/20121121/94451/1750/100/20/
012160/20121121/94454/1755/100/20/
012160/20121121/94514/1745/1500/10/
012160/20121121/94517/1745/100/10/
012160/20121121/94553/1745/1000/10/
012160/20121121/94633/1750/250/20/
012160/20121121/94635/1750/200/20/
012160/20121121/94644/1745/200/10/
012160/20121121/94722/1750/1100/20/
012160/20121121/94744/1750/2330/20/
012160/20121121/94744/1755/1250/20/
012160/20121121/94800/1750/100/10/
012160/20121121/94811/1750/350/20/
012160/20121121/94813/1750/100/20/
012160/20121121/94814/1750/200/20/
012160/20121121/95026/1750/1460/20/
012160/20121121/95137/1755/3310/20/
012160/20121121/95216/1760/100/20/
012160/20121121/95222/1760/100/20/
012160/20121121/95247/1760/600/20/
012160/20121121/95415/1760/260/20/
012160/20121121/95419/1760/1400/20/
012160/20121121/95428/1760/120/10/
012160/20121121/95431/1760/110/20/
012160/20121121/95431/1760/160/10/
012160/20121121/95435/1755/2760/10/
012160/20121121/95435/1750/1150/10/
012160/20121121/95437/1760/100/20/
012160/20121121/95440/1760/100/20/
012160/20121121/95521/1755/140/10/
012160/20121121/95536/1755/1000/10/
012160/20121121/95537/1755/120/10/
012160/20121121/95603/1755/1050/10/
012160/20121121/95624/1755/560/10/
012160/20121121/95624/1750/6390/10/
012160/20121121/95624/1745/410/10/
012160/20121121/95637/1745/5200/10/
012160/20121121/95637/1740/790/10/
012160/20121121/95644/1740/1270/10/
012160/20121121/95706/1755/100/20/
012160/20121121/95720/1745/500/10/
012160/20121121/95753/1745/1000/20/
012160/20121121/95757/1745/290/20/
012160/20121121/95803/1745/100/20/
012160/20121121/95818/1745/2050/20/
012160/20121121/95820/1745/120/20/
012160/20121121/95824/1745/200/20/
012160/20121121/95830/1745/140/20/
012160/20121121/95839/1745/2020/20/
012160/20121121/95842/1745/580/20/
012160/20121121/95844/1750/100/20/
012160/20121121/95903/1745/100/10/
012160/20121121/95905/1750/100/20/
012160/20121121/95911/1745/700/10/
012160/20121121/100004/1750/2510/20/
012160/20121121/100005/1750/2000/20/
012160/20121121/100013/1750/500/20/
012160/20121121/100024/1755/90/20/
012160/20121121/100113/1750/230/10/
012160/20121121/100227/1750/2500/10/
012160/20121121/100230/1745/250/10/
012160/20121121/100242/1750/180/20/
012160/20121121/100344/1750/2530/10/
012160/20121121/100344/1745/3480/10/
012160/20121121/100402/1750/90/10/
012160/20121121/100402/1745/1990/10/
012160/20121121/100435/1745/130/10/
012160/20121121/100511/1750/100/20/
012160/20121121/100527/1750/490/20/
012160/20121121/100612/1750/890/10/
012160/20121121/100616/1750/1020/10/
012160/20121121/100616/1755/250/20/
012160/20121121/100627/1755/500/20/
012160/20121121/100644/1755/200/20/
012160/20121121/100705/1755/1000/20/
012160/20121121/100715/1755/2030/20/
012160/20121121/100746/1755/560/10/
012160/20121121/100809/1755/440/10/
012160/20121121/100858/1760/100/20/
012160/20121121/100911/1755/4150/10/
012160/20121121/100939/1755/1960/20/
012160/20121121/101032/1760/840/20/
012160/20121121/101036/1760/560/20/
012160/20121121/101046/1760/90/20/
012160/20121121/101048/1760/1300/20/
012160/20121121/101051/1760/200/20/
012160/20121121/101151/1765/170/20/
012160/20121121/101152/1760/3440/10/
012160/20121121/101159/1760/90/20/
012160/20121121/101201/1760/1470/20/
012160/20121121/101210/1760/240/10/
012160/20121121/101225/1765/560/20/
012160/20121121/101232/1760/760/10/
012160/20121121/101232/1765/1000/20/
012160/20121121/101319/1765/2390/20/
012160/20121121/101320/1765/2410/20/
012160/20121121/101326/1765/2320/20/
012160/20121121/101356/1765/100/10/
012160/20121121/101406/1765/860/20/
012160/20121121/101410/1765/370/10/
012160/20121121/101517/1765/3370/20/
012160/20121121/101527/1765/1830/20/
012160/20121121/101645/1765/90/20/
012160/20121121/101650/1760/6100/10/
012160/20121121/101730/1760/6050/10/
012160/20121121/101731/1760/190/10/
012160/20121121/101740/1760/520/20/
012160/20121121/101756/1760/90/20/
012160/20121121/101839/1760/290/20/
012160/20121121/101847/1760/200/20/
012160/20121121/101849/1760/540/20/
012160/20121121/101927/1765/90/20/
012160/20121121/102025/1760/400/10/
012160/20121121/102056/1760/90/10/
012160/20121121/102122/1760/1310/20/
012160/20121121/102144/1760/1000/20/
012160/20121121/102213/1760/500/20/
012160/20121121/102215/1760/100/20/
012160/20121121/102221/1760/140/20/
012160/20121121/102224/1760/2230/20/
012160/20121121/102356/1765/7710/20/
012160/20121121/102356/1770/1370/20/
012160/20121121/102456/1765/680/20/
012160/20121121/102505/1765/210/10/
012160/20121121/102506/1765/120/10/
012160/20121121/102520/1765/550/20/
012160/20121121/102522/1765/90/10/
012160/20121121/102540/1770/100/20/
012160/20121121/102550/1770/5000/20/
012160/20121121/102603/1770/1170/20/
012160/20121121/102616/1770/1020/20/
012160/20121121/102645/1770/180/20/
012160/20121121/102651/1770/1200/20/
012160/20121121/102703/1770/1020/10/
012160/20121121/102719/1770/220/10/
012160/20121121/102818/1775/110/20/
012160/20121121/102857/1775/220/20/
012160/20121121/102915/1770/90/10/
012160/20121121/102917/1770/980/10/
012160/20121121/102921/1770/980/10/
012160/20121121/102922/1770/220/10/
012160/20121121/102923/1770/2600/10/
012160/20121121/102924/1770/100/10/
012160/20121121/102926/1770/790/10/
012160/20121121/102928/1770/100/10/
012160/20121121/102929/1770/400/10/
012160/20121121/102946/1775/90/20/
012160/20121121/102950/1770/100/10/
012160/20121121/102953/1770/1020/10/
012160/20121121/102956/1770/420/10/
012160/20121121/103002/1770/800/10/
012160/20121121/103028/1770/130/20/
012160/20121121/103125/1770/580/20/
012160/20121121/103143/1765/1620/10/
012160/20121121/103236/1770/120/20/
012160/20121121/103428/1765/6190/10/
012160/20121121/103428/1760/5980/10/
012160/20121121/103437/1770/700/20/
012160/20121121/103506/1765/100/20/
012160/20121121/103546/1765/1070/20/
012160/20121121/103619/1760/5000/10/
012160/20121121/103625/1760/1540/10/
012160/20121121/103642/1755/2470/10/
012160/20121121/103644/1755/370/10/
012160/20121121/103645/1755/1760/10/
012160/20121121/103658/1755/430/20/
012160/20121121/103706/1755/830/20/
012160/20121121/103710/1755/1220/10/
012160/20121121/103714/1755/150/20/
012160/20121121/103716/1755/1000/20/
012160/20121121/103736/1750/560/10/
012160/20121121/103740/1750/2000/10/
012160/20121121/103749/1750/3620/10/
012160/20121121/103750/1750/9040/10/
012160/20121121/103753/1750/250/10/
012160/20121121/103757/1750/930/10/
012160/20121121/103811/1750/1910/10/
012160/20121121/103824/1750/320/10/
012160/20121121/103835/1755/150/20/
012160/20121121/103837/1755/100/20/
012160/20121121/103918/1750/170/10/
012160/20121121/103946/1755/120/20/
012160/20121121/103953/1750/3790/10/
012160/20121121/104136/1755/990/20/
012160/20121121/104211/1755/100/20/
012160/20121121/104236/1750/230/10/
012160/20121121/104237/1755/100/20/
012160/20121121/104237/1750/700/10/
012160/20121121/104253/1750/320/10/
012160/20121121/104259/1755/1020/20/
012160/20121121/104458/1755/90/20/
012160/20121121/104529/1750/1430/10/
012160/20121121/104548/1750/1590/20/
012160/20121121/104614/1750/150/20/
012160/20121121/104636/1750/600/20/
012160/20121121/104648/1750/320/10/
012160/20121121/104717/1755/90/20/
012160/20121121/104757/1750/580/10/
012160/20121121/104820/1750/540/10/
012160/20121121/104824/1750/2000/10/
012160/20121121/104846/1750/520/10/
012160/20121121/104853/1745/4020/10/
012160/20121121/105026/1745/6550/10/
012160/20121121/105026/1740/9170/10/
012160/20121121/105045/1740/120/10/
012160/20121121/105120/1755/90/20/
012160/20121121/105125/1755/4240/20/
012160/20121121/105153/1755/100/20/
012160/20121121/105226/1745/100/10/
012160/20121121/105226/1740/1180/10/
012160/20121121/105242/1740/250/10/
012160/20121121/105244/1740/1500/10/
012160/20121121/105322/1750/90/20/
012160/20121121/105411/1745/160/20/
012160/20121121/105424/1745/120/20/
012160/20121121/105428/1745/280/20/
012160/20121121/105438/1745/300/10/
012160/20121121/105446/1745/2180/20/
012160/20121121/105509/1745/560/20/
012160/20121121/105532/1745/180/20/
012160/20121121/105532/1745/880/10/
012160/20121121/105532/1740/620/10/
012160/20121121/105554/1750/90/20/
012160/20121121/105611/1745/1410/10/
012160/20121121/105611/1740/90/10/
012160/20121121/105857/1740/210/10/
012160/20121121/105901/1745/500/20/
012160/20121121/105921/1745/1000/10/
012160/20121121/105951/1745/100/10/
012160/20121121/110034/1745/3030/10/
012160/20121121/110048/1745/480/10/
012160/20121121/110146/1745/440/20/
012160/20121121/110205/1745/140/20/
012160/20121121/110210/1745/500/20/
012160/20121121/110211/1745/1380/20/
012160/20121121/110234/1745/1000/20/
012160/20121121/110423/1745/2440/20/
012160/20121121/110445/1745/150/10/
012160/20121121/110457/1745/440/10/
012160/20121121/110457/1740/740/10/
012160/20121121/110709/1745/540/20/
012160/20121121/110800/1740/3060/10/
012160/20121121/110818/1740/1200/10/
012160/20121121/110820/1740/300/10/
012160/20121121/110820/1740/6960/10/
012160/20121121/110822/1735/1090/10/
012160/20121121/110835/1735/5630/10/
012160/20121121/110917/1735/630/20/
012160/20121121/110925/1735/110/20/
012160/20121121/110925/1735/3000/20/
012160/20121121/110927/1735/240/20/
012160/20121121/110928/1735/1580/20/
012160/20121121/111046/1735/220/10/
012160/20121121/111244/1735/1320/10/
012160/20121121/111252/1735/3290/10/
012160/20121121/111308/1735/150/10/
012160/20121121/111428/1745/1810/20/
012160/20121121/111429/1745/410/20/
012160/20121121/111517/1745/100/20/
012160/20121121/111536/1745/120/20/
012160/20121121/111552/1740/500/10/
012160/20121121/111658/1745/1950/20/
012160/20121121/111702/1745/2070/10/
012160/20121121/111707/1745/1230/20/
012160/20121121/111724/1745/500/10/
012160/20121121/111732/1745/1760/10/
012160/20121121/111759/1745/100/20/
012160/20121121/111806/1745/100/20/
012160/20121121/111831/1740/7590/10/
012160/20121121/111912/1740/1050/20/
012160/20121121/111937/1740/1000/20/
012160/20121121/112009/1735/320/10/
012160/20121121/112123/1745/170/20/
012160/20121121/112126/1745/500/20/
012160/20121121/112357/1745/1010/20/
012160/20121121/112403/1740/1800/10/
012160/20121121/112426/1745/100/20/
012160/20121121/112602/1740/2000/10/
012160/20121121/112634/1740/350/10/
012160/20121121/112645/1745/120/20/
012160/20121121/112710/1740/390/10/
012160/20121121/113043/1745/2250/20/
012160/20121121/113129/1745/520/10/
012160/20121121/113151/1745/1020/10/
012160/20121121/113232/1745/1020/10/
012160/20121121/113621/1750/2060/20/
012160/20121121/113648/1745/2410/10/
012160/20121121/113659/1750/2000/20/
012160/20121121/114022/1745/230/10/
012160/20121121/114037/1745/110/20/
012160/20121121/114134/1745/90/20/
012160/20121121/114159/1745/580/20/
012160/20121121/114207/1745/310/10/
012160/20121121/114631/1745/290/10/
012160/20121121/114703/1750/4000/20/
012160/20121121/114949/1745/2340/10/
012160/20121121/115158/1740/3000/10/
012160/20121121/115222/1745/100/20/
012160/20121121/115246/1740/4270/10/
012160/20121121/115256/1740/2270/10/
012160/20121121/115313/1740/90/20/
012160/20121121/115321/1740/1690/20/
012160/20121121/115321/1740/1960/20/
012160/20121121/115425/1745/120/20/
012160/20121121/115453/1740/1660/10/
012160/20121121/115553/1740/1010/10/
012160/20121121/115555/1740/2490/10/
012160/20121121/115555/1735/580/10/
012160/20121121/115739/1740/590/10/
012160/20121121/115755/1740/830/10/
012160/20121121/115805/1740/170/20/
012160/20121121/115827/1740/350/20/
012160/20121121/120001/1740/2080/10/
012160/20121121/120033/1740/1010/10/
012160/20121121/120040/1745/500/20/
012160/20121121/120152/1740/500/10/
012160/20121121/120328/1740/1500/10/
012160/20121121/120359/1740/1500/10/
012160/20121121/120534/1740/940/10/
012160/20121121/120629/1740/500/10/
012160/20121121/120733/1740/1010/10/
012160/20121121/120744/1740/100/20/
012160/20121121/120806/1740/520/20/
012160/20121121/120821/1740/370/20/
012160/20121121/120847/1740/350/10/
012160/20121121/120849/1740/500/10/
012160/20121121/120929/1740/500/10/
012160/20121121/121007/1740/380/10/
012160/20121121/121007/1735/370/10/
012160/20121121/121105/1735/1040/10/
012160/20121121/121127/1740/470/20/
012160/20121121/121148/1735/1500/10/
012160/20121121/121218/1740/510/20/
012160/20121121/121315/1740/700/20/
012160/20121121/121426/1735/1040/10/
012160/20121121/121439/1735/1000/10/
012160/20121121/121514/1740/2000/20/
012160/20121121/121543/1735/1010/10/
012160/20121121/121544/1740/100/20/
012160/20121121/121549/1740/5100/20/
012160/20121121/121603/1740/1300/10/
012160/20121121/121648/1740/500/20/
012160/20121121/121658/1740/90/20/
012160/20121121/121713/1745/4580/20/
012160/20121121/121743/1745/190/10/
012160/20121121/121748/1745/200/10/
012160/20121121/121758/1745/300/10/
012160/20121121/121824/1745/100/10/
012160/20121121/121828/1745/400/10/
012160/20121121/121919/1745/550/10/
012160/20121121/122118/1745/4730/10/
012160/20121121/122223/1745/120/20/
012160/20121121/122409/1745/100/20/
012160/20121121/122415/1740/1000/10/
012160/20121121/122607/1745/1310/20/
012160/20121121/122725/1745/1240/20/
012160/20121121/122754/1745/100/10/
012160/20121121/122802/1750/4100/20/
012160/20121121/122809/1750/4680/20/
012160/20121121/122920/1750/620/10/
012160/20121121/122920/1745/160/10/
012160/20121121/122924/1750/200/10/
012160/20121121/122932/1750/110/20/
012160/20121121/122947/1750/1050/20/
012160/20121121/123109/1755/1550/20/
012160/20121121/123118/1755/1540/10/
012160/20121121/123148/1755/130/10/
012160/20121121/123208/1755/710/20/
012160/20121121/123233/1755/1180/20/
012160/20121121/123237/1755/870/10/
012160/20121121/123330/1755/100/20/
012160/20121121/123505/1750/2060/10/
012160/20121121/123727/1745/1950/10/
012160/20121121/123807/1750/1010/20/
012160/20121121/123812/1745/8340/10/
012160/20121121/123825/1745/1660/20/
012160/20121121/123828/1745/340/10/
012160/20121121/123832/1745/730/20/
012160/20121121/123840/1745/1010/10/
012160/20121121/123842/1745/100/20/
012160/20121121/123850/1745/300/20/
012160/20121121/123950/1745/3450/20/
012160/20121121/123954/1745/550/10/
012160/20121121/124020/1745/2000/20/
012160/20121121/124104/1740/90/10/
012160/20121121/124124/1740/1140/10/
012160/20121121/124202/1740/650/10/
012160/20121121/124221/1740/7230/10/
012160/20121121/124234/1740/170/20/
012160/20121121/124241/1740/500/20/
012160/20121121/124300/1740/1000/20/
012160/20121121/124318/1740/3000/20/
012160/20121121/124322/1740/1280/20/
012160/20121121/124324/1740/260/10/
012160/20121121/124332/1740/390/20/
012160/20121121/124334/1740/120/10/
012160/20121121/124334/1735/14050/10/
012160/20121121/124334/1730/6980/10/
012160/20121121/124418/1740/1010/20/
012160/20121121/124452/1740/100/20/
012160/20121121/124501/1735/100/10/
012160/20121121/124502/1735/780/10/
012160/20121121/124604/1735/750/10/
012160/20121121/124604/1730/11990/10/
012160/20121121/124633/1725/2050/10/
012160/20121121/124641/1730/2000/20/
012160/20121121/124656/1730/550/20/
012160/20121121/124658/1730/2000/20/
012160/20121121/124734/1730/3620/20/
012160/20121121/124753/1730/120/20/
012160/20121121/124754/1730/140/20/
012160/20121121/124803/1730/1770/20/
012160/20121121/124809/1730/140/20/
012160/20121121/124819/1730/140/20/
012160/20121121/124821/1730/90/20/
012160/20121121/124850/1730/120/20/
012160/20121121/124851/1730/500/20/
012160/20121121/124900/1730/90/20/
012160/20121121/124911/1730/90/20/
012160/20121121/124935/1740/90/20/
012160/20121121/125030/1735/310/20/
012160/20121121/125058/1730/1040/10/
012160/20121121/125134/1725/17130/10/
012160/20121121/125134/1720/930/10/
012160/20121121/125135/1720/180/10/
012160/20121121/125157/1725/90/20/
012160/20121121/125306/1725/1040/10/
012160/20121121/125335/1725/110/20/
012160/20121121/125342/1725/500/20/
012160/20121121/125343/1725/500/20/
012160/20121121/125420/1725/820/10/
012160/20121121/125420/1720/9220/10/
012160/20121121/125427/1720/2620/10/
012160/20121121/125432/1720/540/10/
012160/20121121/125436/1720/1710/10/
012160/20121121/125506/1725/510/20/
012160/20121121/125537/1725/600/10/
012160/20121121/125539/1725/520/10/
012160/20121121/125545/1725/190/10/
012160/20121121/125743/1725/90/20/
012160/20121121/125749/1725/90/20/
012160/20121121/125759/1720/590/10/
012160/20121121/125759/1720/5070/10/
012160/20121121/125804/1720/2000/10/
012160/20121121/125814/1720/1710/10/
012160/20121121/125818/1720/600/10/
012160/20121121/125905/1725/170/20/
012160/20121121/125937/1720/2000/10/
012160/20121121/125958/1720/310/10/
012160/20121121/130015/1720/120/10/
012160/20121121/130059/1720/610/10/
012160/20121121/130059/1715/9530/10/
012160/20121121/130059/1710/19400/10/
012160/20121121/130104/1710/320/20/
012160/20121121/130107/1710/520/20/
012160/20121121/130111/1710/180/20/
012160/20121121/130137/1710/660/10/
012160/20121121/130137/1705/340/10/
012160/20121121/130209/1710/110/20/
012160/20121121/130222/1710/550/10/
012160/20121121/130258/1710/1780/10/
012160/20121121/130308/1710/100/20/
012160/20121121/130309/1710/2000/20/
012160/20121121/130310/1710/150/20/
012160/20121121/130312/1710/1000/20/
012160/20121121/130425/1710/500/10/
012160/20121121/130430/1710/430/10/
012160/20121121/130447/1710/160/10/
012160/20121121/130448/1715/1000/20/
012160/20121121/130459/1715/1000/10/
012160/20121121/130518/1710/170/10/
012160/20121121/130519/1715/500/20/
012160/20121121/130522/1715/5750/20/
012160/20121121/130542/1715/300/10/
012160/20121121/130543/1715/500/10/
012160/20121121/130601/1715/810/10/
012160/20121121/130608/1720/1000/20/
012160/20121121/130658/1720/1430/10/
012160/20121121/130703/1720/590/20/
012160/20121121/130705/1720/410/10/
012160/20121121/130801/1720/530/20/
012160/20121121/130824/1725/180/20/
012160/20121121/130903/1720/540/10/
012160/20121121/130910/1720/410/20/
012160/20121121/130911/1720/90/20/
012160/20121121/130919/1720/1000/10/
012160/20121121/130925/1720/300/10/
012160/20121121/130928/1720/610/10/
012160/20121121/130956/1720/1010/20/
012160/20121121/130958/1720/580/20/
012160/20121121/131005/1720/270/10/
012160/20121121/131038/1720/600/20/
012160/20121121/131041/1720/760/20/
012160/20121121/131048/1720/960/10/
012160/20121121/131100/1720/100/10/
012160/20121121/131155/1720/500/20/
012160/20121121/131254/1720/1940/20/
012160/20121121/131320/1715/860/10/
012160/20121121/131425/1715/1000/10/
012160/20121121/131426/1715/2230/10/
012160/20121121/131453/1710/1510/10/
012160/20121121/131535/1710/2000/10/
012160/20121121/131540/1710/1360/10/
012160/20121121/131540/1710/1620/10/
012160/20121121/131540/1705/7900/10/
012160/20121121/131540/1700/2010/10/
012160/20121121/131558/1705/1000/10/
012160/20121121/131610/1705/100/10/
012160/20121121/131610/1700/3850/10/
012160/20121121/131627/1700/3210/10/
012160/20121121/131709/1700/2000/10/
012160/20121121/131725/1705/4050/10/
012160/20121121/131725/1705/950/10/
012160/20121121/131742/1705/110/20/
012160/20121121/131813/1700/4300/10/
012160/20121121/131821/1700/700/10/
012160/20121121/131823/1700/1440/10/
012160/20121121/131829/1700/310/20/
012160/20121121/131836/1700/200/20/
012160/20121121/131842/1700/1000/20/
012160/20121121/131907/1700/1080/20/
012160/20121121/131911/1700/500/20/
012160/20121121/131912/1700/280/20/
012160/20121121/131914/1695/300/10/
012160/20121121/131915/1695/600/10/
012160/20121121/131928/1700/530/20/
012160/20121121/131944/1700/1000/20/
012160/20121121/131947/1700/360/20/
012160/20121121/131951/1700/100/10/
012160/20121121/132024/1695/4960/10/
012160/20121121/132048/1695/270/10/
012160/20121121/132049/1750/6050/10/
012160/20121121/132049/1755/3400/10/
012160/20121121/132049/1755/2370/10/
012160/20121121/132051/1700/100/10/
012160/20121121/132108/1710/1000/10/
012160/20121121/132158/1725/120/20/
012160/20121121/132209/1725/100/20/
012160/20121121/132300/1720/550/10/
012160/20121121/132304/1725/1270/20/
012160/20121121/132304/1725/690/10/
012160/20121121/132320/1730/1990/20/
012160/20121121/132332/1735/1450/20/
012160/20121121/132332/1740/4850/20/
012160/20121121/132412/1720/2000/10/
012160/20121121/132426/1720/1150/10/
012160/20121121/132431/1720/300/20/
012160/20121121/132437/1720/550/20/
012160/20121121/132502/1720/750/10/
012160/20121121/132530/1720/700/10/
012160/20121121/132539/1720/180/20/
012160/20121121/132617/1720/320/10/
012160/20121121/132640/1720/1700/10/
012160/20121121/132750/1710/500/10/
012160/20121121/132750/1705/1560/10/
012160/20121121/132750/1700/3130/10/
012160/20121121/132954/1715/530/20/
012160/20121121/133003/1715/500/10/
012160/20121121/133023/1710/700/10/
012160/20121121/133030/1715/650/20/
012160/20121121/133046/1710/5000/10/
012160/20121121/133138/1710/210/10/
012160/20121121/133151/1715/500/20/
012160/20121121/133204/1710/5510/10/
012160/20121121/133204/1705/790/10/
012160/20121121/133204/1705/600/10/
012160/20121121/133332/1705/1000/10/
012160/20121121/133445/1715/100/20/
012160/20121121/133446/1715/540/20/
012160/20121121/133548/1715/90/10/
012160/20121121/133550/1710/1800/10/
012160/20121121/133550/1705/5200/10/
012160/20121121/133825/1715/1430/20/
012160/20121121/133909/1715/220/20/
012160/20121121/134001/1710/1030/10/
012160/20121121/134046/1710/940/10/
012160/20121121/134103/1710/230/10/
012160/20121121/134103/1705/780/10/
012160/20121121/134107/1705/1840/10/
012160/20121121/134117/1705/2020/20/
012160/20121121/134118/1705/100/20/
012160/20121121/134125/1705/380/20/
012160/20121121/134326/1715/5210/20/
012160/20121121/134434/1720/670/20/
012160/20121121/134459/1720/130/20/
012160/20121121/134553/1720/1000/20/
012160/20121121/134600/1720/220/20/
012160/20121121/134600/1730/1030/20/
012160/20121121/134601/1730/1450/10/
012160/20121121/134618/1730/1540/20/
012160/20121121/134618/1730/960/10/
012160/20121121/134641/1720/210/10/
012160/20121121/134716/1720/1400/10/
012160/20121121/134724/1720/1590/20/
012160/20121121/134728/1730/4450/20/
012160/20121121/134728/1735/550/20/
012160/20121121/134745/1730/1970/20/
012160/20121121/134810/1730/200/20/
012160/20121121/134822/1730/1530/20/
012160/20121121/134908/1720/3000/10/
012160/20121121/134945/1720/970/10/
012160/20121121/134955/1720/960/10/
012160/20121121/135009/1720/300/20/
012160/20121121/135020/1720/740/20/
012160/20121121/135422/1720/1470/10/
012160/20121121/135436/1720/1840/10/
012160/20121121/135508/1715/4000/10/
012160/20121121/135514/1715/500/10/
012160/20121121/135517/1715/910/10/
012160/20121121/135532/1710/500/10/
012160/20121121/135534/1715/620/20/
012160/20121121/135600/1715/530/10/
012160/20121121/135607/1715/2560/10/
012160/20121121/135609/1715/290/10/
012160/20121121/135639/1715/1000/20/
012160/20121121/135654/1715/210/20/
012160/20121121/135654/1720/790/20/
012160/20121121/135806/1715/3020/10/
012160/20121121/135840/1715/120/10/
012160/20121121/135840/1710/4080/10/
012160/20121121/135852/1710/280/20/
012160/20121121/135916/1710/140/20/
012160/20121121/135919/1705/3780/10/
012160/20121121/135948/1715/1010/20/
012160/20121121/140144/1710/110/10/
012160/20121121/140223/1720/920/20/
012160/20121121/140251/1720/2060/20/
012160/20121121/140309/1720/90/10/
012160/20121121/140326/1720/920/10/
012160/20121121/140401/1720/200/20/
012160/20121121/140419/1715/2390/10/
012160/20121121/140419/1715/610/20/
012160/20121121/140419/1720/200/20/
012160/20121121/140721/1720/1030/20/
012160/20121121/140818/1720/170/20/
012160/20121121/140818/1725/5050/20/
012160/20121121/140825/1725/680/10/
012160/20121121/140835/1725/140/20/
012160/20121121/140954/1725/110/20/
012160/20121121/141007/1725/100/20/
012160/20121121/141112/1730/90/20/
012160/20121121/141148/1725/2030/10/
012160/20121121/141153/1725/200/20/
012160/20121121/141200/1725/310/20/
012160/20121121/141207/1725/210/20/
012160/20121121/141237/1730/90/20/
012160/20121121/141247/1725/100/20/
012160/20121121/141317/1725/900/20/
012160/20121121/141354/1725/220/20/
012160/20121121/141516/1725/1800/20/
012160/20121121/141527/1725/250/10/
012160/20121121/141551/1725/710/20/
012160/20121121/141559/1730/5000/20/
012160/20121121/141624/1730/4200/20/
012160/20121121/141624/1735/1810/20/
012160/20121121/141725/1730/1020/20/
012160/20121121/141728/1730/400/10/
012160/20121121/141729/1730/580/10/
012160/20121121/141740/1730/220/20/
012160/20121121/141746/1725/500/10/
012160/20121121/141747/1730/200/20/
012160/20121121/141747/1735/300/20/
012160/20121121/141848/1725/1010/10/
012160/20121121/141856/1725/1620/10/
012160/20121121/141913/1725/300/20/
012160/20121121/141926/1725/700/20/
012160/20121121/141940/1725/200/20/
012160/20121121/142120/1725/130/20/
012160/20121121/142128/1725/1000/20/
012160/20121121/142129/1725/270/20/
012160/20121121/142136/1730/100/20/
012160/20121121/142136/1730/2190/20/
012160/20121121/142157/1730/3500/10/
012160/20121121/142201/1730/1000/10/
012160/20121121/142220/1730/300/10/
012160/20121121/142226/1730/570/10/
012160/20121121/142330/1725/900/10/
012160/20121121/142335/1725/500/10/
012160/20121121/142348/1725/430/10/
012160/20121121/142348/1725/170/10/
012160/20121121/142348/1720/5830/10/
012160/20121121/142353/1720/400/10/
012160/20121121/142401/1720/400/10/
012160/20121121/142419/1720/4100/10/
012160/20121121/142448/1720/100/20/
012160/20121121/142451/1720/500/20/
012160/20121121/142514/1720/300/20/
012160/20121121/142548/1720/200/10/
012160/20121121/142624/1710/860/10/
012160/20121121/142640/1710/310/10/
012160/20121121/142640/1710/280/10/
012160/20121121/142654/1705/1040/10/
012160/20121121/142705/1705/2000/10/
012160/20121121/142716/1705/2580/10/
012160/20121121/142717/1710/220/20/
012160/20121121/142730/1710/400/10/
012160/20121121/142824/1710/560/10/
012160/20121121/142858/1710/1000/10/
012160/20121121/142902/1710/300/10/
012160/20121121/142912/1710/110/20/
012160/20121121/142921/1710/1000/20/
012160/20121121/142921/1710/920/20/
012160/20121121/142944/1705/100/10/
012160/20121121/142945/1705/380/10/
012160/20121121/142945/1705/2190/10/
012160/20121121/143027/1705/910/10/
012160/20121121/143034/1705/90/20/
012160/20121121/143145/1705/610/10/
012160/20121121/143145/1700/390/10/
012160/20121121/143208/1700/2990/10/
012160/20121121/143222/1700/1000/10/
012160/20121121/143242/1700/500/10/
012160/20121121/143257/1700/6480/10/
012160/20121121/143318/1700/3850/10/
012160/20121121/143318/1695/13320/10/
012160/20121121/143318/1690/4840/10/
012160/20121121/143319/1690/600/10/
012160/20121121/143336/1695/210/20/
012160/20121121/143338/1690/1480/10/
012160/20121121/143344/1690/790/10/
012160/20121121/143344/1690/3150/20/
012160/20121121/143358/1695/190/20/
012160/20121121/143458/1695/1430/10/
012160/20121121/143458/1690/800/10/
012160/20121121/143539/1705/110/20/
012160/20121121/143633/1700/1000/10/
012160/20121121/143644/1705/4550/20/
012160/20121121/143723/1710/1560/20/
012160/20121121/143733/1710/410/10/
012160/20121121/143803/1710/150/10/
012160/20121121/143828/1710/340/10/
012160/20121121/143834/1705/100/10/
012160/20121121/143850/1705/2000/10/
012160/20121121/143919/1710/530/20/
012160/20121121/143948/1710/2990/20/
012160/20121121/144028/1705/1000/10/
012160/20121121/144041/1705/1800/10/
012160/20121121/144128/1705/1490/10/
012160/20121121/144148/1705/2590/10/
012160/20121121/144211/1705/90/20/
012160/20121121/144218/1700/2200/10/
012160/20121121/144235/1700/200/10/
012160/20121121/144241/1705/1000/20/
012160/20121121/144245/1700/200/10/
012160/20121121/144301/1700/1000/10/
012160/20121121/144304/1700/3000/10/
012160/20121121/144310/1700/300/10/
012160/20121121/144341/1700/300/10/
012160/20121121/144352/1700/2000/10/
012160/20121121/144410/1700/2820/10/
012160/20121121/144415/1700/100/20/
012160/20121121/144420/1700/100/20/
012160/20121121/144421/1700/280/20/
012160/20121121/144424/1700/620/10/
012160/20121121/144503/1705/1080/10/
012160/20121121/144521/1700/4230/10/
012160/20121121/144528/1700/1460/10/
012160/20121121/144530/1700/510/10/
012160/20121121/144542/1695/4040/10/
012160/20121121/144614/1700/8040/20/
012160/20121121/144618/1700/1000/10/
012160/20121121/144649/1700/230/10/
012160/20121121/144651/1700/500/10/
012160/20121121/144657/1700/1000/10/
012160/20121121/144719/1705/990/10/
012160/20121121/144805/1705/250/10/
012160/20121121/144822/1700/22000/10/
012160/20121121/144826/1700/4440/10/
012160/20121121/144834/1700/500/20/
012160/20121121/144835/1700/180/20/
012160/20121121/144840/1700/1520/20/
012160/20121121/144843/1695/1520/10/
012160/20121121/144900/1695/2410/10/
012160/20121121/144900/1700/650/20/
012160/20121121/144907/1700/1000/20/
012160/20121121/144913/1695/100/10/
012160/20121121/144918/1700/440/20/
012160/20121121/144931/1700/4940/10/
012160/20121121/144939/1700/500/10/
012160/20121121/144946/1700/2100/10/
012160/20121121/144950/1700/4720/10/
012160/20121121/144951/1695/1960/10/
012160/20121121/144952/1695/24260/10/
012160/20121121/150000/1700/59560/20/
