012160/20121214/91055/1775/190/10/
012160/20121214/91055/1770/2950/10/
012160/20121214/91055/1765/1560/10/
012160/20121214/91100/1775/180/10/
012160/20121214/91103/1775/500/10/
012160/20121214/91129/1775/440/10/
012160/20121214/91129/1765/2840/10/
012160/20121214/91235/1770/1700/10/
012160/20121214/91237/1770/310/10/
012160/20121214/91314/1770/480/10/
012160/20121214/91352/1775/350/20/
012160/20121214/91411/1775/300/20/
012160/20121214/91438/1775/100/20/
012160/20121214/91450/1770/1510/10/
012160/20121214/91501/1775/1010/20/
012160/20121214/91503/1770/2920/10/
012160/20121214/91513/1770/90/10/
012160/20121214/91518/1770/500/10/
012160/20121214/91520/1770/300/10/
012160/20121214/91520/1765/2230/10/
012160/20121214/91525/1765/270/10/
012160/20121214/91537/1770/170/10/
012160/20121214/91537/1770/340/10/
012160/20121214/91613/1770/210/20/
012160/20121214/91622/1775/290/20/
012160/20121214/91626/1770/1500/10/
012160/20121214/91704/1770/4970/10/
012160/20121214/91709/1770/300/10/
012160/20121214/91721/1770/120/10/
012160/20121214/91734/1770/500/10/
012160/20121214/91748/1770/250/10/
012160/20121214/91757/1770/900/10/
012160/20121214/91819/1770/680/20/
012160/20121214/91831/1770/670/20/
012160/20121214/91844/1770/1790/10/
012160/20121214/91908/1765/3030/10/
012160/20121214/91953/1770/110/20/
012160/20121214/91957/1770/1500/20/
012160/20121214/92008/1770/1040/20/
012160/20121214/92013/1770/100/20/
012160/20121214/92019/1770/8000/20/
012160/20121214/92038/1775/960/20/
012160/20121214/92044/1775/3120/20/
012160/20121214/92048/1775/1270/20/
012160/20121214/92050/1775/1050/20/
012160/20121214/92057/1775/4880/10/
012160/20121214/92058/1775/150/20/
012160/20121214/92103/1775/2020/10/
012160/20121214/92137/1775/250/10/
012160/20121214/92141/1775/6220/10/
012160/20121214/92241/1775/160/20/
012160/20121214/92301/1770/4100/10/
012160/20121214/92309/1770/2910/20/
012160/20121214/92313/1770/1620/20/
012160/20121214/92316/1770/2280/10/
012160/20121214/92319/1770/1000/20/
012160/20121214/92320/1770/640/20/
012160/20121214/92320/1770/1360/10/
012160/20121214/92325/1770/100/20/
012160/20121214/92332/1770/560/20/
012160/20121214/92333/1765/340/10/
012160/20121214/92335/1770/500/20/
012160/20121214/92346/1770/190/20/
012160/20121214/92347/1765/260/10/
012160/20121214/92348/1770/690/20/
012160/20121214/92401/1765/160/10/
012160/20121214/92401/1765/3040/10/
012160/20121214/92410/1765/650/10/
012160/20121214/92413/1765/970/10/
012160/20121214/92413/1770/660/20/
012160/20121214/92420/1765/640/10/
012160/20121214/92421/1765/4880/10/
012160/20121214/92426/1765/1380/10/
012160/20121214/92430/1760/850/10/
012160/20121214/92433/1760/3050/10/
012160/20121214/92439/1765/1760/20/
012160/20121214/92439/1765/660/10/
012160/20121214/92442/1765/200/10/
012160/20121214/92518/1770/3180/20/
012160/20121214/92519/1770/9710/20/
012160/20121214/92520/1770/1240/20/
012160/20121214/92524/1770/6060/10/
012160/20121214/92526/1770/3510/20/
012160/20121214/92527/1775/300/20/
012160/20121214/92527/1775/1220/10/
012160/20121214/92530/1780/8900/20/
012160/20121214/92531/1780/2520/20/
012160/20121214/92531/1780/1000/20/
012160/20121214/92531/1780/2800/20/
012160/20121214/92531/1780/1440/20/
012160/20121214/92532/1785/1880/20/
012160/20121214/92533/1785/120/20/
012160/20121214/92534/1790/2430/20/
012160/20121214/92540/1790/510/20/
012160/20121214/92545/1790/380/20/
012160/20121214/92546/1790/4680/20/
012160/20121214/92546/1790/1000/20/
012160/20121214/92547/1790/2750/20/
012160/20121214/92548/1790/230/20/
012160/20121214/92548/1790/100/20/
012160/20121214/92550/1790/6370/20/
012160/20121214/92550/1790/1220/10/
012160/20121214/92551/1790/2570/10/
012160/20121214/92557/1785/1560/10/
012160/20121214/92559/1785/1000/20/
012160/20121214/92603/1785/640/20/
012160/20121214/92607/1790/5000/20/
012160/20121214/92608/1785/4370/10/
012160/20121214/92610/1785/500/20/
012160/20121214/92610/1785/200/20/
012160/20121214/92623/1780/300/20/
012160/20121214/92634/1780/1000/20/
012160/20121214/92635/1780/840/20/
012160/20121214/92638/1780/1030/20/
012160/20121214/92639/1780/330/20/
012160/20121214/92642/1780/2490/10/
012160/20121214/92645/1780/500/20/
012160/20121214/92645/1780/1290/20/
012160/20121214/92742/1785/2000/20/
012160/20121214/92744/1785/3000/20/
012160/20121214/92745/1785/1500/20/
012160/20121214/92757/1785/720/20/
012160/20121214/92759/1785/470/20/
012160/20121214/92802/1785/800/20/
012160/20121214/92803/1785/2460/10/
012160/20121214/92807/1785/1500/20/
012160/20121214/92815/1790/4770/20/
012160/20121214/92815/1795/230/20/
012160/20121214/92817/1795/330/20/
012160/20121214/92818/1795/670/10/
012160/20121214/92818/1785/5950/10/
012160/20121214/92820/1785/4050/20/
012160/20121214/92820/1795/950/20/
012160/20121214/92824/1795/200/20/
012160/20121214/92827/1795/1670/20/
012160/20121214/92828/1795/270/10/
012160/20121214/92842/1795/5020/20/
012160/20121214/92842/1795/1970/20/
012160/20121214/92843/1800/5000/20/
012160/20121214/92844/1795/1030/10/
012160/20121214/92844/1795/1710/20/
012160/20121214/92844/1800/6290/20/
012160/20121214/92845/1790/3430/10/
012160/20121214/92847/1790/3430/20/
012160/20121214/92847/1790/5000/20/
012160/20121214/92847/1790/180/20/
012160/20121214/92848/1790/160/20/
012160/20121214/92848/1805/800/20/
012160/20121214/92852/1800/1650/10/
012160/20121214/92853/1800/1720/20/
012160/20121214/92853/1805/5130/20/
012160/20121214/92906/1800/240/20/
012160/20121214/92911/1795/1690/10/
012160/20121214/92912/1795/130/10/
012160/20121214/92915/1800/100/20/
012160/20121214/92917/1800/2020/20/
012160/20121214/92919/1795/480/10/
012160/20121214/92919/1790/1480/10/
012160/20121214/92921/1800/460/20/
012160/20121214/92927/1800/1380/20/
012160/20121214/92927/1800/100/20/
012160/20121214/92928/1800/500/20/
012160/20121214/92929/1800/2000/20/
012160/20121214/92929/1795/100/10/
012160/20121214/92929/1800/260/20/
012160/20121214/92931/1805/2000/20/
012160/20121214/92931/1800/200/10/
012160/20121214/92933/1805/1000/20/
012160/20121214/92933/1805/3000/20/
012160/20121214/92934/1805/1010/20/
012160/20121214/92935/1810/240/20/
012160/20121214/92937/1805/4640/10/
012160/20121214/92939/1805/100/20/
012160/20121214/92943/1800/1130/10/
012160/20121214/92947/1800/230/20/
012160/20121214/92948/1800/530/20/
012160/20121214/92949/1800/100/20/
012160/20121214/92949/1800/1480/10/
012160/20121214/92950/1800/2140/20/
012160/20121214/92950/1805/950/20/
012160/20121214/92954/1795/1570/10/
012160/20121214/92954/1795/4480/10/
012160/20121214/92955/1795/3600/20/
012160/20121214/92956/1790/950/10/
012160/20121214/92956/1795/460/20/
012160/20121214/92956/1800/540/20/
012160/20121214/92958/1795/1590/10/
012160/20121214/93000/1795/100/20/
012160/20121214/93001/1795/1110/20/
012160/20121214/93003/1790/1650/10/
012160/20121214/93004/1795/2090/20/
012160/20121214/93004/1790/1120/10/
012160/20121214/93005/1790/3000/10/
012160/20121214/93006/1790/100/10/
012160/20121214/93006/1790/3300/10/
012160/20121214/93007/1795/1350/20/
012160/20121214/93007/1795/650/20/
012160/20121214/93012/1795/790/20/
012160/20121214/93013/1795/500/20/
012160/20121214/93014/1795/400/20/
012160/20121214/93016/1790/3000/10/
012160/20121214/93017/1790/770/10/
012160/20121214/93025/1790/210/20/
012160/20121214/93026/1785/1000/10/
012160/20121214/93030/1785/620/10/
012160/20121214/93032/1785/490/20/
012160/20121214/93037/1790/2530/20/
012160/20121214/93037/1790/470/10/
012160/20121214/93037/1785/2530/10/
012160/20121214/93055/1790/100/20/
012160/20121214/93102/1790/2060/10/
012160/20121214/93107/1790/840/20/
012160/20121214/93111/1790/1960/10/
012160/20121214/93112/1790/450/20/
012160/20121214/93113/1790/260/20/
012160/20121214/93115/1790/3770/10/
012160/20121214/93130/1790/4430/10/
012160/20121214/93149/1785/1050/10/
012160/20121214/93149/1785/8000/10/
012160/20121214/93154/1785/280/10/
012160/20121214/93210/1785/1130/10/
012160/20121214/93247/1790/5060/10/
012160/20121214/93251/1790/790/10/
012160/20121214/93300/1790/180/20/
012160/20121214/93310/1790/1500/10/
012160/20121214/93316/1790/1880/10/
012160/20121214/93317/1790/370/10/
012160/20121214/93335/1790/1500/20/
012160/20121214/93335/1790/380/20/
012160/20121214/93354/1785/460/10/
012160/20121214/93413/1785/2690/10/
012160/20121214/93419/1785/980/10/
012160/20121214/93419/1780/500/10/
012160/20121214/93424/1780/5000/10/
012160/20121214/93437/1785/90/20/
012160/20121214/93438/1780/200/10/
012160/20121214/93438/1780/2330/10/
012160/20121214/93441/1780/1670/10/
012160/20121214/93441/1780/830/20/
012160/20121214/93443/1780/830/10/
012160/20121214/93448/1780/170/20/
012160/20121214/93500/1785/110/20/
012160/20121214/93511/1785/160/10/
012160/20121214/93517/1785/110/20/
012160/20121214/93535/1780/5000/10/
012160/20121214/93539/1780/100/10/
012160/20121214/93543/1780/3090/10/
012160/20121214/93547/1780/960/10/
012160/20121214/93549/1780/1010/10/
012160/20121214/93550/1780/1740/20/
012160/20121214/93555/1780/490/20/
012160/20121214/93611/1785/2200/20/
012160/20121214/93628/1785/3370/20/
012160/20121214/93642/1785/100/20/
012160/20121214/93654/1785/800/20/
012160/20121214/93654/1785/170/20/
012160/20121214/93750/1790/90/20/
012160/20121214/93753/1785/100/10/
012160/20121214/93804/1785/1500/10/
012160/20121214/93808/1785/640/10/
012160/20121214/93817/1785/200/10/
012160/20121214/93841/1785/140/20/
012160/20121214/93850/1785/3260/10/
012160/20121214/93917/1780/1300/10/
012160/20121214/93918/1780/1540/10/
012160/20121214/93927/1780/130/10/
012160/20121214/93936/1780/1580/10/
012160/20121214/93936/1775/4500/10/
012160/20121214/93944/1775/380/10/
012160/20121214/94005/1775/480/10/
012160/20121214/94010/1775/360/20/
012160/20121214/94014/1775/100/10/
012160/20121214/94027/1775/300/10/
012160/20121214/94055/1775/210/10/
012160/20121214/94106/1780/100/20/
012160/20121214/94110/1780/400/20/
012160/20121214/94158/1780/250/10/
012160/20121214/94204/1775/10440/10/
012160/20121214/94204/1775/940/20/
012160/20121214/94220/1770/470/10/
012160/20121214/94227/1770/510/10/
012160/20121214/94231/1770/3600/10/
012160/20121214/94234/1770/470/10/
012160/20121214/94240/1770/740/10/
012160/20121214/94306/1770/150/10/
012160/20121214/94309/1775/100/20/
012160/20121214/94319/1770/8000/10/
012160/20121214/94352/1770/120/10/
012160/20121214/94405/1770/850/10/
012160/20121214/94415/1770/1000/10/
012160/20121214/94441/1770/1500/10/
012160/20121214/94450/1770/7870/10/
012160/20121214/94450/1765/2130/10/
012160/20121214/94547/1765/600/10/
012160/20121214/94613/1770/2100/20/
012160/20121214/94645/1770/510/10/
012160/20121214/94655/1770/1580/20/
012160/20121214/94701/1765/14300/10/
012160/20121214/94724/1765/5030/10/
012160/20121214/94729/1765/280/20/
012160/20121214/94731/1760/400/10/
012160/20121214/94732/1760/1670/10/
012160/20121214/94736/1765/220/20/
012160/20121214/94745/1765/110/20/
012160/20121214/94748/1765/90/20/
012160/20121214/94750/1760/8010/10/
012160/20121214/94822/1770/490/20/
012160/20121214/94836/1770/90/20/
012160/20121214/94841/1765/130/10/
012160/20121214/94843/1770/2010/20/
012160/20121214/94908/1765/320/10/
012160/20121214/94934/1765/3440/10/
012160/20121214/94950/1765/200/20/
012160/20121214/94958/1765/510/20/
012160/20121214/95003/1765/890/20/
012160/20121214/95013/1770/2700/20/
012160/20121214/95039/1770/170/20/
012160/20121214/95040/1770/500/20/
012160/20121214/95049/1770/240/20/
012160/20121214/95106/1770/1000/20/
012160/20121214/95109/1765/700/10/
012160/20121214/95109/1770/130/20/
012160/20121214/95112/1770/1000/10/
012160/20121214/95118/1770/530/10/
012160/20121214/95133/1770/100/20/
012160/20121214/95138/1770/1380/20/
012160/20121214/95215/1770/1110/10/
012160/20121214/95251/1765/3340/10/
012160/20121214/95251/1760/5770/10/
012160/20121214/95301/1765/100/10/
012160/20121214/95320/1765/90/20/
012160/20121214/95346/1765/1540/20/
012160/20121214/95350/1765/130/10/
012160/20121214/95357/1760/3080/10/
012160/20121214/95404/1760/450/10/
012160/20121214/95408/1760/2470/20/
012160/20121214/95409/1760/90/20/
012160/20121214/95411/1760/500/10/
012160/20121214/95429/1760/370/10/
012160/20121214/95500/1760/2130/10/
012160/20121214/95527/1760/110/10/
012160/20121214/95528/1760/2000/10/
012160/20121214/95529/1760/3310/10/
012160/20121214/95548/1760/140/20/
012160/20121214/95601/1760/190/20/
012160/20121214/95603/1760/840/20/
012160/20121214/95610/1760/1170/10/
012160/20121214/95610/1755/4840/10/
012160/20121214/95650/1765/1010/20/
012160/20121214/95707/1760/520/10/
012160/20121214/95724/1765/540/20/
012160/20121214/95731/1765/300/20/
012160/20121214/95734/1765/500/10/
012160/20121214/95735/1770/2000/20/
012160/20121214/95849/1765/220/10/
012160/20121214/95854/1765/1300/10/
012160/20121214/95858/1765/500/20/
012160/20121214/95900/1765/2700/20/
012160/20121214/95936/1765/2310/10/
012160/20121214/95951/1765/200/20/
012160/20121214/95959/1765/180/20/
012160/20121214/100002/1765/240/20/
012160/20121214/100007/1765/500/10/
012160/20121214/100033/1765/2870/10/
012160/20121214/100043/1765/2130/10/
012160/20121214/100120/1765/1010/10/
012160/20121214/100141/1765/1890/10/
012160/20121214/100141/1760/290/10/
012160/20121214/100249/1765/1020/20/
012160/20121214/100256/1765/160/10/
012160/20121214/100317/1765/250/10/
012160/20121214/100355/1765/810/10/
012160/20121214/100439/1765/1000/20/
012160/20121214/100515/1770/100/20/
012160/20121214/100550/1765/500/10/
012160/20121214/100656/1770/90/20/
012160/20121214/100658/1770/120/20/
012160/20121214/100817/1770/1000/20/
012160/20121214/100828/1770/1000/20/
012160/20121214/100829/1770/710/20/
012160/20121214/100836/1765/3060/10/
012160/20121214/100946/1765/150/10/
012160/20121214/101022/1765/100/10/
012160/20121214/101104/1770/490/20/
012160/20121214/101128/1765/6850/10/
012160/20121214/101145/1765/150/10/
012160/20121214/101145/1765/2800/10/
012160/20121214/101159/1765/3790/10/
012160/20121214/101159/1760/220/10/
012160/20121214/101545/1770/2800/20/
012160/20121214/101545/1770/100/10/
012160/20121214/101559/1775/3320/20/
012160/20121214/101559/1775/480/10/
012160/20121214/101606/1780/1520/20/
012160/20121214/101626/1775/100/10/
012160/20121214/101633/1780/760/20/
012160/20121214/101654/1775/100/10/
012160/20121214/101658/1775/180/10/
012160/20121214/101757/1775/660/10/
012160/20121214/101812/1775/110/20/
012160/20121214/101812/1780/550/20/
012160/20121214/101919/1775/1180/10/
012160/20121214/102011/1775/710/20/
012160/20121214/102013/1775/810/10/
012160/20121214/102101/1775/90/20/
012160/20121214/102115/1775/900/20/
012160/20121214/102129/1775/100/10/
012160/20121214/102145/1775/700/20/
012160/20121214/102152/1780/400/20/
012160/20121214/102221/1780/1910/20/
012160/20121214/102221/1780/90/10/
012160/20121214/102246/1780/400/20/
012160/20121214/102251/1780/2000/10/
012160/20121214/102302/1780/370/20/
012160/20121214/102313/1780/1000/20/
012160/20121214/102317/1780/150/20/
012160/20121214/102317/1780/560/20/
012160/20121214/102347/1780/2020/20/
012160/20121214/102348/1785/4870/20/
012160/20121214/102349/1785/1210/10/
012160/20121214/102350/1785/2010/10/
012160/20121214/102350/1785/920/10/
012160/20121214/102410/1785/720/20/
012160/20121214/102412/1785/790/20/
012160/20121214/102426/1785/630/20/
012160/20121214/102430/1785/410/20/
012160/20121214/102433/1785/610/10/
012160/20121214/102434/1785/3160/20/
012160/20121214/102434/1785/170/20/
012160/20121214/102441/1790/6080/20/
012160/20121214/102442/1790/90/20/
012160/20121214/102444/1790/200/20/
012160/20121214/102449/1790/1000/20/
012160/20121214/102505/1790/260/20/
012160/20121214/102509/1790/680/20/
012160/20121214/102510/1790/320/10/
012160/20121214/102520/1790/2000/20/
012160/20121214/102530/1790/2000/20/
012160/20121214/102533/1790/430/20/
012160/20121214/102535/1790/950/20/
012160/20121214/102535/1795/90/20/
012160/20121214/102544/1790/830/10/
012160/20121214/102546/1785/1010/10/
012160/20121214/102559/1785/520/10/
012160/20121214/102614/1780/1670/10/
012160/20121214/102625/1780/410/20/
012160/20121214/102629/1780/170/10/
012160/20121214/102634/1780/90/20/
012160/20121214/102634/1785/590/20/
012160/20121214/102654/1780/3010/20/
012160/20121214/102757/1785/100/20/
012160/20121214/102815/1785/100/20/
012160/20121214/102905/1785/1620/20/
012160/20121214/102928/1785/120/20/
012160/20121214/102950/1785/1040/20/
012160/20121214/102954/1785/550/20/
012160/20121214/102954/1790/450/20/
012160/20121214/103054/1790/550/20/
012160/20121214/103118/1785/2380/20/
012160/20121214/103126/1790/2000/20/
012160/20121214/103133/1790/530/20/
012160/20121214/103136/1785/170/10/
012160/20121214/103143/1780/4100/10/
012160/20121214/103147/1780/3040/10/
012160/20121214/103204/1775/2390/10/
012160/20121214/103240/1780/2640/20/
012160/20121214/103336/1785/180/20/
012160/20121214/103338/1775/500/10/
012160/20121214/103345/1775/2470/10/
012160/20121214/103428/1780/500/20/
012160/20121214/103516/1780/3100/20/
012160/20121214/103610/1780/780/20/
012160/20121214/103636/1780/500/10/
012160/20121214/103644/1780/500/20/
012160/20121214/103711/1780/190/20/
012160/20121214/103742/1780/510/10/
012160/20121214/103752/1780/500/20/
012160/20121214/103759/1780/540/10/
012160/20121214/103803/1780/2670/20/
012160/20121214/103815/1780/1000/20/
012160/20121214/104023/1780/140/20/
012160/20121214/104036/1780/100/20/
012160/20121214/104056/1780/90/20/
012160/20121214/104104/1780/650/20/
012160/20121214/104106/1780/280/20/
012160/20121214/104106/1775/9000/10/
012160/20121214/104413/1775/180/10/
012160/20121214/104444/1775/510/10/
012160/20121214/104532/1775/2350/10/
012160/20121214/104536/1775/880/10/
012160/20121214/104556/1775/1000/20/
012160/20121214/104609/1770/2400/10/
012160/20121214/104614/1770/200/20/
012160/20121214/104907/1770/640/10/
012160/20121214/105008/1770/5010/10/
012160/20121214/105018/1770/190/10/
012160/20121214/105304/1770/5010/10/
012160/20121214/105344/1770/410/10/
012160/20121214/105408/1770/2040/10/
012160/20121214/105423/1770/200/20/
012160/20121214/105423/1770/820/20/
012160/20121214/105651/1770/2470/10/
012160/20121214/105727/1770/540/20/
012160/20121214/105802/1770/570/10/
012160/20121214/105849/1770/110/10/
012160/20121214/105853/1770/100/10/
012160/20121214/105856/1770/640/10/
012160/20121214/105925/1770/200/20/
012160/20121214/105957/1770/770/20/
012160/20121214/105959/1770/3790/20/
012160/20121214/110012/1770/140/10/
012160/20121214/110051/1770/1010/10/
012160/20121214/110223/1770/390/10/
012160/20121214/110448/1770/2010/10/
012160/20121214/110449/1775/400/20/
012160/20121214/110524/1770/310/10/
012160/20121214/110650/1770/2500/10/
012160/20121214/110800/1770/1510/10/
012160/20121214/110832/1770/1010/10/
012160/20121214/110932/1770/1010/10/
012160/20121214/111015/1770/1510/10/
012160/20121214/111144/1770/2640/10/
012160/20121214/111201/1770/2370/10/
012160/20121214/111333/1770/270/10/
012160/20121214/111348/1775/5670/20/
012160/20121214/111350/1775/100/10/
012160/20121214/111416/1780/600/20/
012160/20121214/111423/1780/300/20/
012160/20121214/111449/1780/1430/20/
012160/20121214/111711/1775/2040/10/
012160/20121214/111816/1770/150/10/
012160/20121214/112117/1770/1080/10/
012160/20121214/112137/1770/960/10/
012160/20121214/112158/1775/210/20/
012160/20121214/112240/1770/500/10/
012160/20121214/112312/1775/780/20/
012160/20121214/112346/1775/510/10/
012160/20121214/112449/1775/740/10/
012160/20121214/112511/1775/160/20/
012160/20121214/112521/1775/150/20/
012160/20121214/112531/1780/1130/20/
012160/20121214/112646/1780/2000/20/
012160/20121214/112913/1775/1430/10/
012160/20121214/112935/1775/500/10/
012160/20121214/112958/1770/630/10/
012160/20121214/113056/1775/580/20/
012160/20121214/113148/1775/630/20/
012160/20121214/113207/1775/250/20/
012160/20121214/113217/1775/180/20/
012160/20121214/113226/1775/110/20/
012160/20121214/113340/1775/220/10/
012160/20121214/113414/1780/1390/20/
012160/20121214/113428/1780/930/10/
012160/20121214/113436/1780/120/10/
012160/20121214/113441/1780/150/10/
012160/20121214/113457/1785/170/20/
012160/20121214/113501/1785/220/20/
012160/20121214/113503/1785/1000/20/
012160/20121214/113548/1785/360/20/
012160/20121214/113548/1790/400/20/
012160/20121214/113633/1780/1210/10/
012160/20121214/113635/1780/2000/20/
012160/20121214/113707/1780/4310/20/
012160/20121214/113716/1790/5010/20/
012160/20121214/113716/1790/1350/20/
012160/20121214/113719/1795/100/20/
012160/20121214/113722/1795/160/20/
012160/20121214/113723/1795/760/20/
012160/20121214/113726/1795/1710/20/
012160/20121214/113728/1795/6020/20/
012160/20121214/113729/1795/2120/20/
012160/20121214/113729/1795/1080/20/
012160/20121214/113729/1795/110/20/
012160/20121214/113729/1795/1220/20/
012160/20121214/113731/1795/500/20/
012160/20121214/113732/1800/240/20/
012160/20121214/113733/1800/120/20/
012160/20121214/113736/1800/110/20/
012160/20121214/113737/1800/12860/20/
012160/20121214/113738/1800/110/20/
012160/20121214/113739/1800/110/20/
012160/20121214/113740/1800/500/20/
012160/20121214/113740/1800/300/20/
012160/20121214/113741/1800/7890/20/
012160/20121214/113742/1800/3240/10/
012160/20121214/113749/1800/1140/10/
012160/20121214/113749/1800/700/10/
012160/20121214/113750/1800/100/10/
012160/20121214/113751/1800/100/10/
012160/20121214/113755/1800/560/10/
012160/20121214/113755/1800/5000/10/
012160/20121214/113757/1800/100/10/
012160/20121214/113757/1800/2560/10/
012160/20121214/113757/1800/4320/10/
012160/20121214/113803/1800/200/20/
012160/20121214/113808/1800/90/20/
012160/20121214/113811/1805/1000/20/
012160/20121214/113820/1805/6170/20/
012160/20121214/113830/1805/670/10/
012160/20121214/113833/1805/100/10/
012160/20121214/113834/1805/110/10/
012160/20121214/113834/1805/200/10/
012160/20121214/113835/1805/300/10/
012160/20121214/113835/1805/730/10/
012160/20121214/113838/1805/260/20/
012160/20121214/113844/1805/3030/20/
012160/20121214/113848/1805/2000/10/
012160/20121214/113854/1805/620/20/
012160/20121214/113856/1795/910/10/
012160/20121214/113902/1800/900/20/
012160/20121214/113959/1800/170/20/
012160/20121214/114001/1800/1370/20/
012160/20121214/114004/1795/500/10/
012160/20121214/114023/1795/110/10/
012160/20121214/114038/1790/200/10/
012160/20121214/114042/1790/110/10/
012160/20121214/114103/1790/1850/10/
012160/20121214/114104/1790/200/10/
012160/20121214/114114/1790/500/10/
012160/20121214/114131/1790/110/10/
012160/20121214/114132/1790/200/10/
012160/20121214/114138/1790/500/10/
012160/20121214/114154/1790/740/10/
012160/20121214/114202/1790/500/20/
012160/20121214/114230/1795/2300/20/
012160/20121214/114247/1795/1160/20/
012160/20121214/114443/1795/1040/10/
012160/20121214/114445/1795/100/10/
012160/20121214/114452/1795/440/20/
012160/20121214/114509/1795/140/20/
012160/20121214/114532/1790/250/10/
012160/20121214/114545/1790/500/10/
012160/20121214/114547/1790/260/10/
012160/20121214/114548/1790/330/10/
012160/20121214/114605/1790/200/10/
012160/20121214/114627/1790/110/10/
012160/20121214/114629/1790/700/10/
012160/20121214/114633/1790/120/10/
012160/20121214/114715/1795/200/20/
012160/20121214/114758/1790/230/10/
012160/20121214/114802/1790/250/10/
012160/20121214/114845/1790/510/10/
012160/20121214/114851/1790/130/10/
012160/20121214/114854/1790/3530/10/
012160/20121214/114856/1790/480/10/
012160/20121214/114858/1790/300/10/
012160/20121214/115139/1790/1520/10/
012160/20121214/115211/1790/280/10/
012160/20121214/115231/1795/540/20/
012160/20121214/115241/1790/500/10/
012160/20121214/115354/1790/460/10/
012160/20121214/115417/1790/2120/10/
012160/20121214/115451/1790/200/20/
012160/20121214/115618/1790/140/10/
012160/20121214/115947/1785/990/10/
012160/20121214/120027/1790/890/20/
012160/20121214/120037/1795/540/20/
012160/20121214/120044/1795/2730/20/
012160/20121214/120049/1795/250/20/
012160/20121214/120053/1800/780/20/
012160/20121214/120101/1800/3290/20/
012160/20121214/120103/1800/450/20/
012160/20121214/120117/1805/360/20/
012160/20121214/120134/1805/2000/20/
012160/20121214/120134/1805/670/20/
012160/20121214/120137/1805/3110/20/
012160/20121214/120217/1800/150/20/
012160/20121214/120230/1800/1260/20/
012160/20121214/120300/1800/220/10/
012160/20121214/120318/1800/100/10/
012160/20121214/120351/1800/1330/10/
012160/20121214/120430/1800/1080/20/
012160/20121214/120443/1800/1000/10/
012160/20121214/120444/1800/740/10/
012160/20121214/120454/1800/290/20/
012160/20121214/120501/1800/500/20/
012160/20121214/120501/1800/100/20/
012160/20121214/120504/1800/260/20/
012160/20121214/120505/1800/110/20/
012160/20121214/120520/1800/1040/10/
012160/20121214/120536/1800/240/20/
012160/20121214/120544/1800/460/20/
012160/20121214/120556/1805/3000/20/
012160/20121214/120601/1805/600/20/
012160/20121214/120601/1800/300/10/
012160/20121214/120602/1805/110/20/
012160/20121214/120619/1805/750/20/
012160/20121214/120631/1805/250/10/
012160/20121214/120634/1805/100/20/
012160/20121214/120635/1805/500/20/
012160/20121214/120636/1805/160/20/
012160/20121214/120636/1810/1340/20/
012160/20121214/120640/1805/100/20/
012160/20121214/120701/1810/9340/20/
012160/20121214/120710/1810/1280/20/
012160/20121214/120710/1815/1730/20/
012160/20121214/120720/1810/1000/20/
012160/20121214/120723/1810/1240/10/
012160/20121214/120804/1810/3060/20/
012160/20121214/120805/1810/200/20/
012160/20121214/120815/1810/1000/20/
012160/20121214/120821/1810/610/20/
012160/20121214/120821/1810/1000/10/
012160/20121214/120823/1810/2000/10/
012160/20121214/120823/1810/2360/10/
012160/20121214/120824/1810/90/20/
012160/20121214/120826/1810/600/20/
012160/20121214/120827/1805/200/10/
012160/20121214/120828/1810/550/20/
012160/20121214/120833/1810/500/20/
012160/20121214/120835/1810/3940/20/
012160/20121214/120836/1810/470/20/
012160/20121214/120844/1810/930/10/
012160/20121214/120845/1810/620/20/
012160/20121214/120848/1810/450/20/
012160/20121214/120853/1810/220/10/
012160/20121214/120855/1810/1400/20/
012160/20121214/120859/1810/170/20/
012160/20121214/120859/1810/200/20/
012160/20121214/120905/1810/1610/20/
012160/20121214/120905/1815/8390/20/
012160/20121214/120909/1815/200/20/
012160/20121214/120917/1815/1660/20/
012160/20121214/120920/1815/1270/20/
012160/20121214/120923/1815/2460/20/
012160/20121214/120929/1815/140/20/
012160/20121214/120937/1810/4040/10/
012160/20121214/120939/1810/200/10/
012160/20121214/120940/1810/2000/10/
012160/20121214/120942/1810/130/10/
012160/20121214/120942/1810/600/10/
012160/20121214/120948/1810/180/10/
012160/20121214/120949/1810/140/20/
012160/20121214/120952/1810/1530/10/
012160/20121214/121002/1810/1000/20/
012160/20121214/121049/1805/3060/10/
012160/20121214/121051/1805/340/10/
012160/20121214/121056/1805/860/20/
012160/20121214/121057/1805/140/10/
012160/20121214/121118/1800/2820/10/
012160/20121214/121129/1800/770/20/
012160/20121214/121135/1800/350/20/
012160/20121214/121139/1800/150/10/
012160/20121214/121143/1800/1000/20/
012160/20121214/121144/1800/210/20/
012160/20121214/121152/1800/460/20/
012160/20121214/121204/1805/1400/20/
012160/20121214/121209/1800/2000/10/
012160/20121214/121250/1800/190/10/
012160/20121214/121320/1795/4000/10/
012160/20121214/121408/1800/410/20/
012160/20121214/121418/1800/2250/10/
012160/20121214/121418/1800/470/20/
012160/20121214/121421/1800/280/20/
012160/20121214/121435/1805/3610/20/
012160/20121214/121435/1810/240/20/
012160/20121214/121450/1810/1080/20/
012160/20121214/121455/1810/10380/20/
012160/20121214/121501/1815/5800/20/
012160/20121214/121507/1815/200/10/
012160/20121214/121509/1815/110/20/
012160/20121214/121509/1815/2890/10/
012160/20121214/121511/1815/700/20/
012160/20121214/121513/1815/500/20/
012160/20121214/121516/1815/2100/20/
012160/20121214/121521/1815/800/10/
012160/20121214/121522/1820/10010/20/
012160/20121214/121527/1820/90/20/
012160/20121214/121528/1820/300/20/
012160/20121214/121533/1820/90/20/
012160/20121214/121539/1820/530/20/
012160/20121214/121540/1820/1000/20/
012160/20121214/121542/1820/100/20/
012160/20121214/121543/1820/3000/20/
012160/20121214/121544/1820/100/20/
012160/20121214/121546/1820/1550/20/
012160/20121214/121548/1820/1000/20/
012160/20121214/121552/1820/450/20/
012160/20121214/121559/1820/1040/20/
012160/20121214/121603/1820/1680/20/
012160/20121214/121607/1820/940/10/
012160/20121214/121615/1820/2000/20/
012160/20121214/121618/1820/940/20/
012160/20121214/121618/1825/560/20/
012160/20121214/121621/1820/4000/20/
012160/20121214/121624/1820/1390/20/
012160/20121214/121626/1820/200/20/
012160/20121214/121627/1820/500/20/
012160/20121214/121631/1815/600/10/
012160/20121214/121636/1820/9960/20/
012160/20121214/121636/1825/2600/20/
012160/20121214/121638/1815/500/10/
012160/20121214/121641/1820/610/10/
012160/20121214/121643/1820/2850/10/
012160/20121214/121647/1820/780/20/
012160/20121214/121648/1820/1370/20/
012160/20121214/121648/1825/5030/20/
012160/20121214/121652/1820/180/10/
012160/20121214/121653/1820/500/10/
012160/20121214/121655/1820/2520/20/
012160/20121214/121655/1820/1480/20/
012160/20121214/121701/1820/90/10/
012160/20121214/121704/1820/720/10/
012160/20121214/121704/1820/1500/10/
012160/20121214/121704/1820/1230/10/
012160/20121214/121708/1820/1060/20/
012160/20121214/121710/1820/1720/20/
012160/20121214/121722/1815/3670/10/
012160/20121214/121730/1810/6370/10/
012160/20121214/121750/1815/370/20/
012160/20121214/121752/1810/3140/10/
012160/20121214/121757/1810/2000/10/
012160/20121214/121808/1810/7900/10/
012160/20121214/121816/1810/500/10/
012160/20121214/121817/1810/1500/10/
012160/20121214/121818/1810/2800/10/
012160/20121214/121819/1815/620/20/
012160/20121214/121824/1810/1200/10/
012160/20121214/121824/1805/440/10/
012160/20121214/121835/1810/410/10/
012160/20121214/121839/1810/280/10/
012160/20121214/121844/1810/820/20/
012160/20121214/121848/1810/500/20/
012160/20121214/121849/1810/350/20/
012160/20121214/121857/1810/190/20/
012160/20121214/121901/1810/200/20/
012160/20121214/121906/1810/2770/20/
012160/20121214/121910/1810/5000/10/
012160/20121214/121913/1810/1880/10/
012160/20121214/121936/1810/230/10/
012160/20121214/121936/1810/1760/10/
012160/20121214/121950/1810/100/20/
012160/20121214/122004/1810/6440/20/
012160/20121214/122007/1810/3560/10/
012160/20121214/122019/1810/2440/20/
012160/20121214/122022/1810/310/10/
012160/20121214/122027/1810/1450/20/
012160/20121214/122031/1810/320/20/
012160/20121214/122039/1810/3680/10/
012160/20121214/122048/1810/1000/20/
012160/20121214/122048/1810/370/20/
012160/20121214/122052/1810/820/10/
012160/20121214/122056/1810/1030/10/
012160/20121214/122059/1810/300/10/
012160/20121214/122107/1810/240/10/
012160/20121214/122137/1815/150/20/
012160/20121214/122151/1810/1730/20/
012160/20121214/122156/1810/1270/20/
012160/20121214/122204/1810/530/10/
012160/20121214/122209/1810/470/20/
012160/20121214/122300/1805/5480/10/
012160/20121214/122304/1805/5010/10/
012160/20121214/122319/1800/460/10/
012160/20121214/122332/1800/3000/10/
012160/20121214/122338/1800/450/10/
012160/20121214/122348/1805/2070/20/
012160/20121214/122411/1805/5000/10/
012160/20121214/122423/1805/2000/10/
012160/20121214/122437/1805/7000/10/
012160/20121214/122459/1815/1500/20/
012160/20121214/122504/1815/110/10/
012160/20121214/122509/1815/100/10/
012160/20121214/122515/1815/100/10/
012160/20121214/122521/1820/1740/20/
012160/20121214/122524/1815/730/10/
012160/20121214/122526/1815/220/20/
012160/20121214/122601/1815/1470/20/
012160/20121214/122604/1815/100/20/
012160/20121214/122605/1815/840/10/
012160/20121214/122606/1820/4330/20/
012160/20121214/122610/1820/1000/10/
012160/20121214/122610/1820/670/10/
012160/20121214/122617/1820/3000/20/
012160/20121214/122636/1815/500/10/
012160/20121214/122639/1820/200/20/
012160/20121214/122650/1820/3000/20/
012160/20121214/122651/1820/100/20/
012160/20121214/122655/1820/100/20/
012160/20121214/122659/1820/100/20/
012160/20121214/122703/1815/3000/10/
012160/20121214/122707/1815/2550/10/
012160/20121214/122714/1815/140/20/
012160/20121214/122719/1815/2310/20/
012160/20121214/122719/1815/690/10/
012160/20121214/122741/1810/1010/10/
012160/20121214/122742/1810/1180/10/
012160/20121214/122745/1810/240/20/
012160/20121214/122758/1805/10000/10/
012160/20121214/122826/1810/3590/20/
012160/20121214/122931/1815/1510/20/
012160/20121214/122934/1815/490/20/
012160/20121214/122938/1815/1910/10/
012160/20121214/123009/1810/480/10/
012160/20121214/123028/1815/4080/20/
012160/20121214/123037/1815/960/10/
012160/20121214/123119/1815/5000/20/
012160/20121214/123145/1810/500/10/
012160/20121214/123157/1815/830/20/
012160/20121214/123239/1810/1380/10/
012160/20121214/123246/1810/3040/10/
012160/20121214/123246/1805/7220/10/
012160/20121214/123246/1800/5120/10/
012160/20121214/123331/1805/1280/10/
012160/20121214/123331/1805/500/20/
012160/20121214/123340/1805/3000/20/
012160/20121214/123340/1805/220/20/
012160/20121214/123407/1810/200/20/
012160/20121214/123424/1815/100/20/
012160/20121214/123444/1815/1300/20/
012160/20121214/123447/1815/140/20/
012160/20121214/123448/1815/1910/20/
012160/20121214/123451/1820/220/20/
012160/20121214/123502/1815/250/20/
012160/20121214/123503/1815/220/20/
012160/20121214/123519/1815/200/20/
012160/20121214/123522/1815/530/20/
012160/20121214/123524/1815/260/20/
012160/20121214/123525/1810/520/10/
012160/20121214/123525/1815/120/20/
012160/20121214/123529/1815/160/20/
012160/20121214/123530/1815/100/20/
012160/20121214/123531/1815/1310/20/
012160/20121214/123531/1815/540/20/
012160/20121214/123534/1820/200/20/
012160/20121214/123536/1820/100/20/
012160/20121214/123536/1820/5000/20/
012160/20121214/123536/1820/1390/20/
012160/20121214/123536/1825/4150/20/
012160/20121214/123537/1825/1600/20/
012160/20121214/123541/1825/2180/20/
012160/20121214/123543/1825/100/20/
012160/20121214/123547/1825/620/20/
012160/20121214/123551/1825/1450/20/
012160/20121214/123558/1830/17980/20/
012160/20121214/123558/1835/880/20/
012160/20121214/123600/1835/480/20/
012160/20121214/123600/1830/560/10/
012160/20121214/123605/1835/1370/20/
012160/20121214/123610/1830/1780/10/
012160/20121214/123612/1830/1260/20/
012160/20121214/123612/1830/500/20/
012160/20121214/123615/1830/2620/20/
012160/20121214/123620/1830/2540/20/
012160/20121214/123624/1835/1000/20/
012160/20121214/123626/1830/5000/10/
012160/20121214/123627/1830/2210/10/
012160/20121214/123627/1830/3050/10/
012160/20121214/123629/1830/1000/20/
012160/20121214/123630/1830/6490/20/
012160/20121214/123630/1835/810/20/
012160/20121214/123631/1830/250/10/
012160/20121214/123631/1830/770/10/
012160/20121214/123633/1835/130/20/
012160/20121214/123634/1835/190/20/
012160/20121214/123635/1830/250/10/
012160/20121214/123635/1830/220/10/
012160/20121214/123637/1830/2020/10/
012160/20121214/123638/1830/1410/20/
012160/20121214/123639/1830/500/20/
012160/20121214/123641/1830/300/20/
012160/20121214/123643/1825/1000/10/
012160/20121214/123645/1825/1110/10/
012160/20121214/123655/1820/280/10/
012160/20121214/123700/1820/2480/10/
012160/20121214/123702/1820/500/20/
012160/20121214/123704/1820/140/20/
012160/20121214/123710/1820/3680/10/
012160/20121214/123713/1820/850/20/
012160/20121214/123713/1820/470/20/
012160/20121214/123720/1820/530/10/
012160/20121214/123721/1825/100/20/
012160/20121214/123759/1820/2000/10/
012160/20121214/123803/1820/3000/20/
012160/20121214/123803/1825/1100/20/
012160/20121214/123807/1825/240/10/
012160/20121214/123807/1825/1760/10/
012160/20121214/123807/1830/2760/20/
012160/20121214/123811/1830/3000/20/
012160/20121214/123829/1830/5000/20/
012160/20121214/123835/1830/600/20/
012160/20121214/123843/1830/200/20/
012160/20121214/123855/1825/1230/10/
012160/20121214/123903/1825/290/10/
012160/20121214/123946/1825/120/10/
012160/20121214/123947/1825/350/20/
012160/20121214/123947/1830/650/20/
012160/20121214/124039/1820/1280/10/
012160/20121214/124049/1820/1350/10/
012160/20121214/124051/1820/240/10/
012160/20121214/124057/1820/200/20/
012160/20121214/124109/1820/210/10/
012160/20121214/124120/1820/150/10/
012160/20121214/124125/1825/140/20/
012160/20121214/124127/1820/240/10/
012160/20121214/124209/1820/1360/10/
012160/20121214/124213/1820/1760/10/
012160/20121214/124223/1820/400/20/
012160/20121214/124225/1820/890/20/
012160/20121214/124309/1825/320/20/
012160/20121214/124325/1820/2160/10/
012160/20121214/124328/1820/4190/20/
012160/20121214/124341/1820/740/20/
012160/20121214/124342/1820/1290/20/
012160/20121214/124344/1820/250/10/
012160/20121214/124347/1820/270/20/
012160/20121214/124350/1820/110/20/
012160/20121214/124350/1820/3000/20/
012160/20121214/124355/1820/1890/20/
012160/20121214/124401/1820/300/20/
012160/20121214/124401/1825/3400/20/
012160/20121214/124403/1825/650/20/
012160/20121214/124405/1825/1590/10/
012160/20121214/124405/1825/760/10/
012160/20121214/124417/1830/14630/20/
012160/20121214/124417/1835/5390/20/
012160/20121214/124422/1835/8490/20/
012160/20121214/124422/1840/1510/20/
012160/20121214/124429/1840/460/20/
012160/20121214/124434/1840/180/20/
012160/20121214/124444/1840/700/20/
012160/20121214/124447/1840/840/20/
012160/20121214/124448/1840/3440/20/
012160/20121214/124450/1840/5190/20/
012160/20121214/124451/1840/2000/20/
012160/20121214/124451/1840/670/20/
012160/20121214/124451/1840/750/20/
012160/20121214/124455/1840/2730/10/
012160/20121214/124457/1840/3810/10/
012160/20121214/124501/1840/160/20/
012160/20121214/124501/1835/970/10/
012160/20121214/124509/1835/540/10/
012160/20121214/124515/1835/140/20/
012160/20121214/124517/1835/400/20/
012160/20121214/124519/1835/240/20/
012160/20121214/124521/1835/2200/20/
012160/20121214/124522/1835/710/20/
012160/20121214/124530/1840/110/20/
012160/20121214/124532/1840/500/20/
012160/20121214/124534/1840/5260/20/
012160/20121214/124535/1840/4340/20/
012160/20121214/124535/1840/110/20/
012160/20121214/124537/1840/1000/20/
012160/20121214/124539/1840/2000/20/
012160/20121214/124540/1840/4620/20/
012160/20121214/124541/1840/570/20/
012160/20121214/124542/1840/400/20/
012160/20121214/124542/1840/2630/20/
012160/20121214/124542/1845/370/20/
012160/20121214/124548/1845/5030/20/
012160/20121214/124548/1850/170/20/
012160/20121214/124552/1840/1430/10/
012160/20121214/124552/1835/710/10/
012160/20121214/124552/1840/100/20/
012160/20121214/124554/1840/4000/20/
012160/20121214/124555/1840/1180/20/
012160/20121214/124557/1840/100/20/
012160/20121214/124557/1840/100/20/
012160/20121214/124558/1840/100/20/
012160/20121214/124558/1845/300/20/
012160/20121214/124601/1840/2000/10/
012160/20121214/124602/1840/2680/10/
012160/20121214/124603/1840/1670/20/
012160/20121214/124603/1840/1800/20/
012160/20121214/124606/1840/6100/10/
012160/20121214/124606/1835/3640/10/
012160/20121214/124608/1840/340/10/
012160/20121214/124610/1840/670/10/
012160/20121214/124616/1840/1000/20/
012160/20121214/124617/1835/3000/10/
012160/20121214/124619/1835/2250/10/
012160/20121214/124619/1835/400/20/
012160/20121214/124621/1835/100/10/
012160/20121214/124621/1840/830/20/
012160/20121214/124631/1840/460/20/
012160/20121214/124631/1835/3360/20/
012160/20121214/124640/1830/600/10/
012160/20121214/124645/1830/1640/10/
012160/20121214/124647/1830/2000/10/
012160/20121214/124655/1830/130/20/
012160/20121214/124656/1820/10000/10/
012160/20121214/124657/1830/1340/20/
012160/20121214/124701/1820/460/10/
012160/20121214/124731/1825/290/10/
012160/20121214/124815/1825/710/20/
012160/20121214/124816/1825/500/20/
012160/20121214/124833/1825/700/20/
012160/20121214/124838/1825/1500/10/
012160/20121214/124839/1825/910/10/
012160/20121214/124843/1825/1090/20/
012160/20121214/124851/1825/270/10/
012160/20121214/124857/1825/1120/10/
012160/20121214/124910/1820/2230/10/
012160/20121214/124910/1820/3000/20/
012160/20121214/124920/1820/1000/20/
012160/20121214/124927/1820/110/20/
012160/20121214/124930/1820/250/20/
012160/20121214/124932/1820/1480/20/
012160/20121214/124938/1820/610/10/
012160/20121214/124938/1815/1390/10/
012160/20121214/124959/1815/2580/10/
012160/20121214/125015/1815/1010/10/
012160/20121214/125022/1815/500/10/
012160/20121214/125025/1815/100/10/
012160/20121214/125026/1815/500/10/
012160/20121214/125029/1815/100/10/
012160/20121214/125045/1815/900/20/
012160/20121214/125046/1810/5800/10/
012160/20121214/125046/1805/9200/10/
012160/20121214/125056/1805/1050/10/
012160/20121214/125118/1810/680/10/
012160/20121214/125119/1815/2000/20/
012160/20121214/125136/1810/270/10/
012160/20121214/125141/1815/120/20/
012160/20121214/125144/1810/1000/10/
012160/20121214/125147/1810/440/10/
012160/20121214/125158/1810/1540/10/
012160/20121214/125226/1810/1800/10/
012160/20121214/125230/1810/1890/10/
012160/20121214/125232/1810/1000/10/
012160/20121214/125235/1810/2140/10/
012160/20121214/125236/1810/2960/20/
012160/20121214/125238/1810/760/10/
012160/20121214/125239/1810/220/20/
012160/20121214/125249/1810/170/10/
012160/20121214/125300/1810/200/10/
012160/20121214/125311/1810/100/10/
012160/20121214/125314/1810/2620/10/
012160/20121214/125324/1810/570/10/
012160/20121214/125333/1810/700/20/
012160/20121214/125337/1810/110/10/
012160/20121214/125343/1810/780/10/
012160/20121214/125350/1815/1520/20/
012160/20121214/125413/1815/500/20/
012160/20121214/125416/1815/1000/20/
012160/20121214/125418/1815/180/20/
012160/20121214/125439/1820/1030/20/
012160/20121214/125439/1825/500/20/
012160/20121214/125513/1825/300/20/
012160/20121214/125530/1815/1000/10/
012160/20121214/125612/1825/100/20/
012160/20121214/125636/1810/170/10/
012160/20121214/125637/1810/6000/10/
012160/20121214/125638/1810/140/10/
012160/20121214/125639/1810/3690/10/
012160/20121214/125639/1805/16310/10/
012160/20121214/125643/1805/210/10/
012160/20121214/125652/1805/4340/10/
012160/20121214/125656/1805/100/10/
012160/20121214/125659/1805/290/10/
012160/20121214/125702/1805/540/20/
012160/20121214/125717/1800/3020/10/
012160/20121214/125719/1800/500/10/
012160/20121214/125722/1800/230/10/
012160/20121214/125725/1800/2500/10/
012160/20121214/125728/1800/2340/10/
012160/20121214/125732/1800/680/10/
012160/20121214/125733/1800/1630/10/
012160/20121214/125733/1800/1060/20/
012160/20121214/125742/1800/1000/10/
012160/20121214/125745/1800/670/10/
012160/20121214/125754/1805/1660/20/
012160/20121214/125804/1805/510/20/
012160/20121214/125809/1805/2000/20/
012160/20121214/125812/1805/280/20/
012160/20121214/125845/1805/130/10/
012160/20121214/125857/1805/1010/10/
012160/20121214/125914/1805/1070/10/
012160/20121214/125914/1800/940/10/
012160/20121214/125924/1805/110/20/
012160/20121214/125927/1805/270/10/
012160/20121214/125938/1810/1690/20/
012160/20121214/130002/1810/1920/20/
012160/20121214/130002/1815/830/20/
012160/20121214/130206/1810/500/20/
012160/20121214/130215/1810/320/20/
012160/20121214/130246/1810/1000/20/
012160/20121214/130252/1810/140/10/
012160/20121214/130330/1810/400/10/
012160/20121214/130401/1810/340/10/
012160/20121214/130401/1805/1360/10/
012160/20121214/130437/1805/550/10/
012160/20121214/130442/1810/160/20/
012160/20121214/130510/1810/120/20/
012160/20121214/130613/1810/2300/20/
012160/20121214/130617/1810/1480/10/
012160/20121214/130630/1810/170/10/
012160/20121214/130645/1810/110/10/
012160/20121214/130705/1810/3830/10/
012160/20121214/130717/1810/1250/10/
012160/20121214/130722/1810/760/20/
012160/20121214/130733/1810/370/10/
012160/20121214/130757/1805/840/10/
012160/20121214/130854/1805/2340/10/
012160/20121214/130908/1805/480/10/
012160/20121214/130913/1805/200/10/
012160/20121214/130920/1805/460/10/
012160/20121214/130927/1805/320/20/
012160/20121214/130944/1805/3000/10/
012160/20121214/131028/1805/620/10/
012160/20121214/131157/1805/520/10/
012160/20121214/131233/1810/4500/20/
012160/20121214/131233/1810/530/10/
012160/20121214/131234/1810/2020/20/
012160/20121214/131241/1810/1650/10/
012160/20121214/131246/1810/400/20/
012160/20121214/131314/1810/2040/10/
012160/20121214/131317/1805/4560/10/
012160/20121214/131331/1805/1010/10/
012160/20121214/131401/1805/1000/10/
012160/20121214/131401/1805/200/10/
012160/20121214/131401/1800/13480/10/
012160/20121214/131406/1805/2340/10/
012160/20121214/131406/1800/280/10/
012160/20121214/131412/1800/17190/10/
012160/20121214/131413/1800/1800/10/
012160/20121214/131417/1800/4000/10/
012160/20121214/131417/1800/13090/10/
012160/20121214/131419/1800/2000/20/
012160/20121214/131428/1800/660/20/
012160/20121214/131440/1800/1730/20/
012160/20121214/131517/1800/2010/10/
012160/20121214/131601/1800/1290/10/
012160/20121214/131603/1800/2200/10/
012160/20121214/131617/1800/1000/10/
012160/20121214/131623/1800/90/10/
012160/20121214/131639/1800/100/20/
012160/20121214/131654/1800/450/20/
012160/20121214/131706/1795/280/10/
012160/20121214/131723/1800/210/20/
012160/20121214/131741/1800/1000/20/
012160/20121214/131817/1795/5480/10/
012160/20121214/131817/1795/320/20/
012160/20121214/131817/1800/470/20/
012160/20121214/131853/1795/710/10/
012160/20121214/131853/1790/2040/10/
012160/20121214/132000/1790/290/10/
012160/20121214/132004/1790/500/10/
012160/20121214/132005/1790/2440/10/
012160/20121214/132011/1790/2670/10/
012160/20121214/132016/1790/390/10/
012160/20121214/132018/1790/210/20/
012160/20121214/132048/1795/1210/20/
012160/20121214/132049/1795/1200/10/
012160/20121214/132106/1795/800/20/
012160/20121214/132114/1795/200/10/
012160/20121214/132116/1795/1190/20/
012160/20121214/132147/1795/140/20/
012160/20121214/132209/1795/1410/20/
012160/20121214/132302/1795/1010/10/
012160/20121214/132318/1800/1810/20/
012160/20121214/132324/1800/310/20/
012160/20121214/132338/1810/210/20/
012160/20121214/132410/1810/110/20/
012160/20121214/132530/1800/250/10/
012160/20121214/132536/1800/240/10/
012160/20121214/132543/1800/3000/10/
012160/20121214/132630/1800/220/10/
012160/20121214/132640/1795/1840/10/
012160/20121214/132640/1790/160/10/
012160/20121214/132650/1790/550/10/
012160/20121214/132712/1790/800/10/
012160/20121214/132716/1790/4000/10/
012160/20121214/132718/1790/600/10/
012160/20121214/132718/1785/120/10/
012160/20121214/132729/1785/4770/10/
012160/20121214/132729/1780/1400/10/
012160/20121214/132730/1780/3440/10/
012160/20121214/132732/1785/2410/20/
012160/20121214/132736/1790/960/20/
012160/20121214/132752/1790/2020/10/
012160/20121214/132818/1790/90/20/
012160/20121214/132828/1790/200/20/
012160/20121214/132837/1790/110/10/
012160/20121214/132901/1790/1000/20/
012160/20121214/132921/1790/110/20/
012160/20121214/132952/1790/3210/20/
012160/20121214/132958/1790/1670/10/
012160/20121214/133005/1785/2000/10/
012160/20121214/133007/1785/4340/10/
012160/20121214/133008/1785/5000/10/
012160/20121214/133010/1785/670/10/
012160/20121214/133010/1785/1550/10/
012160/20121214/133010/1780/1100/10/
012160/20121214/133020/1780/2730/10/
012160/20121214/133020/1780/1000/10/
012160/20121214/133021/1780/3290/10/
012160/20121214/133031/1790/90/20/
012160/20121214/133118/1780/1110/10/
012160/20121214/133143/1780/920/10/
012160/20121214/133143/1780/6000/10/
012160/20121214/133145/1780/1400/10/
012160/20121214/133152/1780/980/10/
012160/20121214/133152/1775/140/10/
012160/20121214/133153/1780/990/20/
012160/20121214/133156/1780/200/10/
012160/20121214/133157/1780/350/10/
012160/20121214/133159/1780/550/10/
012160/20121214/133202/1780/2300/10/
012160/20121214/133203/1780/1410/10/
012160/20121214/133207/1780/790/10/
012160/20121214/133220/1780/1770/10/
012160/20121214/133222/1780/300/10/
012160/20121214/133222/1780/250/10/
012160/20121214/133222/1780/740/10/
012160/20121214/133244/1775/7760/10/
012160/20121214/133253/1775/4640/10/
012160/20121214/133254/1775/200/10/
012160/20121214/133258/1775/5000/10/
012160/20121214/133300/1775/770/10/
012160/20121214/133301/1775/1200/10/
012160/20121214/133302/1775/1170/10/
012160/20121214/133302/1770/2930/10/
012160/20121214/133302/1775/700/20/
012160/20121214/133303/1770/500/10/
012160/20121214/133314/1770/9810/10/
012160/20121214/133317/1770/600/10/
012160/20121214/133334/1770/670/10/
012160/20121214/133343/1770/4000/10/
012160/20121214/133402/1770/860/10/
012160/20121214/133435/1775/180/10/
012160/20121214/133546/1775/90/10/
012160/20121214/133649/1780/730/10/
012160/20121214/133649/1790/4000/20/
012160/20121214/133651/1790/610/20/
012160/20121214/133714/1790/1540/20/
012160/20121214/133750/1795/380/20/
012160/20121214/133825/1795/3300/20/
012160/20121214/133831/1795/2800/10/
012160/20121214/133917/1790/110/10/
012160/20121214/133934/1790/3090/10/
012160/20121214/133935/1790/100/10/
012160/20121214/133956/1795/2500/20/
012160/20121214/133958/1795/510/20/
012160/20121214/133959/1795/240/20/
012160/20121214/134003/1795/750/20/
012160/20121214/134011/1795/1000/10/
012160/20121214/134048/1795/4140/10/
012160/20121214/134058/1795/1000/20/
012160/20121214/134111/1795/1200/20/
012160/20121214/134117/1795/2000/20/
012160/20121214/134119/1795/400/20/
012160/20121214/134120/1795/120/20/
012160/20121214/134127/1800/1040/20/
012160/20121214/134128/1805/100/20/
012160/20121214/134136/1800/1760/20/
012160/20121214/134143/1800/1500/10/
012160/20121214/134342/1795/220/20/
012160/20121214/134354/1795/720/20/
012160/20121214/134406/1795/450/20/
012160/20121214/134432/1795/500/20/
012160/20121214/134445/1795/130/20/
012160/20121214/134457/1800/170/20/
012160/20121214/134504/1800/200/20/
012160/20121214/134508/1795/150/20/
012160/20121214/134530/1795/600/20/
012160/20121214/134535/1795/250/20/
012160/20121214/134535/1800/250/20/
012160/20121214/134541/1790/400/10/
012160/20121214/134549/1800/100/20/
012160/20121214/134603/1795/500/20/
012160/20121214/134702/1790/1780/10/
012160/20121214/134714/1790/150/20/
012160/20121214/134738/1785/1330/10/
012160/20121214/134741/1790/510/10/
012160/20121214/134758/1785/1000/10/
012160/20121214/134758/1785/1020/20/
012160/20121214/134834/1785/900/10/
012160/20121214/134834/1780/100/10/
012160/20121214/134846/1785/100/10/
012160/20121214/134846/1780/100/10/
012160/20121214/134903/1785/1800/10/
012160/20121214/134906/1785/2000/10/
012160/20121214/134923/1790/1050/20/
012160/20121214/134930/1795/90/20/
012160/20121214/135014/1790/520/10/
012160/20121214/135037/1790/220/10/
012160/20121214/135236/1790/390/10/
012160/20121214/135236/1785/1120/10/
012160/20121214/135303/1785/500/10/
012160/20121214/135314/1785/100/10/
012160/20121214/135334/1785/250/10/
012160/20121214/135352/1785/1000/10/
012160/20121214/135528/1790/1790/10/
012160/20121214/135528/1785/2340/10/
012160/20121214/135528/1780/7780/10/
012160/20121214/135528/1775/6820/10/
012160/20121214/135528/1775/1280/20/
012160/20121214/135618/1780/170/20/
012160/20121214/135631/1775/2870/10/
012160/20121214/135631/1775/960/20/
012160/20121214/135652/1775/1310/10/
012160/20121214/135655/1775/2000/20/
012160/20121214/135712/1775/130/20/
012160/20121214/135725/1775/4330/20/
012160/20121214/135726/1775/250/20/
012160/20121214/135727/1775/1150/20/
012160/20121214/135729/1775/4320/20/
012160/20121214/135730/1775/90/20/
012160/20121214/135754/1775/910/10/
012160/20121214/135854/1775/1650/10/
012160/20121214/135943/1785/100/20/
012160/20121214/140056/1785/1970/20/
012160/20121214/140119/1780/690/10/
012160/20121214/140154/1780/490/10/
012160/20121214/140250/1785/220/20/
012160/20121214/140338/1785/1000/20/
012160/20121214/140346/1785/520/20/
012160/20121214/140600/1785/2020/10/
012160/20121214/140631/1785/150/10/
012160/20121214/140820/1790/1830/20/
012160/20121214/140844/1790/460/10/
012160/20121214/140931/1790/90/10/
012160/20121214/140951/1795/600/20/
012160/20121214/140958/1795/520/20/
012160/20121214/141002/1795/560/20/
012160/20121214/141039/1795/90/20/
012160/20121214/141104/1790/300/10/
012160/20121214/141123/1785/1630/10/
012160/20121214/141123/1780/2050/10/
012160/20121214/141221/1780/510/10/
012160/20121214/141253/1780/830/10/
012160/20121214/141313/1780/110/10/
012160/20121214/141317/1780/500/20/
012160/20121214/141427/1780/1420/10/
012160/20121214/141432/1780/140/20/
012160/20121214/141436/1780/2140/10/
012160/20121214/141456/1780/1000/20/
012160/20121214/141634/1780/870/10/
012160/20121214/141754/1775/5020/10/
012160/20121214/141809/1780/1160/10/
012160/20121214/141815/1780/100/10/
012160/20121214/141821/1780/2750/10/
012160/20121214/141825/1775/7370/10/
012160/20121214/141825/1770/9640/10/
012160/20121214/141831/1770/4830/10/
012160/20121214/141839/1770/2290/10/
012160/20121214/141839/1770/100/20/
012160/20121214/141839/1770/150/20/
012160/20121214/141841/1770/100/20/
012160/20121214/141843/1770/100/20/
012160/20121214/141854/1770/120/10/
012160/20121214/141921/1780/200/20/
012160/20121214/141932/1770/390/10/
012160/20121214/142001/1770/2010/10/
012160/20121214/142025/1770/90/20/
012160/20121214/142055/1770/600/10/
012160/20121214/142055/1765/4710/10/
012160/20121214/142132/1765/10330/10/
012160/20121214/142135/1765/600/10/
012160/20121214/142218/1775/710/20/
012160/20121214/142226/1775/140/20/
012160/20121214/142302/1775/180/20/
012160/20121214/142321/1765/2000/10/
012160/20121214/142340/1765/710/10/
012160/20121214/142352/1770/1000/10/
012160/20121214/142402/1765/6960/10/
012160/20121214/142413/1765/500/10/
012160/20121214/142414/1765/380/10/
012160/20121214/142425/1765/750/10/
012160/20121214/142433/1765/400/10/
012160/20121214/142433/1760/20790/10/
012160/20121214/142441/1760/720/10/
012160/20121214/142458/1760/510/10/
012160/20121214/142657/1760/1490/10/
012160/20121214/142713/1760/1420/10/
012160/20121214/142738/1755/100/10/
012160/20121214/142751/1755/2300/10/
012160/20121214/142758/1755/4600/10/
012160/20121214/142805/1755/740/10/
012160/20121214/142809/1760/1050/20/
012160/20121214/142833/1760/2840/20/
012160/20121214/142836/1760/1010/20/
012160/20121214/142837/1760/1000/20/
012160/20121214/142838/1760/500/20/
012160/20121214/142853/1760/230/10/
012160/20121214/142907/1765/10340/20/
012160/20121214/142920/1765/1060/20/
012160/20121214/142922/1765/500/20/
012160/20121214/142930/1765/1280/20/
012160/20121214/142931/1765/500/20/
012160/20121214/142931/1765/300/20/
012160/20121214/142938/1765/120/20/
012160/20121214/143008/1765/1020/10/
012160/20121214/143231/1770/180/10/
012160/20121214/143246/1770/740/20/
012160/20121214/143441/1770/330/10/
012160/20121214/143524/1770/1100/10/
012160/20121214/143527/1770/130/20/
012160/20121214/143601/1765/350/10/
012160/20121214/143725/1765/670/10/
012160/20121214/143739/1765/1080/10/
012160/20121214/143744/1765/570/10/
012160/20121214/143812/1765/100/20/
012160/20121214/143913/1760/1240/10/
012160/20121214/143920/1760/1230/10/
012160/20121214/143936/1765/280/20/
012160/20121214/143959/1765/200/20/
012160/20121214/144001/1765/1020/10/
012160/20121214/144007/1765/480/20/
012160/20121214/144007/1770/1340/20/
012160/20121214/144138/1765/500/10/
012160/20121214/144140/1765/270/10/
012160/20121214/144155/1765/200/20/
012160/20121214/144200/1765/900/20/
012160/20121214/144238/1765/110/10/
012160/20121214/144238/1760/3250/10/
012160/20121214/144241/1765/1000/10/
012160/20121214/144241/1760/290/10/
012160/20121214/144250/1760/340/10/
012160/20121214/144256/1770/300/20/
012160/20121214/144339/1760/450/10/
012160/20121214/144420/1760/2850/10/
012160/20121214/144423/1755/300/10/
012160/20121214/144442/1765/90/20/
012160/20121214/144446/1755/3000/10/
012160/20121214/144448/1755/4550/10/
012160/20121214/144451/1755/2910/10/
012160/20121214/144452/1755/120/10/
012160/20121214/144452/1755/770/10/
012160/20121214/144453/1755/440/10/
012160/20121214/144454/1755/1650/10/
012160/20121214/144456/1755/8480/10/
012160/20121214/144459/1750/1400/10/
012160/20121214/144459/1755/110/20/
012160/20121214/144500/1755/100/20/
012160/20121214/144501/1755/100/20/
012160/20121214/144502/1750/3000/10/
012160/20121214/144504/1750/3730/10/
012160/20121214/144506/1750/10270/10/
012160/20121214/144507/1750/6380/10/
012160/20121214/144507/1750/260/10/
012160/20121214/144508/1750/3460/10/
012160/20121214/144508/1750/2000/10/
012160/20121214/144508/1750/8000/10/
012160/20121214/144519/1755/180/20/
012160/20121214/144521/1755/220/10/
012160/20121214/144532/1755/120/10/
012160/20121214/144534/1750/1730/10/
012160/20121214/144536/1750/2560/10/
012160/20121214/144536/1745/450/10/
012160/20121214/144537/1745/1000/10/
012160/20121214/144538/1745/1370/10/
012160/20121214/144544/1750/1690/10/
012160/20121214/144549/1750/1000/10/
012160/20121214/144553/1750/430/10/
012160/20121214/144553/1745/2580/10/
012160/20121214/144637/1750/1950/10/
012160/20121214/144638/1750/120/20/
012160/20121214/144640/1750/1000/20/
012160/20121214/144649/1750/120/20/
012160/20121214/144651/1745/3000/10/
012160/20121214/144657/1745/2470/10/
012160/20121214/144658/1745/2200/10/
012160/20121214/144703/1745/110/10/
012160/20121214/144712/1750/560/20/
012160/20121214/144726/1750/2030/20/
012160/20121214/144731/1745/2950/10/
012160/20121214/144731/1740/2090/10/
012160/20121214/144737/1750/2440/20/
012160/20121214/144749/1745/1230/10/
012160/20121214/144749/1740/2760/10/
012160/20121214/144812/1745/2730/10/
012160/20121214/144816/1745/330/10/
012160/20121214/144838/1750/110/20/
012160/20121214/144839/1750/1000/20/
012160/20121214/144839/1750/830/20/
012160/20121214/144849/1755/90/20/
012160/20121214/144915/1755/90/20/
012160/20121214/144921/1750/100/10/
012160/20121214/144924/1750/510/10/
012160/20121214/144925/1750/1510/10/
012160/20121214/144926/1750/810/10/
012160/20121214/144927/1750/330/10/
012160/20121214/144929/1750/110/20/
012160/20121214/144933/1750/2720/20/
012160/20121214/144936/1755/710/20/
012160/20121214/144937/1750/500/10/
012160/20121214/144950/1755/90/20/
012160/20121214/144955/1750/1900/10/
012160/20121214/144957/1745/6120/10/
012160/20121214/144958/1745/330/10/
012160/20121214/150000/1745/47720/20/
