012160/20121115/90000/1845/18050/20/
012160/20121115/90135/1845/1000/20/
012160/20121115/90157/1845/340/20/
012160/20121115/90200/1840/1470/10/
012160/20121115/90210/1840/2000/10/
012160/20121115/90214/1840/220/10/
012160/20121115/90218/1840/1180/10/
012160/20121115/90233/1840/210/20/
012160/20121115/90258/1840/500/20/
012160/20121115/90316/1830/190/10/
012160/20121115/90344/1830/200/10/
012160/20121115/90344/1840/100/20/
012160/20121115/90354/1840/1450/20/
012160/20121115/90404/1840/330/10/
012160/20121115/90449/1840/1000/10/
012160/20121115/90455/1850/500/20/
012160/20121115/90510/1840/500/10/
012160/20121115/90515/1840/2400/10/
012160/20121115/90516/1840/230/20/
012160/20121115/90605/1835/1390/10/
012160/20121115/90615/1830/1000/10/
012160/20121115/90616/1830/790/10/
012160/20121115/90629/1820/500/10/
012160/20121115/90634/1820/1640/10/
012160/20121115/90635/1820/2570/20/
012160/20121115/90649/1815/500/10/
012160/20121115/90703/1815/600/10/
012160/20121115/90726/1820/1000/10/
012160/20121115/90805/1820/800/10/
012160/20121115/90911/1830/290/10/
012160/20121115/90932/1830/860/20/
012160/20121115/91007/1835/200/20/
012160/20121115/91103/1830/1390/10/
012160/20121115/91103/1820/6410/10/
012160/20121115/91229/1825/110/10/
012160/20121115/91229/1820/220/10/
012160/20121115/91230/1820/3820/20/
012160/20121115/91239/1820/120/20/
012160/20121115/91246/1820/12820/20/
012160/20121115/91249/1820/200/20/
012160/20121115/91254/1820/100/20/
012160/20121115/91301/1820/5000/20/
012160/20121115/91301/1820/30810/20/
012160/20121115/91315/1825/970/10/
012160/20121115/91315/1820/19390/10/
012160/20121115/91322/1820/100/20/
012160/20121115/91328/1820/120/20/
012160/20121115/91350/1840/200/20/
012160/20121115/91351/1820/320/10/
012160/20121115/91359/1820/5000/20/
012160/20121115/91359/1820/560/20/
012160/20121115/91424/1830/1000/10/
012160/20121115/91424/1825/380/10/
012160/20121115/91511/1825/620/10/
012160/20121115/91520/1820/5300/10/
012160/20121115/91531/1820/380/20/
012160/20121115/91557/1820/500/20/
012160/20121115/91615/1815/430/10/
012160/20121115/91703/1815/550/10/
012160/20121115/91712/1820/4750/20/
012160/20121115/91712/1820/790/20/
012160/20121115/91721/1820/1250/10/
012160/20121115/91737/1820/280/10/
012160/20121115/91805/1820/1400/10/
012160/20121115/91822/1820/170/10/
012160/20121115/91837/1820/1120/10/
012160/20121115/91922/1820/100/20/
012160/20121115/91959/1820/100/20/
012160/20121115/92021/1820/700/20/
012160/20121115/92041/1815/2060/10/
012160/20121115/92053/1815/2000/10/
012160/20121115/92119/1815/90/10/
012160/20121115/92119/1810/3160/10/
012160/20121115/92212/1810/1760/10/
012160/20121115/92224/1820/360/20/
012160/20121115/92242/1820/440/20/
012160/20121115/92352/1820/1020/20/
012160/20121115/92353/1820/3030/20/
012160/20121115/92356/1825/5010/20/
012160/20121115/92356/1830/3990/20/
012160/20121115/92358/1830/360/20/
012160/20121115/92406/1830/670/20/
012160/20121115/92412/1835/470/20/
012160/20121115/92415/1840/1500/20/
012160/20121115/92419/1845/310/20/
012160/20121115/92422/1845/110/20/
012160/20121115/92426/1845/450/20/
012160/20121115/92427/1845/500/20/
012160/20121115/92432/1845/300/20/
012160/20121115/92440/1845/90/20/
012160/20121115/92445/1845/910/10/
012160/20121115/92505/1845/1060/20/
012160/20121115/92521/1845/2020/20/
012160/20121115/92527/1845/500/20/
012160/20121115/92527/1845/1240/20/
012160/20121115/92540/1850/1110/20/
012160/20121115/92549/1855/500/20/
012160/20121115/92612/1850/180/20/
012160/20121115/92618/1850/1400/20/
012160/20121115/92622/1855/1180/20/
012160/20121115/92622/1855/830/10/
012160/20121115/92623/1855/370/20/
012160/20121115/92625/1855/230/10/
012160/20121115/92629/1855/5000/20/
012160/20121115/92634/1860/750/20/
012160/20121115/92635/1860/1470/20/
012160/20121115/92644/1865/2000/20/
012160/20121115/92650/1865/1060/20/
012160/20121115/92650/1865/520/20/
012160/20121115/92655/1860/1590/10/
012160/20121115/92658/1860/690/20/
012160/20121115/92701/1860/1000/20/
012160/20121115/92703/1860/660/20/
012160/20121115/92703/1860/1340/10/
012160/20121115/92705/1860/600/20/
012160/20121115/92707/1860/200/20/
012160/20121115/92707/1860/550/20/
012160/20121115/92710/1860/500/20/
012160/20121115/92715/1860/2800/20/
012160/20121115/92715/1860/200/20/
012160/20121115/92716/1860/500/20/
012160/20121115/92731/1855/200/10/
012160/20121115/92733/1850/500/10/
012160/20121115/92738/1850/100/20/
012160/20121115/92739/1850/3000/20/
012160/20121115/92741/1850/1400/20/
012160/20121115/92749/1850/6160/10/
012160/20121115/92753/1850/100/20/
012160/20121115/92753/1850/500/20/
012160/20121115/92756/1850/1170/20/
012160/20121115/92758/1850/1280/20/
012160/20121115/92802/1850/500/10/
012160/20121115/92812/1850/500/10/
012160/20121115/92816/1845/200/10/
012160/20121115/92821/1850/500/20/
012160/20121115/92821/1850/4000/20/
012160/20121115/92821/1850/940/20/
012160/20121115/92821/1850/1180/20/
012160/20121115/92837/1850/170/20/
012160/20121115/92850/1850/300/20/
012160/20121115/92856/1845/1000/10/
012160/20121115/92905/1845/1780/10/
012160/20121115/92910/1840/750/10/
012160/20121115/92931/1840/440/10/
012160/20121115/92934/1845/3230/20/
012160/20121115/92934/1850/1770/20/
012160/20121115/92952/1845/100/10/
012160/20121115/93017/1840/1340/10/
012160/20121115/93017/1835/1350/10/
012160/20121115/93017/1830/1610/10/
012160/20121115/93107/1845/120/20/
012160/20121115/93108/1845/2310/20/
012160/20121115/93121/1845/1320/20/
012160/20121115/93127/1845/1760/20/
012160/20121115/93147/1845/240/10/
012160/20121115/93242/1845/100/20/
012160/20121115/93317/1845/680/20/
012160/20121115/93343/1845/980/10/
012160/20121115/93523/1840/550/10/
012160/20121115/93523/1850/200/20/
012160/20121115/93546/1840/190/10/
012160/20121115/93610/1835/90/10/
012160/20121115/93610/1840/150/20/
012160/20121115/93633/1840/300/10/
012160/20121115/93639/1840/130/20/
012160/20121115/93651/1835/690/10/
012160/20121115/93718/1835/450/10/
012160/20121115/93826/1830/130/10/
012160/20121115/93929/1835/2080/20/
012160/20121115/93931/1835/490/20/
012160/20121115/94024/1840/600/20/
012160/20121115/94107/1845/310/20/
012160/20121115/94140/1840/390/10/
012160/20121115/94158/1835/1710/10/
012160/20121115/94158/1830/2930/10/
012160/20121115/94206/1830/2000/20/
012160/20121115/94206/1840/250/20/
012160/20121115/94233/1840/310/20/
012160/20121115/94319/1830/2310/10/
012160/20121115/94334/1830/1280/20/
012160/20121115/94513/1830/910/10/
012160/20121115/94513/1830/670/20/
012160/20121115/94534/1830/1010/20/
012160/20121115/94619/1830/310/20/
012160/20121115/94743/1835/4010/10/
012160/20121115/95133/1835/210/20/
012160/20121115/95417/1830/200/10/
012160/20121115/95608/1830/960/10/
012160/20121115/95731/1835/100/20/
012160/20121115/95817/1830/880/10/
012160/20121115/95854/1830/3170/10/
012160/20121115/95914/1830/2300/20/
012160/20121115/95944/1825/4590/10/
012160/20121115/95944/1820/6790/10/
012160/20121115/100005/1820/940/10/
012160/20121115/100126/1820/820/10/
012160/20121115/100156/1820/760/20/
012160/20121115/100235/1820/200/20/
012160/20121115/100247/1820/100/20/
012160/20121115/100253/1820/720/20/
012160/20121115/100253/1825/1000/20/
012160/20121115/100253/1830/2160/20/
012160/20121115/100339/1825/1000/20/
012160/20121115/100522/1825/110/20/
012160/20121115/100529/1815/300/10/
012160/20121115/100543/1820/100/10/
012160/20121115/100604/1820/100/20/
012160/20121115/100645/1820/100/20/
012160/20121115/100732/1815/4500/10/
012160/20121115/100732/1815/2370/10/
012160/20121115/100904/1810/2700/10/
012160/20121115/100905/1810/270/10/
012160/20121115/100906/1810/710/10/
012160/20121115/100907/1810/2760/10/
012160/20121115/100907/1810/3640/10/
012160/20121115/100908/1805/370/10/
012160/20121115/100908/1800/4390/10/
012160/20121115/100908/1800/600/10/
012160/20121115/100908/1800/3370/10/
012160/20121115/100923/1800/2510/10/
012160/20121115/100941/1795/370/10/
012160/20121115/100941/1790/2180/10/
012160/20121115/100949/1795/300/10/
012160/20121115/100954/1795/800/10/
012160/20121115/100954/1790/1200/10/
012160/20121115/100957/1790/1000/10/
012160/20121115/101004/1790/1000/10/
012160/20121115/101006/1790/1000/10/
012160/20121115/101008/1790/1000/10/
012160/20121115/101122/1800/930/20/
012160/20121115/101142/1800/490/20/
012160/20121115/101203/1805/1000/20/
012160/20121115/101217/1800/550/10/
012160/20121115/101228/1800/900/10/
012160/20121115/101253/1800/800/20/
012160/20121115/101253/1800/460/10/
012160/20121115/101352/1800/220/20/
012160/20121115/101438/1800/340/20/
012160/20121115/101441/1800/530/10/
012160/20121115/101519/1800/370/20/
012160/20121115/101522/1800/380/10/
012160/20121115/101528/1800/420/20/
012160/20121115/101607/1800/1590/10/
012160/20121115/101629/1800/500/10/
012160/20121115/101638/1800/400/10/
012160/20121115/101640/1800/600/10/
012160/20121115/101643/1800/1490/10/
012160/20121115/101702/1800/220/20/
012160/20121115/102004/1805/150/20/
012160/20121115/102236/1810/2970/10/
012160/20121115/102305/1800/90/10/
012160/20121115/102335/1800/600/10/
012160/20121115/102406/1810/2000/10/
012160/20121115/102528/1805/100/10/
012160/20121115/102528/1800/5900/10/
012160/20121115/102615/1800/100/10/
012160/20121115/102650/1800/220/10/
012160/20121115/102836/1800/2040/10/
012160/20121115/103036/1800/4000/10/
012160/20121115/103112/1800/1550/10/
012160/20121115/103141/1800/700/10/
012160/20121115/103158/1800/1000/20/
012160/20121115/103211/1800/4000/10/
012160/20121115/103231/1800/2070/10/
012160/20121115/103259/1800/280/20/
012160/20121115/103351/1810/100/20/
012160/20121115/103505/1800/4770/10/
012160/20121115/103512/1795/6080/10/
012160/20121115/103619/1805/230/20/
012160/20121115/103731/1805/150/20/
012160/20121115/104145/1800/200/20/
012160/20121115/104210/1790/330/10/
012160/20121115/104412/1795/110/20/
012160/20121115/104420/1800/100/20/
012160/20121115/104502/1790/3070/10/
012160/20121115/104510/1790/950/20/
012160/20121115/104515/1790/530/20/
012160/20121115/104551/1790/770/10/
012160/20121115/104641/1790/350/20/
012160/20121115/104659/1790/200/20/
012160/20121115/104701/1790/2190/20/
012160/20121115/104724/1790/1320/10/
012160/20121115/104724/1785/8680/10/
012160/20121115/104741/1785/6550/10/
012160/20121115/104741/1780/3450/10/
012160/20121115/104833/1780/250/10/
012160/20121115/104848/1780/7020/10/
012160/20121115/104900/1775/6410/10/
012160/20121115/104900/1775/160/10/
012160/20121115/104918/1780/250/10/
012160/20121115/104918/1775/2490/10/
012160/20121115/104918/1770/10560/10/
012160/20121115/104930/1770/100/20/
012160/20121115/104932/1770/150/20/
012160/20121115/104938/1780/210/20/
012160/20121115/105039/1780/2130/10/
012160/20121115/105047/1780/200/20/
012160/20121115/105054/1780/100/20/
012160/20121115/105102/1780/420/20/
012160/20121115/105156/1780/7540/10/
012160/20121115/105201/1800/100/20/
012160/20121115/105216/1775/6850/10/
012160/20121115/105227/1775/230/20/
012160/20121115/105434/1785/670/10/
012160/20121115/105444/1780/1020/10/
012160/20121115/105521/1780/1380/20/
012160/20121115/105544/1780/430/20/
012160/20121115/105628/1780/1080/10/
012160/20121115/105639/1775/670/10/
012160/20121115/105701/1780/510/20/
012160/20121115/105709/1780/710/20/
012160/20121115/105712/1780/1010/20/
012160/20121115/105827/1795/1660/20/
012160/20121115/105902/1795/340/20/
012160/20121115/105944/1795/210/10/
012160/20121115/105951/1800/170/20/
012160/20121115/110011/1800/1690/20/
012160/20121115/110011/1805/90/20/
012160/20121115/110013/1805/3790/10/
012160/20121115/110235/1790/160/10/
012160/20121115/110235/1780/1510/10/
012160/20121115/110541/1800/400/20/
012160/20121115/110722/1800/150/20/
012160/20121115/110737/1800/1600/10/
012160/20121115/110740/1800/1030/10/
012160/20121115/110834/1800/610/20/
012160/20121115/110924/1785/450/10/
012160/20121115/110935/1780/9740/10/
012160/20121115/110948/1785/90/20/
012160/20121115/111013/1775/12100/10/
012160/20121115/111013/1775/250/20/
012160/20121115/111059/1790/300/20/
012160/20121115/111250/1785/410/10/
012160/20121115/111300/1785/500/20/
012160/20121115/111331/1785/110/20/
012160/20121115/111336/1780/100/10/
012160/20121115/111355/1780/6030/10/
012160/20121115/111410/1780/1780/20/
012160/20121115/111615/1795/200/20/
012160/20121115/111851/1795/740/20/
012160/20121115/112032/1790/110/10/
012160/20121115/112040/1790/100/20/
012160/20121115/112045/1790/100/10/
012160/20121115/112222/1790/850/20/
012160/20121115/112246/1790/500/20/
012160/20121115/112314/1790/890/20/
012160/20121115/112347/1785/100/10/
012160/20121115/112445/1790/530/20/
012160/20121115/112534/1785/1180/10/
012160/20121115/112602/1785/110/10/
012160/20121115/112634/1790/300/20/
012160/20121115/112727/1795/600/20/
012160/20121115/112828/1795/500/10/
012160/20121115/113108/1795/210/20/
012160/20121115/113250/1795/500/20/
012160/20121115/113406/1790/4770/10/
012160/20121115/113406/1785/2130/10/
012160/20121115/113726/1790/110/10/
012160/20121115/113924/1790/100/10/
012160/20121115/113952/1790/110/10/
012160/20121115/114349/1800/100/20/
012160/20121115/114436/1790/2300/10/
012160/20121115/114452/1785/3370/10/
012160/20121115/114502/1785/920/20/
012160/20121115/114710/1785/860/20/
012160/20121115/114721/1785/1650/20/
012160/20121115/115001/1785/1520/10/
012160/20121115/115010/1780/7670/10/
012160/20121115/115010/1780/180/20/
012160/20121115/115404/1780/210/10/
012160/20121115/115404/1775/2090/10/
012160/20121115/115405/1775/3520/20/
012160/20121115/115412/1775/180/20/
012160/20121115/115551/1775/1000/10/
012160/20121115/115923/1795/210/20/
012160/20121115/115923/1795/1000/10/
012160/20121115/120240/1780/350/10/
012160/20121115/120240/1780/1950/20/
012160/20121115/120251/1780/1000/10/
012160/20121115/120333/1780/510/20/
012160/20121115/120400/1780/1690/20/
012160/20121115/120902/1780/1530/10/
012160/20121115/120903/1780/1990/20/
012160/20121115/120926/1780/2000/20/
012160/20121115/121005/1780/1030/20/
012160/20121115/121009/1780/100/20/
012160/20121115/121017/1780/100/20/
012160/20121115/121024/1780/1000/20/
012160/20121115/121031/1780/310/20/
012160/20121115/121232/1785/510/20/
012160/20121115/121237/1785/200/20/
012160/20121115/121310/1785/100/10/
012160/20121115/121310/1780/4650/10/
012160/20121115/121327/1780/100/20/
012160/20121115/121328/1780/220/20/
012160/20121115/121331/1780/510/10/
012160/20121115/121348/1780/280/10/
012160/20121115/121435/1780/1290/20/
012160/20121115/121443/1780/100/20/
012160/20121115/121444/1775/2000/10/
012160/20121115/121510/1775/9740/10/
012160/20121115/121520/1780/610/20/
012160/20121115/121529/1780/1440/10/
012160/20121115/121904/1780/250/20/
012160/20121115/121907/1780/140/20/
012160/20121115/122007/1780/1110/20/
012160/20121115/122105/1780/660/20/
012160/20121115/122143/1780/1410/20/
012160/20121115/122220/1780/360/20/
012160/20121115/122224/1780/500/20/
012160/20121115/122252/1780/1040/20/
012160/20121115/122314/1780/1500/20/
012160/20121115/122340/1780/1000/20/
012160/20121115/122343/1780/1110/20/
012160/20121115/122537/1780/110/10/
012160/20121115/122647/1780/3470/20/
012160/20121115/122848/1785/100/20/
012160/20121115/123233/1780/3860/10/
012160/20121115/123304/1780/1000/20/
012160/20121115/123345/1780/940/20/
012160/20121115/123641/1780/150/10/
012160/20121115/123705/1790/1000/20/
012160/20121115/123936/1780/5530/10/
012160/20121115/124007/1780/1000/20/
012160/20121115/124035/1780/1980/20/
012160/20121115/124319/1790/1570/20/
012160/20121115/124449/1780/1080/20/
012160/20121115/125005/1775/1530/10/
012160/20121115/125016/1775/990/10/
012160/20121115/125033/1775/3610/10/
012160/20121115/125033/1770/11520/10/
012160/20121115/125104/1770/2640/20/
012160/20121115/125107/1770/370/20/
012160/20121115/125114/1770/2010/10/
012160/20121115/125200/1770/420/10/
012160/20121115/125208/1770/1210/20/
012160/20121115/125212/1770/2000/10/
012160/20121115/125225/1770/2000/10/
012160/20121115/125318/1770/500/10/
012160/20121115/125553/1770/1540/10/
012160/20121115/125609/1770/300/20/
012160/20121115/125613/1770/100/20/
012160/20121115/125622/1770/110/20/
012160/20121115/125806/1770/330/10/
012160/20121115/125842/1770/370/10/
012160/20121115/125915/1770/100/20/
012160/20121115/125935/1770/100/20/
012160/20121115/130000/1770/100/20/
012160/20121115/130013/1765/8000/10/
012160/20121115/130013/1765/780/10/
012160/20121115/130225/1765/500/20/
012160/20121115/130229/1765/160/20/
012160/20121115/130317/1765/4900/10/
012160/20121115/130317/1760/6400/10/
012160/20121115/130323/1760/2700/10/
012160/20121115/130331/1760/1910/10/
012160/20121115/130331/1755/17410/10/
012160/20121115/130449/1760/1010/20/
012160/20121115/130501/1760/1010/20/
012160/20121115/130512/1760/2200/10/
012160/20121115/130514/1760/3660/10/
012160/20121115/130514/1755/8160/10/
012160/20121115/130514/1750/5750/10/
012160/20121115/130514/1750/1480/10/
012160/20121115/130550/1760/500/20/
012160/20121115/130711/1760/200/10/
012160/20121115/130842/1760/230/10/
012160/20121115/131057/1760/400/10/
012160/20121115/131100/1760/310/20/
012160/20121115/131107/1760/90/20/
012160/20121115/131149/1760/340/10/
012160/20121115/131149/1755/3100/10/
012160/20121115/131149/1750/1570/10/
012160/20121115/131432/1755/650/10/
012160/20121115/131447/1755/520/20/
012160/20121115/131450/1755/180/20/
012160/20121115/131505/1755/760/10/
012160/20121115/131505/1750/4250/10/
012160/20121115/131539/1750/4820/10/
012160/20121115/131652/1750/400/10/
012160/20121115/131656/1750/4000/10/
012160/20121115/131724/1750/1650/10/
012160/20121115/131747/1750/530/10/
012160/20121115/131756/1750/190/10/
012160/20121115/131758/1750/350/20/
012160/20121115/131920/1755/120/20/
012160/20121115/131927/1750/1090/10/
012160/20121115/131937/1750/1610/10/
012160/20121115/131947/1750/1310/20/
012160/20121115/131947/1745/500/10/
012160/20121115/131950/1745/500/10/
012160/20121115/132015/1750/750/20/
012160/20121115/132049/1750/100/20/
012160/20121115/132111/1750/3000/20/
012160/20121115/132111/1750/890/20/
012160/20121115/132115/1750/110/20/
012160/20121115/132306/1750/1040/10/
012160/20121115/132530/1750/2510/10/
012160/20121115/132551/1750/5710/20/
012160/20121115/132601/1750/1810/20/
012160/20121115/132609/1750/480/10/
012160/20121115/132746/1760/1160/20/
012160/20121115/133141/1760/210/20/
012160/20121115/133152/1760/300/20/
012160/20121115/133238/1760/100/20/
012160/20121115/133333/1755/330/10/
012160/20121115/133431/1755/90/20/
012160/20121115/133607/1755/550/20/
012160/20121115/133711/1755/3050/10/
012160/20121115/133819/1760/1030/20/
012160/20121115/133851/1760/520/10/
012160/20121115/133932/1760/1010/10/
012160/20121115/133947/1760/140/10/
012160/20121115/133954/1760/160/20/
012160/20121115/134025/1755/1030/10/
012160/20121115/134051/1755/370/10/
012160/20121115/134123/1765/1410/20/
012160/20121115/134141/1765/5000/10/
012160/20121115/134143/1765/2400/10/
012160/20121115/134143/1765/1000/10/
012160/20121115/134150/1765/1010/10/
012160/20121115/134224/1770/90/20/
012160/20121115/134335/1765/920/10/
012160/20121115/134407/1765/90/20/
012160/20121115/134440/1765/150/20/
012160/20121115/134541/1760/3360/10/
012160/20121115/134615/1755/150/10/
012160/20121115/134712/1760/290/20/
012160/20121115/134819/1760/850/20/
012160/20121115/134823/1760/110/20/
012160/20121115/135029/1760/170/20/
012160/20121115/135032/1760/340/20/
012160/20121115/135135/1760/500/20/
012160/20121115/135201/1760/410/10/
012160/20121115/135229/1760/90/20/
012160/20121115/135249/1760/510/20/
012160/20121115/135306/1760/510/10/
012160/20121115/135345/1760/500/10/
012160/20121115/135536/1765/1030/20/
012160/20121115/135659/1765/1200/20/
012160/20121115/140001/1765/210/20/
012160/20121115/140026/1765/500/20/
012160/20121115/140039/1765/290/20/
012160/20121115/140145/1770/130/20/
012160/20121115/140145/1770/390/20/
012160/20121115/140301/1770/1010/20/
012160/20121115/140338/1770/1590/20/
012160/20121115/140355/1770/3010/10/
012160/20121115/140420/1770/360/10/
012160/20121115/140552/1765/1000/10/
012160/20121115/140746/1770/1290/20/
012160/20121115/140756/1770/800/10/
012160/20121115/140812/1770/200/20/
012160/20121115/141448/1770/450/10/
012160/20121115/141644/1770/110/10/
012160/20121115/141653/1765/3610/10/
012160/20121115/141709/1760/5310/10/
012160/20121115/141732/1760/3700/20/
012160/20121115/141803/1760/430/10/
012160/20121115/141844/1760/1000/10/
012160/20121115/141905/1760/730/10/
012160/20121115/141919/1760/190/20/
012160/20121115/142020/1765/2010/20/
012160/20121115/142352/1755/3280/10/
012160/20121115/142352/1755/1870/10/
012160/20121115/142416/1750/2030/10/
012160/20121115/142436/1750/1760/10/
012160/20121115/142500/1750/140/20/
012160/20121115/142548/1745/4040/10/
012160/20121115/142555/1745/880/20/
012160/20121115/142604/1740/9120/10/
012160/20121115/142604/1740/2230/20/
012160/20121115/142607/1740/1980/20/
012160/20121115/142632/1740/370/10/
012160/20121115/142636/1745/400/20/
012160/20121115/142649/1740/700/10/
012160/20121115/142708/1735/260/10/
012160/20121115/142717/1740/130/20/
012160/20121115/142727/1740/190/20/
012160/20121115/142730/1740/300/10/
012160/20121115/142812/1740/600/10/
012160/20121115/142819/1735/100/10/
012160/20121115/142829/1740/110/20/
012160/20121115/142843/1740/200/20/
012160/20121115/142929/1740/920/10/
012160/20121115/142951/1740/190/10/
012160/20121115/142951/1735/140/10/
012160/20121115/143040/1745/90/20/
012160/20121115/143116/1745/2920/20/
012160/20121115/143120/1745/90/10/
012160/20121115/143120/1740/2050/10/
012160/20121115/143126/1740/300/20/
012160/20121115/143221/1750/2000/20/
012160/20121115/143221/1750/1280/10/
012160/20121115/143619/1740/1430/10/
012160/20121115/143619/1735/1140/10/
012160/20121115/143628/1735/6000/10/
012160/20121115/143638/1740/1330/20/
012160/20121115/143735/1745/90/20/
012160/20121115/143825/1745/320/20/
012160/20121115/144000/1740/590/10/
012160/20121115/144016/1740/290/20/
012160/20121115/144034/1745/310/20/
012160/20121115/144114/1735/3980/10/
012160/20121115/144118/1735/610/10/
012160/20121115/144120/1735/580/10/
012160/20121115/144215/1735/570/10/
012160/20121115/144220/1735/510/10/
012160/20121115/144221/1735/2500/10/
012160/20121115/144310/1740/90/20/
012160/20121115/144329/1735/580/10/
012160/20121115/144338/1735/4010/10/
012160/20121115/144349/1735/200/10/
012160/20121115/144431/1735/90/10/
012160/20121115/144431/1730/2690/10/
012160/20121115/144455/1730/1210/10/
012160/20121115/144550/1730/580/10/
012160/20121115/144619/1730/5210/10/
012160/20121115/144619/1725/10580/10/
012160/20121115/144627/1725/940/20/
012160/20121115/144628/1720/1000/10/
012160/20121115/144629/1725/200/20/
012160/20121115/144631/1725/120/20/
012160/20121115/144635/1725/1010/20/
012160/20121115/144637/1725/100/20/
012160/20121115/144638/1725/1540/20/
012160/20121115/144708/1735/220/20/
012160/20121115/144715/1725/1600/10/
012160/20121115/144715/1720/400/10/
012160/20121115/144730/1725/250/10/
012160/20121115/144755/1725/1770/10/
012160/20121115/144755/1720/2250/10/
012160/20121115/144820/1720/2220/10/
012160/20121115/144822/1720/3040/20/
012160/20121115/144822/1730/1970/20/
012160/20121115/144826/1720/400/10/
012160/20121115/144828/1720/100/20/
012160/20121115/144845/1720/1070/10/
012160/20121115/144848/1720/90/20/
012160/20121115/144850/1720/900/20/
012160/20121115/144857/1720/110/10/
012160/20121115/144901/1720/110/20/
012160/20121115/144905/1720/250/20/
012160/20121115/144909/1720/100/20/
012160/20121115/144918/1720/120/20/
012160/20121115/144920/1720/1050/20/
012160/20121115/144921/1720/2270/20/
012160/20121115/144923/1720/1340/10/
012160/20121115/144923/1715/3780/10/
012160/20121115/144928/1720/110/20/
012160/20121115/144940/1720/310/20/
012160/20121115/144953/1720/660/20/
012160/20121115/144956/1720/300/20/
012160/20121115/150000/1720/26430/20/
