045390/20130321/90000/1650/4891/10/
045390/20130321/90045/1650/3695/10/
045390/20130321/90048/1650/2045/10/
045390/20130321/90247/1650/282/20/
045390/20130321/90305/1650/130/20/
045390/20130321/90334/1645/1000/10/
045390/20130321/90345/1645/260/10/
045390/20130321/90346/1650/100/20/
045390/20130321/90422/1650/100/20/
045390/20130321/90427/1650/1200/20/
045390/20130321/90456/1650/506/20/
045390/20130321/90515/1650/1546/10/
045390/20130321/90555/1645/2000/10/
045390/20130321/90601/1645/5360/10/
045390/20130321/90614/1645/100/20/
045390/20130321/90635/1645/2300/10/
045390/20130321/90720/1645/509/10/
045390/20130321/90720/1640/199/10/
045390/20130321/90916/1650/84/20/
045390/20130321/91104/1650/100/20/
045390/20130321/91108/1650/1289/20/
045390/20130321/91135/1650/1511/10/
045390/20130321/91202/1650/288/20/
045390/20130321/91315/1650/200/10/
045390/20130321/91328/1655/300/20/
045390/20130321/91329/1655/300/20/
045390/20130321/91330/1655/300/20/
045390/20130321/91331/1655/300/20/
045390/20130321/91347/1655/100/20/
045390/20130321/91409/1650/915/10/
045390/20130321/91409/1645/1229/10/
045390/20130321/91515/1645/4414/10/
045390/20130321/91529/1645/500/10/
045390/20130321/91924/1650/321/20/
045390/20130321/91938/1655/155/20/
045390/20130321/91938/1660/1885/20/
045390/20130321/92004/1660/3233/20/
045390/20130321/92004/1660/1000/20/
045390/20130321/92013/1660/508/20/
045390/20130321/92015/1660/600/20/
045390/20130321/92023/1660/1000/20/
045390/20130321/92026/1660/469/20/
045390/20130321/92106/1660/711/10/
045390/20130321/92145/1660/2149/10/
045390/20130321/92357/1660/1000/20/
045390/20130321/92607/1660/146/20/
045390/20130321/92609/1660/111/20/
045390/20130321/92620/1660/102/20/
045390/20130321/92641/1660/500/20/
045390/20130321/92649/1655/300/10/
045390/20130321/92701/1655/300/10/
045390/20130321/92857/1655/500/10/
045390/20130321/92907/1655/237/10/
045390/20130321/92916/1655/1000/10/
045390/20130321/92947/1655/170/10/
045390/20130321/93121/1655/95/10/
045390/20130321/93345/1650/771/10/
045390/20130321/93347/1655/469/20/
045390/20130321/93424/1655/3231/20/
045390/20130321/93440/1650/650/10/
045390/20130321/93510/1655/1000/20/
045390/20130321/93559/1655/2000/10/
045390/20130321/93709/1655/4408/10/
045390/20130321/93837/1650/1123/10/
045390/20130321/93840/1650/200/10/
045390/20130321/94006/1650/1700/10/
045390/20130321/94052/1650/5000/10/
045390/20130321/94052/1650/5720/10/
045390/20130321/94226/1650/300/10/
045390/20130321/94503/1645/300/10/
045390/20130321/94516/1645/4000/10/
045390/20130321/94516/1645/5068/10/
045390/20130321/94700/1645/2009/10/
045390/20130321/94700/1645/1531/10/
045390/20130321/94743/1640/101/10/
045390/20130321/94808/1640/1000/10/
045390/20130321/94816/1640/1804/10/
045390/20130321/94906/1645/306/20/
045390/20130321/94912/1640/799/10/
045390/20130321/94922/1645/200/20/
045390/20130321/94922/1640/499/10/
045390/20130321/94928/1640/6793/10/
045390/20130321/94950/1640/100/20/
045390/20130321/94953/1635/300/10/
045390/20130321/94954/1635/1121/10/
045390/20130321/95000/1635/1000/10/
045390/20130321/95000/1635/6842/10/
045390/20130321/95010/1635/500/10/
045390/20130321/95017/1635/3000/10/
045390/20130321/95020/1635/600/10/
045390/20130321/95021/1635/600/10/
045390/20130321/95021/1635/600/10/
045390/20130321/95054/1635/99/20/
045390/20130321/95125/1635/100/20/
045390/20130321/95135/1630/1782/10/
045390/20130321/95137/1630/13153/10/
045390/20130321/95145/1630/580/10/
045390/20130321/95211/1635/100/20/
045390/20130321/95224/1635/100/20/
045390/20130321/95245/1635/1074/20/
045390/20130321/95303/1635/110/20/
045390/20130321/95304/1635/404/20/
045390/20130321/95459/1640/20001/20/
045390/20130321/95519/1640/100/20/
045390/20130321/95535/1640/398/20/
045390/20130321/95600/1640/411/20/
045390/20130321/95639/1640/1005/20/
045390/20130321/95709/1640/1000/20/
045390/20130321/95735/1640/1000/20/
045390/20130321/95744/1640/1020/20/
045390/20130321/95746/1640/500/20/
045390/20130321/95748/1640/500/20/
045390/20130321/100245/1640/1052/20/
045390/20130321/100247/1640/1000/20/
045390/20130321/100255/1640/500/20/
045390/20130321/100302/1640/1001/20/
045390/20130321/100306/1640/1499/20/
045390/20130321/100338/1645/100/20/
045390/20130321/100434/1640/200/10/
045390/20130321/100454/1640/1301/10/
045390/20130321/100706/1640/430/20/
045390/20130321/100733/1640/1000/20/
045390/20130321/100736/1640/307/20/
045390/20130321/101642/1645/160/20/
045390/20130321/101643/1640/200/10/
045390/20130321/101711/1645/100/20/
045390/20130321/101930/1640/100/10/
045390/20130321/102010/1640/500/10/
045390/20130321/102045/1640/100/10/
045390/20130321/102327/1640/2062/10/
045390/20130321/102328/1640/500/10/
045390/20130321/102412/1640/1940/10/
045390/20130321/102523/1635/200/10/
045390/20130321/102542/1640/100/20/
045390/20130321/102704/1635/741/10/
045390/20130321/102718/1635/200/10/
045390/20130321/102727/1640/100/20/
045390/20130321/102738/1635/143/10/
045390/20130321/102838/1635/1016/10/
045390/20130321/102844/1635/400/10/
045390/20130321/102850/1635/500/10/
045390/20130321/102950/1635/1402/10/
045390/20130321/103038/1635/3641/10/
045390/20130321/103054/1635/1800/10/
045390/20130321/103214/1640/1001/20/
045390/20130321/103306/1640/1320/20/
045390/20130321/103338/1640/100/20/
045390/20130321/103749/1640/220/20/
045390/20130321/104011/1640/101/20/
045390/20130321/104036/1635/157/10/
045390/20130321/104250/1635/143/10/
045390/20130321/104653/1640/1802/20/
045390/20130321/104702/1640/817/20/
045390/20130321/104710/1640/1000/20/
045390/20130321/104753/1640/700/20/
045390/20130321/104812/1640/100/20/
045390/20130321/104822/1640/300/20/
045390/20130321/104850/1640/924/20/
045390/20130321/104914/1640/302/20/
045390/20130321/104939/1635/2000/10/
045390/20130321/104952/1640/312/20/
045390/20130321/104954/1640/129/10/
045390/20130321/105017/1635/1500/10/
045390/20130321/105200/1640/101/20/
045390/20130321/105213/1640/100/20/
045390/20130321/105227/1640/100/20/
045390/20130321/105403/1640/1066/20/
045390/20130321/105717/1640/1504/20/
045390/20130321/110227/1640/1200/10/
045390/20130321/110648/1640/501/10/
045390/20130321/110812/1645/500/20/
045390/20130321/110815/1640/1000/10/
045390/20130321/111026/1645/301/20/
045390/20130321/111230/1645/278/20/
045390/20130321/111901/1640/3108/10/
045390/20130321/112003/1640/900/10/
045390/20130321/112119/1640/1071/10/
045390/20130321/112213/1640/3000/10/
045390/20130321/112218/1640/980/10/
045390/20130321/112924/1640/121/10/
045390/20130321/113131/1640/690/10/
045390/20130321/113133/1640/165/10/
045390/20130321/113756/1645/101/20/
045390/20130321/113915/1640/1600/10/
045390/20130321/114250/1640/548/10/
045390/20130321/114520/1640/301/10/
045390/20130321/114602/1640/1000/10/
045390/20130321/114634/1640/2000/10/
045390/20130321/114657/1645/500/20/
045390/20130321/120111/1645/2121/20/
045390/20130321/120123/1645/459/20/
045390/20130321/120715/1645/410/20/
045390/20130321/120800/1640/920/10/
045390/20130321/120802/1645/140/20/
045390/20130321/120957/1640/430/10/
045390/20130321/121110/1640/160/10/
045390/20130321/121903/1640/101/10/
045390/20130321/122006/1645/796/20/
045390/20130321/122016/1645/800/20/
045390/20130321/122037/1645/500/20/
045390/20130321/122220/1645/105/20/
045390/20130321/122700/1645/500/20/
045390/20130321/122925/1640/300/10/
045390/20130321/123035/1640/100/10/
045390/20130321/123319/1640/1408/10/
045390/20130321/124438/1640/503/10/
045390/20130321/124539/1640/400/10/
045390/20130321/124557/1640/2000/10/
045390/20130321/124613/1640/3568/10/
045390/20130321/124701/1640/101/10/
045390/20130321/124916/1640/1028/10/
045390/20130321/124958/1640/164/10/
045390/20130321/125222/1640/100/10/
045390/20130321/125713/1640/1000/10/
045390/20130321/125832/1640/1500/10/
045390/20130321/125917/1640/538/10/
045390/20130321/125956/1640/1462/20/
045390/20130321/130047/1640/6058/10/
045390/20130321/130124/1640/534/20/
045390/20130321/130155/1640/108/20/
045390/20130321/130436/1635/2489/10/
045390/20130321/130536/1640/2400/20/
045390/20130321/130556/1640/570/20/
045390/20130321/130630/1645/100/20/
045390/20130321/130641/1640/600/20/
045390/20130321/131026/1640/600/10/
045390/20130321/131038/1640/400/20/
045390/20130321/131053/1640/600/10/
045390/20130321/131139/1640/300/10/
045390/20130321/131217/1640/210/10/
045390/20130321/131310/1640/654/20/
045390/20130321/131324/1635/4401/10/
045390/20130321/131719/1635/402/10/
045390/20130321/131756/1635/2000/10/
045390/20130321/131759/1640/1000/20/
045390/20130321/131929/1635/590/10/
045390/20130321/132305/1635/3013/10/
045390/20130321/132317/1635/100/10/
045390/20130321/132325/1635/200/10/
045390/20130321/132331/1635/9905/10/
045390/20130321/132400/1635/100/10/
045390/20130321/132408/1635/4522/10/
045390/20130321/132852/1635/640/10/
045390/20130321/133112/1635/1000/10/
045390/20130321/133445/1635/231/10/
045390/20130321/133506/1635/590/10/
045390/20130321/133548/1635/500/10/
045390/20130321/134023/1635/1874/10/
045390/20130321/134113/1635/1100/10/
045390/20130321/134255/1635/100/10/
045390/20130321/134324/1635/697/10/
045390/20130321/134324/1630/2485/10/
045390/20130321/134450/1640/997/20/
045390/20130321/134619/1635/1000/20/
045390/20130321/134630/1635/1029/20/
045390/20130321/134640/1635/295/20/
045390/20130321/134703/1635/300/10/
045390/20130321/134730/1630/700/10/
045390/20130321/134844/1630/3000/10/
045390/20130321/135036/1635/650/10/
045390/20130321/135303/1635/217/20/
045390/20130321/135458/1640/202/20/
045390/20130321/135505/1635/1200/10/
045390/20130321/135655/1635/2220/10/
045390/20130321/135724/1635/500/10/
045390/20130321/135838/1635/123/10/
045390/20130321/135903/1630/2124/10/
045390/20130321/140048/1630/500/10/
045390/20130321/140053/1630/5390/10/
045390/20130321/140058/1630/2380/10/
045390/20130321/140312/1630/187/10/
045390/20130321/140413/1630/1477/10/
045390/20130321/140424/1630/4648/10/
045390/20130321/140429/1630/613/10/
045390/20130321/140429/1630/613/10/
045390/20130321/140429/1630/613/10/
045390/20130321/140544/1630/201/10/
045390/20130321/140559/1630/522/10/
045390/20130321/140644/1630/2000/10/
045390/20130321/140708/1630/2568/10/
045390/20130321/140812/1625/667/10/
045390/20130321/140836/1630/476/20/
045390/20130321/140925/1630/400/20/
045390/20130321/140930/1630/200/20/
045390/20130321/140942/1630/200/20/
045390/20130321/141042/1625/901/10/
045390/20130321/141410/1625/2005/10/
045390/20130321/141517/1630/170/20/
045390/20130321/141540/1630/135/20/
045390/20130321/141638/1630/2020/20/
045390/20130321/141716/1625/961/10/
045390/20130321/141855/1630/132/20/
045390/20130321/142007/1630/720/20/
045390/20130321/142029/1630/4168/20/
045390/20130321/142037/1630/2649/20/
045390/20130321/142055/1630/209/20/
045390/20130321/142233/1635/131/20/
045390/20130321/142244/1635/726/20/
045390/20130321/142640/1630/236/10/
045390/20130321/142659/1630/270/10/
045390/20130321/142909/1630/1345/20/
045390/20130321/142939/1630/208/20/
045390/20130321/143022/1630/130/20/
045390/20130321/143038/1630/501/20/
045390/20130321/143050/1630/371/20/
045390/20130321/143400/1630/639/10/
045390/20130321/143429/1630/100/20/
045390/20130321/143534/1630/200/20/
045390/20130321/143732/1630/1054/20/
045390/20130321/143811/1630/131/20/
045390/20130321/143832/1630/101/20/
045390/20130321/144012/1625/1021/10/
045390/20130321/144038/1630/3681/20/
045390/20130321/144155/1630/5000/20/
045390/20130321/144221/1630/300/20/
045390/20130321/144236/1625/200/10/
045390/20130321/144255/1630/6100/20/
045390/20130321/144258/1630/90/20/
045390/20130321/144304/1630/100/20/
045390/20130321/144313/1630/100/20/
045390/20130321/144324/1630/1000/20/
045390/20130321/144325/1630/759/20/
045390/20130321/144325/1630/613/20/
045390/20130321/144326/1630/500/20/
045390/20130321/144326/1630/613/20/
045390/20130321/144331/1630/757/20/
045390/20130321/144352/1630/803/10/
045390/20130321/144353/1630/1000/20/
045390/20130321/144359/1630/2000/20/
045390/20130321/144401/1630/614/20/
045390/20130321/144411/1630/1000/20/
045390/20130321/144416/1630/383/20/
045390/20130321/144634/1635/1001/20/
045390/20130321/144840/1630/106/10/
045390/20130321/144905/1630/1777/10/
045390/20130321/144946/1630/114/10/
045390/20130321/144956/1635/201/20/
045390/20130321/150000/1620/70597/10/
