045390/20121115/90000/1540/39382/10/
045390/20121115/90005/1550/500/10/
045390/20121115/90007/1540/464/10/
045390/20121115/90044/1550/85/20/
045390/20121115/90120/1550/90/20/
045390/20121115/90137/1555/1005/20/
045390/20121115/90140/1555/100/20/
045390/20121115/90141/1555/100/20/
045390/20121115/90142/1555/645/20/
045390/20121115/90149/1555/800/20/
045390/20121115/90149/1550/1000/10/
045390/20121115/90150/1555/2810/20/
045390/20121115/90151/1555/290/10/
045390/20121115/90151/1550/1310/10/
045390/20121115/90157/1550/200/10/
045390/20121115/90203/1550/700/10/
045390/20121115/90205/1550/1145/10/
045390/20121115/90205/1550/255/10/
045390/20121115/90210/1550/1050/10/
045390/20121115/90211/1550/481/10/
045390/20121115/90211/1545/719/10/
045390/20121115/90227/1550/201/10/
045390/20121115/90232/1550/1000/10/
045390/20121115/90242/1550/404/10/
045390/20121115/90248/1550/600/20/
045390/20121115/90248/1550/402/20/
045390/20121115/90300/1550/102/20/
045390/20121115/90300/1550/247/20/
045390/20121115/90307/1545/803/10/
045390/20121115/90310/1545/2115/10/
045390/20121115/90320/1540/403/10/
045390/20121115/90325/1540/500/10/
045390/20121115/90327/1540/509/10/
045390/20121115/90328/1540/3621/10/
045390/20121115/90331/1535/401/10/
045390/20121115/90335/1535/760/10/
045390/20121115/90337/1535/1880/10/
045390/20121115/90337/1540/1378/20/
045390/20121115/90342/1540/5387/10/
045390/20121115/90343/1540/16105/10/
045390/20121115/90354/1540/505/20/
045390/20121115/90357/1535/501/10/
045390/20121115/90358/1540/100/20/
045390/20121115/90404/1535/801/10/
045390/20121115/90405/1535/6949/10/
045390/20121115/90408/1535/312/20/
045390/20121115/90413/1530/6169/10/
045390/20121115/90417/1530/207/10/
045390/20121115/90438/1540/30040/20/
045390/20121115/90444/1540/434/20/
045390/20121115/90447/1540/506/20/
045390/20121115/90454/1540/1001/20/
045390/20121115/90503/1540/123/20/
045390/20121115/90505/1540/9044/20/
045390/20121115/90521/1545/501/20/
045390/20121115/90600/1545/2050/20/
045390/20121115/90616/1545/428/20/
045390/20121115/90632/1545/905/10/
045390/20121115/90633/1545/1000/10/
045390/20121115/90637/1545/5005/10/
045390/20121115/90650/1545/805/10/
045390/20121115/90701/1545/6005/10/
045390/20121115/90707/1550/1506/20/
045390/20121115/90711/1550/1500/20/
045390/20121115/90718/1550/6692/20/
045390/20121115/90718/1550/254/20/
045390/20121115/90753/1550/2684/20/
045390/20121115/90754/1545/7800/10/
045390/20121115/90817/1550/103/20/
045390/20121115/90824/1550/1000/20/
045390/20121115/90859/1550/154/20/
045390/20121115/90902/1545/100/10/
045390/20121115/90912/1545/6092/10/
045390/20121115/90923/1545/300/20/
045390/20121115/90934/1540/418/10/
045390/20121115/90954/1540/536/10/
045390/20121115/90957/1540/645/10/
045390/20121115/91004/1540/1005/10/
045390/20121115/91009/1540/205/10/
045390/20121115/91011/1545/88/20/
045390/20121115/91015/1540/10146/10/
045390/20121115/91024/1540/305/10/
045390/20121115/91035/1540/8716/10/
045390/20121115/91037/1540/1000/20/
045390/20121115/91041/1535/2000/10/
045390/20121115/91044/1535/1300/10/
045390/20121115/91103/1535/1112/10/
045390/20121115/91116/1540/112/20/
045390/20121115/91141/1540/500/20/
045390/20121115/91143/1535/550/10/
045390/20121115/91146/1535/3485/10/
045390/20121115/91148/1535/600/10/
045390/20121115/91206/1535/1003/10/
045390/20121115/91225/1535/2003/10/
045390/20121115/91238/1535/3490/10/
045390/20121115/91238/1530/1510/10/
045390/20121115/91251/1540/6496/20/
045390/20121115/91251/1540/1092/20/
045390/20121115/91254/1540/300/10/
045390/20121115/91257/1545/1303/20/
045390/20121115/91258/1545/500/20/
045390/20121115/91322/1540/4939/10/
045390/20121115/91322/1535/14631/10/
045390/20121115/91324/1540/609/10/
045390/20121115/91329/1540/391/20/
045390/20121115/91341/1545/107/20/
045390/20121115/91345/1540/608/10/
045390/20121115/91345/1540/1000/20/
045390/20121115/91345/1540/1392/20/
045390/20121115/91350/1540/402/10/
045390/20121115/91411/1540/1102/10/
045390/20121115/91419/1540/1797/10/
045390/20121115/91440/1540/502/10/
045390/20121115/91443/1545/1000/20/
045390/20121115/91454/1545/2000/20/
045390/20121115/91506/1540/1748/10/
045390/20121115/91530/1540/4165/20/
045390/20121115/91535/1540/700/20/
045390/20121115/91536/1540/3387/20/
045390/20121115/91551/1540/1005/10/
045390/20121115/91603/1545/103/20/
045390/20121115/91623/1545/3000/20/
045390/20121115/91626/1540/3000/10/
045390/20121115/91626/1545/745/20/
045390/20121115/91746/1545/388/20/
045390/20121115/91759/1545/1765/10/
045390/20121115/91901/1545/518/20/
045390/20121115/91946/1545/2523/20/
045390/20121115/92015/1540/107/10/
045390/20121115/92034/1545/5003/20/
045390/20121115/92039/1545/739/20/
045390/20121115/92042/1545/512/20/
045390/20121115/92129/1550/8746/20/
045390/20121115/92157/1555/4316/20/
045390/20121115/92205/1555/120/20/
045390/20121115/92210/1555/3580/20/
045390/20121115/92218/1560/1003/20/
045390/20121115/92237/1555/527/20/
045390/20121115/92248/1555/3831/20/
045390/20121115/92248/1555/5672/20/
045390/20121115/92257/1555/703/20/
045390/20121115/92304/1555/1347/20/
045390/20121115/92305/1550/2000/10/
045390/20121115/92317/1555/812/20/
045390/20121115/92333/1560/3384/20/
045390/20121115/92335/1560/200/10/
045390/20121115/92350/1560/206/10/
045390/20121115/92359/1560/4094/10/
045390/20121115/92422/1550/103/10/
045390/20121115/92431/1560/1003/20/
045390/20121115/92439/1560/1000/20/
045390/20121115/92502/1560/100/20/
045390/20121115/92528/1555/1000/10/
045390/20121115/92528/1555/1500/20/
045390/20121115/92541/1560/804/20/
045390/20121115/92546/1560/201/20/
045390/20121115/92601/1550/191/10/
045390/20121115/92606/1560/303/20/
045390/20121115/92659/1560/130/20/
045390/20121115/92716/1555/93/10/
045390/20121115/92732/1560/202/20/
045390/20121115/92753/1560/400/20/
045390/20121115/92816/1560/3358/20/
045390/20121115/92925/1560/3002/20/
045390/20121115/92932/1560/351/20/
045390/20121115/92939/1560/302/10/
045390/20121115/92943/1560/151/10/
045390/20121115/93023/1560/1006/20/
045390/20121115/93032/1560/749/20/
045390/20121115/93041/1565/503/20/
045390/20121115/93054/1560/3501/10/
045390/20121115/93110/1555/640/10/
045390/20121115/93122/1555/1001/10/
045390/20121115/93135/1560/6197/20/
045390/20121115/93148/1560/301/10/
045390/20121115/93214/1565/816/20/
045390/20121115/93247/1565/1055/20/
045390/20121115/93247/1565/3730/20/
045390/20121115/93314/1565/701/10/
045390/20121115/93327/1565/302/10/
045390/20121115/93327/1565/700/20/
045390/20121115/93344/1570/123/20/
045390/20121115/93347/1570/800/20/
045390/20121115/93527/1570/2010/20/
045390/20121115/93552/1570/200/20/
045390/20121115/93633/1565/233/10/
045390/20121115/93638/1565/251/10/
045390/20121115/93638/1565/300/10/
045390/20121115/93650/1565/1572/10/
045390/20121115/93741/1560/2613/10/
045390/20121115/93744/1560/620/10/
045390/20121115/93813/1560/8480/20/
045390/20121115/93859/1560/1423/20/
045390/20121115/93859/1560/828/20/
045390/20121115/93951/1555/10001/10/
045390/20121115/94101/1560/375/20/
045390/20121115/94127/1555/352/10/
045390/20121115/94129/1555/1403/10/
045390/20121115/94129/1550/10703/10/
045390/20121115/94129/1545/6050/10/
045390/20121115/94129/1545/1844/20/
045390/20121115/94141/1555/1000/10/
045390/20121115/94150/1555/4001/10/
045390/20121115/94242/1545/5270/10/
045390/20121115/94242/1540/24730/10/
045390/20121115/94251/1550/100/10/
045390/20121115/94327/1555/920/20/
045390/20121115/94342/1555/180/20/
045390/20121115/94410/1555/178/20/
045390/20121115/94457/1550/1069/10/
045390/20121115/94501/1550/2946/10/
045390/20121115/94510/1555/973/20/
045390/20121115/94535/1555/100/10/
045390/20121115/94550/1555/540/10/
045390/20121115/94630/1555/500/10/
045390/20121115/94657/1555/2543/10/
045390/20121115/94702/1550/1000/10/
045390/20121115/94706/1550/2000/10/
045390/20121115/94712/1550/754/10/
045390/20121115/94712/1545/2246/10/
045390/20121115/94826/1550/510/20/
045390/20121115/94859/1550/200/20/
045390/20121115/95000/1550/2141/20/
045390/20121115/95000/1555/2111/20/
045390/20121115/95058/1555/410/20/
045390/20121115/95203/1555/6000/10/
045390/20121115/95355/1555/1133/10/
045390/20121115/95418/1555/200/10/
045390/20121115/95418/1555/3000/10/
045390/20121115/95422/1555/200/10/
045390/20121115/95426/1555/200/10/
045390/20121115/95433/1555/200/10/
045390/20121115/95548/1555/1241/10/
045390/20121115/95635/1555/100/20/
045390/20121115/95703/1555/550/20/
045390/20121115/95707/1550/200/10/
045390/20121115/95709/1555/359/20/
045390/20121115/95747/1555/2000/10/
045390/20121115/95807/1555/141/10/
045390/20121115/95816/1555/4518/20/
045390/20121115/95856/1555/1031/20/
045390/20121115/95857/1555/352/20/
045390/20121115/95901/1555/100/20/
045390/20121115/95913/1550/10000/10/
045390/20121115/95941/1555/1000/20/
045390/20121115/95949/1550/1098/10/
045390/20121115/95954/1550/952/10/
045390/20121115/95954/1545/4322/10/
045390/20121115/100202/1550/1020/20/
045390/20121115/100213/1550/1001/20/
045390/20121115/100217/1545/4000/10/
045390/20121115/100227/1545/100/10/
045390/20121115/100228/1545/5000/10/
045390/20121115/100302/1545/6476/10/
045390/20121115/100302/1540/8524/10/
045390/20121115/100311/1540/1000/10/
045390/20121115/100326/1540/2498/10/
045390/20121115/100333/1540/8771/10/
045390/20121115/100337/1540/1000/10/
045390/20121115/100338/1540/1490/10/
045390/20121115/100341/1540/907/10/
045390/20121115/100343/1540/1222/20/
045390/20121115/100348/1540/1240/10/
045390/20121115/100401/1540/5587/10/
045390/20121115/100407/1540/1057/20/
045390/20121115/100412/1540/1000/20/
045390/20121115/100416/1540/1001/20/
045390/20121115/100426/1540/156/20/
045390/20121115/100436/1540/1078/20/
045390/20121115/100439/1540/501/20/
045390/20121115/100440/1540/120/20/
045390/20121115/100450/1540/1000/20/
045390/20121115/100555/1540/2904/10/
045390/20121115/100555/1535/2097/10/
045390/20121115/100824/1540/434/10/
045390/20121115/100908/1540/4000/10/
045390/20121115/100938/1540/100/10/
045390/20121115/100938/1540/200/10/
045390/20121115/100938/1540/192/10/
045390/20121115/100954/1540/1047/10/
045390/20121115/101028/1540/9696/10/
045390/20121115/101032/1540/113/20/
045390/20121115/101103/1540/117/20/
045390/20121115/101126/1540/5012/20/
045390/20121115/101143/1540/103/20/
045390/20121115/101148/1540/102/20/
045390/20121115/101149/1540/1000/10/
045390/20121115/101156/1540/1001/20/
045390/20121115/101157/1535/2000/10/
045390/20121115/101243/1540/951/10/
045390/20121115/101449/1540/83/20/
045390/20121115/101525/1535/4108/10/
045390/20121115/101526/1535/13787/10/
045390/20121115/101535/1540/750/20/
045390/20121115/101547/1530/300/10/
045390/20121115/101557/1530/9806/10/
045390/20121115/101649/1530/776/10/
045390/20121115/101654/1530/9024/10/
045390/20121115/101727/1530/1650/20/
045390/20121115/101737/1525/1037/10/
045390/20121115/101852/1535/542/20/
045390/20121115/101921/1530/5013/10/
045390/20121115/101930/1530/3083/10/
045390/20121115/101937/1525/11041/10/
045390/20121115/101949/1525/796/20/
045390/20121115/101953/1525/3163/20/
045390/20121115/101958/1525/2000/10/
045390/20121115/102017/1530/3126/20/
045390/20121115/102044/1530/1186/10/
045390/20121115/102058/1530/500/10/
045390/20121115/102058/1525/88/10/
045390/20121115/102107/1525/580/10/
045390/20121115/102157/1530/246/10/
045390/20121115/102157/1530/980/10/
045390/20121115/102211/1535/250/20/
045390/20121115/102222/1530/1500/20/
045390/20121115/102235/1530/473/20/
045390/20121115/102241/1530/600/10/
045390/20121115/102249/1530/3137/10/
045390/20121115/102249/1525/5213/10/
045390/20121115/102304/1525/1000/10/
045390/20121115/102313/1525/500/10/
045390/20121115/102320/1525/3000/10/
045390/20121115/102320/1525/800/10/
045390/20121115/102322/1525/3351/10/
045390/20121115/102335/1520/3000/10/
045390/20121115/102339/1520/500/10/
045390/20121115/102352/1525/303/20/
045390/20121115/102355/1525/1042/20/
045390/20121115/102423/1530/205/20/
045390/20121115/102429/1525/3370/10/
045390/20121115/102436/1525/498/20/
045390/20121115/102443/1525/636/20/
045390/20121115/102445/1525/500/10/
045390/20121115/102512/1530/339/20/
045390/20121115/102603/1525/1010/10/
045390/20121115/102607/1525/900/10/
045390/20121115/102621/1530/2188/20/
045390/20121115/102634/1525/2611/10/
045390/20121115/102634/1520/23780/10/
045390/20121115/102634/1515/8399/10/
045390/20121115/102639/1515/200/10/
045390/20121115/102659/1515/500/10/
045390/20121115/102710/1515/1000/10/
045390/20121115/102712/1515/5000/10/
045390/20121115/102712/1515/2250/10/
045390/20121115/102722/1515/500/20/
045390/20121115/102729/1520/8051/20/
045390/20121115/102733/1520/500/20/
045390/20121115/102733/1520/449/20/
045390/20121115/102752/1520/1135/10/
045390/20121115/102815/1520/623/20/
045390/20121115/102819/1520/1000/20/
045390/20121115/102827/1520/229/20/
045390/20121115/102907/1520/518/10/
045390/20121115/103044/1520/532/10/
045390/20121115/103048/1520/500/10/
045390/20121115/103053/1520/1000/10/
045390/20121115/103053/1520/2330/10/
045390/20121115/103127/1520/661/20/
045390/20121115/103127/1515/3766/10/
045390/20121115/103127/1515/1703/10/
045390/20121115/103137/1520/100/20/
045390/20121115/103150/1515/500/10/
045390/20121115/103155/1515/300/10/
045390/20121115/103207/1515/2501/10/
045390/20121115/103208/1515/100/10/
045390/20121115/103209/1515/1599/10/
045390/20121115/103212/1515/820/20/
045390/20121115/103217/1515/100/20/
045390/20121115/103220/1510/3022/10/
045390/20121115/103229/1515/1727/20/
045390/20121115/103301/1515/100/10/
045390/20121115/103332/1520/658/20/
045390/20121115/103332/1515/771/10/
045390/20121115/103353/1515/1010/10/
045390/20121115/103354/1515/1000/10/
045390/20121115/103356/1515/1000/10/
045390/20121115/103356/1515/1200/10/
045390/20121115/103400/1515/5133/10/
045390/20121115/103402/1510/520/10/
045390/20121115/103404/1510/547/10/
045390/20121115/103413/1510/14880/10/
045390/20121115/103421/1505/1500/10/
045390/20121115/103423/1510/1000/20/
045390/20121115/103426/1505/4203/10/
045390/20121115/103429/1505/3525/10/
045390/20121115/103432/1500/750/10/
045390/20121115/103436/1500/2381/10/
045390/20121115/103438/1500/12353/10/
045390/20121115/103442/1500/1400/10/
045390/20121115/103445/1500/430/10/
045390/20121115/103445/1500/3612/10/
045390/20121115/103446/1500/4700/10/
045390/20121115/103447/1500/1000/10/
045390/20121115/103448/1500/2000/10/
045390/20121115/103450/1500/3652/10/
045390/20121115/103452/1500/2586/10/
045390/20121115/103454/1500/869/10/
045390/20121115/103456/1500/620/10/
045390/20121115/103456/1500/5510/10/
045390/20121115/103457/1500/2367/10/
045390/20121115/103458/1500/536/10/
045390/20121115/103500/1500/464/20/
045390/20121115/103521/1510/500/20/
045390/20121115/103521/1500/1968/10/
045390/20121115/103525/1500/1000/20/
045390/20121115/103539/1500/1601/20/
045390/20121115/103541/1500/1011/20/
045390/20121115/103541/1500/4420/20/
045390/20121115/103623/1510/238/20/
045390/20121115/103627/1505/130/10/
045390/20121115/103711/1510/201/20/
045390/20121115/103727/1505/2000/10/
045390/20121115/103738/1505/1351/10/
045390/20121115/103740/1505/1000/10/
045390/20121115/103741/1505/1000/10/
045390/20121115/103742/1505/2045/10/
045390/20121115/103743/1505/201/10/
045390/20121115/103758/1505/800/20/
045390/20121115/103823/1510/502/20/
045390/20121115/103829/1505/1500/10/
045390/20121115/103829/1505/953/10/
045390/20121115/103845/1505/730/10/
045390/20121115/103855/1505/4000/10/
045390/20121115/103855/1505/1668/10/
045390/20121115/103857/1500/17165/10/
045390/20121115/103918/1500/8342/20/
045390/20121115/103932/1505/1016/10/
045390/20121115/103935/1510/500/20/
045390/20121115/103940/1500/2000/10/
045390/20121115/104011/1505/980/20/
045390/20121115/104045/1505/700/10/
045390/20121115/104051/1505/500/10/
045390/20121115/104051/1500/300/10/
045390/20121115/104108/1505/201/20/
045390/20121115/104130/1505/1005/20/
045390/20121115/104144/1505/572/20/
045390/20121115/104145/1505/1000/20/
045390/20121115/104149/1505/130/20/
045390/20121115/104204/1505/92/20/
045390/20121115/104205/1505/408/10/
045390/20121115/104222/1505/700/20/
045390/20121115/104224/1505/83/20/
045390/20121115/104331/1510/3422/20/
045390/20121115/104339/1510/101/20/
045390/20121115/104344/1510/501/20/
045390/20121115/104345/1510/1948/20/
045390/20121115/104556/1515/536/20/
045390/20121115/104613/1510/100/10/
045390/20121115/104635/1510/1000/10/
045390/20121115/104643/1510/1000/10/
045390/20121115/104648/1510/2596/10/
045390/20121115/104648/1505/7404/10/
045390/20121115/104750/1505/294/10/
045390/20121115/104928/1510/500/10/
045390/20121115/104932/1510/2000/10/
045390/20121115/104933/1510/485/10/
045390/20121115/104939/1505/1520/10/
045390/20121115/104940/1510/500/20/
045390/20121115/105006/1510/82/20/
045390/20121115/105101/1515/2487/20/
045390/20121115/105159/1520/3458/20/
045390/20121115/105201/1520/200/10/
045390/20121115/105201/1520/1343/10/
045390/20121115/105217/1520/1000/20/
045390/20121115/105339/1520/100/20/
045390/20121115/105533/1520/353/20/
045390/20121115/105635/1515/100/10/
045390/20121115/105645/1515/1000/10/
045390/20121115/105649/1515/400/10/
045390/20121115/105703/1515/5025/10/
045390/20121115/105724/1515/292/20/
045390/20121115/105724/1520/1534/20/
045390/20121115/105724/1525/4174/20/
045390/20121115/105758/1525/100/20/
045390/20121115/105900/1520/100/10/
045390/20121115/105929/1520/300/20/
045390/20121115/105936/1520/1000/20/
045390/20121115/110003/1520/100/20/
045390/20121115/110213/1515/1886/10/
045390/20121115/110324/1520/1324/20/
045390/20121115/110339/1520/300/20/
045390/20121115/110420/1520/551/10/
045390/20121115/110448/1515/110/10/
045390/20121115/110503/1520/787/20/
045390/20121115/110529/1520/500/20/
045390/20121115/110547/1520/203/20/
045390/20121115/110629/1520/200/10/
045390/20121115/110634/1520/200/10/
045390/20121115/110635/1520/200/10/
045390/20121115/110636/1520/1227/10/
045390/20121115/110636/1515/1273/10/
045390/20121115/110832/1520/701/10/
045390/20121115/110949/1520/2592/20/
045390/20121115/111019/1520/378/10/
045390/20121115/111019/1515/4622/10/
045390/20121115/111032/1525/100/20/
045390/20121115/111215/1520/501/10/
045390/20121115/111226/1520/150/10/
045390/20121115/111502/1520/101/10/
045390/20121115/111617/1525/110/20/
045390/20121115/111617/1525/100/20/
045390/20121115/111617/1525/100/20/
045390/20121115/111650/1525/650/20/
045390/20121115/111915/1525/786/20/
045390/20121115/112153/1525/505/20/
045390/20121115/112155/1520/550/10/
045390/20121115/112216/1520/1000/10/
045390/20121115/112237/1520/1301/10/
045390/20121115/112249/1520/500/10/
045390/20121115/112406/1525/10357/20/
045390/20121115/112421/1525/242/10/
045390/20121115/112443/1530/7000/20/
045390/20121115/112600/1530/9469/20/
045390/20121115/112606/1530/7846/20/
045390/20121115/112607/1530/2189/20/
045390/20121115/112825/1530/106/20/
045390/20121115/112836/1530/395/10/
045390/20121115/113016/1530/158/20/
045390/20121115/113236/1530/169/20/
045390/20121115/113329/1530/257/20/
045390/20121115/113336/1530/397/10/
045390/20121115/113420/1530/700/20/
045390/20121115/113516/1530/2636/20/
045390/20121115/113525/1530/386/10/
045390/20121115/113600/1530/2614/20/
045390/20121115/113606/1530/200/10/
045390/20121115/113636/1530/191/10/
045390/20121115/113850/1530/2005/20/
045390/20121115/113852/1530/1000/20/
045390/20121115/113858/1530/563/20/
045390/20121115/113904/1530/437/10/
045390/20121115/114131/1530/91/20/
045390/20121115/114253/1525/2000/10/
045390/20121115/114310/1525/500/10/
045390/20121115/114407/1525/500/10/
045390/20121115/114427/1525/2000/10/
045390/20121115/114430/1525/20000/10/
045390/20121115/114513/1530/3000/20/
045390/20121115/114532/1530/6802/10/
045390/20121115/114536/1530/100/20/
045390/20121115/114607/1530/100/20/
045390/20121115/114617/1530/1000/20/
045390/20121115/114635/1530/280/20/
045390/20121115/114658/1530/100/20/
045390/20121115/114704/1530/500/20/
045390/20121115/114706/1530/574/20/
045390/20121115/114706/1535/13085/20/
045390/20121115/115201/1540/172/20/
045390/20121115/115306/1540/130/20/
045390/20121115/115312/1540/100/20/
045390/20121115/115313/1540/100/20/
045390/20121115/115314/1540/100/20/
045390/20121115/115315/1540/100/20/
045390/20121115/115317/1540/100/20/
045390/20121115/115318/1540/100/20/
045390/20121115/115318/1540/100/20/
045390/20121115/115319/1540/100/20/
045390/20121115/115319/1540/100/20/
045390/20121115/115320/1540/100/20/
045390/20121115/115320/1540/100/20/
045390/20121115/115421/1535/100/10/
045390/20121115/115444/1535/1532/10/
045390/20121115/115533/1535/530/10/
045390/20121115/115549/1535/420/20/
045390/20121115/115604/1535/798/10/
045390/20121115/115614/1535/1202/20/
045390/20121115/115725/1535/100/20/
045390/20121115/115727/1530/306/10/
045390/20121115/120300/1535/1700/20/
045390/20121115/120425/1540/425/20/
045390/20121115/120601/1535/503/10/
045390/20121115/120646/1540/701/20/
045390/20121115/120659/1540/10858/20/
045390/20121115/120705/1540/3434/20/
045390/20121115/120746/1535/222/10/
045390/20121115/120857/1540/421/20/
045390/20121115/120858/1540/694/20/
045390/20121115/120921/1540/5620/20/
045390/20121115/120939/1545/802/20/
045390/20121115/120958/1540/500/10/
045390/20121115/121006/1540/6000/10/
045390/20121115/121014/1540/1802/10/
045390/20121115/121042/1540/500/20/
045390/20121115/121054/1540/298/20/
045390/20121115/121120/1540/251/20/
045390/20121115/121158/1540/100/20/
045390/20121115/121343/1535/530/10/
045390/20121115/121422/1535/2000/10/
045390/20121115/121424/1535/1955/10/
045390/20121115/121426/1535/1148/10/
045390/20121115/121431/1540/175/20/
045390/20121115/121624/1540/323/20/
045390/20121115/121728/1540/2057/20/
045390/20121115/122105/1535/2500/10/
045390/20121115/122111/1535/8179/10/
045390/20121115/122122/1530/1400/10/
045390/20121115/122246/1530/14734/10/
045390/20121115/122246/1525/12344/10/
045390/20121115/122256/1525/2000/20/
045390/20121115/122259/1525/200/20/
045390/20121115/122304/1525/200/20/
045390/20121115/122305/1525/522/20/
045390/20121115/122515/1530/200/10/
045390/20121115/122850/1530/227/20/
045390/20121115/123002/1530/1317/10/
045390/20121115/123246/1530/212/20/
045390/20121115/123355/1530/901/20/
045390/20121115/123424/1530/100/20/
045390/20121115/123444/1530/1030/10/
045390/20121115/123544/1530/974/20/
045390/20121115/123636/1530/1250/20/
045390/20121115/123640/1530/3750/10/
045390/20121115/123641/1525/100/10/
045390/20121115/123727/1525/100/10/
045390/20121115/123939/1530/251/20/
045390/20121115/124022/1525/10011/10/
045390/20121115/124027/1525/10000/10/
045390/20121115/124231/1525/163/10/
045390/20121115/124234/1525/618/10/
045390/20121115/124242/1525/382/20/
045390/20121115/124420/1525/341/10/
045390/20121115/124430/1525/101/20/
045390/20121115/124441/1525/310/10/
045390/20121115/124452/1525/187/20/
045390/20121115/124504/1525/144/20/
045390/20121115/124527/1525/517/20/
045390/20121115/124527/1525/6746/10/
045390/20121115/124527/1520/3254/10/
045390/20121115/124617/1525/522/20/
045390/20121115/124707/1525/922/20/
045390/20121115/124717/1525/350/20/
045390/20121115/124823/1525/500/10/
045390/20121115/124858/1530/1000/20/
045390/20121115/125118/1530/101/20/
045390/20121115/125220/1525/4110/10/
045390/20121115/125251/1525/1000/20/
045390/20121115/125251/1525/190/20/
045390/20121115/125517/1525/1607/10/
045390/20121115/125535/1525/100/20/
045390/20121115/125923/1520/2030/10/
045390/20121115/125940/1520/4710/10/
045390/20121115/125947/1525/1000/20/
045390/20121115/125948/1520/500/10/
045390/20121115/130018/1520/2000/10/
045390/20121115/130113/1520/700/10/
045390/20121115/130139/1520/329/10/
045390/20121115/130151/1520/371/20/
045390/20121115/130208/1525/300/20/
045390/20121115/130233/1525/964/20/
045390/20121115/130457/1530/1002/20/
045390/20121115/130527/1530/1000/20/
045390/20121115/130534/1530/299/20/
045390/20121115/130540/1530/1000/20/
045390/20121115/130614/1525/701/10/
045390/20121115/130619/1525/1799/10/
045390/20121115/130619/1520/311/10/
045390/20121115/130649/1530/546/20/
045390/20121115/130752/1530/2897/20/
045390/20121115/130829/1530/104/20/
045390/20121115/130837/1525/500/10/
045390/20121115/130848/1525/110/10/
045390/20121115/130856/1525/6261/10/
045390/20121115/130905/1525/279/20/
045390/20121115/130958/1520/1066/10/
045390/20121115/131044/1520/200/10/
045390/20121115/131119/1520/6123/10/
045390/20121115/131209/1525/135/20/
045390/20121115/131221/1525/1200/20/
045390/20121115/131224/1525/111/20/
045390/20121115/131229/1525/1500/20/
045390/20121115/131343/1525/478/20/
045390/20121115/131414/1530/100/20/
045390/20121115/131414/1535/1219/20/
045390/20121115/131552/1530/130/20/
045390/20121115/131552/1535/390/20/
045390/20121115/131933/1525/3709/10/
045390/20121115/131933/1520/291/10/
045390/20121115/132158/1520/130/10/
045390/20121115/132239/1520/1000/10/
045390/20121115/132635/1520/2023/10/
045390/20121115/132649/1520/2235/10/
045390/20121115/132827/1520/2030/10/
045390/20121115/133411/1520/468/10/
045390/20121115/133424/1520/8209/10/
045390/20121115/133444/1520/979/20/
045390/20121115/133444/1520/812/20/
045390/20121115/133520/1520/300/10/
045390/20121115/133537/1520/500/10/
045390/20121115/133545/1520/100/10/
045390/20121115/133557/1520/1900/10/
045390/20121115/133603/1520/381/10/
045390/20121115/133800/1525/1101/10/
045390/20121115/133818/1530/100/20/
045390/20121115/133818/1530/100/20/
045390/20121115/133818/1530/100/20/
045390/20121115/134040/1525/100/10/
045390/20121115/134210/1530/100/20/
045390/20121115/134238/1530/150/20/
045390/20121115/134252/1525/169/10/
045390/20121115/134406/1525/4922/10/
045390/20121115/134414/1525/108/20/
045390/20121115/134454/1525/579/20/
045390/20121115/134505/1525/161/20/
045390/20121115/134604/1525/600/20/
045390/20121115/134722/1525/2260/20/
045390/20121115/134732/1525/740/10/
045390/20121115/134911/1520/6546/10/
045390/20121115/134919/1520/231/20/
045390/20121115/134923/1520/2000/20/
045390/20121115/134924/1520/200/20/
045390/20121115/134925/1520/600/20/
045390/20121115/134934/1520/201/20/
045390/20121115/134938/1520/100/20/
045390/20121115/134952/1520/162/20/
045390/20121115/134954/1520/138/10/
045390/20121115/134958/1520/100/20/
045390/20121115/134959/1520/762/20/
045390/20121115/135046/1520/1488/10/
045390/20121115/135046/1515/6780/10/
045390/20121115/135219/1520/500/20/
045390/20121115/135227/1525/159/20/
045390/20121115/135231/1525/1000/20/
045390/20121115/135522/1520/10010/10/
045390/20121115/135604/1520/120/10/
045390/20121115/135607/1520/301/20/
045390/20121115/135609/1520/300/20/
045390/20121115/135610/1520/100/20/
045390/20121115/135613/1520/197/20/
045390/20121115/135620/1520/111/20/
045390/20121115/135644/1520/130/20/
045390/20121115/135646/1520/100/20/
045390/20121115/135703/1520/130/20/
045390/20121115/135704/1520/97/20/
045390/20121115/135706/1520/1000/20/
045390/20121115/135717/1520/114/20/
045390/20121115/135736/1520/483/20/
045390/20121115/135736/1525/527/20/
045390/20121115/135805/1520/100/20/
045390/20121115/135817/1520/400/20/
045390/20121115/135924/1520/500/10/
045390/20121115/135959/1520/3142/10/
045390/20121115/140007/1520/500/20/
045390/20121115/140017/1515/600/10/
045390/20121115/140032/1515/2570/10/
045390/20121115/140052/1515/7000/10/
045390/20121115/140112/1515/3000/10/
045390/20121115/140118/1515/718/10/
045390/20121115/140130/1515/300/20/
045390/20121115/140133/1515/700/20/
045390/20121115/140200/1510/4000/10/
045390/20121115/140217/1510/130/10/
045390/20121115/140241/1515/300/20/
045390/20121115/140243/1515/400/20/
045390/20121115/140246/1515/82/20/
045390/20121115/140354/1515/4711/10/
045390/20121115/140356/1515/735/10/
045390/20121115/140410/1515/101/20/
045390/20121115/140418/1515/200/20/
045390/20121115/140427/1515/464/20/
045390/20121115/140531/1515/6052/10/
045390/20121115/140602/1515/501/10/
045390/20121115/140604/1515/1000/10/
045390/20121115/140819/1520/151/20/
045390/20121115/140829/1520/7001/20/
045390/20121115/140832/1520/203/20/
045390/20121115/140842/1525/201/20/
045390/20121115/140858/1525/100/20/
045390/20121115/140906/1525/3000/20/
045390/20121115/140914/1525/3000/20/
045390/20121115/140920/1525/679/20/
045390/20121115/140922/1525/3080/20/
045390/20121115/140929/1525/246/20/
045390/20121115/141000/1530/501/20/
045390/20121115/141001/1530/100/20/
045390/20121115/141013/1525/1000/10/
045390/20121115/141112/1525/658/10/
045390/20121115/141127/1525/649/10/
045390/20121115/141136/1525/253/20/
045390/20121115/141153/1525/1000/10/
045390/20121115/141223/1525/200/10/
045390/20121115/141228/1525/200/10/
045390/20121115/141235/1525/850/10/
045390/20121115/141400/1520/2470/10/
045390/20121115/141610/1525/420/20/
045390/20121115/141706/1525/1000/20/
045390/20121115/141752/1525/564/20/
045390/20121115/141756/1525/461/10/
045390/20121115/141824/1525/2039/20/
045390/20121115/141824/1530/981/20/
045390/20121115/141857/1530/886/20/
045390/20121115/141909/1530/500/20/
045390/20121115/141918/1530/617/20/
045390/20121115/141950/1530/2039/20/
045390/20121115/142009/1530/650/20/
045390/20121115/142023/1525/501/10/
045390/20121115/142029/1525/84/10/
045390/20121115/142043/1530/2019/20/
045390/20121115/142207/1520/536/10/
045390/20121115/142213/1525/450/20/
045390/20121115/142300/1520/610/10/
045390/20121115/142310/1525/500/20/
045390/20121115/142414/1520/305/10/
045390/20121115/142524/1520/2014/10/
045390/20121115/142526/1520/3000/10/
045390/20121115/142635/1520/200/10/
045390/20121115/142654/1520/5000/10/
045390/20121115/142657/1520/98/10/
045390/20121115/142707/1515/3880/10/
045390/20121115/142713/1515/724/10/
045390/20121115/142734/1520/150/20/
045390/20121115/142737/1520/152/20/
045390/20121115/142759/1515/348/10/
045390/20121115/142807/1520/209/20/
045390/20121115/142821/1520/1043/20/
045390/20121115/142839/1520/180/10/
045390/20121115/142914/1520/400/10/
045390/20121115/143009/1520/727/10/
045390/20121115/143029/1520/2333/20/
045390/20121115/143109/1520/1000/10/
045390/20121115/143154/1520/290/10/
045390/20121115/143200/1525/600/20/
045390/20121115/143308/1525/1388/20/
045390/20121115/143406/1520/90/10/
045390/20121115/143521/1520/763/10/
045390/20121115/143521/1515/7262/10/
045390/20121115/143521/1510/2472/10/
045390/20121115/143606/1515/100/10/
045390/20121115/143609/1515/518/10/
045390/20121115/143619/1515/300/10/
045390/20121115/143625/1515/500/10/
045390/20121115/143649/1515/510/20/
045390/20121115/143728/1515/3001/10/
045390/20121115/143756/1520/111/20/
045390/20121115/143835/1520/103/10/
045390/20121115/143844/1520/900/20/
045390/20121115/143920/1520/600/10/
045390/20121115/144038/1515/228/10/
045390/20121115/144112/1520/2008/20/
045390/20121115/144113/1515/1500/10/
045390/20121115/144132/1520/604/20/
045390/20121115/144138/1520/400/20/
045390/20121115/144145/1520/1400/20/
045390/20121115/144155/1515/107/10/
045390/20121115/144204/1515/200/10/
045390/20121115/144228/1515/353/10/
045390/20121115/144240/1515/343/10/
045390/20121115/144307/1520/101/20/
045390/20121115/144312/1515/3083/10/
045390/20121115/144327/1515/251/10/
045390/20121115/144338/1520/206/20/
045390/20121115/144342/1520/1000/20/
045390/20121115/144350/1520/102/20/
045390/20121115/144359/1520/100/20/
045390/20121115/144400/1520/1066/20/
045390/20121115/144412/1520/1000/20/
045390/20121115/144425/1515/325/10/
045390/20121115/144427/1515/700/10/
045390/20121115/144439/1515/506/10/
045390/20121115/144439/1515/8264/10/
045390/20121115/144455/1515/2100/10/
045390/20121115/144532/1515/944/10/
045390/20121115/144539/1515/1000/10/
045390/20121115/144547/1515/2002/10/
045390/20121115/144558/1515/318/10/
045390/20121115/144624/1515/1682/20/
045390/20121115/144633/1515/500/10/
045390/20121115/144638/1520/5233/20/
045390/20121115/144638/1525/5938/20/
045390/20121115/144638/1530/429/20/
045390/20121115/144641/1530/1869/20/
045390/20121115/144644/1530/293/20/
045390/20121115/144708/1520/408/10/
045390/20121115/144717/1525/110/20/
045390/20121115/144839/1520/1705/10/
045390/20121115/144849/1520/550/20/
045390/20121115/144910/1520/1023/20/
045390/20121115/144918/1515/1015/10/
045390/20121115/144923/1515/3732/10/
045390/20121115/144953/1515/1234/10/
045390/20121115/150000/1500/127895/10/
