045390/20121116/90000/1485/52772/10/
045390/20121116/90005/1485/2380/10/
045390/20121116/90023/1495/5900/20/
045390/20121116/90030/1500/2185/20/
045390/20121116/90041/1500/2000/10/
045390/20121116/90055/1500/552/10/
045390/20121116/90058/1500/1290/10/
045390/20121116/90108/1500/1609/20/
045390/20121116/90117/1505/4498/20/
045390/20121116/90119/1505/565/20/
045390/20121116/90121/1510/2000/20/
045390/20121116/90127/1505/200/10/
045390/20121116/90128/1505/100/10/
045390/20121116/90130/1505/203/10/
045390/20121116/90143/1505/97/20/
045390/20121116/90144/1505/103/10/
045390/20121116/90211/1505/897/20/
045390/20121116/90252/1505/500/10/
045390/20121116/90255/1505/500/10/
045390/20121116/90311/1505/230/10/
045390/20121116/90331/1510/3844/20/
045390/20121116/90336/1510/1500/10/
045390/20121116/90343/1510/401/10/
045390/20121116/90348/1510/7000/10/
045390/20121116/90350/1510/254/10/
045390/20121116/90350/1510/746/20/
045390/20121116/90351/1510/100/10/
045390/20121116/90406/1510/90/20/
045390/20121116/90409/1510/87/20/
045390/20121116/90409/1510/1723/20/
045390/20121116/90416/1515/90/20/
045390/20121116/90417/1515/2010/20/
045390/20121116/90417/1515/110/20/
045390/20121116/90420/1515/90/20/
045390/20121116/90442/1515/116/20/
045390/20121116/90502/1510/1000/10/
045390/20121116/90505/1510/1037/10/
045390/20121116/90512/1510/142/10/
045390/20121116/90515/1510/218/20/
045390/20121116/90529/1510/520/10/
045390/20121116/90530/1510/1021/10/
045390/20121116/90531/1515/14985/20/
045390/20121116/90531/1510/2000/10/
045390/20121116/90532/1510/742/10/
045390/20121116/90535/1510/1000/10/
045390/20121116/90537/1510/5000/10/
045390/20121116/90541/1510/304/10/
045390/20121116/90615/1510/5060/20/
045390/20121116/90619/1510/1760/20/
045390/20121116/90658/1515/1053/20/
045390/20121116/90715/1515/3000/20/
045390/20121116/90715/1515/1089/20/
045390/20121116/90717/1520/1089/20/
045390/20121116/90742/1515/720/20/
045390/20121116/90749/1515/100/20/
045390/20121116/90801/1515/200/20/
045390/20121116/90809/1515/1000/20/
045390/20121116/90816/1515/100/20/
045390/20121116/90821/1515/2330/20/
045390/20121116/90826/1515/200/10/
045390/20121116/90826/1515/220/10/
045390/20121116/90837/1515/671/10/
045390/20121116/90846/1515/101/20/
045390/20121116/90847/1510/300/10/
045390/20121116/90922/1515/544/20/
045390/20121116/90936/1515/1800/10/
045390/20121116/90937/1515/1000/10/
045390/20121116/90939/1515/200/10/
045390/20121116/91020/1515/1650/20/
045390/20121116/91029/1515/1300/20/
045390/20121116/91038/1515/1000/10/
045390/20121116/91040/1515/85/10/
045390/20121116/91042/1515/700/10/
045390/20121116/91043/1515/270/10/
045390/20121116/91048/1515/2865/20/
045390/20121116/91057/1515/1000/10/
045390/20121116/91059/1515/135/10/
045390/20121116/91103/1515/5004/20/
045390/20121116/91120/1515/1964/20/
045390/20121116/91121/1515/397/20/
045390/20121116/91204/1510/195/10/
045390/20121116/91223/1515/2330/20/
045390/20121116/91243/1515/1168/20/
045390/20121116/91258/1515/1204/10/
045390/20121116/91300/1515/6284/10/
045390/20121116/91320/1515/139/20/
045390/20121116/91324/1515/4005/20/
045390/20121116/91325/1515/722/20/
045390/20121116/91342/1520/134/20/
045390/20121116/91347/1515/2111/10/
045390/20121116/91355/1515/915/10/
045390/20121116/91357/1515/2207/10/
045390/20121116/91408/1510/208/10/
045390/20121116/91441/1510/1458/10/
045390/20121116/91448/1510/6107/10/
045390/20121116/91450/1510/4000/10/
045390/20121116/91451/1510/1000/10/
045390/20121116/91451/1510/873/10/
045390/20121116/91531/1510/858/20/
045390/20121116/91540/1510/138/10/
045390/20121116/91602/1505/2105/10/
045390/20121116/91605/1500/5000/10/
045390/20121116/91638/1500/300/10/
045390/20121116/91722/1505/1501/20/
045390/20121116/91728/1505/1000/20/
045390/20121116/91734/1505/1000/20/
045390/20121116/91735/1505/1000/20/
045390/20121116/91756/1505/88/20/
045390/20121116/91803/1505/265/20/
045390/20121116/91901/1505/524/20/
045390/20121116/91909/1505/100/20/
045390/20121116/91943/1505/538/20/
045390/20121116/91949/1505/949/20/
045390/20121116/92015/1505/120/10/
045390/20121116/92130/1505/350/10/
045390/20121116/92150/1505/2860/10/
045390/20121116/92158/1505/1000/10/
045390/20121116/92203/1510/2159/20/
045390/20121116/92228/1510/1010/10/
045390/20121116/92239/1510/269/10/
045390/20121116/92300/1505/114/10/
045390/20121116/92327/1505/2671/10/
045390/20121116/92406/1505/180/20/
045390/20121116/92500/1505/101/10/
045390/20121116/92514/1510/2140/20/
045390/20121116/92530/1510/200/10/
045390/20121116/92531/1510/200/10/
045390/20121116/92535/1510/600/10/
045390/20121116/92537/1510/1160/10/
045390/20121116/92619/1510/110/20/
045390/20121116/92622/1510/585/20/
045390/20121116/92625/1510/1415/10/
045390/20121116/92636/1510/665/20/
045390/20121116/92644/1505/100/10/
045390/20121116/92705/1505/4901/10/
045390/20121116/92714/1505/435/10/
045390/20121116/92725/1505/1000/20/
045390/20121116/92729/1500/1000/10/
045390/20121116/92757/1505/884/20/
045390/20121116/92801/1505/3000/10/
045390/20121116/92809/1505/500/10/
045390/20121116/92813/1505/100/10/
045390/20121116/92826/1505/843/10/
045390/20121116/92846/1505/5157/20/
045390/20121116/92851/1505/2661/10/
045390/20121116/92927/1505/87/10/
045390/20121116/92938/1505/213/20/
045390/20121116/93044/1505/487/10/
045390/20121116/93059/1500/190/10/
045390/20121116/93137/1500/10000/10/
045390/20121116/93151/1505/159/20/
045390/20121116/93211/1500/1878/10/
045390/20121116/93332/1505/1000/20/
045390/20121116/93344/1500/12000/10/
045390/20121116/93345/1500/728/10/
045390/20121116/93403/1495/2572/10/
045390/20121116/93404/1500/3200/20/
045390/20121116/93405/1500/400/10/
045390/20121116/93405/1495/600/10/
045390/20121116/93448/1500/681/20/
045390/20121116/93455/1495/730/10/
045390/20121116/93529/1500/4002/20/
045390/20121116/93545/1500/501/20/
045390/20121116/93603/1500/101/20/
045390/20121116/93605/1500/1000/20/
045390/20121116/93700/1500/1022/20/
045390/20121116/93715/1500/1000/20/
045390/20121116/93731/1500/1001/20/
045390/20121116/93755/1500/101/20/
045390/20121116/93800/1500/424/20/
045390/20121116/93802/1500/154/10/
045390/20121116/93810/1500/203/20/
045390/20121116/93902/1495/4521/10/
045390/20121116/93908/1495/501/10/
045390/20121116/93918/1495/920/10/
045390/20121116/93924/1495/400/10/
045390/20121116/93924/1495/200/10/
045390/20121116/93929/1495/8595/10/
045390/20121116/93949/1495/131/20/
045390/20121116/93951/1495/350/10/
045390/20121116/94004/1495/481/10/
045390/20121116/94007/1495/400/10/
045390/20121116/94010/1495/1000/10/
045390/20121116/94025/1500/1301/20/
045390/20121116/94038/1500/201/20/
045390/20121116/94105/1495/4250/10/
045390/20121116/94105/1490/751/10/
045390/20121116/94109/1490/826/10/
045390/20121116/94118/1490/600/10/
045390/20121116/94127/1490/8000/10/
045390/20121116/94151/1500/281/20/
045390/20121116/94226/1490/531/10/
045390/20121116/94250/1490/169/10/
045390/20121116/94257/1490/2674/10/
045390/20121116/94258/1490/6057/10/
045390/20121116/94314/1485/671/10/
045390/20121116/94324/1490/5001/10/
045390/20121116/94325/1490/1639/10/
045390/20121116/94349/1490/342/20/
045390/20121116/94351/1490/200/20/
045390/20121116/94357/1485/3500/10/
045390/20121116/94357/1485/10101/10/
045390/20121116/94415/1490/194/20/
045390/20121116/94447/1490/562/10/
045390/20121116/94457/1490/943/10/
045390/20121116/94505/1485/1354/10/
045390/20121116/94530/1485/3001/10/
045390/20121116/94534/1485/450/10/
045390/20121116/94603/1485/2003/10/
045390/20121116/94605/1485/963/10/
045390/20121116/94608/1485/9000/10/
045390/20121116/94609/1485/409/10/
045390/20121116/94610/1485/200/20/
045390/20121116/94622/1480/14635/10/
045390/20121116/94641/1480/1117/20/
045390/20121116/94643/1475/1000/10/
045390/20121116/94644/1480/500/20/
045390/20121116/94704/1480/226/20/
045390/20121116/94711/1480/1839/10/
045390/20121116/94711/1475/1845/10/
045390/20121116/94711/1470/185/10/
045390/20121116/94742/1475/602/10/
045390/20121116/94743/1475/1000/10/
045390/20121116/94750/1475/214/10/
045390/20121116/94802/1475/491/10/
045390/20121116/94819/1480/201/20/
045390/20121116/94923/1475/1346/10/
045390/20121116/94943/1475/3708/20/
045390/20121116/94950/1475/890/10/
045390/20121116/94954/1475/605/10/
045390/20121116/95009/1475/501/10/
045390/20121116/95040/1480/1012/20/
045390/20121116/95042/1480/500/20/
045390/20121116/95044/1480/6756/20/
045390/20121116/95047/1480/531/20/
045390/20121116/95047/1480/510/20/
045390/20121116/95052/1480/104/20/
045390/20121116/95105/1485/501/20/
045390/20121116/95117/1485/1484/20/
045390/20121116/95123/1485/350/10/
045390/20121116/95301/1485/6299/10/
045390/20121116/95301/1485/2994/20/
045390/20121116/95301/1490/1006/20/
045390/20121116/95335/1480/8002/10/
045390/20121116/95339/1490/701/20/
045390/20121116/95340/1490/2571/20/
045390/20121116/95341/1490/1700/10/
045390/20121116/95345/1490/4470/10/
045390/20121116/95400/1490/5396/20/
045390/20121116/95510/1490/537/20/
045390/20121116/95515/1480/9604/10/
045390/20121116/95525/1480/201/20/
045390/20121116/95527/1480/195/20/
045390/20121116/95653/1490/505/20/
045390/20121116/95701/1480/5995/10/
045390/20121116/95911/1480/13006/10/
045390/20121116/95918/1480/580/10/
045390/20121116/95931/1480/6727/10/
045390/20121116/95935/1480/6648/10/
045390/20121116/95944/1480/500/10/
045390/20121116/100003/1480/2001/10/
045390/20121116/100133/1485/6737/20/
045390/20121116/100144/1485/1001/20/
045390/20121116/100250/1490/1343/20/
045390/20121116/100343/1490/1003/20/
045390/20121116/100347/1490/1001/20/
045390/20121116/100413/1490/501/20/
045390/20121116/100415/1490/200/20/
045390/20121116/100653/1490/163/20/
045390/20121116/100708/1490/100/20/
045390/20121116/100734/1490/120/20/
045390/20121116/100902/1495/204/20/
045390/20121116/100908/1495/739/20/
045390/20121116/100937/1495/341/20/
045390/20121116/100944/1490/1408/10/
045390/20121116/101000/1490/501/20/
045390/20121116/101035/1490/92/20/
045390/20121116/101106/1495/5001/20/
045390/20121116/101228/1490/2028/10/
045390/20121116/101228/1485/1875/10/
045390/20121116/101228/1480/1127/10/
045390/20121116/101230/1480/215/10/
045390/20121116/101244/1480/3101/10/
045390/20121116/101345/1490/2001/20/
045390/20121116/101446/1490/840/20/
045390/20121116/101620/1495/81/20/
045390/20121116/101625/1495/108/20/
045390/20121116/101842/1490/1062/10/
045390/20121116/101851/1490/1000/10/
045390/20121116/101903/1490/100/10/
045390/20121116/101948/1495/113/20/
045390/20121116/101950/1495/1130/20/
045390/20121116/102045/1500/144/20/
045390/20121116/102324/1495/2879/10/
045390/20121116/102600/1495/107/20/
045390/20121116/102653/1495/264/20/
045390/20121116/102723/1495/3276/10/
045390/20121116/102737/1495/961/20/
045390/20121116/102751/1495/500/20/
045390/20121116/102809/1495/6000/20/
045390/20121116/102816/1495/2000/20/
045390/20121116/102823/1495/1000/20/
045390/20121116/103511/1490/651/10/
045390/20121116/103624/1490/100/10/
045390/20121116/103823/1495/1014/20/
045390/20121116/103852/1495/100/10/
045390/20121116/103931/1495/1464/10/
045390/20121116/103931/1490/660/10/
045390/20121116/103931/1485/3772/10/
045390/20121116/103931/1480/1166/10/
045390/20121116/104051/1485/1514/10/
045390/20121116/104144/1485/100/10/
045390/20121116/104221/1495/2015/10/
045390/20121116/104536/1485/826/10/
045390/20121116/104757/1490/608/20/
045390/20121116/105058/1490/101/20/
045390/20121116/105131/1485/156/10/
045390/20121116/105253/1490/5013/20/
045390/20121116/105253/1490/760/20/
045390/20121116/105355/1495/81/20/
045390/20121116/105406/1495/169/20/
045390/20121116/105431/1495/2504/10/
045390/20121116/105446/1500/19436/20/
045390/20121116/105447/1500/281/10/
045390/20121116/105502/1505/2072/20/
045390/20121116/105527/1505/1000/20/
045390/20121116/105536/1505/1100/20/
045390/20121116/105552/1505/1044/20/
045390/20121116/105619/1505/1275/10/
045390/20121116/105627/1505/213/20/
045390/20121116/105638/1510/116/20/
045390/20121116/105643/1510/121/20/
045390/20121116/105649/1510/342/20/
045390/20121116/105649/1510/2926/20/
045390/20121116/105655/1510/131/20/
045390/20121116/105659/1515/108/20/
045390/20121116/105701/1515/104/20/
045390/20121116/105704/1515/335/20/
045390/20121116/105707/1515/4062/20/
045390/20121116/105720/1515/3028/20/
045390/20121116/105733/1515/105/20/
045390/20121116/105739/1515/108/20/
045390/20121116/105811/1515/566/20/
045390/20121116/105821/1515/130/20/
045390/20121116/105821/1515/101/20/
045390/20121116/105828/1515/136/20/
045390/20121116/105831/1515/108/20/
045390/20121116/105832/1515/2003/20/
045390/20121116/105837/1515/669/20/
045390/20121116/105846/1515/510/20/
045390/20121116/105851/1515/1015/20/
045390/20121116/105906/1510/3310/10/
045390/20121116/105909/1505/100/10/
045390/20121116/105914/1505/100/10/
045390/20121116/105925/1505/104/10/
045390/20121116/105929/1505/1000/10/
045390/20121116/105940/1505/1000/10/
045390/20121116/105943/1505/127/10/
045390/20121116/110040/1505/235/10/
045390/20121116/110041/1505/174/10/
045390/20121116/110042/1505/174/10/
045390/20121116/110044/1505/174/10/
045390/20121116/110047/1505/174/10/
045390/20121116/110048/1505/174/10/
045390/20121116/110054/1505/176/10/
045390/20121116/110138/1505/1043/10/
045390/20121116/110305/1510/162/20/
045390/20121116/110434/1505/837/10/
045390/20121116/110505/1505/4169/10/
045390/20121116/110505/1505/1382/20/
045390/20121116/110513/1500/100/10/
045390/20121116/110759/1510/110/20/
045390/20121116/110814/1510/307/20/
045390/20121116/111053/1505/83/10/
045390/20121116/111108/1505/4130/10/
045390/20121116/111108/1500/5082/10/
045390/20121116/111108/1495/789/10/
045390/20121116/111230/1505/212/10/
045390/20121116/111250/1510/81/20/
045390/20121116/111258/1510/1002/20/
045390/20121116/111330/1510/3027/20/
045390/20121116/111408/1510/247/20/
045390/20121116/111434/1510/1037/20/
045390/20121116/111509/1510/2023/20/
045390/20121116/111513/1510/2160/20/
045390/20121116/111517/1510/200/20/
045390/20121116/111518/1510/1000/20/
045390/20121116/111521/1510/5552/20/
045390/20121116/111613/1515/157/20/
045390/20121116/111625/1510/145/10/
045390/20121116/111656/1515/85/20/
045390/20121116/111759/1515/175/20/
045390/20121116/111808/1515/121/20/
045390/20121116/111915/1510/10392/10/
045390/20121116/111938/1510/3000/20/
045390/20121116/112131/1510/3000/20/
045390/20121116/112353/1510/1924/20/
045390/20121116/112432/1510/441/20/
045390/20121116/112523/1510/1169/20/
045390/20121116/112533/1510/103/20/
045390/20121116/112742/1510/15345/10/
045390/20121116/112835/1510/1000/20/
045390/20121116/112846/1510/111/20/
045390/20121116/112927/1505/4075/10/
045390/20121116/113303/1510/100/20/
045390/20121116/113540/1510/100/20/
045390/20121116/113608/1510/350/20/
045390/20121116/113610/1505/5000/10/
045390/20121116/113748/1505/339/10/
045390/20121116/113934/1500/233/10/
045390/20121116/114000/1500/1489/10/
045390/20121116/114000/1500/1781/20/
045390/20121116/114028/1500/2001/20/
045390/20121116/114219/1500/90/10/
045390/20121116/114219/1495/4004/10/
045390/20121116/114219/1495/906/20/
045390/20121116/114232/1500/200/10/
045390/20121116/114243/1500/204/10/
045390/20121116/114518/1500/102/10/
045390/20121116/114534/1500/96/10/
045390/20121116/114646/1495/1143/10/
045390/20121116/114646/1490/5809/10/
045390/20121116/114646/1490/3049/20/
045390/20121116/114953/1490/519/10/
045390/20121116/115116/1500/1035/20/
045390/20121116/115142/1500/1000/20/
045390/20121116/115342/1500/969/20/
045390/20121116/115426/1500/4345/10/
045390/20121116/115459/1500/200/20/
045390/20121116/115539/1495/4526/10/
045390/20121116/115621/1495/500/20/
045390/20121116/115639/1495/4974/20/
045390/20121116/115733/1495/7391/10/
045390/20121116/115733/1495/2609/20/
045390/20121116/115823/1500/420/20/
045390/20121116/115837/1500/300/20/
045390/20121116/115913/1500/5581/20/
045390/20121116/120013/1500/2402/10/
045390/20121116/120039/1510/201/20/
045390/20121116/120447/1510/133/20/
045390/20121116/120513/1510/400/20/
045390/20121116/120617/1500/120/10/
045390/20121116/121334/1500/2422/10/
045390/20121116/121348/1500/1585/20/
045390/20121116/121911/1500/201/10/
045390/20121116/122054/1500/300/10/
045390/20121116/122100/1500/600/10/
045390/20121116/122115/1500/500/10/
045390/20121116/122130/1505/100/20/
045390/20121116/122203/1505/522/20/
045390/20121116/122206/1505/3000/20/
045390/20121116/122310/1505/12002/20/
045390/20121116/122508/1500/194/10/
045390/20121116/122603/1500/16185/10/
045390/20121116/122603/1495/4815/10/
045390/20121116/122645/1495/2677/10/
045390/20121116/123058/1500/118/20/
045390/20121116/123225/1500/1000/20/
045390/20121116/123239/1500/500/20/
045390/20121116/123241/1500/500/20/
045390/20121116/123400/1500/543/20/
045390/20121116/123400/1500/221/10/
045390/20121116/123522/1500/1500/10/
045390/20121116/123735/1505/5000/20/
045390/20121116/123959/1500/201/10/
045390/20121116/124002/1500/2000/10/
045390/20121116/124036/1500/1000/10/
045390/20121116/124139/1505/500/20/
045390/20121116/124212/1505/410/20/
045390/20121116/124320/1500/644/10/
045390/20121116/124406/1500/855/10/
045390/20121116/124758/1500/101/10/
045390/20121116/124818/1500/1352/10/
045390/20121116/124831/1500/90/10/
045390/20121116/124928/1500/111/10/
045390/20121116/124936/1500/1389/10/
045390/20121116/124947/1500/826/10/
045390/20121116/124954/1505/201/20/
045390/20121116/125115/1500/702/10/
045390/20121116/125119/1505/100/20/
045390/20121116/125254/1505/800/20/
045390/20121116/125535/1505/220/20/
045390/20121116/125623/1500/8551/10/
045390/20121116/125658/1500/101/10/
045390/20121116/125823/1500/4910/10/
045390/20121116/125958/1500/6040/10/
045390/20121116/130015/1500/300/10/
045390/20121116/130018/1500/1000/10/
045390/20121116/130025/1500/220/10/
045390/20121116/130025/1500/1000/20/
045390/20121116/130036/1500/291/20/
045390/20121116/130041/1500/1200/10/
045390/20121116/130245/1500/1750/10/
045390/20121116/130253/1500/2000/10/
045390/20121116/130321/1500/100/10/
045390/20121116/130449/1505/500/20/
045390/20121116/130524/1505/2183/20/
045390/20121116/130609/1510/111/20/
045390/20121116/130657/1505/571/10/
045390/20121116/130718/1505/1020/10/
045390/20121116/130801/1505/471/10/
045390/20121116/130818/1510/160/20/
045390/20121116/130827/1510/3300/20/
045390/20121116/130847/1510/86/20/
045390/20121116/130852/1510/85/20/
045390/20121116/130900/1510/91/20/
045390/20121116/130904/1510/4518/20/
045390/20121116/130904/1510/497/20/
045390/20121116/130916/1515/82/20/
045390/20121116/130920/1515/84/20/
045390/20121116/130920/1515/2402/20/
045390/20121116/130922/1515/1068/20/
045390/20121116/130922/1520/2973/20/
045390/20121116/130925/1515/81/10/
045390/20121116/130930/1520/85/20/
045390/20121116/130933/1520/82/20/
045390/20121116/130936/1515/81/10/
045390/20121116/130939/1520/91/20/
045390/20121116/130939/1520/5905/20/
045390/20121116/130941/1520/537/10/
045390/20121116/130945/1525/85/20/
045390/20121116/130948/1525/85/20/
045390/20121116/130950/1525/88/20/
045390/20121116/130950/1525/4000/20/
045390/20121116/130952/1525/102/20/
045390/20121116/130952/1525/3149/20/
045390/20121116/130952/1530/174/20/
045390/20121116/130956/1525/83/20/
045390/20121116/130957/1525/4968/20/
045390/20121116/130957/1530/11123/20/
045390/20121116/130957/1535/2650/20/
045390/20121116/130957/1540/15636/20/
045390/20121116/130958/1525/521/20/
045390/20121116/130958/1540/546/20/
045390/20121116/131000/1540/3849/20/
045390/20121116/131001/1540/996/20/
045390/20121116/131002/1545/164/20/
045390/20121116/131002/1540/446/20/
045390/20121116/131003/1540/86/20/
045390/20121116/131004/1535/2182/20/
045390/20121116/131004/1535/305/20/
045390/20121116/131004/1535/3955/20/
045390/20121116/131005/1535/86/20/
045390/20121116/131006/1535/162/20/
045390/20121116/131007/1530/84/10/
045390/20121116/131008/1530/1574/10/
045390/20121116/131009/1530/454/20/
045390/20121116/131010/1530/2375/20/
045390/20121116/131010/1530/2544/20/
045390/20121116/131010/1530/3681/20/
045390/20121116/131012/1535/98/20/
045390/20121116/131013/1535/1003/20/
045390/20121116/131017/1535/85/20/
045390/20121116/131019/1530/176/10/
045390/20121116/131020/1530/223/20/
045390/20121116/131023/1530/131/20/
045390/20121116/131023/1530/100/20/
045390/20121116/131026/1530/160/20/
045390/20121116/131028/1530/4024/20/
045390/20121116/131028/1530/861/20/
045390/20121116/131030/1535/352/20/
045390/20121116/131031/1535/758/20/
045390/20121116/131033/1535/125/10/
045390/20121116/131035/1535/1915/10/
045390/20121116/131035/1530/248/10/
045390/20121116/131035/1530/764/20/
045390/20121116/131036/1535/914/20/
045390/20121116/131039/1535/185/20/
045390/20121116/131041/1530/939/10/
045390/20121116/131042/1535/2690/20/
045390/20121116/131044/1535/360/20/
045390/20121116/131045/1535/609/20/
045390/20121116/131046/1535/136/20/
045390/20121116/131048/1535/83/20/
045390/20121116/131050/1535/226/20/
045390/20121116/131051/1535/6697/20/
045390/20121116/131053/1535/980/20/
045390/20121116/131053/1535/910/20/
045390/20121116/131055/1535/854/10/
045390/20121116/131055/1535/153/20/
045390/20121116/131100/1535/1015/20/
045390/20121116/131101/1535/502/20/
045390/20121116/131104/1535/127/20/
045390/20121116/131107/1535/260/20/
045390/20121116/131110/1535/391/20/
045390/20121116/131118/1535/2058/20/
045390/20121116/131120/1535/458/20/
045390/20121116/131120/1530/700/10/
045390/20121116/131130/1530/2067/10/
045390/20121116/131132/1530/738/10/
045390/20121116/131133/1530/3025/10/
045390/20121116/131133/1530/145/10/
045390/20121116/131140/1530/919/20/
045390/20121116/131148/1530/1607/20/
045390/20121116/131148/1535/403/20/
045390/20121116/131210/1530/544/20/
045390/20121116/131232/1525/183/10/
045390/20121116/131235/1530/200/20/
045390/20121116/131243/1525/81/10/
045390/20121116/131259/1525/90/10/
045390/20121116/131328/1525/282/10/
045390/20121116/131330/1525/500/10/
045390/20121116/131330/1525/100/10/
045390/20121116/131331/1525/500/10/
045390/20121116/131331/1530/200/20/
045390/20121116/131341/1530/201/20/
045390/20121116/131510/1520/137/10/
045390/20121116/131514/1520/922/10/
045390/20121116/131520/1520/145/10/
045390/20121116/131529/1520/100/10/
045390/20121116/131530/1520/455/10/
045390/20121116/131531/1520/158/10/
045390/20121116/131532/1520/178/20/
045390/20121116/131549/1520/922/10/
045390/20121116/131556/1515/136/10/
045390/20121116/131634/1515/1616/10/
045390/20121116/131638/1515/100/20/
045390/20121116/131641/1515/284/20/
045390/20121116/131711/1515/866/10/
045390/20121116/131820/1510/9682/10/
045390/20121116/131820/1505/13350/10/
045390/20121116/131820/1500/14168/10/
045390/20121116/131820/1495/1407/10/
045390/20121116/131836/1500/1000/10/
045390/20121116/131837/1500/101/10/
045390/20121116/131837/1495/2406/10/
045390/20121116/131844/1495/968/10/
045390/20121116/131846/1495/990/10/
045390/20121116/131849/1495/90/10/
045390/20121116/131851/1495/90/10/
045390/20121116/131852/1495/91/10/
045390/20121116/131854/1495/95/10/
045390/20121116/131856/1495/90/10/
045390/20121116/131858/1495/90/10/
045390/20121116/131903/1495/902/10/
045390/20121116/132002/1500/452/10/
045390/20121116/132017/1500/295/10/
045390/20121116/132158/1500/456/10/
045390/20121116/132302/1495/2581/10/
045390/20121116/132303/1495/2000/10/
045390/20121116/132304/1495/4447/10/
045390/20121116/132313/1495/1000/10/
045390/20121116/132317/1495/229/10/
045390/20121116/132318/1495/86/20/
045390/20121116/132342/1495/204/10/
045390/20121116/132348/1490/10000/10/
045390/20121116/132355/1490/1000/10/
045390/20121116/132355/1490/150/10/
045390/20121116/132357/1490/2000/10/
045390/20121116/132447/1490/514/10/
045390/20121116/132502/1490/901/10/
045390/20121116/132510/1490/105/10/
045390/20121116/132521/1490/202/10/
045390/20121116/132539/1490/202/10/
045390/20121116/132547/1490/101/10/
045390/20121116/132554/1490/365/10/
045390/20121116/132555/1490/1028/10/
045390/20121116/132601/1485/11000/10/
045390/20121116/132604/1485/2208/10/
045390/20121116/132605/1485/1280/20/
045390/20121116/132609/1485/2000/10/
045390/20121116/132615/1485/1000/10/
045390/20121116/132620/1485/1000/10/
045390/20121116/132623/1485/86/10/
045390/20121116/132627/1485/120/20/
045390/20121116/132635/1485/1000/20/
045390/20121116/132654/1485/253/20/
045390/20121116/132703/1485/1030/20/
045390/20121116/132704/1485/525/20/
045390/20121116/132712/1485/921/20/
045390/20121116/132719/1485/6000/10/
045390/20121116/132753/1490/3001/20/
045390/20121116/132805/1485/3350/10/
045390/20121116/132821/1485/1021/10/
045390/20121116/132850/1480/84/10/
045390/20121116/132850/1480/21282/10/
045390/20121116/132850/1475/16220/10/
045390/20121116/132901/1470/185/10/
045390/20121116/132903/1475/6802/20/
045390/20121116/132911/1475/2501/20/
045390/20121116/132912/1475/1030/20/
045390/20121116/132913/1475/530/20/
045390/20121116/132915/1475/1375/20/
045390/20121116/132917/1475/4900/20/
045390/20121116/132919/1475/1831/20/
045390/20121116/132935/1475/6002/10/
045390/20121116/132937/1480/100/20/
045390/20121116/132948/1475/2000/10/
045390/20121116/132950/1475/686/10/
045390/20121116/132952/1475/315/20/
045390/20121116/132957/1480/164/20/
045390/20121116/132958/1475/2000/10/
045390/20121116/133006/1475/2001/10/
045390/20121116/133028/1475/4001/10/
045390/20121116/133039/1475/1001/10/
045390/20121116/133044/1480/601/20/
045390/20121116/133050/1480/333/20/
045390/20121116/133128/1480/1011/20/
045390/20121116/133130/1480/1040/20/
045390/20121116/133132/1485/9222/20/
045390/20121116/133136/1485/4001/10/
045390/20121116/133140/1485/2000/10/
045390/20121116/133145/1490/148/20/
045390/20121116/133146/1485/2000/10/
045390/20121116/133149/1485/5204/10/
045390/20121116/133149/1485/500/10/
045390/20121116/133154/1480/597/10/
045390/20121116/133201/1485/4311/20/
045390/20121116/133202/1485/600/10/
045390/20121116/133208/1485/101/10/
045390/20121116/133226/1485/2649/10/
045390/20121116/133259/1490/3120/20/
045390/20121116/133315/1490/301/10/
045390/20121116/133443/1490/227/10/
045390/20121116/133444/1495/13802/20/
045390/20121116/133543/1495/4320/20/
045390/20121116/133621/1495/1000/20/
045390/20121116/133638/1495/250/20/
045390/20121116/133653/1495/202/20/
045390/20121116/133809/1490/1035/10/
045390/20121116/133816/1490/421/10/
045390/20121116/133820/1490/700/10/
045390/20121116/134047/1490/85/10/
045390/20121116/134146/1490/909/10/
045390/20121116/134154/1490/100/10/
045390/20121116/134210/1495/701/20/
045390/20121116/134528/1495/378/20/
045390/20121116/134547/1495/3151/20/
045390/20121116/134559/1495/1375/10/
045390/20121116/134601/1495/543/10/
045390/20121116/134634/1495/651/20/
045390/20121116/134647/1495/101/10/
045390/20121116/134855/1495/401/10/
045390/20121116/134910/1495/201/10/
045390/20121116/135041/1500/1009/20/
045390/20121116/135049/1500/2000/20/
045390/20121116/135122/1495/1000/10/
045390/20121116/135229/1495/2552/10/
045390/20121116/135231/1495/1000/10/
045390/20121116/135247/1495/593/10/
045390/20121116/135247/1490/1472/10/
045390/20121116/135451/1490/1148/10/
045390/20121116/135502/1490/5391/10/
045390/20121116/135525/1490/500/10/
045390/20121116/135530/1490/2004/10/
045390/20121116/135551/1490/600/20/
045390/20121116/135606/1485/100/10/
045390/20121116/135811/1485/501/10/
045390/20121116/135929/1485/2618/10/
045390/20121116/140006/1485/504/10/
045390/20121116/140120/1485/502/10/
045390/20121116/140121/1485/1788/10/
045390/20121116/140121/1480/8212/10/
045390/20121116/140124/1480/520/10/
045390/20121116/140124/1475/1173/10/
045390/20121116/140131/1475/22050/10/
045390/20121116/140131/1470/2106/10/
045390/20121116/140141/1475/200/20/
045390/20121116/140156/1475/2051/10/
045390/20121116/140205/1475/121/10/
045390/20121116/140231/1475/331/10/
045390/20121116/140236/1475/1726/10/
045390/20121116/140239/1475/274/20/
045390/20121116/140352/1480/362/20/
045390/20121116/140400/1480/100/20/
045390/20121116/140426/1480/100/20/
045390/20121116/140439/1480/5073/20/
045390/20121116/140446/1480/1001/10/
045390/20121116/140502/1480/1682/10/
045390/20121116/140518/1480/407/10/
045390/20121116/140542/1480/1544/20/
045390/20121116/140614/1480/557/10/
045390/20121116/140645/1480/1001/10/
045390/20121116/140703/1480/334/10/
045390/20121116/140727/1485/381/20/
045390/20121116/140749/1480/1768/10/
045390/20121116/140749/1475/3232/10/
045390/20121116/141027/1475/722/10/
045390/20121116/141123/1480/801/20/
045390/20121116/141123/1480/100/20/
045390/20121116/141154/1475/12940/10/
045390/20121116/141159/1475/2000/20/
045390/20121116/141205/1480/83/20/
045390/20121116/141211/1480/90/20/
045390/20121116/141217/1480/90/20/
045390/20121116/141223/1480/90/20/
045390/20121116/141228/1480/90/20/
045390/20121116/141237/1480/90/20/
045390/20121116/141242/1480/90/20/
045390/20121116/141249/1480/90/20/
045390/20121116/141256/1480/90/20/
045390/20121116/141302/1480/90/20/
045390/20121116/141304/1480/1020/20/
045390/20121116/141311/1480/90/20/
045390/20121116/141332/1480/1000/20/
045390/20121116/141340/1480/110/20/
045390/20121116/141347/1480/100/20/
045390/20121116/141403/1480/1010/20/
045390/20121116/141429/1475/163/10/
045390/20121116/141431/1480/474/20/
045390/20121116/141435/1480/1123/20/
045390/20121116/141439/1480/100/20/
045390/20121116/141445/1480/117/20/
045390/20121116/141457/1480/330/20/
045390/20121116/141507/1480/211/20/
045390/20121116/141519/1480/122/20/
045390/20121116/141522/1480/1005/20/
045390/20121116/141523/1480/501/20/
045390/20121116/141538/1480/1987/20/
045390/20121116/141611/1485/81/20/
045390/20121116/141633/1485/87/20/
045390/20121116/141659/1485/533/20/
045390/20121116/141722/1485/1065/10/
045390/20121116/141816/1485/1268/10/
045390/20121116/141829/1485/1004/10/
045390/20121116/142030/1485/1012/10/
045390/20121116/142035/1485/1001/10/
045390/20121116/142041/1490/8121/20/
045390/20121116/142143/1485/1052/10/
045390/20121116/142149/1485/2398/10/
045390/20121116/142153/1485/1008/20/
045390/20121116/142155/1485/1004/20/
045390/20121116/142200/1485/598/20/
045390/20121116/142247/1490/167/20/
045390/20121116/142300/1485/2001/10/
045390/20121116/142323/1485/1001/10/
045390/20121116/142334/1485/135/10/
045390/20121116/142431/1485/1447/10/
045390/20121116/142503/1485/427/20/
045390/20121116/142530/1485/130/20/
045390/20121116/142549/1485/427/20/
045390/20121116/142713/1485/101/20/
045390/20121116/142740/1485/400/20/
045390/20121116/142746/1485/518/20/
045390/20121116/142842/1490/3002/20/
045390/20121116/142905/1490/200/20/
045390/20121116/143023/1490/4942/20/
045390/20121116/143025/1490/1013/20/
045390/20121116/143129/1490/210/20/
045390/20121116/143201/1485/150/10/
045390/20121116/143219/1490/202/20/
045390/20121116/143233/1490/100/20/
045390/20121116/143313/1485/1000/10/
045390/20121116/143354/1490/102/20/
045390/20121116/143405/1490/300/20/
045390/20121116/143417/1490/100/20/
045390/20121116/143423/1490/100/20/
045390/20121116/143438/1490/100/20/
045390/20121116/143444/1490/100/20/
045390/20121116/143458/1490/3326/20/
045390/20121116/143510/1495/101/20/
045390/20121116/143522/1495/100/20/
045390/20121116/143525/1495/5000/20/
045390/20121116/143540/1495/500/20/
045390/20121116/143545/1495/5000/20/
045390/20121116/143556/1495/100/20/
045390/20121116/143600/1495/100/20/
045390/20121116/143610/1495/100/20/
045390/20121116/143612/1495/100/20/
045390/20121116/143621/1495/500/20/
045390/20121116/143622/1495/100/20/
045390/20121116/143643/1495/100/20/
045390/20121116/143734/1495/6100/20/
045390/20121116/143739/1495/598/10/
045390/20121116/143748/1495/300/20/
045390/20121116/143749/1495/300/20/
045390/20121116/143801/1495/301/20/
045390/20121116/143805/1495/300/20/
045390/20121116/143816/1495/2485/20/
045390/20121116/143830/1495/2605/10/
045390/20121116/143830/1490/9673/10/
045390/20121116/143830/1485/11670/10/
045390/20121116/143830/1480/22987/10/
045390/20121116/143830/1475/9105/10/
045390/20121116/143948/1490/1050/20/
045390/20121116/144002/1485/551/10/
045390/20121116/144059/1490/506/20/
045390/20121116/144106/1490/1477/20/
045390/20121116/144120/1490/1785/10/
045390/20121116/144123/1490/210/20/
045390/20121116/144124/1490/550/20/
045390/20121116/144147/1490/83/20/
045390/20121116/144201/1490/130/20/
045390/20121116/144201/1490/864/20/
045390/20121116/144232/1490/910/20/
045390/20121116/144232/1490/900/20/
045390/20121116/144241/1490/2000/20/
045390/20121116/144250/1490/1000/10/
045390/20121116/144308/1490/4736/10/
045390/20121116/144356/1490/103/20/
045390/20121116/144358/1490/4362/20/
045390/20121116/144421/1495/3002/20/
045390/20121116/144424/1495/100/20/
045390/20121116/144447/1495/1000/20/
045390/20121116/144502/1495/3161/20/
045390/20121116/144502/1495/2495/20/
045390/20121116/144513/1495/8404/20/
045390/20121116/144513/1495/1596/20/
045390/20121116/144604/1495/1050/20/
045390/20121116/144628/1490/4627/10/
045390/20121116/144631/1490/1916/20/
045390/20121116/144655/1490/3554/10/
045390/20121116/144659/1490/500/10/
045390/20121116/144700/1490/844/10/
045390/20121116/144702/1490/655/10/
045390/20121116/144716/1490/301/10/
045390/20121116/144744/1495/503/20/
045390/20121116/144804/1490/225/10/
045390/20121116/144807/1495/100/20/
045390/20121116/144820/1490/3037/10/
045390/20121116/144835/1495/106/20/
045390/20121116/144837/1490/161/10/
045390/20121116/144838/1490/1000/10/
045390/20121116/144844/1495/161/20/
045390/20121116/144854/1490/500/10/
045390/20121116/144859/1490/301/10/
045390/20121116/144909/1490/241/10/
045390/20121116/144912/1490/2624/10/
045390/20121116/144950/1485/4731/10/
045390/20121116/144950/1485/2269/20/
045390/20121116/144957/1485/2010/20/
045390/20121116/150000/1480/88267/10/
