045390/20130129/90000/1720/57458/10/
045390/20130129/90002/1720/10000/10/
045390/20130129/90002/1720/300/10/
045390/20130129/90002/1725/3875/20/
045390/20130129/90002/1720/160/10/
045390/20130129/90003/1720/400/10/
045390/20130129/90007/1730/4543/20/
045390/20130129/90010/1725/1000/10/
045390/20130129/90010/1720/6090/10/
045390/20130129/90018/1725/1000/20/
045390/20130129/90033/1725/199/20/
045390/20130129/90040/1725/301/20/
045390/20130129/90046/1725/125/10/
045390/20130129/90049/1725/623/10/
045390/20130129/90056/1725/400/20/
045390/20130129/90102/1720/1398/10/
045390/20130129/90102/1720/4000/10/
045390/20130129/90109/1720/5000/10/
045390/20130129/90121/1720/1001/10/
045390/20130129/90126/1720/946/10/
045390/20130129/90126/1720/100/10/
045390/20130129/90131/1720/1000/10/
045390/20130129/90143/1720/2010/10/
045390/20130129/90208/1725/501/20/
045390/20130129/90210/1725/4420/20/
045390/20130129/90314/1730/105/20/
045390/20130129/90316/1730/695/20/
045390/20130129/90321/1730/810/20/
045390/20130129/90326/1735/7797/20/
045390/20130129/90330/1735/786/20/
045390/20130129/90345/1735/553/20/
045390/20130129/90357/1730/1004/10/
045390/20130129/90411/1730/159/10/
045390/20130129/90413/1730/2000/10/
045390/20130129/90436/1730/1563/10/
045390/20130129/90442/1730/1478/20/
045390/20130129/90446/1730/2001/10/
045390/20130129/90524/1735/171/20/
045390/20130129/90541/1735/1000/20/
045390/20130129/90614/1730/123/10/
045390/20130129/90616/1735/290/20/
045390/20130129/90620/1735/6166/20/
045390/20130129/90646/1735/7789/10/
045390/20130129/90647/1735/477/20/
045390/20130129/90647/1740/1175/20/
045390/20130129/90652/1740/88/20/
045390/20130129/90655/1740/88/20/
045390/20130129/90659/1740/88/20/
045390/20130129/90704/1740/88/20/
045390/20130129/90706/1740/1022/20/
045390/20130129/90711/1740/88/20/
045390/20130129/90716/1740/88/20/
045390/20130129/90717/1740/322/20/
045390/20130129/90718/1740/1654/20/
045390/20130129/90721/1740/970/20/
045390/20130129/90721/1740/229/20/
045390/20130129/90725/1740/88/20/
045390/20130129/90726/1740/1183/20/
045390/20130129/90729/1745/88/20/
045390/20130129/90735/1745/321/20/
045390/20130129/90737/1745/136/20/
045390/20130129/90743/1745/4170/20/
045390/20130129/90746/1745/7691/10/
045390/20130129/90747/1745/112/20/
045390/20130129/90748/1745/508/20/
045390/20130129/90756/1745/556/20/
045390/20130129/90800/1745/451/20/
045390/20130129/90803/1745/7209/20/
045390/20130129/90813/1745/559/20/
045390/20130129/90821/1745/84/20/
045390/20130129/90822/1745/1136/20/
045390/20130129/90825/1745/2044/20/
045390/20130129/90832/1745/82/20/
045390/20130129/90845/1745/1775/20/
045390/20130129/90849/1745/5007/20/
045390/20130129/90849/1745/1200/20/
045390/20130129/90859/1745/538/20/
045390/20130129/90927/1740/219/10/
045390/20130129/90928/1740/12455/10/
045390/20130129/91019/1740/81/20/
045390/20130129/91022/1740/1447/20/
045390/20130129/91040/1745/81/20/
045390/20130129/91107/1740/348/10/
045390/20130129/91116/1740/124/20/
045390/20130129/91207/1735/342/10/
045390/20130129/91230/1735/3683/10/
045390/20130129/91234/1735/1425/10/
045390/20130129/91242/1735/1075/20/
045390/20130129/91323/1735/3003/10/
045390/20130129/91331/1735/202/10/
045390/20130129/91407/1735/3003/10/
045390/20130129/91431/1735/726/10/
045390/20130129/91447/1735/1693/20/
045390/20130129/91448/1735/220/20/
045390/20130129/91452/1735/1789/20/
045390/20130129/91454/1735/1000/20/
045390/20130129/91456/1735/818/20/
045390/20130129/91501/1735/911/10/
045390/20130129/91523/1735/120/20/
045390/20130129/91526/1735/1486/20/
045390/20130129/91540/1740/123/20/
045390/20130129/91555/1740/1004/20/
045390/20130129/91609/1735/407/10/
045390/20130129/91623/1740/1016/20/
045390/20130129/91649/1740/1895/20/
045390/20130129/91654/1740/496/20/
045390/20130129/91715/1735/506/10/
045390/20130129/91727/1735/2300/10/
045390/20130129/91804/1735/154/10/
045390/20130129/91808/1735/3000/10/
045390/20130129/91812/1735/3520/10/
045390/20130129/91815/1735/907/10/
045390/20130129/91820/1730/10000/10/
045390/20130129/91825/1735/600/20/
045390/20130129/91830/1735/357/20/
045390/20130129/91834/1735/200/10/
045390/20130129/91837/1735/300/10/
045390/20130129/91838/1735/143/10/
045390/20130129/91925/1730/271/10/
045390/20130129/91943/1730/187/10/
045390/20130129/92025/1730/500/10/
045390/20130129/92027/1730/1285/10/
045390/20130129/92030/1730/6000/10/
045390/20130129/92053/1730/402/10/
045390/20130129/92055/1730/2562/10/
045390/20130129/92056/1730/3966/20/
045390/20130129/92102/1730/780/10/
045390/20130129/92104/1730/130/10/
045390/20130129/92415/1730/8005/10/
045390/20130129/92423/1730/800/10/
045390/20130129/92426/1730/5679/10/
045390/20130129/92428/1730/821/20/
045390/20130129/92526/1730/244/10/
045390/20130129/92548/1730/1732/10/
045390/20130129/92627/1735/1733/20/
045390/20130129/92655/1735/1523/20/
045390/20130129/92655/1740/1477/20/
045390/20130129/92745/1735/304/10/
045390/20130129/92808/1735/100/10/
045390/20130129/92821/1735/2018/10/
045390/20130129/92922/1735/401/10/
045390/20130129/92926/1735/1200/10/
045390/20130129/92936/1735/500/10/
045390/20130129/93006/1735/815/10/
045390/20130129/93021/1730/5000/10/
045390/20130129/93053/1730/2010/10/
045390/20130129/93108/1730/6598/10/
045390/20130129/93112/1730/3402/20/
045390/20130129/93122/1730/800/10/
045390/20130129/93123/1730/878/10/
045390/20130129/93137/1730/122/20/
045390/20130129/93329/1730/649/10/
045390/20130129/93334/1730/2906/10/
045390/20130129/93334/1725/94/10/
045390/20130129/93350/1725/94/10/
045390/20130129/93422/1725/13744/10/
045390/20130129/93432/1725/1500/10/
045390/20130129/93439/1725/300/10/
045390/20130129/93519/1725/900/10/
045390/20130129/93521/1725/150/10/
045390/20130129/93535/1730/110/20/
045390/20130129/93536/1725/131/10/
045390/20130129/93546/1730/159/20/
045390/20130129/93630/1730/133/10/
045390/20130129/93709/1730/1394/10/
045390/20130129/93751/1730/520/20/
045390/20130129/93811/1730/125/20/
045390/20130129/93824/1725/2717/10/
045390/20130129/93856/1725/3000/10/
045390/20130129/93905/1725/4000/10/
045390/20130129/93907/1725/618/10/
045390/20130129/94000/1730/151/20/
045390/20130129/94100/1730/300/20/
045390/20130129/94205/1730/1500/20/
045390/20130129/94225/1730/3000/20/
045390/20130129/94230/1730/960/20/
045390/20130129/94242/1730/1080/20/
045390/20130129/94251/1730/5001/20/
045390/20130129/94251/1730/262/20/
045390/20130129/94310/1730/200/10/
045390/20130129/94500/1730/901/10/
045390/20130129/94515/1730/777/10/
045390/20130129/94530/1730/100/10/
045390/20130129/94556/1730/1000/10/
045390/20130129/94658/1730/369/10/
045390/20130129/94712/1730/1000/10/
045390/20130129/94716/1730/1700/10/
045390/20130129/94718/1730/500/10/
045390/20130129/94744/1730/5904/10/
045390/20130129/94801/1735/496/20/
045390/20130129/94853/1735/85/20/
045390/20130129/94903/1730/100/10/
045390/20130129/95032/1730/2023/10/
045390/20130129/95038/1730/7043/10/
045390/20130129/95137/1730/1001/20/
045390/20130129/95139/1725/3000/10/
045390/20130129/95158/1730/301/20/
045390/20130129/95220/1725/506/10/
045390/20130129/95221/1730/180/20/
045390/20130129/95243/1730/526/20/
045390/20130129/95351/1730/1250/20/
045390/20130129/95443/1730/346/10/
045390/20130129/95516/1730/2612/20/
045390/20130129/95535/1730/429/10/
045390/20130129/95549/1730/3001/20/
045390/20130129/95612/1730/2451/20/
045390/20130129/95623/1730/185/20/
045390/20130129/95700/1730/515/10/
045390/20130129/95708/1730/485/20/
045390/20130129/95812/1730/362/20/
045390/20130129/95821/1730/2215/10/
045390/20130129/95847/1730/100/20/
045390/20130129/95850/1730/715/20/
045390/20130129/95853/1730/285/10/
045390/20130129/95908/1730/500/20/
045390/20130129/95912/1730/120/20/
045390/20130129/95915/1730/500/20/
045390/20130129/95924/1730/100/20/
045390/20130129/100152/1730/241/20/
045390/20130129/100202/1730/290/20/
045390/20130129/100426/1730/1000/20/
045390/20130129/100432/1730/364/20/
045390/20130129/100717/1730/7057/20/
045390/20130129/100733/1730/100/20/
045390/20130129/100757/1730/300/20/
045390/20130129/100818/1730/236/10/
045390/20130129/100916/1730/300/20/
045390/20130129/101101/1730/1011/10/
045390/20130129/101114/1730/3500/10/
045390/20130129/101142/1730/501/10/
045390/20130129/101426/1730/208/10/
045390/20130129/101426/1725/11793/10/
045390/20130129/101500/1725/910/10/
045390/20130129/101520/1720/3000/10/
045390/20130129/101551/1725/318/20/
045390/20130129/101609/1725/302/10/
045390/20130129/101653/1725/501/10/
045390/20130129/101720/1725/195/10/
045390/20130129/101728/1725/1000/10/
045390/20130129/101914/1730/3999/20/
045390/20130129/101933/1730/234/10/
045390/20130129/102107/1730/1010/20/
045390/20130129/102238/1730/2057/10/
045390/20130129/102304/1730/934/10/
045390/20130129/102318/1730/500/10/
045390/20130129/102549/1735/571/20/
045390/20130129/102555/1735/483/20/
045390/20130129/102653/1735/501/20/
045390/20130129/102752/1735/300/20/
045390/20130129/102803/1730/300/10/
045390/20130129/103054/1730/101/10/
045390/20130129/103208/1730/3000/10/
045390/20130129/103313/1730/212/10/
045390/20130129/103435/1730/2065/10/
045390/20130129/103442/1730/200/10/
045390/20130129/103614/1730/845/10/
045390/20130129/103619/1730/1300/10/
045390/20130129/103703/1730/1200/10/
045390/20130129/103735/1730/501/10/
045390/20130129/104110/1730/590/10/
045390/20130129/104135/1730/325/10/
045390/20130129/104248/1730/3000/10/
045390/20130129/104250/1730/100/10/
045390/20130129/104523/1735/501/20/
045390/20130129/104620/1730/160/10/
045390/20130129/104643/1730/284/10/
045390/20130129/104752/1730/4307/10/
045390/20130129/104753/1735/100/20/
045390/20130129/104853/1735/100/20/
045390/20130129/104905/1735/100/20/
045390/20130129/104918/1735/500/20/
045390/20130129/104927/1735/8058/20/
045390/20130129/104945/1735/2300/20/
045390/20130129/104947/1735/1885/20/
045390/20130129/105009/1735/301/20/
045390/20130129/105102/1730/533/10/
045390/20130129/105341/1730/2501/10/
045390/20130129/105506/1730/1000/10/
045390/20130129/105536/1730/800/10/
045390/20130129/105649/1735/10001/20/
045390/20130129/105649/1735/3969/20/
045390/20130129/105655/1730/2000/10/
045390/20130129/105905/1735/5668/10/
045390/20130129/105944/1735/100/20/
045390/20130129/110059/1730/2403/10/
045390/20130129/110150/1735/302/20/
045390/20130129/110150/1735/752/20/
045390/20130129/110332/1735/1278/10/
045390/20130129/110440/1735/691/20/
045390/20130129/110802/1735/1335/20/
045390/20130129/110834/1735/2803/10/
045390/20130129/111025/1735/198/20/
045390/20130129/111129/1740/2001/20/
045390/20130129/111317/1740/1000/20/
045390/20130129/111424/1740/1000/20/
045390/20130129/111454/1740/1000/20/
045390/20130129/111521/1735/2004/10/
045390/20130129/111552/1735/106/20/
045390/20130129/111601/1735/100/10/
045390/20130129/111717/1735/1406/10/
045390/20130129/111738/1735/300/20/
045390/20130129/111753/1735/100/20/
045390/20130129/111810/1735/401/20/
045390/20130129/112120/1730/1370/10/
045390/20130129/112124/1735/273/20/
045390/20130129/112129/1735/413/20/
045390/20130129/112136/1735/587/20/
045390/20130129/112154/1735/413/20/
045390/20130129/112201/1735/2000/10/
045390/20130129/112207/1735/587/10/
045390/20130129/112211/1735/413/20/
045390/20130129/112219/1735/2000/10/
045390/20130129/112223/1735/87/10/
045390/20130129/112241/1735/3013/10/
045390/20130129/112308/1735/3888/10/
045390/20130129/112440/1735/113/20/
045390/20130129/112802/1735/1919/10/
045390/20130129/113043/1735/1200/20/
045390/20130129/113223/1730/3014/10/
045390/20130129/113252/1735/102/20/
045390/20130129/113254/1730/539/10/
045390/20130129/113257/1735/600/20/
045390/20130129/113507/1730/428/10/
045390/20130129/113619/1735/128/20/
045390/20130129/114107/1735/981/20/
045390/20130129/114122/1735/6000/10/
045390/20130129/114222/1735/401/10/
045390/20130129/114254/1735/6952/10/
045390/20130129/114353/1735/388/20/
045390/20130129/114618/1735/400/10/
045390/20130129/114620/1735/775/10/
045390/20130129/114622/1735/550/10/
045390/20130129/114626/1735/399/10/
045390/20130129/114704/1735/117/20/
045390/20130129/114853/1730/106/10/
045390/20130129/115105/1730/337/10/
045390/20130129/115156/1735/400/20/
045390/20130129/115221/1735/200/20/
045390/20130129/115231/1735/200/20/
045390/20130129/120050/1735/305/20/
045390/20130129/120240/1735/406/20/
045390/20130129/120255/1730/550/10/
045390/20130129/120315/1730/20000/10/
045390/20130129/120841/1730/1006/10/
045390/20130129/120854/1730/1000/10/
045390/20130129/120939/1730/13327/10/
045390/20130129/120943/1730/403/10/
045390/20130129/121027/1730/3269/10/
045390/20130129/121027/1725/1620/10/
045390/20130129/121103/1725/500/10/
045390/20130129/121150/1730/1000/20/
045390/20130129/121207/1730/86/20/
045390/20130129/121209/1730/86/10/
045390/20130129/121310/1735/10291/20/
045390/20130129/121336/1735/1651/10/
045390/20130129/121541/1735/125/20/
045390/20130129/121620/1735/1264/20/
045390/20130129/121631/1735/530/10/
045390/20130129/122101/1735/201/10/
045390/20130129/122115/1735/500/10/
045390/20130129/122226/1735/2764/10/
045390/20130129/122356/1735/2001/10/
045390/20130129/122405/1735/500/10/
045390/20130129/122516/1735/135/10/
045390/20130129/122609/1735/906/20/
045390/20130129/123340/1735/130/20/
045390/20130129/123751/1730/92/10/
045390/20130129/123932/1730/10000/10/
045390/20130129/124024/1730/423/10/
045390/20130129/124025/1730/1000/10/
045390/20130129/124311/1735/1800/20/
045390/20130129/124622/1735/105/20/
045390/20130129/124914/1735/250/20/
045390/20130129/124916/1735/200/20/
045390/20130129/124928/1735/100/20/
045390/20130129/124959/1730/249/10/
045390/20130129/125030/1730/1490/10/
045390/20130129/125119/1735/85/20/
045390/20130129/125320/1735/1000/20/
045390/20130129/125535/1730/501/10/
045390/20130129/130130/1735/120/20/
045390/20130129/130330/1730/540/10/
045390/20130129/130432/1735/1000/20/
045390/20130129/130645/1730/3000/10/
045390/20130129/130716/1730/1839/10/
045390/20130129/130752/1730/5000/10/
045390/20130129/130757/1730/500/10/
045390/20130129/130920/1730/14100/10/
045390/20130129/130944/1730/1680/10/
045390/20130129/130946/1730/500/10/
045390/20130129/131020/1730/100/10/
045390/20130129/131030/1730/300/10/
045390/20130129/131045/1730/100/10/
045390/20130129/131132/1730/3000/10/
045390/20130129/131322/1730/91/10/
045390/20130129/131340/1730/100/10/
045390/20130129/131343/1730/90/10/
045390/20130129/131357/1730/500/10/
045390/20130129/131446/1730/97/10/
045390/20130129/131622/1730/4000/10/
045390/20130129/131627/1735/300/20/
045390/20130129/131736/1735/350/20/
045390/20130129/131823/1730/510/10/
045390/20130129/131850/1735/500/20/
045390/20130129/132046/1730/212/10/
045390/20130129/132140/1730/635/10/
045390/20130129/132231/1725/2055/10/
045390/20130129/132352/1730/742/20/
045390/20130129/132435/1730/132/20/
045390/20130129/132657/1725/361/10/
045390/20130129/132728/1725/300/10/
045390/20130129/132731/1730/397/20/
045390/20130129/133131/1730/1003/20/
045390/20130129/133215/1725/1000/10/
045390/20130129/133216/1730/300/20/
045390/20130129/133348/1725/6005/10/
045390/20130129/133359/1730/1000/20/
045390/20130129/133807/1725/1694/10/
045390/20130129/133814/1725/200/10/
045390/20130129/133817/1725/22230/10/
045390/20130129/133839/1725/2354/20/
045390/20130129/133905/1725/1106/10/
045390/20130129/133943/1720/25717/10/
045390/20130129/133943/1715/20348/10/
045390/20130129/133952/1715/207/20/
045390/20130129/133953/1715/3738/20/
045390/20130129/133958/1715/1160/10/
045390/20130129/134016/1715/1010/10/
045390/20130129/134021/1720/100/20/
045390/20130129/134022/1715/570/10/
045390/20130129/134026/1715/4826/10/
045390/20130129/134030/1715/5074/20/
045390/20130129/134042/1715/5331/10/
045390/20130129/134056/1715/109/20/
045390/20130129/134058/1715/500/20/
045390/20130129/134059/1715/1060/20/
045390/20130129/134102/1715/201/20/
045390/20130129/134103/1715/1000/20/
045390/20130129/134105/1715/100/20/
045390/20130129/134115/1715/1299/20/
045390/20130129/134203/1715/1351/10/
045390/20130129/134208/1715/100/20/
045390/20130129/134221/1715/168/20/
045390/20130129/134222/1715/916/20/
045390/20130129/134247/1715/4001/10/
045390/20130129/134248/1715/250/10/
045390/20130129/134304/1715/1393/10/
045390/20130129/134314/1715/170/10/
045390/20130129/134322/1720/1001/20/
045390/20130129/134340/1720/200/20/
045390/20130129/134508/1720/630/20/
045390/20130129/134602/1715/900/10/
045390/20130129/134603/1720/7000/20/
045390/20130129/134610/1715/101/10/
045390/20130129/134622/1715/3569/10/
045390/20130129/134641/1720/6542/20/
045390/20130129/134643/1720/105/10/
045390/20130129/134643/1720/111/10/
045390/20130129/134645/1720/90/10/
045390/20130129/134646/1720/105/10/
045390/20130129/134658/1720/153/20/
045390/20130129/134726/1720/6966/20/
045390/20130129/134729/1720/1064/10/
045390/20130129/134743/1720/575/20/
045390/20130129/134818/1720/123/10/
045390/20130129/134856/1720/302/10/
045390/20130129/134955/1715/501/10/
045390/20130129/135033/1720/1630/20/
045390/20130129/135216/1720/108/20/
045390/20130129/135330/1720/201/20/
045390/20130129/135333/1720/300/20/
045390/20130129/135413/1720/1750/20/
045390/20130129/135423/1720/2000/20/
045390/20130129/135452/1720/500/20/
045390/20130129/135459/1720/895/20/
045390/20130129/135518/1715/1051/10/
045390/20130129/135548/1720/105/20/
045390/20130129/135601/1715/501/10/
045390/20130129/135709/1715/5013/10/
045390/20130129/135733/1715/500/10/
045390/20130129/135912/1720/1060/20/
045390/20130129/135923/1715/710/10/
045390/20130129/140004/1715/100/10/
045390/20130129/140101/1715/1000/10/
045390/20130129/140107/1715/2301/10/
045390/20130129/140144/1715/150/10/
045390/20130129/140202/1715/9692/10/
045390/20130129/140206/1715/877/10/
045390/20130129/140212/1715/750/20/
045390/20130129/140233/1715/326/20/
045390/20130129/140259/1715/1003/20/
045390/20130129/140301/1715/110/20/
045390/20130129/140308/1715/655/20/
045390/20130129/140310/1715/500/20/
045390/20130129/140311/1715/2582/20/
045390/20130129/140311/1715/100/20/
045390/20130129/140312/1715/100/20/
045390/20130129/140315/1715/89/20/
045390/20130129/140322/1715/100/20/
045390/20130129/140323/1715/834/20/
045390/20130129/140325/1715/100/20/
045390/20130129/140330/1710/1000/10/
045390/20130129/140334/1710/4037/10/
045390/20130129/140410/1715/1013/20/
045390/20130129/140413/1715/100/20/
045390/20130129/140420/1715/100/20/
045390/20130129/140423/1715/100/20/
045390/20130129/140432/1715/100/20/
045390/20130129/140454/1715/104/20/
045390/20130129/140511/1715/799/20/
045390/20130129/140515/1715/226/10/
045390/20130129/140551/1715/2653/20/
045390/20130129/140706/1715/656/20/
045390/20130129/140706/1715/848/20/
045390/20130129/140716/1715/500/10/
045390/20130129/140722/1715/3652/10/
045390/20130129/140729/1715/500/20/
045390/20130129/140809/1710/2023/10/
045390/20130129/140811/1710/868/10/
045390/20130129/140814/1710/1000/10/
045390/20130129/140829/1710/280/10/
045390/20130129/140833/1715/200/20/
045390/20130129/140836/1710/7000/10/
045390/20130129/140839/1710/100/10/
045390/20130129/140840/1710/1093/10/
045390/20130129/140848/1710/546/10/
045390/20130129/140856/1710/2000/10/
045390/20130129/140904/1710/7000/10/
045390/20130129/140904/1710/2453/10/
045390/20130129/140920/1710/570/20/
045390/20130129/140925/1710/4167/20/
045390/20130129/140932/1710/570/10/
045390/20130129/140947/1715/5000/20/
045390/20130129/140957/1715/310/20/
045390/20130129/141009/1715/1690/20/
045390/20130129/141014/1710/300/10/
045390/20130129/141024/1710/2002/10/
045390/20130129/141034/1710/3000/10/
045390/20130129/141052/1710/5905/10/
045390/20130129/141058/1710/300/10/
045390/20130129/141121/1710/2204/10/
045390/20130129/141133/1710/601/20/
045390/20130129/141137/1710/156/20/
045390/20130129/141140/1705/90/10/
045390/20130129/141158/1705/310/10/
045390/20130129/141232/1710/420/20/
045390/20130129/141236/1710/300/20/
045390/20130129/141240/1710/100/20/
045390/20130129/141241/1710/2122/20/
045390/20130129/141241/1710/1777/20/
045390/20130129/141304/1715/2033/20/
045390/20130129/141417/1715/100/20/
045390/20130129/141443/1715/150/20/
045390/20130129/141446/1710/250/10/
045390/20130129/141523/1710/767/10/
045390/20130129/141555/1710/311/10/
045390/20130129/141623/1715/100/20/
045390/20130129/141624/1715/2000/20/
045390/20130129/141823/1710/3063/10/
045390/20130129/141913/1710/1180/10/
045390/20130129/141920/1715/816/20/
045390/20130129/141926/1715/9565/20/
045390/20130129/141945/1720/14006/20/
045390/20130129/142052/1725/3829/20/
045390/20130129/142056/1730/20000/20/
045390/20130129/142100/1730/115/20/
045390/20130129/142107/1730/800/20/
045390/20130129/142107/1730/462/20/
045390/20130129/142109/1735/10000/20/
045390/20130129/142114/1730/1568/10/
045390/20130129/142123/1730/435/20/
045390/20130129/142127/1730/566/10/
045390/20130129/142129/1730/100/20/
045390/20130129/142130/1730/100/20/
045390/20130129/142132/1730/1785/20/
045390/20130129/142151/1735/10002/20/
045390/20130129/142157/1735/523/20/
045390/20130129/142158/1735/800/10/
045390/20130129/142201/1740/10020/20/
045390/20130129/142201/1735/1657/10/
045390/20130129/142202/1735/10000/20/
045390/20130129/142202/1735/10000/20/
045390/20130129/142203/1735/2000/20/
045390/20130129/142203/1735/3343/20/
045390/20130129/142208/1740/7000/20/
045390/20130129/142208/1740/3761/10/
045390/20130129/142208/1740/5519/10/
045390/20130129/142208/1740/720/10/
045390/20130129/142213/1745/2030/20/
045390/20130129/142214/1745/2000/20/
045390/20130129/142214/1745/2000/20/
045390/20130129/142214/1745/5763/20/
045390/20130129/142215/1745/2040/20/
045390/20130129/142215/1745/2000/20/
045390/20130129/142216/1745/140/20/
045390/20130129/142217/1745/5854/20/
045390/20130129/142217/1750/14146/20/
045390/20130129/142219/1750/39066/20/
045390/20130129/142220/1755/1000/20/
045390/20130129/142220/1750/1218/10/
045390/20130129/142222/1755/1060/20/
045390/20130129/142224/1755/4930/20/
045390/20130129/142225/1755/16591/20/
045390/20130129/142228/1755/500/10/
045390/20130129/142232/1760/210/20/
045390/20130129/142236/1760/700/20/
045390/20130129/142238/1755/100/10/
045390/20130129/142240/1755/800/10/
045390/20130129/142241/1760/1925/20/
045390/20130129/142242/1760/3162/20/
045390/20130129/142243/1760/24811/20/
045390/20130129/142244/1760/5189/10/
045390/20130129/142246/1760/1500/20/
045390/20130129/142246/1760/700/20/
045390/20130129/142247/1760/761/20/
045390/20130129/142247/1765/1239/20/
045390/20130129/142247/1765/300/20/
045390/20130129/142248/1765/505/20/
045390/20130129/142250/1760/2122/20/
045390/20130129/142250/1760/500/10/
045390/20130129/142250/1765/500/20/
045390/20130129/142252/1760/900/10/
045390/20130129/142253/1760/1051/10/
045390/20130129/142254/1760/500/10/
045390/20130129/142254/1765/1846/20/
045390/20130129/142254/1760/500/10/
045390/20130129/142254/1760/3000/10/
045390/20130129/142255/1765/302/20/
045390/20130129/142255/1765/100/20/
045390/20130129/142256/1760/2294/10/
045390/20130129/142257/1760/3712/20/
045390/20130129/142259/1765/1699/20/
045390/20130129/142259/1760/5000/10/
045390/20130129/142300/1760/1289/10/
045390/20130129/142301/1760/711/20/
045390/20130129/142301/1760/500/10/
045390/20130129/142304/1760/8789/10/
045390/20130129/142305/1755/967/10/
045390/20130129/142307/1760/160/20/
045390/20130129/142310/1760/5492/20/
045390/20130129/142311/1760/379/10/
045390/20130129/142312/1760/500/10/
045390/20130129/142312/1760/138/10/
045390/20130129/142312/1760/4182/10/
045390/20130129/142314/1760/300/20/
045390/20130129/142315/1760/818/20/
045390/20130129/142316/1760/100/10/
045390/20130129/142316/1760/500/10/
045390/20130129/142317/1760/500/10/
045390/20130129/142318/1760/82/10/
045390/20130129/142318/1760/1718/10/
045390/20130129/142319/1760/7276/10/
045390/20130129/142321/1760/1440/20/
045390/20130129/142323/1760/1000/20/
045390/20130129/142330/1760/200/20/
045390/20130129/142336/1760/500/20/
045390/20130129/142342/1760/100/20/
045390/20130129/142342/1755/3162/10/
045390/20130129/142345/1755/4394/10/
045390/20130129/142345/1755/1000/10/
045390/20130129/142346/1755/115/10/
045390/20130129/142349/1755/1001/10/
045390/20130129/142351/1755/500/10/
045390/20130129/142352/1755/1030/10/
045390/20130129/142355/1755/510/10/
045390/20130129/142356/1755/100/10/
045390/20130129/142359/1755/834/10/
045390/20130129/142400/1755/1000/10/
045390/20130129/142400/1755/819/10/
045390/20130129/142404/1750/1501/10/
045390/20130129/142407/1750/323/10/
045390/20130129/142408/1750/450/10/
045390/20130129/142409/1750/3000/10/
045390/20130129/142413/1750/207/10/
045390/20130129/142417/1750/150/20/
045390/20130129/142417/1750/100/20/
045390/20130129/142423/1750/146/10/
045390/20130129/142427/1755/1001/20/
045390/20130129/142430/1755/104/20/
045390/20130129/142441/1755/501/10/
045390/20130129/142442/1755/816/10/
045390/20130129/142500/1755/282/10/
045390/20130129/142502/1755/5769/20/
045390/20130129/142508/1755/10250/10/
045390/20130129/142511/1760/506/20/
045390/20130129/142516/1760/1000/20/
045390/20130129/142520/1755/564/10/
045390/20130129/142521/1760/1571/20/
045390/20130129/142524/1760/300/20/
045390/20130129/142533/1760/100/20/
045390/20130129/142534/1760/32220/20/
045390/20130129/142535/1760/1000/10/
045390/20130129/142536/1760/1000/10/
045390/20130129/142537/1760/5880/10/
045390/20130129/142540/1760/2120/20/
045390/20130129/142540/1765/17880/20/
045390/20130129/142543/1760/2000/10/
045390/20130129/142543/1755/3414/10/
045390/20130129/142543/1755/110/20/
045390/20130129/142544/1755/4544/20/
045390/20130129/142551/1760/100/20/
045390/20130129/142551/1760/1400/20/
045390/20130129/142552/1765/150/20/
045390/20130129/142554/1760/1975/10/
045390/20130129/142556/1765/12072/20/
045390/20130129/142557/1765/160/20/
045390/20130129/142559/1765/9476/20/
045390/20130129/142604/1770/5665/20/
045390/20130129/142609/1770/186/20/
045390/20130129/142623/1770/11692/20/
045390/20130129/142624/1770/129/10/
045390/20130129/142625/1770/4421/20/
045390/20130129/142625/1775/15579/20/
045390/20130129/142626/1770/500/20/
045390/20130129/142627/1775/506/20/
045390/20130129/142628/1775/500/20/
045390/20130129/142628/1775/3952/20/
045390/20130129/142630/1775/338/20/
045390/20130129/142631/1775/1156/20/
045390/20130129/142631/1775/2531/20/
045390/20130129/142631/1775/975/20/
045390/20130129/142632/1775/100/10/
045390/20130129/142633/1775/1000/10/
045390/20130129/142634/1780/1111/20/
045390/20130129/142635/1775/501/10/
045390/20130129/142636/1780/1000/20/
045390/20130129/142637/1780/500/20/
045390/20130129/142638/1780/116/20/
045390/20130129/142641/1775/925/10/
045390/20130129/142646/1775/695/10/
045390/20130129/142649/1775/520/10/
045390/20130129/142651/1775/502/10/
045390/20130129/142651/1775/395/10/
045390/20130129/142655/1780/664/20/
045390/20130129/142657/1775/503/10/
045390/20130129/142658/1780/241/20/
045390/20130129/142658/1780/100/20/
045390/20130129/142701/1780/142/20/
045390/20130129/142703/1780/10004/20/
045390/20130129/142704/1780/601/20/
045390/20130129/142704/1780/5283/20/
045390/20130129/142705/1780/1630/10/
045390/20130129/142706/1785/2700/20/
045390/20130129/142706/1785/101/20/
045390/20130129/142711/1780/300/10/
045390/20130129/142712/1780/9868/10/
045390/20130129/142713/1780/4444/10/
045390/20130129/142713/1780/1323/20/
045390/20130129/142713/1785/1723/20/
045390/20130129/142714/1780/503/20/
045390/20130129/142714/1780/170/10/
045390/20130129/142715/1780/307/20/
045390/20130129/142717/1780/2631/20/
045390/20130129/142720/1780/311/10/
045390/20130129/142726/1785/585/20/
045390/20130129/142728/1780/13891/10/
045390/20130129/142728/1780/3275/20/
045390/20130129/142732/1780/1946/20/
045390/20130129/142733/1780/502/20/
045390/20130129/142735/1780/877/20/
045390/20130129/142736/1775/3957/10/
045390/20130129/142736/1775/896/10/
045390/20130129/142736/1780/1011/20/
045390/20130129/142737/1780/100/20/
045390/20130129/142737/1775/4651/10/
045390/20130129/142738/1775/522/10/
045390/20130129/142743/1775/309/20/
045390/20130129/142743/1775/8698/10/
045390/20130129/142745/1775/503/10/
045390/20130129/142746/1775/1737/10/
045390/20130129/142746/1770/3265/10/
045390/20130129/142753/1770/6362/10/
045390/20130129/142802/1765/1711/10/
045390/20130129/142803/1770/82/20/
045390/20130129/142803/1765/4001/10/
045390/20130129/142805/1765/2004/10/
045390/20130129/142807/1765/203/10/
045390/20130129/142810/1765/217/10/
045390/20130129/142810/1765/165/10/
045390/20130129/142811/1765/101/20/
045390/20130129/142811/1765/436/20/
045390/20130129/142817/1770/1136/20/
045390/20130129/142819/1770/2608/20/
045390/20130129/142819/1770/487/10/
045390/20130129/142822/1770/103/10/
045390/20130129/142826/1770/117/10/
045390/20130129/142827/1775/102/20/
045390/20130129/142828/1775/201/20/
045390/20130129/142830/1775/3002/20/
045390/20130129/142833/1775/285/20/
045390/20130129/142834/1775/102/20/
045390/20130129/142835/1775/399/20/
045390/20130129/142836/1775/2063/20/
045390/20130129/142841/1780/135/20/
045390/20130129/142851/1780/98/20/
045390/20130129/142852/1780/1101/20/
045390/20130129/142854/1780/106/20/
045390/20130129/142855/1780/3002/20/
045390/20130129/142856/1780/2002/20/
045390/20130129/142856/1780/2951/20/
045390/20130129/142857/1780/8886/20/
045390/20130129/142901/1785/2403/20/
045390/20130129/142902/1785/1003/20/
045390/20130129/142903/1780/252/10/
045390/20130129/142903/1780/2952/10/
045390/20130129/142906/1780/851/20/
045390/20130129/142906/1780/101/20/
045390/20130129/142908/1780/702/20/
045390/20130129/142910/1780/115/10/
045390/20130129/142911/1785/3000/20/
045390/20130129/142928/1785/778/20/
045390/20130129/142934/1780/229/10/
045390/20130129/142935/1780/4599/10/
045390/20130129/142939/1780/605/20/
045390/20130129/142939/1785/207/20/
045390/20130129/142943/1780/136/20/
045390/20130129/142952/1780/4423/20/
045390/20130129/142954/1780/3184/10/
045390/20130129/142954/1775/1500/10/
045390/20130129/143000/1780/168/20/
045390/20130129/143000/1775/500/10/
045390/20130129/143002/1775/1500/10/
045390/20130129/143011/1775/86/10/
045390/20130129/143021/1780/1052/20/
045390/20130129/143027/1780/81/20/
045390/20130129/143027/1780/10000/20/
045390/20130129/143029/1780/947/20/
045390/20130129/143031/1780/752/20/
045390/20130129/143043/1785/10052/20/
045390/20130129/143044/1780/3008/10/
045390/20130129/143047/1785/182/20/
045390/20130129/143058/1785/640/20/
045390/20130129/143103/1780/3398/10/
045390/20130129/143106/1780/212/10/
045390/20130129/143106/1785/100/20/
045390/20130129/143112/1780/150/10/
045390/20130129/143116/1780/190/10/
045390/20130129/143116/1780/404/10/
045390/20130129/143117/1780/2066/10/
045390/20130129/143119/1775/512/10/
045390/20130129/143121/1775/209/10/
045390/20130129/143126/1780/3528/20/
045390/20130129/143127/1780/304/10/
045390/20130129/143128/1780/351/10/
045390/20130129/143128/1780/2000/10/
045390/20130129/143132/1780/574/10/
045390/20130129/143132/1780/628/10/
045390/20130129/143151/1785/572/20/
045390/20130129/143152/1785/10004/20/
045390/20130129/143153/1785/10004/20/
045390/20130129/143153/1785/1000/20/
045390/20130129/143153/1785/9700/20/
045390/20130129/143156/1790/3012/20/
045390/20130129/143158/1790/1110/20/
045390/20130129/143202/1790/20012/20/
045390/20130129/143203/1790/308/20/
045390/20130129/143204/1790/361/20/
045390/20130129/143204/1790/100/20/
045390/20130129/143205/1790/300/20/
045390/20130129/143208/1790/338/20/
045390/20130129/143212/1790/1075/20/
045390/20130129/143213/1790/171/20/
045390/20130129/143215/1790/298/20/
045390/20130129/143215/1790/5000/20/
045390/20130129/143216/1790/100/20/
045390/20130129/143216/1790/1000/20/
045390/20130129/143217/1790/2271/20/
045390/20130129/143217/1790/200/20/
045390/20130129/143220/1790/8913/20/
045390/20130129/143221/1790/6078/10/
045390/20130129/143223/1790/2537/10/
045390/20130129/143228/1795/2295/20/
045390/20130129/143230/1795/106/20/
045390/20130129/143231/1795/64089/20/
045390/20130129/143231/1800/5917/20/
045390/20130129/143232/1800/1012/20/
045390/20130129/143232/1795/100/10/
045390/20130129/143234/1800/123/20/
045390/20130129/143236/1800/313/20/
045390/20130129/143237/1800/15016/20/
045390/20130129/143238/1800/1666/20/
045390/20130129/143238/1800/3532/20/
045390/20130129/143238/1805/1812/20/
045390/20130129/143239/1805/1915/20/
045390/20130129/143240/1800/206/10/
045390/20130129/143240/1800/6269/10/
045390/20130129/143242/1800/2505/20/
045390/20130129/143242/1800/302/20/
045390/20130129/143243/1800/550/20/
045390/20130129/143243/1800/3500/20/
045390/20130129/143244/1795/100/10/
045390/20130129/143247/1800/150/20/
045390/20130129/143248/1795/306/10/
045390/20130129/143251/1795/520/10/
045390/20130129/143251/1795/2000/10/
045390/20130129/143251/1800/1778/20/
045390/20130129/143252/1795/515/10/
045390/20130129/143253/1800/317/20/
045390/20130129/143256/1800/2014/20/
045390/20130129/143257/1800/117/20/
045390/20130129/143257/1800/227/20/
045390/20130129/143257/1795/500/10/
045390/20130129/143259/1800/218/20/
045390/20130129/143301/1800/5510/20/
045390/20130129/143301/1800/5002/20/
045390/20130129/143303/1800/5358/20/
045390/20130129/143303/1800/498/20/
045390/20130129/143304/1795/348/10/
045390/20130129/143304/1800/327/20/
045390/20130129/143304/1805/506/20/
045390/20130129/143305/1800/2000/10/
045390/20130129/143308/1800/994/10/
045390/20130129/143309/1795/1109/10/
045390/20130129/143309/1800/81/20/
045390/20130129/143310/1800/925/10/
045390/20130129/143311/1800/149/20/
045390/20130129/143313/1800/1015/20/
045390/20130129/143313/1795/8621/10/
045390/20130129/143314/1795/5000/20/
045390/20130129/143323/1795/2025/20/
045390/20130129/143327/1795/2009/20/
045390/20130129/143329/1795/140/20/
045390/20130129/143335/1790/1022/10/
045390/20130129/143338/1795/313/20/
045390/20130129/143344/1795/1021/20/
045390/20130129/143347/1790/84/10/
045390/20130129/143349/1795/2004/20/
045390/20130129/143351/1795/141/20/
045390/20130129/143401/1795/143/20/
045390/20130129/143408/1790/14099/10/
045390/20130129/143411/1790/1018/20/
045390/20130129/143414/1785/296/10/
045390/20130129/143421/1790/2034/20/
045390/20130129/143423/1790/406/20/
045390/20130129/143425/1790/4460/20/
045390/20130129/143430/1790/2026/10/
045390/20130129/143433/1790/1010/10/
045390/20130129/143434/1790/2584/10/
045390/20130129/143435/1790/402/20/
045390/20130129/143439/1790/2040/20/
045390/20130129/143451/1790/153/10/
045390/20130129/143455/1795/1524/20/
045390/20130129/143458/1795/5012/20/
045390/20130129/143459/1795/5004/20/
045390/20130129/143459/1795/200/20/
045390/20130129/143500/1795/4809/20/
045390/20130129/143510/1795/1014/10/
045390/20130129/143511/1795/2007/20/
045390/20130129/143511/1800/5861/20/
045390/20130129/143511/1795/1000/20/
045390/20130129/143519/1800/345/20/
045390/20130129/143520/1795/1000/10/
045390/20130129/143525/1795/3013/10/
045390/20130129/143525/1800/12373/20/
045390/20130129/143527/1800/4547/20/
045390/20130129/143527/1795/570/10/
045390/20130129/143527/1795/431/20/
045390/20130129/143531/1800/1013/20/
045390/20130129/143532/1800/4710/20/
045390/20130129/143534/1800/107/20/
045390/20130129/143538/1800/87/20/
045390/20130129/143540/1800/352/20/
045390/20130129/143541/1800/214/20/
045390/20130129/143544/1800/185/20/
045390/20130129/143544/1800/3267/20/
045390/20130129/143545/1800/2465/20/
045390/20130129/143547/1805/84/20/
045390/20130129/143550/1805/85/20/
045390/20130129/143551/1805/900/20/
045390/20130129/143554/1805/82/20/
045390/20130129/143557/1805/84/20/
045390/20130129/143557/1800/485/10/
045390/20130129/143558/1800/515/20/
045390/20130129/143600/1805/84/20/
045390/20130129/143602/1800/4544/10/
045390/20130129/143603/1800/520/10/
045390/20130129/143606/1800/154/10/
045390/20130129/143608/1800/1036/10/
045390/20130129/143609/1800/114/10/
045390/20130129/143609/1805/4515/20/
045390/20130129/143609/1805/700/20/
045390/20130129/143610/1800/392/10/
045390/20130129/143610/1800/597/10/
045390/20130129/143611/1800/706/20/
045390/20130129/143611/1800/3398/20/
045390/20130129/143614/1800/288/20/
045390/20130129/143615/1795/1801/10/
045390/20130129/143616/1800/1171/20/
045390/20130129/143616/1800/4519/20/
045390/20130129/143616/1800/100/10/
045390/20130129/143617/1805/362/20/
045390/20130129/143618/1800/1001/10/
045390/20130129/143619/1800/353/10/
045390/20130129/143619/1800/147/20/
045390/20130129/143620/1800/809/20/
045390/20130129/143620/1800/395/20/
045390/20130129/143621/1800/524/20/
045390/20130129/143622/1800/7793/20/
045390/20130129/143622/1800/100/10/
045390/20130129/143623/1805/203/20/
045390/20130129/143624/1805/3199/20/
045390/20130129/143624/1800/100/10/
045390/20130129/143627/1805/2582/20/
045390/20130129/143629/1805/213/20/
045390/20130129/143629/1805/2502/20/
045390/20130129/143630/1800/610/10/
045390/20130129/143630/1805/96/20/
045390/20130129/143630/1805/686/20/
045390/20130129/143630/1805/831/20/
045390/20130129/143630/1805/13843/20/
045390/20130129/143632/1805/7055/20/
045390/20130129/143633/1805/781/20/
045390/20130129/143636/1810/88/20/
045390/20130129/143638/1810/88/20/
045390/20130129/143638/1810/50011/20/
045390/20130129/143638/1810/4753/20/
045390/20130129/143639/1810/195/10/
045390/20130129/143639/1810/339/10/
045390/20130129/143639/1815/1873/20/
045390/20130129/143639/1815/317/20/
045390/20130129/143641/1805/568/10/
045390/20130129/143642/1810/2016/20/
045390/20130129/143643/1810/262/20/
045390/20130129/143644/1810/82/20/
045390/20130129/143645/1810/1532/20/
045390/20130129/143646/1810/673/20/
045390/20130129/143646/1810/1010/20/
045390/20130129/143646/1805/4000/10/
045390/20130129/143648/1810/84/20/
045390/20130129/143649/1810/90/20/
045390/20130129/143650/1805/5196/10/
045390/20130129/143653/1805/517/20/
045390/20130129/143654/1810/5033/20/
045390/20130129/143700/1810/148/20/
045390/20130129/143700/1810/10000/20/
045390/20130129/143700/1805/100/10/
045390/20130129/143700/1805/101/10/
045390/20130129/143702/1810/932/20/
045390/20130129/143707/1810/698/20/
045390/20130129/143712/1805/3585/10/
045390/20130129/143712/1800/20000/10/
045390/20130129/143714/1800/3032/10/
045390/20130129/143715/1800/1704/10/
045390/20130129/143716/1800/19902/10/
045390/20130129/143717/1800/2238/20/
045390/20130129/143718/1795/2036/10/
045390/20130129/143718/1800/552/20/
045390/20130129/143725/1795/320/10/
045390/20130129/143725/1800/328/20/
045390/20130129/143733/1795/156/10/
045390/20130129/143734/1795/138/10/
045390/20130129/143736/1795/512/10/
045390/20130129/143737/1800/2000/20/
045390/20130129/143737/1795/825/10/
045390/20130129/143738/1795/298/10/
045390/20130129/143740/1800/302/20/
045390/20130129/143742/1800/2708/20/
045390/20130129/143744/1795/3312/10/
045390/20130129/143747/1795/520/10/
045390/20130129/143747/1795/1001/10/
045390/20130129/143748/1795/318/10/
045390/20130129/143748/1795/263/10/
045390/20130129/143748/1790/238/10/
045390/20130129/143752/1790/516/10/
045390/20130129/143758/1790/1071/10/
045390/20130129/143803/1790/3133/10/
045390/20130129/143805/1790/6871/10/
045390/20130129/143808/1790/6976/20/
045390/20130129/143811/1790/643/10/
045390/20130129/143812/1795/86/20/
045390/20130129/143817/1790/146/10/
045390/20130129/143823/1790/145/10/
045390/20130129/143827/1795/83/20/
045390/20130129/143831/1795/84/20/
045390/20130129/143835/1795/84/20/
045390/20130129/143838/1795/98/20/
045390/20130129/143839/1790/626/10/
045390/20130129/143843/1795/82/20/
045390/20130129/143847/1795/86/20/
045390/20130129/143850/1795/8434/20/
045390/20130129/143851/1795/133/10/
045390/20130129/143855/1800/81/20/
045390/20130129/143857/1795/1255/10/
045390/20130129/143857/1795/101/10/
045390/20130129/143901/1800/82/20/
045390/20130129/143901/1800/6611/20/
045390/20130129/143902/1800/519/20/
045390/20130129/143904/1800/20324/20/
045390/20130129/143905/1800/108/20/
045390/20130129/143906/1800/725/20/
045390/20130129/143907/1800/3033/20/
045390/20130129/143908/1800/283/20/
045390/20130129/143908/1800/1012/20/
045390/20130129/143910/1800/1063/20/
045390/20130129/143911/1800/1011/20/
045390/20130129/143911/1800/997/20/
045390/20130129/143916/1800/84/20/
045390/20130129/143917/1800/6936/20/
045390/20130129/143918/1800/2800/10/
045390/20130129/143921/1800/10192/10/
045390/20130129/143921/1800/1104/10/
045390/20130129/143924/1800/542/20/
045390/20130129/143926/1800/532/20/
045390/20130129/143928/1800/155/10/
045390/20130129/143929/1800/1011/10/
045390/20130129/143931/1805/156/20/
045390/20130129/143934/1800/228/10/
045390/20130129/143934/1800/111/10/
045390/20130129/143936/1800/102/10/
045390/20130129/143936/1795/909/10/
045390/20130129/143944/1805/88/20/
045390/20130129/143945/1795/1011/10/
045390/20130129/143950/1805/88/20/
045390/20130129/143951/1795/854/10/
045390/20130129/143956/1800/566/20/
045390/20130129/143956/1805/3144/20/
045390/20130129/144002/1805/85/20/
045390/20130129/144004/1805/1224/20/
045390/20130129/144005/1805/378/20/
045390/20130129/144006/1805/6000/20/
045390/20130129/144012/1805/105/20/
045390/20130129/144018/1800/377/10/
045390/20130129/144024/1805/88/20/
045390/20130129/144025/1805/1464/20/
045390/20130129/144027/1800/890/10/
045390/20130129/144027/1805/867/20/
045390/20130129/144030/1805/573/20/
045390/20130129/144033/1805/511/20/
045390/20130129/144035/1805/2350/20/
045390/20130129/144036/1805/500/20/
045390/20130129/144041/1805/502/20/
045390/20130129/144052/1800/367/10/
045390/20130129/144052/1800/138/10/
045390/20130129/144057/1800/1621/10/
045390/20130129/144057/1800/3509/10/
045390/20130129/144058/1800/5000/10/
045390/20130129/144058/1800/1000/10/
045390/20130129/144059/1800/700/10/
045390/20130129/144059/1800/3033/10/
045390/20130129/144100/1800/2670/10/
045390/20130129/144101/1800/555/10/
045390/20130129/144101/1805/200/20/
045390/20130129/144101/1800/500/10/
045390/20130129/144102/1800/365/10/
045390/20130129/144102/1800/200/10/
045390/20130129/144104/1800/2862/10/
045390/20130129/144105/1800/1800/10/
045390/20130129/144107/1800/2951/10/
045390/20130129/144109/1800/2000/10/
045390/20130129/144111/1800/5022/10/
045390/20130129/144111/1800/200/10/
045390/20130129/144112/1800/388/10/
045390/20130129/144116/1795/14507/10/
045390/20130129/144117/1790/100/10/
045390/20130129/144120/1790/5328/10/
045390/20130129/144121/1790/349/10/
045390/20130129/144121/1790/829/10/
045390/20130129/144121/1790/388/10/
045390/20130129/144122/1790/1000/10/
045390/20130129/144122/1790/100/10/
045390/20130129/144122/1790/100/10/
045390/20130129/144122/1790/100/10/
045390/20130129/144122/1790/385/10/
045390/20130129/144124/1790/997/10/
045390/20130129/144124/1790/600/10/
045390/20130129/144125/1795/5000/20/
045390/20130129/144126/1790/3282/10/
045390/20130129/144130/1790/1161/10/
045390/20130129/144131/1795/5511/20/
045390/20130129/144135/1795/1395/20/
045390/20130129/144142/1790/311/10/
045390/20130129/144145/1795/159/20/
045390/20130129/144147/1795/1015/20/
045390/20130129/144148/1795/571/20/
045390/20130129/144152/1795/4845/20/
045390/20130129/144153/1795/100/10/
045390/20130129/144203/1795/346/10/
045390/20130129/144204/1795/180/10/
045390/20130129/144212/1795/1288/10/
045390/20130129/144214/1795/500/10/
045390/20130129/144215/1795/4919/10/
045390/20130129/144216/1795/695/10/
045390/20130129/144216/1795/500/10/
045390/20130129/144223/1800/576/20/
045390/20130129/144224/1795/152/10/
045390/20130129/144231/1795/1007/10/
045390/20130129/144233/1795/2395/10/
045390/20130129/144240/1795/1178/10/
045390/20130129/144244/1795/457/10/
045390/20130129/144245/1795/890/20/
045390/20130129/144246/1790/1187/10/
045390/20130129/144251/1795/1268/20/
045390/20130129/144255/1795/555/10/
045390/20130129/144314/1795/355/10/
045390/20130129/144318/1800/7005/20/
045390/20130129/144320/1800/1000/20/
045390/20130129/144330/1800/361/20/
045390/20130129/144343/1795/162/10/
045390/20130129/144353/1795/4014/10/
045390/20130129/144405/1800/8399/20/
045390/20130129/144407/1800/3000/20/
045390/20130129/144415/1800/510/20/
045390/20130129/144417/1800/3000/20/
045390/20130129/144428/1795/81/10/
045390/20130129/144452/1795/10897/10/
045390/20130129/144452/1790/4163/10/
045390/20130129/144516/1795/2350/20/
045390/20130129/144520/1795/260/20/
045390/20130129/144522/1795/5000/20/
045390/20130129/144523/1795/1010/20/
045390/20130129/144524/1795/1000/20/
045390/20130129/144524/1795/200/20/
045390/20130129/144525/1795/1514/20/
045390/20130129/144526/1795/260/20/
045390/20130129/144526/1795/1202/20/
045390/20130129/144526/1795/1479/20/
045390/20130129/144531/1800/985/20/
045390/20130129/144554/1800/1692/20/
045390/20130129/144554/1795/994/10/
045390/20130129/144557/1800/1854/20/
045390/20130129/144603/1800/98/20/
045390/20130129/144609/1800/10515/20/
045390/20130129/144614/1800/10020/20/
045390/20130129/144618/1800/321/20/
045390/20130129/144619/1800/500/10/
045390/20130129/144619/1800/280/10/
045390/20130129/144623/1800/100/10/
045390/20130129/144629/1805/15020/20/
045390/20130129/144630/1805/1383/20/
045390/20130129/144631/1805/200/10/
045390/20130129/144633/1805/1000/10/
045390/20130129/144640/1805/501/10/
045390/20130129/144645/1805/465/10/
045390/20130129/144646/1805/535/10/
045390/20130129/144652/1800/6001/10/
045390/20130129/144657/1805/12010/20/
045390/20130129/144702/1805/1020/20/
045390/20130129/144702/1805/244/20/
045390/20130129/144702/1810/756/20/
045390/20130129/144703/1810/1000/20/
045390/20130129/144704/1800/2100/10/
045390/20130129/144705/1810/1010/20/
045390/20130129/144707/1810/300/20/
045390/20130129/144712/1805/311/10/
045390/20130129/144717/1805/100/20/
045390/20130129/144717/1805/100/20/
045390/20130129/144720/1805/100/20/
045390/20130129/144721/1805/100/20/
045390/20130129/144722/1805/100/20/
045390/20130129/144723/1800/300/10/
045390/20130129/144724/1805/100/20/
045390/20130129/144725/1805/100/20/
045390/20130129/144726/1805/100/20/
045390/20130129/144726/1805/100/20/
045390/20130129/144727/1805/100/20/
045390/20130129/144728/1805/8000/20/
045390/20130129/144728/1810/100/20/
045390/20130129/144729/1810/100/20/
045390/20130129/144729/1805/300/10/
045390/20130129/144729/1805/100/10/
045390/20130129/144730/1810/100/20/
045390/20130129/144730/1810/100/20/
045390/20130129/144731/1810/100/20/
045390/20130129/144732/1810/100/20/
045390/20130129/144733/1810/100/20/
045390/20130129/144734/1810/100/20/
045390/20130129/144735/1810/100/20/
045390/20130129/144740/1805/538/10/
045390/20130129/144740/1800/462/10/
045390/20130129/144752/1805/91/10/
045390/20130129/144752/1805/100/10/
045390/20130129/144753/1805/200/10/
045390/20130129/144756/1805/198/10/
045390/20130129/144805/1805/163/10/
045390/20130129/144806/1805/100/20/
045390/20130129/144806/1805/100/20/
045390/20130129/144809/1805/326/20/
045390/20130129/144822/1805/1000/20/
045390/20130129/144825/1805/4750/20/
045390/20130129/144826/1805/1000/10/
045390/20130129/144828/1805/2212/10/
045390/20130129/144840/1805/2435/10/
045390/20130129/144852/1810/81/20/
045390/20130129/144855/1805/10743/10/
045390/20130129/144856/1805/200/20/
045390/20130129/144859/1805/1502/20/
045390/20130129/144907/1805/90/20/
045390/20130129/144907/1805/889/20/
045390/20130129/144908/1805/1120/20/
045390/20130129/144915/1805/90/20/
045390/20130129/144920/1800/251/10/
045390/20130129/144924/1800/340/10/
045390/20130129/144927/1805/750/20/
045390/20130129/144931/1805/110/20/
045390/20130129/144932/1805/8020/20/
045390/20130129/144939/1805/90/20/
045390/20130129/144941/1800/2040/10/
045390/20130129/144943/1805/1889/20/
045390/20130129/144950/1810/90/20/
045390/20130129/144952/1805/307/10/
045390/20130129/144953/1805/2267/10/
045390/20130129/144956/1805/128/10/
045390/20130129/144958/1810/90/20/
045390/20130129/150000/1815/205471/10/
