045390/20130403/90000/1710/36750/10/
045390/20130403/90000/1715/166/20/
045390/20130403/90005/1715/1641/20/
045390/20130403/90026/1715/543/20/
045390/20130403/90031/1715/488/10/
045390/20130403/90036/1715/1062/20/
045390/20130403/90113/1715/100/10/
045390/20130403/90118/1715/1842/10/
045390/20130403/90118/1710/4228/10/
045390/20130403/90123/1710/7652/10/
045390/20130403/90124/1710/2169/20/
045390/20130403/90227/1710/3000/10/
045390/20130403/90324/1710/5253/20/
045390/20130403/90336/1715/1629/20/
045390/20130403/90336/1720/371/20/
045390/20130403/90428/1720/800/20/
045390/20130403/90505/1715/3944/10/
045390/20130403/90505/1710/1106/10/
045390/20130403/90527/1715/501/10/
045390/20130403/90527/1710/2149/10/
045390/20130403/90653/1720/1551/20/
045390/20130403/90657/1720/580/20/
045390/20130403/90727/1720/1085/20/
045390/20130403/90821/1715/5735/10/
045390/20130403/90923/1715/108/20/
045390/20130403/90927/1715/100/20/
045390/20130403/90941/1715/500/20/
045390/20130403/90950/1715/700/20/
045390/20130403/91022/1715/1547/20/
045390/20130403/91029/1715/4992/10/
045390/20130403/91037/1715/3461/10/
045390/20130403/91106/1715/1539/20/
045390/20130403/91113/1715/1210/10/
045390/20130403/91147/1715/1641/10/
045390/20130403/91152/1720/300/20/
045390/20130403/91208/1715/703/10/
045390/20130403/91210/1715/221/20/
045390/20130403/91314/1710/10500/10/
045390/20130403/91315/1710/16930/10/
045390/20130403/91352/1705/500/10/
045390/20130403/91429/1705/2000/10/
045390/20130403/91433/1705/3026/10/
045390/20130403/91641/1705/1010/10/
045390/20130403/91723/1705/347/10/
045390/20130403/92009/1705/24072/10/
045390/20130403/92015/1705/993/10/
045390/20130403/92017/1705/400/10/
045390/20130403/92019/1710/500/20/
045390/20130403/92026/1705/2678/10/
045390/20130403/92059/1705/321/20/
045390/20130403/92115/1705/641/20/
045390/20130403/92116/1705/1000/20/
045390/20130403/92218/1705/263/20/
045390/20130403/92219/1705/4633/20/
045390/20130403/92228/1705/100/10/
045390/20130403/92246/1705/2000/10/
045390/20130403/92326/1705/600/10/
045390/20130403/92350/1705/3010/10/
045390/20130403/92401/1705/1734/10/
045390/20130403/92403/1705/6000/10/
045390/20130403/92405/1705/500/10/
045390/20130403/92423/1705/990/10/
045390/20130403/92428/1705/10000/10/
045390/20130403/92430/1705/4000/10/
045390/20130403/92436/1705/3739/10/
045390/20130403/92444/1705/2000/10/
045390/20130403/92445/1705/5000/10/
045390/20130403/92814/1705/1001/10/
045390/20130403/92831/1710/5000/20/
045390/20130403/92841/1710/100/20/
045390/20130403/92902/1710/2000/20/
045390/20130403/92913/1710/1409/20/
045390/20130403/92926/1710/1308/20/
045390/20130403/92936/1710/2700/10/
045390/20130403/92955/1710/639/10/
045390/20130403/93120/1710/2800/10/
045390/20130403/93218/1710/6446/10/
045390/20130403/93230/1710/415/10/
045390/20130403/93249/1710/2731/20/
045390/20130403/93255/1710/1000/20/
045390/20130403/93312/1710/1000/20/
045390/20130403/93313/1710/500/20/
045390/20130403/93439/1705/1777/10/
045390/20130403/93508/1705/950/10/
045390/20130403/93525/1705/5000/10/
045390/20130403/93547/1705/3001/10/
045390/20130403/93558/1705/2900/10/
045390/20130403/93714/1705/3251/10/
045390/20130403/93725/1705/2000/10/
045390/20130403/93740/1705/150/10/
045390/20130403/93759/1705/5290/10/
045390/20130403/93835/1705/3895/10/
045390/20130403/93837/1705/480/10/
045390/20130403/94015/1710/2005/20/
045390/20130403/94037/1710/10000/20/
045390/20130403/94054/1710/300/20/
045390/20130403/94104/1710/198/20/
045390/20130403/94134/1710/150/20/
045390/20130403/94202/1710/1771/20/
045390/20130403/94230/1710/300/10/
045390/20130403/94251/1710/210/10/
045390/20130403/94418/1710/2030/10/
045390/20130403/94439/1710/120/20/
045390/20130403/94516/1710/1000/20/
045390/20130403/94542/1710/1003/20/
045390/20130403/94545/1710/2373/20/
045390/20130403/94645/1710/1000/10/
045390/20130403/94820/1710/1000/10/
045390/20130403/94833/1710/637/10/
045390/20130403/95033/1710/90/20/
045390/20130403/95055/1710/1020/20/
045390/20130403/95107/1710/1000/20/
045390/20130403/100348/1710/2162/20/
045390/20130403/100355/1710/13487/20/
045390/20130403/100414/1710/2812/10/
045390/20130403/100849/1705/611/10/
045390/20130403/100958/1705/280/10/
045390/20130403/101013/1705/10000/10/
045390/20130403/101047/1705/105/10/
045390/20130403/101111/1705/2000/10/
045390/20130403/101119/1705/1000/10/
045390/20130403/101337/1705/650/10/
045390/20130403/101345/1705/5500/10/
045390/20130403/101352/1705/1183/10/
045390/20130403/101353/1705/183/10/
045390/20130403/101359/1705/3300/10/
045390/20130403/101407/1705/3000/10/
045390/20130403/101414/1705/2000/10/
045390/20130403/101601/1705/3001/10/
045390/20130403/101608/1705/8000/10/
045390/20130403/101611/1705/550/10/
045390/20130403/101630/1705/253/10/
045390/20130403/101732/1700/4074/10/
045390/20130403/101732/1700/99/10/
045390/20130403/101813/1700/300/10/
045390/20130403/101816/1700/1560/10/
045390/20130403/102202/1700/748/10/
045390/20130403/102216/1700/4500/10/
045390/20130403/102218/1705/200/20/
045390/20130403/102251/1705/1010/20/
045390/20130403/102612/1700/400/10/
045390/20130403/102652/1700/2000/10/
045390/20130403/102730/1700/400/10/
045390/20130403/103110/1705/1031/20/
045390/20130403/103239/1705/1000/20/
045390/20130403/103253/1705/203/20/
045390/20130403/103448/1700/2544/10/
045390/20130403/103529/1700/701/10/
045390/20130403/103646/1700/3062/10/
045390/20130403/103802/1705/285/20/
045390/20130403/104013/1705/5000/20/
045390/20130403/104021/1705/3010/20/
045390/20130403/104025/1705/2000/20/
045390/20130403/104032/1700/2900/10/
045390/20130403/104139/1705/1030/20/
045390/20130403/104155/1705/2178/20/
045390/20130403/104213/1705/180/10/
045390/20130403/104234/1705/100/10/
045390/20130403/104244/1705/482/10/
045390/20130403/104324/1700/500/10/
045390/20130403/104348/1705/4000/20/
045390/20130403/104409/1705/556/20/
045390/20130403/104441/1705/445/10/
045390/20130403/104441/1700/1555/10/
045390/20130403/104601/1705/1001/20/
045390/20130403/104640/1705/526/20/
045390/20130403/104853/1705/1220/20/
045390/20130403/104933/1705/2000/10/
045390/20130403/105114/1705/200/10/
045390/20130403/105458/1705/945/10/
045390/20130403/105509/1700/195/10/
045390/20130403/105708/1705/489/20/
045390/20130403/105813/1705/100/10/
045390/20130403/105953/1710/10765/20/
045390/20130403/110012/1710/1372/20/
045390/20130403/110021/1710/1000/20/
045390/20130403/110024/1710/500/20/
045390/20130403/110148/1710/1000/20/
045390/20130403/110313/1705/1004/10/
045390/20130403/110541/1710/85/20/
045390/20130403/110640/1710/81/20/
045390/20130403/110702/1710/81/20/
045390/20130403/110728/1705/9384/10/
045390/20130403/110728/1700/10696/10/
045390/20130403/111432/1705/101/10/
045390/20130403/111438/1705/531/10/
045390/20130403/111538/1705/1000/10/
045390/20130403/111545/1705/770/10/
045390/20130403/111601/1705/1290/10/
045390/20130403/111603/1705/500/10/
045390/20130403/111735/1705/4000/10/
045390/20130403/111744/1705/725/10/
045390/20130403/111816/1705/300/10/
045390/20130403/112001/1705/844/10/
045390/20130403/112126/1705/5985/20/
045390/20130403/112612/1705/501/10/
045390/20130403/112809/1705/1001/10/
045390/20130403/112815/1705/3500/10/
045390/20130403/113131/1705/216/10/
045390/20130403/113140/1705/1236/20/
045390/20130403/113214/1705/1212/20/
045390/20130403/113222/1705/837/20/
045390/20130403/113321/1705/400/10/
045390/20130403/113612/1705/1050/10/
045390/20130403/113617/1705/5059/10/
045390/20130403/113627/1705/2541/20/
045390/20130403/113629/1705/2459/10/
045390/20130403/113730/1705/1754/20/
045390/20130403/113744/1705/3246/10/
045390/20130403/113814/1705/150/20/
045390/20130403/113845/1700/3242/10/
045390/20130403/113952/1700/247/10/
045390/20130403/114211/1705/5000/20/
045390/20130403/114232/1705/700/20/
045390/20130403/114248/1705/1040/10/
045390/20130403/114253/1705/3960/10/
045390/20130403/114301/1705/545/10/
045390/20130403/114304/1705/155/10/
045390/20130403/114321/1705/100/20/
045390/20130403/114452/1705/783/20/
045390/20130403/114513/1705/200/10/
045390/20130403/114517/1705/1000/10/
045390/20130403/114554/1705/3000/10/
045390/20130403/114603/1705/100/10/
045390/20130403/114708/1705/240/10/
045390/20130403/114717/1705/3000/10/
045390/20130403/114728/1705/1000/10/
045390/20130403/114826/1705/1794/10/
045390/20130403/114933/1705/1000/20/
045390/20130403/114938/1705/1000/20/
045390/20130403/114942/1705/444/20/
045390/20130403/115006/1705/4100/10/
045390/20130403/115034/1705/456/10/
045390/20130403/115037/1705/4544/20/
045390/20130403/115053/1705/456/10/
045390/20130403/115106/1705/1544/20/
045390/20130403/115121/1705/2000/10/
045390/20130403/115205/1705/1050/10/
045390/20130403/115225/1705/200/10/
045390/20130403/115236/1705/216/10/
045390/20130403/115315/1705/1400/20/
045390/20130403/115341/1705/1144/20/
045390/20130403/115758/1705/4000/10/
045390/20130403/115809/1705/250/20/
045390/20130403/115845/1705/1629/10/
045390/20130403/120012/1700/630/10/
045390/20130403/120922/1705/437/20/
045390/20130403/121114/1705/4011/10/
045390/20130403/121440/1705/101/10/
045390/20130403/121557/1705/101/10/
045390/20130403/122105/1705/6066/10/
045390/20130403/122223/1705/10703/10/
045390/20130403/122312/1700/2000/10/
045390/20130403/122544/1700/5500/10/
045390/20130403/122550/1700/5000/10/
045390/20130403/122636/1700/500/10/
045390/20130403/122755/1700/631/10/
045390/20130403/122800/1705/9495/20/
045390/20130403/122918/1700/938/10/
045390/20130403/123347/1705/737/20/
045390/20130403/123607/1705/401/20/
045390/20130403/123914/1705/10000/20/
045390/20130403/123937/1705/234/20/
045390/20130403/124027/1705/1010/20/
045390/20130403/124150/1705/700/20/
045390/20130403/124520/1705/4734/20/
045390/20130403/124925/1705/327/10/
045390/20130403/125555/1705/5001/10/
045390/20130403/125914/1705/200/10/
045390/20130403/130010/1705/2500/10/
045390/20130403/130019/1705/979/10/
045390/20130403/130125/1705/500/10/
045390/20130403/130205/1705/2000/10/
045390/20130403/130216/1705/306/10/
045390/20130403/130222/1705/500/20/
045390/20130403/130612/1705/100/20/
045390/20130403/130821/1700/2398/10/
045390/20130403/130907/1700/7730/10/
045390/20130403/130909/1700/4000/10/
045390/20130403/130919/1700/2940/10/
045390/20130403/130920/1700/1000/10/
045390/20130403/130930/1700/1000/10/
045390/20130403/130940/1700/1000/10/
045390/20130403/131115/1700/1001/10/
045390/20130403/131127/1700/2695/10/
045390/20130403/131129/1700/1000/10/
045390/20130403/131131/1700/22549/10/
045390/20130403/131209/1695/600/10/
045390/20130403/131317/1700/7553/20/
045390/20130403/131322/1700/167/10/
045390/20130403/131325/1700/1000/10/
045390/20130403/131331/1700/1000/10/
045390/20130403/131335/1700/281/10/
045390/20130403/131458/1695/81/10/
045390/20130403/131513/1695/404/10/
045390/20130403/131513/1700/2868/20/
045390/20130403/131516/1700/111/10/
045390/20130403/131559/1700/2048/10/
045390/20130403/131718/1700/1050/10/
045390/20130403/131739/1700/990/10/
045390/20130403/131753/1705/7026/20/
045390/20130403/132046/1705/5001/20/
045390/20130403/132049/1705/1000/20/
045390/20130403/132119/1705/4719/10/
045390/20130403/132125/1705/281/10/
045390/20130403/132219/1705/1719/20/
045390/20130403/132224/1705/592/10/
045390/20130403/132256/1705/5001/20/
045390/20130403/132259/1705/1407/20/
045390/20130403/132310/1705/1000/10/
045390/20130403/132315/1705/1000/10/
045390/20130403/132320/1705/1000/10/
045390/20130403/132330/1705/1000/10/
045390/20130403/132342/1705/1001/10/
045390/20130403/132352/1705/341/10/
045390/20130403/132406/1705/2659/20/
045390/20130403/132411/1705/1000/10/
045390/20130403/132417/1705/1000/10/
045390/20130403/132428/1705/341/10/
045390/20130403/132457/1705/659/20/
045390/20130403/132503/1705/1000/10/
045390/20130403/132505/1705/3674/10/
045390/20130403/132517/1700/2000/10/
045390/20130403/132608/1705/10001/20/
045390/20130403/132635/1705/1322/20/
045390/20130403/132642/1705/1000/10/
045390/20130403/132655/1705/1000/10/
045390/20130403/132710/1705/1001/10/
045390/20130403/132716/1705/617/10/
045390/20130403/132720/1705/1001/10/
045390/20130403/132738/1705/1000/10/
045390/20130403/132748/1705/1000/10/
045390/20130403/132758/1705/1001/10/
045390/20130403/132810/1705/1000/10/
045390/20130403/132849/1710/1580/20/
045390/20130403/132852/1710/2000/20/
045390/20130403/132959/1710/5000/20/
045390/20130403/133016/1710/2000/20/
045390/20130403/133357/1710/253/20/
045390/20130403/133359/1710/92/20/
045390/20130403/133454/1710/13761/20/
045390/20130403/133500/1710/1000/10/
045390/20130403/133503/1710/4360/10/
045390/20130403/133545/1710/560/20/
045390/20130403/133619/1710/150/20/
045390/20130403/133644/1710/200/20/
045390/20130403/133741/1710/5000/20/
045390/20130403/133746/1710/2090/20/
045390/20130403/133747/1710/2910/10/
045390/20130403/133905/1710/300/20/
045390/20130403/134021/1705/15040/10/
045390/20130403/134043/1705/8500/10/
045390/20130403/134059/1705/356/10/
045390/20130403/134252/1705/81/10/
045390/20130403/134319/1705/1401/10/
045390/20130403/134344/1705/300/10/
045390/20130403/134405/1705/550/10/
045390/20130403/135340/1705/822/10/
045390/20130403/135430/1705/300/10/
045390/20130403/135449/1705/690/10/
045390/20130403/135536/1705/1145/10/
045390/20130403/135632/1705/10000/10/
045390/20130403/135634/1705/5000/10/
045390/20130403/135642/1705/607/10/
045390/20130403/135643/1705/3000/10/
045390/20130403/135734/1705/1000/10/
045390/20130403/135744/1705/500/10/
045390/20130403/135745/1705/1000/10/
045390/20130403/135759/1705/870/10/
045390/20130403/135804/1705/1000/10/
045390/20130403/135815/1705/1000/10/
045390/20130403/135825/1705/1000/10/
045390/20130403/135846/1705/234/10/
045390/20130403/135857/1705/3645/10/
045390/20130403/140110/1705/409/20/
045390/20130403/140223/1700/5992/10/
045390/20130403/140305/1700/600/10/
045390/20130403/140322/1700/3301/10/
045390/20130403/140540/1700/239/10/
045390/20130403/140952/1700/4001/10/
045390/20130403/141147/1700/1370/10/
045390/20130403/141225/1700/1000/10/
045390/20130403/141231/1700/500/10/
045390/20130403/141255/1700/2640/10/
045390/20130403/141257/1700/501/10/
045390/20130403/141328/1700/348/10/
045390/20130403/141349/1700/150/10/
045390/20130403/141411/1700/100/10/
045390/20130403/141416/1700/1501/10/
045390/20130403/141419/1700/1000/10/
045390/20130403/141447/1700/1000/10/
045390/20130403/141503/1700/679/10/
045390/20130403/141512/1700/1000/10/
045390/20130403/141514/1700/2122/10/
045390/20130403/141659/1695/7035/10/
045390/20130403/142041/1695/1811/10/
045390/20130403/142511/1700/1053/20/
045390/20130403/142622/1700/800/20/
045390/20130403/142723/1695/1502/10/
045390/20130403/142740/1700/1001/20/
045390/20130403/142847/1700/1002/20/
045390/20130403/143020/1700/200/20/
045390/20130403/143039/1700/1500/20/
045390/20130403/143047/1700/1000/20/
045390/20130403/143057/1700/500/20/
045390/20130403/143257/1700/89/20/
045390/20130403/143310/1695/1000/10/
045390/20130403/143329/1695/300/10/
045390/20130403/143438/1695/1079/10/
045390/20130403/143508/1695/12011/10/
045390/20130403/143511/1695/10022/10/
045390/20130403/143525/1695/6669/20/
045390/20130403/143700/1695/301/10/
045390/20130403/143701/1700/2633/20/
045390/20130403/143729/1700/2000/20/
045390/20130403/143751/1695/1020/10/
045390/20130403/143853/1700/1002/20/
045390/20130403/144059/1695/11537/10/
045390/20130403/144114/1690/500/10/
045390/20130403/144114/1695/5473/20/
045390/20130403/144119/1695/322/10/
045390/20130403/144120/1695/172/10/
045390/20130403/144123/1695/3033/10/
045390/20130403/144132/1695/2001/20/
045390/20130403/144135/1695/466/20/
045390/20130403/144143/1700/2000/20/
045390/20130403/144541/1700/1020/20/
045390/20130403/144700/1695/11000/10/
045390/20130403/144724/1695/10000/10/
045390/20130403/144726/1695/500/10/
045390/20130403/144731/1695/7000/10/
045390/20130403/144733/1695/935/10/
045390/20130403/144817/1695/2565/20/
045390/20130403/144848/1700/920/20/
045390/20130403/144851/1700/450/20/
045390/20130403/144902/1700/1501/20/
045390/20130403/144903/1700/200/20/
045390/20130403/144927/1700/450/20/
045390/20130403/144949/1695/43000/10/
045390/20130403/144953/1695/100/10/
045390/20130403/144956/1695/100/10/
045390/20130403/150000/1705/68033/10/
