045390/20130110/90000/1770/15874/20/
045390/20130110/90019/1765/770/10/
045390/20130110/90034/1770/1700/20/
045390/20130110/90046/1765/2500/10/
045390/20130110/90054/1765/700/10/
045390/20130110/90107/1765/1029/10/
045390/20130110/90145/1765/3220/10/
045390/20130110/90149/1760/800/10/
045390/20130110/90153/1760/200/10/
045390/20130110/90203/1765/100/20/
045390/20130110/90210/1765/1106/20/
045390/20130110/90236/1765/360/10/
045390/20130110/90243/1765/500/10/
045390/20130110/90256/1765/1500/10/
045390/20130110/90303/1765/500/10/
045390/20130110/90402/1770/550/20/
045390/20130110/90414/1765/6340/10/
045390/20130110/90419/1765/1680/20/
045390/20130110/90429/1765/800/10/
045390/20130110/90435/1765/500/10/
045390/20130110/90442/1765/94/10/
045390/20130110/90444/1765/200/20/
045390/20130110/90513/1765/200/20/
045390/20130110/90521/1760/2880/10/
045390/20130110/90536/1760/550/10/
045390/20130110/90541/1760/1310/10/
045390/20130110/90541/1760/5323/10/
045390/20130110/90541/1755/358/10/
045390/20130110/90617/1760/89/20/
045390/20130110/90641/1760/1600/20/
045390/20130110/90643/1760/200/20/
045390/20130110/90646/1760/1008/20/
045390/20130110/90648/1760/1603/20/
045390/20130110/90658/1760/1000/10/
045390/20130110/90701/1765/1391/20/
045390/20130110/90720/1765/1013/20/
045390/20130110/90720/1765/902/20/
045390/20130110/90803/1765/1054/10/
045390/20130110/90805/1765/3296/10/
045390/20130110/90818/1765/814/10/
045390/20130110/90826/1765/86/20/
045390/20130110/90829/1765/101/20/
045390/20130110/90835/1765/1300/10/
045390/20130110/90838/1765/101/20/
045390/20130110/90847/1765/1002/20/
045390/20130110/90850/1765/101/20/
045390/20130110/90854/1760/500/10/
045390/20130110/90903/1760/2001/10/
045390/20130110/90920/1760/81/10/
045390/20130110/90930/1760/81/10/
045390/20130110/90942/1765/81/20/
045390/20130110/90946/1765/104/20/
045390/20130110/90954/1760/117/10/
045390/20130110/90956/1765/7701/20/
045390/20130110/91002/1765/4882/10/
045390/20130110/91016/1770/504/20/
045390/20130110/91022/1770/501/20/
045390/20130110/91028/1770/12024/20/
045390/20130110/91029/1770/555/20/
045390/20130110/91032/1770/155/20/
045390/20130110/91035/1775/89/20/
045390/20130110/91036/1775/2012/20/
045390/20130110/91038/1775/144/20/
045390/20130110/91039/1775/557/20/
045390/20130110/91040/1775/110/20/
045390/20130110/91040/1775/560/20/
045390/20130110/91042/1775/90/20/
045390/20130110/91044/1775/5046/20/
045390/20130110/91044/1775/135/10/
045390/20130110/91045/1775/112/10/
045390/20130110/91046/1780/82/20/
045390/20130110/91048/1775/2037/10/
045390/20130110/91050/1775/82/20/
045390/20130110/91052/1775/572/20/
045390/20130110/91054/1775/84/20/
045390/20130110/91056/1775/81/20/
045390/20130110/91058/1775/84/20/
045390/20130110/91058/1775/300/20/
045390/20130110/91101/1775/82/20/
045390/20130110/91102/1775/82/20/
045390/20130110/91103/1775/1891/20/
045390/20130110/91103/1775/592/20/
045390/20130110/91104/1775/111/20/
045390/20130110/91105/1775/1066/20/
045390/20130110/91106/1775/1232/20/
045390/20130110/91106/1780/48779/20/
045390/20130110/91109/1780/89/20/
045390/20130110/91111/1780/1984/20/
045390/20130110/91114/1780/87/20/
045390/20130110/91115/1780/563/20/
045390/20130110/91116/1780/687/20/
045390/20130110/91118/1780/1761/20/
045390/20130110/91119/1780/150/20/
045390/20130110/91120/1780/515/20/
045390/20130110/91120/1780/125/20/
045390/20130110/91122/1780/574/20/
045390/20130110/91122/1780/213/20/
045390/20130110/91122/1780/150/20/
045390/20130110/91123/1780/111/20/
045390/20130110/91123/1780/500/20/
045390/20130110/91127/1780/88/20/
045390/20130110/91128/1780/3255/20/
045390/20130110/91129/1780/233/10/
045390/20130110/91130/1780/589/10/
045390/20130110/91130/1775/1783/10/
045390/20130110/91133/1780/555/10/
045390/20130110/91134/1780/146/20/
045390/20130110/91135/1780/354/20/
045390/20130110/91135/1785/244/20/
045390/20130110/91137/1785/85/20/
045390/20130110/91138/1785/863/20/
045390/20130110/91139/1780/200/20/
045390/20130110/91141/1785/85/20/
045390/20130110/91142/1780/84/10/
045390/20130110/91144/1785/87/20/
045390/20130110/91147/1785/87/20/
045390/20130110/91147/1780/1037/10/
045390/20130110/91149/1785/89/20/
045390/20130110/91150/1785/1037/20/
045390/20130110/91151/1785/1771/20/
045390/20130110/91153/1785/352/20/
045390/20130110/91154/1780/89/10/
045390/20130110/91155/1785/87/20/
045390/20130110/91157/1785/87/20/
045390/20130110/91159/1785/1578/20/
045390/20130110/91201/1785/85/20/
045390/20130110/91203/1785/87/20/
045390/20130110/91204/1785/387/20/
045390/20130110/91205/1785/88/20/
045390/20130110/91206/1785/98/20/
045390/20130110/91207/1785/99/20/
045390/20130110/91207/1785/88/20/
045390/20130110/91209/1785/110/20/
045390/20130110/91210/1785/110/20/
045390/20130110/91210/1785/2000/20/
045390/20130110/91211/1785/1053/20/
045390/20130110/91214/1785/2480/20/
045390/20130110/91215/1785/107/20/
045390/20130110/91216/1785/2076/20/
045390/20130110/91218/1785/109/20/
045390/20130110/91220/1785/111/20/
045390/20130110/91221/1785/109/20/
045390/20130110/91222/1785/82/20/
045390/20130110/91222/1785/502/20/
045390/20130110/91223/1785/107/20/
045390/20130110/91224/1785/1437/20/
045390/20130110/91224/1785/1702/20/
045390/20130110/91226/1785/1506/20/
045390/20130110/91226/1785/102/20/
045390/20130110/91227/1785/106/20/
045390/20130110/91228/1785/108/20/
045390/20130110/91229/1785/119/20/
045390/20130110/91229/1785/102/20/
045390/20130110/91230/1785/104/20/
045390/20130110/91231/1785/108/20/
045390/20130110/91232/1785/145/20/
045390/20130110/91232/1785/502/20/
045390/20130110/91232/1785/102/20/
045390/20130110/91233/1785/126/20/
045390/20130110/91234/1785/106/20/
045390/20130110/91235/1785/104/20/
045390/20130110/91235/1785/102/20/
045390/20130110/91236/1785/106/20/
045390/20130110/91236/1785/104/20/
045390/20130110/91237/1785/102/20/
045390/20130110/91238/1785/104/20/
045390/20130110/91238/1785/3004/20/
045390/20130110/91238/1785/100/20/
045390/20130110/91239/1785/102/20/
045390/20130110/91239/1785/219/20/
045390/20130110/91239/1785/100/20/
045390/20130110/91240/1785/3883/20/
045390/20130110/91240/1785/102/20/
045390/20130110/91241/1785/504/20/
045390/20130110/91241/1785/102/20/
045390/20130110/91242/1785/102/20/
045390/20130110/91242/1785/102/20/
045390/20130110/91242/1785/504/20/
045390/20130110/91243/1785/102/20/
045390/20130110/91244/1785/106/20/
045390/20130110/91244/1785/106/20/
045390/20130110/91245/1785/3516/20/
045390/20130110/91245/1785/104/20/
045390/20130110/91246/1785/405/20/
045390/20130110/91246/1785/1638/20/
045390/20130110/91246/1785/102/20/
045390/20130110/91247/1785/10004/20/
045390/20130110/91247/1785/502/20/
045390/20130110/91247/1785/100/20/
045390/20130110/91248/1785/1004/20/
045390/20130110/91248/1785/500/20/
045390/20130110/91248/1785/502/20/
045390/20130110/91248/1785/100/20/
045390/20130110/91249/1785/7901/20/
045390/20130110/91249/1785/104/20/
045390/20130110/91249/1785/502/20/
045390/20130110/91250/1785/10002/20/
045390/20130110/91250/1785/246/20/
045390/20130110/91251/1785/535/20/
045390/20130110/91251/1785/600/20/
045390/20130110/91251/1785/583/20/
045390/20130110/91251/1785/502/20/
045390/20130110/91254/1785/104/20/
045390/20130110/91255/1785/1032/20/
045390/20130110/91256/1785/1034/20/
045390/20130110/91256/1785/1001/20/
045390/20130110/91256/1785/110/20/
045390/20130110/91259/1785/3000/20/
045390/20130110/91300/1785/3011/20/
045390/20130110/91301/1785/84/20/
045390/20130110/91302/1785/963/20/
045390/20130110/91304/1785/1196/20/
045390/20130110/91304/1785/612/20/
045390/20130110/91305/1785/1684/20/
045390/20130110/91306/1790/4730/20/
045390/20130110/91306/1785/1000/10/
045390/20130110/91309/1785/127/10/
045390/20130110/91313/1790/159/20/
045390/20130110/91315/1790/1003/20/
045390/20130110/91316/1790/102/20/
045390/20130110/91320/1790/127/20/
045390/20130110/91328/1790/10017/20/
045390/20130110/91328/1790/86/20/
045390/20130110/91328/1790/501/20/
045390/20130110/91331/1790/4641/20/
045390/20130110/91331/1790/1001/20/
045390/20130110/91339/1790/473/20/
045390/20130110/91344/1790/2013/20/
045390/20130110/91346/1790/83/20/
045390/20130110/91351/1790/535/20/
045390/20130110/91358/1790/5040/20/
045390/20130110/91359/1790/3615/20/
045390/20130110/91359/1790/500/20/
045390/20130110/91400/1790/1004/20/
045390/20130110/91403/1790/520/20/
045390/20130110/91403/1790/3748/20/
045390/20130110/91405/1790/268/20/
045390/20130110/91406/1790/4016/20/
045390/20130110/91418/1790/1195/20/
045390/20130110/91421/1790/3036/20/
045390/20130110/91421/1790/9000/20/
045390/20130110/91423/1790/536/20/
045390/20130110/91429/1790/84/20/
045390/20130110/91433/1790/3080/20/
045390/20130110/91434/1790/911/20/
045390/20130110/91442/1790/3078/20/
045390/20130110/91447/1790/1246/20/
045390/20130110/91447/1785/3522/10/
045390/20130110/91449/1785/3500/10/
045390/20130110/91450/1785/500/10/
045390/20130110/91450/1785/1000/10/
045390/20130110/91451/1785/2500/10/
045390/20130110/91452/1785/406/10/
045390/20130110/91452/1785/300/10/
045390/20130110/91452/1785/139/10/
045390/20130110/91534/1780/5062/10/
045390/20130110/91535/1780/9808/10/
045390/20130110/91536/1780/500/10/
045390/20130110/91557/1780/295/10/
045390/20130110/91606/1780/256/10/
045390/20130110/91612/1780/502/10/
045390/20130110/91613/1780/196/10/
045390/20130110/91622/1780/341/10/
045390/20130110/91624/1780/260/10/
045390/20130110/91625/1780/2000/10/
045390/20130110/91626/1780/300/10/
045390/20130110/91627/1780/2500/10/
045390/20130110/91628/1780/2400/10/
045390/20130110/91629/1780/1000/10/
045390/20130110/91630/1780/99/10/
045390/20130110/91630/1780/85/10/
045390/20130110/91631/1780/1139/10/
045390/20130110/91640/1780/1020/20/
045390/20130110/91649/1775/482/10/
045390/20130110/91704/1780/1031/20/
045390/20130110/91708/1780/2896/20/
045390/20130110/91734/1780/1424/10/
045390/20130110/91736/1780/2287/10/
045390/20130110/91739/1780/112/20/
045390/20130110/91739/1780/602/20/
045390/20130110/91741/1780/399/10/
045390/20130110/91846/1775/3023/10/
045390/20130110/91925/1775/1899/10/
045390/20130110/91947/1775/2190/10/
045390/20130110/92009/1775/364/10/
045390/20130110/92016/1775/2119/10/
045390/20130110/92017/1775/1700/10/
045390/20130110/92020/1775/400/10/
045390/20130110/92120/1775/1036/10/
045390/20130110/92124/1775/500/10/
045390/20130110/92150/1775/405/10/
045390/20130110/92226/1770/4001/10/
045390/20130110/92232/1770/531/10/
045390/20130110/92236/1770/500/10/
045390/20130110/92240/1770/1500/10/
045390/20130110/92252/1770/250/10/
045390/20130110/92259/1770/1500/10/
045390/20130110/92404/1770/512/10/
045390/20130110/92416/1770/1400/10/
045390/20130110/92432/1770/502/10/
045390/20130110/92435/1770/3001/10/
045390/20130110/92436/1770/245/10/
045390/20130110/92436/1775/500/20/
045390/20130110/92447/1775/501/20/
045390/20130110/92520/1775/3095/20/
045390/20130110/92521/1775/1465/20/
045390/20130110/92536/1775/1001/20/
045390/20130110/92612/1775/89/20/
045390/20130110/92631/1775/351/20/
045390/20130110/92648/1775/81/20/
045390/20130110/92708/1775/153/20/
045390/20130110/92850/1770/1931/10/
045390/20130110/92918/1775/1050/20/
045390/20130110/92925/1770/101/10/
045390/20130110/92932/1775/500/20/
045390/20130110/93000/1770/1416/10/
045390/20130110/93011/1770/3463/10/
045390/20130110/93013/1770/245/10/
045390/20130110/93017/1775/1000/20/
045390/20130110/93020/1770/254/10/
045390/20130110/93124/1770/906/10/
045390/20130110/93128/1770/3000/10/
045390/20130110/93135/1770/2000/10/
045390/20130110/93144/1770/2533/10/
045390/20130110/93155/1770/2671/10/
045390/20130110/93157/1770/500/10/
045390/20130110/93204/1770/500/10/
045390/20130110/93210/1770/1000/10/
045390/20130110/93215/1770/4500/10/
045390/20130110/93232/1770/1002/10/
045390/20130110/93233/1775/200/20/
045390/20130110/93244/1770/920/10/
045390/20130110/93405/1765/327/10/
045390/20130110/93448/1770/1581/20/
045390/20130110/93504/1770/1001/10/
045390/20130110/93508/1770/357/10/
045390/20130110/93511/1770/240/10/
045390/20130110/93552/1775/147/20/
045390/20130110/93611/1770/302/10/
045390/20130110/93616/1770/510/10/
045390/20130110/93626/1770/423/10/
045390/20130110/93633/1770/84/20/
045390/20130110/93642/1770/303/20/
045390/20130110/93646/1770/230/10/
045390/20130110/93748/1770/200/20/
045390/20130110/93800/1765/1500/10/
045390/20130110/93832/1765/4003/10/
045390/20130110/93834/1765/650/10/
045390/20130110/93844/1765/475/10/
045390/20130110/93845/1765/112/10/
045390/20130110/93849/1765/500/10/
045390/20130110/93904/1765/130/10/
045390/20130110/93908/1765/156/10/
045390/20130110/93910/1765/1844/20/
045390/20130110/93956/1765/151/10/
045390/20130110/94036/1765/2000/10/
045390/20130110/94045/1765/517/10/
045390/20130110/94056/1765/100/10/
045390/20130110/94110/1765/1070/10/
045390/20130110/94157/1765/110/10/
045390/20130110/94159/1765/2830/10/
045390/20130110/94159/1765/2000/10/
045390/20130110/94221/1765/559/10/
045390/20130110/94242/1765/571/10/
045390/20130110/94335/1765/130/10/
045390/20130110/94359/1765/1000/10/
045390/20130110/94410/1765/85/10/
045390/20130110/94431/1760/6967/10/
045390/20130110/94438/1760/636/10/
045390/20130110/94441/1760/10000/10/
045390/20130110/94443/1760/462/10/
045390/20130110/94443/1755/802/10/
045390/20130110/94459/1760/1372/10/
045390/20130110/94508/1760/110/20/
045390/20130110/94534/1760/126/20/
045390/20130110/94601/1760/540/20/
045390/20130110/94604/1760/500/20/
045390/20130110/94607/1760/1000/20/
045390/20130110/94607/1760/1000/20/
045390/20130110/94609/1760/3109/20/
045390/20130110/94610/1760/1020/20/
045390/20130110/94613/1760/3423/20/
045390/20130110/94636/1765/771/20/
045390/20130110/94641/1765/1064/20/
045390/20130110/94643/1765/166/10/
045390/20130110/94701/1765/155/20/
045390/20130110/94751/1765/100/20/
045390/20130110/94904/1760/200/10/
045390/20130110/94907/1765/300/20/
045390/20130110/95022/1760/1500/10/
045390/20130110/95122/1760/1759/10/
045390/20130110/95126/1760/500/10/
045390/20130110/95130/1760/1000/10/
045390/20130110/95137/1765/1000/20/
045390/20130110/95140/1760/3004/10/
045390/20130110/95153/1760/1000/10/
045390/20130110/95221/1760/6225/10/
045390/20130110/95227/1760/1025/20/
045390/20130110/95229/1760/649/20/
045390/20130110/95238/1760/551/10/
045390/20130110/95239/1760/449/20/
045390/20130110/95257/1760/800/20/
045390/20130110/95401/1760/500/10/
045390/20130110/95434/1760/1000/10/
045390/20130110/95532/1760/1093/10/
045390/20130110/95623/1760/407/20/
045390/20130110/95707/1760/93/10/
045390/20130110/95743/1760/207/20/
045390/20130110/95744/1765/1000/20/
045390/20130110/95804/1765/150/20/
045390/20130110/95850/1760/301/10/
045390/20130110/95856/1760/2052/10/
045390/20130110/95912/1760/800/20/
045390/20130110/95916/1755/1224/10/
045390/20130110/95917/1760/427/20/
045390/20130110/95926/1755/1314/10/
045390/20130110/100039/1755/4490/10/
045390/20130110/100040/1755/1020/10/
045390/20130110/100128/1760/3431/20/
045390/20130110/100139/1755/10000/10/
045390/20130110/100142/1755/100/10/
045390/20130110/100144/1755/2000/10/
045390/20130110/100149/1755/100/10/
045390/20130110/100154/1755/751/10/
045390/20130110/100243/1755/200/10/
045390/20130110/100249/1760/100/20/
045390/20130110/100252/1755/2000/10/
045390/20130110/100254/1755/500/10/
045390/20130110/100345/1760/2030/20/
045390/20130110/100356/1760/106/10/
045390/20130110/100432/1765/102/20/
045390/20130110/100502/1760/173/10/
045390/20130110/100621/1760/2001/10/
045390/20130110/100634/1760/1106/10/
045390/20130110/100637/1760/1001/20/
045390/20130110/100650/1760/316/20/
045390/20130110/100651/1760/150/20/
045390/20130110/100724/1755/118/10/
045390/20130110/100734/1760/513/20/
045390/20130110/100744/1760/620/20/
045390/20130110/100809/1760/1591/10/
045390/20130110/100827/1765/1010/20/
045390/20130110/100830/1760/200/10/
045390/20130110/100920/1760/378/10/
045390/20130110/100920/1755/1128/10/
045390/20130110/100946/1760/2000/10/
045390/20130110/101134/1760/237/10/
045390/20130110/101303/1760/100/10/
045390/20130110/102056/1765/92/20/
045390/20130110/102237/1765/2000/20/
045390/20130110/102313/1760/1777/10/
045390/20130110/102342/1760/13868/10/
045390/20130110/102419/1765/116/20/
045390/20130110/102420/1760/1333/10/
045390/20130110/102422/1760/101/20/
045390/20130110/102514/1760/505/20/
045390/20130110/102609/1760/265/20/
045390/20130110/102627/1760/1119/20/
045390/20130110/102654/1760/381/10/
045390/20130110/102702/1760/619/20/
045390/20130110/102712/1760/386/10/
045390/20130110/102714/1760/111/20/
045390/20130110/102724/1760/503/20/
045390/20130110/102739/1760/90/20/
045390/20130110/102742/1760/100/20/
045390/20130110/102748/1760/100/20/
045390/20130110/102749/1760/100/20/
045390/20130110/102759/1760/550/20/
045390/20130110/102833/1755/1004/10/
045390/20130110/102858/1755/1299/10/
045390/20130110/103133/1760/533/20/
045390/20130110/103204/1760/100/20/
045390/20130110/103230/1760/202/20/
045390/20130110/103238/1760/1000/20/
045390/20130110/103240/1760/2021/20/
045390/20130110/103356/1765/90/20/
045390/20130110/103435/1760/502/10/
045390/20130110/103516/1760/3023/10/
045390/20130110/103526/1760/870/10/
045390/20130110/103533/1760/1383/10/
045390/20130110/103558/1755/4000/10/
045390/20130110/103647/1760/2022/20/
045390/20130110/103657/1760/105/20/
045390/20130110/103816/1765/165/20/
045390/20130110/103833/1760/350/10/
045390/20130110/103846/1765/90/20/
045390/20130110/103859/1765/90/20/
045390/20130110/103908/1765/90/20/
045390/20130110/103929/1765/130/20/
045390/20130110/103953/1765/626/20/
045390/20130110/104002/1760/1000/10/
045390/20130110/104012/1760/500/10/
045390/20130110/104102/1760/1000/10/
045390/20130110/104210/1765/9513/20/
045390/20130110/104428/1760/500/10/
045390/20130110/104517/1760/5010/10/
045390/20130110/104527/1760/1279/10/
045390/20130110/104535/1760/357/10/
045390/20130110/104621/1760/150/20/
045390/20130110/104628/1760/250/20/
045390/20130110/104712/1760/3499/20/
045390/20130110/104712/1765/501/20/
045390/20130110/104943/1760/309/10/
045390/20130110/105238/1760/1000/10/
045390/20130110/105354/1760/515/10/
045390/20130110/105613/1760/105/10/
045390/20130110/105756/1760/400/10/
045390/20130110/105929/1760/4000/10/
045390/20130110/110003/1760/1500/10/
045390/20130110/110008/1760/3008/10/
045390/20130110/110008/1760/1930/10/
045390/20130110/110011/1760/1070/20/
045390/20130110/110022/1760/380/10/
045390/20130110/110036/1760/1613/10/
045390/20130110/110044/1760/110/10/
045390/20130110/110139/1760/1607/10/
045390/20130110/110302/1760/13371/10/
045390/20130110/110338/1765/900/20/
045390/20130110/110406/1760/519/10/
045390/20130110/110435/1760/1000/10/
045390/20130110/110452/1760/1150/10/
045390/20130110/110551/1760/206/10/
045390/20130110/110709/1765/1000/20/
045390/20130110/110743/1760/400/10/
045390/20130110/110859/1760/1108/10/
045390/20130110/111037/1760/2720/10/
045390/20130110/111152/1760/710/10/
045390/20130110/111230/1760/161/10/
045390/20130110/111430/1760/200/10/
045390/20130110/111443/1760/7825/10/
045390/20130110/111537/1760/4175/20/
045390/20130110/111717/1760/572/10/
045390/20130110/111718/1760/100/10/
045390/20130110/111721/1760/100/10/
045390/20130110/111830/1760/803/10/
045390/20130110/111953/1760/301/10/
045390/20130110/112426/1760/101/10/
045390/20130110/112440/1765/200/20/
045390/20130110/112803/1760/2042/10/
045390/20130110/112844/1760/554/10/
045390/20130110/112851/1760/205/10/
045390/20130110/112900/1760/1008/10/
045390/20130110/112905/1760/2930/10/
045390/20130110/112934/1760/128/10/
045390/20130110/113037/1760/110/10/
045390/20130110/113042/1760/174/10/
045390/20130110/113107/1765/160/20/
045390/20130110/113132/1765/100/20/
045390/20130110/113225/1760/12037/10/
045390/20130110/113231/1760/99/20/
045390/20130110/113313/1760/133/10/
045390/20130110/113456/1760/97/10/
045390/20130110/113502/1760/5724/10/
045390/20130110/113509/1760/100/20/
045390/20130110/113524/1760/447/20/
045390/20130110/113537/1765/100/20/
045390/20130110/113540/1760/200/10/
045390/20130110/113547/1765/120/20/
045390/20130110/113552/1760/1000/10/
045390/20130110/113556/1765/120/20/
045390/20130110/113702/1765/176/20/
045390/20130110/113748/1760/1001/10/
045390/20130110/113809/1765/120/20/
045390/20130110/114612/1765/5077/20/
045390/20130110/114851/1760/582/10/
045390/20130110/114901/1760/180/10/
045390/20130110/114924/1765/400/20/
045390/20130110/114936/1765/430/20/
045390/20130110/115102/1760/91/10/
045390/20130110/115200/1760/2542/10/
045390/20130110/115327/1765/2000/20/
045390/20130110/115455/1765/2748/20/
045390/20130110/115856/1760/393/10/
045390/20130110/115905/1760/10000/10/
045390/20130110/115916/1760/90/10/
045390/20130110/120050/1760/605/10/
045390/20130110/120138/1765/1240/20/
045390/20130110/120250/1765/1555/20/
045390/20130110/120452/1765/82/20/
045390/20130110/120620/1765/320/20/
045390/20130110/120905/1760/2959/10/
045390/20130110/120914/1760/10000/10/
045390/20130110/120925/1760/1281/10/
045390/20130110/120934/1760/1000/10/
045390/20130110/121140/1760/1867/10/
045390/20130110/121141/1760/112/10/
045390/20130110/121212/1760/3787/10/
045390/20130110/121257/1760/1500/10/
045390/20130110/121305/1760/500/10/
045390/20130110/121342/1760/815/10/
045390/20130110/121415/1760/750/10/
045390/20130110/121451/1765/120/20/
045390/20130110/121616/1760/963/10/
045390/20130110/121659/1760/1000/10/
045390/20130110/121716/1760/3000/10/
045390/20130110/121721/1760/3000/10/
045390/20130110/121750/1760/800/10/
045390/20130110/121756/1760/1800/10/
045390/20130110/121801/1760/942/10/
045390/20130110/121843/1755/3008/10/
045390/20130110/122117/1760/2411/20/
045390/20130110/122142/1760/100/20/
045390/20130110/122355/1760/7022/20/
045390/20130110/122400/1760/5527/20/
045390/20130110/122416/1760/1070/20/
045390/20130110/122421/1760/400/20/
045390/20130110/122422/1760/410/20/
045390/20130110/122504/1765/223/20/
045390/20130110/122552/1765/1000/20/
045390/20130110/122644/1760/200/10/
045390/20130110/122656/1760/1428/10/
045390/20130110/122804/1760/572/20/
045390/20130110/122813/1760/286/10/
045390/20130110/123011/1760/1000/10/
045390/20130110/123318/1760/537/10/
045390/20130110/123420/1760/94/20/
045390/20130110/123544/1760/253/10/
045390/20130110/123808/1755/2012/10/
045390/20130110/123819/1760/99/20/
045390/20130110/123837/1760/1000/20/
045390/20130110/123840/1760/780/20/
045390/20130110/123853/1760/5000/20/
045390/20130110/123926/1760/500/20/
045390/20130110/123935/1760/600/20/
045390/20130110/124048/1760/1010/20/
045390/20130110/124311/1760/100/20/
045390/20130110/124550/1755/1999/10/
045390/20130110/124601/1755/2000/10/
045390/20130110/124706/1755/900/10/
045390/20130110/124806/1755/2000/10/
045390/20130110/124843/1755/3607/10/
045390/20130110/124906/1755/860/10/
045390/20130110/124915/1755/300/10/
045390/20130110/124936/1760/500/20/
045390/20130110/124946/1760/410/20/
045390/20130110/125020/1755/2793/10/
045390/20130110/125024/1755/2300/10/
045390/20130110/125025/1760/120/20/
045390/20130110/125059/1755/1500/10/
045390/20130110/125119/1760/120/20/
045390/20130110/125121/1760/2000/20/
045390/20130110/125156/1760/1411/20/
045390/20130110/125400/1755/1015/10/
045390/20130110/125442/1755/2000/10/
045390/20130110/125557/1755/85/10/
045390/20130110/125643/1755/101/10/
045390/20130110/125652/1760/3508/20/
045390/20130110/125704/1760/12229/20/
045390/20130110/125814/1765/110/20/
045390/20130110/125823/1765/800/20/
045390/20130110/125838/1760/500/10/
045390/20130110/125848/1760/800/10/
045390/20130110/125848/1765/120/20/
045390/20130110/130032/1765/600/20/
045390/20130110/130103/1760/300/10/
045390/20130110/130142/1760/100/10/
045390/20130110/130315/1760/501/10/
045390/20130110/130419/1765/735/20/
045390/20130110/130653/1760/2043/10/
045390/20130110/130653/1760/400/10/
045390/20130110/130744/1760/2245/10/
045390/20130110/130750/1760/2000/10/
045390/20130110/130844/1760/4000/10/
045390/20130110/130912/1760/646/10/
045390/20130110/130920/1755/1072/10/
045390/20130110/130933/1755/10541/10/
045390/20130110/130933/1750/39464/10/
045390/20130110/130933/1745/1000/10/
045390/20130110/130933/1745/290/10/
045390/20130110/130933/1745/1000/10/
045390/20130110/131001/1755/283/20/
045390/20130110/131010/1760/3017/20/
045390/20130110/131335/1755/7020/10/
045390/20130110/131335/1750/1993/10/
045390/20130110/131440/1755/101/20/
045390/20130110/131547/1755/5867/20/
045390/20130110/131554/1755/1000/20/
045390/20130110/131607/1755/133/20/
045390/20130110/131610/1755/734/10/
045390/20130110/131631/1755/110/20/
045390/20130110/131639/1750/100/10/
045390/20130110/131651/1750/5000/10/
045390/20130110/131743/1750/667/10/
045390/20130110/131800/1755/200/20/
045390/20130110/132145/1755/524/20/
045390/20130110/132214/1750/92/10/
045390/20130110/132328/1750/483/10/
045390/20130110/132424/1750/220/10/
045390/20130110/132513/1750/10000/10/
045390/20130110/132515/1750/200/10/
045390/20130110/132529/1750/237/10/
045390/20130110/132530/1755/200/20/
045390/20130110/132531/1750/100/10/
045390/20130110/132534/1755/200/20/
045390/20130110/132536/1750/433/10/
045390/20130110/132545/1755/170/20/
045390/20130110/132627/1755/100/20/
045390/20130110/132639/1750/83/10/
045390/20130110/132646/1755/300/20/
045390/20130110/132702/1750/515/10/
045390/20130110/132707/1750/400/10/
045390/20130110/132719/1750/2747/10/
045390/20130110/132745/1750/276/10/
045390/20130110/132753/1755/304/20/
045390/20130110/132808/1755/2934/20/
045390/20130110/132818/1755/6000/20/
045390/20130110/132839/1755/5011/20/
045390/20130110/132848/1760/88/20/
045390/20130110/132857/1760/89/20/
045390/20130110/132859/1760/82/20/
045390/20130110/132901/1760/82/20/
045390/20130110/132903/1760/81/20/
045390/20130110/132905/1760/81/20/
045390/20130110/132907/1760/88/20/
045390/20130110/132909/1760/82/20/
045390/20130110/132912/1760/83/20/
045390/20130110/132914/1760/81/20/
045390/20130110/132916/1760/82/20/
045390/20130110/132918/1760/82/20/
045390/20130110/132920/1760/82/20/
045390/20130110/132922/1760/81/20/
045390/20130110/132925/1760/83/20/
045390/20130110/132925/1760/112/20/
045390/20130110/132925/1760/110/20/
045390/20130110/132926/1760/5136/20/
045390/20130110/132927/1760/11512/20/
045390/20130110/132927/1760/1023/20/
045390/20130110/132928/1760/377/20/
045390/20130110/132929/1760/530/10/
045390/20130110/132931/1760/82/20/
045390/20130110/132933/1760/959/20/
045390/20130110/132935/1760/82/20/
045390/20130110/132935/1760/523/20/
045390/20130110/132935/1760/658/20/
045390/20130110/132936/1760/125/20/
045390/20130110/132938/1760/3070/20/
045390/20130110/132940/1760/82/20/
045390/20130110/132942/1760/1894/20/
045390/20130110/132943/1760/2555/20/
045390/20130110/132943/1760/1100/10/
045390/20130110/132945/1765/82/20/
045390/20130110/132946/1765/512/20/
045390/20130110/132949/1765/82/20/
045390/20130110/132952/1765/81/20/
045390/20130110/132955/1765/85/20/
045390/20130110/132957/1765/85/20/
045390/20130110/132959/1765/87/20/
045390/20130110/133000/1765/2026/20/
045390/20130110/133003/1765/91/20/
045390/20130110/133005/1765/265/20/
045390/20130110/133006/1765/87/20/
045390/20130110/133008/1765/89/20/
045390/20130110/133011/1765/89/20/
045390/20130110/133014/1765/87/20/
045390/20130110/133016/1765/87/20/
045390/20130110/133016/1765/202/20/
045390/20130110/133018/1765/150/20/
045390/20130110/133018/1765/100/20/
045390/20130110/133020/1765/85/20/
045390/20130110/133021/1765/140/20/
045390/20130110/133023/1765/81/20/
045390/20130110/133026/1765/87/20/
045390/20130110/133028/1765/89/20/
045390/20130110/133030/1765/88/20/
045390/20130110/133031/1765/701/20/
045390/20130110/133033/1765/16065/20/
045390/20130110/133035/1765/2884/20/
045390/20130110/133035/1765/115/20/
045390/20130110/133035/1765/2830/20/
045390/20130110/133038/1765/2050/20/
045390/20130110/133042/1765/82/20/
045390/20130110/133043/1765/199/20/
045390/20130110/133044/1765/391/20/
045390/20130110/133046/1765/276/20/
045390/20130110/133046/1765/211/20/
045390/20130110/133047/1765/226/20/
045390/20130110/133049/1765/89/20/
045390/20130110/133052/1765/89/20/
045390/20130110/133053/1765/82/20/
045390/20130110/133055/1765/89/20/
045390/20130110/133058/1765/89/20/
045390/20130110/133059/1760/10039/10/
045390/20130110/133101/1765/87/20/
045390/20130110/133104/1765/87/20/
045390/20130110/133106/1765/89/20/
045390/20130110/133109/1765/89/20/
045390/20130110/133111/1765/3479/20/
045390/20130110/133113/1765/87/20/
045390/20130110/133115/1765/85/20/
045390/20130110/133118/1765/89/20/
045390/20130110/133120/1765/89/20/
045390/20130110/133122/1765/176/20/
045390/20130110/133124/1765/163/20/
045390/20130110/133126/1765/89/20/
045390/20130110/133129/1765/89/20/
045390/20130110/133132/1765/89/20/
045390/20130110/133134/1765/155/20/
045390/20130110/133135/1765/133/20/
045390/20130110/133136/1765/133/20/
045390/20130110/133137/1765/133/20/
045390/20130110/133137/1765/122/20/
045390/20130110/133138/1765/144/20/
045390/20130110/133141/1765/123/20/
045390/20130110/133142/1765/106/20/
045390/20130110/133143/1765/108/20/
045390/20130110/133144/1765/104/20/
045390/20130110/133145/1765/106/20/
045390/20130110/133148/1765/89/20/
045390/20130110/133150/1765/82/20/
045390/20130110/133151/1765/105/20/
045390/20130110/133153/1765/107/20/
045390/20130110/133155/1765/109/20/
045390/20130110/133157/1765/109/20/
045390/20130110/133158/1765/107/20/
045390/20130110/133201/1765/82/20/
045390/20130110/133204/1765/82/20/
045390/20130110/133206/1765/82/20/
045390/20130110/133209/1765/91/20/
045390/20130110/133211/1765/82/20/
045390/20130110/133214/1765/91/20/
045390/20130110/133216/1760/329/10/
045390/20130110/133218/1765/82/20/
045390/20130110/133221/1765/82/20/
045390/20130110/133223/1765/82/20/
045390/20130110/133226/1765/89/20/
045390/20130110/133228/1765/2207/20/
045390/20130110/133228/1760/499/10/
045390/20130110/133231/1765/89/20/
045390/20130110/133234/1765/84/20/
045390/20130110/133237/1765/82/20/
045390/20130110/133239/1765/82/20/
045390/20130110/133240/1760/4782/10/
045390/20130110/133243/1760/82/20/
045390/20130110/133246/1760/82/20/
045390/20130110/133249/1760/110/20/
045390/20130110/133249/1760/142/20/
045390/20130110/133250/1760/99/20/
045390/20130110/133251/1760/742/20/
045390/20130110/133251/1765/101/20/
045390/20130110/133252/1765/101/20/
045390/20130110/133253/1765/101/20/
045390/20130110/133254/1765/100/20/
045390/20130110/133255/1765/101/20/
045390/20130110/133256/1765/101/20/
045390/20130110/133257/1765/101/20/
045390/20130110/133258/1765/101/20/
045390/20130110/133259/1765/102/20/
045390/20130110/133300/1765/100/20/
045390/20130110/133301/1765/100/20/
045390/20130110/133302/1765/101/20/
045390/20130110/133303/1765/101/20/
045390/20130110/133304/1765/101/20/
045390/20130110/133305/1765/100/20/
045390/20130110/133306/1765/101/20/
045390/20130110/133307/1765/102/20/
045390/20130110/133308/1765/100/20/
045390/20130110/133309/1765/101/20/
045390/20130110/133310/1765/101/20/
045390/20130110/133311/1765/101/20/
045390/20130110/133312/1765/100/20/
045390/20130110/133313/1765/101/20/
045390/20130110/133314/1765/110/20/
045390/20130110/133315/1765/101/20/
045390/20130110/133316/1765/100/20/
045390/20130110/133317/1765/101/20/
045390/20130110/133318/1765/101/20/
045390/20130110/133319/1765/101/20/
045390/20130110/133320/1765/101/20/
045390/20130110/133321/1765/100/20/
045390/20130110/133322/1765/101/20/
045390/20130110/133323/1765/101/20/
045390/20130110/133324/1765/101/20/
045390/20130110/133325/1765/101/20/
045390/20130110/133326/1765/100/20/
045390/20130110/133327/1765/100/20/
045390/20130110/133328/1765/101/20/
045390/20130110/133329/1765/100/20/
045390/20130110/133330/1765/101/20/
045390/20130110/133331/1765/103/20/
045390/20130110/133332/1765/100/20/
045390/20130110/133333/1765/100/20/
045390/20130110/133334/1765/100/20/
045390/20130110/133335/1765/101/20/
045390/20130110/133336/1765/101/20/
045390/20130110/133337/1765/102/20/
045390/20130110/133338/1765/100/20/
045390/20130110/133339/1765/101/20/
045390/20130110/133340/1765/101/20/
045390/20130110/133341/1765/100/20/
045390/20130110/133342/1765/101/20/
045390/20130110/133343/1765/101/20/
045390/20130110/133345/1765/345/20/
045390/20130110/133346/1765/82/20/
045390/20130110/133349/1765/82/20/
045390/20130110/133351/1765/87/20/
045390/20130110/133353/1765/331/20/
045390/20130110/133353/1765/285/20/
045390/20130110/133353/1765/296/20/
045390/20130110/133353/1765/294/20/
045390/20130110/133354/1765/309/20/
045390/20130110/133354/1765/1452/20/
045390/20130110/133354/1765/294/20/
045390/20130110/133355/1765/298/20/
045390/20130110/133355/1765/294/20/
045390/20130110/133355/1765/100/20/
045390/20130110/133356/1765/296/20/
045390/20130110/133357/1765/494/20/
045390/20130110/133357/1765/1013/20/
045390/20130110/133358/1765/5037/20/
045390/20130110/133400/1765/115/20/
045390/20130110/133400/1765/124/20/
045390/20130110/133400/1765/736/20/
045390/20130110/133401/1765/126/20/
045390/20130110/133404/1765/91/20/
045390/20130110/133405/1765/1499/20/
045390/20130110/133408/1765/82/20/
045390/20130110/133409/1765/10297/20/
045390/20130110/133411/1765/507/20/
045390/20130110/133411/1765/216/20/
045390/20130110/133412/1765/514/20/
045390/20130110/133414/1765/210/20/
045390/20130110/133414/1765/200/20/
045390/20130110/133414/1765/1004/20/
045390/20130110/133418/1765/1008/20/
045390/20130110/133419/1765/101/20/
045390/20130110/133430/1760/3224/10/
045390/20130110/133445/1765/88/20/
045390/20130110/133448/1765/91/20/
045390/20130110/133450/1765/85/20/
045390/20130110/133452/1765/85/20/
045390/20130110/133454/1765/85/20/
045390/20130110/133456/1765/85/20/
045390/20130110/133456/1760/5002/10/
045390/20130110/133458/1765/83/20/
045390/20130110/133500/1765/86/20/
045390/20130110/133501/1760/500/10/
045390/20130110/133502/1765/83/20/
045390/20130110/133505/1765/85/20/
045390/20130110/133507/1765/85/20/
045390/20130110/133509/1765/85/20/
045390/20130110/133513/1765/156/20/
045390/20130110/133513/1765/104/20/
045390/20130110/133514/1765/104/20/
045390/20130110/133514/1765/102/20/
045390/20130110/133515/1765/104/20/
045390/20130110/133516/1765/102/20/
045390/20130110/133517/1765/104/20/
045390/20130110/133518/1765/102/20/
045390/20130110/133518/1765/102/20/
045390/20130110/133519/1765/104/20/
045390/20130110/133520/1765/102/20/
045390/20130110/133520/1765/1002/20/
045390/20130110/133521/1765/102/20/
045390/20130110/133521/1765/102/20/
045390/20130110/133522/1765/104/20/
045390/20130110/133523/1765/104/20/
045390/20130110/133523/1765/102/20/
045390/20130110/133524/1765/104/20/
045390/20130110/133525/1765/104/20/
045390/20130110/133526/1765/104/20/
045390/20130110/133527/1765/104/20/
045390/20130110/133528/1765/102/20/
045390/20130110/133528/1765/102/20/
045390/20130110/133529/1765/106/20/
045390/20130110/133530/1765/102/20/
045390/20130110/133531/1765/102/20/
045390/20130110/133532/1765/104/20/
045390/20130110/133532/1765/104/20/
045390/20130110/133533/1765/104/20/
045390/20130110/133541/1765/85/20/
045390/20130110/133548/1760/263/10/
045390/20130110/133553/1760/166/20/
045390/20130110/133554/1760/122/20/
045390/20130110/133556/1760/122/20/
045390/20130110/133557/1760/144/20/
045390/20130110/133601/1760/88/20/
045390/20130110/133603/1760/83/20/
045390/20130110/133606/1760/85/20/
045390/20130110/133608/1760/85/20/
045390/20130110/133610/1760/83/20/
045390/20130110/133612/1760/83/20/
045390/20130110/133614/1760/83/20/
045390/20130110/133616/1760/85/20/
045390/20130110/133618/1760/85/20/
045390/20130110/133620/1760/85/20/
045390/20130110/133624/1760/82/20/
045390/20130110/133627/1760/109/20/
045390/20130110/133629/1760/109/20/
045390/20130110/133631/1760/237/20/
045390/20130110/133632/1760/82/20/
045390/20130110/133634/1760/103/20/
045390/20130110/133636/1760/113/20/
045390/20130110/133640/1760/113/20/
045390/20130110/133643/1760/109/20/
045390/20130110/133646/1760/111/20/
045390/20130110/133648/1760/109/20/
045390/20130110/133651/1760/109/20/
045390/20130110/133654/1760/109/20/
045390/20130110/133658/1760/87/20/
045390/20130110/133659/1760/111/20/
045390/20130110/133700/1760/122/20/
045390/20130110/133701/1760/122/20/
045390/20130110/133702/1760/133/20/
045390/20130110/133703/1760/122/20/
045390/20130110/133704/1760/132/20/
045390/20130110/133706/1760/122/20/
045390/20130110/133707/1760/122/20/
045390/20130110/133708/1760/122/20/
045390/20130110/133711/1760/91/20/
045390/20130110/133712/1760/94/20/
045390/20130110/133713/1760/83/20/
045390/20130110/133713/1760/83/20/
045390/20130110/133714/1760/83/20/
045390/20130110/133715/1760/83/20/
045390/20130110/133716/1760/94/20/
045390/20130110/133717/1760/83/20/
045390/20130110/133717/1760/83/20/
045390/20130110/133719/1760/94/20/
045390/20130110/133719/1760/83/20/
045390/20130110/133720/1760/94/20/
045390/20130110/133721/1760/94/20/
045390/20130110/133722/1760/83/20/
045390/20130110/133723/1760/94/20/
045390/20130110/133724/1760/83/20/
045390/20130110/133724/1760/83/20/
045390/20130110/133725/1760/83/20/
045390/20130110/133726/1760/105/20/
045390/20130110/133729/1760/91/20/
045390/20130110/133730/1760/111/20/
045390/20130110/133731/1760/133/20/
045390/20130110/133733/1760/133/20/
045390/20130110/133734/1760/122/20/
045390/20130110/133735/1760/122/20/
045390/20130110/133736/1760/122/20/
045390/20130110/133738/1760/133/20/
045390/20130110/133739/1760/122/20/
045390/20130110/133740/1760/122/20/
045390/20130110/133742/1760/144/20/
045390/20130110/133745/1760/88/20/
045390/20130110/133748/1760/81/20/
045390/20130110/133750/1760/1072/20/
045390/20130110/133752/1760/81/20/
045390/20130110/133754/1760/87/20/
045390/20130110/133757/1760/83/20/
045390/20130110/133801/1760/87/20/
045390/20130110/133803/1760/85/20/
045390/20130110/133806/1760/83/20/
045390/20130110/133809/1760/120/20/
045390/20130110/133816/1760/89/20/
045390/20130110/133820/1760/89/20/
045390/20130110/133822/1760/85/20/
045390/20130110/133825/1760/85/20/
045390/20130110/133827/1760/85/20/
045390/20130110/133829/1760/83/20/
045390/20130110/133831/1760/85/20/
045390/20130110/133834/1760/85/20/
045390/20130110/133836/1760/85/20/
045390/20130110/133839/1760/89/20/
045390/20130110/133843/1760/91/20/
045390/20130110/133846/1760/85/20/
045390/20130110/133848/1760/85/20/
045390/20130110/133851/1760/85/20/
045390/20130110/133854/1760/87/20/
045390/20130110/133857/1760/89/20/
045390/20130110/133858/1760/82/20/
045390/20130110/133859/1760/3269/20/
045390/20130110/133904/1760/91/20/
045390/20130110/133906/1760/82/20/
045390/20130110/133908/1760/83/20/
045390/20130110/133910/1760/87/20/
045390/20130110/133912/1760/128/20/
045390/20130110/133915/1760/2010/20/
045390/20130110/133923/1760/85/20/
045390/20130110/133926/1760/85/20/
045390/20130110/133926/1760/1369/20/
045390/20130110/133929/1765/85/20/
045390/20130110/133932/1765/87/20/
045390/20130110/133935/1765/82/20/
045390/20130110/133936/1760/1297/10/
045390/20130110/133944/1760/1078/20/
045390/20130110/133952/1760/84/20/
045390/20130110/133954/1760/82/20/
045390/20130110/133957/1760/84/20/
045390/20130110/133959/1760/82/20/
045390/20130110/134002/1760/82/20/
045390/20130110/134004/1760/89/20/
045390/20130110/134007/1760/82/20/
045390/20130110/134010/1760/82/20/
045390/20130110/134012/1760/86/20/
045390/20130110/134014/1760/82/20/
045390/20130110/134017/1760/82/20/
045390/20130110/134020/1760/82/20/
045390/20130110/134022/1760/91/20/
045390/20130110/134025/1760/91/20/
045390/20130110/134027/1760/82/20/
045390/20130110/134030/1760/82/20/
045390/20130110/134033/1760/82/20/
045390/20130110/134035/1760/91/20/
045390/20130110/134038/1760/82/20/
045390/20130110/134040/1760/82/20/
045390/20130110/134043/1760/82/20/
045390/20130110/134045/1760/569/20/
045390/20130110/134048/1760/114/20/
045390/20130110/134049/1760/108/20/
045390/20130110/134050/1760/108/20/
045390/20130110/134051/1760/106/20/
045390/20130110/134053/1760/108/20/
045390/20130110/134054/1760/108/20/
045390/20130110/134055/1760/115/20/
045390/20130110/134056/1760/106/20/
045390/20130110/134057/1760/108/20/
045390/20130110/134058/1760/106/20/
045390/20130110/134101/1760/86/20/
045390/20130110/134104/1760/82/20/
045390/20130110/134107/1760/82/20/
045390/20130110/134109/1760/113/20/
045390/20130110/134112/1760/113/20/
045390/20130110/134117/1760/87/20/
045390/20130110/134117/1760/8454/20/
045390/20130110/134118/1760/746/20/
045390/20130110/134119/1760/536/20/
045390/20130110/134121/1760/106/20/
045390/20130110/134124/1760/476/20/
045390/20130110/134132/1760/2215/10/
045390/20130110/134142/1760/306/20/
045390/20130110/134150/1760/106/20/
045390/20130110/134235/1755/85/10/
045390/20130110/134246/1755/2109/10/
045390/20130110/134250/1755/100/10/
045390/20130110/134310/1755/2500/10/
045390/20130110/134331/1755/675/10/
045390/20130110/134357/1755/1115/10/
045390/20130110/134437/1755/86/10/
045390/20130110/134452/1760/100/20/
045390/20130110/134543/1755/2582/10/
045390/20130110/134543/1750/222/10/
045390/20130110/134552/1750/11489/10/
045390/20130110/134552/1750/4569/10/
045390/20130110/134556/1750/400/20/
045390/20130110/134605/1750/236/20/
045390/20130110/134607/1750/651/20/
045390/20130110/134614/1750/160/10/
045390/20130110/135008/1750/1810/10/
045390/20130110/135034/1750/500/10/
045390/20130110/135046/1760/700/20/
045390/20130110/135047/1750/1525/10/
045390/20130110/135155/1750/1600/10/
045390/20130110/135200/1750/300/20/
045390/20130110/135202/1750/200/20/
045390/20130110/135210/1750/100/20/
045390/20130110/135215/1750/100/20/
045390/20130110/135221/1750/213/20/
045390/20130110/135221/1750/1000/20/
045390/20130110/135230/1750/500/20/
045390/20130110/135236/1750/267/20/
045390/20130110/135240/1750/122/20/
045390/20130110/135321/1750/398/10/
045390/20130110/135321/1745/15602/10/
045390/20130110/135334/1745/419/10/
045390/20130110/135335/1760/1000/20/
045390/20130110/135438/1745/37006/10/
045390/20130110/135454/1745/201/10/
045390/20130110/135518/1745/110/10/
045390/20130110/135518/1750/500/20/
045390/20130110/135551/1750/100/20/
045390/20130110/135553/1745/100/10/
045390/20130110/135628/1750/200/20/
045390/20130110/135643/1750/300/20/
045390/20130110/135736/1750/210/20/
045390/20130110/135745/1750/1200/20/
045390/20130110/135748/1745/8453/10/
045390/20130110/135800/1745/964/10/
045390/20130110/135800/1745/118/10/
045390/20130110/135822/1745/150/10/
045390/20130110/135904/1745/890/10/
045390/20130110/140019/1745/3040/10/
045390/20130110/140026/1750/520/20/
045390/20130110/140035/1750/1000/20/
045390/20130110/140038/1750/200/20/
045390/20130110/140046/1750/1000/20/
045390/20130110/140057/1750/100/20/
045390/20130110/140106/1750/200/20/
045390/20130110/140156/1750/500/20/
045390/20130110/140245/1750/90/20/
045390/20130110/140256/1750/100/20/
045390/20130110/140332/1750/2843/20/
045390/20130110/140352/1750/1000/20/
045390/20130110/140424/1750/117/20/
045390/20130110/140458/1750/233/10/
045390/20130110/140510/1745/1776/10/
045390/20130110/140556/1745/4519/10/
045390/20130110/140557/1750/2000/20/
045390/20130110/140600/1750/200/20/
045390/20130110/140605/1750/200/20/
045390/20130110/140608/1745/1004/10/
045390/20130110/140638/1750/305/20/
045390/20130110/140639/1750/948/20/
045390/20130110/140724/1750/1000/10/
045390/20130110/140820/1750/2001/10/
045390/20130110/140830/1745/111/10/
045390/20130110/141002/1750/1103/20/
045390/20130110/141054/1750/501/10/
045390/20130110/141058/1750/100/10/
045390/20130110/141107/1750/100/10/
045390/20130110/141139/1750/91/10/
045390/20130110/141154/1750/1520/10/
045390/20130110/141214/1750/739/20/
045390/20130110/141505/1750/231/20/
045390/20130110/141518/1750/1002/20/
045390/20130110/141618/1750/255/20/
045390/20130110/141632/1745/100/10/
045390/20130110/141726/1750/348/20/
045390/20130110/141806/1750/655/10/
045390/20130110/141932/1750/399/10/
045390/20130110/142126/1750/1496/20/
045390/20130110/142204/1745/105/10/
045390/20130110/142207/1745/1708/10/
045390/20130110/142209/1745/295/10/
045390/20130110/142216/1750/2000/20/
045390/20130110/142216/1745/3251/10/
045390/20130110/142243/1745/15000/10/
045390/20130110/142251/1745/4533/10/
045390/20130110/142252/1745/100/10/
045390/20130110/142253/1745/4532/10/
045390/20130110/142300/1745/1534/10/
045390/20130110/142309/1745/400/20/
045390/20130110/142346/1745/1000/10/
045390/20130110/142532/1745/2738/10/
045390/20130110/142537/1745/4000/10/
045390/20130110/142546/1745/1166/10/
045390/20130110/142558/1745/1822/10/
045390/20130110/142558/1745/2000/10/
045390/20130110/142600/1745/398/10/
045390/20130110/142619/1745/5000/10/
045390/20130110/142619/1740/5002/10/
045390/20130110/142634/1740/1129/10/
045390/20130110/142637/1740/3560/10/
045390/20130110/142704/1745/200/20/
045390/20130110/142743/1745/800/20/
045390/20130110/142759/1745/1504/20/
045390/20130110/142819/1745/494/20/
045390/20130110/142920/1750/510/20/
045390/20130110/142929/1750/500/20/
045390/20130110/142959/1750/500/20/
045390/20130110/143017/1745/250/10/
045390/20130110/143049/1745/101/10/
045390/20130110/143145/1750/1728/20/
045390/20130110/143205/1750/100/20/
045390/20130110/143248/1750/787/20/
045390/20130110/143330/1745/210/10/
045390/20130110/143345/1745/1661/10/
045390/20130110/143416/1745/120/10/
045390/20130110/143439/1745/938/20/
045390/20130110/143514/1745/84/20/
045390/20130110/143543/1745/110/20/
045390/20130110/143545/1745/238/20/
045390/20130110/143546/1745/1000/20/
045390/20130110/143548/1745/222/20/
045390/20130110/143617/1745/2001/10/
045390/20130110/143621/1745/1000/10/
045390/20130110/143639/1745/1000/10/
045390/20130110/143656/1745/776/10/
045390/20130110/143704/1745/1000/10/
045390/20130110/143706/1745/953/10/
045390/20130110/143741/1740/152/10/
045390/20130110/143748/1740/99/10/
045390/20130110/143822/1745/1258/20/
045390/20130110/143823/1740/685/10/
045390/20130110/143829/1740/1000/10/
045390/20130110/143837/1745/200/20/
045390/20130110/143851/1745/1000/20/
045390/20130110/143857/1740/97/10/
045390/20130110/143857/1740/5348/10/
045390/20130110/143900/1740/420/10/
045390/20130110/143907/1740/200/10/
045390/20130110/143919/1740/1000/10/
045390/20130110/143934/1740/1000/10/
045390/20130110/143938/1740/1500/10/
045390/20130110/143941/1740/950/10/
045390/20130110/143954/1740/2455/10/
045390/20130110/143955/1740/200/10/
045390/20130110/143958/1740/2500/10/
045390/20130110/144000/1740/200/10/
045390/20130110/144002/1745/290/20/
045390/20130110/144012/1740/1360/10/
045390/20130110/144016/1740/500/10/
045390/20130110/144023/1745/100/20/
045390/20130110/144032/1740/4350/10/
045390/20130110/144034/1745/500/20/
045390/20130110/144038/1740/921/10/
045390/20130110/144047/1745/500/20/
045390/20130110/144115/1740/1681/10/
045390/20130110/144134/1740/6017/10/
045390/20130110/144146/1740/583/10/
045390/20130110/144147/1740/200/10/
045390/20130110/144209/1740/5879/10/
045390/20130110/144210/1740/4451/10/
045390/20130110/144210/1740/1000/10/
045390/20130110/144223/1740/4338/10/
045390/20130110/144224/1740/1304/10/
045390/20130110/144225/1740/815/20/
045390/20130110/144229/1740/385/20/
045390/20130110/144241/1740/100/10/
045390/20130110/144246/1740/317/10/
045390/20130110/144251/1740/501/20/
045390/20130110/144302/1740/143/20/
045390/20130110/144316/1740/1056/20/
045390/20130110/144323/1740/2500/20/
045390/20130110/144324/1740/444/20/
045390/20130110/144327/1745/862/20/
045390/20130110/144339/1740/131/10/
045390/20130110/144349/1740/100/20/
045390/20130110/144350/1740/127/20/
045390/20130110/144352/1740/393/10/
045390/20130110/144356/1740/100/20/
045390/20130110/144357/1740/1837/20/
045390/20130110/144401/1740/300/10/
045390/20130110/144413/1740/276/20/
045390/20130110/144418/1740/1724/20/
045390/20130110/144443/1745/1004/20/
045390/20130110/144451/1745/776/20/
045390/20130110/144510/1745/1689/20/
045390/20130110/144520/1745/700/20/
045390/20130110/144521/1745/2200/20/
045390/20130110/144528/1745/900/20/
045390/20130110/144542/1745/264/10/
045390/20130110/144550/1745/2176/10/
045390/20130110/144550/1740/306/10/
045390/20130110/144646/1745/1003/20/
045390/20130110/144647/1740/3016/10/
045390/20130110/144831/1745/777/10/
045390/20130110/144838/1740/808/10/
045390/20130110/144840/1740/1000/10/
045390/20130110/144846/1745/1050/20/
045390/20130110/144848/1745/2820/20/
045390/20130110/144855/1745/143/20/
045390/20130110/144857/1745/143/20/
045390/20130110/144858/1745/200/20/
045390/20130110/144902/1745/2968/20/
045390/20130110/144909/1745/3500/10/
045390/20130110/144919/1745/500/10/
045390/20130110/144948/1745/511/10/
045390/20130110/150001/1740/32439/10/
