045390/20121106/90000/1765/10596/20/
045390/20121106/90155/1755/1031/10/
045390/20121106/90203/1755/1562/10/
045390/20121106/90203/1750/10634/10/
045390/20121106/90228/1750/502/20/
045390/20121106/90248/1750/528/20/
045390/20121106/90250/1745/2000/10/
045390/20121106/90256/1745/251/10/
045390/20121106/90307/1745/1033/10/
045390/20121106/90314/1745/1001/10/
045390/20121106/90323/1745/676/10/
045390/20121106/90336/1745/1723/10/
045390/20121106/90354/1745/2831/10/
045390/20121106/90436/1750/5211/20/
045390/20121106/90437/1750/1853/20/
045390/20121106/90446/1755/315/20/
045390/20121106/90451/1755/564/10/
045390/20121106/90458/1755/1022/20/
045390/20121106/90505/1755/1000/20/
045390/20121106/90506/1755/500/20/
045390/20121106/90508/1750/2000/10/
045390/20121106/90522/1755/354/20/
045390/20121106/90540/1755/304/20/
045390/20121106/90556/1750/1809/10/
045390/20121106/90556/1745/1341/10/
045390/20121106/90611/1750/197/20/
045390/20121106/90628/1745/2000/10/
045390/20121106/90632/1750/5001/20/
045390/20121106/90634/1750/270/20/
045390/20121106/90635/1755/128/20/
045390/20121106/90638/1750/887/10/
045390/20121106/90643/1750/4114/20/
045390/20121106/90706/1755/3337/20/
045390/20121106/90724/1755/1598/10/
045390/20121106/90728/1755/1126/20/
045390/20121106/90740/1760/203/20/
045390/20121106/90753/1760/105/20/
045390/20121106/90754/1755/2055/10/
045390/20121106/90802/1755/503/20/
045390/20121106/90802/1760/2500/20/
045390/20121106/90806/1760/3000/20/
045390/20121106/90812/1760/1530/20/
045390/20121106/90816/1755/502/10/
045390/20121106/90826/1755/2404/10/
045390/20121106/90838/1755/2650/20/
045390/20121106/90845/1755/2802/10/
045390/20121106/90930/1755/3334/10/
045390/20121106/90959/1755/1001/20/
045390/20121106/91034/1750/448/10/
045390/20121106/91039/1750/1501/10/
045390/20121106/91040/1750/379/10/
045390/20121106/91044/1750/1099/20/
045390/20121106/91057/1755/9920/20/
045390/20121106/91101/1755/85/10/
045390/20121106/91101/1750/217/10/
045390/20121106/91107/1755/277/10/
045390/20121106/91113/1750/3285/10/
045390/20121106/91116/1750/6716/20/
045390/20121106/91144/1750/604/10/
045390/20121106/91146/1750/3001/10/
045390/20121106/91156/1755/213/20/
045390/20121106/91203/1755/3000/20/
045390/20121106/91243/1755/341/20/
045390/20121106/91250/1755/1472/10/
045390/20121106/91304/1760/1006/20/
045390/20121106/91305/1760/1800/20/
045390/20121106/91308/1760/2002/20/
045390/20121106/91313/1760/2904/20/
045390/20121106/91315/1760/1494/20/
045390/20121106/91355/1760/3624/20/
045390/20121106/91425/1760/2398/10/
045390/20121106/91444/1760/1403/20/
045390/20121106/91459/1760/535/20/
045390/20121106/91507/1760/169/10/
045390/20121106/91557/1760/1001/20/
045390/20121106/91657/1755/1396/10/
045390/20121106/91716/1755/300/10/
045390/20121106/91744/1755/672/10/
045390/20121106/91834/1755/1442/10/
045390/20121106/91834/1750/2917/10/
045390/20121106/91834/1745/5561/10/
045390/20121106/91903/1745/131/10/
045390/20121106/91922/1745/10279/10/
045390/20121106/91929/1745/1722/20/
045390/20121106/91955/1745/1001/10/
045390/20121106/92009/1745/1341/10/
045390/20121106/92020/1750/2001/20/
045390/20121106/92039/1750/235/10/
045390/20121106/92048/1750/771/10/
045390/20121106/92202/1745/6400/10/
045390/20121106/92202/1740/8758/10/
045390/20121106/92246/1740/2012/10/
045390/20121106/92343/1740/158/10/
045390/20121106/92346/1740/370/10/
045390/20121106/92349/1740/4254/10/
045390/20121106/92356/1740/846/20/
045390/20121106/92357/1745/100/20/
045390/20121106/92426/1745/394/20/
045390/20121106/92426/1745/200/10/
045390/20121106/92452/1745/2236/10/
045390/20121106/92459/1740/1607/10/
045390/20121106/92510/1740/1022/20/
045390/20121106/92512/1740/800/20/
045390/20121106/92521/1740/1006/20/
045390/20121106/92638/1740/86/10/
045390/20121106/92645/1745/865/20/
045390/20121106/92648/1740/342/10/
045390/20121106/92651/1740/2410/10/
045390/20121106/92703/1740/516/10/
045390/20121106/92706/1740/289/10/
045390/20121106/92715/1735/5035/10/
045390/20121106/92716/1740/1000/20/
045390/20121106/92719/1740/210/20/
045390/20121106/92720/1740/1192/10/
045390/20121106/92720/1735/6175/10/
045390/20121106/92736/1740/92/10/
045390/20121106/92752/1740/1163/10/
045390/20121106/92752/1735/1138/10/
045390/20121106/92807/1740/550/20/
045390/20121106/92812/1740/300/10/
045390/20121106/92821/1740/550/10/
045390/20121106/92830/1740/4159/10/
045390/20121106/92846/1740/561/20/
045390/20121106/92905/1735/805/10/
045390/20121106/92906/1735/352/10/
045390/20121106/92916/1735/9004/10/
045390/20121106/92952/1740/1010/20/
045390/20121106/93000/1740/500/20/
045390/20121106/93004/1740/356/20/
045390/20121106/93137/1740/301/10/
045390/20121106/93142/1740/150/10/
045390/20121106/93155/1740/1228/10/
045390/20121106/93248/1735/1510/10/
045390/20121106/93301/1735/2000/10/
045390/20121106/93305/1735/200/10/
045390/20121106/93306/1735/301/10/
045390/20121106/93321/1740/321/20/
045390/20121106/93407/1735/7308/10/
045390/20121106/93412/1730/400/10/
045390/20121106/93432/1735/2260/20/
045390/20121106/93443/1735/741/10/
045390/20121106/93501/1735/626/20/
045390/20121106/93507/1730/136/10/
045390/20121106/93508/1735/3000/20/
045390/20121106/93510/1735/2281/20/
045390/20121106/93544/1735/3002/10/
045390/20121106/93544/1740/180/20/
045390/20121106/93605/1735/4301/10/
045390/20121106/93622/1735/4044/20/
045390/20121106/93624/1740/180/20/
045390/20121106/93644/1735/524/10/
045390/20121106/93709/1740/2405/20/
045390/20121106/93712/1740/825/20/
045390/20121106/93842/1745/305/20/
045390/20121106/93957/1745/128/20/
045390/20121106/94021/1745/110/20/
045390/20121106/94023/1740/2064/10/
045390/20121106/94023/1735/1698/10/
045390/20121106/94152/1735/402/10/
045390/20121106/94234/1735/2003/10/
045390/20121106/94248/1735/2000/10/
045390/20121106/94303/1735/1799/10/
045390/20121106/94303/1730/1926/10/
045390/20121106/94314/1730/100/10/
045390/20121106/94343/1730/193/10/
045390/20121106/94349/1735/1706/20/
045390/20121106/94356/1735/190/10/
045390/20121106/94357/1735/100/10/
045390/20121106/94359/1735/1004/10/
045390/20121106/94416/1735/225/20/
045390/20121106/94418/1735/242/10/
045390/20121106/94515/1735/1011/20/
045390/20121106/94524/1735/302/20/
045390/20121106/94552/1735/1293/10/
045390/20121106/94610/1735/120/20/
045390/20121106/94615/1735/311/20/
045390/20121106/94625/1735/300/10/
045390/20121106/94628/1735/100/10/
045390/20121106/94650/1735/500/10/
045390/20121106/94859/1735/1003/10/
045390/20121106/94906/1735/267/10/
045390/20121106/94918/1735/5635/10/
045390/20121106/94923/1730/5116/10/
045390/20121106/94933/1730/470/10/
045390/20121106/95009/1730/1990/10/
045390/20121106/95012/1730/5618/10/
045390/20121106/95035/1730/2500/20/
045390/20121106/95044/1725/172/10/
045390/20121106/95058/1725/100/10/
045390/20121106/95124/1725/6802/10/
045390/20121106/95128/1725/3003/10/
045390/20121106/95139/1725/1056/10/
045390/20121106/95140/1725/950/20/
045390/20121106/95142/1725/600/10/
045390/20121106/95149/1730/495/20/
045390/20121106/95227/1725/411/10/
045390/20121106/95243/1730/170/20/
045390/20121106/95247/1730/1353/20/
045390/20121106/95254/1725/1759/10/
045390/20121106/95310/1725/8002/10/
045390/20121106/95323/1725/7357/10/
045390/20121106/95343/1725/1582/10/
045390/20121106/95408/1725/1504/10/
045390/20121106/95408/1720/18505/10/
045390/20121106/95518/1725/530/10/
045390/20121106/95631/1725/147/10/
045390/20121106/95642/1725/320/10/
045390/20121106/95645/1725/300/10/
045390/20121106/95711/1725/502/10/
045390/20121106/95735/1725/202/10/
045390/20121106/95744/1725/785/10/
045390/20121106/95803/1725/500/20/
045390/20121106/95834/1720/274/10/
045390/20121106/95853/1725/953/20/
045390/20121106/100014/1725/1131/10/
045390/20121106/100024/1725/193/20/
045390/20121106/100030/1725/1812/10/
045390/20121106/100059/1720/8404/10/
045390/20121106/100108/1720/1835/10/
045390/20121106/100118/1720/365/20/
045390/20121106/100124/1720/3000/10/
045390/20121106/100138/1720/837/10/
045390/20121106/100141/1720/4856/20/
045390/20121106/100159/1720/3080/10/
045390/20121106/100214/1720/101/20/
045390/20121106/100231/1720/2026/20/
045390/20121106/100236/1720/143/20/
045390/20121106/100252/1720/1001/20/
045390/20121106/100300/1715/100/10/
045390/20121106/100305/1720/1201/20/
045390/20121106/100311/1720/100/20/
045390/20121106/100311/1720/500/20/
045390/20121106/100312/1720/200/20/
045390/20121106/100316/1720/1796/20/
045390/20121106/100323/1720/356/20/
045390/20121106/100412/1725/1001/20/
045390/20121106/100423/1725/1000/20/
045390/20121106/100448/1725/223/20/
045390/20121106/100448/1730/187/20/
045390/20121106/100631/1725/2334/10/
045390/20121106/100631/1720/16556/10/
045390/20121106/100631/1715/15212/10/
045390/20121106/100816/1725/127/20/
045390/20121106/100902/1725/1262/20/
045390/20121106/100903/1720/1000/10/
045390/20121106/100907/1720/5000/10/
045390/20121106/100910/1720/2054/10/
045390/20121106/100914/1720/1000/20/
045390/20121106/100927/1720/499/20/
045390/20121106/100951/1720/1002/20/
045390/20121106/101019/1720/6177/20/
045390/20121106/101048/1725/1115/20/
045390/20121106/101222/1730/102/20/
045390/20121106/101338/1725/2678/10/
045390/20121106/101338/1720/322/10/
045390/20121106/101401/1725/500/10/
045390/20121106/101426/1725/201/10/
045390/20121106/101445/1720/2000/10/
045390/20121106/101617/1720/2086/10/
045390/20121106/101621/1720/1208/10/
045390/20121106/101628/1720/1396/10/
045390/20121106/101630/1720/1510/10/
045390/20121106/101630/1715/820/10/
045390/20121106/101703/1715/1226/10/
045390/20121106/101830/1725/2840/20/
045390/20121106/102111/1725/254/10/
045390/20121106/102155/1725/979/20/
045390/20121106/102304/1720/7851/10/
045390/20121106/102320/1720/149/20/
045390/20121106/102427/1725/101/20/
045390/20121106/102431/1725/1030/20/
045390/20121106/102503/1725/88/20/
045390/20121106/102506/1725/100/20/
045390/20121106/102528/1725/91/20/
045390/20121106/102604/1725/463/20/
045390/20121106/102630/1725/116/20/
045390/20121106/102638/1725/1022/20/
045390/20121106/102640/1725/511/20/
045390/20121106/102651/1725/408/20/
045390/20121106/102653/1725/636/10/
045390/20121106/102704/1725/982/20/
045390/20121106/102732/1725/650/20/
045390/20121106/102807/1725/1254/10/
045390/20121106/102813/1725/102/10/
045390/20121106/102821/1720/2646/10/
045390/20121106/102838/1720/4702/10/
045390/20121106/102919/1720/3000/10/
045390/20121106/102943/1720/5007/10/
045390/20121106/102943/1715/3874/10/
045390/20121106/102951/1715/967/10/
045390/20121106/103043/1720/2001/10/
045390/20121106/103205/1725/1062/20/
045390/20121106/103320/1720/1012/10/
045390/20121106/103335/1720/216/10/
045390/20121106/103410/1725/148/20/
045390/20121106/103505/1720/1000/10/
045390/20121106/103509/1720/100/10/
045390/20121106/103612/1725/101/20/
045390/20121106/103643/1725/2000/20/
045390/20121106/103648/1725/586/20/
045390/20121106/103651/1725/579/20/
045390/20121106/103758/1720/707/10/
045390/20121106/103943/1725/104/20/
045390/20121106/103954/1725/285/20/
045390/20121106/104033/1725/1170/20/
045390/20121106/104102/1720/700/10/
045390/20121106/104118/1725/81/20/
045390/20121106/104123/1725/1400/20/
045390/20121106/104205/1725/150/20/
045390/20121106/104232/1725/539/20/
045390/20121106/104306/1725/1910/20/
045390/20121106/104310/1725/1000/20/
045390/20121106/104321/1725/100/20/
045390/20121106/104323/1725/85/20/
045390/20121106/104401/1725/1000/20/
045390/20121106/104456/1720/530/10/
045390/20121106/104528/1725/5070/20/
045390/20121106/104718/1725/955/20/
045390/20121106/104757/1725/1046/10/
045390/20121106/104814/1725/1000/20/
045390/20121106/104835/1720/1161/10/
045390/20121106/104936/1720/399/10/
045390/20121106/105008/1720/216/10/
045390/20121106/105059/1720/554/10/
045390/20121106/105129/1720/600/10/
045390/20121106/105134/1720/6453/10/
045390/20121106/105145/1725/580/20/
045390/20121106/105146/1720/500/10/
045390/20121106/105222/1720/4677/10/
045390/20121106/105230/1720/8573/10/
045390/20121106/105300/1730/806/20/
045390/20121106/105601/1720/4523/10/
045390/20121106/105619/1720/7011/10/
045390/20121106/105627/1720/2117/10/
045390/20121106/105636/1720/4623/10/
045390/20121106/105853/1720/1000/20/
045390/20121106/105903/1720/205/20/
045390/20121106/105904/1720/1472/20/
045390/20121106/105947/1720/324/20/
045390/20121106/110202/1725/303/20/
045390/20121106/110236/1720/3000/10/
045390/20121106/110405/1725/94/20/
045390/20121106/110434/1725/298/20/
045390/20121106/110646/1720/3039/10/
045390/20121106/110919/1725/1001/20/
045390/20121106/111119/1720/5561/10/
045390/20121106/111148/1720/288/20/
045390/20121106/111205/1720/900/10/
045390/20121106/111231/1720/522/20/
045390/20121106/111238/1720/270/20/
045390/20121106/111300/1720/282/20/
045390/20121106/111300/1720/82/20/
045390/20121106/111355/1715/204/10/
045390/20121106/111430/1720/98/20/
045390/20121106/111444/1720/1404/20/
045390/20121106/111455/1720/202/20/
045390/20121106/111458/1720/455/20/
045390/20121106/111548/1720/155/20/
045390/20121106/111621/1720/100/20/
045390/20121106/111659/1715/1003/10/
045390/20121106/111822/1720/2000/20/
045390/20121106/111907/1720/1008/10/
045390/20121106/112052/1720/141/10/
045390/20121106/112124/1720/3000/10/
045390/20121106/112155/1720/540/10/
045390/20121106/112231/1725/121/20/
045390/20121106/112426/1720/3163/10/
045390/20121106/112536/1720/540/10/
045390/20121106/112551/1725/228/20/
045390/20121106/112611/1725/1000/20/
045390/20121106/112729/1720/2000/10/
045390/20121106/112730/1720/2000/10/
045390/20121106/112733/1720/2000/10/
045390/20121106/112734/1720/2000/10/
045390/20121106/112736/1720/2000/10/
045390/20121106/112740/1720/3287/10/
045390/20121106/112754/1720/28830/10/
045390/20121106/112754/1720/193/10/
045390/20121106/112757/1720/1500/10/
045390/20121106/112800/1720/413/10/
045390/20121106/112933/1720/3951/20/
045390/20121106/112951/1720/1452/10/
045390/20121106/112951/1720/100/10/
045390/20121106/112957/1720/360/10/
045390/20121106/113012/1720/500/20/
045390/20121106/113019/1720/140/20/
045390/20121106/113050/1720/102/10/
045390/20121106/113058/1720/1233/10/
045390/20121106/113058/1715/8767/10/
045390/20121106/113131/1715/1186/10/
045390/20121106/113213/1715/401/10/
045390/20121106/113218/1720/111/20/
045390/20121106/113236/1715/2000/10/
045390/20121106/113238/1715/2000/10/
045390/20121106/113239/1715/2000/10/
045390/20121106/113241/1715/2000/10/
045390/20121106/113352/1720/2438/20/
045390/20121106/113352/1725/2612/20/
045390/20121106/113622/1725/339/20/
045390/20121106/113712/1725/445/20/
045390/20121106/113929/1720/210/10/
045390/20121106/114024/1725/1050/20/
045390/20121106/114114/1720/100/10/
045390/20121106/114125/1720/102/10/
045390/20121106/114138/1725/170/20/
045390/20121106/114143/1720/100/10/
045390/20121106/114157/1720/290/10/
045390/20121106/114218/1720/950/10/
045390/20121106/114239/1720/401/10/
045390/20121106/114332/1715/285/10/
045390/20121106/114504/1715/102/10/
045390/20121106/114519/1715/7132/10/
045390/20121106/114523/1715/2832/10/
045390/20121106/114601/1715/1800/10/
045390/20121106/114618/1715/1000/10/
045390/20121106/114625/1720/400/20/
045390/20121106/114645/1715/984/10/
045390/20121106/114709/1715/1640/20/
045390/20121106/114720/1715/3173/20/
045390/20121106/114731/1715/889/20/
045390/20121106/115017/1720/136/20/
045390/20121106/115039/1720/300/20/
045390/20121106/115125/1715/4000/10/
045390/20121106/115244/1715/516/10/
045390/20121106/115337/1720/100/20/
045390/20121106/115512/1715/1000/10/
045390/20121106/115518/1715/350/10/
045390/20121106/115523/1715/1008/10/
045390/20121106/115526/1715/297/20/
045390/20121106/115528/1715/2000/20/
045390/20121106/115530/1710/11062/10/
045390/20121106/115530/1715/474/20/
045390/20121106/115559/1715/103/20/
045390/20121106/115602/1715/1000/20/
045390/20121106/115607/1715/1000/20/
045390/20121106/115720/1715/2925/20/
045390/20121106/115748/1710/20001/10/
045390/20121106/115753/1710/2570/10/
045390/20121106/115755/1715/1000/20/
045390/20121106/115756/1710/280/10/
045390/20121106/115756/1705/6720/10/
045390/20121106/115804/1710/836/10/
045390/20121106/115851/1710/313/10/
045390/20121106/120234/1715/1008/20/
045390/20121106/120348/1715/258/20/
045390/20121106/120430/1710/2051/10/
045390/20121106/120433/1710/2000/10/
045390/20121106/120441/1715/190/20/
045390/20121106/120502/1715/300/20/
045390/20121106/120552/1710/232/10/
045390/20121106/120624/1710/500/10/
045390/20121106/120632/1710/500/10/
045390/20121106/120723/1715/264/20/
045390/20121106/120727/1715/100/20/
045390/20121106/120852/1715/233/20/
045390/20121106/120938/1715/100/20/
045390/20121106/120943/1710/3706/10/
045390/20121106/121023/1710/4000/10/
045390/20121106/121039/1710/2398/10/
045390/20121106/121301/1715/140/20/
045390/20121106/121325/1710/1608/10/
045390/20121106/121342/1710/300/20/
045390/20121106/121351/1710/179/20/
045390/20121106/121425/1715/100/20/
045390/20121106/121433/1710/4500/10/
045390/20121106/121550/1710/1743/10/
045390/20121106/121648/1710/13163/10/
045390/20121106/121657/1710/115/20/
045390/20121106/121701/1710/385/10/
045390/20121106/121733/1710/5500/20/
045390/20121106/121741/1710/1405/20/
045390/20121106/121855/1720/302/20/
045390/20121106/122018/1710/9495/10/
045390/20121106/122112/1710/242/20/
045390/20121106/122134/1710/100/20/
045390/20121106/122150/1705/1206/10/
045390/20121106/122235/1710/4737/20/
045390/20121106/122319/1715/1001/20/
045390/20121106/122548/1715/115/20/
045390/20121106/122628/1715/3902/20/
045390/20121106/123111/1720/767/20/
045390/20121106/123142/1715/200/10/
045390/20121106/123533/1720/85/20/
045390/20121106/123700/1715/1000/10/
045390/20121106/123739/1715/3613/10/
045390/20121106/123739/1710/1951/10/
045390/20121106/123911/1715/112/10/
045390/20121106/123923/1715/503/10/
045390/20121106/123923/1710/2515/10/
045390/20121106/124306/1715/551/10/
045390/20121106/124307/1715/213/10/
045390/20121106/124446/1715/120/20/
045390/20121106/124517/1715/2505/20/
045390/20121106/124627/1715/979/10/
045390/20121106/125233/1715/1005/10/
045390/20121106/125303/1715/3000/10/
045390/20121106/125356/1715/1000/10/
045390/20121106/125433/1715/2000/10/
045390/20121106/125505/1715/7003/10/
045390/20121106/125521/1715/1000/10/
045390/20121106/125623/1715/1694/10/
045390/20121106/125743/1715/6162/10/
045390/20121106/125811/1715/841/20/
045390/20121106/125826/1715/502/10/
045390/20121106/125905/1715/501/10/
045390/20121106/125928/1720/500/20/
045390/20121106/125930/1715/1000/10/
045390/20121106/130138/1715/137/10/
045390/20121106/130144/1715/5034/10/
045390/20121106/130255/1715/2011/20/
045390/20121106/130308/1715/2072/10/
045390/20121106/130310/1715/928/10/
045390/20121106/130310/1710/7372/10/
045390/20121106/130620/1715/210/10/
045390/20121106/131409/1715/945/10/
045390/20121106/131519/1715/1200/10/
045390/20121106/131521/1715/82/10/
045390/20121106/131555/1715/193/20/
045390/20121106/131657/1720/301/20/
045390/20121106/131810/1720/600/20/
045390/20121106/131812/1715/350/10/
045390/20121106/131839/1720/1284/20/
045390/20121106/131949/1720/120/20/
045390/20121106/132134/1715/10019/10/
045390/20121106/132217/1715/2449/10/
045390/20121106/132402/1715/512/10/
045390/20121106/132419/1715/4197/10/
045390/20121106/132532/1715/125/10/
045390/20121106/132539/1715/815/10/
045390/20121106/132547/1715/285/20/
045390/20121106/132600/1720/1954/20/
045390/20121106/132724/1720/101/10/
045390/20121106/132740/1720/949/10/
045390/20121106/132833/1720/748/10/
045390/20121106/132916/1720/1000/10/
045390/20121106/132937/1720/200/10/
045390/20121106/132954/1720/1000/20/
045390/20121106/133237/1720/101/10/
045390/20121106/133238/1720/10000/10/
045390/20121106/133239/1720/447/10/
045390/20121106/133256/1720/829/10/
045390/20121106/133301/1720/171/20/
045390/20121106/133610/1725/5016/20/
045390/20121106/133611/1725/5000/20/
045390/20121106/133612/1725/2770/20/
045390/20121106/133707/1730/301/20/
045390/20121106/133709/1730/17359/20/
045390/20121106/133724/1730/206/10/
045390/20121106/133725/1735/1000/20/
045390/20121106/133755/1735/492/20/
045390/20121106/133809/1730/828/10/
045390/20121106/133818/1730/200/10/
045390/20121106/133818/1730/2325/10/
045390/20121106/133821/1730/400/10/
045390/20121106/133823/1730/3020/10/
045390/20121106/133824/1730/300/10/
045390/20121106/133825/1730/3350/10/
045390/20121106/133825/1730/91/10/
045390/20121106/133833/1730/579/10/
045390/20121106/133847/1730/151/20/
045390/20121106/133847/1730/271/20/
045390/20121106/133917/1730/1001/10/
045390/20121106/133953/1730/4233/10/
045390/20121106/133953/1725/1771/10/
045390/20121106/134035/1730/701/10/
045390/20121106/134057/1730/100/10/
045390/20121106/134248/1730/1501/10/
045390/20121106/134313/1730/100/10/
045390/20121106/134324/1730/500/10/
045390/20121106/134357/1730/500/10/
045390/20121106/134437/1730/252/10/
045390/20121106/134458/1730/200/10/
045390/20121106/134504/1730/173/10/
045390/20121106/134532/1730/210/10/
045390/20121106/134545/1735/3000/20/
045390/20121106/134549/1735/3000/20/
045390/20121106/134550/1730/326/10/
045390/20121106/134726/1730/278/10/
045390/20121106/134747/1730/1441/10/
045390/20121106/134819/1735/9001/20/
045390/20121106/134837/1735/1000/20/
045390/20121106/134950/1735/1000/20/
045390/20121106/134953/1735/1000/20/
045390/20121106/134954/1730/300/10/
045390/20121106/134957/1730/1477/10/
045390/20121106/135036/1730/5000/10/
045390/20121106/135041/1730/25000/10/
045390/20121106/135046/1730/1500/10/
045390/20121106/135048/1730/1000/10/
045390/20121106/135101/1730/548/10/
045390/20121106/135203/1730/650/20/
045390/20121106/135205/1730/10895/20/
045390/20121106/135209/1730/3300/20/
045390/20121106/135209/1730/203/20/
045390/20121106/135217/1730/1485/10/
045390/20121106/135254/1735/4406/20/
045390/20121106/135331/1735/542/10/
045390/20121106/135351/1735/1003/10/
045390/20121106/135353/1735/569/10/
045390/20121106/135431/1735/2681/20/
045390/20121106/135506/1735/1021/10/
045390/20121106/135611/1735/1041/10/
045390/20121106/135622/1735/260/10/
045390/20121106/135740/1730/4004/10/
045390/20121106/135902/1730/396/20/
045390/20121106/135936/1730/1000/10/
045390/20121106/140046/1730/1781/10/
045390/20121106/140207/1730/843/10/
045390/20121106/140428/1725/492/10/
045390/20121106/140444/1725/1589/10/
045390/20121106/140448/1725/100/10/
045390/20121106/140545/1725/690/10/
045390/20121106/140552/1725/1000/10/
045390/20121106/140637/1725/502/10/
045390/20121106/140638/1730/960/20/
045390/20121106/140916/1730/100/20/
045390/20121106/140920/1730/1400/20/
045390/20121106/141000/1725/185/10/
045390/20121106/141035/1725/347/10/
045390/20121106/141305/1730/1000/20/
045390/20121106/141328/1730/5000/20/
045390/20121106/141405/1725/950/10/
045390/20121106/141454/1725/1034/10/
045390/20121106/141520/1725/307/10/
045390/20121106/141539/1725/2177/10/
045390/20121106/141540/1725/700/10/
045390/20121106/141711/1725/100/10/
045390/20121106/141946/1725/1602/10/
045390/20121106/142035/1730/261/20/
045390/20121106/142045/1725/2365/10/
045390/20121106/142113/1725/200/10/
045390/20121106/142142/1725/826/10/
045390/20121106/142304/1720/1060/10/
045390/20121106/142319/1720/2000/10/
045390/20121106/142411/1725/1053/20/
045390/20121106/142433/1725/329/20/
045390/20121106/142459/1720/154/10/
045390/20121106/142523/1725/1004/20/
045390/20121106/142602/1725/1010/20/
045390/20121106/142731/1725/1060/20/
045390/20121106/142751/1725/420/20/
045390/20121106/142802/1725/140/20/
045390/20121106/142814/1725/3000/20/
045390/20121106/142825/1725/1002/20/
045390/20121106/142925/1720/2005/10/
045390/20121106/142942/1720/1000/10/
045390/20121106/142954/1720/550/10/
045390/20121106/143028/1720/250/10/
045390/20121106/143042/1720/817/10/
045390/20121106/143104/1720/2000/10/
045390/20121106/143120/1720/2300/10/
045390/20121106/143124/1720/3000/10/
045390/20121106/143149/1720/301/10/
045390/20121106/143209/1720/993/10/
045390/20121106/143253/1720/1110/10/
045390/20121106/143350/1720/5287/10/
045390/20121106/143403/1720/13843/10/
045390/20121106/143404/1720/3000/10/
045390/20121106/143408/1720/2727/10/
045390/20121106/143529/1715/10915/10/
045390/20121106/143542/1720/271/20/
045390/20121106/143630/1720/730/20/
045390/20121106/143638/1720/2003/20/
045390/20121106/143801/1720/678/20/
045390/20121106/143829/1715/1000/10/
045390/20121106/143853/1715/1622/10/
045390/20121106/143915/1715/1036/10/
045390/20121106/143943/1715/3300/10/
045390/20121106/143945/1715/1000/10/
045390/20121106/144016/1720/524/20/
045390/20121106/144028/1715/1759/10/
045390/20121106/144053/1715/902/10/
045390/20121106/144140/1715/501/10/
045390/20121106/144208/1715/1073/10/
045390/20121106/144208/1720/100/20/
045390/20121106/144233/1715/104/10/
045390/20121106/144254/1715/4370/10/
045390/20121106/144522/1715/5068/10/
045390/20121106/144529/1715/151/10/
045390/20121106/144532/1715/1301/10/
045390/20121106/144533/1715/2766/10/
045390/20121106/144533/1710/1038/10/
045390/20121106/144556/1715/141/20/
045390/20121106/144601/1715/549/20/
045390/20121106/144626/1715/663/20/
045390/20121106/144628/1715/12001/20/
045390/20121106/144633/1710/960/10/
045390/20121106/144641/1715/516/20/
045390/20121106/144645/1720/1004/20/
045390/20121106/144653/1720/964/20/
045390/20121106/144731/1715/3062/10/
045390/20121106/144751/1725/1011/20/
045390/20121106/144834/1720/466/20/
045390/20121106/144834/1720/556/10/
045390/20121106/144834/1715/1444/10/
045390/20121106/144900/1725/1002/20/
045390/20121106/144909/1725/225/20/
045390/20121106/144914/1725/614/20/
045390/20121106/144953/1720/145/10/
045390/20121106/150000/1715/45094/10/
