045390/20121129/90000/1555/30499/10/
045390/20121129/90001/1560/2000/20/
045390/20121129/90001/1560/1588/20/
045390/20121129/90001/1565/9542/20/
045390/20121129/90008/1565/3109/10/
045390/20121129/90024/1560/140/20/
045390/20121129/90032/1560/643/10/
045390/20121129/90044/1560/220/10/
045390/20121129/90051/1560/500/10/
045390/20121129/90052/1565/400/20/
045390/20121129/90058/1565/100/20/
045390/20121129/90107/1565/150/20/
045390/20121129/90124/1560/1362/10/
045390/20121129/90201/1560/144/10/
045390/20121129/90220/1560/500/10/
045390/20121129/90225/1560/1000/10/
045390/20121129/90241/1560/203/10/
045390/20121129/90245/1565/1001/20/
045390/20121129/90303/1560/1035/10/
045390/20121129/90309/1565/500/20/
045390/20121129/90341/1560/124/10/
045390/20121129/90344/1565/100/20/
045390/20121129/90401/1565/1000/20/
045390/20121129/90432/1565/100/20/
045390/20121129/90435/1560/500/10/
045390/20121129/90444/1560/1432/10/
045390/20121129/90459/1555/1272/10/
045390/20121129/90507/1555/7097/10/
045390/20121129/90507/1550/22903/10/
045390/20121129/90507/1550/500/10/
045390/20121129/90536/1555/643/10/
045390/20121129/90541/1555/417/10/
045390/20121129/90545/1555/249/10/
045390/20121129/90606/1550/284/10/
045390/20121129/90633/1550/270/10/
045390/20121129/90647/1550/200/10/
045390/20121129/90655/1555/200/20/
045390/20121129/90702/1550/263/10/
045390/20121129/90709/1555/1002/20/
045390/20121129/90711/1555/952/20/
045390/20121129/90714/1555/1597/20/
045390/20121129/90720/1555/403/10/
045390/20121129/90720/1555/249/20/
045390/20121129/90724/1555/1398/20/
045390/20121129/90801/1555/2683/10/
045390/20121129/90809/1555/110/20/
045390/20121129/90812/1555/103/20/
045390/20121129/90821/1555/130/20/
045390/20121129/90824/1555/370/20/
045390/20121129/90837/1560/156/20/
045390/20121129/90841/1560/5005/20/
045390/20121129/90855/1560/1011/20/
045390/20121129/90857/1560/1324/20/
045390/20121129/90901/1560/105/10/
045390/20121129/90951/1565/2077/20/
045390/20121129/91047/1565/81/20/
045390/20121129/91112/1565/5035/20/
045390/20121129/91132/1565/108/20/
045390/20121129/91146/1565/1016/20/
045390/20121129/91148/1565/101/20/
045390/20121129/91153/1565/140/20/
045390/20121129/91227/1565/207/20/
045390/20121129/91227/1565/434/10/
045390/20121129/91241/1565/1915/20/
045390/20121129/91243/1565/89/10/
045390/20121129/91306/1565/4961/20/
045390/20121129/91320/1565/560/20/
045390/20121129/91327/1565/100/20/
045390/20121129/91331/1565/1000/20/
045390/20121129/91340/1565/1000/20/
045390/20121129/91342/1565/200/20/
045390/20121129/91343/1565/1000/20/
045390/20121129/91413/1565/1018/20/
045390/20121129/91433/1560/800/10/
045390/20121129/91441/1565/1623/20/
045390/20121129/91443/1565/377/10/
045390/20121129/91534/1565/1013/20/
045390/20121129/91537/1565/1365/20/
045390/20121129/91544/1565/1635/10/
045390/20121129/91609/1560/215/10/
045390/20121129/91631/1560/1329/10/
045390/20121129/91707/1565/81/20/
045390/20121129/91708/1565/650/20/
045390/20121129/91728/1565/184/20/
045390/20121129/91837/1565/120/20/
045390/20121129/91842/1560/1000/10/
045390/20121129/91858/1560/1001/10/
045390/20121129/91959/1560/4001/10/
045390/20121129/92001/1560/4383/10/
045390/20121129/92020/1555/2000/10/
045390/20121129/92022/1555/7758/10/
045390/20121129/92022/1550/12176/10/
045390/20121129/92028/1545/3414/10/
045390/20121129/92028/1540/103/10/
045390/20121129/92047/1540/1202/10/
045390/20121129/92054/1540/1006/10/
045390/20121129/92132/1550/353/20/
045390/20121129/92145/1545/1050/10/
045390/20121129/92159/1550/103/20/
045390/20121129/92214/1550/101/20/
045390/20121129/92221/1550/100/20/
045390/20121129/92241/1550/4341/20/
045390/20121129/92243/1550/3000/20/
045390/20121129/92246/1550/100/20/
045390/20121129/92253/1550/1000/20/
045390/20121129/92255/1550/3004/20/
045390/20121129/92256/1550/1000/20/
045390/20121129/92258/1545/7619/10/
045390/20121129/92305/1550/1447/20/
045390/20121129/92309/1550/100/20/
045390/20121129/92312/1550/1650/20/
045390/20121129/92313/1550/100/20/
045390/20121129/92315/1550/377/20/
045390/20121129/92633/1550/995/10/
045390/20121129/92634/1550/324/10/
045390/20121129/92656/1550/326/20/
045390/20121129/92658/1550/200/10/
045390/20121129/92659/1550/94/10/
045390/20121129/92725/1550/1001/10/
045390/20121129/92745/1550/136/10/
045390/20121129/92924/1550/973/10/
045390/20121129/92958/1555/322/20/
045390/20121129/93034/1555/143/20/
045390/20121129/93044/1550/1020/10/
045390/20121129/93045/1555/100/20/
045390/20121129/93140/1555/82/20/
045390/20121129/93238/1555/86/20/
045390/20121129/93241/1555/965/20/
045390/20121129/93253/1555/423/20/
045390/20121129/93400/1555/1021/10/
045390/20121129/93402/1560/2000/20/
045390/20121129/93402/1555/142/10/
045390/20121129/93446/1555/258/20/
045390/20121129/93500/1555/101/10/
045390/20121129/93511/1555/501/10/
045390/20121129/93552/1560/642/20/
045390/20121129/93655/1555/1006/10/
045390/20121129/93727/1550/881/10/
045390/20121129/93756/1550/105/10/
045390/20121129/93803/1550/151/10/
045390/20121129/93820/1550/1011/10/
045390/20121129/93849/1555/1002/20/
045390/20121129/93851/1555/1838/20/
045390/20121129/93853/1555/1000/20/
045390/20121129/93905/1555/2000/20/
045390/20121129/93913/1555/306/20/
045390/20121129/93954/1560/731/20/
045390/20121129/94019/1560/695/20/
045390/20121129/94022/1560/1000/20/
045390/20121129/94026/1560/2132/20/
045390/20121129/94034/1560/2704/20/
045390/20121129/94035/1560/1000/20/
045390/20121129/94036/1560/178/20/
045390/20121129/94105/1565/1651/20/
045390/20121129/94158/1560/1420/10/
045390/20121129/94206/1560/2001/10/
045390/20121129/94207/1560/100/10/
045390/20121129/94211/1560/3235/10/
045390/20121129/94253/1565/4023/20/
045390/20121129/94306/1565/214/20/
045390/20121129/94323/1565/8244/20/
045390/20121129/94325/1565/779/10/
045390/20121129/94420/1565/81/20/
045390/20121129/94427/1565/343/20/
045390/20121129/94431/1565/5301/20/
045390/20121129/94437/1570/2302/20/
045390/20121129/94447/1570/216/20/
045390/20121129/94457/1570/116/20/
045390/20121129/94500/1570/10004/20/
045390/20121129/94500/1570/1758/20/
045390/20121129/94507/1570/1012/10/
045390/20121129/94513/1570/309/20/
045390/20121129/94518/1570/108/20/
045390/20121129/94520/1570/502/20/
045390/20121129/94523/1570/975/20/
045390/20121129/94549/1570/2542/20/
045390/20121129/94551/1570/3472/20/
045390/20121129/94551/1575/6536/20/
045390/20121129/94602/1570/507/10/
045390/20121129/94607/1570/528/20/
045390/20121129/94608/1570/4152/20/
045390/20121129/94612/1570/424/20/
045390/20121129/94630/1570/309/10/
045390/20121129/94647/1570/1184/10/
045390/20121129/94703/1570/2567/20/
045390/20121129/94724/1570/3513/20/
045390/20121129/94804/1570/939/10/
045390/20121129/94822/1570/1505/10/
045390/20121129/94828/1570/1918/20/
045390/20121129/94851/1570/5314/10/
045390/20121129/94859/1570/702/10/
045390/20121129/94917/1570/1025/10/
045390/20121129/94943/1575/1707/20/
045390/20121129/95054/1570/993/10/
045390/20121129/95058/1570/1001/10/
045390/20121129/95147/1570/1009/10/
045390/20121129/95155/1570/4492/10/
045390/20121129/95157/1570/500/10/
045390/20121129/95158/1570/3000/10/
045390/20121129/95201/1570/379/10/
045390/20121129/95304/1565/1056/10/
045390/20121129/95324/1565/81/10/
045390/20121129/95411/1570/81/20/
045390/20121129/95524/1570/90/20/
045390/20121129/95914/1570/90/20/
045390/20121129/100006/1565/2339/10/
045390/20121129/100011/1565/1921/10/
045390/20121129/100050/1565/1295/20/
045390/20121129/100114/1565/2066/10/
045390/20121129/100253/1565/1707/10/
045390/20121129/100301/1565/200/20/
045390/20121129/100305/1565/2000/20/
045390/20121129/100327/1565/93/20/
045390/20121129/100432/1570/650/20/
045390/20121129/100450/1565/180/10/
045390/20121129/100513/1565/1957/10/
045390/20121129/100542/1565/300/10/
045390/20121129/100638/1565/743/20/
045390/20121129/100638/1570/4258/20/
045390/20121129/100830/1565/2160/10/
045390/20121129/100906/1565/200/20/
045390/20121129/100906/1565/100/20/
045390/20121129/100915/1560/2665/10/
045390/20121129/101004/1560/200/10/
045390/20121129/101110/1560/9190/10/
045390/20121129/101251/1555/619/10/
045390/20121129/101254/1555/501/10/
045390/20121129/101325/1555/506/10/
045390/20121129/101343/1555/6573/10/
045390/20121129/101343/1550/19196/10/
045390/20121129/101343/1545/6665/10/
045390/20121129/101350/1545/300/10/
045390/20121129/101407/1550/203/10/
045390/20121129/101419/1550/101/10/
045390/20121129/101432/1550/7383/10/
045390/20121129/101452/1550/517/20/
045390/20121129/101453/1550/1000/20/
045390/20121129/101454/1550/118/20/
045390/20121129/101455/1550/3225/20/
045390/20121129/101458/1550/500/20/
045390/20121129/101500/1550/261/20/
045390/20121129/101505/1550/1000/10/
045390/20121129/101619/1560/7990/20/
045390/20121129/101625/1560/158/10/
045390/20121129/102024/1560/90/20/
045390/20121129/102041/1560/650/20/
045390/20121129/102048/1555/5798/10/
045390/20121129/102058/1555/522/20/
045390/20121129/102217/1560/3326/20/
045390/20121129/102226/1565/1011/20/
045390/20121129/102343/1560/933/10/
045390/20121129/102345/1560/5542/10/
045390/20121129/102541/1560/102/20/
045390/20121129/102930/1560/943/10/
045390/20121129/103050/1555/351/10/
045390/20121129/103646/1560/86/20/
045390/20121129/103856/1560/310/20/
045390/20121129/103910/1560/315/20/
045390/20121129/103949/1560/502/10/
045390/20121129/104020/1560/187/10/
045390/20121129/104020/1555/1515/10/
045390/20121129/104233/1560/131/20/
045390/20121129/104236/1560/500/20/
045390/20121129/104323/1560/1470/20/
045390/20121129/104324/1565/1000/20/
045390/20121129/104349/1565/1000/20/
045390/20121129/104414/1565/1032/20/
045390/20121129/104428/1565/800/20/
045390/20121129/104428/1565/200/20/
045390/20121129/104454/1565/93/20/
045390/20121129/104455/1565/500/20/
045390/20121129/104457/1565/1000/20/
045390/20121129/104537/1565/105/20/
045390/20121129/104544/1565/500/20/
045390/20121129/104639/1560/1132/10/
045390/20121129/104646/1565/165/20/
045390/20121129/104704/1565/303/20/
045390/20121129/104805/1560/101/10/
045390/20121129/104828/1560/500/10/
045390/20121129/105107/1565/1003/20/
045390/20121129/105119/1565/500/20/
045390/20121129/105120/1565/200/20/
045390/20121129/105253/1565/2006/20/
045390/20121129/105324/1565/100/20/
045390/20121129/105433/1565/440/20/
045390/20121129/105505/1565/121/20/
045390/20121129/105508/1565/379/10/
045390/20121129/105643/1565/1001/20/
045390/20121129/105705/1560/100/10/
045390/20121129/105717/1560/219/20/
045390/20121129/105734/1560/1021/20/
045390/20121129/110018/1565/5106/20/
045390/20121129/110037/1565/362/20/
045390/20121129/110039/1565/2800/20/
045390/20121129/110047/1565/82/20/
045390/20121129/110117/1565/3999/20/
045390/20121129/110158/1565/100/20/
045390/20121129/110309/1565/2066/20/
045390/20121129/110312/1565/200/20/
045390/20121129/110316/1565/500/20/
045390/20121129/110348/1565/781/20/
045390/20121129/110408/1560/4423/10/
045390/20121129/110415/1560/500/20/
045390/20121129/110428/1560/120/10/
045390/20121129/110428/1555/598/10/
045390/20121129/110558/1560/1582/10/
045390/20121129/110623/1560/200/10/
045390/20121129/110818/1560/1735/10/
045390/20121129/111048/1565/6145/20/
045390/20121129/111051/1565/296/10/
045390/20121129/111104/1570/5001/20/
045390/20121129/111112/1570/1000/20/
045390/20121129/111118/1570/9880/20/
045390/20121129/111119/1570/500/20/
045390/20121129/111120/1570/1000/20/
045390/20121129/111122/1570/638/20/
045390/20121129/111123/1570/891/20/
045390/20121129/111141/1575/1801/20/
045390/20121129/111150/1575/2109/20/
045390/20121129/111151/1575/500/20/
045390/20121129/111154/1575/400/20/
045390/20121129/111156/1575/1000/20/
045390/20121129/111157/1575/100/20/
045390/20121129/111204/1575/960/20/
045390/20121129/111207/1575/500/20/
045390/20121129/111213/1575/1000/20/
045390/20121129/111214/1575/199/20/
045390/20121129/111257/1575/1774/20/
045390/20121129/111257/1575/5322/20/
045390/20121129/111257/1575/942/20/
045390/20121129/111303/1575/1000/10/
045390/20121129/111304/1575/300/10/
045390/20121129/111329/1575/502/20/
045390/20121129/111339/1575/1000/20/
045390/20121129/111342/1575/100/20/
045390/20121129/111346/1575/1127/20/
045390/20121129/111349/1575/301/10/
045390/20121129/111350/1575/1270/10/
045390/20121129/111350/1575/933/10/
045390/20121129/111357/1575/1001/20/
045390/20121129/111407/1575/267/20/
045390/20121129/111407/1580/736/20/
045390/20121129/111411/1580/4401/20/
045390/20121129/111445/1580/301/20/
045390/20121129/111446/1580/500/20/
045390/20121129/111525/1575/5370/10/
045390/20121129/111607/1575/132/20/
045390/20121129/111609/1575/1932/20/
045390/20121129/111609/1575/866/20/
045390/20121129/111630/1580/601/20/
045390/20121129/111712/1580/102/20/
045390/20121129/111735/1580/2001/20/
045390/20121129/111744/1580/957/20/
045390/20121129/111802/1580/7614/20/
045390/20121129/111920/1580/85/20/
045390/20121129/111944/1580/4671/20/
045390/20121129/111954/1580/3002/10/
045390/20121129/111959/1580/1560/10/
045390/20121129/112050/1580/1777/20/
045390/20121129/112050/1580/1241/20/
045390/20121129/112206/1580/115/20/
045390/20121129/112329/1580/8915/20/
045390/20121129/112329/1580/2840/20/
045390/20121129/112347/1585/2490/20/
045390/20121129/112432/1580/1302/10/
045390/20121129/112437/1580/1774/10/
045390/20121129/112511/1580/201/10/
045390/20121129/112540/1580/9883/10/
045390/20121129/112601/1575/5326/10/
045390/20121129/112654/1580/1011/20/
045390/20121129/112740/1575/3017/10/
045390/20121129/112753/1575/1000/10/
045390/20121129/112830/1575/501/10/
045390/20121129/112831/1575/200/10/
045390/20121129/112842/1575/501/10/
045390/20121129/112908/1575/101/10/
045390/20121129/113100/1575/1072/10/
045390/20121129/113117/1575/1701/10/
045390/20121129/113120/1575/612/10/
045390/20121129/113141/1575/100/10/
045390/20121129/113222/1575/201/10/
045390/20121129/113445/1575/101/10/
045390/20121129/113529/1575/105/10/
045390/20121129/113626/1575/102/10/
045390/20121129/113632/1575/500/10/
045390/20121129/113826/1575/3223/10/
045390/20121129/113828/1575/2224/20/
045390/20121129/113853/1575/509/20/
045390/20121129/113901/1575/401/10/
045390/20121129/113905/1575/501/10/
045390/20121129/113956/1575/2036/10/
045390/20121129/114220/1575/93/10/
045390/20121129/114241/1580/501/20/
045390/20121129/114302/1575/1367/10/
045390/20121129/114324/1575/201/20/
045390/20121129/114402/1575/203/10/
045390/20121129/114406/1575/1560/10/
045390/20121129/114607/1575/201/20/
045390/20121129/114718/1575/523/10/
045390/20121129/114802/1575/2182/10/
045390/20121129/114828/1575/180/20/
045390/20121129/114852/1575/1000/20/
045390/20121129/114856/1575/1000/20/
045390/20121129/114856/1575/638/20/
045390/20121129/115416/1575/239/20/
045390/20121129/115613/1570/371/10/
045390/20121129/115613/1570/207/10/
045390/20121129/115651/1575/101/20/
045390/20121129/115712/1575/100/20/
045390/20121129/115846/1575/563/20/
045390/20121129/115910/1575/3000/20/
045390/20121129/115910/1575/3456/20/
045390/20121129/120130/1580/601/20/
045390/20121129/120259/1580/500/20/
045390/20121129/120358/1580/1000/20/
045390/20121129/120418/1580/100/20/
045390/20121129/120539/1580/100/20/
045390/20121129/120543/1580/100/20/
045390/20121129/120614/1575/450/10/
045390/20121129/120643/1575/3328/10/
045390/20121129/120643/1570/673/10/
045390/20121129/120829/1575/132/20/
045390/20121129/120846/1575/120/10/
045390/20121129/121032/1570/1000/10/
045390/20121129/121413/1575/201/20/
045390/20121129/121426/1570/9880/10/
045390/20121129/121430/1570/2000/10/
045390/20121129/121502/1570/330/10/
045390/20121129/121600/1570/151/10/
045390/20121129/121605/1570/1222/10/
045390/20121129/121613/1570/101/10/
045390/20121129/121618/1570/100/10/
045390/20121129/121625/1570/101/10/
045390/20121129/121706/1575/3616/20/
045390/20121129/121730/1575/501/10/
045390/20121129/121736/1575/101/10/
045390/20121129/121742/1575/1000/10/
045390/20121129/121745/1575/3108/10/
045390/20121129/121949/1570/827/10/
045390/20121129/122001/1570/1000/10/
045390/20121129/122100/1570/501/10/
045390/20121129/122127/1570/1410/10/
045390/20121129/122127/1565/9479/10/
045390/20121129/122215/1565/4401/10/
045390/20121129/122508/1575/301/20/
045390/20121129/123035/1575/1300/20/
045390/20121129/123224/1570/2450/10/
045390/20121129/123451/1570/7797/20/
045390/20121129/123550/1570/501/10/
045390/20121129/123744/1570/201/10/
045390/20121129/123853/1570/203/10/
045390/20121129/123926/1570/201/10/
045390/20121129/124116/1570/299/10/
045390/20121129/124123/1570/1001/10/
045390/20121129/124348/1575/201/20/
045390/20121129/124442/1575/3000/20/
045390/20121129/124639/1570/192/10/
045390/20121129/125122/1570/161/10/
045390/20121129/125141/1575/501/20/
045390/20121129/125216/1570/300/10/
045390/20121129/125603/1575/103/20/
045390/20121129/125617/1570/1031/10/
045390/20121129/125653/1570/95/10/
045390/20121129/125823/1570/101/10/
045390/20121129/125846/1570/5000/10/
045390/20121129/125903/1570/101/10/
045390/20121129/125904/1570/500/10/
045390/20121129/130042/1575/676/20/
045390/20121129/130138/1570/510/20/
045390/20121129/130147/1570/490/20/
045390/20121129/130315/1565/2646/10/
045390/20121129/130429/1570/501/20/
045390/20121129/130550/1565/100/10/
045390/20121129/130717/1570/3501/20/
045390/20121129/130717/1570/1030/20/
045390/20121129/131202/1575/601/20/
045390/20121129/131228/1570/3800/10/
045390/20121129/131232/1570/1151/10/
045390/20121129/131348/1570/1771/10/
045390/20121129/131659/1570/501/20/
045390/20121129/131714/1570/2300/20/
045390/20121129/131720/1570/300/20/
045390/20121129/131735/1570/300/20/
045390/20121129/131754/1570/1122/20/
045390/20121129/131819/1570/873/10/
045390/20121129/131822/1570/1000/10/
045390/20121129/131827/1570/2157/10/
045390/20121129/132305/1570/1065/20/
045390/20121129/132311/1570/1001/10/
045390/20121129/132325/1570/2002/10/
045390/20121129/132342/1570/957/10/
045390/20121129/132405/1570/102/20/
045390/20121129/132418/1565/5000/10/
045390/20121129/132429/1565/1001/10/
045390/20121129/132504/1565/1498/10/
045390/20121129/132516/1565/762/10/
045390/20121129/132533/1565/238/20/
045390/20121129/132610/1565/763/10/
045390/20121129/132610/1560/238/10/
045390/20121129/132724/1570/985/20/
045390/20121129/132925/1570/279/20/
045390/20121129/133145/1565/574/10/
045390/20121129/133312/1570/83/20/
045390/20121129/133452/1570/2250/20/
045390/20121129/133509/1570/216/20/
045390/20121129/133541/1570/330/20/
045390/20121129/133551/1570/1924/20/
045390/20121129/133648/1570/307/10/
045390/20121129/133904/1575/501/20/
045390/20121129/133923/1570/252/10/
045390/20121129/134119/1570/1001/10/
045390/20121129/134221/1575/706/20/
045390/20121129/134245/1570/1000/10/
045390/20121129/134337/1570/502/10/
045390/20121129/134458/1570/2659/10/
045390/20121129/134507/1565/801/10/
045390/20121129/134541/1570/411/20/
045390/20121129/134541/1570/1600/10/
045390/20121129/134739/1570/841/10/
045390/20121129/134819/1570/1016/10/
045390/20121129/134946/1570/918/20/
045390/20121129/134950/1570/2083/10/
045390/20121129/134957/1570/417/20/
045390/20121129/134959/1570/583/10/
045390/20121129/135006/1570/2000/20/
045390/20121129/135016/1570/433/20/
045390/20121129/135041/1575/84/20/
045390/20121129/135051/1570/81/10/
045390/20121129/135100/1570/545/10/
045390/20121129/135115/1570/310/20/
045390/20121129/135252/1575/4021/20/
045390/20121129/135303/1575/2288/20/
045390/20121129/135315/1570/250/10/
045390/20121129/135325/1570/1000/10/
045390/20121129/135409/1570/1000/10/
045390/20121129/135410/1570/500/10/
045390/20121129/135537/1570/651/10/
045390/20121129/135538/1570/600/10/
045390/20121129/135841/1575/106/20/
045390/20121129/140021/1575/7400/20/
045390/20121129/140021/1580/12553/20/
045390/20121129/140021/1585/5047/20/
045390/20121129/140208/1580/103/20/
045390/20121129/140238/1580/100/20/
045390/20121129/140258/1580/865/20/
045390/20121129/140323/1580/1001/10/
045390/20121129/140331/1580/1501/10/
045390/20121129/140334/1580/1001/10/
045390/20121129/140401/1580/2011/10/
045390/20121129/140407/1580/401/10/
045390/20121129/140409/1580/100/10/
045390/20121129/140439/1580/4293/10/
045390/20121129/140521/1580/500/20/
045390/20121129/140525/1580/500/20/
045390/20121129/140634/1580/3532/20/
045390/20121129/140712/1580/651/10/
045390/20121129/140716/1580/600/10/
045390/20121129/140750/1580/1517/10/
045390/20121129/140800/1580/1553/10/
045390/20121129/140802/1580/1000/10/
045390/20121129/140842/1580/117/10/
045390/20121129/140845/1580/3501/10/
045390/20121129/140908/1580/117/10/
045390/20121129/140920/1580/579/10/
045390/20121129/140939/1580/1508/10/
045390/20121129/141040/1580/3341/10/
045390/20121129/141105/1580/210/20/
045390/20121129/141105/1585/98/20/
045390/20121129/141214/1580/544/10/
045390/20121129/141218/1580/1050/10/
045390/20121129/141226/1580/141/10/
045390/20121129/141226/1580/950/10/
045390/20121129/141232/1580/100/10/
045390/20121129/141305/1580/106/10/
045390/20121129/141307/1580/254/10/
045390/20121129/141406/1580/174/10/
045390/20121129/141406/1575/322/10/
045390/20121129/141507/1580/860/20/
045390/20121129/141623/1585/919/20/
045390/20121129/141649/1585/91/20/
045390/20121129/141728/1580/6055/10/
045390/20121129/141746/1575/600/10/
045390/20121129/141808/1575/5121/10/
045390/20121129/141835/1575/1001/10/
045390/20121129/141850/1575/671/10/
045390/20121129/142237/1575/3955/10/
045390/20121129/142304/1575/1025/10/
045390/20121129/142319/1575/256/10/
045390/20121129/142342/1575/577/20/
045390/20121129/142437/1580/81/20/
045390/20121129/142809/1575/320/10/
045390/20121129/142813/1575/200/10/
045390/20121129/142820/1575/4640/10/
045390/20121129/143129/1575/564/20/
045390/20121129/143157/1575/1904/20/
045390/20121129/143218/1575/142/20/
045390/20121129/143237/1570/508/10/
045390/20121129/143348/1575/679/20/
045390/20121129/143404/1575/321/20/
045390/20121129/143404/1575/247/10/
045390/20121129/143427/1575/2732/10/
045390/20121129/143544/1575/452/20/
045390/20121129/143650/1580/5614/20/
045390/20121129/143652/1580/1000/20/
045390/20121129/143654/1580/894/20/
045390/20121129/143704/1575/102/10/
045390/20121129/143804/1575/1013/10/
045390/20121129/143931/1575/6312/10/
045390/20121129/144018/1580/6215/20/
045390/20121129/144029/1580/118/10/
045390/20121129/144111/1575/5000/10/
045390/20121129/144121/1575/851/10/
045390/20121129/144203/1575/100/10/
045390/20121129/144219/1575/3242/10/
045390/20121129/144223/1575/1000/10/
045390/20121129/144231/1575/100/10/
045390/20121129/144232/1575/250/10/
045390/20121129/144235/1575/3133/10/
045390/20121129/144535/1575/1899/20/
045390/20121129/144553/1570/100/10/
045390/20121129/144609/1570/6492/10/
045390/20121129/144808/1575/2017/20/
045390/20121129/144817/1575/5000/20/
045390/20121129/144825/1575/894/20/
045390/20121129/144837/1575/200/10/
045390/20121129/144906/1580/449/20/
045390/20121129/144949/1580/5255/20/
045390/20121129/150000/1565/69300/10/
