045390/20130214/90000/1730/13820/20/
045390/20130214/90001/1725/3840/10/
045390/20130214/90005/1720/5000/10/
045390/20130214/90005/1720/2160/10/
045390/20130214/90027/1720/110/10/
045390/20130214/90030/1720/500/20/
045390/20130214/90044/1715/5010/10/
045390/20130214/90046/1715/6491/10/
045390/20130214/90058/1715/1750/20/
045390/20130214/90120/1715/5000/20/
045390/20130214/90121/1715/759/20/
045390/20130214/90133/1715/3111/10/
045390/20130214/90141/1715/1279/20/
045390/20130214/90215/1715/1160/10/
045390/20130214/90231/1720/100/20/
045390/20130214/90245/1720/300/20/
045390/20130214/90316/1715/1038/10/
045390/20130214/90400/1720/1001/20/
045390/20130214/90421/1715/500/10/
045390/20130214/90451/1720/100/20/
045390/20130214/90506/1720/100/20/
045390/20130214/90540/1720/156/20/
045390/20130214/90544/1720/143/20/
045390/20130214/90549/1720/82/20/
045390/20130214/90607/1720/100/20/
045390/20130214/90640/1715/156/10/
045390/20130214/90700/1715/5000/10/
045390/20130214/90700/1715/2569/10/
045390/20130214/90724/1715/723/10/
045390/20130214/90735/1715/1068/10/
045390/20130214/90752/1720/10000/20/
045390/20130214/90759/1715/100/10/
045390/20130214/90810/1720/1000/20/
045390/20130214/90815/1720/358/20/
045390/20130214/90821/1720/1000/20/
045390/20130214/90831/1720/632/20/
045390/20130214/90835/1720/1338/20/
045390/20130214/90913/1720/200/10/
045390/20130214/90936/1720/300/10/
045390/20130214/91028/1720/2000/10/
045390/20130214/91036/1720/1343/10/
045390/20130214/91037/1720/6000/10/
045390/20130214/91038/1720/825/10/
045390/20130214/91141/1720/843/20/
045390/20130214/91141/1715/12000/10/
045390/20130214/91146/1715/1541/10/
045390/20130214/91147/1715/909/10/
045390/20130214/91154/1715/4345/20/
045390/20130214/91206/1715/1194/10/
045390/20130214/91249/1715/500/10/
045390/20130214/91309/1715/3499/10/
045390/20130214/91317/1715/100/10/
045390/20130214/91326/1715/338/10/
045390/20130214/91409/1715/200/10/
045390/20130214/91447/1715/3238/10/
045390/20130214/91521/1710/300/10/
045390/20130214/91555/1715/2000/20/
045390/20130214/91600/1715/9762/20/
045390/20130214/91609/1715/2238/10/
045390/20130214/91614/1715/262/20/
045390/20130214/91638/1715/2000/10/
045390/20130214/91640/1715/2500/10/
045390/20130214/91753/1715/101/10/
045390/20130214/91812/1715/2300/10/
045390/20130214/92023/1720/601/20/
045390/20130214/92159/1720/1824/20/
045390/20130214/92200/1715/505/10/
045390/20130214/92201/1720/2500/20/
045390/20130214/92218/1720/1098/20/
045390/20130214/92228/1715/5000/10/
045390/20130214/92557/1720/4021/20/
045390/20130214/92607/1720/1070/20/
045390/20130214/92614/1720/571/20/
045390/20130214/92631/1720/157/20/
045390/20130214/92648/1720/864/20/
045390/20130214/92728/1720/2167/10/
045390/20130214/92744/1720/334/20/
045390/20130214/92810/1720/1300/10/
045390/20130214/92821/1720/103/10/
045390/20130214/92834/1725/514/20/
045390/20130214/92835/1720/412/10/
045390/20130214/92944/1725/2039/20/
045390/20130214/93123/1720/133/10/
045390/20130214/93224/1720/4279/10/
045390/20130214/93224/1715/5722/10/
045390/20130214/93259/1720/502/10/
045390/20130214/93509/1720/2362/20/
045390/20130214/93518/1720/500/10/
045390/20130214/93522/1720/1000/10/
045390/20130214/93616/1720/101/10/
045390/20130214/93635/1720/101/10/
045390/20130214/93643/1720/2274/10/
045390/20130214/93850/1715/155/10/
045390/20130214/93930/1715/15677/10/
045390/20130214/94026/1715/81/10/
045390/20130214/94105/1720/2401/20/
045390/20130214/94150/1715/333/10/
045390/20130214/94323/1720/231/20/
045390/20130214/94340/1715/7000/10/
045390/20130214/94553/1715/101/10/
045390/20130214/94635/1715/100/10/
045390/20130214/94641/1715/100/10/
045390/20130214/94821/1715/4700/10/
045390/20130214/94824/1715/250/10/
045390/20130214/94830/1715/9706/10/
045390/20130214/94907/1715/241/10/
045390/20130214/94923/1715/1901/10/
045390/20130214/94938/1715/101/10/
045390/20130214/95020/1715/703/10/
045390/20130214/95055/1715/801/10/
045390/20130214/95102/1715/1806/10/
045390/20130214/95111/1720/226/20/
045390/20130214/95249/1715/1001/10/
045390/20130214/95325/1715/100/10/
045390/20130214/95352/1715/100/10/
045390/20130214/95400/1715/371/10/
045390/20130214/95401/1715/100/20/
045390/20130214/95459/1715/1000/20/
045390/20130214/95532/1710/1000/10/
045390/20130214/95631/1710/100/10/
045390/20130214/95635/1715/85/20/
045390/20130214/95657/1715/800/20/
045390/20130214/95705/1715/1000/20/
045390/20130214/95711/1715/201/20/
045390/20130214/95755/1715/1000/10/
045390/20130214/95755/1715/699/10/
045390/20130214/95909/1710/1400/10/
045390/20130214/95937/1715/1000/20/
045390/20130214/95941/1715/1000/20/
045390/20130214/100020/1715/1400/20/
045390/20130214/100131/1715/300/20/
045390/20130214/100141/1715/500/20/
045390/20130214/100142/1715/700/20/
045390/20130214/100145/1710/500/10/
045390/20130214/100213/1715/100/20/
045390/20130214/100241/1715/1000/20/
045390/20130214/100247/1715/2919/20/
045390/20130214/100248/1715/2578/20/
045390/20130214/100400/1720/197/20/
045390/20130214/100418/1715/1000/10/
045390/20130214/100739/1720/3009/20/
045390/20130214/100806/1720/429/20/
045390/20130214/101037/1715/554/10/
045390/20130214/101215/1715/2000/10/
045390/20130214/101239/1715/5000/10/
045390/20130214/101308/1715/400/10/
045390/20130214/101404/1715/8837/10/
045390/20130214/101418/1715/600/10/
045390/20130214/101502/1715/1000/10/
045390/20130214/101530/1715/1299/10/
045390/20130214/101540/1715/605/10/
045390/20130214/101558/1715/1000/10/
045390/20130214/101702/1715/288/10/
045390/20130214/101807/1715/512/10/
045390/20130214/101816/1715/600/10/
045390/20130214/102128/1715/2051/10/
045390/20130214/102207/1715/2145/10/
045390/20130214/102606/1715/620/20/
045390/20130214/102628/1715/1000/20/
045390/20130214/102635/1715/200/20/
045390/20130214/102736/1715/136/20/
045390/20130214/102823/1715/11544/10/
045390/20130214/103021/1715/3936/20/
045390/20130214/103306/1715/370/10/
045390/20130214/103306/1710/4661/10/
045390/20130214/103347/1710/13804/10/
045390/20130214/103553/1715/101/10/
045390/20130214/103614/1715/23611/20/
045390/20130214/103710/1715/300/20/
045390/20130214/103737/1715/970/20/
045390/20130214/103826/1715/1573/20/
045390/20130214/103830/1715/200/20/
045390/20130214/104033/1715/3246/20/
045390/20130214/104127/1715/300/10/
045390/20130214/104134/1715/238/10/
045390/20130214/104139/1715/627/10/
045390/20130214/104142/1715/1000/20/
045390/20130214/104210/1710/299/10/
045390/20130214/104218/1710/1865/10/
045390/20130214/104444/1710/1633/10/
045390/20130214/104632/1710/382/10/
045390/20130214/104641/1710/530/10/
045390/20130214/105018/1715/493/20/
045390/20130214/105223/1715/5451/20/
045390/20130214/105506/1715/1500/10/
045390/20130214/105522/1715/200/10/
045390/20130214/105540/1715/310/10/
045390/20130214/105624/1720/3003/20/
045390/20130214/105823/1720/3006/20/
045390/20130214/105856/1720/5020/20/
045390/20130214/105910/1720/5000/20/
045390/20130214/105914/1720/1009/20/
045390/20130214/105918/1720/1526/20/
045390/20130214/110004/1720/5001/10/
045390/20130214/110042/1720/600/10/
045390/20130214/110102/1720/1000/10/
045390/20130214/110125/1720/1550/10/
045390/20130214/110141/1720/301/10/
045390/20130214/110239/1720/2002/10/
045390/20130214/110347/1720/1000/10/
045390/20130214/110602/1720/822/10/
045390/20130214/110620/1720/1200/10/
045390/20130214/110636/1720/170/10/
045390/20130214/110645/1720/1000/10/
045390/20130214/110721/1720/500/10/
045390/20130214/110814/1720/317/10/
045390/20130214/111123/1720/650/20/
045390/20130214/111242/1720/1005/10/
045390/20130214/111304/1720/100/10/
045390/20130214/111305/1720/100/10/
045390/20130214/111305/1720/100/10/
045390/20130214/111306/1720/100/10/
045390/20130214/111537/1715/500/10/
045390/20130214/111729/1715/311/10/
045390/20130214/112139/1720/4025/20/
045390/20130214/112147/1725/6016/20/
045390/20130214/112159/1725/194/20/
045390/20130214/112313/1720/1001/10/
045390/20130214/112327/1720/100/10/
045390/20130214/112401/1725/183/20/
045390/20130214/112615/1725/185/20/
045390/20130214/112654/1725/500/20/
045390/20130214/112750/1725/5020/20/
045390/20130214/112820/1725/145/20/
045390/20130214/112831/1725/1037/20/
045390/20130214/112831/1725/1000/20/
045390/20130214/112835/1725/1000/20/
045390/20130214/112849/1720/174/10/
045390/20130214/113045/1725/117/20/
045390/20130214/113334/1725/145/20/
045390/20130214/113334/1725/123/20/
045390/20130214/113337/1725/230/20/
045390/20130214/113404/1725/1000/20/
045390/20130214/113441/1725/2000/20/
045390/20130214/113533/1725/500/20/
045390/20130214/113626/1725/120/20/
045390/20130214/113732/1720/864/10/
045390/20130214/113747/1720/1500/10/
045390/20130214/113810/1720/100/10/
045390/20130214/113811/1720/100/10/
045390/20130214/113812/1720/100/10/
045390/20130214/113813/1720/100/10/
045390/20130214/113814/1720/100/10/
045390/20130214/114014/1725/189/20/
045390/20130214/114337/1725/974/20/
045390/20130214/114426/1725/187/20/
045390/20130214/114503/1720/720/10/
045390/20130214/114635/1720/3300/10/
045390/20130214/114712/1720/1000/10/
045390/20130214/114714/1720/350/10/
045390/20130214/114954/1720/100/10/
045390/20130214/115009/1725/185/20/
045390/20130214/115304/1720/3190/10/
045390/20130214/115306/1720/94/20/
045390/20130214/115312/1720/328/20/
045390/20130214/115516/1720/1079/20/
045390/20130214/115757/1720/125/20/
045390/20130214/120025/1715/111/10/
045390/20130214/120329/1715/1057/10/
045390/20130214/120630/1720/103/20/
045390/20130214/120916/1715/15750/10/
045390/20130214/120948/1715/1500/10/
045390/20130214/121002/1715/936/10/
045390/20130214/121030/1715/169/20/
045390/20130214/121053/1715/3000/20/
045390/20130214/121109/1715/500/20/
045390/20130214/121137/1715/100/20/
045390/20130214/121334/1720/83/20/
045390/20130214/121530/1715/1080/10/
045390/20130214/121612/1715/160/10/
045390/20130214/121614/1715/114/20/
045390/20130214/121630/1710/2127/10/
045390/20130214/121848/1715/101/20/
045390/20130214/121914/1715/399/20/
045390/20130214/122253/1720/93/20/
045390/20130214/122833/1715/2345/10/
045390/20130214/123044/1715/1000/10/
045390/20130214/123159/1720/195/20/
045390/20130214/123211/1720/2768/20/
045390/20130214/123638/1720/5472/10/
045390/20130214/123918/1720/101/20/
045390/20130214/123918/1725/86/20/
045390/20130214/124206/1725/1020/20/
045390/20130214/124230/1720/400/10/
045390/20130214/124300/1725/1005/20/
045390/20130214/124343/1720/300/10/
045390/20130214/124413/1720/4050/10/
045390/20130214/124608/1725/193/20/
045390/20130214/124715/1720/110/10/
045390/20130214/124750/1720/7001/10/
045390/20130214/124821/1720/1000/10/
045390/20130214/125111/1720/1001/10/
045390/20130214/125204/1720/200/10/
045390/20130214/125312/1720/2001/10/
045390/20130214/125501/1720/106/10/
045390/20130214/125550/1720/200/10/
045390/20130214/125602/1720/2000/10/
045390/20130214/125759/1720/1000/10/
045390/20130214/125813/1720/200/10/
045390/20130214/125843/1720/300/10/
045390/20130214/125943/1720/2000/10/
045390/20130214/125951/1720/500/10/
045390/20130214/130021/1720/100/10/
045390/20130214/130025/1720/2979/10/
045390/20130214/130030/1720/100/10/
045390/20130214/130201/1720/500/10/
045390/20130214/130401/1725/195/20/
045390/20130214/130628/1720/117/20/
045390/20130214/131253/1715/1090/10/
045390/20130214/131338/1715/700/10/
045390/20130214/131418/1715/152/10/
045390/20130214/131534/1720/5801/20/
045390/20130214/132106/1720/660/20/
045390/20130214/132108/1720/346/10/
045390/20130214/132216/1720/6000/10/
045390/20130214/132220/1720/500/10/
045390/20130214/132252/1720/133/10/
045390/20130214/132537/1720/81/20/
045390/20130214/133114/1720/3847/20/
045390/20130214/133159/1720/101/10/
045390/20130214/133307/1720/7145/10/
045390/20130214/133314/1720/2000/20/
045390/20130214/133632/1720/12860/10/
045390/20130214/133701/1720/150/20/
045390/20130214/133842/1720/5000/20/
045390/20130214/133854/1720/300/20/
045390/20130214/133854/1720/300/20/
045390/20130214/133855/1720/300/20/
045390/20130214/133856/1720/7091/20/
045390/20130214/133915/1725/5798/20/
045390/20130214/133916/1725/10000/20/
045390/20130214/133917/1725/579/20/
045390/20130214/133917/1725/2000/20/
045390/20130214/133918/1725/115/20/
045390/20130214/133918/1725/6464/20/
045390/20130214/133919/1730/190/20/
045390/20130214/133920/1730/190/20/
045390/20130214/133920/1730/30000/20/
045390/20130214/133920/1730/2748/20/
045390/20130214/133921/1735/190/20/
045390/20130214/133925/1735/2042/20/
045390/20130214/133926/1735/12798/20/
045390/20130214/133926/1740/5076/20/
045390/20130214/133927/1740/1182/20/
045390/20130214/133928/1740/1445/20/
045390/20130214/133930/1740/1149/20/
045390/20130214/133930/1740/1149/20/
045390/20130214/133931/1740/1215/20/
045390/20130214/133931/1740/318/20/
045390/20130214/133932/1740/593/20/
045390/20130214/133932/1740/400/20/
045390/20130214/133933/1740/574/20/
045390/20130214/133933/1740/300/20/
045390/20130214/133934/1740/14935/20/
045390/20130214/133934/1745/10267/20/
045390/20130214/133935/1740/510/20/
045390/20130214/133935/1745/109/20/
045390/20130214/133938/1740/2000/10/
045390/20130214/133939/1740/1230/10/
045390/20130214/133940/1740/500/20/
045390/20130214/133942/1740/500/20/
045390/20130214/133942/1740/1000/20/
045390/20130214/133944/1740/921/20/
045390/20130214/133945/1740/3001/20/
045390/20130214/133948/1740/269/20/
045390/20130214/133952/1735/510/10/
045390/20130214/133953/1735/501/10/
045390/20130214/133955/1740/501/20/
045390/20130214/133957/1740/200/20/
045390/20130214/133958/1735/2013/10/
045390/20130214/134000/1735/758/20/
045390/20130214/134002/1735/600/20/
045390/20130214/134004/1735/200/20/
045390/20130214/134013/1735/581/20/
045390/20130214/134028/1735/1001/20/
045390/20130214/134029/1735/601/20/
045390/20130214/134039/1735/3003/20/
045390/20130214/134044/1735/859/10/
045390/20130214/134046/1735/396/10/
045390/20130214/134046/1735/786/20/
045390/20130214/134051/1735/758/10/
045390/20130214/134055/1735/1001/10/
045390/20130214/134056/1735/300/10/
045390/20130214/134100/1735/301/20/
045390/20130214/134101/1735/1262/20/
045390/20130214/134114/1735/171/20/
045390/20130214/134211/1730/88/10/
045390/20130214/134212/1730/100/10/
045390/20130214/134213/1730/579/10/
045390/20130214/134218/1730/100/10/
045390/20130214/134233/1735/5439/20/
045390/20130214/134238/1735/102/10/
045390/20130214/134253/1740/2412/20/
045390/20130214/134255/1740/17639/20/
045390/20130214/134256/1740/800/20/
045390/20130214/134256/1740/597/20/
045390/20130214/134300/1740/1078/20/
045390/20130214/134300/1740/1000/20/
045390/20130214/134301/1740/924/20/
045390/20130214/134316/1745/202/20/
045390/20130214/134339/1745/83/20/
045390/20130214/134345/1745/510/20/
045390/20130214/134354/1740/293/10/
045390/20130214/134356/1740/400/10/
045390/20130214/134356/1740/500/10/
045390/20130214/134356/1745/311/20/
045390/20130214/134402/1740/630/10/
045390/20130214/134403/1740/3238/10/
045390/20130214/134410/1740/1005/20/
045390/20130214/134455/1735/122/10/
045390/20130214/134503/1735/200/10/
045390/20130214/134519/1740/130/20/
045390/20130214/134609/1735/101/10/
045390/20130214/134902/1735/2022/10/
045390/20130214/134903/1735/500/10/
045390/20130214/134904/1735/318/10/
045390/20130214/134907/1735/1000/10/
045390/20130214/134911/1735/4419/10/
045390/20130214/135032/1735/2890/20/
045390/20130214/135033/1735/134/10/
045390/20130214/135044/1735/1070/10/
045390/20130214/135048/1735/99/10/
045390/20130214/135049/1735/1225/10/
045390/20130214/135141/1730/2400/10/
045390/20130214/135156/1730/7553/10/
045390/20130214/135156/1730/3447/20/
045390/20130214/135204/1730/1329/20/
045390/20130214/135204/1730/1723/20/
045390/20130214/135231/1730/489/10/
045390/20130214/135237/1730/533/20/
045390/20130214/135240/1730/177/20/
045390/20130214/135526/1730/7305/10/
045390/20130214/135549/1725/505/10/
045390/20130214/135610/1730/2769/20/
045390/20130214/135634/1730/102/10/
045390/20130214/135636/1735/576/20/
045390/20130214/135645/1735/160/20/
045390/20130214/135713/1735/203/20/
045390/20130214/135734/1735/244/20/
045390/20130214/135951/1730/938/10/
045390/20130214/135955/1735/7003/20/
045390/20130214/135956/1735/2046/20/
045390/20130214/140000/1740/108/20/
045390/20130214/140006/1740/501/20/
045390/20130214/140016/1740/104/20/
045390/20130214/140045/1740/311/20/
045390/20130214/140049/1740/100/20/
045390/20130214/140054/1740/3118/20/
045390/20130214/140056/1740/7100/20/
045390/20130214/140057/1740/1502/20/
045390/20130214/140057/1740/500/20/
045390/20130214/140059/1740/1332/20/
045390/20130214/140059/1740/1200/20/
045390/20130214/140102/1740/2104/20/
045390/20130214/140103/1740/593/20/
045390/20130214/140103/1745/410/20/
045390/20130214/140115/1740/1012/20/
045390/20130214/140118/1740/1004/20/
045390/20130214/140123/1740/504/20/
045390/20130214/140125/1740/577/20/
045390/20130214/140126/1740/100/20/
045390/20130214/140128/1740/148/20/
045390/20130214/140132/1740/358/10/
045390/20130214/140132/1735/404/10/
045390/20130214/140202/1740/1153/20/
045390/20130214/140225/1740/1008/20/
045390/20130214/140226/1740/1130/20/
045390/20130214/140311/1740/453/20/
045390/20130214/140343/1740/500/20/
045390/20130214/140436/1740/510/20/
045390/20130214/140459/1740/9770/20/
045390/20130214/140505/1740/370/20/
045390/20130214/140529/1740/4000/20/
045390/20130214/140531/1740/5000/20/
045390/20130214/140548/1740/200/20/
045390/20130214/140548/1740/120/20/
045390/20130214/140632/1740/502/20/
045390/20130214/140729/1740/122/20/
045390/20130214/140750/1735/1011/10/
045390/20130214/140754/1735/1000/10/
045390/20130214/140756/1735/1004/10/
045390/20130214/140759/1735/1000/10/
045390/20130214/140801/1735/1000/10/
045390/20130214/140812/1735/177/10/
045390/20130214/140911/1735/500/20/
045390/20130214/140911/1735/4323/20/
045390/20130214/140916/1730/5000/10/
045390/20130214/140943/1730/1002/10/
045390/20130214/140946/1730/1000/10/
045390/20130214/141025/1730/6102/10/
045390/20130214/141025/1730/2132/20/
045390/20130214/141121/1730/93/10/
045390/20130214/141153/1725/14054/10/
045390/20130214/141153/1725/5947/20/
045390/20130214/141255/1725/998/10/
045390/20130214/141419/1725/212/10/
045390/20130214/141437/1725/431/10/
045390/20130214/141531/1725/1154/10/
045390/20130214/141531/1720/25932/10/
045390/20130214/141537/1720/6055/20/
045390/20130214/141909/1725/468/10/
045390/20130214/141923/1725/200/20/
045390/20130214/141944/1725/183/20/
045390/20130214/142226/1725/150/10/
045390/20130214/142238/1725/106/10/
045390/20130214/142251/1725/395/20/
045390/20130214/142425/1725/2406/10/
045390/20130214/142449/1720/363/10/
045390/20130214/142731/1725/1664/10/
045390/20130214/142952/1725/284/10/
045390/20130214/143125/1725/958/10/
045390/20130214/143126/1725/113/20/
045390/20130214/143346/1725/1561/10/
045390/20130214/143440/1725/2111/10/
045390/20130214/143447/1725/3544/10/
045390/20130214/143510/1725/225/20/
045390/20130214/143513/1725/286/10/
045390/20130214/143615/1720/1364/10/
045390/20130214/143646/1720/15000/10/
045390/20130214/143844/1725/1325/20/
045390/20130214/143900/1725/115/20/
045390/20130214/143918/1725/3677/20/
045390/20130214/144016/1725/121/10/
045390/20130214/144027/1725/450/10/
045390/20130214/144035/1725/560/10/
045390/20130214/144043/1725/500/10/
045390/20130214/144053/1725/941/10/
045390/20130214/144138/1725/5949/10/
045390/20130214/144229/1725/1017/20/
045390/20130214/144245/1725/1002/20/
045390/20130214/144255/1720/372/10/
045390/20130214/144314/1725/888/20/
045390/20130214/144320/1725/1116/10/
045390/20130214/144331/1725/501/20/
045390/20130214/144355/1725/281/20/
045390/20130214/144416/1725/579/20/
045390/20130214/144418/1725/700/20/
045390/20130214/144452/1725/555/20/
045390/20130214/144556/1725/500/20/
045390/20130214/144615/1725/500/20/
045390/20130214/144616/1725/508/20/
045390/20130214/144622/1725/150/20/
045390/20130214/144629/1725/1000/20/
045390/20130214/144706/1725/612/20/
045390/20130214/144706/1730/396/20/
045390/20130214/144801/1725/100/10/
045390/20130214/144817/1725/401/10/
045390/20130214/144852/1725/1000/20/
045390/20130214/144900/1725/100/20/
045390/20130214/144902/1725/900/20/
045390/20130214/144932/1730/1001/20/
045390/20130214/150000/1720/52653/10/
