045390/20121205/90000/1640/14633/20/
045390/20121205/90001/1635/5000/10/
045390/20121205/90002/1635/3399/10/
045390/20121205/90006/1635/8713/10/
045390/20121205/90009/1635/636/10/
045390/20121205/90015/1635/1210/10/
045390/20121205/90016/1640/842/20/
045390/20121205/90034/1640/102/10/
045390/20121205/90035/1645/500/20/
045390/20121205/90044/1645/98/20/
045390/20121205/90050/1640/1426/10/
045390/20121205/90054/1640/501/10/
045390/20121205/90106/1640/2611/10/
045390/20121205/90111/1640/1002/10/
045390/20121205/90115/1640/501/10/
045390/20121205/90116/1640/110/10/
045390/20121205/90117/1640/500/10/
045390/20121205/90117/1640/370/10/
045390/20121205/90119/1640/1000/10/
045390/20121205/90121/1640/760/10/
045390/20121205/90121/1635/14441/10/
045390/20121205/90126/1635/3559/20/
045390/20121205/90129/1635/1002/10/
045390/20121205/90142/1635/507/10/
045390/20121205/90153/1640/3005/20/
045390/20121205/90158/1640/1000/20/
045390/20121205/90200/1640/2000/20/
045390/20121205/90201/1640/726/20/
045390/20121205/90206/1640/100/10/
045390/20121205/90214/1640/6740/10/
045390/20121205/90216/1640/1310/10/
045390/20121205/90217/1645/921/20/
045390/20121205/90233/1645/305/20/
045390/20121205/90252/1645/1000/20/
045390/20121205/90304/1645/2187/20/
045390/20121205/90310/1645/2182/20/
045390/20121205/90314/1645/2000/10/
045390/20121205/90321/1645/831/10/
045390/20121205/90324/1645/519/20/
045390/20121205/90329/1645/1101/10/
045390/20121205/90330/1645/100/10/
045390/20121205/90334/1645/153/20/
045390/20121205/90337/1645/790/20/
045390/20121205/90338/1645/2201/20/
045390/20121205/90342/1645/2897/10/
045390/20121205/90346/1645/402/20/
045390/20121205/90401/1640/100/10/
045390/20121205/90403/1645/1000/20/
045390/20121205/90403/1640/7300/10/
045390/20121205/90404/1645/6933/20/
045390/20121205/90409/1645/3003/10/
045390/20121205/90413/1645/145/10/
045390/20121205/90416/1645/500/20/
045390/20121205/90417/1645/355/20/
045390/20121205/90458/1645/157/10/
045390/20121205/90503/1645/2156/10/
045390/20121205/90543/1640/1110/10/
045390/20121205/90559/1640/105/10/
045390/20121205/90608/1640/105/10/
045390/20121205/90611/1640/250/10/
045390/20121205/90616/1640/300/10/
045390/20121205/90621/1645/105/20/
045390/20121205/90634/1645/3000/20/
045390/20121205/90645/1645/142/20/
045390/20121205/90703/1645/1003/20/
045390/20121205/90723/1640/1055/10/
045390/20121205/90727/1645/695/20/
045390/20121205/90803/1650/1505/20/
045390/20121205/90806/1645/960/10/
045390/20121205/90839/1645/681/10/
045390/20121205/90853/1640/12000/10/
045390/20121205/90855/1640/943/10/
045390/20121205/90904/1635/3135/10/
045390/20121205/90905/1635/900/10/
045390/20121205/90907/1635/5100/10/
045390/20121205/90910/1635/1000/10/
045390/20121205/90912/1635/6147/10/
045390/20121205/90914/1635/2216/10/
045390/20121205/90920/1630/6073/10/
045390/20121205/90921/1630/3500/10/
045390/20121205/90922/1630/300/10/
045390/20121205/90923/1630/4764/10/
045390/20121205/90924/1625/610/10/
045390/20121205/90924/1625/1277/10/
045390/20121205/90925/1630/2000/20/
045390/20121205/90927/1625/5760/10/
045390/20121205/90929/1630/6060/20/
045390/20121205/90933/1630/5094/10/
045390/20121205/90935/1630/250/20/
045390/20121205/90935/1630/607/20/
045390/20121205/90935/1630/449/20/
045390/20121205/90936/1625/500/10/
045390/20121205/90947/1630/105/10/
045390/20121205/90947/1625/1406/10/
045390/20121205/90947/1630/100/20/
045390/20121205/90949/1630/1800/20/
045390/20121205/90950/1630/400/10/
045390/20121205/90950/1625/4859/10/
045390/20121205/90951/1630/978/20/
045390/20121205/90952/1630/1000/20/
045390/20121205/91002/1635/84/20/
045390/20121205/91005/1635/200/20/
045390/20121205/91014/1630/343/10/
045390/20121205/91015/1630/3389/10/
045390/20121205/91015/1630/200/20/
045390/20121205/91020/1630/1411/20/
045390/20121205/91020/1630/1131/10/
045390/20121205/91022/1630/1869/20/
045390/20121205/91027/1630/460/10/
045390/20121205/91028/1630/1380/10/
045390/20121205/91029/1630/1246/20/
045390/20121205/91042/1635/3003/20/
045390/20121205/91046/1635/1000/20/
045390/20121205/91048/1635/1002/20/
045390/20121205/91052/1635/500/20/
045390/20121205/91054/1635/1500/20/
045390/20121205/91059/1635/5000/20/
045390/20121205/91101/1635/500/20/
045390/20121205/91101/1635/255/20/
045390/20121205/91108/1635/2325/10/
045390/20121205/91110/1635/2310/10/
045390/20121205/91110/1630/1608/10/
045390/20121205/91117/1635/1002/10/
045390/20121205/91119/1635/100/20/
045390/20121205/91126/1635/1000/20/
045390/20121205/91139/1635/202/20/
045390/20121205/91143/1635/83/20/
045390/20121205/91154/1635/797/20/
045390/20121205/91159/1635/202/20/
045390/20121205/91159/1635/2617/20/
045390/20121205/91203/1635/1050/10/
045390/20121205/91207/1640/6972/20/
045390/20121205/91210/1640/9181/20/
045390/20121205/91211/1640/2646/20/
045390/20121205/91218/1650/3002/20/
045390/20121205/91236/1650/162/20/
045390/20121205/91236/1645/1900/10/
045390/20121205/91242/1650/83/20/
045390/20121205/91246/1645/81/10/
045390/20121205/91253/1650/88/20/
045390/20121205/91304/1650/81/20/
045390/20121205/91310/1645/81/10/
045390/20121205/91318/1650/3041/20/
045390/20121205/91320/1650/183/20/
045390/20121205/91321/1650/328/20/
045390/20121205/91322/1650/181/20/
045390/20121205/91327/1650/81/20/
045390/20121205/91330/1650/7021/20/
045390/20121205/91331/1650/1013/20/
045390/20121205/91331/1650/2001/20/
045390/20121205/91333/1650/214/20/
045390/20121205/91334/1650/123/20/
045390/20121205/91334/1650/3363/20/
045390/20121205/91334/1650/1111/20/
045390/20121205/91335/1650/1014/20/
045390/20121205/91335/1650/157/20/
045390/20121205/91338/1650/812/20/
045390/20121205/91343/1645/236/10/
045390/20121205/91343/1645/204/10/
045390/20121205/91343/1645/7136/10/
045390/20121205/91348/1640/2903/10/
045390/20121205/91401/1640/156/20/
045390/20121205/91405/1640/393/10/
045390/20121205/91407/1640/133/20/
045390/20121205/91409/1640/280/20/
045390/20121205/91420/1640/2000/20/
045390/20121205/91436/1640/500/20/
045390/20121205/91457/1640/100/20/
045390/20121205/91459/1640/110/20/
045390/20121205/91507/1635/267/10/
045390/20121205/91512/1635/1001/10/
045390/20121205/91514/1635/3001/10/
045390/20121205/91534/1635/1001/10/
045390/20121205/91547/1640/124/20/
045390/20121205/91556/1635/1000/10/
045390/20121205/91603/1635/4565/10/
045390/20121205/91622/1635/5704/10/
045390/20121205/91622/1630/9301/10/
045390/20121205/91716/1635/244/20/
045390/20121205/91725/1635/172/20/
045390/20121205/91852/1635/151/20/
045390/20121205/91855/1635/1000/20/
045390/20121205/91857/1635/100/20/
045390/20121205/91900/1635/1589/20/
045390/20121205/91905/1635/200/20/
045390/20121205/91905/1635/343/20/
045390/20121205/91907/1635/303/10/
045390/20121205/92020/1635/1641/10/
045390/20121205/92030/1640/3000/20/
045390/20121205/92033/1640/1000/20/
045390/20121205/92239/1640/1011/20/
045390/20121205/92307/1640/90/20/
045390/20121205/92333/1635/5007/10/
045390/20121205/92343/1640/115/20/
045390/20121205/92349/1640/100/20/
045390/20121205/92358/1635/1580/10/
045390/20121205/92407/1635/352/10/
045390/20121205/92425/1640/1746/20/
045390/20121205/92435/1645/83/20/
045390/20121205/92440/1645/237/20/
045390/20121205/92447/1645/90/20/
045390/20121205/92448/1640/4990/10/
045390/20121205/92449/1640/4990/10/
045390/20121205/92505/1640/358/10/
045390/20121205/92707/1635/2020/10/
045390/20121205/92708/1635/2763/10/
045390/20121205/92727/1635/1850/10/
045390/20121205/92750/1635/3802/10/
045390/20121205/92822/1635/202/10/
045390/20121205/92843/1630/192/10/
045390/20121205/92855/1630/4738/10/
045390/20121205/92900/1630/3347/10/
045390/20121205/92903/1630/500/10/
045390/20121205/92906/1630/2000/10/
045390/20121205/92913/1630/379/10/
045390/20121205/92921/1630/402/10/
045390/20121205/92934/1630/115/10/
045390/20121205/92939/1630/2997/10/
045390/20121205/92946/1630/1897/10/
045390/20121205/92946/1630/103/20/
045390/20121205/92955/1630/97/10/
045390/20121205/92958/1630/1000/20/
045390/20121205/93015/1625/2000/10/
045390/20121205/93031/1625/10292/10/
045390/20121205/93032/1625/1000/10/
045390/20121205/93034/1625/1643/10/
045390/20121205/93034/1620/1000/10/
045390/20121205/93036/1620/200/10/
045390/20121205/93040/1620/1948/10/
045390/20121205/93041/1620/200/10/
045390/20121205/93041/1620/7897/10/
045390/20121205/93046/1620/1000/20/
045390/20121205/93048/1620/1103/20/
045390/20121205/93048/1620/302/20/
045390/20121205/93049/1620/1000/10/
045390/20121205/93050/1620/595/10/
045390/20121205/93050/1615/6405/10/
045390/20121205/93053/1615/654/10/
045390/20121205/93057/1615/746/10/
045390/20121205/93058/1615/470/10/
045390/20121205/93107/1615/1000/10/
045390/20121205/93124/1615/758/10/
045390/20121205/93127/1620/430/20/
045390/20121205/93140/1620/135/10/
045390/20121205/93142/1620/100/10/
045390/20121205/93143/1620/176/10/
045390/20121205/93146/1625/1010/20/
045390/20121205/93150/1625/100/20/
045390/20121205/93151/1625/100/20/
045390/20121205/93155/1625/100/20/
045390/20121205/93204/1625/786/10/
045390/20121205/93213/1620/1000/10/
045390/20121205/93215/1625/100/20/
045390/20121205/93225/1620/2000/10/
045390/20121205/93226/1620/3000/10/
045390/20121205/93231/1620/200/10/
045390/20121205/93233/1620/382/10/
045390/20121205/93236/1620/500/20/
045390/20121205/93238/1615/1400/10/
045390/20121205/93248/1615/200/10/
045390/20121205/93309/1620/96/20/
045390/20121205/93311/1620/905/20/
045390/20121205/93314/1620/271/10/
045390/20121205/93335/1620/551/20/
045390/20121205/93338/1620/100/20/
045390/20121205/93350/1620/251/20/
045390/20121205/93351/1620/1000/10/
045390/20121205/93444/1620/1471/10/
045390/20121205/93448/1620/800/20/
045390/20121205/93450/1620/401/20/
045390/20121205/93518/1625/368/20/
045390/20121205/93522/1625/500/20/
045390/20121205/93550/1625/100/20/
045390/20121205/93552/1625/153/20/
045390/20121205/93654/1625/221/20/
045390/20121205/93711/1625/3999/20/
045390/20121205/93800/1630/541/20/
045390/20121205/93825/1630/5857/20/
045390/20121205/93826/1630/202/20/
045390/20121205/93826/1635/626/20/
045390/20121205/93903/1635/85/20/
045390/20121205/93908/1630/5000/10/
045390/20121205/93921/1630/506/10/
045390/20121205/94005/1630/1909/10/
045390/20121205/94013/1625/1333/10/
045390/20121205/94021/1625/272/20/
045390/20121205/94052/1625/1021/20/
045390/20121205/94110/1620/3654/10/
045390/20121205/94110/1620/1391/10/
045390/20121205/94115/1620/300/10/
045390/20121205/94116/1620/5162/10/
045390/20121205/94129/1620/1078/10/
045390/20121205/94143/1620/100/10/
045390/20121205/94246/1625/103/20/
045390/20121205/94323/1620/9027/10/
045390/20121205/94329/1620/250/10/
045390/20121205/94345/1620/316/10/
045390/20121205/94346/1620/697/20/
045390/20121205/94400/1620/400/10/
045390/20121205/94419/1620/110/20/
045390/20121205/94422/1620/647/10/
045390/20121205/94426/1620/110/10/
045390/20121205/94434/1620/1041/10/
045390/20121205/94444/1615/23184/10/
045390/20121205/94452/1615/400/10/
045390/20121205/94455/1615/1344/10/
045390/20121205/94505/1615/1014/10/
045390/20121205/94508/1615/1000/10/
045390/20121205/94539/1615/303/10/
045390/20121205/94557/1620/143/20/
045390/20121205/94608/1615/8580/10/
045390/20121205/94608/1610/10889/10/
045390/20121205/94608/1610/100/10/
045390/20121205/94613/1610/2073/10/
045390/20121205/94617/1610/1500/10/
045390/20121205/94617/1610/5855/10/
045390/20121205/94617/1610/2345/20/
045390/20121205/94621/1610/1003/20/
045390/20121205/94653/1615/155/20/
045390/20121205/94658/1615/198/20/
045390/20121205/94702/1615/300/10/
045390/20121205/94708/1615/100/10/
045390/20121205/94708/1615/421/10/
045390/20121205/94729/1615/586/20/
045390/20121205/94734/1615/415/10/
045390/20121205/94734/1610/1104/10/
045390/20121205/94739/1615/503/20/
045390/20121205/94742/1615/238/20/
045390/20121205/94745/1615/261/20/
045390/20121205/94819/1615/2003/10/
045390/20121205/94837/1615/214/10/
045390/20121205/94838/1615/101/10/
045390/20121205/94859/1620/1002/20/
045390/20121205/94913/1620/552/20/
045390/20121205/94923/1620/1000/20/
045390/20121205/94925/1620/1000/20/
045390/20121205/94926/1620/100/20/
045390/20121205/94936/1620/3228/20/
045390/20121205/95008/1625/503/20/
045390/20121205/95015/1620/2000/10/
045390/20121205/95035/1620/1096/10/
045390/20121205/95122/1620/107/10/
045390/20121205/95148/1620/1000/10/
045390/20121205/95204/1620/1010/10/
045390/20121205/95238/1625/503/20/
045390/20121205/95330/1620/2000/10/
045390/20121205/95434/1620/103/10/
045390/20121205/95543/1620/1105/10/
045390/20121205/95611/1620/2002/10/
045390/20121205/95809/1620/370/10/
045390/20121205/95849/1615/514/10/
045390/20121205/95931/1615/598/10/
045390/20121205/100001/1615/108/10/
045390/20121205/100126/1620/203/20/
045390/20121205/100132/1620/1047/20/
045390/20121205/100134/1615/3003/10/
045390/20121205/100200/1615/1212/10/
045390/20121205/100203/1615/3000/10/
045390/20121205/100205/1615/10400/10/
045390/20121205/100211/1615/12000/10/
045390/20121205/100212/1615/820/10/
045390/20121205/100212/1615/4094/10/
045390/20121205/100214/1615/907/10/
045390/20121205/100221/1615/500/10/
045390/20121205/100224/1615/1088/10/
045390/20121205/100227/1610/157/10/
045390/20121205/100230/1610/157/10/
045390/20121205/100231/1610/5768/10/
045390/20121205/100232/1610/157/10/
045390/20121205/100235/1610/157/10/
045390/20121205/100237/1610/6000/10/
045390/20121205/100238/1610/157/10/
045390/20121205/100250/1610/8672/10/
045390/20121205/100250/1605/3328/10/
045390/20121205/100256/1605/6023/10/
045390/20121205/100302/1605/200/10/
045390/20121205/100303/1605/1000/10/
045390/20121205/100314/1610/90/20/
045390/20121205/100317/1610/273/10/
045390/20121205/100321/1610/1100/10/
045390/20121205/100321/1610/400/10/
045390/20121205/100323/1610/2521/10/
045390/20121205/100326/1610/7683/20/
045390/20121205/100354/1610/10003/10/
045390/20121205/100359/1610/806/10/
045390/20121205/100422/1610/2000/10/
045390/20121205/100429/1610/502/10/
045390/20121205/100430/1610/700/10/
045390/20121205/100446/1610/100/10/
045390/20121205/100446/1610/1000/10/
045390/20121205/100454/1610/2191/10/
045390/20121205/100457/1610/200/10/
045390/20121205/100459/1610/2324/10/
045390/20121205/100500/1610/796/10/
045390/20121205/100501/1610/3399/10/
045390/20121205/100502/1610/176/10/
045390/20121205/100530/1610/524/20/
045390/20121205/100608/1610/228/10/
045390/20121205/100702/1615/188/20/
045390/20121205/100731/1610/2000/10/
045390/20121205/100819/1610/426/10/
045390/20121205/100903/1610/1056/10/
045390/20121205/100921/1610/2012/10/
045390/20121205/100926/1610/5000/10/
045390/20121205/100930/1610/950/10/
045390/20121205/100934/1610/962/10/
045390/20121205/100937/1610/1180/10/
045390/20121205/100938/1610/8946/10/
045390/20121205/100946/1610/200/20/
045390/20121205/101000/1610/500/20/
045390/20121205/101009/1605/508/10/
045390/20121205/101012/1605/8500/10/
045390/20121205/101025/1610/218/20/
045390/20121205/101025/1610/5000/20/
045390/20121205/101031/1610/228/20/
045390/20121205/101237/1610/611/10/
045390/20121205/101245/1610/260/10/
045390/20121205/101258/1610/2503/10/
045390/20121205/101418/1610/3005/10/
045390/20121205/101422/1610/377/10/
045390/20121205/101454/1610/1473/10/
045390/20121205/101506/1610/234/10/
045390/20121205/101511/1610/1000/10/
045390/20121205/101512/1610/1000/10/
045390/20121205/101515/1615/9000/20/
045390/20121205/101525/1615/88/20/
045390/20121205/101530/1615/88/20/
045390/20121205/101536/1615/88/20/
045390/20121205/101540/1615/88/20/
045390/20121205/101544/1615/98/20/
045390/20121205/101549/1615/88/20/
045390/20121205/101553/1615/88/20/
045390/20121205/101554/1615/8047/20/
045390/20121205/101559/1620/88/20/
045390/20121205/101603/1620/88/20/
045390/20121205/101603/1615/111/10/
045390/20121205/101607/1620/90/20/
045390/20121205/101610/1620/84/20/
045390/20121205/101614/1620/83/20/
045390/20121205/101616/1620/82/20/
045390/20121205/101622/1620/110/20/
045390/20121205/101623/1620/101/20/
045390/20121205/101624/1615/334/10/
045390/20121205/101625/1620/101/20/
045390/20121205/101626/1620/102/20/
045390/20121205/101627/1620/101/20/
045390/20121205/101628/1620/100/20/
045390/20121205/101630/1620/103/20/
045390/20121205/101631/1620/101/20/
045390/20121205/101633/1620/102/20/
045390/20121205/101634/1620/101/20/
045390/20121205/101635/1620/102/20/
045390/20121205/101637/1620/102/20/
045390/20121205/101638/1620/101/20/
045390/20121205/101639/1620/100/20/
045390/20121205/101641/1620/102/20/
045390/20121205/101642/1620/102/20/
045390/20121205/101643/1620/101/20/
045390/20121205/101645/1620/101/20/
045390/20121205/101646/1620/469/20/
045390/20121205/101647/1620/101/20/
045390/20121205/101649/1620/102/20/
045390/20121205/101650/1620/102/20/
045390/20121205/101652/1620/101/20/
045390/20121205/101653/1620/102/20/
045390/20121205/101655/1620/102/20/
045390/20121205/101656/1620/102/20/
045390/20121205/101657/1620/101/20/
045390/20121205/101659/1620/111/20/
045390/20121205/101700/1620/101/20/
045390/20121205/101701/1620/118/20/
045390/20121205/101702/1620/101/20/
045390/20121205/101704/1620/101/20/
045390/20121205/101707/1620/89/20/
045390/20121205/101711/1620/81/20/
045390/20121205/101714/1620/85/20/
045390/20121205/101718/1620/91/20/
045390/20121205/101718/1620/1013/20/
045390/20121205/101721/1620/89/20/
045390/20121205/101724/1620/89/20/
045390/20121205/101728/1620/89/20/
045390/20121205/101730/1620/87/20/
045390/20121205/101733/1620/89/20/
045390/20121205/101735/1620/1169/20/
045390/20121205/101737/1615/2537/10/
045390/20121205/101739/1615/5631/10/
045390/20121205/101742/1615/87/20/
045390/20121205/101742/1615/113/20/
045390/20121205/101745/1615/87/20/
045390/20121205/101747/1615/109/20/
045390/20121205/101752/1615/88/20/
045390/20121205/101757/1615/88/20/
045390/20121205/101801/1615/88/20/
045390/20121205/101804/1615/205/20/
045390/20121205/101808/1615/88/20/
045390/20121205/101813/1615/88/20/
045390/20121205/101817/1615/88/20/
045390/20121205/101821/1615/866/20/
045390/20121205/101825/1615/88/20/
045390/20121205/101827/1615/83/20/
045390/20121205/101827/1615/1000/20/
045390/20121205/101830/1615/1073/20/
045390/20121205/101832/1615/171/20/
045390/20121205/101832/1620/873/20/
045390/20121205/101834/1615/194/20/
045390/20121205/101835/1615/828/20/
045390/20121205/101835/1620/183/20/
045390/20121205/101837/1620/1044/20/
045390/20121205/101841/1620/637/20/
045390/20121205/101841/1625/440/20/
045390/20121205/101843/1625/1055/20/
045390/20121205/101844/1625/5370/20/
045390/20121205/101844/1625/813/10/
045390/20121205/101848/1630/88/20/
045390/20121205/101852/1625/81/20/
045390/20121205/101852/1625/101/20/
045390/20121205/101856/1625/89/20/
045390/20121205/101858/1625/172/20/
045390/20121205/101858/1625/111/20/
045390/20121205/101859/1625/122/20/
045390/20121205/101900/1625/122/20/
045390/20121205/101900/1625/111/20/
045390/20121205/101901/1625/100/20/
045390/20121205/101901/1625/111/20/
045390/20121205/101902/1625/111/20/
045390/20121205/101903/1625/123/20/
045390/20121205/101903/1625/111/20/
045390/20121205/101904/1625/111/20/
045390/20121205/101904/1625/111/20/
045390/20121205/101905/1625/100/20/
045390/20121205/101905/1625/122/20/
045390/20121205/101906/1625/111/20/
045390/20121205/101906/1625/111/20/
045390/20121205/101907/1625/122/20/
045390/20121205/101908/1625/122/20/
045390/20121205/101908/1625/111/20/
045390/20121205/101909/1625/111/20/
045390/20121205/101910/1630/111/20/
045390/20121205/101910/1625/122/20/
045390/20121205/101911/1625/111/20/
045390/20121205/101911/1625/111/20/
045390/20121205/101912/1625/111/20/
045390/20121205/101912/1625/111/20/
045390/20121205/101913/1625/111/20/
045390/20121205/101913/1625/111/20/
045390/20121205/101914/1625/111/20/
045390/20121205/101914/1625/1112/20/
045390/20121205/101914/1630/100/20/
045390/20121205/101915/1625/2292/10/
045390/20121205/101915/1630/111/20/
045390/20121205/101915/1630/111/20/
045390/20121205/101916/1630/122/20/
045390/20121205/101917/1630/111/20/
045390/20121205/101917/1630/122/20/
045390/20121205/101918/1630/111/20/
045390/20121205/101919/1630/111/20/
045390/20121205/101919/1630/122/20/
045390/20121205/101920/1630/111/20/
045390/20121205/101920/1630/111/20/
045390/20121205/101921/1630/111/20/
045390/20121205/101922/1630/111/20/
045390/20121205/101922/1630/122/20/
045390/20121205/101923/1630/111/20/
045390/20121205/101923/1630/111/20/
045390/20121205/101924/1630/111/20/
045390/20121205/101924/1630/111/20/
045390/20121205/101925/1630/224/20/
045390/20121205/101925/1630/111/20/
045390/20121205/101925/1630/111/20/
045390/20121205/101926/1630/3618/20/
045390/20121205/101926/1630/111/20/
045390/20121205/101927/1630/100/20/
045390/20121205/101927/1625/1272/10/
045390/20121205/101927/1625/100/20/
045390/20121205/101928/1625/111/20/
045390/20121205/101928/1625/111/20/
045390/20121205/101929/1625/111/20/
045390/20121205/101930/1625/111/20/
045390/20121205/101930/1625/153/20/
045390/20121205/101931/1625/111/20/
045390/20121205/101931/1625/111/20/
045390/20121205/101932/1625/111/20/
045390/20121205/101932/1625/100/20/
045390/20121205/101932/1625/122/20/
045390/20121205/101933/1625/111/20/
045390/20121205/101934/1625/122/20/
045390/20121205/101934/1625/122/20/
045390/20121205/101935/1625/111/20/
045390/20121205/101935/1625/111/20/
045390/20121205/101936/1625/122/20/
045390/20121205/101937/1625/111/20/
045390/20121205/101937/1625/116/20/
045390/20121205/101938/1625/111/20/
045390/20121205/101938/1625/111/20/
045390/20121205/101939/1625/111/20/
045390/20121205/101940/1625/122/20/
045390/20121205/101940/1625/111/20/
045390/20121205/101941/1625/111/20/
045390/20121205/101941/1625/161/20/
045390/20121205/101941/1625/111/20/
045390/20121205/101942/1625/112/20/
045390/20121205/101943/1625/111/20/
045390/20121205/101943/1625/111/20/
045390/20121205/101944/1625/111/20/
045390/20121205/101944/1625/1011/20/
045390/20121205/101944/1625/100/20/
045390/20121205/101945/1625/111/20/
045390/20121205/101945/1625/122/20/
045390/20121205/101946/1625/111/20/
045390/20121205/101946/1625/111/20/
045390/20121205/101947/1625/100/20/
045390/20121205/101947/1625/111/20/
045390/20121205/101948/1625/111/20/
045390/20121205/101948/1630/111/20/
045390/20121205/101948/1630/122/20/
045390/20121205/101949/1630/111/20/
045390/20121205/101950/1630/122/20/
045390/20121205/101950/1630/111/20/
045390/20121205/101951/1630/111/20/
045390/20121205/101951/1630/122/20/
045390/20121205/101952/1630/111/20/
045390/20121205/101952/1630/12011/20/
045390/20121205/101952/1630/100/20/
045390/20121205/101953/1630/122/20/
045390/20121205/101954/1630/111/20/
045390/20121205/101954/1630/111/20/
045390/20121205/101955/1630/111/20/
045390/20121205/101955/1630/122/20/
045390/20121205/101956/1630/122/20/
045390/20121205/101957/1630/111/20/
045390/20121205/101958/1630/111/20/
045390/20121205/101958/1630/111/20/
045390/20121205/101959/1630/122/20/
045390/20121205/101959/1630/111/20/
045390/20121205/102000/1630/122/20/
045390/20121205/102001/1630/111/20/
045390/20121205/102001/1630/111/20/
045390/20121205/102002/1630/111/20/
045390/20121205/102002/1630/100/20/
045390/20121205/102002/1630/111/20/
045390/20121205/102003/1630/122/20/
045390/20121205/102004/1630/122/20/
045390/20121205/102005/1630/111/20/
045390/20121205/102005/1630/122/20/
045390/20121205/102006/1630/111/20/
045390/20121205/102006/1630/111/20/
045390/20121205/102007/1630/111/20/
045390/20121205/102008/1630/122/20/
045390/20121205/102009/1630/111/20/
045390/20121205/102009/1630/111/20/
045390/20121205/102009/1630/111/20/
045390/20121205/102010/1630/122/20/
045390/20121205/102011/1630/111/20/
045390/20121205/102011/1630/111/20/
045390/20121205/102012/1630/111/20/
045390/20121205/102012/1630/111/20/
045390/20121205/102013/1630/111/20/
045390/20121205/102013/1630/111/20/
045390/20121205/102014/1630/111/20/
045390/20121205/102014/1630/111/20/
045390/20121205/102015/1630/122/20/
045390/20121205/102016/1630/111/20/
045390/20121205/102017/1630/133/20/
045390/20121205/102017/1630/122/20/
045390/20121205/102018/1630/111/20/
045390/20121205/102019/1630/122/20/
045390/20121205/102019/1630/111/20/
045390/20121205/102020/1630/111/20/
045390/20121205/102020/1630/111/20/
045390/20121205/102021/1630/122/20/
045390/20121205/102021/1630/111/20/
045390/20121205/102023/1630/144/20/
045390/20121205/102024/1630/122/20/
045390/20121205/102024/1630/111/20/
045390/20121205/102030/1630/88/20/
045390/20121205/102032/1625/1312/10/
045390/20121205/102037/1625/88/20/
045390/20121205/102040/1625/85/20/
045390/20121205/102043/1625/87/20/
045390/20121205/102045/1625/176/20/
045390/20121205/102049/1625/82/20/
045390/20121205/102051/1625/105/20/
045390/20121205/102053/1625/107/20/
045390/20121205/102055/1625/111/20/
045390/20121205/102057/1625/109/20/
045390/20121205/102100/1625/107/20/
045390/20121205/102101/1625/107/20/
045390/20121205/102103/1625/107/20/
045390/20121205/102105/1625/105/20/
045390/20121205/102107/1625/84/20/
045390/20121205/102108/1625/105/20/
045390/20121205/102111/1625/107/20/
045390/20121205/102112/1625/105/20/
045390/20121205/102114/1625/107/20/
045390/20121205/102116/1625/99/20/
045390/20121205/102117/1625/105/20/
045390/20121205/102119/1625/109/20/
045390/20121205/102121/1625/109/20/
045390/20121205/102124/1625/109/20/
045390/20121205/102128/1625/84/20/
045390/20121205/102150/1620/1534/10/
045390/20121205/102152/1620/306/20/
045390/20121205/102200/1620/81/20/
045390/20121205/102203/1620/94/20/
045390/20121205/102206/1620/82/20/
045390/20121205/102210/1620/82/20/
045390/20121205/102213/1620/1054/20/
045390/20121205/102214/1615/928/10/
045390/20121205/102217/1620/82/20/
045390/20121205/102219/1620/1028/20/
045390/20121205/102219/1620/1964/20/
045390/20121205/102223/1625/82/20/
045390/20121205/102227/1625/84/20/
045390/20121205/102230/1625/82/20/
045390/20121205/102243/1625/82/20/
045390/20121205/102250/1620/13244/10/
045390/20121205/102258/1620/1011/20/
045390/20121205/102258/1615/3011/10/
045390/20121205/102300/1615/2026/10/
045390/20121205/102303/1620/88/20/
045390/20121205/102306/1620/110/20/
045390/20121205/102307/1620/99/20/
045390/20121205/102308/1620/99/20/
045390/20121205/102310/1620/99/20/
045390/20121205/102311/1620/99/20/
045390/20121205/102313/1620/99/20/
045390/20121205/102314/1620/99/20/
045390/20121205/102317/1620/99/20/
045390/20121205/102318/1615/4515/10/
045390/20121205/102319/1615/99/20/
045390/20121205/102322/1615/99/20/
045390/20121205/102325/1610/383/10/
045390/20121205/102330/1615/88/20/
045390/20121205/102332/1615/1044/20/
045390/20121205/102335/1615/88/20/
045390/20121205/102338/1615/1055/20/
045390/20121205/102341/1615/88/20/
045390/20121205/102341/1610/1011/10/
045390/20121205/102342/1610/5022/10/
045390/20121205/102345/1615/88/20/
045390/20121205/102348/1615/88/20/
045390/20121205/102352/1615/88/20/
045390/20121205/102355/1615/89/20/
045390/20121205/102358/1615/88/20/
045390/20121205/102401/1615/88/20/
045390/20121205/102413/1610/2055/10/
045390/20121205/102417/1610/2527/10/
045390/20121205/102419/1610/12690/10/
045390/20121205/102420/1610/1000/20/
045390/20121205/102430/1605/12009/10/
045390/20121205/102435/1605/5200/10/
045390/20121205/102438/1605/1302/10/
045390/20121205/102439/1605/200/10/
045390/20121205/102439/1605/3466/10/
045390/20121205/102441/1605/300/10/
045390/20121205/102441/1605/792/10/
045390/20121205/102443/1600/7000/10/
045390/20121205/102445/1600/500/10/
045390/20121205/102446/1600/1501/10/
045390/20121205/102501/1600/300/10/
045390/20121205/102506/1600/1000/10/
045390/20121205/102507/1600/200/10/
045390/20121205/102509/1600/550/10/
045390/20121205/102516/1600/2003/10/
045390/20121205/102518/1600/3000/10/
045390/20121205/102519/1600/1854/10/
045390/20121205/102521/1600/429/10/
045390/20121205/102523/1600/2017/10/
045390/20121205/102529/1595/534/10/
045390/20121205/102529/1595/583/10/
045390/20121205/102530/1595/1948/10/
045390/20121205/102532/1595/1390/10/
045390/20121205/102532/1595/9177/10/
045390/20121205/102532/1590/13298/10/
045390/20121205/102532/1585/9932/10/
045390/20121205/102534/1585/501/10/
045390/20121205/102535/1585/3897/10/
045390/20121205/102539/1585/1000/10/
045390/20121205/102541/1585/150/10/
045390/20121205/102542/1585/2228/10/
045390/20121205/102556/1585/1003/10/
045390/20121205/102606/1590/9342/20/
045390/20121205/102612/1585/2300/10/
045390/20121205/102618/1590/5005/10/
045390/20121205/102618/1585/183/10/
045390/20121205/102624/1590/2000/10/
045390/20121205/102625/1590/2000/10/
045390/20121205/102627/1590/1000/10/
045390/20121205/102627/1585/2500/10/
045390/20121205/102629/1585/100/10/
045390/20121205/102640/1585/224/10/
045390/20121205/102641/1590/990/20/
045390/20121205/102644/1585/1897/10/
045390/20121205/102649/1585/100000/10/
045390/20121205/102654/1590/232/10/
045390/20121205/102654/1585/250/10/
045390/20121205/102657/1585/5242/10/
045390/20121205/102658/1590/300/20/
045390/20121205/102700/1585/3000/10/
045390/20121205/102702/1585/250/10/
045390/20121205/102711/1585/200/10/
045390/20121205/102715/1585/1005/10/
045390/20121205/102724/1590/804/20/
045390/20121205/102735/1590/300/20/
045390/20121205/102737/1590/1030/20/
045390/20121205/102738/1585/211/10/
045390/20121205/102747/1585/7011/10/
045390/20121205/102754/1585/6122/10/
045390/20121205/102754/1580/1230/10/
045390/20121205/102757/1590/230/20/
045390/20121205/102814/1585/3001/10/
045390/20121205/102818/1585/1018/10/
045390/20121205/102818/1585/5153/10/
045390/20121205/102822/1580/11544/10/
045390/20121205/102823/1585/500/20/
045390/20121205/102824/1585/1000/20/
045390/20121205/102829/1585/160/20/
045390/20121205/102833/1580/10536/10/
045390/20121205/102835/1585/400/20/
045390/20121205/102840/1580/6000/10/
045390/20121205/102840/1585/1000/20/
045390/20121205/102841/1585/300/20/
045390/20121205/102843/1580/869/10/
045390/20121205/102844/1580/11954/10/
045390/20121205/102844/1580/1500/10/
045390/20121205/102852/1580/1010/10/
045390/20121205/102902/1580/1000/10/
045390/20121205/102905/1580/100/10/
045390/20121205/102906/1585/5000/20/
045390/20121205/102907/1580/514/10/
045390/20121205/102909/1580/510/10/
045390/20121205/102917/1585/4000/20/
045390/20121205/102920/1585/5000/20/
045390/20121205/102920/1585/1977/20/
045390/20121205/102921/1585/633/20/
045390/20121205/102927/1585/110/20/
045390/20121205/102927/1585/200/20/
045390/20121205/102927/1585/2000/20/
045390/20121205/102929/1585/699/20/
045390/20121205/102937/1595/4000/20/
045390/20121205/102944/1585/107/10/
045390/20121205/102950/1595/701/20/
045390/20121205/103007/1585/1589/10/
045390/20121205/103034/1590/131/20/
045390/20121205/103034/1585/276/10/
045390/20121205/103051/1590/500/20/
045390/20121205/103053/1590/1500/20/
045390/20121205/103057/1590/100/20/
045390/20121205/103103/1590/790/20/
045390/20121205/103114/1590/1879/10/
045390/20121205/103115/1590/1656/20/
045390/20121205/103115/1595/1549/20/
045390/20121205/103122/1595/300/20/
045390/20121205/103129/1595/300/20/
045390/20121205/103149/1585/500/10/
045390/20121205/103149/1590/1000/20/
045390/20121205/103221/1585/1020/10/
045390/20121205/103224/1585/1803/10/
045390/20121205/103241/1590/2003/20/
045390/20121205/103255/1590/500/20/
045390/20121205/103328/1590/1000/20/
045390/20121205/103339/1590/500/20/
045390/20121205/103412/1590/1000/20/
045390/20121205/103413/1585/9694/10/
045390/20121205/103433/1585/1923/20/
045390/20121205/103500/1585/1070/20/
045390/20121205/103503/1585/500/20/
045390/20121205/103505/1585/1500/20/
045390/20121205/103507/1585/500/20/
045390/20121205/103510/1585/500/20/
045390/20121205/103514/1585/100/20/
045390/20121205/103551/1580/15026/10/
045390/20121205/103600/1585/248/20/
045390/20121205/103601/1585/1174/10/
045390/20121205/103614/1585/1500/10/
045390/20121205/103625/1585/100/20/
045390/20121205/103633/1585/927/20/
045390/20121205/103643/1585/2004/10/
045390/20121205/103643/1585/100/10/
045390/20121205/103701/1585/533/10/
045390/20121205/103726/1585/202/10/
045390/20121205/103730/1590/650/20/
045390/20121205/103741/1590/2742/20/
045390/20121205/103801/1595/1203/20/
045390/20121205/103808/1595/188/20/
045390/20121205/103810/1595/980/20/
045390/20121205/103838/1595/130/20/
045390/20121205/103848/1595/100/20/
045390/20121205/103904/1595/100/20/
045390/20121205/103913/1595/150/20/
045390/20121205/103937/1595/1020/20/
045390/20121205/103940/1595/100/20/
045390/20121205/103956/1595/170/20/
045390/20121205/104000/1595/1002/20/
045390/20121205/104007/1595/310/20/
045390/20121205/104008/1595/100/20/
045390/20121205/104013/1590/345/10/
045390/20121205/104015/1595/110/20/
045390/20121205/104017/1595/349/20/
045390/20121205/104017/1595/500/20/
045390/20121205/104021/1590/100/10/
045390/20121205/104029/1590/302/10/
045390/20121205/104101/1595/101/20/
045390/20121205/104115/1595/300/20/
045390/20121205/104204/1595/100/20/
045390/20121205/104214/1595/100/20/
045390/20121205/104238/1590/155/10/
045390/20121205/104243/1590/100/10/
045390/20121205/104247/1590/1700/10/
045390/20121205/104252/1590/1978/10/
045390/20121205/104503/1595/3025/20/
045390/20121205/104600/1595/150/20/
045390/20121205/104601/1590/468/10/
045390/20121205/104603/1590/400/10/
045390/20121205/104622/1595/203/20/
045390/20121205/104639/1595/3350/20/
045390/20121205/104737/1595/1000/20/
045390/20121205/104751/1595/1000/20/
045390/20121205/104757/1595/100/20/
045390/20121205/104806/1595/2730/20/
045390/20121205/104847/1595/2002/20/
045390/20121205/104949/1600/5008/20/
045390/20121205/104957/1600/6693/20/
045390/20121205/105004/1605/2628/20/
045390/20121205/105052/1600/500/10/
045390/20121205/105120/1600/2810/10/
045390/20121205/105302/1600/5471/20/
045390/20121205/105302/1605/1983/20/
045390/20121205/105504/1600/83/20/
045390/20121205/105558/1595/1210/10/
045390/20121205/105612/1600/470/20/
045390/20121205/105623/1605/203/20/
045390/20121205/105624/1600/535/10/
045390/20121205/105624/1595/465/10/
045390/20121205/105639/1600/682/20/
045390/20121205/105721/1605/105/20/
045390/20121205/105745/1605/2000/20/
045390/20121205/105831/1605/100/20/
045390/20121205/105922/1605/122/20/
045390/20121205/105954/1605/100/20/
045390/20121205/110002/1605/2000/20/
045390/20121205/110015/1600/610/10/
045390/20121205/110052/1605/503/20/
045390/20121205/110156/1605/111/20/
045390/20121205/110325/1605/1000/20/
045390/20121205/110359/1600/1071/10/
045390/20121205/110409/1600/4002/10/
045390/20121205/110421/1600/100/10/
045390/20121205/110440/1600/1033/10/
045390/20121205/110618/1600/866/10/
045390/20121205/110628/1600/269/10/
045390/20121205/110728/1600/758/10/
045390/20121205/110852/1600/99/20/
045390/20121205/110931/1595/18876/10/
045390/20121205/110942/1595/1124/20/
045390/20121205/110951/1595/2003/10/
045390/20121205/111021/1600/204/20/
045390/20121205/111134/1600/2500/20/
045390/20121205/111146/1600/100/20/
045390/20121205/111200/1595/220/10/
045390/20121205/111213/1595/1005/10/
045390/20121205/111252/1600/352/20/
045390/20121205/111314/1600/508/10/
045390/20121205/111340/1600/91/20/
045390/20121205/111643/1595/2723/10/
045390/20121205/111724/1600/1071/20/
045390/20121205/111725/1600/1000/20/
045390/20121205/111756/1600/81/20/
045390/20121205/111923/1600/84/20/
045390/20121205/112020/1595/1017/10/
045390/20121205/112030/1595/483/20/
045390/20121205/112115/1600/122/20/
045390/20121205/112202/1600/518/20/
045390/20121205/112300/1605/4323/20/
045390/20121205/112300/1610/5757/20/
045390/20121205/112348/1610/228/20/
045390/20121205/112350/1610/92/20/
045390/20121205/112351/1610/82/20/
045390/20121205/112352/1610/82/20/
045390/20121205/112353/1610/90/20/
045390/20121205/112355/1610/90/20/
045390/20121205/112432/1605/246/10/
045390/20121205/112432/1600/1290/10/
045390/20121205/112542/1600/205/10/
045390/20121205/113231/1600/154/10/
045390/20121205/113609/1600/5060/10/
045390/20121205/113949/1605/2314/20/
045390/20121205/114010/1600/4000/10/
045390/20121205/114111/1600/1007/10/
045390/20121205/114145/1600/204/10/
045390/20121205/114158/1600/3000/10/
045390/20121205/114210/1600/100/10/
045390/20121205/114234/1600/100/10/
045390/20121205/114529/1600/1003/10/
045390/20121205/114609/1600/3003/10/
045390/20121205/114645/1600/854/10/
045390/20121205/114801/1600/511/20/
045390/20121205/114840/1600/291/20/
045390/20121205/114845/1600/100/10/
045390/20121205/115230/1600/367/10/
045390/20121205/115301/1600/388/10/
045390/20121205/115306/1600/477/20/
045390/20121205/115320/1595/123/10/
045390/20121205/115415/1600/1001/10/
045390/20121205/115559/1605/103/20/
045390/20121205/115725/1600/174/20/
045390/20121205/115738/1600/200/20/
045390/20121205/115745/1600/526/20/
045390/20121205/115751/1600/156/20/
045390/20121205/115833/1605/1003/20/
045390/20121205/120000/1605/1000/20/
045390/20121205/120103/1600/205/10/
045390/20121205/120118/1600/1270/10/
045390/20121205/120214/1600/1424/10/
045390/20121205/120252/1605/5948/20/
045390/20121205/120503/1610/216/20/
045390/20121205/120958/1605/397/10/
045390/20121205/121225/1605/1300/10/
045390/20121205/121304/1605/1200/10/
045390/20121205/121320/1605/1000/10/
045390/20121205/121537/1605/1005/10/
045390/20121205/121559/1605/452/10/
045390/20121205/121643/1610/133/20/
045390/20121205/122229/1605/1027/10/
045390/20121205/122232/1605/1000/10/
045390/20121205/122234/1605/2000/10/
045390/20121205/122239/1605/810/10/
045390/20121205/122305/1605/1600/20/
045390/20121205/122312/1605/100/10/
045390/20121205/122312/1605/2000/10/
045390/20121205/122319/1605/1000/10/
045390/20121205/122548/1605/5175/10/
045390/20121205/122548/1600/13830/10/
045390/20121205/122548/1595/11003/10/
045390/20121205/122728/1600/505/10/
045390/20121205/122738/1600/6000/10/
045390/20121205/122833/1600/6573/10/
045390/20121205/122940/1600/305/10/
045390/20121205/123044/1600/2001/10/
045390/20121205/123357/1605/3006/20/
045390/20121205/123412/1605/5012/20/
045390/20121205/123425/1605/521/20/
045390/20121205/123535/1605/610/20/
045390/20121205/123654/1605/220/20/
045390/20121205/123702/1605/2000/20/
045390/20121205/123718/1605/380/20/
045390/20121205/123937/1605/546/10/
045390/20121205/123947/1605/2000/20/
045390/20121205/124046/1600/644/10/
045390/20121205/124213/1600/2854/10/
045390/20121205/124354/1600/3048/10/
045390/20121205/124404/1600/655/10/
045390/20121205/124412/1600/1560/20/
045390/20121205/124502/1600/3347/20/
045390/20121205/124614/1600/2498/10/
045390/20121205/124900/1600/97/10/
045390/20121205/124945/1600/14888/10/
045390/20121205/125002/1600/113/20/
045390/20121205/125102/1600/1200/10/
045390/20121205/125124/1600/482/10/
045390/20121205/125130/1600/1600/10/
045390/20121205/125401/1600/10001/10/
045390/20121205/125757/1605/9000/20/
045390/20121205/130008/1600/1208/10/
045390/20121205/130156/1605/96/20/
045390/20121205/130404/1600/463/10/
045390/20121205/130418/1600/504/10/
045390/20121205/130447/1605/1303/20/
045390/20121205/130611/1605/396/20/
045390/20121205/130616/1605/100/20/
045390/20121205/130751/1605/11618/20/
045390/20121205/130756/1605/3605/20/
045390/20121205/130804/1605/764/10/
045390/20121205/130808/1605/891/10/
045390/20121205/130813/1605/109/20/
045390/20121205/130814/1605/4406/10/
045390/20121205/130838/1605/1412/20/
045390/20121205/131350/1605/5015/10/
045390/20121205/131353/1605/217/10/
045390/20121205/131452/1605/500/10/
045390/20121205/131645/1605/816/10/
045390/20121205/131652/1610/1000/20/
045390/20121205/131730/1610/1000/20/
045390/20121205/131736/1605/200/10/
045390/20121205/131848/1605/310/10/
045390/20121205/131946/1605/556/10/
045390/20121205/132007/1605/1092/10/
045390/20121205/132520/1605/1031/10/
045390/20121205/132607/1605/605/10/
045390/20121205/132613/1605/3994/10/
045390/20121205/132736/1600/2946/10/
045390/20121205/132913/1600/510/10/
045390/20121205/132935/1600/1000/10/
045390/20121205/132944/1600/1500/10/
045390/20121205/132949/1600/4000/10/
045390/20121205/133031/1605/7253/20/
045390/20121205/133045/1605/424/20/
045390/20121205/133052/1600/2497/10/
045390/20121205/133124/1600/900/10/
045390/20121205/133205/1600/829/10/
045390/20121205/133258/1600/2100/20/
045390/20121205/133411/1595/5823/10/
045390/20121205/133636/1600/1005/10/
045390/20121205/133719/1600/1003/10/
045390/20121205/133738/1600/500/10/
045390/20121205/133752/1600/502/10/
045390/20121205/133939/1600/100/10/
045390/20121205/133957/1600/500/20/
045390/20121205/134000/1595/1457/10/
045390/20121205/134020/1595/1000/10/
045390/20121205/134025/1595/1600/10/
045390/20121205/134141/1595/12038/10/
045390/20121205/134150/1595/2131/10/
045390/20121205/134158/1595/200/10/
045390/20121205/134200/1595/1600/10/
045390/20121205/134204/1595/1962/10/
045390/20121205/134209/1595/1000/10/
045390/20121205/134210/1595/14197/10/
045390/20121205/134220/1595/1500/20/
045390/20121205/134222/1595/1880/20/
045390/20121205/134230/1595/500/20/
045390/20121205/134234/1595/154/20/
045390/20121205/134235/1595/1000/20/
045390/20121205/134238/1595/369/20/
045390/20121205/134301/1595/16968/10/
045390/20121205/134301/1590/3033/10/
045390/20121205/134308/1595/953/10/
045390/20121205/134312/1595/921/10/
045390/20121205/134344/1595/863/10/
045390/20121205/134421/1595/193/10/
045390/20121205/134645/1595/159/10/
045390/20121205/134645/1595/5501/10/
045390/20121205/134818/1595/88/10/
045390/20121205/134849/1600/2020/20/
045390/20121205/134906/1595/100/10/
045390/20121205/134949/1595/1881/10/
045390/20121205/135016/1590/10002/10/
045390/20121205/135028/1590/470/10/
045390/20121205/135029/1590/2000/10/
045390/20121205/135033/1590/19322/10/
045390/20121205/135038/1585/6578/10/
045390/20121205/135107/1585/1020/10/
045390/20121205/135115/1585/515/10/
045390/20121205/135122/1585/1444/10/
045390/20121205/135131/1585/3000/10/
045390/20121205/135131/1590/1900/20/
045390/20121205/135143/1585/237/10/
045390/20121205/135151/1585/3700/10/
045390/20121205/135203/1585/806/10/
045390/20121205/135209/1585/6247/10/
045390/20121205/135219/1585/1140/10/
045390/20121205/135219/1580/1908/10/
045390/20121205/135245/1585/120/20/
045390/20121205/135252/1585/500/20/
045390/20121205/135301/1585/1245/20/
045390/20121205/135318/1580/517/10/
045390/20121205/135447/1585/9565/20/
045390/20121205/135449/1585/1880/20/
045390/20121205/135450/1585/10000/20/
045390/20121205/135452/1585/1126/20/
045390/20121205/135459/1585/3204/20/
045390/20121205/135500/1585/443/20/
045390/20121205/135501/1585/150/20/
045390/20121205/135502/1585/1000/20/
045390/20121205/135503/1585/1000/20/
045390/20121205/135503/1585/200/20/
045390/20121205/135504/1585/595/20/
045390/20121205/135516/1590/85/20/
045390/20121205/135520/1590/84/20/
045390/20121205/135633/1595/98/20/
045390/20121205/135725/1595/1002/20/
045390/20121205/135741/1595/6042/20/
045390/20121205/135742/1595/5175/10/
045390/20121205/135750/1595/1126/10/
045390/20121205/135754/1595/100/10/
045390/20121205/135755/1595/458/10/
045390/20121205/135758/1595/99/10/
045390/20121205/135839/1595/300/20/
045390/20121205/135907/1595/501/20/
045390/20121205/135908/1590/5000/10/
045390/20121205/135939/1590/1000/10/
045390/20121205/135948/1590/758/10/
045390/20121205/140015/1585/500/10/
045390/20121205/140017/1585/507/10/
045390/20121205/140101/1590/158/20/
045390/20121205/140124/1590/560/20/
045390/20121205/140133/1585/1803/10/
045390/20121205/140133/1585/1000/10/
045390/20121205/140133/1585/4433/10/
045390/20121205/140133/1585/6332/10/
045390/20121205/140133/1585/3072/10/
045390/20121205/140140/1585/5818/10/
045390/20121205/140140/1580/56742/10/
045390/20121205/140143/1580/1000/20/
045390/20121205/140215/1580/14714/20/
045390/20121205/140218/1580/500/10/
045390/20121205/140224/1580/3001/10/
045390/20121205/140229/1580/2785/10/
045390/20121205/140235/1580/235/10/
045390/20121205/140241/1580/976/10/
045390/20121205/140254/1580/237/20/
045390/20121205/140256/1580/100/20/
045390/20121205/140256/1575/1500/10/
045390/20121205/140256/1575/500/10/
045390/20121205/140257/1575/100/10/
045390/20121205/140257/1575/5000/10/
045390/20121205/140257/1580/656/20/
045390/20121205/140257/1575/500/10/
045390/20121205/140259/1575/500/10/
045390/20121205/140300/1575/5468/10/
045390/20121205/140301/1575/500/10/
045390/20121205/140301/1575/3000/10/
045390/20121205/140302/1575/2535/10/
045390/20121205/140302/1570/1465/10/
045390/20121205/140302/1570/374/10/
045390/20121205/140303/1570/2000/10/
045390/20121205/140304/1570/100/10/
045390/20121205/140304/1570/700/10/
045390/20121205/140304/1570/100/10/
045390/20121205/140307/1570/1856/10/
045390/20121205/140307/1570/1846/10/
045390/20121205/140307/1570/2700/10/
045390/20121205/140307/1570/2000/10/
045390/20121205/140308/1570/2547/10/
045390/20121205/140309/1565/13000/10/
045390/20121205/140309/1565/3314/10/
045390/20121205/140309/1560/16686/10/
045390/20121205/140314/1560/3001/10/
045390/20121205/140315/1555/302/10/
045390/20121205/140315/1560/700/20/
045390/20121205/140323/1560/1000/10/
045390/20121205/140323/1560/237/10/
045390/20121205/140325/1560/869/10/
045390/20121205/140326/1560/131/20/
045390/20121205/140326/1565/157/20/
045390/20121205/140331/1565/2549/20/
045390/20121205/140338/1565/192/10/
045390/20121205/140340/1565/308/20/
045390/20121205/140342/1565/1693/10/
045390/20121205/140343/1565/1000/20/
045390/20121205/140348/1565/112/20/
045390/20121205/140350/1565/2196/20/
045390/20121205/140351/1565/401/10/
045390/20121205/140353/1565/600/10/
045390/20121205/140355/1565/301/10/
045390/20121205/140355/1565/131/10/
045390/20121205/140357/1565/500/10/
045390/20121205/140406/1570/1001/20/
045390/20121205/140410/1565/700/10/
045390/20121205/140421/1570/3637/20/
045390/20121205/140428/1575/1070/20/
045390/20121205/140428/1570/200/10/
045390/20121205/140458/1570/1870/10/
045390/20121205/140459/1570/169/10/
045390/20121205/140502/1570/116/10/
045390/20121205/140502/1565/4277/10/
045390/20121205/140518/1560/2264/10/
045390/20121205/140521/1560/1210/10/
045390/20121205/140523/1565/1282/20/
045390/20121205/140528/1560/530/10/
045390/20121205/140528/1555/548/10/
045390/20121205/140535/1555/664/10/
045390/20121205/140536/1555/2173/10/
045390/20121205/140538/1565/337/20/
045390/20121205/140541/1565/504/10/
045390/20121205/140546/1565/3004/10/
045390/20121205/140600/1565/2368/10/
045390/20121205/140603/1565/204/10/
045390/20121205/140604/1565/1723/10/
045390/20121205/140619/1560/2032/10/
045390/20121205/140620/1560/1000/10/
045390/20121205/140622/1555/84/10/
045390/20121205/140624/1560/120/20/
045390/20121205/140630/1560/1004/10/
045390/20121205/140647/1560/607/10/
045390/20121205/140652/1560/493/10/
045390/20121205/140656/1560/1003/10/
045390/20121205/140658/1560/500/10/
045390/20121205/140719/1560/3080/10/
045390/20121205/140728/1560/1320/10/
045390/20121205/140734/1560/3315/10/
045390/20121205/140735/1560/400/20/
045390/20121205/140742/1555/586/10/
045390/20121205/140756/1560/5774/20/
045390/20121205/140757/1560/1381/20/
045390/20121205/140758/1560/1500/20/
045390/20121205/140759/1560/644/20/
045390/20121205/140800/1560/2000/10/
045390/20121205/140818/1560/2526/10/
045390/20121205/140818/1555/984/10/
045390/20121205/140831/1560/300/10/
045390/20121205/140850/1565/174/20/
045390/20121205/140910/1565/232/20/
045390/20121205/140926/1570/502/20/
045390/20121205/140929/1570/512/20/
045390/20121205/140932/1570/500/20/
045390/20121205/140949/1570/82/20/
045390/20121205/140950/1570/856/20/
045390/20121205/141024/1575/501/20/
045390/20121205/141108/1575/1044/20/
045390/20121205/141116/1575/100/20/
045390/20121205/141122/1575/2100/20/
045390/20121205/141220/1575/100/20/
045390/20121205/141337/1570/1446/10/
045390/20121205/141352/1570/600/10/
045390/20121205/141508/1570/131/10/
045390/20121205/141525/1570/2977/10/
045390/20121205/141541/1570/200/10/
045390/20121205/141603/1570/2800/10/
045390/20121205/141604/1570/304/10/
045390/20121205/141608/1565/1000/10/
045390/20121205/141624/1565/252/10/
045390/20121205/141630/1565/500/10/
045390/20121205/141644/1570/648/20/
045390/20121205/141703/1570/103/20/
045390/20121205/141711/1570/100/20/
045390/20121205/141741/1570/140/20/
045390/20121205/141803/1565/349/10/
045390/20121205/141824/1565/1010/10/
045390/20121205/141825/1565/2783/10/
045390/20121205/141830/1565/500/10/
045390/20121205/141841/1565/5847/10/
045390/20121205/141841/1560/4272/10/
045390/20121205/141845/1565/400/20/
045390/20121205/141904/1565/101/10/
045390/20121205/141915/1560/2051/10/
045390/20121205/141946/1560/655/10/
045390/20121205/141948/1565/645/20/
045390/20121205/141950/1565/2499/20/
045390/20121205/141953/1565/349/20/
045390/20121205/141958/1565/500/20/
045390/20121205/142000/1565/481/20/
045390/20121205/142012/1565/1261/10/
045390/20121205/142012/1560/747/10/
045390/20121205/142029/1565/104/20/
045390/20121205/142034/1560/10000/10/
045390/20121205/142048/1560/112/10/
045390/20121205/142106/1560/3004/10/
045390/20121205/142125/1560/1506/10/
045390/20121205/142155/1560/1552/10/
045390/20121205/142157/1560/1522/10/
045390/20121205/142202/1560/1531/10/
045390/20121205/142209/1560/1591/10/
045390/20121205/142210/1560/803/10/
045390/20121205/142223/1560/3909/10/
045390/20121205/142224/1565/98/20/
045390/20121205/142227/1560/3004/10/
045390/20121205/142250/1560/349/10/
045390/20121205/142256/1560/604/10/
045390/20121205/142258/1560/3306/10/
045390/20121205/142312/1560/208/10/
045390/20121205/142329/1560/134/10/
045390/20121205/142329/1560/114/10/
045390/20121205/142330/1560/1500/10/
045390/20121205/142427/1565/654/20/
045390/20121205/142430/1565/517/20/
045390/20121205/142521/1560/6019/10/
045390/20121205/142525/1560/1213/10/
045390/20121205/142607/1560/1471/10/
045390/20121205/142611/1560/1500/10/
045390/20121205/142628/1565/1006/20/
045390/20121205/142636/1560/5726/10/
045390/20121205/142650/1560/268/10/
045390/20121205/142704/1560/583/20/
045390/20121205/142710/1560/2002/20/
045390/20121205/142714/1560/238/20/
045390/20121205/142732/1555/3017/10/
045390/20121205/142734/1555/6295/10/
045390/20121205/142738/1555/21055/10/
045390/20121205/142738/1550/3945/10/
045390/20121205/142755/1550/10009/10/
045390/20121205/142758/1550/1061/10/
045390/20121205/142813/1555/1301/10/
045390/20121205/142813/1550/1700/10/
045390/20121205/142818/1550/2026/10/
045390/20121205/142822/1550/700/10/
045390/20121205/142836/1555/141/10/
045390/20121205/142840/1550/604/10/
045390/20121205/142846/1550/3544/10/
045390/20121205/142847/1550/4519/10/
045390/20121205/142848/1550/2500/10/
045390/20121205/142849/1550/500/10/
045390/20121205/142850/1550/1000/10/
045390/20121205/142851/1550/238/10/
045390/20121205/142852/1550/461/10/
045390/20121205/142853/1550/500/20/
045390/20121205/142854/1545/1658/10/
045390/20121205/142858/1550/105/20/
045390/20121205/142859/1550/100/20/
045390/20121205/142859/1545/3801/10/
045390/20121205/142859/1540/147/10/
045390/20121205/142904/1550/681/20/
045390/20121205/142911/1545/1001/10/
045390/20121205/142911/1540/3000/10/
045390/20121205/142924/1540/2039/10/
045390/20121205/142930/1540/1017/10/
045390/20121205/142931/1545/1000/20/
045390/20121205/142938/1545/3068/10/
045390/20121205/142940/1550/301/20/
045390/20121205/142944/1550/1134/20/
045390/20121205/142958/1550/1006/20/
045390/20121205/143001/1550/1000/20/
045390/20121205/143001/1550/300/20/
045390/20121205/143004/1550/97/20/
045390/20121205/143007/1550/154/20/
045390/20121205/143009/1550/100/20/
045390/20121205/143009/1550/697/20/
045390/20121205/143009/1550/100/20/
045390/20121205/143010/1550/991/20/
045390/20121205/143013/1555/86/20/
045390/20121205/143020/1550/1000/10/
045390/20121205/143026/1555/1016/20/
045390/20121205/143057/1550/7110/20/
045390/20121205/143114/1550/2904/20/
045390/20121205/143138/1550/316/10/
045390/20121205/143150/1550/2050/10/
045390/20121205/143152/1550/400/10/
045390/20121205/143220/1555/242/20/
045390/20121205/143222/1555/204/20/
045390/20121205/143259/1560/243/20/
045390/20121205/143337/1555/763/10/
045390/20121205/143341/1550/4768/10/
045390/20121205/143353/1550/232/20/
045390/20121205/143401/1550/405/10/
045390/20121205/143405/1550/110/20/
045390/20121205/143405/1550/2985/20/
045390/20121205/143412/1550/500/10/
045390/20121205/143424/1555/1178/20/
045390/20121205/143424/1555/6181/20/
045390/20121205/143426/1555/744/20/
045390/20121205/143456/1560/513/20/
045390/20121205/143526/1560/2050/20/
045390/20121205/143540/1560/5000/20/
045390/20121205/143546/1560/887/20/
045390/20121205/143546/1565/133/20/
045390/20121205/143552/1560/96/20/
045390/20121205/143605/1560/429/20/
045390/20121205/143610/1560/210/20/
045390/20121205/143619/1555/1000/10/
045390/20121205/143625/1560/1000/20/
045390/20121205/143632/1555/200/10/
045390/20121205/143639/1555/300/10/
045390/20121205/143647/1555/200/10/
045390/20121205/143707/1555/329/10/
045390/20121205/143728/1555/2100/10/
045390/20121205/143824/1560/200/20/
045390/20121205/143829/1560/200/20/
045390/20121205/143833/1560/230/20/
045390/20121205/143833/1560/500/20/
045390/20121205/143838/1560/200/20/
045390/20121205/143845/1560/200/20/
045390/20121205/143849/1555/3921/10/
045390/20121205/143849/1550/10831/10/
045390/20121205/143849/1545/3278/10/
045390/20121205/143909/1550/3010/10/
045390/20121205/143912/1550/523/10/
045390/20121205/143912/1545/6940/10/
045390/20121205/143956/1550/3054/10/
045390/20121205/143956/1550/2000/20/
045390/20121205/144006/1550/1014/10/
045390/20121205/144006/1550/3986/20/
045390/20121205/144025/1550/3563/20/
045390/20121205/144025/1550/1448/20/
045390/20121205/144029/1545/16001/10/
045390/20121205/144041/1550/1317/10/
045390/20121205/144044/1550/1550/20/
045390/20121205/144044/1550/2138/20/
045390/20121205/144053/1550/725/10/
045390/20121205/144055/1550/1602/20/
045390/20121205/144055/1550/2685/20/
045390/20121205/144120/1550/4190/10/
045390/20121205/144120/1550/830/20/
045390/20121205/144147/1550/1503/20/
045390/20121205/144148/1550/354/20/
045390/20121205/144153/1550/101/20/
045390/20121205/144200/1550/579/20/
045390/20121205/144203/1550/2396/20/
045390/20121205/144218/1555/1002/20/
045390/20121205/144219/1550/1213/10/
045390/20121205/144312/1555/128/20/
045390/20121205/144317/1555/1656/20/
045390/20121205/144319/1550/200/10/
045390/20121205/144328/1555/289/20/
045390/20121205/144337/1555/150/20/
045390/20121205/144414/1555/149/20/
045390/20121205/144424/1555/102/20/
045390/20121205/144425/1555/1000/20/
045390/20121205/144435/1555/146/20/
045390/20121205/144457/1555/694/20/
045390/20121205/144512/1555/4482/20/
045390/20121205/144514/1555/800/10/
045390/20121205/144518/1555/6093/10/
045390/20121205/144524/1555/1010/10/
045390/20121205/144549/1555/370/10/
045390/20121205/144557/1555/119/10/
045390/20121205/144606/1560/13295/20/
045390/20121205/144610/1560/598/10/
045390/20121205/144618/1560/103/20/
045390/20121205/144634/1560/502/20/
045390/20121205/144657/1560/2374/20/
045390/20121205/144701/1560/200/20/
045390/20121205/144722/1555/1031/10/
045390/20121205/144736/1560/383/20/
045390/20121205/144754/1560/259/20/
045390/20121205/144812/1560/1302/20/
045390/20121205/144827/1560/1015/20/
045390/20121205/144834/1560/151/20/
045390/20121205/144835/1560/1000/20/
045390/20121205/144844/1560/101/20/
045390/20121205/144852/1560/2743/20/
045390/20121205/144852/1565/157/20/
045390/20121205/144858/1555/2224/10/
045390/20121205/144910/1560/100/20/
045390/20121205/144925/1565/110/20/
045390/20121205/150000/1565/101021/10/
