045390/20130225/90000/1785/13693/20/
045390/20130225/90000/1780/3000/10/
045390/20130225/90003/1785/500/20/
045390/20130225/90010/1785/2683/20/
045390/20130225/90012/1785/317/10/
045390/20130225/90015/1785/1000/20/
045390/20130225/90031/1785/1700/20/
045390/20130225/90041/1785/2010/20/
045390/20130225/90045/1785/2703/20/
045390/20130225/90053/1785/3397/10/
045390/20130225/90103/1785/258/20/
045390/20130225/90105/1785/1000/20/
045390/20130225/90109/1785/727/20/
045390/20130225/90109/1785/500/20/
045390/20130225/90116/1785/259/20/
045390/20130225/90125/1785/141/20/
045390/20130225/90134/1785/140/20/
045390/20130225/90143/1785/1000/20/
045390/20130225/90200/1785/100/20/
045390/20130225/90200/1785/400/20/
045390/20130225/90204/1785/500/20/
045390/20130225/90211/1785/96/20/
045390/20130225/90217/1785/908/20/
045390/20130225/90221/1785/3330/20/
045390/20130225/90224/1785/300/20/
045390/20130225/90227/1785/100/20/
045390/20130225/90239/1785/300/20/
045390/20130225/90244/1785/2000/20/
045390/20130225/90247/1785/173/20/
045390/20130225/90255/1785/100/20/
045390/20130225/90256/1785/100/20/
045390/20130225/90258/1785/300/20/
045390/20130225/90302/1785/1529/20/
045390/20130225/90329/1785/300/20/
045390/20130225/90338/1785/2000/20/
045390/20130225/90343/1785/200/20/
045390/20130225/90344/1785/150/20/
045390/20130225/90345/1785/840/20/
045390/20130225/90350/1785/895/20/
045390/20130225/90351/1785/654/10/
045390/20130225/90408/1785/301/20/
045390/20130225/90410/1785/100/20/
045390/20130225/90420/1785/94/20/
045390/20130225/90423/1785/516/20/
045390/20130225/90425/1785/1008/20/
045390/20130225/90428/1785/327/20/
045390/20130225/90430/1785/1705/10/
045390/20130225/90433/1785/512/20/
045390/20130225/90434/1785/316/20/
045390/20130225/90437/1785/96/20/
045390/20130225/90440/1780/1012/10/
045390/20130225/90454/1785/81/20/
045390/20130225/90507/1785/1790/20/
045390/20130225/90508/1785/258/10/
045390/20130225/90511/1785/204/20/
045390/20130225/90512/1780/560/10/
045390/20130225/90513/1785/1000/20/
045390/20130225/90521/1785/100/20/
045390/20130225/90521/1785/1938/20/
045390/20130225/90527/1790/90/20/
045390/20130225/90528/1785/384/10/
045390/20130225/90530/1785/536/20/
045390/20130225/90532/1785/518/20/
045390/20130225/90535/1785/597/20/
045390/20130225/90539/1785/503/20/
045390/20130225/90547/1785/1310/20/
045390/20130225/90550/1785/887/20/
045390/20130225/90600/1790/1906/20/
045390/20130225/90607/1785/154/10/
045390/20130225/90622/1790/552/20/
045390/20130225/90655/1790/580/20/
045390/20130225/90728/1790/100/20/
045390/20130225/90749/1790/800/20/
045390/20130225/90752/1785/9574/10/
045390/20130225/90834/1785/101/20/
045390/20130225/90844/1785/345/20/
045390/20130225/90857/1785/175/10/
045390/20130225/90913/1780/100/10/
045390/20130225/90944/1780/1033/10/
045390/20130225/91018/1780/221/10/
045390/20130225/91020/1785/2810/20/
045390/20130225/91020/1790/690/20/
045390/20130225/91058/1785/205/20/
045390/20130225/91112/1785/135/20/
045390/20130225/91115/1785/342/20/
045390/20130225/91118/1785/158/10/
045390/20130225/91120/1785/200/20/
045390/20130225/91151/1780/1003/10/
045390/20130225/91203/1780/189/10/
045390/20130225/91210/1785/852/20/
045390/20130225/91214/1785/148/10/
045390/20130225/91216/1785/100/20/
045390/20130225/91247/1780/5050/10/
045390/20130225/91255/1780/100/10/
045390/20130225/91259/1780/2000/10/
045390/20130225/91301/1780/3500/10/
045390/20130225/91305/1780/330/10/
045390/20130225/91311/1780/1252/10/
045390/20130225/91316/1780/2229/10/
045390/20130225/91324/1775/2453/10/
045390/20130225/91324/1770/5756/10/
045390/20130225/91324/1765/1747/10/
045390/20130225/91328/1780/1120/20/
045390/20130225/91417/1770/842/10/
045390/20130225/91443/1770/713/10/
045390/20130225/91444/1770/90/10/
045390/20130225/91445/1770/1427/10/
045390/20130225/91448/1770/1073/20/
045390/20130225/91457/1770/1427/10/
045390/20130225/91503/1770/3080/20/
045390/20130225/91505/1770/500/10/
045390/20130225/91508/1770/501/10/
045390/20130225/91523/1770/263/10/
045390/20130225/91530/1770/300/10/
045390/20130225/91534/1770/2000/10/
045390/20130225/91542/1770/1000/10/
045390/20130225/91543/1770/170/10/
045390/20130225/91544/1770/1807/10/
045390/20130225/91545/1770/1000/20/
045390/20130225/91554/1770/350/20/
045390/20130225/91557/1770/500/20/
045390/20130225/91618/1770/1687/20/
045390/20130225/91658/1770/4007/10/
045390/20130225/91713/1770/1357/20/
045390/20130225/91719/1770/504/20/
045390/20130225/91723/1770/302/20/
045390/20130225/91742/1770/168/20/
045390/20130225/91749/1765/500/10/
045390/20130225/91756/1770/1000/20/
045390/20130225/91802/1765/400/10/
045390/20130225/91808/1765/1000/10/
045390/20130225/91809/1765/3000/10/
045390/20130225/91815/1765/100/10/
045390/20130225/91825/1765/8000/10/
045390/20130225/91829/1765/3000/10/
045390/20130225/91830/1765/900/10/
045390/20130225/91833/1765/959/10/
045390/20130225/91838/1765/1000/10/
045390/20130225/92016/1770/3019/20/
045390/20130225/92051/1770/2032/10/
045390/20130225/92055/1770/500/20/
045390/20130225/92109/1770/801/20/
045390/20130225/92131/1765/2000/10/
045390/20130225/92143/1765/4342/10/
045390/20130225/92206/1765/704/10/
045390/20130225/92215/1765/4591/10/
045390/20130225/92229/1765/188/10/
045390/20130225/92415/1765/2578/10/
045390/20130225/92438/1765/501/20/
045390/20130225/92440/1765/5000/20/
045390/20130225/92444/1765/500/20/
045390/20130225/92455/1765/321/20/
045390/20130225/92455/1765/800/20/
045390/20130225/92500/1765/302/20/
045390/20130225/92550/1770/101/20/
045390/20130225/92632/1770/1087/20/
045390/20130225/92635/1770/5000/20/
045390/20130225/92656/1770/470/20/
045390/20130225/92750/1775/81/20/
045390/20130225/92858/1770/578/10/
045390/20130225/92920/1770/800/10/
045390/20130225/92934/1770/469/10/
045390/20130225/92947/1770/1000/10/
045390/20130225/92948/1770/530/10/
045390/20130225/93036/1770/477/10/
045390/20130225/93044/1770/210/10/
045390/20130225/93109/1770/530/10/
045390/20130225/93156/1770/600/10/
045390/20130225/93236/1775/9010/20/
045390/20130225/93253/1775/1898/20/
045390/20130225/93304/1775/2000/10/
045390/20130225/93449/1775/5518/10/
045390/20130225/93529/1775/922/10/
045390/20130225/93558/1780/302/20/
045390/20130225/93610/1780/2816/20/
045390/20130225/93611/1780/2000/20/
045390/20130225/93613/1780/102/20/
045390/20130225/93619/1780/5504/20/
045390/20130225/93643/1780/300/20/
045390/20130225/93723/1780/230/20/
045390/20130225/93802/1780/600/20/
045390/20130225/93810/1780/2400/20/
045390/20130225/93820/1780/600/20/
045390/20130225/93853/1780/1000/20/
045390/20130225/93855/1780/218/20/
045390/20130225/93902/1780/1000/20/
045390/20130225/93934/1780/350/20/
045390/20130225/93943/1780/3000/20/
045390/20130225/93954/1780/160/20/
045390/20130225/94014/1785/502/20/
045390/20130225/94058/1780/1543/10/
045390/20130225/94126/1780/500/10/
045390/20130225/94133/1780/500/10/
045390/20130225/94133/1780/1649/10/
045390/20130225/94146/1780/2000/20/
045390/20130225/94150/1780/1000/20/
045390/20130225/94153/1780/1351/20/
045390/20130225/94221/1780/500/10/
045390/20130225/94259/1780/101/10/
045390/20130225/94304/1780/209/10/
045390/20130225/94324/1780/1001/20/
045390/20130225/94343/1785/416/20/
045390/20130225/94403/1780/571/20/
045390/20130225/94406/1780/429/20/
045390/20130225/94407/1780/571/10/
045390/20130225/94411/1780/561/20/
045390/20130225/94411/1780/868/20/
045390/20130225/94420/1780/352/10/
045390/20130225/94423/1780/561/20/
045390/20130225/94431/1780/247/20/
045390/20130225/94441/1780/753/10/
045390/20130225/94502/1780/330/20/
045390/20130225/94512/1780/3010/20/
045390/20130225/94543/1775/529/10/
045390/20130225/94549/1775/424/10/
045390/20130225/94558/1775/400/10/
045390/20130225/94558/1775/2850/10/
045390/20130225/94601/1775/3500/10/
045390/20130225/94601/1775/8303/10/
045390/20130225/94602/1770/2808/10/
045390/20130225/94602/1770/2132/10/
045390/20130225/94604/1770/400/10/
045390/20130225/94605/1770/600/10/
045390/20130225/94607/1770/5623/10/
045390/20130225/94611/1770/639/10/
045390/20130225/94612/1770/1200/10/
045390/20130225/94614/1770/1967/10/
045390/20130225/94615/1770/566/10/
045390/20130225/94618/1770/640/10/
045390/20130225/94620/1770/3403/10/
045390/20130225/94621/1770/2808/10/
045390/20130225/94623/1770/4869/10/
045390/20130225/94624/1770/1143/10/
045390/20130225/94625/1770/1378/10/
045390/20130225/94628/1770/200/20/
045390/20130225/94629/1765/2832/10/
045390/20130225/94632/1765/3500/10/
045390/20130225/94634/1765/114/10/
045390/20130225/94635/1765/4354/10/
045390/20130225/94635/1765/4000/20/
045390/20130225/94638/1760/1003/10/
045390/20130225/94640/1760/5600/10/
045390/20130225/94652/1760/1000/10/
045390/20130225/94701/1760/200/10/
045390/20130225/94705/1765/1000/20/
045390/20130225/94706/1765/1000/20/
045390/20130225/94711/1765/1000/20/
045390/20130225/94712/1765/2000/20/
045390/20130225/94713/1765/400/20/
045390/20130225/94714/1765/1000/20/
045390/20130225/94714/1765/2162/20/
045390/20130225/94716/1765/100/20/
045390/20130225/94717/1765/2301/20/
045390/20130225/94719/1765/4799/10/
045390/20130225/94719/1760/1201/10/
045390/20130225/94727/1765/100/10/
045390/20130225/94729/1765/405/10/
045390/20130225/94730/1760/700/10/
045390/20130225/94733/1760/588/10/
045390/20130225/94754/1765/510/20/
045390/20130225/94758/1765/595/20/
045390/20130225/94804/1765/449/10/
045390/20130225/94804/1760/3051/10/
045390/20130225/94811/1760/10000/10/
045390/20130225/94813/1760/1500/10/
045390/20130225/94817/1760/1000/10/
045390/20130225/94825/1760/3300/10/
045390/20130225/94826/1760/1000/10/
045390/20130225/94828/1760/439/10/
045390/20130225/94830/1760/500/10/
045390/20130225/94835/1760/2342/10/
045390/20130225/94838/1760/2658/20/
045390/20130225/94838/1760/1257/10/
045390/20130225/94840/1760/100/10/
045390/20130225/94858/1765/6000/20/
045390/20130225/94909/1765/500/10/
045390/20130225/94920/1765/1420/10/
045390/20130225/94931/1765/2080/10/
045390/20130225/94942/1765/920/20/
045390/20130225/94946/1765/297/10/
045390/20130225/94951/1765/1000/20/
045390/20130225/94955/1765/90/20/
045390/20130225/95005/1765/220/20/
045390/20130225/95020/1765/897/20/
045390/20130225/95020/1770/9235/20/
045390/20130225/95036/1770/100/20/
045390/20130225/95115/1770/1580/20/
045390/20130225/95147/1765/300/10/
045390/20130225/95157/1765/2000/10/
045390/20130225/95229/1765/3004/20/
045390/20130225/95313/1765/436/10/
045390/20130225/95323/1765/250/10/
045390/20130225/95337/1765/1000/10/
045390/20130225/95400/1765/500/10/
045390/20130225/95408/1765/1000/10/
045390/20130225/95419/1765/1408/10/
045390/20130225/95421/1765/650/20/
045390/20130225/95421/1770/350/20/
045390/20130225/95438/1770/100/20/
045390/20130225/95556/1765/100/10/
045390/20130225/95559/1765/1200/10/
045390/20130225/95619/1770/1100/20/
045390/20130225/95808/1770/750/20/
045390/20130225/95911/1765/1180/10/
045390/20130225/95915/1765/1000/10/
045390/20130225/95946/1765/2312/10/
045390/20130225/95946/1760/13088/10/
045390/20130225/100032/1765/1000/20/
045390/20130225/100055/1765/418/20/
045390/20130225/100056/1765/114/10/
045390/20130225/100057/1760/578/10/
045390/20130225/100108/1765/785/20/
045390/20130225/100111/1765/215/10/
045390/20130225/100121/1765/1500/20/
045390/20130225/100123/1765/986/20/
045390/20130225/100126/1765/298/20/
045390/20130225/100246/1765/111/10/
045390/20130225/100329/1765/502/10/
045390/20130225/100430/1770/201/20/
045390/20130225/100431/1770/1000/20/
045390/20130225/100511/1770/300/20/
045390/20130225/100547/1770/400/20/
045390/20130225/100709/1765/2870/10/
045390/20130225/100712/1765/700/10/
045390/20130225/100724/1765/110/10/
045390/20130225/100839/1770/1003/20/
045390/20130225/100854/1770/500/20/
045390/20130225/100856/1765/300/10/
045390/20130225/101001/1765/200/10/
045390/20130225/101021/1765/200/10/
045390/20130225/101029/1765/500/10/
045390/20130225/101214/1765/1041/10/
045390/20130225/101246/1765/5000/10/
045390/20130225/101250/1765/8930/10/
045390/20130225/101309/1765/1010/20/
045390/20130225/101309/1765/200/20/
045390/20130225/101315/1765/876/20/
045390/20130225/101321/1765/500/20/
045390/20130225/101403/1765/3030/20/
045390/20130225/101425/1765/164/20/
045390/20130225/101500/1765/837/10/
045390/20130225/101513/1765/210/20/
045390/20130225/101514/1765/444/20/
045390/20130225/101633/1765/1820/10/
045390/20130225/101743/1765/1474/20/
045390/20130225/101754/1765/276/20/
045390/20130225/101810/1765/1020/20/
045390/20130225/101938/1765/125/20/
045390/20130225/101944/1765/400/20/
045390/20130225/101949/1765/1816/20/
045390/20130225/101949/1770/184/20/
045390/20130225/102056/1765/2000/10/
045390/20130225/102111/1765/900/20/
045390/20130225/102121/1765/831/20/
045390/20130225/102207/1765/210/20/
045390/20130225/102230/1765/258/20/
045390/20130225/102237/1765/2188/20/
045390/20130225/102241/1765/1400/10/
045390/20130225/102249/1765/1986/10/
045390/20130225/102313/1765/1000/20/
045390/20130225/102344/1760/5415/10/
045390/20130225/102350/1765/1000/20/
045390/20130225/102354/1765/500/20/
045390/20130225/102425/1765/3010/20/
045390/20130225/102514/1765/3041/10/
045390/20130225/102547/1765/2000/10/
045390/20130225/102551/1765/300/10/
045390/20130225/102600/1765/500/10/
045390/20130225/102812/1765/558/10/
045390/20130225/102849/1765/501/10/
045390/20130225/102923/1765/2151/10/
045390/20130225/103056/1765/1146/10/
045390/20130225/103150/1765/285/20/
045390/20130225/103221/1765/265/10/
045390/20130225/103359/1765/120/10/
045390/20130225/103403/1765/2000/20/
045390/20130225/103408/1765/1315/20/
045390/20130225/103503/1765/938/10/
045390/20130225/103623/1765/500/20/
045390/20130225/103710/1760/310/10/
045390/20130225/103855/1765/514/20/
045390/20130225/103855/1760/672/10/
045390/20130225/104046/1760/5000/10/
045390/20130225/104155/1760/360/10/
045390/20130225/104157/1760/500/10/
045390/20130225/104159/1760/15000/10/
045390/20130225/104202/1760/3000/10/
045390/20130225/104223/1760/300/10/
045390/20130225/104230/1760/5680/10/
045390/20130225/104235/1760/950/10/
045390/20130225/104236/1760/2000/10/
045390/20130225/104236/1760/1000/10/
045390/20130225/104238/1760/340/10/
045390/20130225/104238/1755/5660/10/
045390/20130225/104256/1755/90/10/
045390/20130225/104323/1755/530/10/
045390/20130225/104334/1755/1600/10/
045390/20130225/104405/1760/8963/20/
045390/20130225/104409/1760/3207/20/
045390/20130225/104413/1760/1793/10/
045390/20130225/104420/1760/1010/20/
045390/20130225/104536/1760/262/10/
045390/20130225/104634/1765/99/20/
045390/20130225/104709/1765/14404/20/
045390/20130225/104722/1765/1000/10/
045390/20130225/104751/1765/6500/20/
045390/20130225/104932/1765/3847/10/
045390/20130225/104941/1765/1155/20/
045390/20130225/104951/1765/300/10/
045390/20130225/105211/1765/317/20/
045390/20130225/105246/1765/201/20/
045390/20130225/105328/1765/1000/20/
045390/20130225/105351/1765/100/20/
045390/20130225/105353/1765/93/20/
045390/20130225/105354/1770/107/20/
045390/20130225/105355/1770/100/20/
045390/20130225/105358/1770/100/20/
045390/20130225/105401/1770/100/20/
045390/20130225/105617/1760/9960/10/
045390/20130225/105901/1765/530/20/
045390/20130225/110020/1765/1366/10/
045390/20130225/110030/1760/121/10/
045390/20130225/110130/1760/986/10/
045390/20130225/110405/1765/137/20/
045390/20130225/110720/1760/11147/10/
045390/20130225/110733/1765/132/20/
045390/20130225/110802/1760/4000/10/
045390/20130225/110840/1760/3909/10/
045390/20130225/110840/1755/191/10/
045390/20130225/110915/1755/485/10/
045390/20130225/110958/1765/81/20/
045390/20130225/111115/1755/1549/10/
045390/20130225/111151/1755/1000/10/
045390/20130225/111258/1755/100/10/
045390/20130225/111309/1755/800/10/
045390/20130225/111319/1760/430/20/
045390/20130225/111326/1755/1270/10/
045390/20130225/111329/1755/2463/10/
045390/20130225/111331/1755/1875/10/
045390/20130225/111333/1755/1760/10/
045390/20130225/111336/1755/650/10/
045390/20130225/111358/1760/2000/20/
045390/20130225/111408/1760/1000/20/
045390/20130225/111414/1760/835/20/
045390/20130225/111813/1760/1514/10/
045390/20130225/111822/1760/120/10/
045390/20130225/111847/1760/9005/10/
045390/20130225/111906/1755/839/10/
045390/20130225/111924/1760/456/20/
045390/20130225/111930/1760/1000/20/
045390/20130225/111943/1760/503/20/
045390/20130225/112006/1760/210/20/
045390/20130225/112040/1760/2000/20/
045390/20130225/112043/1760/1000/20/
045390/20130225/112053/1760/520/20/
045390/20130225/112104/1760/468/20/
045390/20130225/112133/1760/500/20/
045390/20130225/112147/1760/358/20/
045390/20130225/112535/1760/2146/10/
045390/20130225/112659/1755/100/10/
045390/20130225/112855/1760/510/20/
045390/20130225/112930/1760/300/20/
045390/20130225/113017/1755/10000/10/
045390/20130225/113100/1760/500/20/
045390/20130225/113300/1760/120/20/
045390/20130225/113320/1755/1557/10/
045390/20130225/113321/1755/3309/10/
045390/20130225/113339/1755/5000/10/
045390/20130225/113340/1755/150/10/
045390/20130225/113347/1755/1320/10/
045390/20130225/113349/1755/5000/10/
045390/20130225/113412/1755/7154/10/
045390/20130225/113422/1755/1774/20/
045390/20130225/113442/1755/1001/10/
045390/20130225/113513/1755/300/10/
045390/20130225/113613/1755/160/10/
045390/20130225/113638/1760/100/20/
045390/20130225/113916/1755/2800/10/
045390/20130225/113927/1755/4093/10/
045390/20130225/113929/1755/1500/10/
045390/20130225/113957/1755/6331/10/
045390/20130225/114101/1755/909/10/
045390/20130225/114121/1750/436/10/
045390/20130225/114130/1755/220/20/
045390/20130225/114143/1755/100/20/
045390/20130225/114248/1755/122/10/
045390/20130225/114312/1755/3000/10/
045390/20130225/114410/1755/109/10/
045390/20130225/114425/1750/2697/10/
045390/20130225/114449/1750/11000/10/
045390/20130225/114506/1750/4317/10/
045390/20130225/114511/1750/5504/10/
045390/20130225/114619/1750/323/10/
045390/20130225/114651/1750/200/10/
045390/20130225/114952/1750/500/10/
045390/20130225/115144/1750/357/10/
045390/20130225/115153/1750/280/10/
045390/20130225/115205/1750/275/10/
045390/20130225/115217/1755/2700/20/
045390/20130225/115238/1755/1913/20/
045390/20130225/115240/1755/87/10/
045390/20130225/115243/1755/100/20/
045390/20130225/115302/1755/90/20/
045390/20130225/115315/1750/300/10/
045390/20130225/115321/1755/1020/20/
045390/20130225/115330/1750/500/10/
045390/20130225/115340/1755/280/20/
045390/20130225/115359/1755/1692/20/
045390/20130225/115430/1760/600/20/
045390/20130225/115432/1755/100/10/
045390/20130225/115508/1755/450/10/
045390/20130225/115608/1755/3422/10/
045390/20130225/115709/1755/5000/20/
045390/20130225/115716/1755/500/20/
045390/20130225/115904/1750/200/10/
045390/20130225/115922/1755/1000/20/
045390/20130225/115952/1755/491/20/
045390/20130225/120316/1755/107/20/
045390/20130225/120321/1755/1500/20/
045390/20130225/120500/1755/6707/20/
045390/20130225/120521/1755/3303/10/
045390/20130225/120539/1755/100/20/
045390/20130225/120715/1755/199/20/
045390/20130225/120736/1755/5000/20/
045390/20130225/120751/1755/300/20/
045390/20130225/120754/1755/1698/20/
045390/20130225/120815/1755/5001/10/
045390/20130225/120949/1760/90/20/
045390/20130225/121138/1755/513/10/
045390/20130225/121144/1760/200/20/
045390/20130225/121429/1755/400/10/
045390/20130225/121650/1760/151/20/
045390/20130225/121655/1755/100/10/
045390/20130225/122128/1755/221/10/
045390/20130225/122603/1755/2011/10/
045390/20130225/122705/1755/100/10/
045390/20130225/122922/1755/1611/10/
045390/20130225/122936/1755/390/20/
045390/20130225/123025/1755/115/10/
045390/20130225/123145/1755/100/20/
045390/20130225/123222/1755/815/10/
045390/20130225/123335/1755/482/10/
045390/20130225/123335/1750/5553/10/
045390/20130225/123505/1755/113/20/
045390/20130225/123801/1755/172/20/
045390/20130225/123824/1755/2852/20/
045390/20130225/123826/1755/1000/20/
045390/20130225/123932/1755/130/20/
045390/20130225/124017/1755/125/20/
045390/20130225/124145/1755/707/10/
045390/20130225/124232/1755/1012/10/
045390/20130225/124242/1755/541/10/
045390/20130225/124257/1755/1000/20/
045390/20130225/124301/1755/100/20/
045390/20130225/124450/1750/10050/10/
045390/20130225/124458/1750/500/10/
045390/20130225/124536/1750/417/10/
045390/20130225/124616/1755/2035/20/
045390/20130225/124633/1755/130/20/
045390/20130225/124649/1750/100/10/
045390/20130225/124658/1750/120/10/
045390/20130225/124717/1750/500/10/
045390/20130225/124720/1750/100/10/
045390/20130225/124826/1750/10000/10/
045390/20130225/124852/1750/4767/10/
045390/20130225/124919/1750/2534/20/
045390/20130225/125127/1750/1986/10/
045390/20130225/125421/1750/3054/20/
045390/20130225/125427/1750/3000/20/
045390/20130225/125442/1750/1000/20/
045390/20130225/125503/1750/100/20/
045390/20130225/125518/1745/1000/10/
045390/20130225/125615/1745/1100/10/
045390/20130225/125639/1750/81/20/
045390/20130225/125717/1750/114/10/
045390/20130225/125727/1750/926/20/
045390/20130225/125924/1750/495/10/
045390/20130225/130331/1755/10010/20/
045390/20130225/130335/1755/6600/20/
045390/20130225/130338/1755/1996/20/
045390/20130225/130344/1755/1500/20/
045390/20130225/130409/1755/990/20/
045390/20130225/130409/1755/876/20/
045390/20130225/130601/1755/510/10/
045390/20130225/130632/1760/500/20/
045390/20130225/130804/1755/2262/10/
045390/20130225/130844/1755/791/20/
045390/20130225/130904/1755/100/10/
045390/20130225/130909/1755/109/10/
045390/20130225/130909/1750/891/10/
045390/20130225/131104/1755/145/20/
045390/20130225/131134/1755/350/20/
045390/20130225/131145/1755/600/20/
045390/20130225/131314/1755/605/20/
045390/20130225/131429/1755/500/20/
045390/20130225/131617/1750/4601/10/
045390/20130225/131633/1750/621/10/
045390/20130225/131648/1750/1000/10/
045390/20130225/131655/1750/4469/10/
045390/20130225/131725/1755/548/20/
045390/20130225/131733/1755/1046/20/
045390/20130225/132143/1750/145/10/
045390/20130225/132321/1755/100/20/
045390/20130225/132512/1755/300/20/
045390/20130225/132751/1750/660/10/
045390/20130225/133204/1750/571/10/
045390/20130225/133214/1750/1245/10/
045390/20130225/133253/1750/3233/10/
045390/20130225/133257/1750/5000/10/
045390/20130225/133312/1750/5010/10/
045390/20130225/133314/1750/260/10/
045390/20130225/133319/1750/100/10/
045390/20130225/133331/1750/3946/10/
045390/20130225/133334/1750/4000/10/
045390/20130225/133355/1750/600/10/
045390/20130225/133509/1750/2010/10/
045390/20130225/133536/1750/3158/10/
045390/20130225/133549/1750/5000/20/
045390/20130225/133607/1750/1500/20/
045390/20130225/133630/1750/300/20/
045390/20130225/133648/1750/100/10/
045390/20130225/133736/1750/220/20/
045390/20130225/133747/1750/222/20/
045390/20130225/133820/1750/1000/10/
045390/20130225/133830/1750/900/10/
045390/20130225/133925/1750/1000/10/
045390/20130225/134116/1750/6421/10/
045390/20130225/134330/1750/651/20/
045390/20130225/134356/1745/365/10/
045390/20130225/134405/1745/1000/10/
045390/20130225/134451/1750/201/20/
045390/20130225/134550/1750/909/20/
045390/20130225/134720/1750/5000/20/
045390/20130225/134725/1750/2500/20/
045390/20130225/134727/1750/2957/20/
045390/20130225/134958/1750/525/10/
045390/20130225/135130/1750/1000/10/
045390/20130225/135140/1750/1200/10/
045390/20130225/135255/1750/501/10/
045390/20130225/135257/1750/200/10/
045390/20130225/135331/1750/749/10/
045390/20130225/135419/1750/1787/20/
045390/20130225/135442/1750/285/20/
045390/20130225/135610/1755/114/20/
045390/20130225/135617/1755/88/20/
045390/20130225/135645/1750/601/10/
045390/20130225/135715/1755/154/20/
045390/20130225/135728/1755/300/20/
045390/20130225/140242/1750/85/10/
045390/20130225/140316/1750/701/10/
045390/20130225/140338/1750/2000/10/
045390/20130225/140351/1750/500/10/
045390/20130225/140418/1750/501/10/
045390/20130225/140423/1750/2200/10/
045390/20130225/140440/1750/1300/10/
045390/20130225/140505/1750/1200/10/
045390/20130225/140638/1750/111/10/
045390/20130225/141006/1750/5021/10/
045390/20130225/141032/1750/3500/10/
045390/20130225/141101/1750/240/10/
045390/20130225/141103/1750/223/10/
045390/20130225/141218/1750/2427/20/
045390/20130225/141333/1750/101/10/
045390/20130225/141555/1750/5001/10/
045390/20130225/141615/1750/1000/10/
045390/20130225/141935/1750/2324/10/
045390/20130225/142223/1750/202/10/
045390/20130225/142302/1750/1001/10/
045390/20130225/142304/1750/6792/10/
045390/20130225/142316/1750/361/10/
045390/20130225/142324/1750/958/10/
045390/20130225/142645/1750/215/20/
045390/20130225/142801/1750/107/20/
045390/20130225/142803/1750/2358/20/
045390/20130225/142805/1750/100/20/
045390/20130225/142959/1750/250/20/
045390/20130225/143016/1745/6309/10/
045390/20130225/143021/1745/1000/10/
045390/20130225/143057/1745/1402/10/
045390/20130225/143101/1745/1000/10/
045390/20130225/143115/1745/986/10/
045390/20130225/143123/1745/4970/10/
045390/20130225/143124/1745/100/10/
045390/20130225/143125/1745/4001/10/
045390/20130225/143136/1745/6391/10/
045390/20130225/143223/1745/515/20/
045390/20130225/143239/1740/1026/10/
045390/20130225/143244/1745/200/20/
045390/20130225/143305/1745/571/20/
045390/20130225/143308/1745/1000/20/
045390/20130225/143311/1745/500/20/
045390/20130225/143322/1745/310/20/
045390/20130225/143328/1745/120/20/
045390/20130225/143329/1745/10000/20/
045390/20130225/143330/1745/1000/20/
045390/20130225/143333/1745/1307/20/
045390/20130225/143405/1745/3255/10/
045390/20130225/143417/1745/539/10/
045390/20130225/143426/1745/500/20/
045390/20130225/143431/1745/300/20/
045390/20130225/143433/1745/5000/20/
045390/20130225/143435/1745/650/20/
045390/20130225/143444/1745/778/20/
045390/20130225/143445/1745/100/20/
045390/20130225/143509/1745/100/20/
045390/20130225/143535/1745/236/20/
045390/20130225/143557/1745/100/20/
045390/20130225/143640/1745/105/20/
045390/20130225/143643/1745/500/20/
045390/20130225/143655/1745/1000/20/
045390/20130225/143723/1740/4056/10/
045390/20130225/143756/1740/100/10/
045390/20130225/143812/1740/4000/10/
045390/20130225/143821/1740/10000/10/
045390/20130225/143823/1740/12738/10/
045390/20130225/143827/1740/500/10/
045390/20130225/143836/1740/501/10/
045390/20130225/143841/1740/501/10/
045390/20130225/143841/1740/2990/10/
045390/20130225/143847/1740/209/10/
045390/20130225/143853/1740/500/10/
045390/20130225/143855/1740/5206/10/
045390/20130225/143857/1740/1000/20/
045390/20130225/143906/1735/1058/10/
045390/20130225/143916/1735/384/10/
045390/20130225/143941/1735/4030/10/
045390/20130225/143945/1740/1500/20/
045390/20130225/143951/1740/1000/20/
045390/20130225/144001/1740/1055/20/
045390/20130225/144006/1740/1000/20/
045390/20130225/144007/1740/137/20/
045390/20130225/144014/1740/100/20/
045390/20130225/144022/1735/511/10/
045390/20130225/144024/1740/240/20/
045390/20130225/144043/1735/271/10/
045390/20130225/144049/1735/402/10/
045390/20130225/144130/1740/90/20/
045390/20130225/144224/1735/2620/10/
045390/20130225/144244/1735/600/10/
045390/20130225/144326/1735/200/10/
045390/20130225/144326/1735/1000/10/
045390/20130225/144330/1735/4000/10/
045390/20130225/144335/1735/2000/10/
045390/20130225/144342/1740/934/20/
045390/20130225/144405/1735/5000/10/
045390/20130225/144407/1735/3000/10/
045390/20130225/144409/1740/150/20/
045390/20130225/144410/1735/1000/10/
045390/20130225/144411/1735/500/10/
045390/20130225/144411/1735/120/10/
045390/20130225/144411/1735/7873/10/
045390/20130225/144412/1735/819/10/
045390/20130225/144416/1735/1268/20/
045390/20130225/144421/1735/5600/10/
045390/20130225/144425/1735/500/10/
045390/20130225/144426/1735/3636/10/
045390/20130225/144429/1735/364/20/
045390/20130225/144429/1740/95/20/
045390/20130225/144438/1735/4982/10/
045390/20130225/144446/1735/1000/10/
045390/20130225/144452/1735/654/10/
045390/20130225/144516/1740/1545/20/
045390/20130225/144528/1740/1000/20/
045390/20130225/144559/1735/1000/10/
045390/20130225/144615/1735/2000/10/
045390/20130225/144643/1735/2011/10/
045390/20130225/144647/1735/2000/10/
045390/20130225/144736/1735/1050/10/
045390/20130225/144740/1735/3000/10/
045390/20130225/144755/1735/256/10/
045390/20130225/144801/1735/3700/10/
045390/20130225/144802/1740/400/20/
045390/20130225/144810/1740/610/20/
045390/20130225/144822/1735/255/10/
045390/20130225/144825/1740/250/20/
045390/20130225/144844/1740/220/20/
045390/20130225/144849/1740/500/20/
045390/20130225/144910/1735/2000/10/
045390/20130225/144915/1735/100/10/
045390/20130225/144917/1740/300/20/
045390/20130225/144920/1740/1464/20/
045390/20130225/144921/1740/17071/20/
045390/20130225/144921/1745/10299/20/
045390/20130225/144935/1745/500/20/
045390/20130225/144940/1740/3000/10/
045390/20130225/144950/1740/2520/10/
045390/20130225/144953/1740/600/10/
045390/20130225/144959/1740/500/10/
045390/20130225/150000/1735/52406/10/
