045390/20121210/90000/1530/52598/10/
045390/20121210/90008/1540/5229/20/
045390/20121210/90024/1540/1075/20/
045390/20121210/90026/1540/3000/20/
045390/20121210/90032/1540/100/20/
045390/20121210/90037/1540/200/10/
045390/20121210/90038/1545/7794/20/
045390/20121210/90110/1545/606/20/
045390/20121210/90112/1545/130/10/
045390/20121210/90112/1545/300/10/
045390/20121210/90113/1545/500/10/
045390/20121210/90116/1545/1521/20/
045390/20121210/90117/1545/479/20/
045390/20121210/90117/1550/147/20/
045390/20121210/90128/1550/5000/20/
045390/20121210/90144/1550/697/20/
045390/20121210/90147/1550/5000/20/
045390/20121210/90154/1550/223/20/
045390/20121210/90155/1550/3904/10/
045390/20121210/90201/1550/1439/10/
045390/20121210/90253/1550/164/20/
045390/20121210/90327/1550/100/20/
045390/20121210/90424/1545/330/20/
045390/20121210/90428/1545/700/10/
045390/20121210/90438/1545/2511/20/
045390/20121210/90454/1550/3001/20/
045390/20121210/90504/1550/1427/20/
045390/20121210/90506/1550/1200/20/
045390/20121210/90510/1550/3000/20/
045390/20121210/90515/1550/170/20/
045390/20121210/90516/1550/291/20/
045390/20121210/90533/1555/98/20/
045390/20121210/90551/1550/511/20/
045390/20121210/90557/1550/200/20/
045390/20121210/90619/1550/517/20/
045390/20121210/90651/1550/430/20/
045390/20121210/90655/1550/120/10/
045390/20121210/90716/1550/100/20/
045390/20121210/90721/1550/200/20/
045390/20121210/90827/1545/350/10/
045390/20121210/90850/1550/1360/20/
045390/20121210/90857/1550/86/20/
045390/20121210/90858/1550/714/10/
045390/20121210/90940/1545/2490/10/
045390/20121210/90940/1545/1165/10/
045390/20121210/91029/1540/500/10/
045390/20121210/91111/1545/1091/20/
045390/20121210/91118/1545/102/20/
045390/20121210/91127/1545/608/20/
045390/20121210/91128/1545/394/10/
045390/20121210/91142/1545/600/20/
045390/20121210/91145/1545/323/20/
045390/20121210/91146/1545/2000/20/
045390/20121210/91214/1540/500/10/
045390/20121210/91224/1545/502/20/
045390/20121210/91345/1540/2214/10/
045390/20121210/91347/1540/1733/10/
045390/20121210/91351/1540/323/20/
045390/20121210/91422/1540/100/20/
045390/20121210/91424/1540/100/20/
045390/20121210/91425/1540/669/20/
045390/20121210/91441/1540/1300/20/
045390/20121210/91443/1535/300/10/
045390/20121210/91447/1540/82/20/
045390/20121210/91455/1540/100/10/
045390/20121210/91537/1540/908/10/
045390/20121210/91606/1540/1525/20/
045390/20121210/91723/1540/1022/10/
045390/20121210/91751/1540/200/10/
045390/20121210/91755/1545/500/20/
045390/20121210/91807/1540/230/10/
045390/20121210/91822/1540/4277/10/
045390/20121210/91902/1540/911/10/
045390/20121210/91906/1540/109/20/
045390/20121210/91921/1540/393/10/
045390/20121210/92015/1540/530/20/
045390/20121210/92018/1540/113/20/
045390/20121210/92045/1545/1000/20/
045390/20121210/92101/1545/501/20/
045390/20121210/92153/1540/1895/10/
045390/20121210/92257/1540/372/10/
045390/20121210/92300/1540/650/10/
045390/20121210/92337/1545/2060/20/
045390/20121210/92342/1545/2342/20/
045390/20121210/92409/1550/1471/20/
045390/20121210/92415/1550/100/20/
045390/20121210/92415/1545/3000/10/
045390/20121210/92446/1545/535/10/
045390/20121210/92529/1545/700/10/
045390/20121210/92657/1550/501/20/
045390/20121210/92721/1550/90/20/
045390/20121210/92816/1550/4945/20/
045390/20121210/92833/1555/201/20/
045390/20121210/92907/1550/155/10/
045390/20121210/93209/1545/524/10/
045390/20121210/93211/1545/3367/10/
045390/20121210/93235/1545/100/20/
045390/20121210/93552/1545/5045/20/
045390/20121210/93603/1545/125/20/
045390/20121210/93619/1545/176/20/
045390/20121210/93853/1545/109/20/
045390/20121210/93901/1545/100/20/
045390/20121210/94012/1540/10577/10/
045390/20121210/94022/1540/800/10/
045390/20121210/94026/1540/4143/10/
045390/20121210/94027/1540/10194/10/
045390/20121210/94027/1540/2981/10/
045390/20121210/94053/1535/8977/10/
045390/20121210/94107/1535/1449/20/
045390/20121210/94131/1535/2000/10/
045390/20121210/94208/1540/1051/10/
045390/20121210/94236/1540/623/20/
045390/20121210/94249/1540/81/10/
045390/20121210/94302/1545/81/20/
045390/20121210/94313/1540/81/10/
045390/20121210/94324/1545/703/20/
045390/20121210/94327/1545/322/20/
045390/20121210/94331/1545/129/20/
045390/20121210/94339/1545/149/20/
045390/20121210/94343/1545/96/20/
045390/20121210/94350/1545/1342/20/
045390/20121210/94351/1545/489/20/
045390/20121210/94351/1545/718/20/
045390/20121210/94352/1545/86/20/
045390/20121210/94353/1545/408/20/
045390/20121210/94354/1545/1001/20/
045390/20121210/94354/1545/1005/20/
045390/20121210/94358/1540/81/10/
045390/20121210/94358/1545/225/20/
045390/20121210/94402/1545/153/20/
045390/20121210/94403/1545/8564/20/
045390/20121210/94403/1550/4441/20/
045390/20121210/94404/1550/81/20/
045390/20121210/94408/1550/261/20/
045390/20121210/94411/1550/272/20/
045390/20121210/94417/1550/151/20/
045390/20121210/94422/1550/133/20/
045390/20121210/94427/1550/1694/20/
045390/20121210/94430/1550/1020/20/
045390/20121210/94435/1550/537/20/
045390/20121210/94439/1550/3423/20/
045390/20121210/94439/1550/2265/20/
045390/20121210/94440/1550/963/20/
045390/20121210/94440/1550/163/20/
045390/20121210/94444/1550/6474/20/
045390/20121210/94447/1550/119/20/
045390/20121210/94448/1550/1969/20/
045390/20121210/94449/1550/1007/20/
045390/20121210/94451/1550/2059/20/
045390/20121210/94452/1550/207/20/
045390/20121210/94452/1550/1001/20/
045390/20121210/94452/1555/8497/20/
045390/20121210/94452/1555/504/10/
045390/20121210/94452/1550/500/10/
045390/20121210/94505/1555/81/20/
045390/20121210/94507/1550/3011/10/
045390/20121210/94508/1555/310/20/
045390/20121210/94510/1555/5961/20/
045390/20121210/94510/1560/4049/20/
045390/20121210/94521/1555/953/20/
045390/20121210/94521/1560/9120/20/
045390/20121210/94527/1555/133/10/
045390/20121210/94529/1555/414/20/
045390/20121210/94530/1555/302/10/
045390/20121210/94539/1560/81/20/
045390/20121210/94541/1560/234/20/
045390/20121210/94542/1560/301/20/
045390/20121210/94544/1560/10013/20/
045390/20121210/94545/1560/3098/20/
045390/20121210/94549/1560/971/10/
045390/20121210/94552/1560/225/10/
045390/20121210/94553/1560/500/10/
045390/20121210/94554/1560/1000/10/
045390/20121210/94555/1560/600/10/
045390/20121210/94555/1560/2794/10/
045390/20121210/94555/1560/461/20/
045390/20121210/94558/1560/2000/20/
045390/20121210/94559/1560/100/20/
045390/20121210/94604/1560/1980/20/
045390/20121210/94617/1555/150/10/
045390/20121210/94633/1560/550/20/
045390/20121210/94638/1560/2288/20/
045390/20121210/94640/1560/5000/20/
045390/20121210/94641/1560/200/20/
045390/20121210/94642/1560/3000/20/
045390/20121210/94644/1560/1009/20/
045390/20121210/94644/1565/300/20/
045390/20121210/94646/1560/500/10/
045390/20121210/94654/1560/300/10/
045390/20121210/94655/1560/200/10/
045390/20121210/94700/1560/200/10/
045390/20121210/94706/1560/1269/10/
045390/20121210/94706/1560/300/10/
045390/20121210/94707/1560/100/10/
045390/20121210/94737/1555/2283/10/
045390/20121210/94739/1555/1268/10/
045390/20121210/94742/1555/2000/10/
045390/20121210/94746/1555/500/10/
045390/20121210/95027/1555/757/20/
045390/20121210/95124/1555/105/20/
045390/20121210/95141/1550/3001/10/
045390/20121210/95217/1555/101/20/
045390/20121210/95251/1555/400/20/
045390/20121210/95350/1555/300/20/
045390/20121210/95403/1550/270/10/
045390/20121210/95419/1550/100/10/
045390/20121210/95425/1555/600/20/
045390/20121210/95548/1550/1010/10/
045390/20121210/95612/1550/1000/10/
045390/20121210/95651/1550/5858/10/
045390/20121210/95654/1550/100/10/
045390/20121210/95655/1550/1850/10/
045390/20121210/95658/1550/350/10/
045390/20121210/95702/1550/1000/10/
045390/20121210/95715/1550/2372/10/
045390/20121210/95731/1545/1980/10/
045390/20121210/95753/1545/1500/10/
045390/20121210/95815/1545/838/10/
045390/20121210/95823/1545/6961/10/
045390/20121210/95842/1545/200/10/
045390/20121210/95848/1545/1000/10/
045390/20121210/95914/1545/226/10/
045390/20121210/95917/1545/500/10/
045390/20121210/95926/1545/500/10/
045390/20121210/100011/1545/83/10/
045390/20121210/100058/1545/1037/20/
045390/20121210/100100/1540/3396/10/
045390/20121210/100309/1550/2020/20/
045390/20121210/100400/1545/1207/10/
045390/20121210/100415/1545/273/20/
045390/20121210/100433/1545/385/10/
045390/20121210/100436/1545/195/10/
045390/20121210/100455/1545/2140/10/
045390/20121210/100831/1545/400/10/
045390/20121210/100851/1540/1962/10/
045390/20121210/100852/1540/533/10/
045390/20121210/100852/1535/1962/10/
045390/20121210/100852/1535/330/10/
045390/20121210/100902/1535/700/10/
045390/20121210/100906/1535/665/10/
045390/20121210/101014/1540/2908/10/
045390/20121210/101023/1540/1239/10/
045390/20121210/101306/1545/1367/20/
045390/20121210/101342/1545/179/20/
045390/20121210/101448/1545/115/20/
045390/20121210/101511/1545/1000/10/
045390/20121210/101648/1550/4885/20/
045390/20121210/101745/1550/970/10/
045390/20121210/101845/1550/384/10/
045390/20121210/101941/1555/5048/20/
045390/20121210/102006/1555/3222/20/
045390/20121210/102053/1550/2405/10/
045390/20121210/102102/1550/613/20/
045390/20121210/102253/1550/5014/10/
045390/20121210/102349/1550/81/10/
045390/20121210/102413/1550/2348/10/
045390/20121210/102546/1550/2060/20/
045390/20121210/102705/1550/756/20/
045390/20121210/102857/1545/83/10/
045390/20121210/103047/1550/210/10/
045390/20121210/103151/1555/4000/20/
045390/20121210/103202/1555/190/20/
045390/20121210/103214/1555/2310/10/
045390/20121210/103329/1555/1018/20/
045390/20121210/103447/1555/858/20/
045390/20121210/103541/1555/3000/20/
045390/20121210/103616/1555/5000/20/
045390/20121210/103625/1555/1000/20/
045390/20121210/103632/1555/307/20/
045390/20121210/103652/1555/993/10/
045390/20121210/103826/1560/1008/20/
045390/20121210/103908/1555/103/10/
045390/20121210/103929/1555/103/10/
045390/20121210/103932/1555/3247/10/
045390/20121210/104639/1550/263/10/
045390/20121210/104759/1550/800/10/
045390/20121210/104800/1550/3010/10/
045390/20121210/104810/1550/92/10/
045390/20121210/105156/1550/101/10/
045390/20121210/105331/1550/1005/10/
045390/20121210/105434/1555/206/20/
045390/20121210/105435/1555/4000/20/
045390/20121210/105516/1555/1800/20/
045390/20121210/105608/1550/2437/10/
045390/20121210/105620/1555/253/20/
045390/20121210/105720/1555/222/20/
045390/20121210/105752/1550/10000/10/
045390/20121210/105802/1550/9191/10/
045390/20121210/105924/1550/1853/20/
045390/20121210/105947/1545/10000/10/
045390/20121210/105959/1545/4400/10/
045390/20121210/110031/1545/2502/10/
045390/20121210/110033/1545/113/10/
045390/20121210/110033/1540/4887/10/
045390/20121210/110113/1540/5000/10/
045390/20121210/110132/1545/283/20/
045390/20121210/110217/1540/5002/10/
045390/20121210/110234/1545/1000/20/
045390/20121210/110306/1545/295/20/
045390/20121210/110817/1550/243/20/
045390/20121210/110929/1545/701/10/
045390/20121210/110948/1545/720/20/
045390/20121210/111512/1545/1012/10/
045390/20121210/111833/1545/100/10/
045390/20121210/112521/1545/1054/10/
045390/20121210/112528/1545/1169/10/
045390/20121210/112917/1545/95/10/
045390/20121210/112926/1545/500/10/
045390/20121210/113200/1545/7624/10/
045390/20121210/113429/1545/376/20/
045390/20121210/113547/1545/1658/10/
045390/20121210/113628/1545/520/10/
045390/20121210/113713/1545/2738/10/
045390/20121210/113719/1540/3000/10/
045390/20121210/113719/1540/400/10/
045390/20121210/113732/1540/6171/10/
045390/20121210/113810/1540/1001/10/
045390/20121210/114022/1545/1002/10/
045390/20121210/114022/1540/1028/10/
045390/20121210/114104/1550/1101/20/
045390/20121210/114236/1540/134/10/
045390/20121210/114247/1540/100/10/
045390/20121210/114353/1540/500/10/
045390/20121210/114603/1540/423/10/
045390/20121210/114644/1540/5021/10/
045390/20121210/114644/1535/6489/10/
045390/20121210/115145/1545/1071/20/
045390/20121210/115155/1545/282/20/
045390/20121210/115600/1545/101/20/
045390/20121210/115610/1540/3357/10/
045390/20121210/120054/1535/12055/10/
045390/20121210/120146/1540/2499/20/
045390/20121210/120305/1540/121/10/
045390/20121210/120652/1545/115/20/
045390/20121210/120833/1540/92/10/
045390/20121210/120834/1540/4978/10/
045390/20121210/120946/1545/900/20/
045390/20121210/121404/1540/3300/10/
045390/20121210/121404/1545/3000/20/
045390/20121210/121445/1535/5580/10/
045390/20121210/121511/1545/1000/20/
045390/20121210/121732/1535/11750/10/
045390/20121210/121738/1535/2309/20/
045390/20121210/121748/1535/100/20/
045390/20121210/121959/1535/97/20/
045390/20121210/122020/1535/100/20/
045390/20121210/122131/1530/10874/10/
045390/20121210/122135/1530/802/10/
045390/20121210/122250/1535/500/20/
045390/20121210/122254/1530/88/10/
045390/20121210/122255/1535/2757/20/
045390/20121210/122255/1535/1243/10/
045390/20121210/122412/1530/5000/10/
045390/20121210/122538/1530/7044/10/
045390/20121210/122615/1530/1022/10/
045390/20121210/122929/1535/329/20/
045390/20121210/122929/1540/4767/20/
045390/20121210/122929/1540/4915/10/
045390/20121210/123111/1540/1000/10/
045390/20121210/123116/1540/14000/10/
045390/20121210/123208/1530/8000/10/
045390/20121210/123224/1530/3000/10/
045390/20121210/123249/1530/500/10/
045390/20121210/123315/1530/1001/10/
045390/20121210/123718/1535/3869/10/
045390/20121210/123738/1535/960/10/
045390/20121210/123757/1535/1000/10/
045390/20121210/123822/1535/1100/10/
045390/20121210/123833/1535/669/10/
045390/20121210/124007/1530/7959/10/
045390/20121210/124333/1530/4175/10/
045390/20121210/124421/1525/17906/10/
045390/20121210/124459/1525/2146/20/
045390/20121210/124610/1530/1051/20/
045390/20121210/124850/1525/1030/10/
045390/20121210/124904/1525/730/10/
045390/20121210/124937/1525/6749/10/
045390/20121210/124937/1520/18954/10/
045390/20121210/125052/1525/272/10/
045390/20121210/125139/1530/1017/20/
045390/20121210/125222/1530/400/20/
045390/20121210/125422/1530/5275/20/
045390/20121210/125446/1530/257/20/
045390/20121210/125627/1535/2001/20/
045390/20121210/131103/1530/659/10/
045390/20121210/131126/1530/1001/10/
045390/20121210/131306/1535/428/20/
045390/20121210/132037/1530/615/10/
045390/20121210/132146/1535/101/20/
045390/20121210/132304/1535/2599/20/
045390/20121210/132358/1540/100/20/
045390/20121210/132437/1540/100/20/
045390/20121210/132721/1540/1347/20/
045390/20121210/132721/1545/653/20/
045390/20121210/132736/1545/300/20/
045390/20121210/133056/1545/1003/20/
045390/20121210/133732/1545/512/20/
045390/20121210/133755/1545/1328/10/
045390/20121210/133755/1540/2136/10/
045390/20121210/134101/1545/681/20/
045390/20121210/134223/1545/2802/20/
045390/20121210/134308/1545/82/20/
045390/20121210/134544/1540/1300/10/
045390/20121210/134612/1545/2958/20/
045390/20121210/134700/1550/1001/20/
045390/20121210/134807/1550/100/20/
045390/20121210/135019/1550/913/20/
045390/20121210/135123/1545/1000/10/
045390/20121210/135352/1550/2001/20/
045390/20121210/135504/1550/5000/20/
045390/20121210/135548/1550/5000/20/
045390/20121210/135615/1550/1000/20/
045390/20121210/135637/1550/436/20/
045390/20121210/140444/1540/455/10/
045390/20121210/140503/1540/1837/10/
045390/20121210/140719/1540/564/20/
045390/20121210/140821/1545/99/20/
045390/20121210/141357/1540/2014/10/
045390/20121210/141424/1540/903/10/
045390/20121210/141425/1540/880/10/
045390/20121210/141500/1540/347/10/
045390/20121210/141529/1535/102/10/
045390/20121210/141858/1535/1659/10/
045390/20121210/141937/1535/5773/10/
045390/20121210/141950/1535/2238/20/
045390/20121210/142000/1535/2450/10/
045390/20121210/142250/1540/1511/20/
045390/20121210/142301/1540/4010/10/
045390/20121210/142323/1545/101/20/
045390/20121210/142332/1545/7679/20/
045390/20121210/142332/1550/8387/20/
045390/20121210/142332/1555/13934/20/
045390/20121210/142405/1555/550/20/
045390/20121210/142548/1550/376/20/
045390/20121210/142557/1550/84/10/
045390/20121210/142919/1550/3282/20/
045390/20121210/142941/1550/886/10/
045390/20121210/143051/1545/945/10/
045390/20121210/143218/1545/101/20/
045390/20121210/143225/1545/1877/20/
045390/20121210/143236/1545/4133/10/
045390/20121210/143236/1540/3577/10/
045390/20121210/143257/1540/2290/20/
045390/20121210/143257/1550/2711/20/
045390/20121210/143305/1540/401/10/
045390/20121210/143341/1540/1024/10/
045390/20121210/143435/1540/3300/10/
045390/20121210/143448/1540/1510/10/
045390/20121210/143624/1540/1978/10/
045390/20121210/143708/1540/2078/10/
045390/20121210/143727/1540/4493/20/
045390/20121210/143730/1545/100/20/
045390/20121210/143737/1545/100/20/
045390/20121210/143740/1545/3000/20/
045390/20121210/143806/1545/409/20/
045390/20121210/143833/1550/271/20/
045390/20121210/143934/1550/500/20/
045390/20121210/144035/1545/547/10/
045390/20121210/144421/1545/363/10/
045390/20121210/144457/1550/3395/20/
045390/20121210/144503/1550/1625/10/
045390/20121210/144512/1550/1375/20/
045390/20121210/144515/1550/3625/10/
045390/20121210/144530/1550/868/20/
045390/20121210/144540/1550/871/10/
045390/20121210/144602/1550/181/10/
045390/20121210/144636/1550/82/10/
045390/20121210/144812/1555/2016/20/
045390/20121210/144839/1555/5055/20/
045390/20121210/144903/1555/9000/20/
045390/20121210/144905/1555/3910/20/
045390/20121210/144909/1555/2091/10/
045390/20121210/144918/1555/2000/20/
045390/20121210/144923/1555/910/20/
045390/20121210/144945/1555/93/10/
045390/20121210/150000/1560/39652/20/
