045390/20130222/90000/1795/116499/20/
045390/20130222/90000/1790/500/10/
045390/20130222/90001/1795/500/20/
045390/20130222/90001/1795/500/20/
045390/20130222/90002/1795/3739/20/
045390/20130222/90002/1800/27842/20/
045390/20130222/90002/1800/2000/20/
045390/20130222/90003/1800/12000/20/
045390/20130222/90004/1795/5000/20/
045390/20130222/90007/1795/600/10/
045390/20130222/90008/1795/500/10/
045390/20130222/90013/1800/2080/20/
045390/20130222/90013/1800/3948/20/
045390/20130222/90013/1800/5484/20/
045390/20130222/90014/1795/10000/10/
045390/20130222/90014/1800/859/20/
045390/20130222/90014/1795/9033/10/
045390/20130222/90015/1795/350/10/
045390/20130222/90018/1790/5037/10/
045390/20130222/90019/1795/3506/20/
045390/20130222/90022/1790/8140/10/
045390/20130222/90022/1790/741/20/
045390/20130222/90022/1790/314/20/
045390/20130222/90022/1790/807/20/
045390/20130222/90025/1790/768/10/
045390/20130222/90027/1790/502/10/
045390/20130222/90029/1790/500/10/
045390/20130222/90029/1790/219/10/
045390/20130222/90032/1785/1130/10/
045390/20130222/90033/1790/370/20/
045390/20130222/90035/1790/1064/20/
045390/20130222/90035/1795/263/20/
045390/20130222/90036/1785/10000/10/
045390/20130222/90036/1785/1393/10/
045390/20130222/90037/1785/1000/10/
045390/20130222/90037/1785/1000/20/
045390/20130222/90038/1785/500/20/
045390/20130222/90041/1785/100/20/
045390/20130222/90042/1785/500/20/
045390/20130222/90044/1785/2800/20/
045390/20130222/90047/1785/2707/20/
045390/20130222/90047/1785/2000/10/
045390/20130222/90047/1785/2000/10/
045390/20130222/90052/1790/501/20/
045390/20130222/90053/1790/1000/20/
045390/20130222/90053/1790/136/20/
045390/20130222/90056/1790/500/20/
045390/20130222/90056/1790/3220/20/
045390/20130222/90057/1790/1000/20/
045390/20130222/90058/1790/2785/20/
045390/20130222/90058/1790/221/20/
045390/20130222/90058/1790/2621/20/
045390/20130222/90101/1795/1621/20/
045390/20130222/90101/1790/420/10/
045390/20130222/90105/1795/451/20/
045390/20130222/90106/1790/200/10/
045390/20130222/90106/1790/1462/10/
045390/20130222/90107/1795/14708/20/
045390/20130222/90108/1795/1100/10/
045390/20130222/90108/1795/100/10/
045390/20130222/90109/1795/5000/10/
045390/20130222/90110/1795/515/10/
045390/20130222/90112/1795/3000/20/
045390/20130222/90112/1795/185/20/
045390/20130222/90114/1795/373/20/
045390/20130222/90116/1795/110/20/
045390/20130222/90117/1795/111/20/
045390/20130222/90119/1790/1000/10/
045390/20130222/90123/1790/2000/10/
045390/20130222/90123/1790/3000/10/
045390/20130222/90124/1790/2844/10/
045390/20130222/90128/1790/226/20/
045390/20130222/90129/1790/274/10/
045390/20130222/90129/1790/1000/20/
045390/20130222/90131/1785/2900/10/
045390/20130222/90134/1785/500/20/
045390/20130222/90134/1785/469/20/
045390/20130222/90134/1790/420/20/
045390/20130222/90150/1790/300/20/
045390/20130222/90154/1785/97/10/
045390/20130222/90158/1790/1110/20/
045390/20130222/90158/1785/350/10/
045390/20130222/90201/1785/350/10/
045390/20130222/90203/1785/13517/10/
045390/20130222/90207/1785/1001/20/
045390/20130222/90207/1785/1427/20/
045390/20130222/90212/1785/1000/20/
045390/20130222/90212/1785/1000/20/
045390/20130222/90213/1785/200/20/
045390/20130222/90218/1785/12375/20/
045390/20130222/90222/1785/625/10/
045390/20130222/90225/1785/340/20/
045390/20130222/90227/1785/5550/10/
045390/20130222/90229/1785/1070/10/
045390/20130222/90230/1785/1500/10/
045390/20130222/90232/1790/2001/20/
045390/20130222/90235/1785/1101/10/
045390/20130222/90235/1785/3397/10/
045390/20130222/90246/1785/1541/10/
045390/20130222/90249/1785/1000/10/
045390/20130222/90252/1785/6809/10/
045390/20130222/90300/1785/500/20/
045390/20130222/90314/1780/2000/10/
045390/20130222/90315/1780/10000/10/
045390/20130222/90316/1780/330/20/
045390/20130222/90316/1785/2012/20/
045390/20130222/90334/1780/885/20/
045390/20130222/90338/1780/619/10/
045390/20130222/90339/1780/201/20/
045390/20130222/90352/1780/501/20/
045390/20130222/90355/1780/1000/20/
045390/20130222/90401/1780/5000/20/
045390/20130222/90403/1780/2000/20/
045390/20130222/90421/1780/153/20/
045390/20130222/90429/1780/406/20/
045390/20130222/90431/1780/5578/20/
045390/20130222/90435/1780/1011/20/
045390/20130222/90438/1780/830/20/
045390/20130222/90439/1780/547/20/
045390/20130222/90443/1780/2518/10/
045390/20130222/90444/1780/487/20/
045390/20130222/90451/1780/89/20/
045390/20130222/90453/1780/2474/20/
045390/20130222/90454/1785/2026/20/
045390/20130222/90457/1785/2004/20/
045390/20130222/90503/1785/519/20/
045390/20130222/90503/1785/2493/20/
045390/20130222/90505/1785/7421/20/
045390/20130222/90505/1790/1582/20/
045390/20130222/90506/1790/1001/20/
045390/20130222/90512/1790/507/20/
045390/20130222/90515/1790/605/20/
045390/20130222/90517/1790/18671/20/
045390/20130222/90519/1790/4544/20/
045390/20130222/90520/1795/500/20/
045390/20130222/90522/1790/18665/10/
045390/20130222/90524/1790/1004/20/
045390/20130222/90525/1790/333/20/
045390/20130222/90531/1790/2075/10/
045390/20130222/90537/1790/512/20/
045390/20130222/90543/1790/3074/20/
045390/20130222/90546/1790/5589/20/
045390/20130222/90548/1790/4002/20/
045390/20130222/90548/1790/4200/20/
045390/20130222/90549/1790/4514/20/
045390/20130222/90550/1790/1574/10/
045390/20130222/90550/1790/8344/10/
045390/20130222/90552/1795/36465/20/
045390/20130222/90552/1800/3921/20/
045390/20130222/90555/1800/2422/20/
045390/20130222/90558/1800/5004/20/
045390/20130222/90559/1800/19914/20/
045390/20130222/90600/1800/113/20/
045390/20130222/90600/1800/3829/20/
045390/20130222/90601/1800/953/20/
045390/20130222/90601/1800/330/20/
045390/20130222/90603/1800/5603/20/
045390/20130222/90604/1800/272/20/
045390/20130222/90606/1800/4782/20/
045390/20130222/90607/1800/501/20/
045390/20130222/90607/1800/2222/20/
045390/20130222/90607/1800/501/10/
045390/20130222/90607/1800/2500/20/
045390/20130222/90608/1800/1501/20/
045390/20130222/90609/1800/300/20/
045390/20130222/90611/1800/404/20/
045390/20130222/90613/1800/1003/20/
045390/20130222/90614/1800/501/20/
045390/20130222/90616/1800/1000/20/
045390/20130222/90616/1800/550/20/
045390/20130222/90616/1800/1000/20/
045390/20130222/90617/1800/10000/20/
045390/20130222/90617/1800/185/20/
045390/20130222/90617/1800/1303/20/
045390/20130222/90618/1800/277/20/
045390/20130222/90619/1800/2700/20/
045390/20130222/90620/1800/2773/20/
045390/20130222/90621/1800/1000/20/
045390/20130222/90621/1800/2001/20/
045390/20130222/90621/1800/301/20/
045390/20130222/90622/1800/1030/20/
045390/20130222/90622/1800/1000/20/
045390/20130222/90624/1800/1301/20/
045390/20130222/90625/1800/1000/20/
045390/20130222/90626/1800/1000/20/
045390/20130222/90632/1795/925/10/
045390/20130222/90632/1800/4697/20/
045390/20130222/90632/1795/4343/10/
045390/20130222/90634/1795/508/20/
045390/20130222/90643/1795/1027/20/
045390/20130222/90645/1795/154/20/
045390/20130222/90649/1795/310/20/
045390/20130222/90650/1795/2545/20/
045390/20130222/90653/1795/506/20/
045390/20130222/90658/1795/736/20/
045390/20130222/90703/1795/81/20/
045390/20130222/90706/1795/5792/20/
045390/20130222/90706/1800/30700/20/
045390/20130222/90711/1800/313/10/
045390/20130222/90711/1805/177/20/
045390/20130222/90712/1800/3484/10/
045390/20130222/90715/1800/1143/20/
045390/20130222/90716/1800/504/20/
045390/20130222/90718/1795/406/10/
045390/20130222/90722/1800/10488/20/
045390/20130222/90724/1800/1000/20/
045390/20130222/90724/1800/100/20/
045390/20130222/90728/1800/1154/20/
045390/20130222/90728/1800/226/20/
045390/20130222/90731/1800/2015/20/
045390/20130222/90732/1800/9671/20/
045390/20130222/90733/1800/1515/20/
045390/20130222/90734/1800/800/20/
045390/20130222/90734/1800/500/20/
045390/20130222/90736/1800/6654/20/
045390/20130222/90741/1800/86/20/
045390/20130222/90743/1800/85/20/
045390/20130222/90744/1795/1005/10/
045390/20130222/90745/1800/2705/20/
045390/20130222/90746/1795/5618/10/
045390/20130222/90746/1795/4387/20/
045390/20130222/90746/1800/2528/20/
045390/20130222/90749/1800/5010/20/
045390/20130222/90751/1800/1692/20/
045390/20130222/90752/1800/530/10/
045390/20130222/90755/1800/646/20/
045390/20130222/90757/1800/600/20/
045390/20130222/90801/1800/187/20/
045390/20130222/90807/1800/321/20/
045390/20130222/90807/1800/1358/20/
045390/20130222/90809/1800/311/20/
045390/20130222/90811/1800/200/20/
045390/20130222/90824/1790/5442/10/
045390/20130222/90824/1790/100/10/
045390/20130222/90825/1795/1000/20/
045390/20130222/90828/1795/267/20/
045390/20130222/90838/1795/963/20/
045390/20130222/90840/1795/3000/10/
045390/20130222/90847/1795/400/10/
045390/20130222/90847/1795/1000/10/
045390/20130222/90849/1795/500/10/
045390/20130222/90852/1795/219/10/
045390/20130222/90853/1795/377/10/
045390/20130222/90856/1795/500/20/
045390/20130222/90901/1795/1646/20/
045390/20130222/90905/1790/500/10/
045390/20130222/90909/1795/1350/20/
045390/20130222/90912/1790/500/10/
045390/20130222/90924/1790/1812/10/
045390/20130222/90926/1790/1000/20/
045390/20130222/90927/1790/1000/20/
045390/20130222/90929/1790/1000/20/
045390/20130222/90932/1790/207/20/
045390/20130222/90934/1785/1000/10/
045390/20130222/90936/1790/1001/20/
045390/20130222/90938/1785/1000/10/
045390/20130222/90938/1790/1000/20/
045390/20130222/90945/1790/592/20/
045390/20130222/90947/1790/89/20/
045390/20130222/90952/1790/177/10/
045390/20130222/91002/1790/98/10/
045390/20130222/91003/1790/680/10/
045390/20130222/91004/1790/1109/10/
045390/20130222/91006/1790/3000/10/
045390/20130222/91007/1790/1865/10/
045390/20130222/91014/1790/4135/20/
045390/20130222/91017/1790/2500/10/
045390/20130222/91018/1790/100/10/
045390/20130222/91026/1790/100/10/
045390/20130222/91032/1790/500/10/
045390/20130222/91039/1790/3000/10/
045390/20130222/91041/1790/1308/10/
045390/20130222/91048/1795/266/20/
045390/20130222/91050/1790/3000/10/
045390/20130222/91059/1790/1000/10/
045390/20130222/91104/1790/500/10/
045390/20130222/91106/1790/4000/10/
045390/20130222/91108/1790/1370/10/
045390/20130222/91109/1790/100/20/
045390/20130222/91110/1790/1000/10/
045390/20130222/91110/1795/246/20/
045390/20130222/91111/1790/1693/10/
045390/20130222/91111/1785/3307/10/
045390/20130222/91118/1785/1005/10/
045390/20130222/91119/1785/4000/10/
045390/20130222/91122/1785/500/10/
045390/20130222/91125/1785/3000/10/
045390/20130222/91126/1785/1000/10/
045390/20130222/91127/1785/4000/10/
045390/20130222/91127/1785/1000/10/
045390/20130222/91128/1785/342/10/
045390/20130222/91128/1785/1973/10/
045390/20130222/91130/1785/100/20/
045390/20130222/91131/1785/673/20/
045390/20130222/91131/1785/2024/10/
045390/20130222/91139/1785/258/10/
045390/20130222/91146/1785/4188/10/
045390/20130222/91146/1780/1814/10/
045390/20130222/91151/1780/1829/10/
045390/20130222/91152/1780/12001/10/
045390/20130222/91156/1780/2077/10/
045390/20130222/91156/1790/1000/20/
045390/20130222/91202/1785/802/10/
045390/20130222/91207/1785/385/10/
045390/20130222/91207/1780/968/10/
045390/20130222/91212/1785/81/20/
045390/20130222/91221/1785/181/20/
045390/20130222/91226/1785/181/20/
045390/20130222/91226/1785/1677/20/
045390/20130222/91227/1785/1000/20/
045390/20130222/91233/1785/1125/20/
045390/20130222/91234/1785/801/20/
045390/20130222/91237/1785/5000/10/
045390/20130222/91237/1790/2000/20/
045390/20130222/91243/1785/500/10/
045390/20130222/91245/1790/10934/20/
045390/20130222/91250/1790/4948/20/
045390/20130222/91257/1790/111/20/
045390/20130222/91259/1785/1000/10/
045390/20130222/91300/1790/100/20/
045390/20130222/91301/1790/2500/20/
045390/20130222/91306/1790/437/20/
045390/20130222/91310/1790/1000/20/
045390/20130222/91315/1790/17090/20/
045390/20130222/91315/1795/8560/20/
045390/20130222/91321/1785/1001/10/
045390/20130222/91331/1790/1001/10/
045390/20130222/91337/1790/1000/10/
045390/20130222/91344/1790/6002/10/
045390/20130222/91353/1790/904/10/
045390/20130222/91356/1795/1042/20/
045390/20130222/91359/1790/780/10/
045390/20130222/91405/1795/101/20/
045390/20130222/91411/1790/10000/10/
045390/20130222/91412/1790/159/10/
045390/20130222/91415/1790/209/20/
045390/20130222/91416/1790/189/20/
045390/20130222/91417/1790/462/20/
045390/20130222/91417/1790/2000/20/
045390/20130222/91420/1790/100/20/
045390/20130222/91420/1790/674/20/
045390/20130222/91424/1790/400/10/
045390/20130222/91425/1795/3000/20/
045390/20130222/91431/1795/100/20/
045390/20130222/91432/1795/121/20/
045390/20130222/91432/1795/500/20/
045390/20130222/91433/1795/1500/20/
045390/20130222/91433/1795/500/20/
045390/20130222/91436/1795/200/20/
045390/20130222/91436/1795/5000/20/
045390/20130222/91438/1795/5469/20/
045390/20130222/91439/1795/2505/20/
045390/20130222/91440/1795/672/20/
045390/20130222/91440/1795/7125/20/
045390/20130222/91443/1795/2025/10/
045390/20130222/91453/1800/1150/20/
045390/20130222/91455/1800/91/20/
045390/20130222/91458/1800/86/20/
045390/20130222/91500/1800/90/20/
045390/20130222/91504/1800/635/20/
045390/20130222/91504/1795/1000/10/
045390/20130222/91506/1795/500/10/
045390/20130222/91518/1795/10040/10/
045390/20130222/91519/1795/1400/10/
045390/20130222/91521/1795/1002/10/
045390/20130222/91528/1795/1017/10/
045390/20130222/91530/1795/1715/10/
045390/20130222/91532/1795/511/20/
045390/20130222/91537/1795/516/20/
045390/20130222/91538/1795/465/20/
045390/20130222/91538/1795/301/10/
045390/20130222/91542/1800/617/20/
045390/20130222/91550/1800/440/20/
045390/20130222/91550/1800/3000/20/
045390/20130222/91550/1795/500/10/
045390/20130222/91551/1800/1413/20/
045390/20130222/91604/1800/324/20/
045390/20130222/91613/1795/1777/10/
045390/20130222/91617/1795/618/10/
045390/20130222/91619/1795/5706/10/
045390/20130222/91621/1795/456/10/
045390/20130222/91621/1795/394/10/
045390/20130222/91622/1795/800/20/
045390/20130222/91622/1795/400/20/
045390/20130222/91623/1795/100/20/
045390/20130222/91623/1795/2000/20/
045390/20130222/91624/1795/2000/20/
045390/20130222/91631/1795/2049/20/
045390/20130222/91631/1795/1000/20/
045390/20130222/91632/1795/110/20/
045390/20130222/91633/1800/302/20/
045390/20130222/91645/1800/267/20/
045390/20130222/91649/1800/1018/20/
045390/20130222/91651/1800/256/20/
045390/20130222/91652/1800/1000/20/
045390/20130222/91704/1800/267/20/
045390/20130222/91717/1800/1326/20/
045390/20130222/91720/1800/609/20/
045390/20130222/91723/1800/414/20/
045390/20130222/91737/1800/780/20/
045390/20130222/91740/1800/341/20/
045390/20130222/91743/1800/111/20/
045390/20130222/91744/1800/455/20/
045390/20130222/91749/1800/521/20/
045390/20130222/91749/1800/1742/20/
045390/20130222/91750/1800/835/20/
045390/20130222/91750/1800/403/20/
045390/20130222/91751/1800/643/20/
045390/20130222/91753/1800/281/20/
045390/20130222/91753/1800/3000/20/
045390/20130222/91754/1800/104/20/
045390/20130222/91754/1800/1000/20/
045390/20130222/91755/1800/520/20/
045390/20130222/91756/1800/681/20/
045390/20130222/91756/1800/500/20/
045390/20130222/91757/1800/1104/20/
045390/20130222/91758/1800/6000/20/
045390/20130222/91801/1800/101/20/
045390/20130222/91803/1800/1008/20/
045390/20130222/91803/1800/383/20/
045390/20130222/91805/1800/1009/20/
045390/20130222/91806/1800/1002/20/
045390/20130222/91807/1800/244/20/
045390/20130222/91808/1800/1009/20/
045390/20130222/91809/1800/339/20/
045390/20130222/91810/1800/303/20/
045390/20130222/91810/1800/210/20/
045390/20130222/91816/1800/106/20/
045390/20130222/91820/1800/231/20/
045390/20130222/91821/1800/1004/20/
045390/20130222/91822/1800/303/20/
045390/20130222/91825/1800/97/20/
045390/20130222/91831/1800/111/20/
045390/20130222/91833/1800/1013/20/
045390/20130222/91834/1800/1505/20/
045390/20130222/91836/1800/309/20/
045390/20130222/91837/1800/102/20/
045390/20130222/91837/1800/279/20/
045390/20130222/91838/1800/1007/20/
045390/20130222/91841/1800/339/20/
045390/20130222/91842/1800/404/20/
045390/20130222/91842/1800/675/20/
045390/20130222/91843/1800/113/20/
045390/20130222/91843/1800/500/20/
045390/20130222/91845/1800/601/20/
045390/20130222/91846/1800/92/20/
045390/20130222/91846/1800/2779/20/
045390/20130222/91847/1800/624/20/
045390/20130222/91848/1800/502/20/
045390/20130222/91850/1795/10054/10/
045390/20130222/91850/1795/249/10/
045390/20130222/91851/1795/3833/10/
045390/20130222/91851/1795/18205/10/
045390/20130222/91851/1790/3062/10/
045390/20130222/91853/1790/249/10/
045390/20130222/91856/1800/2169/20/
045390/20130222/91859/1800/769/20/
045390/20130222/91902/1795/127/20/
045390/20130222/91904/1795/373/20/
045390/20130222/91906/1795/141/10/
045390/20130222/91909/1795/119/20/
045390/20130222/91912/1795/1004/20/
045390/20130222/91916/1795/89/20/
045390/20130222/91917/1795/1500/20/
045390/20130222/91921/1795/100/20/
045390/20130222/91922/1795/5000/20/
045390/20130222/91923/1795/505/20/
045390/20130222/91923/1795/304/20/
045390/20130222/91923/1795/500/20/
045390/20130222/91924/1795/100/20/
045390/20130222/91924/1795/1663/20/
045390/20130222/91927/1795/90/20/
045390/20130222/91928/1795/1148/20/
045390/20130222/91930/1795/90/20/
045390/20130222/91931/1795/89/20/
045390/20130222/91931/1795/368/20/
045390/20130222/91932/1790/3036/10/
045390/20130222/91934/1795/154/20/
045390/20130222/91937/1790/2572/10/
045390/20130222/91937/1795/3703/20/
045390/20130222/91939/1795/230/20/
045390/20130222/91940/1795/2000/20/
045390/20130222/91943/1795/572/20/
045390/20130222/91943/1795/4536/20/
045390/20130222/91944/1800/536/20/
045390/20130222/91946/1800/126/20/
045390/20130222/91946/1800/2818/20/
045390/20130222/91949/1800/91/20/
045390/20130222/91953/1800/81/20/
045390/20130222/91956/1800/614/20/
045390/20130222/91959/1800/3048/20/
045390/20130222/92001/1800/1541/20/
045390/20130222/92006/1795/3420/10/
045390/20130222/92009/1795/2198/10/
045390/20130222/92010/1795/204/10/
045390/20130222/92010/1795/504/10/
045390/20130222/92018/1795/8040/10/
045390/20130222/92022/1795/308/10/
045390/20130222/92026/1795/515/10/
045390/20130222/92028/1795/1400/10/
045390/20130222/92033/1795/2000/10/
045390/20130222/92037/1795/862/10/
045390/20130222/92038/1795/1000/10/
045390/20130222/92047/1795/2286/10/
045390/20130222/92104/1795/5000/20/
045390/20130222/92110/1795/5050/20/
045390/20130222/92114/1795/500/20/
045390/20130222/92124/1795/236/20/
045390/20130222/92127/1795/12366/20/
045390/20130222/92129/1795/2393/20/
045390/20130222/92130/1795/2781/10/
045390/20130222/92135/1800/88/20/
045390/20130222/92136/1795/1044/10/
045390/20130222/92141/1800/85/20/
045390/20130222/92143/1800/314/20/
045390/20130222/92150/1800/88/20/
045390/20130222/92151/1800/1033/20/
045390/20130222/92154/1800/233/20/
045390/20130222/92158/1800/88/20/
045390/20130222/92158/1800/10375/20/
045390/20130222/92159/1800/1285/20/
045390/20130222/92159/1800/1677/20/
045390/20130222/92200/1800/765/20/
045390/20130222/92200/1795/280/10/
045390/20130222/92200/1800/211/20/
045390/20130222/92202/1800/2022/20/
045390/20130222/92202/1800/1015/20/
045390/20130222/92204/1800/1207/20/
045390/20130222/92206/1800/3022/20/
045390/20130222/92207/1800/110/20/
045390/20130222/92207/1800/111/20/
045390/20130222/92213/1800/88/20/
045390/20130222/92218/1800/88/20/
045390/20130222/92229/1795/828/10/
045390/20130222/92230/1800/200/20/
045390/20130222/92234/1795/515/10/
045390/20130222/92235/1795/314/10/
045390/20130222/92244/1800/527/20/
045390/20130222/92254/1800/2917/20/
045390/20130222/92259/1800/3623/20/
045390/20130222/92301/1800/1006/20/
045390/20130222/92322/1800/269/20/
045390/20130222/92324/1800/1001/20/
045390/20130222/92335/1800/1055/20/
045390/20130222/92350/1800/90/20/
045390/20130222/92352/1800/170/20/
045390/20130222/92356/1795/1021/10/
045390/20130222/92410/1800/131/20/
045390/20130222/92417/1800/103/20/
045390/20130222/92433/1795/3028/10/
045390/20130222/92438/1800/102/20/
045390/20130222/92439/1795/4000/10/
045390/20130222/92440/1795/2000/10/
045390/20130222/92441/1795/4052/10/
045390/20130222/92442/1795/304/10/
045390/20130222/92445/1800/1876/20/
045390/20130222/92449/1795/390/10/
045390/20130222/92450/1795/1700/10/
045390/20130222/92452/1795/2000/10/
045390/20130222/92454/1795/2000/10/
045390/20130222/92454/1795/2000/10/
045390/20130222/92455/1795/200/10/
045390/20130222/92456/1795/150/10/
045390/20130222/92458/1795/1666/10/
045390/20130222/92459/1795/200/20/
045390/20130222/92501/1790/1007/10/
045390/20130222/92510/1790/2000/10/
045390/20130222/92513/1790/10000/10/
045390/20130222/92515/1790/468/10/
045390/20130222/92522/1795/1004/20/
045390/20130222/92526/1795/1002/20/
045390/20130222/92534/1795/861/20/
045390/20130222/92534/1795/487/20/
045390/20130222/92535/1795/1032/20/
045390/20130222/92544/1795/104/20/
045390/20130222/92549/1795/1002/20/
045390/20130222/92550/1795/4792/20/
045390/20130222/92552/1795/5000/10/
045390/20130222/92602/1795/3003/10/
045390/20130222/92613/1800/2006/20/
045390/20130222/92625/1795/100/10/
045390/20130222/92627/1795/2583/10/
045390/20130222/92629/1795/4027/20/
045390/20130222/92645/1795/507/10/
045390/20130222/92702/1795/2032/10/
045390/20130222/92705/1795/773/10/
045390/20130222/92706/1795/300/10/
045390/20130222/92711/1795/151/10/
045390/20130222/92729/1795/1951/20/
045390/20130222/92731/1795/757/10/
045390/20130222/92733/1795/995/20/
045390/20130222/92735/1795/3002/10/
045390/20130222/92735/1795/155/10/
045390/20130222/92735/1795/997/10/
045390/20130222/92736/1795/878/20/
045390/20130222/92741/1795/204/10/
045390/20130222/92742/1795/126/10/
045390/20130222/92750/1795/508/10/
045390/20130222/92756/1795/506/10/
045390/20130222/92757/1800/500/20/
045390/20130222/92808/1795/242/10/
045390/20130222/92814/1795/972/10/
045390/20130222/92829/1795/548/10/
045390/20130222/92843/1795/502/10/
045390/20130222/92849/1795/1000/10/
045390/20130222/92857/1795/222/20/
045390/20130222/92901/1795/1778/20/
045390/20130222/92902/1795/458/10/
045390/20130222/92904/1795/1503/10/
045390/20130222/92905/1795/465/10/
045390/20130222/92905/1790/809/10/
045390/20130222/92906/1790/204/10/
045390/20130222/92915/1795/512/20/
045390/20130222/92920/1795/7497/20/
045390/20130222/92923/1795/116/10/
045390/20130222/92931/1795/165/10/
045390/20130222/92939/1795/2844/10/
045390/20130222/92939/1790/872/10/
045390/20130222/92949/1795/210/20/
045390/20130222/92954/1795/230/20/
045390/20130222/93003/1795/603/20/
045390/20130222/93007/1795/126/20/
045390/20130222/93046/1790/1063/10/
045390/20130222/93054/1790/9357/10/
045390/20130222/93100/1790/664/20/
045390/20130222/93100/1795/6336/20/
045390/20130222/93106/1795/201/20/
045390/20130222/93107/1795/2412/20/
045390/20130222/93128/1790/8049/10/
045390/20130222/93133/1790/1100/10/
045390/20130222/93135/1790/790/10/
045390/20130222/93135/1785/662/10/
045390/20130222/93136/1790/1000/20/
045390/20130222/93142/1790/300/20/
045390/20130222/93147/1790/991/20/
045390/20130222/93207/1790/1024/20/
045390/20130222/93208/1790/960/20/
045390/20130222/93223/1785/4008/10/
045390/20130222/93246/1790/85/20/
045390/20130222/93248/1790/515/20/
045390/20130222/93259/1790/85/20/
045390/20130222/93303/1790/1125/20/
045390/20130222/93308/1790/1035/20/
045390/20130222/93311/1790/525/20/
045390/20130222/93313/1790/3010/20/
045390/20130222/93322/1790/230/20/
045390/20130222/93323/1790/333/20/
045390/20130222/93328/1790/202/10/
045390/20130222/93334/1790/2035/20/
045390/20130222/93337/1790/215/20/
045390/20130222/93349/1790/85/20/
045390/20130222/93350/1785/10584/10/
045390/20130222/93435/1790/505/20/
045390/20130222/93449/1790/101/20/
045390/20130222/93506/1785/225/10/
045390/20130222/93515/1785/1122/10/
045390/20130222/93528/1785/3014/10/
045390/20130222/93530/1785/5000/10/
045390/20130222/93537/1785/404/10/
045390/20130222/93542/1785/301/10/
045390/20130222/93544/1790/200/20/
045390/20130222/93547/1785/2000/10/
045390/20130222/93547/1780/2044/10/
045390/20130222/93558/1780/340/10/
045390/20130222/93605/1780/500/10/
045390/20130222/93606/1780/10375/10/
045390/20130222/93610/1780/1000/10/
045390/20130222/93614/1780/7931/10/
045390/20130222/93615/1780/2181/10/
045390/20130222/93615/1780/996/10/
045390/20130222/93616/1780/886/10/
045390/20130222/93616/1780/200/10/
045390/20130222/93617/1780/2091/10/
045390/20130222/93617/1775/170/10/
045390/20130222/93617/1775/1000/10/
045390/20130222/93618/1775/512/10/
045390/20130222/93624/1775/814/10/
045390/20130222/93629/1780/1000/20/
045390/20130222/93634/1775/200/10/
045390/20130222/93651/1780/204/20/
045390/20130222/93652/1780/100/20/
045390/20130222/93653/1780/1381/20/
045390/20130222/93658/1780/3000/20/
045390/20130222/93659/1780/100/20/
045390/20130222/93703/1780/3000/20/
045390/20130222/93705/1780/3000/20/
045390/20130222/93706/1780/100/20/
045390/20130222/93708/1780/2000/20/
045390/20130222/93711/1780/500/20/
045390/20130222/93712/1780/100/20/
045390/20130222/93714/1780/224/20/
045390/20130222/93715/1780/956/20/
045390/20130222/93715/1775/300/10/
045390/20130222/93716/1780/90/20/
045390/20130222/93717/1780/250/20/
045390/20130222/93724/1780/8932/20/
045390/20130222/93725/1780/1981/20/
045390/20130222/93730/1780/6661/10/
045390/20130222/93731/1780/464/20/
045390/20130222/93731/1780/90/20/
045390/20130222/93734/1780/2786/20/
045390/20130222/93753/1780/463/10/
045390/20130222/93753/1780/800/10/
045390/20130222/93816/1785/157/20/
045390/20130222/93853/1785/110/20/
045390/20130222/93904/1785/100/20/
045390/20130222/93914/1785/560/20/
045390/20130222/93922/1785/1000/20/
045390/20130222/93925/1785/3000/20/
045390/20130222/93927/1780/700/10/
045390/20130222/93946/1780/202/10/
045390/20130222/93949/1780/21808/10/
045390/20130222/94004/1780/104/20/
045390/20130222/94016/1780/2400/20/
045390/20130222/94019/1780/100/20/
045390/20130222/94022/1780/946/20/
045390/20130222/94049/1780/575/20/
045390/20130222/94052/1780/959/20/
045390/20130222/94052/1775/500/10/
045390/20130222/94053/1780/1501/20/
045390/20130222/94054/1780/200/20/
045390/20130222/94055/1780/561/20/
045390/20130222/94103/1780/1002/20/
045390/20130222/94103/1780/927/20/
045390/20130222/94115/1780/618/20/
045390/20130222/94125/1780/353/20/
045390/20130222/94128/1780/649/10/
045390/20130222/94153/1780/725/20/
045390/20130222/94158/1780/1000/20/
045390/20130222/94211/1780/110/20/
045390/20130222/94218/1780/110/20/
045390/20130222/94222/1780/510/20/
045390/20130222/94229/1780/572/20/
045390/20130222/94230/1780/300/10/
045390/20130222/94234/1780/188/10/
045390/20130222/94253/1780/110/20/
045390/20130222/94257/1780/880/20/
045390/20130222/94305/1780/227/10/
045390/20130222/94309/1775/1425/10/
045390/20130222/94323/1775/1816/10/
045390/20130222/94329/1775/142/10/
045390/20130222/94338/1775/1000/10/
045390/20130222/94413/1780/1062/20/
045390/20130222/94421/1780/529/20/
045390/20130222/94422/1780/1000/20/
045390/20130222/94426/1780/310/20/
045390/20130222/94428/1780/1000/20/
045390/20130222/94437/1780/1035/20/
045390/20130222/94439/1780/3000/20/
045390/20130222/94439/1775/187/10/
045390/20130222/94445/1780/276/20/
045390/20130222/94457/1780/1080/20/
045390/20130222/94458/1780/300/20/
045390/20130222/94459/1780/570/20/
045390/20130222/94511/1780/1070/20/
045390/20130222/94514/1780/2928/20/
045390/20130222/94531/1785/4601/20/
045390/20130222/94652/1785/520/20/
045390/20130222/94708/1780/1000/10/
045390/20130222/94717/1780/313/10/
045390/20130222/94723/1780/3010/10/
045390/20130222/94730/1780/1000/10/
045390/20130222/94815/1785/85/20/
045390/20130222/94822/1785/422/20/
045390/20130222/94836/1785/84/20/
045390/20130222/94847/1785/1001/20/
045390/20130222/94853/1780/1455/10/
045390/20130222/94858/1780/2804/10/
045390/20130222/94859/1780/2310/10/
045390/20130222/94901/1785/520/20/
045390/20130222/94911/1785/85/20/
045390/20130222/94916/1785/140/20/
045390/20130222/94927/1785/85/20/
045390/20130222/94941/1785/280/20/
045390/20130222/94942/1785/5000/20/
045390/20130222/94944/1785/200/20/
045390/20130222/94945/1785/2000/20/
045390/20130222/94946/1785/500/20/
045390/20130222/94947/1785/1005/20/
045390/20130222/94947/1785/100/20/
045390/20130222/94958/1785/85/20/
045390/20130222/95001/1785/2383/20/
045390/20130222/95004/1785/225/20/
045390/20130222/95019/1785/81/20/
045390/20130222/95031/1785/105/20/
045390/20130222/95033/1785/100/20/
045390/20130222/95105/1785/270/20/
045390/20130222/95114/1785/247/20/
045390/20130222/95118/1780/11240/10/
045390/20130222/95119/1785/700/20/
045390/20130222/95125/1785/100/20/
045390/20130222/95139/1785/560/20/
045390/20130222/95315/1780/2948/10/
045390/20130222/95322/1780/10000/10/
045390/20130222/95324/1785/1540/20/
045390/20130222/95339/1785/475/20/
045390/20130222/95424/1780/4000/10/
045390/20130222/95452/1780/500/10/
045390/20130222/95529/1780/500/10/
045390/20130222/95531/1780/2000/10/
045390/20130222/95540/1780/2500/10/
045390/20130222/95551/1780/100/10/
045390/20130222/95554/1780/255/10/
045390/20130222/95556/1780/2387/10/
045390/20130222/95627/1780/250/20/
045390/20130222/95638/1780/500/20/
045390/20130222/95647/1780/172/20/
045390/20130222/95705/1785/101/20/
045390/20130222/95716/1780/2001/10/
045390/20130222/95741/1780/5503/10/
045390/20130222/95750/1780/500/20/
045390/20130222/95752/1780/1000/20/
045390/20130222/95802/1780/203/20/
045390/20130222/95913/1780/1498/10/
045390/20130222/95913/1775/1075/10/
045390/20130222/95935/1780/500/20/
045390/20130222/95956/1780/243/10/
045390/20130222/100013/1780/100/20/
045390/20130222/100015/1780/200/20/
045390/20130222/100015/1780/3307/20/
045390/20130222/100036/1780/2000/10/
045390/20130222/100309/1780/1000/10/
045390/20130222/100314/1780/7777/10/
045390/20130222/100316/1780/5000/10/
045390/20130222/100316/1780/3155/10/
045390/20130222/100349/1780/5000/20/
045390/20130222/100412/1780/1020/20/
045390/20130222/100412/1780/1000/20/
045390/20130222/100413/1780/800/20/
045390/20130222/100415/1780/138/20/
045390/20130222/100515/1780/235/10/
045390/20130222/100627/1780/615/10/
045390/20130222/100705/1780/2602/10/
045390/20130222/100707/1780/100/10/
045390/20130222/100711/1780/1001/10/
045390/20130222/100718/1780/501/10/
045390/20130222/100722/1780/500/10/
045390/20130222/100725/1780/1000/10/
045390/20130222/100725/1780/900/10/
045390/20130222/100735/1780/2903/10/
045390/20130222/100807/1775/244/10/
045390/20130222/100818/1775/5001/10/
045390/20130222/100825/1775/1564/10/
045390/20130222/100849/1780/563/20/
045390/20130222/100852/1780/2000/20/
045390/20130222/100927/1780/328/20/
045390/20130222/100929/1780/700/20/
045390/20130222/100933/1780/839/20/
045390/20130222/101008/1780/100/10/
045390/20130222/101152/1785/1201/20/
045390/20130222/101233/1780/100/10/
045390/20130222/101416/1780/539/10/
045390/20130222/101520/1780/8388/10/
045390/20130222/101520/1775/6514/10/
045390/20130222/101604/1780/251/20/
045390/20130222/101728/1775/3060/10/
045390/20130222/101914/1780/7862/20/
045390/20130222/101936/1775/83/10/
045390/20130222/101942/1780/2554/20/
045390/20130222/101945/1780/3400/20/
045390/20130222/101948/1780/1000/20/
045390/20130222/101948/1780/230/20/
045390/20130222/101949/1780/812/20/
045390/20130222/101951/1780/500/10/
045390/20130222/102103/1780/3026/10/
045390/20130222/102126/1780/404/10/
045390/20130222/102136/1780/241/10/
045390/20130222/102137/1780/2000/10/
045390/20130222/102237/1785/299/20/
045390/20130222/102247/1785/922/20/
045390/20130222/102248/1785/1000/20/
045390/20130222/102309/1785/1000/20/
045390/20130222/102430/1785/500/20/
045390/20130222/102546/1780/550/10/
045390/20130222/102603/1780/303/10/
045390/20130222/102625/1780/525/10/
045390/20130222/102722/1780/300/10/
045390/20130222/102746/1780/3220/10/
045390/20130222/102836/1780/2624/10/
045390/20130222/102859/1780/1579/20/
045390/20130222/102926/1780/120/10/
045390/20130222/102954/1780/4753/10/
045390/20130222/103013/1780/213/20/
045390/20130222/103023/1780/112/10/
045390/20130222/103243/1780/1525/10/
045390/20130222/103247/1780/250/10/
045390/20130222/103249/1780/500/10/
045390/20130222/103258/1780/250/10/
045390/20130222/103308/1780/923/10/
045390/20130222/103324/1780/201/10/
045390/20130222/103331/1780/2843/10/
045390/20130222/103347/1780/3325/10/
045390/20130222/103356/1780/1001/10/
045390/20130222/103704/1780/147/10/
045390/20130222/103815/1785/102/20/
045390/20130222/103917/1780/1921/10/
045390/20130222/104013/1785/2066/20/
045390/20130222/104027/1785/464/20/
045390/20130222/104257/1780/136/10/
045390/20130222/104310/1780/131/10/
045390/20130222/104325/1780/132/10/
045390/20130222/104338/1780/2415/10/
045390/20130222/104423/1780/367/10/
045390/20130222/104635/1780/672/10/
045390/20130222/104636/1780/404/10/
045390/20130222/104712/1780/10001/10/
045390/20130222/104729/1780/151/10/
045390/20130222/104758/1785/201/20/
045390/20130222/104759/1780/430/10/
045390/20130222/104832/1780/625/10/
045390/20130222/104843/1780/349/10/
045390/20130222/104850/1780/2668/10/
045390/20130222/104853/1780/373/10/
045390/20130222/104856/1780/410/10/
045390/20130222/104903/1785/286/20/
045390/20130222/104930/1780/1938/10/
045390/20130222/105039/1785/1180/20/
045390/20130222/105200/1780/1001/10/
045390/20130222/105204/1780/713/10/
045390/20130222/105214/1780/501/10/
045390/20130222/105221/1780/501/10/
045390/20130222/105355/1780/1706/10/
045390/20130222/105357/1780/1000/20/
045390/20130222/105523/1780/275/10/
045390/20130222/105526/1780/743/20/
045390/20130222/105715/1780/3010/10/
045390/20130222/105743/1780/1261/10/
045390/20130222/105751/1780/740/20/
045390/20130222/105833/1780/501/10/
045390/20130222/105905/1780/9001/10/
045390/20130222/110014/1780/230/10/
045390/20130222/110132/1780/4612/20/
045390/20130222/110134/1780/1759/10/
045390/20130222/110201/1775/3004/10/
045390/20130222/110242/1780/129/20/
045390/20130222/110327/1780/2021/20/
045390/20130222/110328/1780/3317/20/
045390/20130222/110338/1780/271/20/
045390/20130222/110402/1780/2003/10/
045390/20130222/110537/1780/133/10/
045390/20130222/110600/1780/1414/10/
045390/20130222/110643/1780/628/20/
045390/20130222/110703/1780/1076/20/
045390/20130222/110747/1780/322/20/
045390/20130222/110754/1780/139/20/
045390/20130222/110918/1780/86/10/
045390/20130222/111246/1785/2051/20/
045390/20130222/111312/1785/48540/20/
045390/20130222/111449/1790/1146/20/
045390/20130222/111455/1790/300/20/
045390/20130222/111509/1790/100/20/
045390/20130222/111521/1790/1711/20/
045390/20130222/111526/1790/100/20/
045390/20130222/111540/1790/100/20/
045390/20130222/111700/1790/190/20/
045390/20130222/111730/1785/163/10/
045390/20130222/111735/1785/4000/10/
045390/20130222/111747/1790/3081/20/
045390/20130222/111821/1790/310/20/
045390/20130222/111952/1790/2055/20/
045390/20130222/112008/1790/100/20/
045390/20130222/112028/1790/279/20/
045390/20130222/112112/1790/586/20/
045390/20130222/112206/1785/1000/10/
045390/20130222/112212/1790/485/20/
045390/20130222/112228/1790/120/20/
045390/20130222/112246/1785/3000/10/
045390/20130222/112343/1790/500/20/
045390/20130222/112404/1785/20001/10/
045390/20130222/112417/1785/2000/10/
045390/20130222/112427/1785/12000/10/
045390/20130222/112429/1785/500/10/
045390/20130222/112441/1785/900/10/
045390/20130222/112507/1785/1001/10/
045390/20130222/112513/1785/5625/10/
045390/20130222/112550/1780/15000/10/
045390/20130222/112556/1780/1000/10/
045390/20130222/112810/1785/2105/20/
045390/20130222/112816/1785/224/20/
045390/20130222/112837/1785/94/20/
045390/20130222/112918/1785/2064/20/
045390/20130222/113011/1790/1021/20/
045390/20130222/113335/1785/3160/10/
045390/20130222/113714/1780/1031/10/
045390/20130222/113728/1780/3000/10/
045390/20130222/113742/1780/1000/10/
045390/20130222/113803/1780/10046/10/
045390/20130222/113929/1780/2306/10/
045390/20130222/114001/1780/1000/10/
045390/20130222/114113/1780/3001/10/
045390/20130222/114146/1780/556/10/
045390/20130222/114200/1780/445/20/
045390/20130222/114206/1780/105/10/
045390/20130222/114217/1780/1795/20/
045390/20130222/114218/1780/162/10/
045390/20130222/114239/1780/293/20/
045390/20130222/114311/1780/785/20/
045390/20130222/114315/1780/560/10/
045390/20130222/114334/1780/510/10/
045390/20130222/114420/1785/208/20/
045390/20130222/114436/1780/2502/10/
045390/20130222/114441/1780/500/10/
045390/20130222/114539/1780/5300/10/
045390/20130222/114544/1780/522/20/
045390/20130222/114613/1780/85/20/
045390/20130222/114624/1780/93/20/
045390/20130222/114635/1780/465/10/
045390/20130222/114654/1780/100/20/
045390/20130222/114756/1775/11435/10/
045390/20130222/115037/1780/2051/20/
045390/20130222/115108/1780/90/20/
045390/20130222/115254/1780/546/10/
045390/20130222/115258/1780/458/10/
045390/20130222/115405/1780/2120/10/
045390/20130222/115526/1780/625/20/
045390/20130222/115737/1780/461/20/
045390/20130222/115809/1785/560/20/
045390/20130222/115811/1780/266/10/
045390/20130222/115817/1785/300/20/
045390/20130222/115820/1785/100/20/
045390/20130222/115826/1780/500/10/
045390/20130222/115912/1780/2800/10/
045390/20130222/115950/1780/1000/10/
045390/20130222/120020/1785/500/20/
045390/20130222/120051/1785/210/20/
045390/20130222/120112/1785/584/20/
045390/20130222/120130/1780/228/10/
045390/20130222/120351/1785/259/20/
045390/20130222/120352/1785/188/20/
045390/20130222/120407/1780/3050/10/
045390/20130222/120549/1785/130/20/
045390/20130222/120937/1780/600/10/
045390/20130222/121112/1780/272/10/
045390/20130222/121210/1780/221/10/
045390/20130222/121252/1780/10000/10/
045390/20130222/121258/1780/9746/10/
045390/20130222/121639/1780/90/20/
045390/20130222/121829/1780/250/20/
045390/20130222/121901/1780/189/20/
045390/20130222/121909/1780/100/20/
045390/20130222/121933/1775/5000/10/
045390/20130222/121938/1775/3440/10/
045390/20130222/121939/1780/1000/20/
045390/20130222/121954/1780/1000/20/
045390/20130222/122004/1780/3172/20/
045390/20130222/122048/1780/195/20/
045390/20130222/122128/1780/112/20/
045390/20130222/122215/1775/1200/10/
045390/20130222/122425/1780/1069/20/
045390/20130222/122456/1780/3577/20/
045390/20130222/122504/1780/130/10/
045390/20130222/122519/1780/300/10/
045390/20130222/122544/1780/3411/10/
045390/20130222/122608/1780/100/20/
045390/20130222/122747/1775/2003/10/
045390/20130222/122836/1775/15489/10/
045390/20130222/123122/1780/1554/20/
045390/20130222/123153/1780/3000/20/
045390/20130222/123220/1775/1000/10/
045390/20130222/123238/1775/181/10/
045390/20130222/123247/1775/9058/10/
045390/20130222/123256/1775/100/20/
045390/20130222/123302/1770/1013/10/
045390/20130222/123302/1770/563/10/
045390/20130222/123319/1775/1129/20/
045390/20130222/123502/1775/95/10/
045390/20130222/123544/1775/450/10/
045390/20130222/123550/1775/5000/10/
045390/20130222/123651/1775/170/10/
045390/20130222/123713/1775/1001/10/
045390/20130222/123820/1775/1121/10/
045390/20130222/123842/1770/5469/10/
045390/20130222/123918/1770/3869/10/
045390/20130222/123923/1770/38017/10/
045390/20130222/123925/1770/1668/10/
045390/20130222/123929/1765/628/10/
045390/20130222/123929/1765/859/10/
045390/20130222/123953/1765/13440/10/
045390/20130222/124005/1765/21339/10/
045390/20130222/124006/1765/4735/10/
045390/20130222/124010/1765/201/20/
045390/20130222/124013/1765/413/20/
045390/20130222/124105/1775/100/20/
045390/20130222/124135/1775/150/20/
045390/20130222/124155/1775/500/20/
045390/20130222/124213/1775/200/20/
045390/20130222/124504/1770/4250/10/
045390/20130222/124504/1765/15850/10/
045390/20130222/124550/1765/10485/10/
045390/20130222/124553/1765/277/10/
045390/20130222/124718/1765/101/10/
045390/20130222/124723/1765/1914/10/
045390/20130222/124911/1765/3376/10/
045390/20130222/124911/1760/28216/10/
045390/20130222/124911/1760/300/10/
045390/20130222/124920/1765/570/10/
045390/20130222/124942/1765/500/10/
045390/20130222/124953/1765/700/10/
045390/20130222/124956/1765/1413/10/
045390/20130222/124958/1765/1000/20/
045390/20130222/125034/1765/3858/20/
045390/20130222/125037/1765/100/10/
045390/20130222/125147/1770/1443/20/
045390/20130222/125346/1770/101/20/
045390/20130222/125433/1770/704/20/
045390/20130222/125441/1770/500/20/
045390/20130222/125513/1770/557/20/
045390/20130222/125602/1770/936/20/
045390/20130222/125619/1770/1474/20/
045390/20130222/125655/1775/588/20/
045390/20130222/125708/1770/200/10/
045390/20130222/125755/1770/2201/10/
045390/20130222/125813/1770/100/20/
045390/20130222/125824/1770/500/20/
045390/20130222/125847/1770/320/20/
045390/20130222/125859/1770/100/20/
045390/20130222/125933/1770/82/20/
045390/20130222/130025/1770/1919/10/
045390/20130222/130027/1770/2000/20/
045390/20130222/130032/1770/500/20/
045390/20130222/130039/1770/300/20/
045390/20130222/130042/1770/200/20/
045390/20130222/130144/1765/1310/10/
045390/20130222/130146/1770/230/20/
045390/20130222/130154/1770/300/20/
045390/20130222/130210/1770/542/20/
045390/20130222/130212/1770/459/20/
045390/20130222/130222/1770/86/20/
045390/20130222/130426/1770/190/10/
045390/20130222/130452/1770/200/10/
045390/20130222/130506/1770/1443/10/
045390/20130222/130523/1770/1100/10/
045390/20130222/130618/1770/282/10/
045390/20130222/130650/1770/10000/10/
045390/20130222/130703/1775/1000/20/
045390/20130222/130737/1770/100/10/
045390/20130222/130940/1775/91/20/
045390/20130222/131107/1775/778/20/
045390/20130222/131133/1775/644/20/
045390/20130222/131354/1775/1000/20/
045390/20130222/131513/1775/150/20/
045390/20130222/131529/1775/600/20/
045390/20130222/131543/1775/4030/20/
045390/20130222/131608/1780/4069/20/
045390/20130222/131722/1780/100/20/
045390/20130222/131820/1780/610/20/
045390/20130222/131842/1780/1000/20/
045390/20130222/131851/1775/4989/10/
045390/20130222/131951/1775/1894/10/
045390/20130222/132155/1770/227/10/
045390/20130222/132206/1775/100/20/
045390/20130222/132306/1775/84/20/
045390/20130222/132606/1775/5001/10/
045390/20130222/132950/1780/95/20/
045390/20130222/133024/1775/1479/10/
045390/20130222/133222/1775/500/20/
045390/20130222/133244/1775/174/20/
045390/20130222/133423/1770/1595/10/
045390/20130222/133525/1770/4737/10/
045390/20130222/133541/1770/500/10/
045390/20130222/133542/1770/800/10/
045390/20130222/133601/1770/10663/10/
045390/20130222/133646/1765/356/10/
045390/20130222/133706/1765/1106/10/
045390/20130222/133707/1770/100/20/
045390/20130222/133740/1765/3920/10/
045390/20130222/133743/1765/6005/10/
045390/20130222/133747/1765/100/10/
045390/20130222/133751/1765/350/10/
045390/20130222/133801/1765/584/10/
045390/20130222/133812/1765/1663/10/
045390/20130222/133831/1765/1008/10/
045390/20130222/133835/1765/497/10/
045390/20130222/133844/1765/103/20/
045390/20130222/133910/1770/96/20/
045390/20130222/133930/1770/500/20/
045390/20130222/133959/1770/300/20/
045390/20130222/134050/1765/290/10/
045390/20130222/134112/1770/192/20/
045390/20130222/134113/1765/100/10/
045390/20130222/134117/1770/192/20/
045390/20130222/134151/1765/1000/10/
045390/20130222/134311/1765/100/10/
045390/20130222/134337/1765/2400/10/
045390/20130222/134354/1765/5003/10/
045390/20130222/134423/1770/304/20/
045390/20130222/134430/1765/2000/10/
045390/20130222/134442/1765/1398/10/
045390/20130222/134510/1765/130/20/
045390/20130222/134530/1765/500/20/
045390/20130222/134534/1765/1000/20/
045390/20130222/134534/1765/2000/20/
045390/20130222/134536/1765/380/20/
045390/20130222/134553/1765/4000/10/
045390/20130222/134601/1765/271/10/
045390/20130222/134635/1765/2039/10/
045390/20130222/134700/1765/1000/10/
045390/20130222/134707/1765/800/10/
045390/20130222/134712/1765/100/10/
045390/20130222/134750/1765/3047/10/
045390/20130222/134806/1765/1000/20/
045390/20130222/134848/1765/260/20/
045390/20130222/134923/1765/741/20/
045390/20130222/134928/1760/20200/10/
045390/20130222/135036/1760/743/10/
045390/20130222/135109/1760/900/10/
045390/20130222/135150/1765/2981/20/
045390/20130222/135214/1765/165/20/
045390/20130222/135302/1770/302/20/
045390/20130222/135308/1770/800/20/
045390/20130222/135324/1770/1000/20/
045390/20130222/135335/1770/430/20/
045390/20130222/135340/1770/200/20/
045390/20130222/135503/1770/310/20/
045390/20130222/135540/1765/1411/10/
045390/20130222/135620/1765/100/10/
045390/20130222/135648/1765/5000/10/
045390/20130222/135655/1765/2000/10/
045390/20130222/135708/1765/1000/10/
045390/20130222/135718/1765/2000/10/
045390/20130222/135755/1770/1001/20/
045390/20130222/135818/1770/1000/20/
045390/20130222/135824/1770/1000/20/
045390/20130222/135826/1770/1548/20/
045390/20130222/135850/1770/500/20/
045390/20130222/135907/1770/2585/20/
045390/20130222/135914/1770/2000/20/
045390/20130222/135916/1770/100/20/
045390/20130222/135918/1770/803/20/
045390/20130222/135949/1775/4964/20/
045390/20130222/140011/1775/816/10/
045390/20130222/140011/1780/500/20/
045390/20130222/140043/1775/1386/10/
045390/20130222/140043/1775/2722/10/
045390/20130222/140050/1775/500/10/
045390/20130222/140052/1775/500/10/
045390/20130222/140057/1775/118/10/
045390/20130222/140208/1775/82/20/
045390/20130222/140229/1775/500/10/
045390/20130222/140251/1775/418/10/
045390/20130222/140316/1775/82/20/
045390/20130222/140443/1775/332/10/
045390/20130222/140449/1775/5000/10/
045390/20130222/140505/1775/300/10/
045390/20130222/140615/1775/3333/10/
045390/20130222/140654/1775/2000/20/
045390/20130222/140942/1775/2978/20/
045390/20130222/140949/1770/5500/10/
045390/20130222/141039/1775/200/20/
045390/20130222/141055/1775/362/20/
045390/20130222/141133/1770/2000/10/
045390/20130222/141202/1770/102/10/
045390/20130222/141204/1770/10000/10/
045390/20130222/141306/1770/1001/10/
045390/20130222/141326/1770/4000/10/
045390/20130222/141454/1770/1017/10/
045390/20130222/141502/1770/223/10/
045390/20130222/141526/1770/1026/20/
045390/20130222/141526/1775/3974/20/
045390/20130222/141538/1775/171/20/
045390/20130222/141625/1775/4000/20/
045390/20130222/141705/1775/814/20/
045390/20130222/141711/1775/359/10/
045390/20130222/141824/1775/1027/20/
045390/20130222/141838/1775/355/20/
045390/20130222/142029/1775/2000/20/
045390/20130222/142109/1775/600/20/
045390/20130222/142130/1775/864/20/
045390/20130222/142243/1775/1000/10/
045390/20130222/142330/1775/164/10/
045390/20130222/142404/1775/162/10/
045390/20130222/142415/1775/2869/10/
045390/20130222/142428/1775/3247/10/
045390/20130222/142444/1775/1303/20/
045390/20130222/142447/1775/1247/10/
045390/20130222/142447/1770/753/10/
045390/20130222/142451/1775/3000/10/
045390/20130222/142556/1775/496/20/
045390/20130222/142557/1775/3000/20/
045390/20130222/142604/1775/2500/20/
045390/20130222/142609/1775/500/20/
045390/20130222/142612/1775/1000/20/
045390/20130222/142641/1775/337/20/
045390/20130222/142758/1775/6000/20/
045390/20130222/142817/1775/124/20/
045390/20130222/142844/1775/1001/10/
045390/20130222/143014/1775/310/10/
045390/20130222/143040/1775/1580/10/
045390/20130222/143046/1775/168/10/
045390/20130222/143101/1775/519/20/
045390/20130222/143106/1775/1000/20/
045390/20130222/143113/1775/538/20/
045390/20130222/143118/1775/851/10/
045390/20130222/143152/1775/120/10/
045390/20130222/143205/1775/2958/10/
045390/20130222/143212/1770/19906/10/
045390/20130222/143232/1770/208/20/
045390/20130222/143437/1775/6892/20/
045390/20130222/143453/1775/200/10/
045390/20130222/143457/1775/2909/10/
045390/20130222/143612/1775/1000/20/
045390/20130222/143653/1770/1000/10/
045390/20130222/143711/1770/4126/10/
045390/20130222/143747/1770/7003/10/
045390/20130222/143751/1770/900/10/
045390/20130222/144032/1770/10691/10/
045390/20130222/144057/1770/200/10/
045390/20130222/144105/1770/300/10/
045390/20130222/144118/1770/500/10/
045390/20130222/144121/1770/200/10/
045390/20130222/144134/1770/1000/10/
045390/20130222/144327/1770/7044/10/
045390/20130222/144346/1770/2507/10/
045390/20130222/144348/1770/3000/10/
045390/20130222/144359/1770/5000/10/
045390/20130222/144425/1770/1052/10/
045390/20130222/144426/1770/5253/10/
045390/20130222/144441/1770/550/10/
045390/20130222/144529/1775/500/20/
045390/20130222/144529/1770/100/10/
045390/20130222/144728/1770/100/10/
045390/20130222/144744/1770/1018/10/
045390/20130222/144819/1770/150/10/
045390/20130222/144833/1770/1002/10/
045390/20130222/144848/1770/10000/10/
045390/20130222/144852/1770/200/10/
045390/20130222/144901/1770/1250/10/
045390/20130222/144902/1770/400/10/
045390/20130222/144925/1770/2243/10/
045390/20130222/144944/1770/647/10/
045390/20130222/144952/1770/200/10/
045390/20130222/144956/1770/5593/10/
045390/20130222/150000/1780/127361/10/
