045390/20121128/90000/1630/7312/20/
045390/20121128/90002/1625/340/10/
045390/20121128/90002/1620/2160/10/
045390/20121128/90044/1620/1842/10/
045390/20121128/90046/1615/2400/10/
045390/20121128/90120/1620/304/20/
045390/20121128/90152/1615/3657/10/
045390/20121128/90223/1615/145/20/
045390/20121128/90242/1610/1000/10/
045390/20121128/90246/1610/6773/10/
045390/20121128/90300/1610/6012/20/
045390/20121128/90302/1610/3000/20/
045390/20121128/90303/1610/985/20/
045390/20121128/90303/1610/743/20/
045390/20121128/90410/1610/908/10/
045390/20121128/90411/1615/1238/20/
045390/20121128/90418/1615/1000/20/
045390/20121128/90427/1615/229/20/
045390/20121128/90441/1625/1000/20/
045390/20121128/90453/1625/268/20/
045390/20121128/90535/1625/100/20/
045390/20121128/90556/1620/2971/10/
045390/20121128/90603/1620/401/20/
045390/20121128/90612/1620/628/20/
045390/20121128/90632/1620/2684/10/
045390/20121128/90705/1620/521/10/
045390/20121128/90707/1620/6172/10/
045390/20121128/90713/1620/91/20/
045390/20121128/90721/1620/137/20/
045390/20121128/90749/1620/165/10/
045390/20121128/90809/1620/357/10/
045390/20121128/90809/1615/144/10/
045390/20121128/90827/1615/5001/10/
045390/20121128/90838/1615/1774/10/
045390/20121128/90844/1615/727/20/
045390/20121128/91030/1620/507/20/
045390/20121128/91056/1615/2002/10/
045390/20121128/91058/1620/81/20/
045390/20121128/91103/1615/1000/10/
045390/20121128/91125/1615/601/10/
045390/20121128/91136/1615/259/10/
045390/20121128/91140/1615/3232/20/
045390/20121128/91223/1615/1014/10/
045390/20121128/91240/1615/1006/10/
045390/20121128/91322/1615/2497/10/
045390/20121128/91355/1615/112/20/
045390/20121128/91411/1610/903/10/
045390/20121128/91444/1610/310/10/
045390/20121128/91503/1610/2513/10/
045390/20121128/91518/1615/2006/20/
045390/20121128/91519/1610/2200/10/
045390/20121128/91525/1610/472/10/
045390/20121128/91704/1610/4023/10/
045390/20121128/91706/1610/500/10/
045390/20121128/91715/1610/3639/10/
045390/20121128/91727/1610/1903/10/
045390/20121128/91741/1610/666/10/
045390/20121128/91813/1605/329/10/
045390/20121128/91925/1605/2736/10/
045390/20121128/91929/1605/19398/10/
045390/20121128/92110/1605/102/10/
045390/20121128/92111/1605/688/20/
045390/20121128/92125/1605/261/10/
045390/20121128/92134/1605/859/20/
045390/20121128/92150/1605/103/10/
045390/20121128/92155/1605/1002/10/
045390/20121128/92156/1605/1246/10/
045390/20121128/92230/1605/174/20/
045390/20121128/92233/1600/102/10/
045390/20121128/92236/1600/5392/10/
045390/20121128/92241/1600/1012/10/
045390/20121128/92243/1600/2001/10/
045390/20121128/92245/1595/4312/10/
045390/20121128/92245/1595/1869/10/
045390/20121128/92246/1595/100/20/
045390/20121128/92254/1595/5034/20/
045390/20121128/92303/1600/81/20/
045390/20121128/92310/1600/1420/20/
045390/20121128/92310/1600/634/10/
045390/20121128/92324/1600/507/10/
045390/20121128/92328/1600/1000/20/
045390/20121128/92331/1600/1000/20/
045390/20121128/92337/1600/2013/20/
045390/20121128/92342/1600/489/20/
045390/20121128/92350/1600/608/10/
045390/20121128/92357/1600/469/20/
045390/20121128/92357/1605/3533/20/
045390/20121128/92418/1600/2115/10/
045390/20121128/92432/1600/822/10/
045390/20121128/92438/1605/81/20/
045390/20121128/92445/1605/100/20/
045390/20121128/92510/1600/173/20/
045390/20121128/92518/1595/563/10/
045390/20121128/92538/1600/514/20/
045390/20121128/92544/1600/550/20/
045390/20121128/92601/1600/725/10/
045390/20121128/92601/1595/2276/10/
045390/20121128/92711/1600/2111/10/
045390/20121128/92729/1600/2198/10/
045390/20121128/92739/1600/105/20/
045390/20121128/92752/1595/1038/10/
045390/20121128/92755/1595/2452/10/
045390/20121128/92811/1595/623/10/
045390/20121128/92836/1595/2968/10/
045390/20121128/92837/1595/2614/10/
045390/20121128/92843/1595/110/20/
045390/20121128/92846/1595/1906/20/
045390/20121128/92847/1595/700/20/
045390/20121128/92853/1595/1043/20/
045390/20121128/92854/1595/1694/20/
045390/20121128/92856/1595/1000/10/
045390/20121128/92903/1595/2063/10/
045390/20121128/92921/1595/14012/10/
045390/20121128/92926/1595/577/10/
045390/20121128/92929/1595/514/20/
045390/20121128/93000/1595/1663/10/
045390/20121128/93005/1595/1001/10/
045390/20121128/93008/1595/7509/10/
045390/20121128/93015/1595/213/20/
045390/20121128/93038/1595/134/20/
045390/20121128/93040/1595/500/20/
045390/20121128/93043/1595/1010/20/
045390/20121128/93046/1595/2010/20/
045390/20121128/93047/1595/324/20/
045390/20121128/93050/1595/1779/10/
045390/20121128/93050/1590/12433/10/
045390/20121128/93051/1585/1437/10/
045390/20121128/93055/1585/3011/10/
045390/20121128/93101/1590/221/20/
045390/20121128/93112/1590/2255/20/
045390/20121128/93112/1585/996/10/
045390/20121128/93114/1590/300/20/
045390/20121128/93126/1585/1034/10/
045390/20121128/93129/1590/2011/20/
045390/20121128/93130/1590/10000/20/
045390/20121128/93131/1590/1000/20/
045390/20121128/93131/1590/1925/20/
045390/20121128/93132/1590/2000/10/
045390/20121128/93132/1590/200/10/
045390/20121128/93143/1595/81/20/
045390/20121128/93148/1595/712/20/
045390/20121128/93200/1595/91/20/
045390/20121128/93201/1590/3000/10/
045390/20121128/93201/1595/1116/20/
045390/20121128/93206/1595/1925/10/
045390/20121128/93212/1595/109/20/
045390/20121128/93231/1590/3011/10/
045390/20121128/93242/1595/85/20/
045390/20121128/93254/1595/765/20/
045390/20121128/93255/1590/516/10/
045390/20121128/93305/1595/81/20/
045390/20121128/93312/1595/108/20/
045390/20121128/93315/1595/445/20/
045390/20121128/93317/1595/1163/20/
045390/20121128/93319/1595/202/20/
045390/20121128/93321/1595/1002/20/
045390/20121128/93324/1595/82/20/
045390/20121128/93327/1600/81/20/
045390/20121128/93330/1600/90/20/
045390/20121128/93340/1600/83/20/
045390/20121128/93349/1600/86/20/
045390/20121128/93402/1600/82/20/
045390/20121128/93412/1595/401/10/
045390/20121128/93416/1595/4046/10/
045390/20121128/93420/1595/101/20/
045390/20121128/93446/1595/120/20/
045390/20121128/93507/1595/3370/10/
045390/20121128/93549/1595/1549/10/
045390/20121128/93603/1600/498/20/
045390/20121128/93619/1600/2001/20/
045390/20121128/93633/1595/340/10/
045390/20121128/93725/1600/3155/20/
045390/20121128/93727/1600/2500/20/
045390/20121128/93729/1600/500/20/
045390/20121128/93737/1600/1022/20/
045390/20121128/93742/1600/511/20/
045390/20121128/93750/1600/2012/20/
045390/20121128/93753/1600/995/20/
045390/20121128/93815/1605/3010/20/
045390/20121128/93838/1600/1655/10/
045390/20121128/93908/1600/1511/20/
045390/20121128/93909/1600/159/20/
045390/20121128/93926/1605/82/20/
045390/20121128/93927/1605/7357/20/
045390/20121128/93948/1605/1033/10/
045390/20121128/93952/1605/1651/10/
045390/20121128/93954/1605/318/20/
045390/20121128/93954/1605/400/20/
045390/20121128/94014/1605/1232/20/
045390/20121128/94102/1600/8245/10/
045390/20121128/94109/1600/1245/20/
045390/20121128/94118/1600/105/20/
045390/20121128/94120/1600/405/20/
045390/20121128/94120/1605/1069/20/
045390/20121128/94120/1610/3526/20/
045390/20121128/94140/1610/1564/20/
045390/20121128/94140/1615/377/20/
045390/20121128/94308/1610/243/20/
045390/20121128/94543/1605/661/10/
045390/20121128/94557/1600/2794/10/
045390/20121128/94649/1605/1372/20/
045390/20121128/94713/1605/1705/10/
045390/20121128/94726/1605/2072/10/
045390/20121128/94949/1605/1228/10/
045390/20121128/95029/1600/557/10/
045390/20121128/95202/1605/1010/20/
045390/20121128/95233/1605/315/20/
045390/20121128/95534/1610/7012/20/
045390/20121128/95603/1610/420/20/
045390/20121128/95628/1610/124/20/
045390/20121128/95648/1610/411/20/
045390/20121128/95915/1610/119/20/
045390/20121128/95948/1605/2063/10/
045390/20121128/95956/1605/710/10/
045390/20121128/100012/1605/291/20/
045390/20121128/100045/1610/501/20/
045390/20121128/100047/1605/713/10/
045390/20121128/100103/1600/6325/10/
045390/20121128/100110/1600/2300/10/
045390/20121128/100111/1600/228/10/
045390/20121128/100138/1600/361/20/
045390/20121128/100301/1600/6228/10/
045390/20121128/100314/1600/377/20/
045390/20121128/100315/1595/850/10/
045390/20121128/100348/1595/2490/10/
045390/20121128/100441/1595/6892/10/
045390/20121128/100451/1595/1184/10/
045390/20121128/100451/1595/800/10/
045390/20121128/100451/1595/2000/10/
045390/20121128/100456/1595/1000/10/
045390/20121128/100500/1595/1000/10/
045390/20121128/100500/1595/992/10/
045390/20121128/100540/1595/2987/10/
045390/20121128/100602/1595/547/20/
045390/20121128/100608/1595/200/20/
045390/20121128/100624/1595/5071/20/
045390/20121128/100625/1595/314/20/
045390/20121128/100638/1595/1029/10/
045390/20121128/100649/1595/1268/10/
045390/20121128/100752/1595/1073/20/
045390/20121128/100756/1595/2000/20/
045390/20121128/100759/1600/210/20/
045390/20121128/100848/1595/3201/10/
045390/20121128/100852/1595/329/20/
045390/20121128/100907/1600/88/20/
045390/20121128/100910/1595/130/10/
045390/20121128/100916/1600/82/20/
045390/20121128/100935/1600/90/20/
045390/20121128/100957/1600/81/20/
045390/20121128/100959/1600/527/20/
045390/20121128/101000/1600/4225/20/
045390/20121128/101001/1600/512/20/
045390/20121128/101001/1600/357/20/
045390/20121128/101005/1605/448/20/
045390/20121128/101008/1605/1042/20/
045390/20121128/101012/1605/791/20/
045390/20121128/101013/1605/108/20/
045390/20121128/101018/1605/85/20/
045390/20121128/101018/1605/276/20/
045390/20121128/101023/1610/128/20/
045390/20121128/101030/1610/81/20/
045390/20121128/101036/1610/81/20/
045390/20121128/101044/1610/82/20/
045390/20121128/101051/1610/81/20/
045390/20121128/101058/1605/81/10/
045390/20121128/101058/1605/200/10/
045390/20121128/101101/1605/452/10/
045390/20121128/101109/1610/81/20/
045390/20121128/101112/1610/3382/20/
045390/20121128/101115/1610/238/20/
045390/20121128/101122/1605/81/10/
045390/20121128/101129/1610/81/20/
045390/20121128/101133/1610/82/20/
045390/20121128/101137/1610/124/20/
045390/20121128/101143/1610/85/20/
045390/20121128/101147/1605/345/10/
045390/20121128/101149/1610/1015/20/
045390/20121128/101150/1610/522/20/
045390/20121128/101153/1610/301/20/
045390/20121128/101153/1610/103/20/
045390/20121128/101156/1610/7069/20/
045390/20121128/101157/1610/1026/20/
045390/20121128/101158/1610/463/20/
045390/20121128/101159/1610/8751/20/
045390/20121128/101205/1615/81/20/
045390/20121128/101211/1615/82/20/
045390/20121128/101216/1610/4316/10/
045390/20121128/101217/1610/424/10/
045390/20121128/101218/1610/1632/10/
045390/20121128/101219/1605/4058/10/
045390/20121128/101220/1610/518/20/
045390/20121128/101221/1610/2209/20/
045390/20121128/101221/1615/720/20/
045390/20121128/101222/1615/1897/20/
045390/20121128/101230/1610/81/20/
045390/20121128/101232/1610/120/20/
045390/20121128/101233/1610/2011/20/
045390/20121128/101241/1610/81/20/
045390/20121128/101243/1610/536/20/
045390/20121128/101244/1610/521/10/
045390/20121128/101246/1610/995/20/
045390/20121128/101249/1610/3111/10/
045390/20121128/101255/1605/2014/10/
045390/20121128/101257/1605/152/10/
045390/20121128/101258/1605/747/10/
045390/20121128/101300/1605/174/10/
045390/20121128/101300/1605/163/10/
045390/20121128/101309/1610/1001/20/
045390/20121128/101336/1610/112/20/
045390/20121128/101429/1605/3000/10/
045390/20121128/101747/1605/1342/10/
045390/20121128/101747/1600/2009/10/
045390/20121128/101901/1605/301/10/
045390/20121128/101917/1605/200/10/
045390/20121128/101917/1600/800/10/
045390/20121128/101943/1600/4026/10/
045390/20121128/102002/1600/974/20/
045390/20121128/102102/1600/141/10/
045390/20121128/102155/1600/3000/10/
045390/20121128/102415/1600/273/10/
045390/20121128/102521/1600/301/10/
045390/20121128/102806/1600/1686/20/
045390/20121128/102855/1605/501/20/
045390/20121128/102900/1600/101/10/
045390/20121128/103102/1600/121/10/
045390/20121128/103102/1595/761/10/
045390/20121128/103219/1600/301/10/
045390/20121128/103536/1605/684/20/
045390/20121128/103624/1600/500/20/
045390/20121128/103724/1600/281/20/
045390/20121128/103731/1600/3155/20/
045390/20121128/103738/1600/200/20/
045390/20121128/103803/1600/1227/20/
045390/20121128/103821/1600/1000/20/
045390/20121128/103911/1600/625/20/
045390/20121128/103956/1600/100/20/
045390/20121128/104028/1600/200/20/
045390/20121128/104048/1600/700/20/
045390/20121128/104054/1600/100/20/
045390/20121128/104117/1595/9039/10/
045390/20121128/104222/1590/9906/10/
045390/20121128/104337/1595/631/20/
045390/20121128/104418/1590/8683/10/
045390/20121128/104418/1585/6162/10/
045390/20121128/104445/1585/7146/10/
045390/20121128/104445/1580/6846/10/
045390/20121128/104502/1595/81/20/
045390/20121128/104503/1595/500/20/
045390/20121128/104532/1595/90/20/
045390/20121128/104549/1595/2600/20/
045390/20121128/104618/1595/2003/10/
045390/20121128/104645/1595/1152/10/
045390/20121128/104711/1595/301/20/
045390/20121128/104740/1595/2860/20/
045390/20121128/104801/1600/103/20/
045390/20121128/104802/1595/140/10/
045390/20121128/104806/1595/101/20/
045390/20121128/104809/1595/100/20/
045390/20121128/104822/1595/515/20/
045390/20121128/104850/1595/99/20/
045390/20121128/104852/1595/3045/20/
045390/20121128/104939/1595/3007/10/
045390/20121128/105024/1590/81/10/
045390/20121128/105052/1590/1018/10/
045390/20121128/105106/1590/100/10/
045390/20121128/105145/1595/301/20/
045390/20121128/105239/1595/101/10/
045390/20121128/105420/1595/601/10/
045390/20121128/105436/1595/400/20/
045390/20121128/105443/1595/402/20/
045390/20121128/105446/1595/98/20/
045390/20121128/105525/1595/304/10/
045390/20121128/105605/1590/201/10/
045390/20121128/105614/1590/1700/10/
045390/20121128/105703/1590/4278/10/
045390/20121128/105725/1590/1540/10/
045390/20121128/105806/1595/153/20/
045390/20121128/105812/1595/252/20/
045390/20121128/105831/1595/100/20/
045390/20121128/105835/1595/130/20/
045390/20121128/110009/1595/5066/20/
045390/20121128/110104/1600/86/20/
045390/20121128/110117/1595/10000/10/
045390/20121128/110135/1600/601/20/
045390/20121128/110226/1600/200/20/
045390/20121128/110656/1600/100/20/
045390/20121128/110719/1595/947/10/
045390/20121128/110912/1595/6006/10/
045390/20121128/110928/1600/212/20/
045390/20121128/110940/1595/600/10/
045390/20121128/111030/1595/2408/10/
045390/20121128/111140/1595/136/10/
045390/20121128/111152/1595/314/10/
045390/20121128/111305/1595/128/10/
045390/20121128/111305/1590/1873/10/
045390/20121128/111401/1595/1002/20/
045390/20121128/111440/1590/5600/10/
045390/20121128/111440/1590/400/10/
045390/20121128/111523/1595/1008/20/
045390/20121128/111527/1595/1090/20/
045390/20121128/111613/1600/161/20/
045390/20121128/111618/1595/500/10/
045390/20121128/111624/1600/4001/20/
045390/20121128/111632/1600/2000/20/
045390/20121128/111651/1600/1619/20/
045390/20121128/111811/1595/991/10/
045390/20121128/111811/1590/1519/10/
045390/20121128/111910/1600/508/20/
045390/20121128/111934/1600/878/20/
045390/20121128/112050/1605/502/20/
045390/20121128/112105/1600/200/10/
045390/20121128/112128/1600/742/10/
045390/20121128/112204/1600/182/10/
045390/20121128/112211/1595/7007/10/
045390/20121128/112211/1590/10245/10/
045390/20121128/112236/1590/5305/10/
045390/20121128/112236/1585/17037/10/
045390/20121128/112739/1595/81/20/
045390/20121128/112910/1590/301/10/
045390/20121128/112931/1590/8375/10/
045390/20121128/112931/1585/626/10/
045390/20121128/113013/1595/102/20/
045390/20121128/113137/1590/2731/10/
045390/20121128/113352/1585/688/10/
045390/20121128/113352/1585/220/10/
045390/20121128/113426/1585/1443/10/
045390/20121128/113426/1590/10000/20/
045390/20121128/113455/1590/2506/20/
045390/20121128/113500/1590/386/20/
045390/20121128/114034/1595/1017/20/
045390/20121128/114044/1595/1000/20/
045390/20121128/114049/1595/361/20/
045390/20121128/114124/1595/1839/10/
045390/20121128/114134/1590/4670/10/
045390/20121128/114155/1595/101/20/
045390/20121128/114155/1600/6400/20/
045390/20121128/114248/1600/1501/20/
045390/20121128/114349/1590/2675/10/
045390/20121128/114932/1600/2006/20/
045390/20121128/115011/1595/503/10/
045390/20121128/115241/1595/373/10/
045390/20121128/115244/1595/800/10/
045390/20121128/115245/1595/2000/10/
045390/20121128/115347/1600/502/20/
045390/20121128/115423/1600/2000/20/
045390/20121128/115645/1600/880/20/
045390/20121128/120112/1595/693/10/
045390/20121128/120206/1600/111/20/
045390/20121128/120511/1595/5107/10/
045390/20121128/120627/1595/893/20/
045390/20121128/120947/1595/1723/10/
045390/20121128/121051/1600/1056/20/
045390/20121128/121117/1595/705/10/
045390/20121128/121706/1595/2252/10/
045390/20121128/121813/1595/345/20/
045390/20121128/121829/1595/1000/20/
045390/20121128/121902/1590/152/10/
045390/20121128/122106/1595/1051/20/
045390/20121128/122222/1590/5010/10/
045390/20121128/122508/1590/5031/10/
045390/20121128/122928/1595/375/20/
045390/20121128/123051/1590/501/10/
045390/20121128/123150/1595/861/20/
045390/20121128/123153/1595/124/20/
045390/20121128/123207/1595/145/10/
045390/20121128/123400/1595/2402/10/
045390/20121128/123400/1590/1077/10/
045390/20121128/123459/1590/1002/10/
045390/20121128/123936/1590/175/10/
045390/20121128/124136/1590/1217/10/
045390/20121128/124310/1590/3008/10/
045390/20121128/124312/1590/1001/10/
045390/20121128/124440/1595/1030/20/
045390/20121128/124453/1590/1300/10/
045390/20121128/124539/1590/964/10/
045390/20121128/124539/1590/1036/20/
045390/20121128/124710/1595/3003/20/
045390/20121128/124746/1600/3422/20/
045390/20121128/124831/1600/3000/20/
045390/20121128/124943/1600/2029/20/
045390/20121128/124958/1600/501/20/
045390/20121128/125059/1600/1003/20/
045390/20121128/125123/1600/500/20/
045390/20121128/125239/1595/1008/10/
045390/20121128/125239/1590/2000/10/
045390/20121128/130036/1595/806/10/
045390/20121128/130036/1590/104/10/
045390/20121128/130102/1590/453/10/
045390/20121128/130354/1595/1001/20/
045390/20121128/130900/1595/228/10/
045390/20121128/130904/1595/227/10/
045390/20121128/131110/1595/333/10/
045390/20121128/131222/1595/569/20/
045390/20121128/131326/1590/700/10/
045390/20121128/131537/1595/2814/20/
045390/20121128/131542/1595/545/20/
045390/20121128/131553/1595/423/20/
045390/20121128/131557/1600/100/20/
045390/20121128/131820/1595/85/10/
045390/20121128/131938/1595/828/10/
045390/20121128/131946/1595/500/10/
045390/20121128/132001/1595/165/10/
045390/20121128/132030/1600/4000/20/
045390/20121128/132059/1600/3390/20/
045390/20121128/132119/1600/282/10/
045390/20121128/132126/1605/100/20/
045390/20121128/132404/1605/121/20/
045390/20121128/132441/1605/2000/20/
045390/20121128/132451/1605/5000/20/
045390/20121128/132655/1605/1001/20/
045390/20121128/132711/1605/1000/20/
045390/20121128/132844/1605/4006/20/
045390/20121128/132855/1610/100/20/
045390/20121128/132912/1605/200/20/
045390/20121128/132956/1605/105/20/
045390/20121128/133030/1605/3000/20/
045390/20121128/133049/1605/112/20/
045390/20121128/133226/1605/2010/20/
045390/20121128/133341/1605/1000/20/
045390/20121128/133403/1605/200/20/
045390/20121128/133507/1605/100/20/
045390/20121128/133518/1605/100/20/
045390/20121128/133520/1605/100/20/
045390/20121128/133530/1605/3000/20/
045390/20121128/133532/1605/100/20/
045390/20121128/133544/1605/102/20/
045390/20121128/133714/1600/10275/10/
045390/20121128/133714/1595/16820/10/
045390/20121128/133714/1590/11665/10/
045390/20121128/133747/1605/118/20/
045390/20121128/134351/1595/247/20/
045390/20121128/134401/1595/110/10/
045390/20121128/134428/1595/145/20/
045390/20121128/134439/1595/100/20/
045390/20121128/134530/1590/8217/10/
045390/20121128/134530/1585/10034/10/
045390/20121128/134548/1585/3021/10/
045390/20121128/134947/1595/690/20/
045390/20121128/135005/1595/390/10/
045390/20121128/135311/1590/1023/10/
045390/20121128/135327/1590/415/10/
045390/20121128/135335/1585/5000/10/
045390/20121128/135418/1590/101/20/
045390/20121128/135507/1590/581/20/
045390/20121128/135527/1585/1400/10/
045390/20121128/135617/1585/1037/10/
045390/20121128/135619/1590/284/20/
045390/20121128/135709/1590/1000/20/
045390/20121128/135751/1590/590/20/
045390/20121128/135755/1590/250/20/
045390/20121128/135803/1590/101/20/
045390/20121128/135808/1590/85/20/
045390/20121128/135814/1590/136/20/
045390/20121128/135818/1590/101/20/
045390/20121128/135824/1590/101/20/
045390/20121128/135832/1590/100/20/
045390/20121128/135838/1590/495/20/
045390/20121128/135843/1590/147/10/
045390/20121128/135846/1590/318/20/
045390/20121128/135853/1590/535/20/
045390/20121128/135913/1590/582/10/
045390/20121128/135920/1590/137/10/
045390/20121128/135928/1590/1001/20/
045390/20121128/135935/1590/1136/20/
045390/20121128/140015/1590/140/10/
045390/20121128/140042/1590/781/10/
045390/20121128/140222/1595/503/20/
045390/20121128/140239/1595/500/20/
045390/20121128/140318/1590/155/10/
045390/20121128/140351/1590/704/10/
045390/20121128/140354/1590/1000/10/
045390/20121128/140414/1590/225/10/
045390/20121128/140435/1590/3400/10/
045390/20121128/140440/1590/8527/10/
045390/20121128/140543/1590/102/20/
045390/20121128/140659/1590/1840/20/
045390/20121128/140723/1595/81/20/
045390/20121128/140804/1590/501/10/
045390/20121128/140824/1595/100/20/
045390/20121128/140845/1590/1600/10/
045390/20121128/140856/1595/88/20/
045390/20121128/140910/1590/2119/10/
045390/20121128/141025/1585/5084/10/
045390/20121128/141029/1590/1000/20/
045390/20121128/141122/1585/500/10/
045390/20121128/141149/1585/500/10/
045390/20121128/141300/1590/86/20/
045390/20121128/141343/1590/210/20/
045390/20121128/141343/1590/100/20/
045390/20121128/141358/1585/1500/10/
045390/20121128/141435/1585/1003/10/
045390/20121128/141524/1590/110/20/
045390/20121128/141542/1585/670/10/
045390/20121128/141553/1585/3001/10/
045390/20121128/141605/1590/705/20/
045390/20121128/141611/1590/100/20/
045390/20121128/141652/1590/2332/20/
045390/20121128/141707/1590/3000/20/
045390/20121128/141811/1590/1000/20/
045390/20121128/142036/1585/2061/10/
045390/20121128/142109/1590/93/20/
045390/20121128/142158/1590/200/20/
045390/20121128/142318/1585/1534/10/
045390/20121128/142319/1585/11754/10/
045390/20121128/142402/1585/202/10/
045390/20121128/142409/1585/6284/20/
045390/20121128/142416/1585/119/20/
045390/20121128/142428/1580/100/10/
045390/20121128/142458/1580/2016/10/
045390/20121128/142521/1585/180/20/
045390/20121128/142555/1580/2585/10/
045390/20121128/142557/1585/300/20/
045390/20121128/142609/1580/15003/10/
045390/20121128/142624/1580/514/10/
045390/20121128/142626/1580/104/10/
045390/20121128/142653/1580/17034/10/
045390/20121128/142658/1575/3240/10/
045390/20121128/142658/1575/100/10/
045390/20121128/142659/1575/263/10/
045390/20121128/142700/1575/2031/10/
045390/20121128/142702/1575/721/10/
045390/20121128/142703/1575/3502/10/
045390/20121128/142703/1575/1302/10/
045390/20121128/142704/1575/2021/10/
045390/20121128/142704/1575/3000/10/
045390/20121128/142704/1575/5411/10/
045390/20121128/142705/1575/802/10/
045390/20121128/142706/1575/203/10/
045390/20121128/142707/1575/328/10/
045390/20121128/142709/1570/609/10/
045390/20121128/142709/1570/1775/10/
045390/20121128/142710/1570/12569/10/
045390/20121128/142722/1575/4061/20/
045390/20121128/142730/1575/1040/20/
045390/20121128/142742/1575/501/20/
045390/20121128/142751/1575/178/20/
045390/20121128/142755/1575/1000/20/
045390/20121128/142800/1575/1410/20/
045390/20121128/142804/1575/504/20/
045390/20121128/142804/1575/634/20/
045390/20121128/142809/1580/3004/20/
045390/20121128/142812/1575/1569/10/
045390/20121128/142814/1575/500/20/
045390/20121128/142834/1575/120/20/
045390/20121128/142852/1570/1055/10/
045390/20121128/142855/1570/14021/10/
045390/20121128/142954/1570/519/10/
045390/20121128/143006/1570/200/10/
045390/20121128/143007/1570/1000/10/
045390/20121128/143009/1570/2000/10/
045390/20121128/143011/1570/1000/10/
045390/20121128/143011/1570/450/10/
045390/20121128/143016/1570/1001/10/
045390/20121128/143025/1570/1520/10/
045390/20121128/143026/1575/853/20/
045390/20121128/143026/1570/3943/10/
045390/20121128/143037/1575/115/20/
045390/20121128/143122/1575/497/20/
045390/20121128/143122/1575/1060/20/
045390/20121128/143130/1570/800/10/
045390/20121128/143210/1575/704/20/
045390/20121128/143234/1575/1001/20/
045390/20121128/143238/1575/100/20/
045390/20121128/143242/1575/1000/20/
045390/20121128/143249/1575/1000/20/
045390/20121128/143251/1575/300/20/
045390/20121128/143251/1575/93/20/
045390/20121128/143256/1575/1000/10/
045390/20121128/143340/1575/2937/10/
045390/20121128/143428/1575/2000/10/
045390/20121128/143444/1570/15608/10/
045390/20121128/143448/1570/3719/10/
045390/20121128/143449/1575/200/20/
045390/20121128/143500/1570/3347/10/
045390/20121128/143504/1570/100/20/
045390/20121128/143505/1570/210/20/
045390/20121128/143506/1565/328/10/
045390/20121128/143517/1570/700/20/
045390/20121128/143518/1565/300/10/
045390/20121128/143527/1565/315/10/
045390/20121128/143533/1570/1002/20/
045390/20121128/143534/1565/3001/10/
045390/20121128/143555/1565/3210/10/
045390/20121128/143557/1565/600/10/
045390/20121128/143603/1565/1876/10/
045390/20121128/143604/1565/500/10/
045390/20121128/143605/1565/4826/10/
045390/20121128/143611/1565/205/20/
045390/20121128/143612/1565/2551/20/
045390/20121128/143620/1570/2005/20/
045390/20121128/143631/1565/2523/10/
045390/20121128/143635/1565/500/20/
045390/20121128/143636/1565/500/20/
045390/20121128/143639/1565/100/20/
045390/20121128/143643/1565/100/20/
045390/20121128/143650/1565/120/20/
045390/20121128/143652/1565/600/20/
045390/20121128/143701/1565/1560/20/
045390/20121128/143702/1565/500/10/
045390/20121128/143721/1565/201/10/
045390/20121128/143732/1565/2001/10/
045390/20121128/143738/1565/500/10/
045390/20121128/143745/1565/3900/10/
045390/20121128/143747/1565/701/10/
045390/20121128/143755/1560/8029/10/
045390/20121128/143800/1565/254/20/
045390/20121128/143802/1565/1076/20/
045390/20121128/143807/1560/600/10/
045390/20121128/143822/1565/136/20/
045390/20121128/143828/1560/10000/10/
045390/20121128/143833/1565/255/20/
045390/20121128/143846/1565/145/20/
045390/20121128/143849/1560/8851/10/
045390/20121128/143851/1560/1000/20/
045390/20121128/143856/1560/105/20/
045390/20121128/143909/1560/92/20/
045390/20121128/143914/1560/122/20/
045390/20121128/143914/1560/330/20/
045390/20121128/143931/1560/2049/10/
045390/20121128/143937/1560/197/10/
045390/20121128/143949/1555/93/10/
045390/20121128/143952/1555/832/10/
045390/20121128/143959/1560/1004/20/
045390/20121128/144006/1560/301/20/
045390/20121128/144011/1560/202/20/
045390/20121128/144039/1560/463/20/
045390/20121128/144042/1560/400/20/
045390/20121128/144046/1560/1000/20/
045390/20121128/144048/1560/1000/20/
045390/20121128/144053/1560/466/20/
045390/20121128/144104/1555/303/10/
045390/20121128/144110/1560/2665/20/
045390/20121128/144111/1560/1001/10/
045390/20121128/144129/1560/1155/10/
045390/20121128/144140/1560/103/20/
045390/20121128/144142/1560/1000/20/
045390/20121128/144144/1560/513/20/
045390/20121128/144150/1560/204/20/
045390/20121128/144155/1560/6131/20/
045390/20121128/144223/1560/307/10/
045390/20121128/144233/1565/1014/20/
045390/20121128/144251/1560/1361/10/
045390/20121128/144259/1565/206/20/
045390/20121128/144300/1560/2500/10/
045390/20121128/144313/1560/5820/10/
045390/20121128/144318/1560/1700/10/
045390/20121128/144319/1560/318/10/
045390/20121128/144319/1560/2500/10/
045390/20121128/144323/1560/472/10/
045390/20121128/144324/1560/91/10/
045390/20121128/144328/1560/102/10/
045390/20121128/144427/1560/6809/10/
045390/20121128/144432/1560/429/10/
045390/20121128/144450/1560/1504/10/
045390/20121128/144450/1555/541/10/
045390/20121128/144511/1560/211/20/
045390/20121128/144518/1560/3302/10/
045390/20121128/144525/1560/403/10/
045390/20121128/144538/1565/5783/20/
045390/20121128/144543/1565/6221/20/
045390/20121128/144616/1570/6006/20/
045390/20121128/144657/1570/545/20/
045390/20121128/144726/1565/3831/10/
045390/20121128/144733/1560/7000/10/
045390/20121128/144737/1565/115/20/
045390/20121128/144739/1560/6003/10/
045390/20121128/144807/1560/2017/10/
045390/20121128/144817/1565/1301/20/
045390/20121128/144820/1565/639/20/
045390/20121128/144824/1560/103/10/
045390/20121128/144835/1565/957/20/
045390/20121128/144843/1565/601/20/
045390/20121128/144843/1565/785/20/
045390/20121128/144847/1565/750/20/
045390/20121128/144851/1565/1137/20/
045390/20121128/144854/1560/157/10/
045390/20121128/144855/1565/360/20/
045390/20121128/144913/1565/300/20/
045390/20121128/144914/1565/639/20/
045390/20121128/144922/1560/960/10/
045390/20121128/144929/1560/20011/10/
045390/20121128/144929/1555/34499/10/
045390/20121128/144934/1555/220/20/
045390/20121128/144935/1555/2678/20/
045390/20121128/144940/1555/2092/20/
045390/20121128/150000/1550/71720/10/
