013810/20130121/90000/2340/480/10/
013810/20130121/90053/2330/576/10/
013810/20130121/90104/2330/1024/10/
013810/20130121/90110/2330/353/10/
013810/20130121/90143/2320/1231/10/
013810/20130121/90208/2320/932/10/
013810/20130121/90227/2315/1280/10/
013810/20130121/90227/2320/500/20/
013810/20130121/90227/2320/89/20/
013810/20130121/90242/2320/442/10/
013810/20130121/90257/2320/1000/10/
013810/20130121/90322/2320/550/10/
013810/20130121/90353/2315/1781/10/
013810/20130121/90406/2310/1063/10/
013810/20130121/90406/2310/500/10/
013810/20130121/90407/2310/1325/10/
013810/20130121/90407/2305/3685/10/
013810/20130121/90414/2305/157/10/
013810/20130121/90417/2305/2212/10/
013810/20130121/90417/2300/1053/10/
013810/20130121/90435/2300/1372/10/
013810/20130121/90437/2300/1000/10/
013810/20130121/90442/2300/100/10/
013810/20130121/90452/2300/2566/10/
013810/20130121/90456/2300/103/20/
013810/20130121/90523/2300/1000/10/
013810/20130121/90536/2300/1887/10/
013810/20130121/90542/2300/297/20/
013810/20130121/90542/2300/800/20/
013810/20130121/90543/2300/1017/20/
013810/20130121/90553/2300/500/10/
013810/20130121/90609/2300/1000/10/
013810/20130121/90626/2310/500/20/
013810/20130121/90645/2310/210/20/
013810/20130121/90702/2310/123/10/
013810/20130121/90732/2310/1500/10/
013810/20130121/90759/2310/278/10/
013810/20130121/90810/2310/499/20/
013810/20130121/90825/2310/202/20/
013810/20130121/90905/2305/301/10/
013810/20130121/91020/2310/1104/10/
013810/20130121/91020/2305/1446/10/
013810/20130121/91057/2310/101/10/
013810/20130121/91108/2310/3550/10/
013810/20130121/91111/2310/249/10/
013810/20130121/91114/2310/351/20/
013810/20130121/91114/2315/129/20/
013810/20130121/91217/2315/1650/10/
013810/20130121/91308/2315/213/20/
013810/20130121/91321/2315/1100/20/
013810/20130121/91329/2315/190/10/
013810/20130121/91344/2310/2877/10/
013810/20130121/91349/2310/123/10/
013810/20130121/91359/2310/108/20/
013810/20130121/91414/2310/2010/10/
013810/20130121/91636/2310/150/10/
013810/20130121/91708/2310/943/10/
013810/20130121/91719/2305/5000/10/
013810/20130121/91828/2305/100/10/
013810/20130121/91830/2305/100/10/
013810/20130121/91906/2305/390/10/
013810/20130121/91922/2305/501/20/
013810/20130121/91955/2305/158/20/
013810/20130121/92002/2305/391/10/
013810/20130121/92006/2300/4000/10/
013810/20130121/92035/2300/2500/10/
013810/20130121/92157/2305/498/20/
013810/20130121/92240/2305/111/20/
013810/20130121/92243/2305/1500/10/
013810/20130121/92300/2310/100/20/
013810/20130121/92312/2310/2257/20/
013810/20130121/92424/2310/200/10/
013810/20130121/92440/2310/230/10/
013810/20130121/92458/2315/120/20/
013810/20130121/92603/2315/309/10/
013810/20130121/92606/2315/1377/10/
013810/20130121/92606/2310/1280/10/
013810/20130121/92606/2305/1109/10/
013810/20130121/92606/2300/234/10/
013810/20130121/92648/2305/2000/10/
013810/20130121/92727/2305/265/10/
013810/20130121/92902/2305/580/10/
013810/20130121/92943/2305/956/10/
013810/20130121/93308/2305/2201/10/
013810/20130121/93308/2300/16806/10/
013810/20130121/93347/2300/300/10/
013810/20130121/93400/2300/100/10/
013810/20130121/93434/2300/986/10/
013810/20130121/93435/2300/550/10/
013810/20130121/93437/2300/1000/10/
013810/20130121/93515/2310/3270/20/
013810/20130121/93520/2310/230/10/
013810/20130121/93542/2300/100/10/
013810/20130121/93626/2305/100/20/
013810/20130121/93727/2310/1204/20/
013810/20130121/93727/2315/3711/20/
013810/20130121/93727/2320/1100/20/
013810/20130121/93757/2320/521/10/
013810/20130121/94031/2310/190/10/
013810/20130121/94120/2310/634/10/
013810/20130121/94600/2320/580/20/
013810/20130121/94702/2320/284/20/
013810/20130121/94730/2315/100/10/
013810/20130121/94804/2315/510/10/
013810/20130121/95053/2320/909/20/
013810/20130121/95113/2320/150/20/
013810/20130121/95148/2320/464/20/
013810/20130121/95244/2320/324/20/
013810/20130121/95322/2315/726/10/
013810/20130121/95322/2310/774/10/
013810/20130121/95404/2315/1302/10/
013810/20130121/95534/2310/1436/10/
013810/20130121/95534/2305/2414/10/
013810/20130121/95534/2300/1150/10/
013810/20130121/95920/2305/1277/10/
013810/20130121/95920/2300/3757/10/
013810/20130121/100102/2300/3000/10/
013810/20130121/100133/2300/86/10/
013810/20130121/100137/2300/500/10/
013810/20130121/100330/2300/1000/10/
013810/20130121/100356/2300/533/10/
013810/20130121/100405/2300/713/10/
013810/20130121/100910/2305/1224/10/
013810/20130121/100910/2300/1559/10/
013810/20130121/100935/2300/101/20/
013810/20130121/100935/2300/646/20/
013810/20130121/101140/2300/501/10/
013810/20130121/102102/2310/260/10/
013810/20130121/102430/2300/300/10/
013810/20130121/102604/2305/127/20/
013810/20130121/102716/2300/151/10/
013810/20130121/102839/2300/2294/10/
013810/20130121/102839/2295/1706/10/
013810/20130121/102839/2295/180/10/
013810/20130121/102847/2295/1000/10/
013810/20130121/102906/2300/500/20/
013810/20130121/102929/2300/200/20/
013810/20130121/103120/2300/500/20/
013810/20130121/103127/2300/1000/20/
013810/20130121/103240/2300/200/20/
013810/20130121/103243/2300/500/20/
013810/20130121/103352/2295/340/10/
013810/20130121/103458/2295/217/10/
013810/20130121/103516/2295/2239/10/
013810/20130121/103550/2295/404/10/
013810/20130121/103553/2295/186/20/
013810/20130121/103559/2295/681/20/
013810/20130121/103813/2300/502/20/
013810/20130121/103938/2295/887/10/
013810/20130121/104001/2300/208/20/
013810/20130121/104118/2300/502/10/
013810/20130121/104123/2300/282/10/
013810/20130121/104140/2300/410/10/
013810/20130121/104337/2300/137/20/
013810/20130121/104346/2300/2907/10/
013810/20130121/104404/2300/873/20/
013810/20130121/104558/2305/6175/20/
013810/20130121/104619/2305/500/10/
013810/20130121/104933/2305/1553/10/
013810/20130121/105009/2300/400/10/
013810/20130121/105046/2305/1097/20/
013810/20130121/105513/2315/157/20/
013810/20130121/105852/2310/301/10/
013810/20130121/105920/2310/100/10/
013810/20130121/110811/2305/443/10/
013810/20130121/110811/2300/2081/10/
013810/20130121/110811/2295/1477/10/
013810/20130121/111120/2300/314/10/
013810/20130121/111207/2295/2000/10/
013810/20130121/111313/2295/386/10/
013810/20130121/111352/2295/633/10/
013810/20130121/111359/2295/500/20/
013810/20130121/111411/2290/4105/10/
013810/20130121/111603/2290/1067/10/
013810/20130121/111739/2290/2000/10/
013810/20130121/111753/2290/408/20/
013810/20130121/111834/2295/217/20/
013810/20130121/111931/2295/305/20/
013810/20130121/112311/2295/253/10/
013810/20130121/112343/2300/400/20/
013810/20130121/113457/2300/520/20/
013810/20130121/114054/2300/241/10/
013810/20130121/114734/2300/475/10/
013810/20130121/115524/2305/1166/20/
013810/20130121/115607/2305/90/20/
013810/20130121/115614/2305/100/20/
013810/20130121/115626/2305/218/20/
013810/20130121/115641/2310/716/20/
013810/20130121/115758/2310/810/20/
013810/20130121/115829/2310/110/20/
013810/20130121/115859/2310/320/20/
013810/20130121/120157/2305/882/10/
013810/20130121/120157/2300/265/10/
013810/20130121/120333/2305/1114/10/
013810/20130121/120336/2305/416/20/
013810/20130121/120432/2310/3717/20/
013810/20130121/120433/2310/758/20/
013810/20130121/120437/2315/3298/20/
013810/20130121/120615/2315/5360/10/
013810/20130121/120622/2315/341/20/
013810/20130121/120634/2320/81/20/
013810/20130121/120636/2320/83/20/
013810/20130121/120639/2320/91/20/
013810/20130121/120641/2320/88/20/
013810/20130121/120643/2325/81/20/
013810/20130121/120645/2325/81/20/
013810/20130121/120647/2325/89/20/
013810/20130121/120649/2325/88/20/
013810/20130121/120651/2325/89/20/
013810/20130121/120654/2325/82/20/
013810/20130121/120657/2325/82/20/
013810/20130121/120657/2325/318/20/
013810/20130121/120659/2330/81/20/
013810/20130121/120701/2330/88/20/
013810/20130121/120704/2330/91/20/
013810/20130121/120706/2330/81/20/
013810/20130121/120706/2330/514/20/
013810/20130121/120708/2330/91/20/
013810/20130121/120710/2335/81/20/
013810/20130121/120713/2335/85/20/
013810/20130121/120716/2335/86/20/
013810/20130121/120718/2335/90/20/
013810/20130121/120720/2335/87/20/
013810/20130121/120722/2335/2000/20/
013810/20130121/120722/2335/378/20/
013810/20130121/120724/2325/81/10/
013810/20130121/120726/2335/82/20/
013810/20130121/120728/2335/83/20/
013810/20130121/120730/2335/352/20/
013810/20130121/120732/2335/82/20/
013810/20130121/120734/2335/86/20/
013810/20130121/120735/2335/233/20/
013810/20130121/120737/2325/81/10/
013810/20130121/120740/2335/87/20/
013810/20130121/120742/2335/89/20/
013810/20130121/120744/2325/81/10/
013810/20130121/120746/2335/88/20/
013810/20130121/120748/2335/85/20/
013810/20130121/120751/2335/83/20/
013810/20130121/120753/2335/83/20/
013810/20130121/120755/2335/82/20/
013810/20130121/120758/2335/82/20/
013810/20130121/120800/2325/81/10/
013810/20130121/120801/2335/353/20/
013810/20130121/120803/2335/105/20/
013810/20130121/120805/2330/88/20/
013810/20130121/120808/2330/82/20/
013810/20130121/120810/2330/89/20/
013810/20130121/120812/2325/81/10/
013810/20130121/120813/2330/581/20/
013810/20130121/120815/2330/494/10/
013810/20130121/120817/2330/81/20/
013810/20130121/120821/2325/81/10/
013810/20130121/120824/2330/82/20/
013810/20130121/120826/2330/81/20/
013810/20130121/120828/2325/81/10/
013810/20130121/120831/2330/82/20/
013810/20130121/120831/2330/101/20/
013810/20130121/120833/2330/176/20/
013810/20130121/120835/2325/458/10/
013810/20130121/120835/2320/354/10/
013810/20130121/120837/2330/83/20/
013810/20130121/120840/2330/85/20/
013810/20130121/120845/2330/81/20/
013810/20130121/120848/2330/81/20/
013810/20130121/120854/2330/81/20/
013810/20130121/120856/2325/82/20/
013810/20130121/120859/2325/85/20/
013810/20130121/120901/2325/91/20/
013810/20130121/120905/2325/86/20/
013810/20130121/120910/2325/81/20/
013810/20130121/120914/2320/81/10/
013810/20130121/120918/2325/81/20/
013810/20130121/120922/2325/82/20/
013810/20130121/120922/2325/100/20/
013810/20130121/120923/2325/208/20/
013810/20130121/120924/2325/314/20/
013810/20130121/120928/2325/142/20/
013810/20130121/120933/2325/148/20/
013810/20130121/120936/2325/132/20/
013810/20130121/120940/2325/158/20/
013810/20130121/120948/2325/82/20/
013810/20130121/120949/2325/322/20/
013810/20130121/120951/2325/704/10/
013810/20130121/120956/2325/4228/20/
013810/20130121/120956/2330/626/20/
013810/20130121/120956/2335/290/20/
013810/20130121/121006/2320/81/10/
013810/20130121/121017/2325/81/20/
013810/20130121/121020/2320/546/10/
013810/20130121/121027/2320/490/20/
013810/20130121/121029/2320/81/20/
013810/20130121/121042/2320/82/20/
013810/20130121/121056/2315/1278/10/
013810/20130121/121129/2315/571/10/
013810/20130121/121221/2315/2415/10/
013810/20130121/121351/2315/590/10/
013810/20130121/121606/2325/321/20/
013810/20130121/121609/2320/400/10/
013810/20130121/121802/2315/1061/10/
013810/20130121/121816/2315/960/20/
013810/20130121/122109/2310/2043/10/
013810/20130121/122201/2310/403/10/
013810/20130121/122222/2310/1000/10/
013810/20130121/122232/2305/1000/10/
013810/20130121/122234/2305/5054/10/
013810/20130121/122302/2305/390/10/
013810/20130121/122302/2300/8508/10/
013810/20130121/122302/2295/824/10/
013810/20130121/122313/2295/626/10/
013810/20130121/122419/2300/84/10/
013810/20130121/122833/2305/465/10/
013810/20130121/122858/2310/1236/20/
013810/20130121/122914/2310/1800/10/
013810/20130121/122914/2305/200/10/
013810/20130121/122921/2305/798/10/
013810/20130121/123131/2310/506/10/
013810/20130121/123327/2310/500/10/
013810/20130121/123355/2320/2000/20/
013810/20130121/123537/2325/995/20/
013810/20130121/123537/2330/1079/20/
013810/20130121/123611/2325/1000/20/
013810/20130121/123615/2330/1000/20/
013810/20130121/123658/2330/2019/20/
013810/20130121/123728/2330/981/20/
013810/20130121/123734/2330/2000/20/
013810/20130121/123735/2330/819/20/
013810/20130121/123742/2330/181/10/
013810/20130121/123810/2330/1000/20/
013810/20130121/123814/2330/897/20/
013810/20130121/123815/2330/103/10/
013810/20130121/123818/2330/897/20/
013810/20130121/123818/2335/103/20/
013810/20130121/123834/2330/1000/20/
013810/20130121/123922/2330/1000/20/
013810/20130121/124004/2330/1674/20/
013810/20130121/124014/2330/327/20/
013810/20130121/124046/2330/1000/20/
013810/20130121/124108/2330/1279/10/
013810/20130121/124136/2325/2000/10/
013810/20130121/124136/2320/1000/10/
013810/20130121/124841/2330/1040/20/
013810/20130121/125034/2325/3030/10/
013810/20130121/125034/2320/6439/10/
013810/20130121/125740/2325/2001/20/
013810/20130121/125746/2325/1000/20/
013810/20130121/130215/2315/1511/10/
013810/20130121/130224/2315/594/20/
013810/20130121/130627/2320/1001/20/
013810/20130121/130628/2320/750/20/
013810/20130121/130647/2325/2031/20/
013810/20130121/130650/2325/594/10/
013810/20130121/130822/2325/812/20/
013810/20130121/130825/2325/1345/10/
013810/20130121/130926/2320/1250/10/
013810/20130121/131150/2320/510/20/
013810/20130121/131313/2320/353/10/
013810/20130121/131338/2320/442/20/
013810/20130121/131418/2315/1106/10/
013810/20130121/132526/2320/301/20/
013810/20130121/133156/2320/538/10/
013810/20130121/133253/2320/790/10/
013810/20130121/133341/2315/868/10/
013810/20130121/133344/2315/1184/10/
013810/20130121/133435/2310/210/10/
013810/20130121/133733/2310/620/10/
013810/20130121/133932/2305/200/10/
013810/20130121/133932/2300/103/10/
013810/20130121/133942/2300/966/10/
013810/20130121/134403/2305/1002/10/
013810/20130121/134745/2305/176/10/
013810/20130121/134745/2300/824/10/
013810/20130121/134800/2300/550/10/
013810/20130121/134947/2310/1000/20/
013810/20130121/135733/2310/101/20/
013810/20130121/135829/2310/100/20/
013810/20130121/135831/2310/87/20/
013810/20130121/135947/2310/773/20/
013810/20130121/135955/2310/828/10/
013810/20130121/140056/2310/672/20/
013810/20130121/140335/2315/136/20/
013810/20130121/140530/2315/170/20/
013810/20130121/140559/2315/200/20/
013810/20130121/140611/2315/1500/20/
013810/20130121/140705/2315/100/20/
013810/20130121/140824/2310/90/10/
013810/20130121/140943/2305/775/10/
013810/20130121/140943/2300/4245/10/
013810/20130121/141228/2305/309/10/
013810/20130121/141412/2310/300/10/
013810/20130121/141636/2310/120/20/
013810/20130121/141642/2305/1371/10/
013810/20130121/141727/2300/2355/10/
013810/20130121/141735/2295/4525/10/
013810/20130121/141742/2295/1195/10/
013810/20130121/142012/2305/500/20/
013810/20130121/142021/2305/100/20/
013810/20130121/142144/2295/540/10/
013810/20130121/142336/2295/700/10/
013810/20130121/142551/2295/85/10/
013810/20130121/142619/2295/176/20/
013810/20130121/142626/2295/241/10/
013810/20130121/142636/2290/1360/10/
013810/20130121/142716/2290/3064/10/
013810/20130121/142716/2285/1936/10/
013810/20130121/142953/2290/91/10/
013810/20130121/143000/2285/2000/10/
013810/20130121/143026/2290/1009/20/
013810/20130121/143028/2290/100/20/
013810/20130121/143032/2290/540/20/
013810/20130121/143050/2290/110/20/
013810/20130121/143102/2290/150/20/
013810/20130121/143216/2295/500/20/
013810/20130121/143612/2295/141/10/
013810/20130121/143959/2295/133/10/
013810/20130121/144034/2295/242/10/
013810/20130121/144204/2295/105/10/
013810/20130121/144216/2295/895/20/
013810/20130121/144216/2300/745/20/
013810/20130121/144346/2295/233/20/
013810/20130121/144653/2295/241/20/
013810/20130121/144707/2295/517/10/
013810/20130121/144734/2290/2000/10/
013810/20130121/144735/2290/150/10/
013810/20130121/144736/2290/185/10/
013810/20130121/144736/2285/401/10/
013810/20130121/144801/2285/972/10/
013810/20130121/144818/2285/1000/10/
013810/20130121/144840/2285/810/10/
013810/20130121/144840/2280/8226/10/
013810/20130121/144840/2275/4104/10/
013810/20130121/144912/2275/2000/10/
013810/20130121/144941/2285/221/20/
013810/20130121/144957/2285/400/20/
013810/20130121/144957/2285/110/20/
013810/20130121/144957/2280/1890/10/
013810/20130121/150000/2280/12595/10/
