013810/20130103/90000/2230/875/20/
013810/20130103/90118/2225/527/10/
013810/20130103/90309/2225/959/10/
013810/20130103/90319/2220/129/10/
013810/20130103/90334/2225/2360/20/
013810/20130103/90432/2235/704/20/
013810/20130103/90503/2235/100/20/
013810/20130103/90915/2225/4794/10/
013810/20130103/90915/2220/4286/10/
013810/20130103/90941/2220/500/10/
013810/20130103/91042/2220/285/10/
013810/20130103/91053/2215/695/10/
013810/20130103/91139/2225/500/20/
013810/20130103/91139/2230/1429/20/
013810/20130103/91647/2225/171/20/
013810/20130103/91930/2220/884/10/
013810/20130103/92012/2220/300/10/
013810/20130103/92012/2215/1527/10/
013810/20130103/92012/2210/3036/10/
013810/20130103/92012/2205/4361/10/
013810/20130103/92012/2200/776/10/
013810/20130103/92035/2200/100/10/
013810/20130103/92140/2210/240/10/
013810/20130103/92140/2205/4250/10/
013810/20130103/92210/2205/710/10/
013810/20130103/92218/2200/6349/10/
013810/20130103/92317/2195/123/10/
013810/20130103/92317/2190/177/10/
013810/20130103/92322/2190/100/10/
013810/20130103/92324/2190/162/10/
013810/20130103/92324/2185/414/10/
013810/20130103/92324/2180/724/10/
013810/20130103/92324/2180/650/10/
013810/20130103/92410/2180/3002/10/
013810/20130103/92712/2200/519/20/
013810/20130103/92723/2200/180/20/
013810/20130103/92758/2190/130/10/
013810/20130103/92946/2200/210/20/
013810/20130103/93046/2205/349/20/
013810/20130103/93147/2205/278/10/
013810/20130103/93239/2205/272/20/
013810/20130103/93300/2210/142/20/
013810/20130103/93838/2210/298/20/
013810/20130103/93942/2210/231/20/
013810/20130103/94043/2210/3357/20/
013810/20130103/94044/2210/490/20/
013810/20130103/94107/2210/1500/20/
013810/20130103/94126/2210/1100/20/
013810/20130103/94148/2210/100/20/
013810/20130103/94241/2205/4227/10/
013810/20130103/94246/2200/773/10/
013810/20130103/94744/2200/664/10/
013810/20130103/95229/2200/1600/10/
013810/20130103/95229/2205/104/20/
013810/20130103/95306/2200/180/10/
013810/20130103/95326/2195/500/10/
013810/20130103/95327/2200/220/20/
013810/20130103/95624/2205/228/20/
013810/20130103/95822/2205/564/20/
013810/20130103/95922/2205/275/20/
013810/20130103/100026/2205/323/20/
013810/20130103/100725/2210/2020/20/
013810/20130103/101613/2210/234/20/
013810/20130103/101704/2210/200/20/
013810/20130103/101739/2210/100/20/
013810/20130103/102626/2205/235/10/
013810/20130103/102629/2210/100/20/
013810/20130103/102809/2210/300/20/
013810/20130103/103233/2205/1104/10/
013810/20130103/103306/2200/2408/10/
013810/20130103/103306/2200/1692/10/
013810/20130103/103556/2200/913/10/
013810/20130103/103608/2195/2279/10/
013810/20130103/103618/2200/500/20/
013810/20130103/103635/2200/200/20/
013810/20130103/103642/2195/1087/10/
013810/20130103/104046/2200/96/20/
013810/20130103/104229/2200/108/20/
013810/20130103/104304/2200/100/20/
013810/20130103/104522/2195/1600/10/
013810/20130103/104557/2195/599/10/
013810/20130103/104618/2195/500/10/
013810/20130103/104642/2190/4162/10/
013810/20130103/104646/2185/3000/10/
013810/20130103/104646/2185/5264/10/
013810/20130103/104723/2190/200/20/
013810/20130103/104805/2185/1010/10/
013810/20130103/104805/2185/659/10/
013810/20130103/104941/2185/2062/10/
013810/20130103/104945/2185/416/20/
013810/20130103/105223/2200/85/20/
013810/20130103/105601/2200/298/20/
013810/20130103/105604/2200/313/20/
013810/20130103/105707/2200/237/10/
013810/20130103/110017/2200/122/20/
013810/20130103/110050/2195/3000/10/
013810/20130103/110320/2200/100/20/
013810/20130103/110336/2200/132/20/
013810/20130103/111000/2200/464/20/
013810/20130103/111051/2195/553/10/
013810/20130103/111051/2190/897/10/
013810/20130103/111127/2190/634/10/
013810/20130103/111302/2200/178/20/
013810/20130103/111311/2200/546/20/
013810/20130103/111343/2195/793/10/
013810/20130103/111810/2195/117/20/
013810/20130103/111823/2190/100/10/
013810/20130103/112309/2190/2439/10/
013810/20130103/112631/2195/209/10/
013810/20130103/112943/2195/529/10/
013810/20130103/113641/2195/100/10/
013810/20130103/114617/2200/602/20/
013810/20130103/114905/2195/1000/10/
013810/20130103/115357/2200/100/20/
013810/20130103/120412/2200/357/20/
013810/20130103/120511/2200/139/20/
013810/20130103/120704/2200/160/20/
013810/20130103/121504/2200/101/20/
013810/20130103/122225/2200/114/20/
013810/20130103/122403/2200/1185/20/
013810/20130103/123323/2205/576/10/
013810/20130103/123516/2205/158/10/
013810/20130103/124615/2210/5058/20/
013810/20130103/125010/2210/500/20/
013810/20130103/125108/2210/500/20/
013810/20130103/125436/2205/488/10/
013810/20130103/125516/2200/1000/10/
013810/20130103/125526/2200/500/10/
013810/20130103/125601/2200/2000/10/
013810/20130103/125610/2200/392/10/
013810/20130103/125615/2200/608/20/
013810/20130103/125623/2200/674/10/
013810/20130103/130904/2205/159/20/
013810/20130103/131003/2205/85/20/
013810/20130103/131104/2200/2352/10/
013810/20130103/131119/2200/100/10/
013810/20130103/131214/2200/1364/10/
013810/20130103/131222/2200/500/20/
013810/20130103/131235/2200/836/20/
013810/20130103/131515/2200/1000/10/
013810/20130103/131549/2200/87/10/
013810/20130103/131552/2200/150/20/
013810/20130103/131757/2195/3000/10/
013810/20130103/131905/2200/763/20/
013810/20130103/131948/2200/600/10/
013810/20130103/131951/2200/207/10/
013810/20130103/132001/2200/1522/20/
013810/20130103/132005/2200/273/20/
013810/20130103/132029/2200/1000/10/
013810/20130103/132210/2200/200/10/
013810/20130103/132244/2200/200/10/
013810/20130103/132553/2200/911/10/
013810/20130103/132607/2200/89/20/
013810/20130103/133532/2200/100/10/
013810/20130103/133545/2205/221/20/
013810/20130103/133546/2200/4200/10/
013810/20130103/133559/2200/114/10/
013810/20130103/133810/2200/886/20/
013810/20130103/134508/2200/3018/10/
013810/20130103/134627/2200/500/10/
013810/20130103/134849/2205/382/20/
013810/20130103/135345/2200/1450/10/
013810/20130103/135401/2200/500/10/
013810/20130103/135559/2200/1000/10/
013810/20130103/135636/2200/1301/20/
013810/20130103/135809/2200/1664/10/
013810/20130103/135829/2200/1323/20/
013810/20130103/135919/2200/501/10/
013810/20130103/135956/2200/1055/10/
013810/20130103/140254/2200/100/10/
013810/20130103/140334/2200/370/10/
013810/20130103/140342/2200/628/10/
013810/20130103/140351/2200/1374/20/
013810/20130103/140556/2205/197/20/
013810/20130103/141452/2205/2464/20/
013810/20130103/141648/2210/1004/20/
013810/20130103/142029/2210/413/10/
013810/20130103/142214/2205/4973/10/
013810/20130103/142241/2205/1028/20/
013810/20130103/142532/2205/194/10/
013810/20130103/142551/2205/97/10/
013810/20130103/142738/2205/709/10/
013810/20130103/142738/2200/291/10/
013810/20130103/143020/2200/8001/10/
013810/20130103/143024/2200/1300/10/
013810/20130103/143117/2200/116/10/
013810/20130103/143203/2200/2000/10/
013810/20130103/143210/2200/4000/10/
013810/20130103/143437/2200/244/10/
013810/20130103/144452/2200/465/10/
013810/20130103/144505/2205/1298/20/
013810/20130103/144551/2210/211/20/
013810/20130103/144626/2210/2108/20/
013810/20130103/144701/2215/1000/20/
013810/20130103/144817/2210/306/10/
013810/20130103/150000/2190/25316/10/
