013810/20130304/90000/2790/31768/10/
013810/20130304/90001/2795/99/20/
013810/20130304/90005/2795/300/20/
013810/20130304/90008/2790/8924/10/
013810/20130304/90009/2795/601/20/
013810/20130304/90014/2800/150/20/
013810/20130304/90017/2805/500/20/
013810/20130304/90019/2805/600/20/
013810/20130304/90020/2805/2597/20/
013810/20130304/90021/2805/347/20/
013810/20130304/90025/2805/444/20/
013810/20130304/90027/2805/2000/20/
013810/20130304/90027/2805/159/20/
013810/20130304/90027/2810/841/20/
013810/20130304/90028/2805/201/10/
013810/20130304/90031/2805/205/10/
013810/20130304/90031/2800/903/10/
013810/20130304/90032/2805/1595/20/
013810/20130304/90032/2805/200/20/
013810/20130304/90033/2805/100/10/
013810/20130304/90035/2810/1000/20/
013810/20130304/90036/2805/7020/10/
013810/20130304/90037/2810/5000/20/
013810/20130304/90037/2805/200/10/
013810/20130304/90038/2810/221/20/
013810/20130304/90038/2810/620/20/
013810/20130304/90042/2810/560/10/
013810/20130304/90047/2810/210/20/
013810/20130304/90047/2810/650/20/
013810/20130304/90057/2810/220/20/
013810/20130304/90100/2810/510/10/
013810/20130304/90102/2810/370/10/
013810/20130304/90102/2815/1233/20/
013810/20130304/90105/2810/303/10/
013810/20130304/90110/2805/5747/10/
013810/20130304/90110/2810/2444/20/
013810/20130304/90116/2810/1000/10/
013810/20130304/90118/2810/200/10/
013810/20130304/90120/2810/1500/10/
013810/20130304/90121/2810/3244/10/
013810/20130304/90122/2810/2000/10/
013810/20130304/90122/2810/414/10/
013810/20130304/90124/2810/352/10/
013810/20130304/90124/2810/2000/10/
013810/20130304/90125/2810/400/10/
013810/20130304/90126/2810/364/10/
013810/20130304/90126/2810/969/10/
013810/20130304/90128/2810/1035/20/
013810/20130304/90128/2815/1974/20/
013810/20130304/90128/2810/2104/20/
013810/20130304/90129/2800/2030/10/
013810/20130304/90129/2790/1070/10/
013810/20130304/90142/2790/1000/10/
013810/20130304/90149/2790/1011/10/
013810/20130304/90151/2790/200/10/
013810/20130304/90212/2805/500/20/
013810/20130304/90213/2795/312/10/
013810/20130304/90216/2790/210/10/
013810/20130304/90222/2795/426/20/
013810/20130304/90223/2795/426/10/
013810/20130304/90227/2795/320/10/
013810/20130304/90232/2795/878/10/
013810/20130304/90232/2790/122/10/
013810/20130304/90238/2810/1465/20/
013810/20130304/90245/2810/1000/20/
013810/20130304/90249/2805/140/10/
013810/20130304/90249/2810/360/20/
013810/20130304/90303/2805/140/20/
013810/20130304/90304/2805/350/20/
013810/20130304/90308/2805/550/20/
013810/20130304/90308/2810/450/20/
013810/20130304/90309/2795/1061/10/
013810/20130304/90319/2800/335/20/
013810/20130304/90320/2800/808/20/
013810/20130304/90322/2795/500/10/
013810/20130304/90324/2800/457/20/
013810/20130304/90339/2805/1113/20/
013810/20130304/90346/2810/6283/20/
013810/20130304/90346/2815/1317/20/
013810/20130304/90347/2805/150/10/
013810/20130304/90353/2805/738/10/
013810/20130304/90400/2800/1250/10/
013810/20130304/90408/2800/5000/10/
013810/20130304/90408/2800/2200/10/
013810/20130304/90411/2805/500/20/
013810/20130304/90412/2805/1151/20/
013810/20130304/90418/2805/449/10/
013810/20130304/90450/2800/2202/10/
013810/20130304/90451/2805/100/20/
013810/20130304/90452/2800/952/10/
013810/20130304/90456/2800/1000/10/
013810/20130304/90501/2800/1021/10/
013810/20130304/90504/2800/120/10/
013810/20130304/90504/2800/500/10/
013810/20130304/90504/2800/114/10/
013810/20130304/90509/2800/1413/20/
013810/20130304/90510/2800/100/10/
013810/20130304/90515/2800/150/10/
013810/20130304/90516/2800/239/20/
013810/20130304/90518/2800/1000/20/
013810/20130304/90520/2800/761/20/
013810/20130304/90522/2800/242/10/
013810/20130304/90525/2800/758/20/
013810/20130304/90530/2800/2485/10/
013810/20130304/90530/2800/200/20/
013810/20130304/90531/2800/115/20/
013810/20130304/90533/2800/1000/10/
013810/20130304/90541/2800/348/10/
013810/20130304/90542/2805/1000/20/
013810/20130304/90546/2805/200/20/
013810/20130304/90548/2800/5001/10/
013810/20130304/90549/2805/583/20/
013810/20130304/90558/2805/300/20/
013810/20130304/90559/2805/100/20/
013810/20130304/90602/2805/213/20/
013810/20130304/90606/2805/340/20/
013810/20130304/90609/2800/1000/10/
013810/20130304/90611/2805/352/20/
013810/20130304/90617/2805/5010/20/
013810/20130304/90617/2800/5276/10/
013810/20130304/90625/2800/800/10/
013810/20130304/90625/2800/100/10/
013810/20130304/90631/2800/2000/10/
013810/20130304/90632/2800/100/10/
013810/20130304/90633/2800/1000/10/
013810/20130304/90635/2800/2574/10/
013810/20130304/90636/2800/100/20/
013810/20130304/90644/2800/100/20/
013810/20130304/90646/2800/200/20/
013810/20130304/90648/2800/1649/20/
013810/20130304/90649/2800/1351/10/
013810/20130304/90706/2795/7035/10/
013810/20130304/90724/2790/1000/10/
013810/20130304/90725/2790/100/10/
013810/20130304/90726/2790/500/10/
013810/20130304/90726/2790/2000/10/
013810/20130304/90729/2790/5001/10/
013810/20130304/90735/2790/1000/10/
013810/20130304/90736/2790/235/10/
013810/20130304/90749/2795/5051/20/
013810/20130304/90750/2795/400/20/
013810/20130304/90750/2795/342/20/
013810/20130304/90750/2795/907/20/
013810/20130304/90753/2800/5000/20/
013810/20130304/90754/2800/1500/20/
013810/20130304/90754/2800/85/20/
013810/20130304/90807/2800/1340/10/
013810/20130304/90809/2800/110/10/
013810/20130304/90813/2800/300/10/
013810/20130304/90814/2800/200/10/
013810/20130304/90820/2800/500/10/
013810/20130304/90829/2800/479/10/
013810/20130304/90836/2800/746/10/
013810/20130304/90836/2795/870/10/
013810/20130304/90837/2795/223/10/
013810/20130304/90924/2795/550/10/
013810/20130304/90937/2800/338/20/
013810/20130304/90940/2800/1699/20/
013810/20130304/90940/2805/10539/20/
013810/20130304/90943/2805/2559/20/
013810/20130304/90947/2800/211/10/
013810/20130304/90950/2805/170/20/
013810/20130304/90952/2805/1819/20/
013810/20130304/90956/2810/1040/20/
013810/20130304/91009/2810/143/20/
013810/20130304/91010/2810/329/20/
013810/20130304/91014/2805/365/10/
013810/20130304/91015/2810/2013/20/
013810/20130304/91015/2810/3000/20/
013810/20130304/91017/2810/107/20/
013810/20130304/91017/2815/5538/20/
013810/20130304/91017/2820/158/20/
013810/20130304/91024/2820/715/20/
013810/20130304/91027/2820/1558/20/
013810/20130304/91028/2820/200/20/
013810/20130304/91031/2820/201/20/
013810/20130304/91033/2820/1559/20/
013810/20130304/91037/2820/501/20/
013810/20130304/91038/2815/652/10/
013810/20130304/91043/2815/355/20/
013810/20130304/91050/2815/3995/20/
013810/20130304/91050/2820/7506/20/
013810/20130304/91052/2820/1016/10/
013810/20130304/91055/2820/2035/20/
013810/20130304/91100/2820/1000/20/
013810/20130304/91100/2820/100/20/
013810/20130304/91107/2815/5073/10/
013810/20130304/91108/2820/3000/20/
013810/20130304/91108/2815/552/10/
013810/20130304/91110/2815/330/20/
013810/20130304/91110/2815/1000/20/
013810/20130304/91111/2815/347/20/
013810/20130304/91119/2810/338/10/
013810/20130304/91120/2815/2735/20/
013810/20130304/91122/2815/728/20/
013810/20130304/91123/2815/168/10/
013810/20130304/91125/2815/161/20/
013810/20130304/91125/2815/1855/20/
013810/20130304/91131/2815/100/20/
013810/20130304/91135/2815/755/20/
013810/20130304/91135/2810/900/10/
013810/20130304/91137/2810/506/10/
013810/20130304/91139/2810/394/20/
013810/20130304/91141/2810/557/10/
013810/20130304/91141/2810/200/20/
013810/20130304/91148/2810/609/20/
013810/20130304/91148/2810/523/20/
013810/20130304/91150/2810/371/20/
013810/20130304/91152/2810/1130/20/
013810/20130304/91152/2810/1000/20/
013810/20130304/91152/2810/1010/20/
013810/20130304/91154/2810/900/10/
013810/20130304/91157/2810/500/10/
013810/20130304/91159/2810/902/10/
013810/20130304/91159/2810/82/10/
013810/20130304/91204/2810/333/20/
013810/20130304/91205/2810/385/20/
013810/20130304/91206/2810/115/10/
013810/20130304/91206/2810/1847/10/
013810/20130304/91209/2805/3502/10/
013810/20130304/91217/2805/185/10/
013810/20130304/91219/2805/824/10/
013810/20130304/91222/2805/200/10/
013810/20130304/91231/2805/620/10/
013810/20130304/91237/2805/1035/10/
013810/20130304/91241/2805/91/10/
013810/20130304/91247/2805/1010/20/
013810/20130304/91256/2805/300/20/
013810/20130304/91257/2805/182/20/
013810/20130304/91308/2800/2556/10/
013810/20130304/91316/2805/361/20/
013810/20130304/91316/2805/2639/10/
013810/20130304/91316/2800/121/10/
013810/20130304/91325/2805/168/10/
013810/20130304/91337/2805/1867/20/
013810/20130304/91338/2805/785/10/
013810/20130304/91339/2805/1270/10/
013810/20130304/91341/2805/100/10/
013810/20130304/91400/2805/551/10/
013810/20130304/91406/2805/300/10/
013810/20130304/91416/2810/2124/20/
013810/20130304/91419/2810/500/10/
013810/20130304/91429/2815/216/20/
013810/20130304/91439/2810/400/10/
013810/20130304/91449/2810/1982/20/
013810/20130304/91449/2810/819/20/
013810/20130304/91449/2815/771/20/
013810/20130304/91503/2815/773/20/
013810/20130304/91525/2815/2013/20/
013810/20130304/91533/2815/2500/20/
013810/20130304/91545/2815/1776/20/
013810/20130304/91549/2815/100/20/
013810/20130304/91559/2815/100/20/
013810/20130304/91601/2815/500/20/
013810/20130304/91603/2815/167/20/
013810/20130304/91609/2810/841/10/
013810/20130304/91633/2805/1507/10/
013810/20130304/91650/2800/2588/10/
013810/20130304/91658/2800/189/10/
013810/20130304/91658/2805/1400/20/
013810/20130304/91707/2805/520/20/
013810/20130304/91716/2805/100/20/
013810/20130304/91724/2805/1938/20/
013810/20130304/91736/2805/370/10/
013810/20130304/91738/2805/500/10/
013810/20130304/91746/2805/1230/10/
013810/20130304/91749/2805/200/10/
013810/20130304/91754/2805/1800/10/
013810/20130304/91755/2805/900/10/
013810/20130304/91756/2805/527/10/
013810/20130304/91758/2805/373/20/
013810/20130304/91809/2805/243/10/
013810/20130304/91812/2805/428/20/
013810/20130304/91815/2805/386/10/
013810/20130304/91818/2805/99/10/
013810/20130304/91819/2805/187/10/
013810/20130304/91836/2810/156/20/
013810/20130304/91841/2810/1522/20/
013810/20130304/91841/2815/3000/20/
013810/20130304/91841/2820/480/20/
013810/20130304/91849/2820/2270/20/
013810/20130304/91850/2820/1751/20/
013810/20130304/91851/2820/200/10/
013810/20130304/91858/2820/438/10/
013810/20130304/91858/2820/420/20/
013810/20130304/91901/2820/200/20/
013810/20130304/91932/2810/1010/10/
013810/20130304/91935/2810/547/10/
013810/20130304/91939/2810/453/20/
013810/20130304/91945/2810/700/10/
013810/20130304/91947/2810/2214/10/
013810/20130304/91949/2810/100/20/
013810/20130304/91951/2810/500/20/
013810/20130304/91952/2810/1000/20/
013810/20130304/91955/2810/686/20/
013810/20130304/92007/2815/500/20/
013810/20130304/92009/2810/1877/10/
013810/20130304/92020/2810/2248/10/
013810/20130304/92024/2810/800/10/
013810/20130304/92029/2810/389/10/
013810/20130304/92032/2810/996/10/
013810/20130304/92033/2810/674/10/
013810/20130304/92039/2810/100/20/
013810/20130304/92043/2810/4000/20/
013810/20130304/92043/2810/1000/20/
013810/20130304/92045/2805/2800/10/
013810/20130304/92046/2810/182/20/
013810/20130304/92047/2810/282/20/
013810/20130304/92057/2815/81/20/
013810/20130304/92110/2810/3221/10/
013810/20130304/92120/2810/178/20/
013810/20130304/92135/2815/536/20/
013810/20130304/92139/2815/401/20/
013810/20130304/92139/2815/100/20/
013810/20130304/92142/2815/406/20/
013810/20130304/92143/2815/655/20/
013810/20130304/92146/2815/1000/10/
013810/20130304/92148/2820/500/20/
013810/20130304/92151/2820/1593/20/
013810/20130304/92157/2820/110/10/
013810/20130304/92200/2820/1518/10/
013810/20130304/92208/2820/134/20/
013810/20130304/92230/2815/4813/10/
013810/20130304/92239/2815/201/20/
013810/20130304/92250/2810/2000/10/
013810/20130304/92251/2815/100/20/
013810/20130304/92309/2815/300/20/
013810/20130304/92350/2810/1040/10/
013810/20130304/92356/2810/404/10/
013810/20130304/92357/2810/1600/10/
013810/20130304/92402/2810/588/10/
013810/20130304/92414/2810/510/10/
013810/20130304/92414/2805/217/10/
013810/20130304/92419/2805/400/10/
013810/20130304/92444/2805/400/10/
013810/20130304/92449/2805/180/10/
013810/20130304/92450/2805/1000/10/
013810/20130304/92450/2805/342/10/
013810/20130304/92458/2805/380/10/
013810/20130304/92514/2805/155/10/
013810/20130304/92520/2805/452/10/
013810/20130304/92522/2805/1819/10/
013810/20130304/92523/2800/365/10/
013810/20130304/92536/2800/6473/10/
013810/20130304/92537/2800/494/10/
013810/20130304/92537/2800/1400/10/
013810/20130304/92539/2800/170/10/
013810/20130304/92540/2805/1000/20/
013810/20130304/92549/2800/2068/10/
013810/20130304/92553/2805/573/20/
013810/20130304/92601/2805/429/10/
013810/20130304/92601/2800/1142/10/
013810/20130304/92650/2800/602/10/
013810/20130304/92712/2805/1010/20/
013810/20130304/92730/2805/600/20/
013810/20130304/92732/2805/169/20/
013810/20130304/92740/2805/100/20/
013810/20130304/92742/2805/500/20/
013810/20130304/92812/2800/174/10/
013810/20130304/92817/2800/400/10/
013810/20130304/92838/2805/531/20/
013810/20130304/92846/2805/119/20/
013810/20130304/92852/2805/181/10/
013810/20130304/92852/2800/250/10/
013810/20130304/92911/2800/388/10/
013810/20130304/92912/2800/1000/10/
013810/20130304/92914/2800/5078/10/
013810/20130304/92926/2800/1120/10/
013810/20130304/93007/2805/1461/20/
013810/20130304/93033/2810/2301/20/
013810/20130304/93059/2810/99/20/
013810/20130304/93107/2805/1384/10/
013810/20130304/93107/2800/4611/10/
013810/20130304/93229/2805/1002/10/
013810/20130304/93237/2805/1000/10/
013810/20130304/93319/2805/110/20/
013810/20130304/93331/2800/5454/10/
013810/20130304/93332/2805/100/20/
013810/20130304/93332/2805/1000/20/
013810/20130304/93358/2800/500/10/
013810/20130304/93405/2800/100/10/
013810/20130304/93423/2800/1779/10/
013810/20130304/93454/2800/130/10/
013810/20130304/93456/2805/3000/20/
013810/20130304/93501/2805/140/20/
013810/20130304/93511/2805/330/10/
013810/20130304/93528/2805/170/20/
013810/20130304/93620/2800/121/10/
013810/20130304/93642/2800/380/10/
013810/20130304/93654/2800/8000/10/
013810/20130304/93655/2800/233/10/
013810/20130304/93701/2800/116/10/
013810/20130304/93801/2805/132/20/
013810/20130304/93818/2805/1641/10/
013810/20130304/93818/2800/1742/10/
013810/20130304/93832/2800/110/10/
013810/20130304/93858/2800/510/10/
013810/20130304/93906/2800/1285/10/
013810/20130304/93917/2800/5463/10/
013810/20130304/93919/2800/382/10/
013810/20130304/93936/2800/533/20/
013810/20130304/93941/2800/467/10/
013810/20130304/93945/2800/1030/20/
013810/20130304/93953/2800/100/20/
013810/20130304/93954/2800/903/20/
013810/20130304/94019/2805/300/20/
013810/20130304/94030/2805/1500/20/
013810/20130304/94036/2805/1500/10/
013810/20130304/94036/2800/996/10/
013810/20130304/94057/2805/9500/10/
013810/20130304/94114/2800/500/10/
013810/20130304/94228/2810/2810/20/
013810/20130304/94242/2810/5001/10/
013810/20130304/94247/2810/101/10/
013810/20130304/94258/2810/111/10/
013810/20130304/94342/2810/226/20/
013810/20130304/94345/2810/1765/20/
013810/20130304/94354/2810/253/10/
013810/20130304/94354/2815/221/20/
013810/20130304/94356/2810/100/10/
013810/20130304/94409/2815/5349/20/
013810/20130304/94444/2815/1071/10/
013810/20130304/94450/2815/84/20/
013810/20130304/94515/2820/81/20/
013810/20130304/94534/2815/1506/10/
013810/20130304/94537/2815/1015/20/
013810/20130304/94542/2815/1014/20/
013810/20130304/94544/2815/107/20/
013810/20130304/94550/2815/411/20/
013810/20130304/94608/2820/218/20/
013810/20130304/94636/2820/174/20/
013810/20130304/94653/2815/3518/10/
013810/20130304/94655/2815/96/10/
013810/20130304/94732/2815/3044/20/
013810/20130304/94734/2815/1000/20/
013810/20130304/94737/2815/1179/20/
013810/20130304/94750/2815/2664/10/
013810/20130304/94755/2815/1678/20/
013810/20130304/94806/2815/103/20/
013810/20130304/94807/2815/178/20/
013810/20130304/94836/2820/120/20/
013810/20130304/94903/2815/1889/10/
013810/20130304/94903/2815/138/20/
013810/20130304/94935/2815/542/20/
013810/20130304/94942/2815/100/10/
013810/20130304/94959/2810/18002/10/
013810/20130304/95011/2810/100/20/
013810/20130304/95012/2810/100/20/
013810/20130304/95018/2810/1500/20/
013810/20130304/95020/2810/100/20/
013810/20130304/95024/2810/260/20/
013810/20130304/95026/2810/423/20/
013810/20130304/95026/2815/1577/20/
013810/20130304/95046/2810/4324/10/
013810/20130304/95052/2810/176/10/
013810/20130304/95059/2810/100/20/
013810/20130304/95115/2810/100/20/
013810/20130304/95145/2805/2365/10/
013810/20130304/95338/2805/2584/10/
013810/20130304/95338/2805/785/10/
013810/20130304/95351/2800/170/10/
013810/20130304/95354/2805/2000/20/
013810/20130304/95404/2805/100/20/
013810/20130304/95406/2800/1000/10/
013810/20130304/95417/2800/877/10/
013810/20130304/95432/2800/11901/10/
013810/20130304/95437/2800/1501/10/
013810/20130304/95445/2800/1454/10/
013810/20130304/95453/2795/9505/10/
013810/20130304/95540/2795/3386/10/
013810/20130304/95541/2800/100/20/
013810/20130304/95543/2800/130/20/
013810/20130304/95550/2800/1000/20/
013810/20130304/95553/2795/396/20/
013810/20130304/95553/2800/1604/20/
013810/20130304/95634/2795/3073/10/
013810/20130304/95640/2795/400/10/
013810/20130304/95641/2795/927/10/
013810/20130304/95641/2790/400/10/
013810/20130304/95652/2790/644/10/
013810/20130304/95705/2795/316/20/
013810/20130304/95714/2795/970/10/
013810/20130304/95732/2795/2000/10/
013810/20130304/95749/2795/2012/10/
013810/20130304/95751/2795/200/10/
013810/20130304/95755/2800/500/20/
013810/20130304/95755/2800/180/20/
013810/20130304/95811/2795/2053/10/
013810/20130304/95826/2795/122/20/
013810/20130304/95836/2795/376/20/
013810/20130304/95903/2795/100/10/
013810/20130304/95918/2800/120/20/
013810/20130304/100032/2800/96/20/
013810/20130304/100044/2800/138/20/
013810/20130304/100102/2800/500/20/
013810/20130304/100112/2800/138/20/
013810/20130304/100143/2805/511/20/
013810/20130304/100147/2805/449/20/
013810/20130304/100255/2805/328/10/
013810/20130304/100456/2805/338/20/
013810/20130304/100513/2805/100/20/
013810/20130304/100536/2805/90/20/
013810/20130304/100650/2800/1305/10/
013810/20130304/100658/2800/210/10/
013810/20130304/100713/2800/1958/10/
013810/20130304/100731/2800/501/10/
013810/20130304/100742/2800/1608/10/
013810/20130304/100742/2805/100/20/
013810/20130304/100804/2800/100/10/
013810/20130304/100814/2800/200/10/
013810/20130304/100819/2800/200/10/
013810/20130304/100919/2800/701/10/
013810/20130304/100940/2795/880/10/
013810/20130304/101008/2800/400/20/
013810/20130304/101026/2800/86/20/
013810/20130304/101036/2800/677/20/
013810/20130304/101036/2805/4323/20/
013810/20130304/101239/2800/324/10/
013810/20130304/101303/2800/300/10/
013810/20130304/101315/2805/4833/20/
013810/20130304/101332/2800/1000/10/
013810/20130304/101355/2805/500/20/
013810/20130304/101516/2800/210/10/
013810/20130304/101529/2800/110/10/
013810/20130304/101535/2800/206/10/
013810/20130304/101612/2800/395/10/
013810/20130304/101708/2800/3420/10/
013810/20130304/101719/2795/340/10/
013810/20130304/101808/2795/9446/10/
013810/20130304/101824/2795/81/20/
013810/20130304/101826/2790/200/10/
013810/20130304/101840/2795/2915/20/
013810/20130304/101843/2795/200/10/
013810/20130304/101845/2795/512/10/
013810/20130304/101908/2790/6590/10/
013810/20130304/101909/2790/332/10/
013810/20130304/101909/2790/3000/10/
013810/20130304/101912/2790/700/10/
013810/20130304/101917/2790/3000/10/
013810/20130304/101917/2790/839/10/
013810/20130304/101918/2790/7618/10/
013810/20130304/101919/2785/411/10/
013810/20130304/101921/2780/1500/10/
013810/20130304/101921/2780/1000/10/
013810/20130304/101930/2780/192/10/
013810/20130304/101932/2780/855/10/
013810/20130304/101950/2780/2774/10/
013810/20130304/102010/2780/200/10/
013810/20130304/102014/2780/747/10/
013810/20130304/102044/2785/251/10/
013810/20130304/102049/2780/3220/10/
013810/20130304/102126/2785/104/20/
013810/20130304/102154/2780/4878/10/
013810/20130304/102209/2775/304/10/
013810/20130304/102210/2775/120/10/
013810/20130304/102230/2780/196/20/
013810/20130304/102251/2780/870/10/
013810/20130304/102304/2780/103/10/
013810/20130304/102326/2780/1006/10/
013810/20130304/102351/2780/3123/10/
013810/20130304/102407/2780/2400/10/
013810/20130304/102446/2780/1106/10/
013810/20130304/102539/2780/243/10/
013810/20130304/102545/2785/177/20/
013810/20130304/102545/2785/100/20/
013810/20130304/102547/2785/2916/20/
013810/20130304/102547/2785/884/10/
013810/20130304/102552/2785/500/20/
013810/20130304/102556/2785/400/20/
013810/20130304/102558/2785/514/20/
013810/20130304/102559/2785/530/20/
013810/20130304/102600/2785/1129/20/
013810/20130304/102603/2785/1454/10/
013810/20130304/102624/2785/1089/10/
013810/20130304/102710/2785/100/10/
013810/20130304/102715/2785/90/10/
013810/20130304/102726/2790/2032/20/
013810/20130304/102731/2790/150/20/
013810/20130304/102745/2790/1080/20/
013810/20130304/102749/2790/1000/20/
013810/20130304/102800/2790/4606/20/
013810/20130304/102853/2800/477/20/
013810/20130304/103023/2800/236/20/
013810/20130304/103035/2800/160/10/
013810/20130304/103058/2800/100/20/
013810/20130304/103152/2800/200/20/
013810/20130304/103303/2795/152/10/
013810/20130304/103349/2795/252/10/
013810/20130304/103401/2795/100/20/
013810/20130304/103642/2790/1165/10/
013810/20130304/103727/2790/1060/10/
013810/20130304/103742/2790/2351/10/
013810/20130304/103935/2790/239/20/
013810/20130304/103945/2785/1623/10/
013810/20130304/103945/2790/1323/20/
013810/20130304/103948/2790/100/20/
013810/20130304/104009/2785/300/10/
013810/20130304/104037/2785/1916/10/
013810/20130304/104111/2785/989/10/
013810/20130304/104111/2780/7787/10/
013810/20130304/104125/2780/222/10/
013810/20130304/104134/2780/1124/20/
013810/20130304/104136/2780/200/20/
013810/20130304/104158/2785/93/10/
013810/20130304/104247/2785/121/10/
013810/20130304/104352/2785/100/10/
013810/20130304/104641/2780/4002/10/
013810/20130304/104907/2790/1778/20/
013810/20130304/104919/2790/1000/10/
013810/20130304/104937/2790/410/10/
013810/20130304/105001/2795/302/20/
013810/20130304/105003/2795/100/20/
013810/20130304/105011/2790/204/10/
013810/20130304/105011/2785/396/10/
013810/20130304/105145/2790/151/10/
013810/20130304/105145/2790/101/10/
013810/20130304/105145/2785/100/10/
013810/20130304/105251/2790/1732/10/
013810/20130304/105254/2790/89/10/
013810/20130304/105424/2785/1730/10/
013810/20130304/105448/2785/151/10/
013810/20130304/105450/2785/3161/10/
013810/20130304/105504/2785/82/10/
013810/20130304/105540/2790/1004/20/
013810/20130304/105746/2785/1147/10/
013810/20130304/105755/2785/156/10/
013810/20130304/105820/2785/162/10/
013810/20130304/105820/2780/4153/10/
013810/20130304/105820/2775/4700/10/
013810/20130304/105857/2775/2224/10/
013810/20130304/105900/2775/559/20/
013810/20130304/105903/2775/117/20/
013810/20130304/105944/2775/187/10/
013810/20130304/105946/2775/1000/10/
013810/20130304/110010/2775/1000/10/
013810/20130304/110019/2775/551/10/
013810/20130304/110047/2780/2771/10/
013810/20130304/110105/2780/501/10/
013810/20130304/110106/2785/500/20/
013810/20130304/110242/2780/131/10/
013810/20130304/110319/2780/1003/10/
013810/20130304/110437/2785/484/20/
013810/20130304/110446/2785/237/20/
013810/20130304/110448/2785/1127/20/
013810/20130304/110532/2785/101/10/
013810/20130304/110621/2780/140/10/
013810/20130304/110642/2780/201/10/
013810/20130304/110656/2780/1930/10/
013810/20130304/110658/2775/1500/10/
013810/20130304/110700/2780/343/10/
013810/20130304/110758/2780/1395/10/
013810/20130304/110851/2780/475/10/
013810/20130304/110859/2780/157/10/
013810/20130304/110914/2785/101/20/
013810/20130304/110933/2780/95/10/
013810/20130304/111000/2780/1800/10/
013810/20130304/111011/2785/901/20/
013810/20130304/111052/2785/1351/20/
013810/20130304/111056/2785/1000/20/
013810/20130304/111056/2785/1000/20/
013810/20130304/111059/2785/503/20/
013810/20130304/111142/2790/1066/20/
013810/20130304/111144/2790/1464/20/
013810/20130304/111149/2795/89/20/
013810/20130304/111149/2795/1000/20/
013810/20130304/111149/2795/106/20/
013810/20130304/111150/2795/1856/20/
013810/20130304/111150/2800/1170/20/
013810/20130304/111154/2800/169/20/
013810/20130304/111156/2800/82/20/
013810/20130304/111157/2800/181/20/
013810/20130304/111159/2800/81/10/
013810/20130304/111201/2805/1058/20/
013810/20130304/111202/2805/112/20/
013810/20130304/111202/2805/111/20/
013810/20130304/111202/2805/122/20/
013810/20130304/111203/2805/379/20/
013810/20130304/111203/2805/3866/20/
013810/20130304/111204/2805/106/20/
013810/20130304/111204/2805/285/20/
013810/20130304/111206/2810/103/20/
013810/20130304/111209/2810/87/20/
013810/20130304/111209/2810/510/20/
013810/20130304/111210/2810/159/20/
013810/20130304/111210/2810/255/20/
013810/20130304/111211/2810/224/10/
013810/20130304/111213/2815/90/20/
013810/20130304/111216/2815/85/20/
013810/20130304/111216/2815/640/20/
013810/20130304/111218/2815/1052/20/
013810/20130304/111219/2815/539/20/
013810/20130304/111220/2815/126/20/
013810/20130304/111222/2815/492/20/
013810/20130304/111224/2815/156/20/
013810/20130304/111224/2815/4451/20/
013810/20130304/111226/2815/589/10/
013810/20130304/111226/2815/480/20/
013810/20130304/111227/2815/106/20/
013810/20130304/111227/2815/632/20/
013810/20130304/111228/2815/636/20/
013810/20130304/111230/2815/2099/20/
013810/20130304/111230/2815/2917/10/
013810/20130304/111231/2810/509/10/
013810/20130304/111233/2815/3311/20/
013810/20130304/111234/2810/1014/10/
013810/20130304/111235/2810/293/10/
013810/20130304/111235/2810/2005/10/
013810/20130304/111237/2810/1013/10/
013810/20130304/111237/2815/300/20/
013810/20130304/111237/2810/151/10/
013810/20130304/111237/2815/974/20/
013810/20130304/111238/2810/816/10/
013810/20130304/111239/2810/184/20/
013810/20130304/111239/2810/824/10/
013810/20130304/111240/2810/102/20/
013810/20130304/111243/2805/1251/10/
013810/20130304/111243/2800/4581/10/
013810/20130304/111244/2800/285/20/
013810/20130304/111252/2800/103/20/
013810/20130304/111254/2800/1004/20/
013810/20130304/111254/2795/1000/10/
013810/20130304/111254/2800/100/20/
013810/20130304/111254/2795/450/10/
013810/20130304/111254/2800/210/20/
013810/20130304/111255/2800/96/20/
013810/20130304/111256/2800/100/20/
013810/20130304/111259/2800/1663/20/
013810/20130304/111309/2805/158/10/
013810/20130304/111309/2800/374/10/
013810/20130304/111310/2800/1000/10/
013810/20130304/111312/2800/630/10/
013810/20130304/111323/2800/1000/10/
013810/20130304/111335/2800/1071/10/
013810/20130304/111336/2800/500/10/
013810/20130304/111411/2805/1050/20/
013810/20130304/111415/2805/470/10/
013810/20130304/111417/2810/959/20/
013810/20130304/111419/2810/440/20/
013810/20130304/111422/2810/1000/20/
013810/20130304/111430/2805/170/10/
013810/20130304/111446/2810/2825/20/
013810/20130304/111446/2815/19001/20/
013810/20130304/111447/2815/2292/10/
013810/20130304/111454/2810/708/20/
013810/20130304/111527/2815/1553/20/
013810/20130304/111528/2815/3000/10/
013810/20130304/111529/2815/1739/10/
013810/20130304/111530/2815/1371/10/
013810/20130304/111532/2815/500/10/
013810/20130304/111532/2815/1259/10/
013810/20130304/111534/2815/2588/10/
013810/20130304/111550/2810/3000/10/
013810/20130304/111612/2810/186/10/
013810/20130304/111622/2810/1814/20/
013810/20130304/111629/2815/453/20/
013810/20130304/111636/2815/1759/20/
013810/20130304/111638/2815/1501/10/
013810/20130304/111647/2815/404/20/
013810/20130304/111700/2815/500/20/
013810/20130304/111709/2815/2255/20/
013810/20130304/111711/2815/2850/10/
013810/20130304/111711/2815/250/10/
013810/20130304/111712/2815/2013/10/
013810/20130304/111713/2815/200/10/
013810/20130304/111717/2815/555/10/
013810/20130304/111718/2815/165/10/
013810/20130304/111725/2815/922/10/
013810/20130304/111759/2810/700/20/
013810/20130304/111805/2815/104/20/
013810/20130304/111926/2815/116/20/
013810/20130304/111947/2805/359/10/
013810/20130304/112017/2810/3905/20/
013810/20130304/112034/2810/90/10/
013810/20130304/112104/2810/1363/10/
013810/20130304/112112/2810/272/10/
013810/20130304/112118/2810/576/10/
013810/20130304/112126/2810/200/10/
013810/20130304/112141/2815/120/20/
013810/20130304/112153/2815/200/20/
013810/20130304/112215/2815/110/20/
013810/20130304/112228/2810/200/10/
013810/20130304/112234/2810/481/10/
013810/20130304/112239/2810/326/10/
013810/20130304/112408/2810/2340/20/
013810/20130304/112601/2815/517/20/
013810/20130304/112616/2815/503/20/
013810/20130304/112617/2815/106/20/
013810/20130304/112620/2815/498/20/
013810/20130304/112730/2810/113/10/
013810/20130304/112743/2810/203/10/
013810/20130304/112746/2810/101/10/
013810/20130304/112804/2810/242/10/
013810/20130304/113001/2810/155/10/
013810/20130304/113006/2810/1001/10/
013810/20130304/113018/2810/150/10/
013810/20130304/113033/2810/365/10/
013810/20130304/113036/2810/1000/10/
013810/20130304/113122/2815/3002/20/
013810/20130304/113157/2815/1000/20/
013810/20130304/113246/2815/2632/20/
013810/20130304/113251/2815/1000/20/
013810/20130304/113300/2815/316/20/
013810/20130304/113328/2815/302/10/
013810/20130304/113441/2820/503/20/
013810/20130304/113443/2820/3000/20/
013810/20130304/113449/2815/3488/10/
013810/20130304/113515/2815/160/20/
013810/20130304/113535/2815/368/20/
013810/20130304/113556/2815/1545/20/
013810/20130304/113557/2815/100/20/
013810/20130304/113558/2815/106/20/
013810/20130304/113601/2815/505/20/
013810/20130304/113616/2810/1037/10/
013810/20130304/113653/2815/354/20/
013810/20130304/113725/2810/495/10/
013810/20130304/113754/2810/1000/10/
013810/20130304/113800/2810/500/10/
013810/20130304/113848/2810/441/10/
013810/20130304/113935/2815/512/20/
013810/20130304/113944/2815/1000/20/
013810/20130304/113954/2815/779/20/
013810/20130304/114058/2815/568/10/
013810/20130304/114112/2815/100/20/
013810/20130304/114146/2815/500/20/
013810/20130304/114210/2815/123/20/
013810/20130304/114238/2810/368/10/
013810/20130304/114345/2815/420/10/
013810/20130304/114354/2815/304/10/
013810/20130304/114434/2815/230/10/
013810/20130304/114438/2815/285/10/
013810/20130304/114442/2815/100/10/
013810/20130304/114508/2815/180/10/
013810/20130304/114510/2815/188/10/
013810/20130304/114510/2810/2212/10/
013810/20130304/114537/2815/136/20/
013810/20130304/114617/2815/150/20/
013810/20130304/114647/2820/95/20/
013810/20130304/114705/2820/4360/20/
013810/20130304/114730/2820/4000/20/
013810/20130304/114752/2820/227/20/
013810/20130304/114759/2820/327/20/
013810/20130304/114801/2820/872/20/
013810/20130304/114803/2820/3500/20/
013810/20130304/114810/2820/437/20/
013810/20130304/114834/2820/655/20/
013810/20130304/114847/2820/865/20/
013810/20130304/114847/2820/119/20/
013810/20130304/114849/2820/581/10/
013810/20130304/114919/2820/3509/20/
013810/20130304/114954/2815/817/10/
013810/20130304/115135/2815/5001/10/
013810/20130304/115226/2810/702/10/
013810/20130304/115256/2810/610/10/
013810/20130304/115301/2810/300/10/
013810/20130304/115345/2810/860/10/
013810/20130304/115350/2810/477/10/
013810/20130304/115545/2810/187/20/
013810/20130304/115559/2810/271/20/
013810/20130304/115608/2810/1006/20/
013810/20130304/115644/2815/81/20/
013810/20130304/115654/2810/555/10/
013810/20130304/115711/2815/264/20/
013810/20130304/115733/2810/310/10/
013810/20130304/115807/2810/259/10/
013810/20130304/115823/2805/2006/10/
013810/20130304/115830/2805/759/10/
013810/20130304/115830/2800/2566/10/
013810/20130304/115830/2795/675/10/
013810/20130304/120112/2805/201/10/
013810/20130304/120149/2805/630/10/
013810/20130304/120205/2805/467/10/
013810/20130304/120325/2810/1001/20/
013810/20130304/120334/2810/283/10/
013810/20130304/120422/2810/244/20/
013810/20130304/120434/2810/286/10/
013810/20130304/120450/2810/879/10/
013810/20130304/120520/2810/131/20/
013810/20130304/120549/2810/370/10/
013810/20130304/120600/2810/130/20/
013810/20130304/120606/2810/500/10/
013810/20130304/120817/2805/326/10/
013810/20130304/120817/2800/200/10/
013810/20130304/121118/2800/403/10/
013810/20130304/121233/2800/117/10/
013810/20130304/121253/2800/101/10/
013810/20130304/121335/2800/201/10/
013810/20130304/121353/2800/1630/10/
013810/20130304/121432/2805/120/20/
013810/20130304/121537/2805/144/20/
013810/20130304/121737/2810/369/20/
013810/20130304/121919/2800/1251/10/
013810/20130304/121941/2800/1779/10/
013810/20130304/122032/2795/1010/10/
013810/20130304/122056/2800/110/20/
013810/20130304/122109/2800/500/20/
013810/20130304/122222/2800/507/20/
013810/20130304/122237/2795/3893/10/
013810/20130304/122237/2790/3844/10/
013810/20130304/122309/2800/1002/20/
013810/20130304/122450/2795/261/10/
013810/20130304/122510/2795/141/20/
013810/20130304/122514/2795/310/20/
013810/20130304/122642/2800/1192/20/
013810/20130304/122713/2800/901/20/
013810/20130304/122720/2800/99/10/
013810/20130304/122759/2795/2690/10/
013810/20130304/122759/2790/577/10/
013810/20130304/123021/2805/1003/20/
013810/20130304/123109/2805/1003/20/
013810/20130304/123244/2800/200/20/
013810/20130304/123250/2800/500/20/
013810/20130304/123435/2795/6400/10/
013810/20130304/123435/2790/14625/10/
013810/20130304/123435/2785/3143/10/
013810/20130304/123540/2795/97/20/
013810/20130304/123601/2795/778/20/
013810/20130304/123617/2790/700/10/
013810/20130304/123701/2785/346/10/
013810/20130304/123718/2790/1665/10/
013810/20130304/123741/2795/83/20/
013810/20130304/123821/2790/791/10/
013810/20130304/123840/2790/200/20/
013810/20130304/123857/2790/100/20/
013810/20130304/123932/2785/190/10/
013810/20130304/123946/2785/2000/10/
013810/20130304/124059/2785/141/10/
013810/20130304/124115/2785/250/10/
013810/20130304/124116/2785/2688/10/
013810/20130304/124206/2785/444/10/
013810/20130304/124220/2780/9665/10/
013810/20130304/124225/2780/100/20/
013810/20130304/124245/2780/115/20/
013810/20130304/124250/2780/500/20/
013810/20130304/124251/2780/110/20/
013810/20130304/124257/2780/110/20/
013810/20130304/124301/2780/514/20/
013810/20130304/124310/2780/486/10/
013810/20130304/124316/2780/100/10/
013810/20130304/124448/2780/478/10/
013810/20130304/124517/2780/1000/10/
013810/20130304/124524/2780/1550/10/
013810/20130304/124526/2780/180/10/
013810/20130304/124527/2780/872/10/
013810/20130304/124532/2780/800/10/
013810/20130304/124544/2780/1128/10/
013810/20130304/124554/2780/2794/10/
013810/20130304/124620/2780/202/20/
013810/20130304/124624/2780/1020/20/
013810/20130304/124632/2780/100/20/
013810/20130304/124633/2780/385/20/
013810/20130304/124641/2780/200/10/
013810/20130304/124729/2780/201/10/
013810/20130304/124929/2790/142/20/
013810/20130304/124938/2790/778/20/
013810/20130304/125005/2790/88/20/
013810/20130304/125019/2785/2771/10/
013810/20130304/125026/2785/310/10/
013810/20130304/125105/2785/800/10/
013810/20130304/125119/2785/1843/10/
013810/20130304/125229/2780/933/10/
013810/20130304/125232/2780/657/10/
013810/20130304/125253/2780/2404/10/
013810/20130304/125323/2780/3594/10/
013810/20130304/125335/2780/833/10/
013810/20130304/125427/2780/145/10/
013810/20130304/125506/2780/89/10/
013810/20130304/125506/2780/89/10/
013810/20130304/125517/2780/108/10/
013810/20130304/125524/2780/3178/10/
013810/20130304/125639/2775/5510/10/
013810/20130304/125651/2775/955/10/
013810/20130304/125722/2775/430/10/
013810/20130304/125725/2775/700/10/
013810/20130304/125726/2775/530/10/
013810/20130304/125727/2775/960/10/
013810/20130304/125823/2775/622/10/
013810/20130304/125829/2775/100/10/
013810/20130304/125923/2775/2479/10/
013810/20130304/130006/2775/300/20/
013810/20130304/130119/2780/101/20/
013810/20130304/130139/2790/1783/20/
013810/20130304/130330/2790/390/20/
013810/20130304/130331/2790/5000/20/
013810/20130304/130338/2790/1009/20/
013810/20130304/130555/2785/264/10/
013810/20130304/130558/2790/150/20/
013810/20130304/130603/2785/200/10/
013810/20130304/130629/2785/143/10/
013810/20130304/130635/2785/440/10/
013810/20130304/130651/2785/400/10/
013810/20130304/130716/2785/600/20/
013810/20130304/130733/2785/1000/20/
013810/20130304/130838/2780/535/10/
013810/20130304/130935/2780/3564/10/
013810/20130304/131014/2780/700/10/
013810/20130304/131021/2780/601/10/
013810/20130304/131026/2785/81/20/
013810/20130304/131037/2780/409/10/
013810/20130304/131119/2780/400/10/
013810/20130304/131133/2780/1180/10/
013810/20130304/131235/2780/2000/20/
013810/20130304/131235/2780/500/20/
013810/20130304/131254/2780/292/20/
013810/20130304/131333/2780/500/20/
013810/20130304/131335/2775/1000/10/
013810/20130304/131358/2780/1395/20/
013810/20130304/131407/2775/1000/10/
013810/20130304/131702/2775/100/10/
013810/20130304/131710/2780/510/20/
013810/20130304/131715/2775/4841/10/
013810/20130304/131719/2775/510/20/
013810/20130304/131725/2775/300/20/
013810/20130304/131727/2775/734/20/
013810/20130304/131910/2775/244/10/
013810/20130304/132031/2785/103/20/
013810/20130304/132107/2780/160/10/
013810/20130304/132133/2775/7100/10/
013810/20130304/132430/2780/2001/20/
013810/20130304/132430/2785/1000/20/
013810/20130304/132601/2785/818/20/
013810/20130304/132704/2790/839/10/
013810/20130304/132735/2790/2161/10/
013810/20130304/132742/2790/339/20/
013810/20130304/132747/2790/1671/10/
013810/20130304/132748/2790/908/20/
013810/20130304/132753/2790/1395/10/
013810/20130304/132757/2790/435/10/
013810/20130304/132758/2790/1678/20/
013810/20130304/132802/2790/322/10/
013810/20130304/132803/2790/1678/20/
013810/20130304/132808/2790/822/10/
013810/20130304/132809/2790/178/20/
013810/20130304/132811/2790/1822/10/
013810/20130304/132812/2790/178/20/
013810/20130304/132825/2790/170/10/
013810/20130304/132846/2790/2000/10/
013810/20130304/132851/2790/500/10/
013810/20130304/132905/2790/2268/10/
013810/20130304/132910/2790/886/10/
013810/20130304/133001/2790/419/20/
013810/20130304/133026/2790/2995/20/
013810/20130304/133153/2790/1005/10/
013810/20130304/133213/2790/120/10/
013810/20130304/133301/2795/192/20/
013810/20130304/133317/2795/416/20/
013810/20130304/133347/2795/437/20/
013810/20130304/133355/2800/1000/20/
013810/20130304/133431/2795/580/10/
013810/20130304/133431/2790/420/10/
013810/20130304/133455/2795/303/20/
013810/20130304/133504/2795/230/10/
013810/20130304/133542/2790/1450/10/
013810/20130304/133547/2795/440/20/
013810/20130304/133740/2790/1574/10/
013810/20130304/133821/2790/1011/10/
013810/20130304/133838/2790/1000/10/
013810/20130304/133938/2785/3536/10/
013810/20130304/134010/2780/300/10/
013810/20130304/134257/2780/293/10/
013810/20130304/134415/2780/402/10/
013810/20130304/134547/2780/102/10/
013810/20130304/134616/2790/111/20/
013810/20130304/134721/2785/567/20/
013810/20130304/134806/2780/260/10/
013810/20130304/134812/2780/150/10/
013810/20130304/134817/2780/413/10/
013810/20130304/134833/2780/3120/10/
013810/20130304/134905/2780/2607/10/
013810/20130304/134931/2780/644/10/
013810/20130304/135026/2775/1246/10/
013810/20130304/135035/2785/94/20/
013810/20130304/135138/2775/264/10/
013810/20130304/135249/2775/2012/10/
013810/20130304/135320/2775/7000/10/
013810/20130304/135345/2775/200/10/
013810/20130304/135348/2775/500/10/
013810/20130304/135524/2775/201/10/
013810/20130304/135602/2775/3300/10/
013810/20130304/135739/2775/604/10/
013810/20130304/135804/2775/198/10/
013810/20130304/135835/2775/100/10/
013810/20130304/135932/2775/200/10/
013810/20130304/140035/2775/1551/10/
013810/20130304/140059/2775/3396/10/
013810/20130304/140115/2775/132/20/
013810/20130304/140129/2775/243/20/
013810/20130304/140133/2780/100/20/
013810/20130304/140148/2775/1083/10/
013810/20130304/140153/2775/363/20/
013810/20130304/140201/2775/1141/10/
013810/20130304/140257/2775/1408/10/
013810/20130304/140330/2770/110/10/
013810/20130304/140337/2770/12644/10/
013810/20130304/140341/2770/1050/20/
013810/20130304/140346/2770/200/20/
013810/20130304/140348/2770/5020/20/
013810/20130304/140348/2770/200/20/
013810/20130304/140349/2770/186/20/
013810/20130304/140511/2775/260/20/
013810/20130304/140603/2775/4884/10/
013810/20130304/140735/2780/110/20/
013810/20130304/140810/2775/300/10/
013810/20130304/140814/2780/3586/20/
013810/20130304/140939/2790/374/20/
013810/20130304/141010/2785/1503/10/
013810/20130304/141041/2780/1500/10/
013810/20130304/141041/2775/2622/10/
013810/20130304/141041/2770/247/10/
013810/20130304/141121/2785/1087/20/
013810/20130304/141127/2785/180/20/
013810/20130304/141133/2790/522/20/
013810/20130304/141209/2785/207/20/
013810/20130304/141209/2790/800/20/
013810/20130304/141236/2785/300/20/
013810/20130304/141244/2785/200/10/
013810/20130304/141250/2785/330/10/
013810/20130304/141255/2785/150/10/
013810/20130304/141321/2785/90/20/
013810/20130304/141329/2785/147/20/
013810/20130304/141534/2785/1062/20/
013810/20130304/141629/2785/312/20/
013810/20130304/141634/2780/314/10/
013810/20130304/141635/2785/200/20/
013810/20130304/141707/2785/100/20/
013810/20130304/141719/2785/500/20/
013810/20130304/141749/2790/3823/20/
013810/20130304/141835/2790/350/20/
013810/20130304/141916/2790/500/20/
013810/20130304/142019/2785/291/10/
013810/20130304/142021/2785/112/10/
013810/20130304/142025/2785/658/10/
013810/20130304/142033/2785/1000/20/
013810/20130304/142238/2780/1026/10/
013810/20130304/142245/2780/1000/10/
013810/20130304/142302/2780/112/10/
013810/20130304/142304/2780/100/10/
013810/20130304/142306/2780/1000/10/
013810/20130304/142314/2780/479/10/
013810/20130304/142316/2775/3000/10/
013810/20130304/142353/2775/1989/10/
013810/20130304/142359/2775/500/10/
013810/20130304/142421/2775/300/10/
013810/20130304/142440/2775/300/10/
013810/20130304/142452/2775/741/10/
013810/20130304/142519/2775/130/10/
013810/20130304/142519/2775/312/20/
013810/20130304/142532/2775/550/20/
013810/20130304/142630/2780/1019/20/
013810/20130304/142648/2780/248/20/
013810/20130304/142748/2780/3604/10/
013810/20130304/142748/2775/1450/10/
013810/20130304/142915/2785/88/20/
013810/20130304/142919/2785/1000/20/
013810/20130304/142925/2785/472/20/
013810/20130304/143019/2790/507/20/
013810/20130304/143029/2790/500/20/
013810/20130304/143035/2790/500/20/
013810/20130304/143206/2790/172/20/
013810/20130304/143207/2790/500/20/
013810/20130304/143213/2785/500/10/
013810/20130304/143218/2790/1000/20/
013810/20130304/143244/2790/500/20/
013810/20130304/143251/2785/2904/10/
013810/20130304/143251/2780/898/10/
013810/20130304/143335/2785/449/10/
013810/20130304/143349/2785/126/10/
013810/20130304/143400/2785/206/10/
013810/20130304/143403/2785/546/10/
013810/20130304/143414/2780/229/10/
013810/20130304/143417/2780/1855/10/
013810/20130304/143428/2780/1000/10/
013810/20130304/143436/2780/1058/10/
013810/20130304/143621/2780/197/10/
013810/20130304/143631/2780/365/10/
013810/20130304/143631/2775/635/10/
013810/20130304/143644/2775/2425/10/
013810/20130304/143644/2770/9918/10/
013810/20130304/143700/2770/415/10/
013810/20130304/143712/2770/500/10/
013810/20130304/143729/2770/1501/10/
013810/20130304/143738/2770/983/10/
013810/20130304/143755/2770/1366/10/
013810/20130304/143756/2770/1195/20/
013810/20130304/143837/2770/980/10/
013810/20130304/143847/2770/889/10/
013810/20130304/143921/2765/1066/10/
013810/20130304/143933/2765/111/10/
013810/20130304/143935/2765/1000/10/
013810/20130304/143938/2765/2000/10/
013810/20130304/143939/2770/145/20/
013810/20130304/144002/2770/354/20/
013810/20130304/144004/2770/921/20/
013810/20130304/144031/2770/1129/10/
013810/20130304/144100/2775/330/20/
013810/20130304/144141/2780/1600/20/
013810/20130304/144307/2780/554/10/
013810/20130304/144318/2780/100/10/
013810/20130304/144319/2780/1000/10/
013810/20130304/144350/2780/338/10/
013810/20130304/144419/2775/677/10/
013810/20130304/144451/2775/1678/10/
013810/20130304/144451/2770/1424/10/
013810/20130304/144502/2770/4000/10/
013810/20130304/144512/2770/380/10/
013810/20130304/144512/2770/100/10/
013810/20130304/144514/2770/13506/10/
013810/20130304/144516/2770/1000/20/
013810/20130304/144519/2770/2547/20/
013810/20130304/144527/2770/801/20/
013810/20130304/144528/2770/100/20/
013810/20130304/144529/2770/310/20/
013810/20130304/144530/2770/700/20/
013810/20130304/144534/2770/1038/20/
013810/20130304/144551/2770/351/10/
013810/20130304/144612/2780/123/20/
013810/20130304/144630/2775/174/10/
013810/20130304/144638/2780/361/20/
013810/20130304/144651/2780/141/10/
013810/20130304/144651/2775/266/10/
013810/20130304/144652/2775/4574/10/
013810/20130304/144659/2775/5426/20/
013810/20130304/144700/2780/180/10/
013810/20130304/144711/2780/322/10/
013810/20130304/144711/2780/180/10/
013810/20130304/144713/2780/87/10/
013810/20130304/144720/2780/120/20/
013810/20130304/144734/2785/101/20/
013810/20130304/144745/2785/2124/20/
013810/20130304/144804/2775/318/10/
013810/20130304/144804/2770/683/10/
013810/20130304/144824/2770/139/10/
013810/20130304/144854/2770/3002/10/
013810/20130304/144910/2780/501/20/
013810/20130304/144925/2770/997/10/
013810/20130304/144947/2770/881/10/
013810/20130304/150000/2760/58548/10/
