013810/20130306/90000/3180/376250/10/
013810/20130306/90002/3180/2510/10/
013810/20130306/90002/3190/3000/20/
013810/20130306/90002/3180/200/10/
013810/20130306/90002/3190/1593/20/
013810/20130306/90002/3185/471/20/
013810/20130306/90002/3180/109/10/
013810/20130306/90003/3180/130/10/
013810/20130306/90003/3190/1010/20/
013810/20130306/90003/3180/447/10/
013810/20130306/90003/3190/400/20/
013810/20130306/90003/3190/2422/20/
013810/20130306/90003/3195/3397/20/
013810/20130306/90004/3195/317/20/
013810/20130306/90004/3195/4255/20/
013810/20130306/90004/3200/5745/20/
013810/20130306/90004/3185/356/10/
013810/20130306/90004/3200/125/20/
013810/20130306/90004/3200/101/20/
013810/20130306/90004/3200/8803/20/
013810/20130306/90005/3200/7872/20/
013810/20130306/90005/3200/300/20/
013810/20130306/90005/3195/252/20/
013810/20130306/90005/3195/130/20/
013810/20130306/90005/3200/1327/20/
013810/20130306/90005/3200/291/20/
013810/20130306/90005/3200/2000/20/
013810/20130306/90005/3200/1990/20/
013810/20130306/90005/3185/200/10/
013810/20130306/90005/3200/166/20/
013810/20130306/90006/3190/363/10/
013810/20130306/90006/3185/1657/10/
013810/20130306/90006/3200/110/20/
013810/20130306/90006/3200/1800/20/
013810/20130306/90006/3185/512/10/
013810/20130306/90006/3185/522/10/
013810/20130306/90006/3180/1478/10/
013810/20130306/90006/3200/155/20/
013810/20130306/90007/3200/100/20/
013810/20130306/90007/3180/500/10/
013810/20130306/90007/3200/3034/20/
013810/20130306/90007/3200/100/20/
013810/20130306/90007/3200/1010/20/
013810/20130306/90007/3200/100/20/
013810/20130306/90007/3200/500/20/
013810/20130306/90008/3200/358/20/
013810/20130306/90008/3200/295/20/
013810/20130306/90008/3200/376/20/
013810/20130306/90008/3190/210/10/
013810/20130306/90008/3200/500/20/
013810/20130306/90009/3200/508/20/
013810/20130306/90009/3190/469/10/
013810/20130306/90009/3190/188/10/
013810/20130306/90009/3190/400/10/
013810/20130306/90009/3190/642/10/
013810/20130306/90009/3190/332/10/
013810/20130306/90009/3185/209/10/
013810/20130306/90009/3180/347/10/
013810/20130306/90010/3190/110/20/
013810/20130306/90010/3185/234/10/
013810/20130306/90010/3195/2112/20/
013810/20130306/90010/3200/1772/20/
013810/20130306/90010/3200/468/20/
013810/20130306/90010/3200/627/20/
013810/20130306/90011/3190/370/20/
013810/20130306/90011/3195/348/20/
013810/20130306/90011/3200/3487/20/
013810/20130306/90011/3205/1587/20/
013810/20130306/90012/3185/197/10/
013810/20130306/90012/3200/540/20/
013810/20130306/90012/3190/330/20/
013810/20130306/90012/3190/577/20/
013810/20130306/90012/3185/210/10/
013810/20130306/90012/3190/100/20/
013810/20130306/90012/3190/1630/20/
013810/20130306/90013/3190/100/20/
013810/20130306/90013/3185/2000/10/
013810/20130306/90013/3190/263/20/
013810/20130306/90013/3190/570/20/
013810/20130306/90013/3190/178/20/
013810/20130306/90013/3190/733/20/
013810/20130306/90013/3205/100/20/
013810/20130306/90014/3200/910/20/
013810/20130306/90014/3195/100/20/
013810/20130306/90014/3205/1468/20/
013810/20130306/90014/3195/200/10/
013810/20130306/90014/3205/100/20/
013810/20130306/90014/3205/93/20/
013810/20130306/90014/3205/3114/20/
013810/20130306/90015/3205/100/20/
013810/20130306/90015/3205/1378/20/
013810/20130306/90015/3210/1515/20/
013810/20130306/90015/3215/506/20/
013810/20130306/90015/3220/1455/20/
013810/20130306/90015/3195/200/10/
013810/20130306/90015/3190/400/10/
013810/20130306/90015/3215/109/20/
013810/20130306/90015/3195/100/10/
013810/20130306/90015/3205/760/20/
013810/20130306/90015/3215/100/20/
013810/20130306/90016/3205/1429/10/
013810/20130306/90016/3215/105/20/
013810/20130306/90016/3200/551/10/
013810/20130306/90016/3215/100/20/
013810/20130306/90016/3215/120/20/
013810/20130306/90017/3215/117/20/
013810/20130306/90017/3215/841/20/
013810/20130306/90017/3210/170/10/
013810/20130306/90017/3200/140/10/
013810/20130306/90017/3215/110/20/
013810/20130306/90017/3215/124/20/
013810/20130306/90017/3210/100/20/
013810/20130306/90017/3215/1070/20/
013810/20130306/90018/3215/1521/20/
013810/20130306/90018/3215/110/20/
013810/20130306/90018/3205/250/10/
013810/20130306/90018/3210/140/20/
013810/20130306/90018/3210/114/20/
013810/20130306/90018/3210/110/20/
013810/20130306/90018/3205/1283/10/
013810/20130306/90018/3210/124/20/
013810/20130306/90018/3210/208/20/
013810/20130306/90018/3210/100/20/
013810/20130306/90019/3210/158/20/
013810/20130306/90019/3210/104/20/
013810/20130306/90019/3205/1013/10/
013810/20130306/90019/3200/1000/10/
013810/20130306/90020/3205/122/20/
013810/20130306/90020/3205/265/20/
013810/20130306/90020/3205/100/20/
013810/20130306/90020/3200/818/10/
013810/20130306/90020/3205/1455/20/
013810/20130306/90020/3200/128/10/
013810/20130306/90020/3195/2758/10/
013810/20130306/90020/3190/5035/10/
013810/20130306/90021/3205/10059/20/
013810/20130306/90021/3205/162/20/
013810/20130306/90021/3200/162/10/
013810/20130306/90021/3205/114/20/
013810/20130306/90021/3210/103/20/
013810/20130306/90021/3210/100/20/
013810/20130306/90021/3200/237/10/
013810/20130306/90021/3200/2070/10/
013810/20130306/90021/3210/100/20/
013810/20130306/90022/3205/933/10/
013810/20130306/90022/3200/1411/10/
013810/20130306/90022/3210/100/20/
013810/20130306/90022/3200/108/10/
013810/20130306/90022/3200/956/10/
013810/20130306/90022/3200/909/10/
013810/20130306/90022/3205/166/10/
013810/20130306/90022/3210/1985/20/
013810/20130306/90022/3210/804/20/
013810/20130306/90022/3210/100/20/
013810/20130306/90023/3200/137/20/
013810/20130306/90023/3200/100/20/
013810/20130306/90023/3200/1298/10/
013810/20130306/90023/3200/1383/10/
013810/20130306/90023/3200/300/10/
013810/20130306/90023/3210/2109/20/
013810/20130306/90023/3215/741/20/
013810/20130306/90023/3215/667/20/
013810/20130306/90023/3210/100/20/
013810/20130306/90023/3210/400/20/
013810/20130306/90023/3215/35161/20/
013810/20130306/90023/3215/112/20/
013810/20130306/90023/3205/1500/10/
013810/20130306/90024/3205/170/10/
013810/20130306/90024/3210/1341/20/
013810/20130306/90024/3215/1141/20/
013810/20130306/90024/3210/100/20/
013810/20130306/90024/3215/100/20/
013810/20130306/90024/3215/765/20/
013810/20130306/90024/3210/500/10/
013810/20130306/90024/3215/9620/20/
013810/20130306/90024/3220/6060/20/
013810/20130306/90025/3210/1149/10/
013810/20130306/90025/3220/110/20/
013810/20130306/90025/3220/371/20/
013810/20130306/90025/3210/455/10/
013810/20130306/90025/3220/120/20/
013810/20130306/90025/3220/475/20/
013810/20130306/90026/3220/552/20/
013810/20130306/90026/3215/2448/10/
013810/20130306/90026/3215/262/10/
013810/20130306/90026/3220/198/20/
013810/20130306/90026/3225/802/20/
013810/20130306/90026/3225/543/20/
013810/20130306/90026/3230/398/20/
013810/20130306/90026/3230/507/20/
013810/20130306/90026/3220/124/20/
013810/20130306/90026/3215/1590/10/
013810/20130306/90026/3230/403/20/
013810/20130306/90026/3215/202/10/
013810/20130306/90026/3220/152/20/
013810/20130306/90027/3220/87/20/
013810/20130306/90027/3220/152/20/
013810/20130306/90027/3220/1109/20/
013810/20130306/90027/3230/687/20/
013810/20130306/90027/3220/512/20/
013810/20130306/90028/3215/162/10/
013810/20130306/90028/3230/5012/20/
013810/20130306/90028/3230/82/20/
013810/20130306/90028/3230/9380/20/
013810/20130306/90028/3235/620/20/
013810/20130306/90029/3215/112/10/
013810/20130306/90029/3215/101/10/
013810/20130306/90029/3230/215/20/
013810/20130306/90029/3215/106/10/
013810/20130306/90029/3230/322/20/
013810/20130306/90030/3230/150/20/
013810/20130306/90030/3230/117/20/
013810/20130306/90030/3230/146/20/
013810/20130306/90030/3230/700/20/
013810/20130306/90031/3220/321/10/
013810/20130306/90031/3215/194/10/
013810/20130306/90031/3230/1569/20/
013810/20130306/90032/3230/112/10/
013810/20130306/90032/3235/1201/20/
013810/20130306/90032/3235/500/20/
013810/20130306/90032/3235/500/20/
013810/20130306/90032/3230/1464/10/
013810/20130306/90032/3230/1789/10/
013810/20130306/90032/3230/100/10/
013810/20130306/90033/3230/112/10/
013810/20130306/90033/3235/120/20/
013810/20130306/90033/3230/458/10/
013810/20130306/90033/3230/1543/20/
013810/20130306/90033/3235/854/20/
013810/20130306/90033/3230/100/20/
013810/20130306/90033/3230/142/20/
013810/20130306/90033/3230/100/20/
013810/20130306/90033/3220/111/10/
013810/20130306/90034/3230/100/20/
013810/20130306/90034/3230/201/20/
013810/20130306/90034/3230/2446/20/
013810/20130306/90034/3235/5941/20/
013810/20130306/90034/3240/11762/20/
013810/20130306/90034/3245/3160/20/
013810/20130306/90034/3250/6702/20/
013810/20130306/90034/3230/100/20/
013810/20130306/90034/3230/511/20/
013810/20130306/90034/3230/1000/20/
013810/20130306/90034/3230/392/20/
013810/20130306/90034/3220/100/10/
013810/20130306/90034/3230/192/20/
013810/20130306/90035/3230/120/20/
013810/20130306/90035/3230/112/20/
013810/20130306/90035/3230/700/20/
013810/20130306/90035/3230/3566/20/
013810/20130306/90035/3230/479/20/
013810/20130306/90035/3230/240/20/
013810/20130306/90035/3220/311/10/
013810/20130306/90035/3230/100/20/
013810/20130306/90036/3230/1011/20/
013810/20130306/90036/3230/100/20/
013810/20130306/90036/3230/112/20/
013810/20130306/90036/3230/1000/20/
013810/20130306/90036/3230/200/20/
013810/20130306/90036/3225/111/10/
013810/20130306/90036/3230/900/20/
013810/20130306/90037/3230/370/20/
013810/20130306/90037/3235/146/20/
013810/20130306/90037/3235/122/20/
013810/20130306/90037/3230/111/20/
013810/20130306/90037/3230/99/20/
013810/20130306/90037/3235/322/20/
013810/20130306/90037/3245/950/20/
013810/20130306/90037/3250/629/20/
013810/20130306/90037/3240/101/20/
013810/20130306/90037/3240/2720/20/
013810/20130306/90037/3250/828/20/
013810/20130306/90037/3230/100/10/
013810/20130306/90038/3245/106/20/
013810/20130306/90038/3245/300/20/
013810/20130306/90038/3245/111/20/
013810/20130306/90038/3245/90/20/
013810/20130306/90038/3245/708/20/
013810/20130306/90038/3250/19303/20/
013810/20130306/90038/3230/2335/10/
013810/20130306/90038/3230/470/10/
013810/20130306/90038/3245/361/20/
013810/20130306/90038/3250/9700/20/
013810/20130306/90038/3250/100/20/
013810/20130306/90039/3250/162/20/
013810/20130306/90039/3240/92/20/
013810/20130306/90039/3240/908/20/
013810/20130306/90039/3245/100/20/
013810/20130306/90039/3245/101/20/
013810/20130306/90039/3245/330/20/
013810/20130306/90039/3250/170/20/
013810/20130306/90040/3250/100/20/
013810/20130306/90040/3250/1496/20/
013810/20130306/90040/3255/424/20/
013810/20130306/90040/3260/1221/20/
013810/20130306/90040/3240/411/10/
013810/20130306/90040/3260/101/20/
013810/20130306/90040/3255/124/10/
013810/20130306/90040/3255/158/10/
013810/20130306/90040/3255/199/10/
013810/20130306/90040/3260/1026/20/
013810/20130306/90040/3260/97/20/
013810/20130306/90041/3265/103/20/
013810/20130306/90041/3255/1426/10/
013810/20130306/90041/3260/101/10/
013810/20130306/90041/3260/111/10/
013810/20130306/90041/3260/100/10/
013810/20130306/90042/3260/1372/20/
013810/20130306/90042/3260/100/20/
013810/20130306/90042/3255/116/10/
013810/20130306/90042/3260/200/20/
013810/20130306/90042/3260/300/20/
013810/20130306/90042/3260/111/20/
013810/20130306/90042/3255/1219/10/
013810/20130306/90043/3250/110/10/
013810/20130306/90043/3255/90/10/
013810/20130306/90043/3250/660/10/
013810/20130306/90043/3235/1350/10/
013810/20130306/90043/3255/134/10/
013810/20130306/90043/3255/600/10/
013810/20130306/90043/3235/1030/10/
013810/20130306/90043/3250/160/20/
013810/20130306/90044/3235/200/10/
013810/20130306/90044/3250/110/20/
013810/20130306/90044/3250/100/20/
013810/20130306/90044/3235/200/10/
013810/20130306/90044/3235/1010/10/
013810/20130306/90045/3250/1010/20/
013810/20130306/90045/3235/314/10/
013810/20130306/90045/3230/986/10/
013810/20130306/90046/3230/3501/10/
013810/20130306/90046/3225/306/10/
013810/20130306/90046/3220/6246/10/
013810/20130306/90046/3245/281/20/
013810/20130306/90046/3220/1029/10/
013810/20130306/90046/3220/1000/10/
013810/20130306/90047/3240/100/10/
013810/20130306/90047/3235/100/10/
013810/20130306/90047/3220/1810/10/
013810/20130306/90047/3220/200/10/
013810/20130306/90047/3240/225/10/
013810/20130306/90047/3245/230/20/
013810/20130306/90047/3240/245/10/
013810/20130306/90047/3220/2317/10/
013810/20130306/90047/3215/1501/10/
013810/20130306/90047/3210/847/10/
013810/20130306/90047/3220/620/10/
013810/20130306/90047/3220/100/10/
013810/20130306/90047/3220/1000/10/
013810/20130306/90047/3210/1678/10/
013810/20130306/90047/3205/322/10/
013810/20130306/90048/3220/1555/20/
013810/20130306/90048/3220/3863/20/
013810/20130306/90049/3220/140/20/
013810/20130306/90049/3220/615/20/
013810/20130306/90049/3235/1618/20/
013810/20130306/90049/3240/947/20/
013810/20130306/90050/3240/1294/20/
013810/20130306/90050/3220/402/10/
013810/20130306/90050/3240/1220/20/
013810/20130306/90051/3240/3122/20/
013810/20130306/90051/3220/202/10/
013810/20130306/90051/3220/5488/10/
013810/20130306/90051/3210/3181/10/
013810/20130306/90051/3205/2344/10/
013810/20130306/90053/3210/1625/10/
013810/20130306/90053/3210/102/10/
013810/20130306/90054/3210/1057/20/
013810/20130306/90055/3210/284/20/
013810/20130306/90055/3210/908/20/
013810/20130306/90055/3210/107/20/
013810/20130306/90055/3210/484/20/
013810/20130306/90055/3210/131/20/
013810/20130306/90055/3210/215/20/
013810/20130306/90056/3210/102/20/
013810/20130306/90056/3210/2224/20/
013810/20130306/90056/3210/100/20/
013810/20130306/90057/3205/168/10/
013810/20130306/90057/3205/110/10/
013810/20130306/90057/3210/102/20/
013810/20130306/90057/3205/1330/10/
013810/20130306/90058/3205/506/10/
013810/20130306/90058/3205/2513/10/
013810/20130306/90058/3205/1254/10/
013810/20130306/90058/3205/161/10/
013810/20130306/90059/3205/110/20/
013810/20130306/90059/3205/100/20/
013810/20130306/90059/3200/213/10/
013810/20130306/90059/3205/513/20/
013810/20130306/90100/3205/83/20/
013810/20130306/90101/3200/2059/10/
013810/20130306/90101/3200/2002/10/
013810/20130306/90102/3200/947/10/
013810/20130306/90102/3200/142/20/
013810/20130306/90102/3205/212/20/
013810/20130306/90102/3205/302/20/
013810/20130306/90102/3195/251/10/
013810/20130306/90102/3205/175/20/
013810/20130306/90102/3195/1040/10/
013810/20130306/90103/3200/81/20/
013810/20130306/90104/3195/119/10/
013810/20130306/90104/3195/222/10/
013810/20130306/90105/3195/210/10/
013810/20130306/90105/3195/5006/10/
013810/20130306/90105/3195/83/10/
013810/20130306/90106/3195/148/10/
013810/20130306/90106/3200/367/20/
013810/20130306/90107/3200/81/20/
013810/20130306/90107/3195/100/10/
013810/20130306/90107/3200/500/20/
013810/20130306/90107/3200/3075/20/
013810/20130306/90107/3195/709/10/
013810/20130306/90107/3195/529/10/
013810/20130306/90108/3195/953/10/
013810/20130306/90108/3190/4050/10/
013810/20130306/90108/3200/517/20/
013810/20130306/90108/3190/500/10/
013810/20130306/90109/3200/106/20/
013810/20130306/90109/3200/1270/20/
013810/20130306/90109/3200/83/20/
013810/20130306/90109/3200/972/20/
013810/20130306/90109/3190/81/10/
013810/20130306/90109/3195/1540/20/
013810/20130306/90109/3200/4114/20/
013810/20130306/90109/3205/100/20/
013810/20130306/90110/3200/506/10/
013810/20130306/90110/3200/273/10/
013810/20130306/90110/3200/200/10/
013810/20130306/90110/3200/210/10/
013810/20130306/90110/3200/1002/10/
013810/20130306/90110/3205/2808/20/
013810/20130306/90111/3205/2408/20/
013810/20130306/90111/3205/100/20/
013810/20130306/90111/3210/314/20/
013810/20130306/90111/3205/800/10/
013810/20130306/90111/3205/501/10/
013810/20130306/90112/3205/164/10/
013810/20130306/90112/3210/402/20/
013810/20130306/90112/3205/164/10/
013810/20130306/90112/3200/2740/10/
013810/20130306/90112/3200/2063/10/
013810/20130306/90112/3210/4510/20/
013810/20130306/90113/3210/614/20/
013810/20130306/90113/3205/1288/10/
013810/20130306/90113/3210/315/20/
013810/20130306/90114/3210/220/20/
013810/20130306/90114/3215/236/20/
013810/20130306/90115/3210/554/10/
013810/20130306/90115/3210/1606/10/
013810/20130306/90115/3210/254/10/
013810/20130306/90116/3215/158/20/
013810/20130306/90116/3215/132/20/
013810/20130306/90116/3215/114/20/
013810/20130306/90116/3215/113/20/
013810/20130306/90117/3210/1644/10/
013810/20130306/90117/3205/1214/10/
013810/20130306/90117/3215/1355/20/
013810/20130306/90117/3215/100/20/
013810/20130306/90117/3215/666/20/
013810/20130306/90117/3210/1571/10/
013810/20130306/90117/3210/112/10/
013810/20130306/90118/3210/117/20/
013810/20130306/90118/3210/122/20/
013810/20130306/90118/3205/509/10/
013810/20130306/90119/3215/170/20/
013810/20130306/90119/3215/308/20/
013810/20130306/90119/3220/205/20/
013810/20130306/90119/3215/111/20/
013810/20130306/90120/3220/138/20/
013810/20130306/90120/3220/115/20/
013810/20130306/90120/3220/113/20/
013810/20130306/90121/3215/157/10/
013810/20130306/90121/3215/115/20/
013810/20130306/90121/3215/113/20/
013810/20130306/90121/3215/200/20/
013810/20130306/90122/3215/168/20/
013810/20130306/90122/3215/107/20/
013810/20130306/90122/3215/4142/20/
013810/20130306/90122/3220/3741/20/
013810/20130306/90122/3220/105/20/
013810/20130306/90123/3220/501/20/
013810/20130306/90123/3220/113/20/
013810/20130306/90123/3215/579/10/
013810/20130306/90123/3215/702/10/
013810/20130306/90123/3215/102/20/
013810/20130306/90123/3210/1000/10/
013810/20130306/90123/3215/115/20/
013810/20130306/90123/3215/1119/20/
013810/20130306/90123/3220/295/20/
013810/20130306/90124/3230/103/20/
013810/20130306/90124/3230/183/20/
013810/20130306/90124/3230/217/20/
013810/20130306/90124/3235/861/20/
013810/20130306/90124/3235/126/20/
013810/20130306/90125/3235/114/20/
013810/20130306/90125/3220/105/10/
013810/20130306/90125/3235/101/20/
013810/20130306/90125/3220/2567/10/
013810/20130306/90125/3220/500/10/
013810/20130306/90125/3230/119/20/
013810/20130306/90125/3235/1135/20/
013810/20130306/90125/3235/111/20/
013810/20130306/90126/3235/119/20/
013810/20130306/90126/3235/120/20/
013810/20130306/90127/3235/112/20/
013810/20130306/90127/3230/191/10/
013810/20130306/90127/3235/101/20/
013810/20130306/90127/3230/824/10/
013810/20130306/90127/3230/185/10/
013810/20130306/90127/3235/3314/20/
013810/20130306/90127/3240/1545/20/
013810/20130306/90127/3240/101/20/
013810/20130306/90128/3240/117/20/
013810/20130306/90128/3240/84/20/
013810/20130306/90128/3230/105/20/
013810/20130306/90128/3230/332/20/
013810/20130306/90129/3230/114/20/
013810/20130306/90129/3230/108/20/
013810/20130306/90129/3230/2550/20/
013810/20130306/90129/3240/14776/20/
013810/20130306/90130/3240/119/20/
013810/20130306/90130/3240/109/20/
013810/20130306/90131/3240/516/20/
013810/20130306/90131/3240/102/20/
013810/20130306/90131/3245/205/20/
013810/20130306/90131/3245/1107/20/
013810/20130306/90131/3245/101/20/
013810/20130306/90131/3240/1891/20/
013810/20130306/90131/3245/4873/20/
013810/20130306/90131/3250/195/20/
013810/20130306/90132/3250/474/20/
013810/20130306/90132/3250/104/20/
013810/20130306/90133/3240/477/10/
013810/20130306/90133/3230/1027/10/
013810/20130306/90133/3250/1107/20/
013810/20130306/90133/3250/105/20/
013810/20130306/90133/3250/1101/20/
013810/20130306/90134/3240/82/10/
013810/20130306/90134/3230/110/10/
013810/20130306/90135/3235/359/20/
013810/20130306/90135/3235/103/20/
013810/20130306/90135/3235/251/20/
013810/20130306/90135/3235/784/20/
013810/20130306/90135/3235/117/20/
013810/20130306/90136/3235/107/20/
013810/20130306/90136/3235/113/20/
013810/20130306/90136/3235/103/20/
013810/20130306/90136/3245/450/20/
013810/20130306/90136/3245/102/20/
013810/20130306/90136/3240/172/10/
013810/20130306/90136/3245/4058/20/
013810/20130306/90136/3250/2908/20/
013810/20130306/90136/3245/106/20/
013810/20130306/90137/3240/94/10/
013810/20130306/90137/3235/200/10/
013810/20130306/90137/3230/1239/10/
013810/20130306/90137/3245/115/20/
013810/20130306/90137/3245/123/20/
013810/20130306/90138/3235/112/20/
013810/20130306/90138/3235/104/20/
013810/20130306/90138/3235/179/20/
013810/20130306/90138/3240/174/20/
013810/20130306/90138/3240/2728/20/
013810/20130306/90138/3240/113/20/
013810/20130306/90139/3240/120/20/
013810/20130306/90139/3240/116/20/
013810/20130306/90140/3235/223/10/
013810/20130306/90140/3240/101/20/
013810/20130306/90140/3245/407/20/
013810/20130306/90141/3245/112/20/
013810/20130306/90141/3245/137/20/
013810/20130306/90142/3245/103/20/
013810/20130306/90142/3245/104/20/
013810/20130306/90142/3240/842/10/
013810/20130306/90142/3240/213/10/
013810/20130306/90143/3245/103/20/
013810/20130306/90143/3240/500/10/
013810/20130306/90143/3245/300/20/
013810/20130306/90143/3245/458/20/
013810/20130306/90143/3245/103/20/
013810/20130306/90143/3240/503/10/
013810/20130306/90143/3245/82/20/
013810/20130306/90143/3245/101/20/
013810/20130306/90144/3245/6994/20/
013810/20130306/90144/3245/104/20/
013810/20130306/90144/3245/117/20/
013810/20130306/90144/3245/537/20/
013810/20130306/90144/3240/500/10/
013810/20130306/90145/3245/114/20/
013810/20130306/90145/3240/654/10/
013810/20130306/90145/3235/368/10/
013810/20130306/90145/3240/262/10/
013810/20130306/90145/3240/1084/10/
013810/20130306/90145/3245/5444/20/
013810/20130306/90146/3245/84/20/
013810/20130306/90146/3245/403/20/
013810/20130306/90146/3245/180/20/
013810/20130306/90146/3245/110/20/
013810/20130306/90146/3245/1001/20/
013810/20130306/90147/3245/1052/20/
013810/20130306/90147/3245/172/20/
013810/20130306/90147/3245/151/20/
013810/20130306/90148/3240/3806/10/
013810/20130306/90148/3240/112/20/
013810/20130306/90148/3240/1054/20/
013810/20130306/90148/3240/101/20/
013810/20130306/90148/3240/123/20/
013810/20130306/90148/3240/168/20/
013810/20130306/90149/3240/112/20/
013810/20130306/90149/3235/3111/10/
013810/20130306/90149/3240/110/20/
013810/20130306/90149/3240/124/20/
013810/20130306/90149/3235/7873/10/
013810/20130306/90150/3240/15489/20/
013810/20130306/90150/3245/3653/20/
013810/20130306/90150/3250/3920/20/
013810/20130306/90150/3255/4549/20/
013810/20130306/90150/3260/2390/20/
013810/20130306/90150/3235/2011/10/
013810/20130306/90150/3255/112/20/
013810/20130306/90150/3240/111/20/
013810/20130306/90150/3235/659/10/
013810/20130306/90150/3235/1000/10/
013810/20130306/90151/3240/122/20/
013810/20130306/90151/3240/145/20/
013810/20130306/90151/3240/101/20/
013810/20130306/90151/3235/5772/10/
013810/20130306/90151/3240/521/20/
013810/20130306/90151/3250/111/20/
013810/20130306/90151/3245/128/20/
013810/20130306/90151/3245/1209/10/
013810/20130306/90151/3235/174/10/
013810/20130306/90151/3235/112/10/
013810/20130306/90151/3235/111/10/
013810/20130306/90152/3235/112/10/
013810/20130306/90152/3235/211/20/
013810/20130306/90152/3235/111/20/
013810/20130306/90152/3235/153/20/
013810/20130306/90152/3235/633/20/
013810/20130306/90152/3235/113/20/
013810/20130306/90153/3235/638/20/
013810/20130306/90153/3235/100/20/
013810/20130306/90153/3235/111/20/
013810/20130306/90153/3230/659/10/
013810/20130306/90154/3240/133/20/
013810/20130306/90154/3240/543/20/
013810/20130306/90154/3250/1179/20/
013810/20130306/90154/3250/123/20/
013810/20130306/90154/3250/112/20/
013810/20130306/90154/3250/947/20/
013810/20130306/90154/3245/666/10/
013810/20130306/90155/3245/121/10/
013810/20130306/90155/3245/842/20/
013810/20130306/90155/3245/1439/20/
013810/20130306/90155/3250/2874/20/
013810/20130306/90155/3250/197/20/
013810/20130306/90155/3235/1001/10/
013810/20130306/90155/3250/111/20/
013810/20130306/90156/3240/124/20/
013810/20130306/90156/3240/1062/20/
013810/20130306/90156/3240/283/20/
013810/20130306/90156/3240/232/20/
013810/20130306/90156/3240/112/20/
013810/20130306/90156/3240/405/20/
013810/20130306/90156/3240/122/20/
013810/20130306/90157/3235/611/10/
013810/20130306/90157/3240/111/20/
013810/20130306/90157/3240/201/20/
013810/20130306/90157/3240/311/20/
013810/20130306/90157/3240/117/20/
013810/20130306/90157/3240/98/20/
013810/20130306/90158/3240/1565/20/
013810/20130306/90158/3240/500/20/
013810/20130306/90158/3245/111/20/
013810/20130306/90158/3245/562/20/
013810/20130306/90158/3250/29438/20/
013810/20130306/90158/3245/184/20/
013810/20130306/90158/3250/1272/20/
013810/20130306/90158/3250/111/20/
013810/20130306/90158/3245/192/20/
013810/20130306/90158/3245/85/20/
013810/20130306/90159/3245/115/20/
013810/20130306/90159/3245/155/20/
013810/20130306/90159/3245/552/20/
013810/20130306/90200/3245/124/20/
013810/20130306/90200/3245/118/20/
013810/20130306/90200/3245/127/20/
013810/20130306/90201/3240/2563/10/
013810/20130306/90201/3240/901/10/
013810/20130306/90201/3245/111/20/
013810/20130306/90201/3245/154/20/
013810/20130306/90201/3245/2724/20/
013810/20130306/90201/3245/111/20/
013810/20130306/90202/3245/121/20/
013810/20130306/90202/3245/126/20/
013810/20130306/90202/3245/113/20/
013810/20130306/90203/3240/100/10/
013810/20130306/90203/3245/146/20/
013810/20130306/90203/3240/104/10/
013810/20130306/90203/3245/129/20/
013810/20130306/90204/3240/563/10/
013810/20130306/90204/3240/157/10/
013810/20130306/90204/3240/111/10/
013810/20130306/90204/3240/139/20/
013810/20130306/90204/3240/125/20/
013810/20130306/90205/3240/140/20/
013810/20130306/90205/3235/714/10/
013810/20130306/90205/3240/113/20/
013810/20130306/90205/3235/127/10/
013810/20130306/90206/3240/121/20/
013810/20130306/90206/3235/1846/10/
013810/20130306/90206/3235/1000/10/
013810/20130306/90206/3240/141/20/
013810/20130306/90206/3240/460/20/
013810/20130306/90206/3240/127/20/
013810/20130306/90207/3240/181/20/
013810/20130306/90207/3240/648/20/
013810/20130306/90207/3235/2388/10/
013810/20130306/90207/3230/4212/10/
013810/20130306/90207/3240/111/20/
013810/20130306/90207/3235/125/10/
013810/20130306/90207/3240/276/20/
013810/20130306/90207/3235/621/10/
013810/20130306/90207/3235/111/10/
013810/20130306/90207/3235/291/10/
013810/20130306/90208/3235/2934/20/
013810/20130306/90208/3235/111/20/
013810/20130306/90208/3235/101/20/
013810/20130306/90208/3230/422/10/
013810/20130306/90208/3235/801/20/
013810/20130306/90208/3235/111/20/
013810/20130306/90209/3235/5002/20/
013810/20130306/90209/3235/167/20/
013810/20130306/90209/3235/111/20/
013810/20130306/90209/3235/141/20/
013810/20130306/90210/3230/3160/10/
013810/20130306/90210/3225/5457/10/
013810/20130306/90210/3220/3420/10/
013810/20130306/90210/3215/10198/10/
013810/20130306/90210/3210/25894/10/
013810/20130306/90210/3235/113/20/
013810/20130306/90210/3235/842/20/
013810/20130306/90210/3210/2000/10/
013810/20130306/90210/3235/119/20/
013810/20130306/90211/3230/129/20/
013810/20130306/90211/3230/135/20/
013810/20130306/90212/3230/520/20/
013810/20130306/90212/3230/111/20/
013810/20130306/90212/3230/90/20/
013810/20130306/90212/3230/353/20/
013810/20130306/90212/3235/122/20/
013810/20130306/90212/3235/1305/20/
013810/20130306/90212/3235/111/20/
013810/20130306/90213/3225/135/20/
013810/20130306/90213/3225/100/20/
013810/20130306/90213/3225/463/20/
013810/20130306/90213/3225/147/20/
013810/20130306/90213/3225/1170/20/
013810/20130306/90213/3225/114/20/
013810/20130306/90214/3225/122/20/
013810/20130306/90214/3225/249/20/
013810/20130306/90214/3235/113/20/
013810/20130306/90214/3225/136/20/
013810/20130306/90215/3225/99/20/
013810/20130306/90215/3235/186/20/
013810/20130306/90216/3235/135/20/
013810/20130306/90216/3215/503/10/
013810/20130306/90216/3230/113/20/
013810/20130306/90216/3235/1240/20/
013810/20130306/90216/3240/775/20/
013810/20130306/90216/3240/111/20/
013810/20130306/90217/3235/140/20/
013810/20130306/90217/3235/145/20/
013810/20130306/90218/3220/184/10/
013810/20130306/90218/3215/232/10/
013810/20130306/90218/3235/502/20/
013810/20130306/90218/3230/112/20/
013810/20130306/90218/3230/124/20/
013810/20130306/90219/3230/115/20/
013810/20130306/90219/3230/137/20/
013810/20130306/90220/3230/127/20/
013810/20130306/90220/3230/1003/20/
013810/20130306/90220/3230/126/20/
013810/20130306/90220/3220/999/10/
013810/20130306/90220/3230/112/20/
013810/20130306/90221/3230/126/20/
013810/20130306/90221/3230/145/20/
013810/20130306/90221/3230/124/20/
013810/20130306/90223/3220/477/10/
013810/20130306/90224/3220/148/10/
013810/20130306/90224/3230/264/20/
013810/20130306/90224/3230/366/20/
013810/20130306/90225/3230/312/20/
013810/20130306/90225/3220/418/10/
013810/20130306/90225/3230/1522/20/
013810/20130306/90225/3230/500/20/
013810/20130306/90226/3230/90/20/
013810/20130306/90227/3220/81/10/
013810/20130306/90227/3225/195/20/
013810/20130306/90228/3225/734/20/
013810/20130306/90228/3220/4022/10/
013810/20130306/90229/3225/94/20/
013810/20130306/90229/3220/3000/10/
013810/20130306/90229/3225/1000/20/
013810/20130306/90230/3225/568/20/
013810/20130306/90230/3220/2024/10/
013810/20130306/90231/3220/149/10/
013810/20130306/90231/3220/174/10/
013810/20130306/90231/3220/100/10/
013810/20130306/90231/3225/127/20/
013810/20130306/90231/3225/90/20/
013810/20130306/90231/3225/100/20/
013810/20130306/90232/3225/205/20/
013810/20130306/90232/3225/517/20/
013810/20130306/90232/3230/6483/20/
013810/20130306/90232/3220/361/10/
013810/20130306/90232/3230/356/20/
013810/20130306/90232/3220/272/10/
013810/20130306/90232/3220/195/10/
013810/20130306/90232/3215/492/10/
013810/20130306/90232/3215/470/10/
013810/20130306/90233/3220/790/10/
013810/20130306/90233/3220/520/20/
013810/20130306/90234/3215/1049/10/
013810/20130306/90234/3210/4518/10/
013810/20130306/90234/3215/83/20/
013810/20130306/90235/3210/202/10/
013810/20130306/90235/3210/351/10/
013810/20130306/90235/3220/695/20/
013810/20130306/90236/3220/111/20/
013810/20130306/90236/3210/913/10/
013810/20130306/90236/3210/333/10/
013810/20130306/90237/3215/100/20/
013810/20130306/90238/3210/350/10/
013810/20130306/90238/3210/3500/10/
013810/20130306/90238/3215/350/20/
013810/20130306/90238/3215/622/20/
013810/20130306/90239/3215/4745/20/
013810/20130306/90239/3210/1231/10/
013810/20130306/90240/3215/100/20/
013810/20130306/90240/3210/1847/10/
013810/20130306/90240/3215/134/20/
013810/20130306/90240/3215/1501/20/
013810/20130306/90240/3210/130/10/
013810/20130306/90241/3215/2008/20/
013810/20130306/90241/3210/4393/10/
013810/20130306/90241/3210/10000/10/
013810/20130306/90241/3215/1731/20/
013810/20130306/90241/3210/148/10/
013810/20130306/90241/3210/5707/10/
013810/20130306/90241/3205/4293/10/
013810/20130306/90242/3210/1000/20/
013810/20130306/90242/3215/9620/20/
013810/20130306/90242/3215/1500/20/
013810/20130306/90242/3215/1516/20/
013810/20130306/90242/3215/500/10/
013810/20130306/90243/3215/1364/10/
013810/20130306/90243/3205/1411/10/
013810/20130306/90244/3205/400/10/
013810/20130306/90244/3210/136/20/
013810/20130306/90244/3210/200/20/
013810/20130306/90244/3210/89/20/
013810/20130306/90245/3205/331/10/
013810/20130306/90245/3205/263/10/
013810/20130306/90245/3215/200/20/
013810/20130306/90246/3215/189/20/
013810/20130306/90246/3215/740/20/
013810/20130306/90246/3215/358/20/
013810/20130306/90248/3215/479/10/
013810/20130306/90249/3220/100/20/
013810/20130306/90249/3215/300/10/
013810/20130306/90251/3215/323/10/
013810/20130306/90251/3215/327/10/
013810/20130306/90252/3215/360/20/
013810/20130306/90252/3215/302/20/
013810/20130306/90252/3215/198/20/
013810/20130306/90253/3215/150/10/
013810/20130306/90254/3215/100/10/
013810/20130306/90254/3215/2698/10/
013810/20130306/90254/3210/99/10/
013810/20130306/90255/3215/100/20/
013810/20130306/90255/3220/600/20/
013810/20130306/90256/3220/542/20/
013810/20130306/90256/3220/8658/20/
013810/20130306/90256/3220/93/20/
013810/20130306/90256/3220/2375/20/
013810/20130306/90256/3215/535/10/
013810/20130306/90256/3210/90/10/
013810/20130306/90257/3215/500/10/
013810/20130306/90257/3215/564/10/
013810/20130306/90258/3215/210/10/
013810/20130306/90258/3215/1929/10/
013810/20130306/90258/3210/1043/10/
013810/20130306/90259/3220/100/20/
013810/20130306/90259/3225/3900/20/
013810/20130306/90259/3225/227/20/
013810/20130306/90301/3225/203/20/
013810/20130306/90301/3215/444/10/
013810/20130306/90302/3215/500/10/
013810/20130306/90302/3215/946/10/
013810/20130306/90303/3215/579/10/
013810/20130306/90304/3215/92/10/
013810/20130306/90304/3215/823/10/
013810/20130306/90304/3215/943/10/
013810/20130306/90304/3225/123/20/
013810/20130306/90307/3215/82/10/
013810/20130306/90307/3215/3131/10/
013810/20130306/90307/3215/658/10/
013810/20130306/90307/3225/89/20/
013810/20130306/90309/3220/210/10/
013810/20130306/90309/3215/123/10/
013810/20130306/90312/3215/562/10/
013810/20130306/90314/3215/110/10/
013810/20130306/90314/3215/465/10/
013810/20130306/90314/3215/105/10/
013810/20130306/90315/3215/107/10/
013810/20130306/90316/3220/714/20/
013810/20130306/90316/3225/356/20/
013810/20130306/90316/3215/1000/10/
013810/20130306/90317/3215/1008/10/
013810/20130306/90317/3215/254/10/
013810/20130306/90317/3225/500/20/
013810/20130306/90319/3215/128/10/
013810/20130306/90319/3225/210/20/
013810/20130306/90319/3215/227/10/
013810/20130306/90321/3220/83/10/
013810/20130306/90323/3220/128/10/
013810/20130306/90323/3220/446/10/
013810/20130306/90323/3215/1000/10/
013810/20130306/90324/3215/1749/10/
013810/20130306/90326/3220/87/20/
013810/20130306/90326/3220/1000/20/
013810/20130306/90326/3220/365/20/
013810/20130306/90328/3220/139/20/
013810/20130306/90328/3215/1000/10/
013810/20130306/90328/3220/2730/20/
013810/20130306/90328/3215/123/10/
013810/20130306/90329/3220/162/20/
013810/20130306/90329/3220/1888/20/
013810/20130306/90329/3220/83/20/
013810/20130306/90330/3220/116/20/
013810/20130306/90331/3220/115/20/
013810/20130306/90332/3220/89/20/
013810/20130306/90332/3215/107/10/
013810/20130306/90335/3215/345/10/
013810/20130306/90336/3215/8011/10/
013810/20130306/90336/3215/250/10/
013810/20130306/90336/3215/100/20/
013810/20130306/90337/3215/447/20/
013810/20130306/90337/3210/3296/10/
013810/20130306/90337/3215/1604/20/
013810/20130306/90337/3220/496/20/
013810/20130306/90338/3215/377/20/
013810/20130306/90340/3215/709/20/
013810/20130306/90340/3220/5137/20/
013810/20130306/90340/3225/4213/20/
013810/20130306/90341/3220/522/20/
013810/20130306/90342/3215/630/10/
013810/20130306/90342/3215/84/10/
013810/20130306/90343/3215/160/10/
013810/20130306/90343/3215/951/20/
013810/20130306/90345/3215/1050/10/
013810/20130306/90345/3220/801/20/
013810/20130306/90346/3220/115/20/
013810/20130306/90349/3215/549/10/
013810/20130306/90350/3220/100/20/
013810/20130306/90350/3220/400/20/
013810/20130306/90351/3215/205/10/
013810/20130306/90351/3215/364/10/
013810/20130306/90354/3215/186/10/
013810/20130306/90357/3220/151/20/
013810/20130306/90357/3220/3100/20/
013810/20130306/90358/3220/106/20/
013810/20130306/90358/3215/468/10/
013810/20130306/90359/3220/934/20/
013810/20130306/90359/3220/1496/20/
013810/20130306/90400/3220/2002/10/
013810/20130306/90400/3220/200/10/
013810/20130306/90401/3220/176/10/
013810/20130306/90401/3220/780/10/
013810/20130306/90402/3225/115/20/
013810/20130306/90402/3220/1629/10/
013810/20130306/90402/3220/1400/10/
013810/20130306/90403/3220/504/10/
013810/20130306/90403/3220/106/10/
013810/20130306/90404/3225/1204/20/
013810/20130306/90404/3220/202/10/
013810/20130306/90405/3220/2399/10/
013810/20130306/90405/3220/105/20/
013810/20130306/90406/3220/100/20/
013810/20130306/90407/3215/508/10/
013810/20130306/90407/3215/600/10/
013810/20130306/90408/3215/89/10/
013810/20130306/90408/3215/117/10/
013810/20130306/90410/3215/569/10/
013810/20130306/90411/3215/94/10/
013810/20130306/90411/3215/6998/10/
013810/20130306/90411/3215/1058/10/
013810/20130306/90411/3215/340/10/
013810/20130306/90412/3215/947/10/
013810/20130306/90412/3210/1639/10/
013810/20130306/90412/3215/500/10/
013810/20130306/90415/3210/836/10/
013810/20130306/90416/3210/3576/10/
013810/20130306/90416/3210/649/10/
013810/20130306/90417/3210/300/10/
013810/20130306/90417/3210/512/10/
013810/20130306/90417/3210/500/10/
013810/20130306/90417/3210/3100/10/
013810/20130306/90417/3210/2000/10/
013810/20130306/90417/3210/552/10/
013810/20130306/90417/3210/1732/10/
013810/20130306/90417/3210/157/10/
013810/20130306/90417/3210/763/10/
013810/20130306/90418/3210/110/10/
013810/20130306/90418/3210/2994/10/
013810/20130306/90419/3215/506/20/
013810/20130306/90419/3210/807/10/
013810/20130306/90419/3215/500/20/
013810/20130306/90420/3210/645/10/
013810/20130306/90421/3210/81/20/
013810/20130306/90422/3210/735/20/
013810/20130306/90422/3210/304/20/
013810/20130306/90422/3210/500/20/
013810/20130306/90422/3205/221/10/
013810/20130306/90423/3205/85/10/
013810/20130306/90423/3205/2013/10/
013810/20130306/90424/3205/138/10/
013810/20130306/90424/3210/188/20/
013810/20130306/90424/3215/312/20/
013810/20130306/90424/3205/660/10/
013810/20130306/90425/3205/97/10/
013810/20130306/90425/3210/230/20/
013810/20130306/90425/3210/2773/10/
013810/20130306/90426/3205/131/10/
013810/20130306/90426/3205/1006/10/
013810/20130306/90426/3210/229/20/
013810/20130306/90426/3215/1775/20/
013810/20130306/90426/3215/100/20/
013810/20130306/90427/3205/123/10/
013810/20130306/90427/3215/241/20/
013810/20130306/90430/3210/1045/10/
013810/20130306/90431/3210/1005/10/
013810/20130306/90431/3210/1416/10/
013810/20130306/90431/3205/8234/10/
013810/20130306/90432/3210/355/10/
013810/20130306/90433/3205/82/10/
013810/20130306/90436/3205/92/10/
013810/20130306/90437/3205/549/10/
013810/20130306/90439/3205/98/10/
013810/20130306/90439/3205/103/10/
013810/20130306/90439/3205/1042/10/
013810/20130306/90440/3210/957/20/
013810/20130306/90441/3205/211/10/
013810/20130306/90442/3210/114/20/
013810/20130306/90443/3210/1084/20/
013810/20130306/90443/3210/300/20/
013810/20130306/90443/3210/516/20/
013810/20130306/90443/3205/984/10/
013810/20130306/90444/3215/1547/20/
013810/20130306/90444/3210/254/20/
013810/20130306/90446/3210/504/20/
013810/20130306/90446/3215/592/20/
013810/20130306/90446/3210/101/20/
013810/20130306/90446/3210/101/20/
013810/20130306/90447/3210/5000/20/
013810/20130306/90448/3215/103/20/
013810/20130306/90450/3210/1118/10/
013810/20130306/90450/3205/6769/10/
013810/20130306/90450/3200/1839/10/
013810/20130306/90451/3200/83/10/
013810/20130306/90452/3210/140/20/
013810/20130306/90453/3210/668/20/
013810/20130306/90453/3205/314/10/
013810/20130306/90454/3205/350/10/
013810/20130306/90455/3210/133/20/
013810/20130306/90455/3205/113/10/
013810/20130306/90457/3210/2043/20/
013810/20130306/90458/3210/647/20/
013810/20130306/90458/3205/3060/10/
013810/20130306/90459/3210/2520/20/
013810/20130306/90459/3210/200/20/
013810/20130306/90459/3215/303/20/
013810/20130306/90503/3210/1535/10/
013810/20130306/90507/3215/81/20/
013810/20130306/90507/3210/89/10/
013810/20130306/90509/3210/809/10/
013810/20130306/90510/3215/5028/20/
013810/20130306/90511/3215/787/20/
013810/20130306/90511/3215/500/20/
013810/20130306/90511/3215/262/20/
013810/20130306/90511/3215/1451/20/
013810/20130306/90511/3215/110/20/
013810/20130306/90511/3215/1213/20/
013810/20130306/90511/3220/1798/20/
013810/20130306/90512/3220/116/20/
013810/20130306/90512/3220/102/20/
013810/20130306/90517/3220/88/20/
013810/20130306/90518/3220/343/20/
013810/20130306/90520/3220/81/20/
013810/20130306/90520/3220/113/20/
013810/20130306/90520/3220/111/20/
013810/20130306/90520/3215/211/10/
013810/20130306/90520/3215/300/10/
013810/20130306/90521/3215/2060/10/
013810/20130306/90522/3215/569/10/
013810/20130306/90523/3220/2017/20/
013810/20130306/90523/3220/514/20/
013810/20130306/90525/3220/84/20/
013810/20130306/90527/3220/518/20/
013810/20130306/90527/3215/6005/10/
013810/20130306/90527/3210/14001/10/
013810/20130306/90528/3220/9882/20/
013810/20130306/90529/3225/2043/20/
013810/20130306/90529/3225/1015/20/
013810/20130306/90530/3220/94/10/
013810/20130306/90531/3220/434/20/
013810/20130306/90531/3225/98/20/
013810/20130306/90533/3225/3368/20/
013810/20130306/90535/3225/180/20/
013810/20130306/90538/3225/3362/20/
013810/20130306/90538/3225/10272/20/
013810/20130306/90539/3220/1005/10/
013810/20130306/90539/3225/2003/20/
013810/20130306/90539/3225/11378/20/
013810/20130306/90539/3230/12953/20/
013810/20130306/90539/3235/4067/20/
013810/20130306/90539/3240/7245/20/
013810/20130306/90539/3245/7257/20/
013810/20130306/90539/3250/11837/20/
013810/20130306/90540/3245/143/20/
013810/20130306/90541/3245/260/20/
013810/20130306/90541/3250/4745/20/
013810/20130306/90542/3250/5006/20/
013810/20130306/90542/3250/101/20/
013810/20130306/90544/3245/295/20/
013810/20130306/90545/3245/81/20/
013810/20130306/90546/3245/1920/20/
013810/20130306/90546/3250/3087/20/
013810/20130306/90546/3250/880/20/
013810/20130306/90547/3250/2485/20/
013810/20130306/90547/3245/702/10/
013810/20130306/90548/3250/100/20/
013810/20130306/90548/3250/666/20/
013810/20130306/90548/3250/612/20/
013810/20130306/90548/3250/10000/20/
013810/20130306/90548/3250/616/20/
013810/20130306/90549/3250/123/20/
013810/20130306/90549/3250/616/20/
013810/20130306/90549/3250/397/20/
013810/20130306/90549/3250/98/20/
013810/20130306/90550/3250/7893/20/
013810/20130306/90550/3250/500/20/
013810/20130306/90550/3255/178/20/
013810/20130306/90550/3255/231/20/
013810/20130306/90550/3255/311/20/
013810/20130306/90550/3255/1050/20/
013810/20130306/90550/3255/144/20/
013810/20130306/90550/3260/1856/20/
013810/20130306/90550/3250/161/10/
013810/20130306/90550/3260/260/20/
013810/20130306/90551/3260/95/20/
013810/20130306/90551/3260/3000/20/
013810/20130306/90551/3250/113/10/
013810/20130306/90552/3260/105/20/
013810/20130306/90552/3260/94/20/
013810/20130306/90552/3260/425/20/
013810/20130306/90553/3260/4004/10/
013810/20130306/90553/3265/112/20/
013810/20130306/90553/3260/120/10/
013810/20130306/90554/3260/501/10/
013810/20130306/90554/3265/101/20/
013810/20130306/90554/3265/1897/20/
013810/20130306/90554/3260/548/10/
013810/20130306/90554/3260/2863/10/
013810/20130306/90554/3250/2830/10/
013810/20130306/90554/3265/101/20/
013810/20130306/90555/3265/111/20/
013810/20130306/90555/3265/242/20/
013810/20130306/90555/3265/800/20/
013810/20130306/90555/3265/180/20/
013810/20130306/90555/3265/232/20/
013810/20130306/90555/3265/130/20/
013810/20130306/90555/3265/120/20/
013810/20130306/90556/3265/112/20/
013810/20130306/90556/3260/1061/10/
013810/20130306/90556/3265/3718/20/
013810/20130306/90556/3265/200/20/
013810/20130306/90556/3270/100/20/
013810/20130306/90557/3265/273/10/
013810/20130306/90557/3270/101/20/
013810/20130306/90557/3265/583/10/
013810/20130306/90557/3265/302/10/
013810/20130306/90557/3270/100/20/
013810/20130306/90558/3270/113/20/
013810/20130306/90558/3270/1010/20/
013810/20130306/90558/3270/364/20/
013810/20130306/90558/3270/627/20/
013810/20130306/90558/3270/100/20/
013810/20130306/90558/3265/1012/10/
013810/20130306/90558/3270/101/20/
013810/20130306/90558/3265/165/10/
013810/20130306/90559/3270/100/20/
013810/20130306/90559/3270/113/20/
013810/20130306/90559/3270/1050/20/
013810/20130306/90559/3270/102/20/
013810/20130306/90600/3270/112/20/
013810/20130306/90600/3265/242/10/
013810/20130306/90600/3270/100/20/
013810/20130306/90600/3270/204/20/
013810/20130306/90601/3270/100/20/
013810/20130306/90601/3270/167/20/
013810/20130306/90601/3270/213/20/
013810/20130306/90601/3270/100/20/
013810/20130306/90601/3270/200/20/
013810/20130306/90601/3270/171/20/
013810/20130306/90601/3270/800/20/
013810/20130306/90601/3270/102/20/
013810/20130306/90601/3270/813/20/
013810/20130306/90601/3270/1427/20/
013810/20130306/90602/3270/101/20/
013810/20130306/90602/3270/1000/20/
013810/20130306/90602/3270/3966/20/
013810/20130306/90602/3270/102/20/
013810/20130306/90602/3270/110/20/
013810/20130306/90602/3270/3109/20/
013810/20130306/90602/3270/1511/20/
013810/20130306/90602/3270/112/20/
013810/20130306/90602/3270/111/20/
013810/20130306/90602/3270/111/20/
013810/20130306/90602/3270/782/20/
013810/20130306/90603/3270/100/20/
013810/20130306/90603/3270/7000/20/
013810/20130306/90603/3265/4021/10/
013810/20130306/90603/3270/101/20/
013810/20130306/90603/3270/1116/20/
013810/20130306/90603/3270/138/20/
013810/20130306/90603/3270/100/20/
013810/20130306/90603/3270/600/20/
013810/20130306/90603/3270/168/20/
013810/20130306/90603/3270/102/20/
013810/20130306/90604/3270/10000/20/
013810/20130306/90604/3270/1543/20/
013810/20130306/90604/3270/101/20/
013810/20130306/90604/3270/100/20/
013810/20130306/90604/3270/695/20/
013810/20130306/90604/3275/144/20/
013810/20130306/90604/3270/300/20/
013810/20130306/90604/3275/242/20/
013810/20130306/90604/3275/101/20/
013810/20130306/90604/3270/679/10/
013810/20130306/90604/3265/9909/10/
013810/20130306/90604/3260/3050/10/
013810/20130306/90604/3250/2042/10/
013810/20130306/90605/3265/175/10/
013810/20130306/90605/3265/140/10/
013810/20130306/90605/3275/248/20/
013810/20130306/90605/3275/100/20/
013810/20130306/90605/3275/305/20/
013810/20130306/90605/3275/101/20/
013810/20130306/90605/3270/616/10/
013810/20130306/90605/3270/616/10/
013810/20130306/90606/3270/253/10/
013810/20130306/90606/3270/615/10/
013810/20130306/90606/3275/100/20/
013810/20130306/90606/3275/185/20/
013810/20130306/90606/3275/2009/20/
013810/20130306/90606/3275/111/20/
013810/20130306/90606/3270/4000/10/
013810/20130306/90606/3275/81/20/
013810/20130306/90606/3280/219/20/
013810/20130306/90606/3270/447/10/
013810/20130306/90606/3275/100/20/
013810/20130306/90606/3270/411/10/
013810/20130306/90607/3275/87/20/
013810/20130306/90607/3280/123/20/
013810/20130306/90607/3270/202/10/
013810/20130306/90607/3280/147/20/
013810/20130306/90607/3280/91/20/
013810/20130306/90608/3275/117/20/
013810/20130306/90608/3275/118/20/
013810/20130306/90608/3275/1759/20/
013810/20130306/90608/3280/1261/20/
013810/20130306/90608/3270/250/10/
013810/20130306/90608/3270/349/10/
013810/20130306/90609/3270/142/10/
013810/20130306/90609/3270/1006/10/
013810/20130306/90610/3275/174/20/
013810/20130306/90610/3270/3026/10/
013810/20130306/90611/3270/159/10/
013810/20130306/90612/3275/145/20/
013810/20130306/90612/3275/373/20/
013810/20130306/90612/3270/1634/10/
013810/20130306/90612/3270/572/10/
013810/20130306/90613/3270/3301/20/
013810/20130306/90613/3270/1154/20/
013810/20130306/90613/3275/810/20/
013810/20130306/90613/3275/600/20/
013810/20130306/90613/3275/660/20/
013810/20130306/90613/3270/220/20/
013810/20130306/90613/3270/438/20/
013810/20130306/90615/3265/318/10/
013810/20130306/90616/3265/888/20/
013810/20130306/90617/3260/278/10/
013810/20130306/90617/3255/130/10/
013810/20130306/90617/3250/954/10/
013810/20130306/90618/3265/1005/20/
013810/20130306/90618/3265/6530/20/
013810/20130306/90618/3270/84/20/
013810/20130306/90618/3265/118/20/
013810/20130306/90619/3265/127/20/
013810/20130306/90620/3260/513/10/
013810/20130306/90621/3265/391/20/
013810/20130306/90621/3270/88/20/
013810/20130306/90621/3265/122/20/
013810/20130306/90621/3270/145/20/
013810/20130306/90622/3260/1005/10/
013810/20130306/90625/3265/332/20/
013810/20130306/90625/3270/9734/20/
013810/20130306/90626/3260/1003/10/
013810/20130306/90626/3260/703/10/
013810/20130306/90628/3265/951/10/
013810/20130306/90628/3265/563/20/
013810/20130306/90629/3265/959/20/
013810/20130306/90629/3265/150/20/
013810/20130306/90630/3265/208/20/
013810/20130306/90631/3265/1854/20/
013810/20130306/90631/3265/90/20/
013810/20130306/90632/3270/84/20/
013810/20130306/90634/3270/5807/20/
013810/20130306/90636/3270/245/10/
013810/20130306/90636/3270/1254/10/
013810/20130306/90637/3275/83/20/
013810/20130306/90638/3275/93/20/
013810/20130306/90638/3275/292/20/
013810/20130306/90638/3270/88/10/
013810/20130306/90638/3275/345/20/
013810/20130306/90639/3275/274/20/
013810/20130306/90639/3270/1021/10/
013810/20130306/90639/3275/105/20/
013810/20130306/90640/3270/2569/10/
013810/20130306/90640/3270/2543/20/
013810/20130306/90641/3270/105/10/
013810/20130306/90641/3275/123/20/
013810/20130306/90642/3270/356/10/
013810/20130306/90643/3275/92/20/
013810/20130306/90643/3270/160/10/
013810/20130306/90643/3275/428/20/
013810/20130306/90643/3275/1121/20/
013810/20130306/90643/3275/242/20/
013810/20130306/90644/3270/1026/10/
013810/20130306/90645/3275/90/20/
013810/20130306/90646/3270/379/10/
013810/20130306/90646/3275/2253/20/
013810/20130306/90646/3275/284/20/
013810/20130306/90647/3275/89/20/
013810/20130306/90648/3270/266/10/
013810/20130306/90649/3275/129/20/
013810/20130306/90649/3275/2810/20/
013810/20130306/90649/3275/2022/20/
013810/20130306/90650/3270/2117/10/
013810/20130306/90650/3270/375/20/
013810/20130306/90651/3270/110/20/
013810/20130306/90651/3270/89/20/
013810/20130306/90652/3270/875/20/
013810/20130306/90652/3275/1415/20/
013810/20130306/90654/3275/97/20/
013810/20130306/90655/3275/99/20/
013810/20130306/90655/3270/1047/10/
013810/20130306/90655/3275/250/20/
013810/20130306/90656/3275/280/20/
013810/20130306/90656/3270/3543/10/
013810/20130306/90656/3265/1000/10/
013810/20130306/90656/3275/1011/20/
013810/20130306/90656/3265/101/10/
013810/20130306/90657/3275/96/20/
013810/20130306/90657/3275/500/20/
013810/20130306/90657/3270/201/20/
013810/20130306/90658/3270/893/20/
013810/20130306/90658/3270/237/20/
013810/20130306/90659/3270/110/20/
013810/20130306/90659/3270/559/20/
013810/20130306/90700/3270/344/20/
013810/20130306/90701/3270/96/20/
013810/20130306/90702/3270/87/20/
013810/20130306/90702/3270/2801/20/
013810/20130306/90702/3275/4114/20/
013810/20130306/90703/3265/5001/10/
013810/20130306/90703/3270/524/10/
013810/20130306/90704/3270/327/10/
013810/20130306/90704/3270/312/10/
013810/20130306/90704/3270/207/10/
013810/20130306/90705/3270/179/10/
013810/20130306/90705/3270/111/20/
013810/20130306/90707/3270/1701/20/
013810/20130306/90707/3270/2551/20/
013810/20130306/90707/3270/652/10/
013810/20130306/90707/3265/271/10/
013810/20130306/90709/3270/89/20/
013810/20130306/90710/3270/162/20/
013810/20130306/90710/3270/1814/20/
013810/20130306/90710/3275/2911/20/
013810/20130306/90711/3270/860/10/
013810/20130306/90712/3270/514/10/
013810/20130306/90712/3270/512/10/
013810/20130306/90713/3275/120/20/
013810/20130306/90714/3275/266/20/
013810/20130306/90714/3275/101/20/
013810/20130306/90714/3275/1600/20/
013810/20130306/90714/3270/311/10/
013810/20130306/90714/3275/100/20/
013810/20130306/90714/3275/274/20/
013810/20130306/90714/3270/1390/10/
013810/20130306/90714/3275/110/20/
013810/20130306/90714/3275/513/20/
013810/20130306/90715/3275/2510/20/
013810/20130306/90715/3275/101/20/
013810/20130306/90715/3275/383/20/
013810/20130306/90715/3275/111/20/
013810/20130306/90715/3275/103/20/
013810/20130306/90716/3275/684/20/
013810/20130306/90716/3275/111/20/
013810/20130306/90716/3270/757/10/
013810/20130306/90716/3275/101/20/
013810/20130306/90716/3275/288/20/
013810/20130306/90717/3275/113/20/
013810/20130306/90717/3275/220/20/
013810/20130306/90717/3275/102/20/
013810/20130306/90717/3270/200/10/
013810/20130306/90718/3275/113/20/
013810/20130306/90718/3275/621/20/
013810/20130306/90718/3275/110/20/
013810/20130306/90718/3275/112/20/
013810/20130306/90718/3275/110/20/
013810/20130306/90718/3275/101/20/
013810/20130306/90719/3275/554/20/
013810/20130306/90720/3275/179/20/
013810/20130306/90721/3275/101/20/
013810/20130306/90721/3275/112/20/
013810/20130306/90721/3275/110/20/
013810/20130306/90721/3275/178/20/
013810/20130306/90722/3275/100/20/
013810/20130306/90722/3275/325/20/
013810/20130306/90722/3275/230/20/
013810/20130306/90722/3275/2001/20/
013810/20130306/90722/3275/110/20/
013810/20130306/90722/3275/132/20/
013810/20130306/90722/3275/111/20/
013810/20130306/90723/3275/111/20/
013810/20130306/90723/3275/162/20/
013810/20130306/90723/3275/111/20/
013810/20130306/90724/3275/112/20/
013810/20130306/90724/3275/162/20/
013810/20130306/90724/3275/102/20/
013810/20130306/90724/3275/171/20/
013810/20130306/90724/3275/111/20/
013810/20130306/90725/3275/376/20/
013810/20130306/90725/3275/101/20/
013810/20130306/90725/3275/111/20/
013810/20130306/90725/3275/395/20/
013810/20130306/90725/3280/2106/20/
013810/20130306/90725/3280/110/20/
013810/20130306/90725/3280/1132/20/
013810/20130306/90726/3280/136/20/
013810/20130306/90726/3280/110/20/
013810/20130306/90726/3280/113/20/
013810/20130306/90726/3280/111/20/
013810/20130306/90727/3280/101/20/
013810/20130306/90727/3275/113/20/
013810/20130306/90727/3275/299/20/
013810/20130306/90727/3280/1011/20/
013810/20130306/90727/3270/1172/10/
013810/20130306/90727/3270/1116/10/
013810/20130306/90727/3270/100/10/
013810/20130306/90727/3270/412/10/
013810/20130306/90727/3280/609/20/
013810/20130306/90727/3280/100/20/
013810/20130306/90728/3280/113/20/
013810/20130306/90728/3280/10515/20/
013810/20130306/90728/3285/102/20/
013810/20130306/90729/3285/116/20/
013810/20130306/90729/3285/1000/20/
013810/20130306/90729/3285/376/20/
013810/20130306/90729/3285/5839/20/
013810/20130306/90729/3290/19271/20/
013810/20130306/90729/3290/2595/20/
013810/20130306/90729/3295/3987/20/
013810/20130306/90729/3295/100/20/
013810/20130306/90730/3295/101/20/
013810/20130306/90730/3290/1570/20/
013810/20130306/90730/3295/246/20/
013810/20130306/90730/3295/100/20/
013810/20130306/90730/3295/168/20/
013810/20130306/90730/3295/100/20/
013810/20130306/90730/3295/348/20/
013810/20130306/90730/3295/9699/20/
013810/20130306/90730/3300/20312/20/
013810/20130306/90730/3300/1001/20/
013810/20130306/90730/3300/700/20/
013810/20130306/90731/3300/1056/20/
013810/20130306/90731/3300/2737/20/
013810/20130306/90731/3300/197/20/
013810/20130306/90731/3300/22286/20/
013810/20130306/90731/3305/16949/20/
013810/20130306/90731/3310/9101/20/
013810/20130306/90731/3310/116/20/
013810/20130306/90731/3310/3007/20/
013810/20130306/90731/3310/2361/20/
013810/20130306/90731/3310/101/20/
013810/20130306/90731/3310/150/20/
013810/20130306/90731/3310/6832/20/
013810/20130306/90731/3315/35294/20/
013810/20130306/90731/3320/4350/20/
013810/20130306/90731/3320/400/20/
013810/20130306/90732/3320/3007/20/
013810/20130306/90732/3320/3000/20/
013810/20130306/90732/3320/1000/20/
013810/20130306/90732/3320/19589/20/
013810/20130306/90732/3320/3007/20/
013810/20130306/90732/3320/26311/20/
013810/20130306/90732/3325/73690/20/
013810/20130306/90732/3325/1730/20/
013810/20130306/90732/3325/476/20/
013810/20130306/90732/3325/3307/20/
013810/20130306/90732/3325/1000/20/
013810/20130306/90732/3325/90000/20/
013810/20130306/90732/3325/850/20/
013810/20130306/90732/3315/200/10/
013810/20130306/90732/3325/363/20/
013810/20130306/90732/3325/60000/20/
013810/20130306/90732/3325/54200/20/
013810/20130306/90732/3325/28407/20/
013810/20130306/90732/3325/626/10/
013810/20130306/90732/3325/376/10/
013810/20130306/90732/3325/584/10/
013810/20130306/90733/3325/1000/10/
013810/20130306/90733/3325/396/10/
013810/20130306/90733/3325/511/10/
013810/20130306/90733/3325/624/10/
013810/20130306/90733/3325/333/10/
013810/20130306/90733/3325/365/10/
013810/20130306/90734/3325/5000/10/
013810/20130306/90734/3325/500/10/
013810/20130306/90734/3325/92/10/
013810/20130306/90734/3325/120/10/
013810/20130306/90735/3325/5026/10/
013810/20130306/90735/3325/2032/10/
013810/20130306/90735/3325/95/10/
013810/20130306/90735/3325/157/10/
013810/20130306/90735/3325/618/10/
013810/20130306/90735/3325/161/10/
013810/20130306/90735/3325/102/10/
013810/20130306/90735/3325/1200/10/
013810/20130306/90735/3325/5000/10/
013810/20130306/90736/3325/1000/10/
013810/20130306/90736/3325/1000/10/
013810/20130306/90736/3325/100/10/
013810/20130306/90736/3325/1957/10/
013810/20130306/90736/3325/500/10/
013810/20130306/90736/3325/220/10/
013810/20130306/90736/3325/158/10/
013810/20130306/90736/3325/253/10/
013810/20130306/90737/3325/933/10/
013810/20130306/90737/3325/657/10/
013810/20130306/90737/3325/2000/10/
013810/20130306/90737/3325/300/10/
013810/20130306/90738/3325/1100/10/
013810/20130306/90738/3325/1000/10/
013810/20130306/90738/3325/1010/10/
013810/20130306/90738/3325/529/10/
013810/20130306/90738/3325/320/10/
013810/20130306/90738/3325/200/10/
013810/20130306/90738/3325/200/10/
013810/20130306/90739/3325/314/10/
013810/20130306/90739/3325/175/10/
013810/20130306/90739/3325/100/10/
013810/20130306/90739/3325/100/10/
013810/20130306/90739/3325/2001/10/
013810/20130306/90739/3325/200/10/
013810/20130306/90739/3325/300/10/
013810/20130306/90740/3325/6030/10/
013810/20130306/90740/3325/148/10/
013810/20130306/90740/3325/400/10/
013810/20130306/90741/3325/100/10/
013810/20130306/90741/3325/320/10/
013810/20130306/90742/3325/146/10/
013810/20130306/90742/3325/610/10/
013810/20130306/90742/3325/109/10/
013810/20130306/90742/3325/3580/10/
013810/20130306/90743/3325/250/10/
013810/20130306/90743/3325/3626/10/
013810/20130306/90743/3325/1960/10/
013810/20130306/90743/3325/300/10/
013810/20130306/90743/3325/3000/10/
013810/20130306/90743/3325/1029/10/
013810/20130306/90744/3325/520/10/
013810/20130306/90744/3325/400/10/
013810/20130306/90744/3325/982/10/
013810/20130306/90744/3325/2585/10/
013810/20130306/90745/3325/2000/10/
013810/20130306/90745/3325/138/10/
013810/20130306/90745/3325/1038/10/
013810/20130306/90745/3325/100/10/
013810/20130306/90746/3325/1200/10/
013810/20130306/90746/3325/3024/10/
013810/20130306/90746/3325/600/10/
013810/20130306/90747/3325/300/10/
013810/20130306/90747/3325/400/10/
013810/20130306/90748/3325/127/10/
013810/20130306/90748/3325/405/10/
013810/20130306/90748/3325/400/10/
013810/20130306/90748/3325/2200/10/
013810/20130306/90749/3325/152/10/
013810/20130306/90749/3325/637/10/
013810/20130306/90750/3325/84/10/
013810/20130306/90751/3325/369/10/
013810/20130306/90752/3325/1657/10/
013810/20130306/90753/3325/1000/10/
013810/20130306/90753/3325/500/10/
013810/20130306/90753/3325/300/10/
013810/20130306/90753/3325/2000/10/
013810/20130306/90754/3325/3000/10/
013810/20130306/90754/3325/500/10/
013810/20130306/90755/3325/3050/10/
013810/20130306/90755/3325/206/10/
013810/20130306/90755/3325/200/10/
013810/20130306/90755/3325/300/10/
013810/20130306/90756/3325/307/10/
013810/20130306/90757/3325/1080/10/
013810/20130306/90757/3325/502/10/
013810/20130306/90757/3325/100/10/
013810/20130306/90757/3325/300/10/
013810/20130306/90758/3325/1200/10/
013810/20130306/90758/3325/1026/10/
013810/20130306/90758/3325/826/10/
013810/20130306/90758/3325/4007/10/
013810/20130306/90759/3325/220/10/
013810/20130306/90759/3325/100/10/
013810/20130306/90759/3325/300/10/
013810/20130306/90759/3325/288/10/
013810/20130306/90800/3325/112/10/
013810/20130306/90800/3325/160/10/
013810/20130306/90800/3325/120/10/
013810/20130306/90801/3325/151/10/
013810/20130306/90802/3325/100/10/
013810/20130306/90802/3325/1600/10/
013810/20130306/90804/3325/305/10/
013810/20130306/90805/3325/300/10/
013810/20130306/90807/3325/700/10/
013810/20130306/90807/3325/178/10/
013810/20130306/90807/3325/1500/10/
013810/20130306/90808/3325/328/10/
013810/20130306/90811/3325/216/10/
013810/20130306/90812/3325/1200/10/
013810/20130306/90812/3325/500/10/
013810/20130306/90813/3325/500/10/
013810/20130306/90815/3325/512/10/
013810/20130306/90816/3325/315/10/
013810/20130306/90817/3325/1100/10/
013810/20130306/90817/3325/1005/10/
013810/20130306/90820/3325/500/10/
013810/20130306/90821/3325/250/10/
013810/20130306/90824/3325/6086/10/
013810/20130306/90826/3325/626/10/
013810/20130306/90827/3325/5805/10/
013810/20130306/90831/3325/212/10/
013810/20130306/90833/3325/152/10/
013810/20130306/90836/3325/100/10/
013810/20130306/90837/3325/511/10/
013810/20130306/90839/3325/200/10/
013810/20130306/90840/3325/710/10/
013810/20130306/90840/3325/150/10/
013810/20130306/90840/3325/400/10/
013810/20130306/90846/3325/554/10/
013810/20130306/90850/3325/125/10/
013810/20130306/90850/3325/300/10/
013810/20130306/90851/3325/200/10/
013810/20130306/90857/3325/216/10/
013810/20130306/90900/3325/434/10/
013810/20130306/90902/3325/100/10/
013810/20130306/90909/3325/408/10/
013810/20130306/90909/3325/100/10/
013810/20130306/90913/3325/562/10/
013810/20130306/90913/3325/100/10/
013810/20130306/90923/3325/443/10/
013810/20130306/90926/3325/370/10/
013810/20130306/90927/3325/700/10/
013810/20130306/90930/3325/1001/10/
013810/20130306/90932/3325/11050/10/
013810/20130306/90935/3325/572/10/
013810/20130306/90937/3325/1300/10/
013810/20130306/90938/3325/2000/10/
013810/20130306/90939/3325/100/10/
013810/20130306/90943/3325/300/10/
013810/20130306/90946/3325/177/10/
013810/20130306/90950/3325/322/10/
013810/20130306/90956/3325/640/10/
013810/20130306/90959/3325/650/10/
013810/20130306/91002/3325/388/10/
013810/20130306/91004/3325/185/10/
013810/20130306/91010/3325/110/10/
013810/20130306/91013/3325/2700/10/
013810/20130306/91019/3325/130/10/
013810/20130306/91027/3325/500/10/
013810/20130306/91027/3325/100/10/
013810/20130306/91029/3325/452/10/
013810/20130306/91033/3325/100/10/
013810/20130306/91035/3325/259/10/
013810/20130306/91035/3325/1111/10/
013810/20130306/91036/3325/2000/10/
013810/20130306/91047/3325/147/10/
013810/20130306/91056/3325/1010/10/
013810/20130306/91057/3325/500/10/
013810/20130306/91107/3325/255/10/
013810/20130306/91122/3325/281/10/
013810/20130306/91137/3325/121/10/
013810/20130306/91144/3325/649/10/
013810/20130306/91145/3325/425/10/
013810/20130306/91147/3325/277/10/
013810/20130306/91149/3325/5000/10/
013810/20130306/91155/3325/259/10/
013810/20130306/91156/3325/670/10/
013810/20130306/91156/3325/500/10/
013810/20130306/91157/3325/4500/10/
013810/20130306/91205/3325/90/10/
013810/20130306/91206/3325/14161/10/
013810/20130306/91207/3325/718/10/
013810/20130306/91210/3325/786/10/
013810/20130306/91211/3325/5251/10/
013810/20130306/91212/3325/400/10/
013810/20130306/91213/3325/500/10/
013810/20130306/91214/3325/170/10/
013810/20130306/91214/3325/200/10/
013810/20130306/91214/3325/100/10/
013810/20130306/91214/3325/610/10/
013810/20130306/91214/3325/3500/10/
013810/20130306/91216/3325/120/10/
013810/20130306/91223/3325/100/10/
013810/20130306/91225/3325/2200/10/
013810/20130306/91232/3325/1007/10/
013810/20130306/91240/3325/500/10/
013810/20130306/91247/3325/150/10/
013810/20130306/91249/3325/300/10/
013810/20130306/91256/3325/1000/10/
013810/20130306/91258/3325/160/10/
013810/20130306/91300/3325/550/10/
013810/20130306/91306/3325/2643/10/
013810/20130306/91307/3325/515/10/
013810/20130306/91307/3325/800/10/
013810/20130306/91319/3325/3026/10/
013810/20130306/91321/3325/500/10/
013810/20130306/91325/3325/10000/10/
013810/20130306/91327/3325/1390/10/
013810/20130306/91333/3325/350/10/
013810/20130306/91338/3325/500/10/
013810/20130306/91339/3325/999/10/
013810/20130306/91342/3325/1569/10/
013810/20130306/91347/3325/340/10/
013810/20130306/91349/3325/336/10/
013810/20130306/91410/3325/270/10/
013810/20130306/91414/3325/2000/10/
013810/20130306/91443/3325/1801/10/
013810/20130306/91455/3325/560/10/
013810/20130306/91523/3325/536/10/
013810/20130306/91559/3325/1200/10/
013810/20130306/91601/3325/5070/10/
013810/20130306/91604/3325/300/10/
013810/20130306/91612/3325/1000/10/
013810/20130306/91627/3325/500/10/
013810/20130306/91631/3325/2000/10/
013810/20130306/91646/3325/1827/10/
013810/20130306/91646/3325/500/10/
013810/20130306/91647/3325/1000/10/
013810/20130306/91648/3325/540/10/
013810/20130306/91708/3325/232/10/
013810/20130306/91714/3325/101/10/
013810/20130306/91718/3325/500/10/
013810/20130306/91732/3325/302/10/
013810/20130306/91735/3325/550/10/
013810/20130306/91747/3325/101/10/
013810/20130306/91804/3325/127/10/
013810/20130306/91829/3325/91/10/
013810/20130306/91829/3325/100/10/
013810/20130306/91844/3325/301/10/
013810/20130306/91848/3325/964/10/
013810/20130306/91911/3325/1401/10/
013810/20130306/91921/3325/1200/10/
013810/20130306/91922/3325/1049/10/
013810/20130306/91931/3325/10865/10/
013810/20130306/91934/3325/121/10/
013810/20130306/91944/3325/300/10/
013810/20130306/91944/3325/509/10/
013810/20130306/91953/3325/200/10/
013810/20130306/92026/3325/276/10/
013810/20130306/92034/3325/1300/10/
013810/20130306/92045/3325/1040/10/
013810/20130306/92056/3325/200/10/
013810/20130306/92112/3325/1000/10/
013810/20130306/92130/3325/320/10/
013810/20130306/92147/3325/5740/10/
013810/20130306/92205/3325/2500/10/
013810/20130306/92213/3325/2097/10/
013810/20130306/92225/3325/103/10/
013810/20130306/92225/3325/469/10/
013810/20130306/92230/3325/6015/10/
013810/20130306/92232/3325/500/10/
013810/20130306/92234/3325/1300/10/
013810/20130306/92238/3325/34432/10/
013810/20130306/92239/3325/2000/10/
013810/20130306/92241/3325/210/10/
013810/20130306/92242/3325/1054/10/
013810/20130306/92243/3325/1010/10/
013810/20130306/92243/3325/400/10/
013810/20130306/92244/3325/1000/10/
013810/20130306/92246/3325/400/10/
013810/20130306/92246/3325/1500/10/
013810/20130306/92247/3325/1115/10/
013810/20130306/92247/3325/4200/10/
013810/20130306/92247/3325/551/10/
013810/20130306/92248/3325/6582/10/
013810/20130306/92249/3325/3000/10/
013810/20130306/92250/3325/5000/10/
013810/20130306/92253/3325/5000/10/
013810/20130306/92255/3325/1859/10/
013810/20130306/92256/3325/417/10/
013810/20130306/92302/3325/250/10/
013810/20130306/92308/3325/300/10/
013810/20130306/92309/3325/1000/10/
013810/20130306/92311/3325/500/10/
013810/20130306/92312/3325/1965/10/
013810/20130306/92316/3325/700/10/
013810/20130306/92320/3325/287/10/
013810/20130306/92322/3325/200/10/
013810/20130306/92322/3325/500/10/
013810/20130306/92327/3325/118/10/
013810/20130306/92328/3325/118/10/
013810/20130306/92329/3325/2500/10/
013810/20130306/92332/3325/3307/10/
013810/20130306/92334/3325/1000/10/
013810/20130306/92337/3325/600/10/
013810/20130306/92342/3325/100/10/
013810/20130306/92343/3325/1000/10/
013810/20130306/92344/3325/523/10/
013810/20130306/92347/3325/407/10/
013810/20130306/92354/3325/3010/10/
013810/20130306/92404/3325/800/10/
013810/20130306/92411/3325/100/10/
013810/20130306/92419/3325/170/10/
013810/20130306/92424/3325/1094/10/
013810/20130306/92428/3325/300/10/
013810/20130306/92431/3325/1020/10/
013810/20130306/92433/3325/1000/10/
013810/20130306/92439/3325/520/10/
013810/20130306/92448/3325/500/10/
013810/20130306/92448/3325/300/10/
013810/20130306/92504/3325/800/10/
013810/20130306/92506/3325/2000/10/
013810/20130306/92507/3325/100/10/
013810/20130306/92515/3325/121/10/
013810/20130306/92559/3325/110/10/
013810/20130306/92603/3325/500/10/
013810/20130306/92644/3325/1228/10/
013810/20130306/92705/3325/140/10/
013810/20130306/92735/3325/500/10/
013810/20130306/92812/3325/121/10/
013810/20130306/92818/3325/226/10/
013810/20130306/92819/3325/1990/10/
013810/20130306/92823/3325/200/10/
013810/20130306/92932/3325/126/10/
013810/20130306/93040/3325/500/10/
013810/20130306/93117/3325/1050/10/
013810/20130306/93223/3325/536/10/
013810/20130306/93311/3325/102/10/
013810/20130306/93345/3325/81/10/
013810/20130306/93359/3325/1000/10/
013810/20130306/93548/3325/368/10/
013810/20130306/93549/3325/200/10/
013810/20130306/93557/3325/690/10/
013810/20130306/93632/3325/100/10/
013810/20130306/93738/3325/693/10/
013810/20130306/93750/3325/370/10/
013810/20130306/93757/3325/300/10/
013810/20130306/93803/3325/1000/10/
013810/20130306/93828/3325/170/10/
013810/20130306/93916/3325/271/10/
013810/20130306/93933/3325/200/10/
013810/20130306/93953/3325/3270/10/
013810/20130306/94018/3325/1032/10/
013810/20130306/94029/3325/1068/10/
013810/20130306/94036/3325/200/10/
013810/20130306/94056/3325/301/10/
013810/20130306/94058/3325/3720/10/
013810/20130306/94121/3325/1488/10/
013810/20130306/94130/3325/13339/10/
013810/20130306/94132/3325/700/10/
013810/20130306/94132/3325/368/10/
013810/20130306/94153/3325/100/10/
013810/20130306/94226/3325/88/10/
013810/20130306/94233/3325/1075/10/
013810/20130306/94234/3325/300/10/
013810/20130306/94304/3325/314/10/
013810/20130306/94307/3325/1600/10/
013810/20130306/94309/3325/200/10/
013810/20130306/94324/3325/860/10/
013810/20130306/94327/3325/100/10/
013810/20130306/94332/3325/1000/10/
013810/20130306/94332/3325/400/10/
013810/20130306/94351/3325/800/10/
013810/20130306/94357/3325/118/10/
013810/20130306/94409/3325/100/10/
013810/20130306/94410/3325/100/10/
013810/20130306/94418/3325/342/10/
013810/20130306/94436/3325/503/10/
013810/20130306/94436/3325/1000/10/
013810/20130306/94446/3325/1050/10/
013810/20130306/94449/3325/100/10/
013810/20130306/94456/3325/116/10/
013810/20130306/94535/3325/1001/10/
013810/20130306/94543/3325/195/10/
013810/20130306/94546/3325/781/10/
013810/20130306/94552/3325/430/10/
013810/20130306/94559/3325/2930/10/
013810/20130306/94608/3325/200/10/
013810/20130306/94640/3325/1080/10/
013810/20130306/94711/3325/419/10/
013810/20130306/94717/3325/500/10/
013810/20130306/94739/3325/14210/10/
013810/20130306/94749/3325/1000/10/
013810/20130306/94756/3325/10000/10/
013810/20130306/94759/3325/690/10/
013810/20130306/94811/3325/800/10/
013810/20130306/94816/3325/665/10/
013810/20130306/94835/3325/100/10/
013810/20130306/94852/3325/1740/10/
013810/20130306/94917/3325/1500/10/
013810/20130306/94933/3325/2580/10/
013810/20130306/94938/3325/3540/10/
013810/20130306/94953/3325/100/10/
013810/20130306/94954/3325/623/10/
013810/20130306/95003/3325/100/10/
013810/20130306/95013/3325/534/10/
013810/20130306/95027/3325/3000/10/
013810/20130306/95030/3325/250/10/
013810/20130306/95041/3325/103/10/
013810/20130306/95047/3325/566/10/
013810/20130306/95049/3325/169/10/
013810/20130306/95100/3325/405/10/
013810/20130306/95112/3325/1035/10/
013810/20130306/95137/3325/533/10/
013810/20130306/95147/3325/700/10/
013810/20130306/95211/3325/6570/10/
013810/20130306/95235/3325/1500/10/
013810/20130306/95238/3325/133/10/
013810/20130306/95243/3325/320/10/
013810/20130306/95307/3325/130/10/
013810/20130306/95309/3325/3704/10/
013810/20130306/95341/3325/165/10/
013810/20130306/95345/3325/500/10/
013810/20130306/95406/3325/300/10/
013810/20130306/95412/3325/1000/10/
013810/20130306/95428/3325/2397/10/
013810/20130306/95432/3325/90/10/
013810/20130306/95433/3325/100/10/
013810/20130306/95448/3325/500/10/
013810/20130306/95453/3325/450/10/
013810/20130306/95456/3325/1823/10/
013810/20130306/95607/3325/101/10/
013810/20130306/95609/3325/200/10/
013810/20130306/95610/3325/500/10/
013810/20130306/95629/3325/100/10/
013810/20130306/95629/3325/155/10/
013810/20130306/95827/3325/2008/10/
013810/20130306/95918/3325/182/10/
013810/20130306/95918/3325/1000/10/
013810/20130306/95932/3325/1720/10/
013810/20130306/95933/3325/700/10/
013810/20130306/100129/3325/269/10/
013810/20130306/100357/3325/150/10/
013810/20130306/100401/3325/100/10/
013810/20130306/100526/3325/526/10/
013810/20130306/100711/3325/204/10/
013810/20130306/100748/3325/500/10/
013810/20130306/100806/3325/900/10/
013810/20130306/100813/3325/391/10/
013810/20130306/100923/3325/571/10/
013810/20130306/101221/3325/915/10/
013810/20130306/101405/3325/100/10/
013810/20130306/101710/3325/84/10/
013810/20130306/101830/3325/279/10/
013810/20130306/101919/3325/1000/10/
013810/20130306/101951/3325/170/10/
013810/20130306/102029/3325/1000/10/
013810/20130306/102049/3325/500/10/
013810/20130306/102137/3325/400/10/
013810/20130306/102321/3325/200/10/
013810/20130306/102322/3325/200/10/
013810/20130306/102508/3325/400/10/
013810/20130306/102510/3325/1200/10/
013810/20130306/102511/3325/500/10/
013810/20130306/102520/3325/232/10/
013810/20130306/102529/3325/326/10/
013810/20130306/102543/3325/160/10/
013810/20130306/102553/3325/210/10/
013810/20130306/102640/3325/180/10/
013810/20130306/102759/3325/200/10/
013810/20130306/102959/3325/107/10/
013810/20130306/103110/3325/4694/10/
013810/20130306/103156/3325/321/10/
013810/20130306/103204/3325/500/10/
013810/20130306/103410/3325/200/10/
013810/20130306/103442/3325/112/10/
013810/20130306/103623/3325/230/10/
013810/20130306/103646/3325/200/10/
013810/20130306/103656/3325/127/10/
013810/20130306/104030/3325/104/10/
013810/20130306/104336/3325/102/10/
013810/20130306/104351/3325/165/10/
013810/20130306/104526/3325/420/10/
013810/20130306/104535/3325/200/10/
013810/20130306/104622/3325/500/10/
013810/20130306/104957/3325/197/10/
013810/20130306/105053/3325/220/10/
013810/20130306/105150/3325/330/10/
013810/20130306/105206/3325/563/10/
013810/20130306/105251/3325/170/10/
013810/20130306/105401/3325/110/10/
013810/20130306/105424/3325/404/10/
013810/20130306/105501/3325/1098/10/
013810/20130306/105526/3325/90/10/
013810/20130306/105659/3325/351/10/
013810/20130306/105856/3325/170/10/
013810/20130306/105856/3325/100/10/
013810/20130306/110032/3325/106/10/
013810/20130306/110054/3325/1004/10/
013810/20130306/110254/3325/1415/10/
013810/20130306/110400/3325/121/10/
013810/20130306/110619/3325/299/10/
013810/20130306/110644/3325/2290/10/
013810/20130306/110658/3325/3000/10/
013810/20130306/110842/3325/1000/10/
013810/20130306/111109/3325/415/10/
013810/20130306/111204/3325/100/10/
013810/20130306/111420/3325/533/10/
013810/20130306/111558/3325/124/10/
013810/20130306/111702/3325/103/10/
013810/20130306/112033/3325/2003/10/
013810/20130306/112211/3325/166/10/
013810/20130306/112810/3325/95/10/
013810/20130306/113414/3325/101/10/
013810/20130306/113933/3325/352/10/
013810/20130306/114008/3325/200/10/
013810/20130306/114741/3325/271/10/
013810/20130306/115856/3325/5042/10/
013810/20130306/121514/3325/185/10/
013810/20130306/121822/3325/151/10/
013810/20130306/122217/3325/222/10/
013810/20130306/122414/3325/3400/10/
013810/20130306/122428/3325/500/10/
013810/20130306/122446/3325/1448/10/
013810/20130306/122906/3325/140/10/
013810/20130306/122935/3325/1200/10/
013810/20130306/124045/3325/542/10/
013810/20130306/124154/3325/86/10/
013810/20130306/124256/3325/1000/10/
013810/20130306/124317/3325/200/10/
013810/20130306/124417/3325/1300/10/
013810/20130306/124635/3325/500/10/
013810/20130306/125426/3325/82/10/
013810/20130306/130000/3325/100/10/
013810/20130306/130053/3325/265/10/
013810/20130306/132440/3325/100/10/
013810/20130306/133709/3325/105/10/
013810/20130306/134251/3325/104/10/
013810/20130306/140212/3325/1041/10/
013810/20130306/140909/3325/480/10/
013810/20130306/142356/3325/142/10/
013810/20130306/143504/3325/146/10/
013810/20130306/144511/3325/119/10/
013810/20130306/144655/3325/2030/10/
013810/20130306/144738/3325/2500/10/
013810/20130306/150000/3325/144/10/
