013810/20121226/90000/2140/845/10/
013810/20121226/90159/2140/87/10/
013810/20121226/90223/2140/318/10/
013810/20121226/90223/2135/176/10/
013810/20121226/90223/2135/499/10/
013810/20121226/90400/2140/500/20/
013810/20121226/90429/2140/450/10/
013810/20121226/90452/2140/500/10/
013810/20121226/90506/2150/420/20/
013810/20121226/90654/2145/212/10/
013810/20121226/90737/2145/350/10/
013810/20121226/90737/2140/1398/10/
013810/20121226/90737/2135/6683/10/
013810/20121226/90741/2135/4069/20/
013810/20121226/90816/2130/200/10/
013810/20121226/90836/2130/200/10/
013810/20121226/90850/2150/500/20/
013810/20121226/90850/2130/1623/10/
013810/20121226/90850/2125/1877/10/
013810/20121226/90938/2125/200/10/
013810/20121226/91034/2150/102/10/
013810/20121226/91414/2150/302/20/
013810/20121226/91537/2140/690/10/
013810/20121226/91537/2135/310/10/
013810/20121226/91646/2135/150/10/
013810/20121226/91913/2140/102/10/
013810/20121226/91913/2135/367/10/
013810/20121226/91918/2135/1032/10/
013810/20121226/92100/2145/301/20/
013810/20121226/92100/2150/1700/20/
013810/20121226/92146/2150/1800/20/
013810/20121226/92451/2150/85/20/
013810/20121226/92915/2145/100/20/
013810/20121226/93131/2150/835/20/
013810/20121226/93216/2150/300/20/
013810/20121226/93350/2140/99/10/
013810/20121226/93437/2140/100/10/
013810/20121226/93537/2140/129/10/
013810/20121226/93551/2140/1001/10/
013810/20121226/93551/2135/683/10/
013810/20121226/93631/2140/800/20/
013810/20121226/93801/2140/212/10/
013810/20121226/93822/2140/90/20/
013810/20121226/93832/2140/100/10/
013810/20121226/93839/2145/981/20/
013810/20121226/93855/2145/120/20/
013810/20121226/93917/2145/98/20/
013810/20121226/93937/2145/1000/20/
013810/20121226/93950/2140/279/10/
013810/20121226/94000/2140/215/20/
013810/20121226/94000/2150/85/20/
013810/20121226/94102/2150/2400/20/
013810/20121226/94103/2135/5028/10/
013810/20121226/94128/2135/202/10/
013810/20121226/94308/2150/1000/20/
013810/20121226/94323/2140/1000/10/
013810/20121226/94747/2150/157/20/
013810/20121226/94853/2150/600/20/
013810/20121226/95028/2150/683/20/
013810/20121226/95059/2155/465/20/
013810/20121226/95108/2155/300/10/
013810/20121226/95145/2155/236/10/
013810/20121226/95204/2150/1531/10/
013810/20121226/95204/2140/735/10/
013810/20121226/95407/2150/100/20/
013810/20121226/95510/2155/384/20/
013810/20121226/95559/2145/407/10/
013810/20121226/95606/2140/2357/10/
013810/20121226/95606/2135/2353/10/
013810/20121226/95957/2150/802/20/
013810/20121226/100011/2150/88/20/
013810/20121226/100032/2150/900/10/
013810/20121226/100038/2150/999/10/
013810/20121226/100039/2155/700/20/
013810/20121226/100105/2160/512/20/
013810/20121226/100114/2160/2380/10/
013810/20121226/100119/2160/100/10/
013810/20121226/100240/2155/1009/20/
013810/20121226/100304/2160/202/20/
013810/20121226/100308/2160/100/20/
013810/20121226/100343/2160/85/20/
013810/20121226/100345/2160/363/20/
013810/20121226/100358/2160/1003/20/
013810/20121226/100544/2160/1002/20/
013810/20121226/100608/2160/331/20/
013810/20121226/100658/2155/1387/10/
013810/20121226/101149/2155/200/10/
013810/20121226/101204/2160/253/20/
013810/20121226/101300/2160/251/20/
013810/20121226/101557/2150/655/10/
013810/20121226/101557/2150/1851/20/
013810/20121226/102253/2150/1505/10/
013810/20121226/102507/2155/100/20/
013810/20121226/102615/2150/537/10/
013810/20121226/102702/2150/560/10/
013810/20121226/103037/2160/2450/20/
013810/20121226/103211/2160/83/10/
013810/20121226/103336/2160/1022/10/
013810/20121226/103347/2160/797/10/
013810/20121226/103408/2160/1203/20/
013810/20121226/103442/2160/1012/10/
013810/20121226/103457/2160/197/10/
013810/20121226/103633/2160/127/10/
013810/20121226/103742/2160/100/10/
013810/20121226/103826/2160/113/10/
013810/20121226/103840/2160/100/10/
013810/20121226/105227/2160/141/10/
013810/20121226/105227/2150/742/10/
013810/20121226/105446/2155/953/10/
013810/20121226/105446/2150/2316/10/
013810/20121226/105446/2145/931/10/
013810/20121226/110640/2155/449/10/
013810/20121226/110640/2155/525/20/
013810/20121226/111203/2160/3830/20/
013810/20121226/111803/2165/101/20/
013810/20121226/112039/2165/500/20/
013810/20121226/112044/2165/100/20/
013810/20121226/112051/2165/100/20/
013810/20121226/112411/2155/1400/10/
013810/20121226/113436/2160/807/20/
013810/20121226/113831/2160/1004/10/
013810/20121226/114313/2160/84/10/
013810/20121226/114335/2160/100/10/
013810/20121226/114657/2160/100/10/
013810/20121226/114840/2160/153/10/
013810/20121226/114840/2160/1189/20/
013810/20121226/115013/2165/3021/20/
013810/20121226/115103/2160/1000/10/
013810/20121226/115103/2155/198/10/
013810/20121226/115953/2160/282/10/
013810/20121226/120105/2165/736/20/
013810/20121226/121042/2165/479/20/
013810/20121226/121042/2170/1089/20/
013810/20121226/121936/2170/500/20/
013810/20121226/122040/2170/615/20/
013810/20121226/122145/2170/275/20/
013810/20121226/122220/2170/200/20/
013810/20121226/122423/2170/250/10/
013810/20121226/122436/2170/130/20/
013810/20121226/122518/2165/900/10/
013810/20121226/122518/2160/640/10/
013810/20121226/122719/2160/150/10/
013810/20121226/122744/2160/180/10/
013810/20121226/122943/2160/100/10/
013810/20121226/124200/2165/793/10/
013810/20121226/124224/2160/6559/10/
013810/20121226/124600/2160/313/20/
013810/20121226/125202/2155/1028/10/
013810/20121226/125255/2155/1050/10/
013810/20121226/125650/2160/4004/20/
013810/20121226/130722/2155/84/10/
013810/20121226/130843/2155/100/10/
013810/20121226/130852/2155/2542/10/
013810/20121226/131104/2155/254/20/
013810/20121226/131247/2155/134/20/
013810/20121226/131343/2155/105/20/
013810/20121226/131421/2150/3012/10/
013810/20121226/131633/2155/84/20/
013810/20121226/131636/2155/128/20/
013810/20121226/131849/2155/145/10/
013810/20121226/131900/2150/2975/10/
013810/20121226/131951/2155/1550/20/
013810/20121226/132419/2160/103/20/
013810/20121226/132506/2155/1347/10/
013810/20121226/132621/2155/132/20/
013810/20121226/132658/2150/3371/10/
013810/20121226/133308/2150/7847/10/
013810/20121226/133326/2150/2213/20/
013810/20121226/133327/2150/150/10/
013810/20121226/133946/2160/114/20/
013810/20121226/134158/2150/1865/10/
013810/20121226/134235/2150/1266/20/
013810/20121226/134904/2155/619/10/
013810/20121226/134948/2155/494/20/
013810/20121226/135248/2155/126/20/
013810/20121226/135451/2155/287/20/
013810/20121226/135751/2155/100/20/
013810/20121226/140303/2155/402/20/
013810/20121226/140359/2155/258/20/
013810/20121226/140455/2155/235/20/
013810/20121226/140550/2150/12887/10/
013810/20121226/140623/2145/1000/10/
013810/20121226/140627/2145/800/10/
013810/20121226/140632/2145/595/10/
013810/20121226/140810/2150/465/20/
013810/20121226/140918/2145/2661/10/
013810/20121226/141430/2145/2103/10/
013810/20121226/141515/2145/916/20/
013810/20121226/141935/2155/930/20/
013810/20121226/142811/2150/144/10/
013810/20121226/143004/2155/173/20/
013810/20121226/143032/2150/1501/10/
013810/20121226/143208/2150/171/10/
013810/20121226/143304/2145/318/10/
013810/20121226/143543/2150/500/20/
013810/20121226/143743/2150/500/10/
013810/20121226/143759/2145/8905/10/
013810/20121226/143759/2140/95/10/
013810/20121226/144206/2150/1403/20/
013810/20121226/144321/2150/2600/20/
013810/20121226/144536/2150/215/20/
013810/20121226/144536/2155/485/20/
013810/20121226/144603/2150/114/10/
013810/20121226/144603/2145/207/10/
013810/20121226/144906/2145/344/10/
013810/20121226/150000/2145/4950/10/
