013810/20121221/90000/2170/1810/20/
013810/20121221/90000/2160/2000/10/
013810/20121221/90028/2160/3770/20/
013810/20121221/90106/2170/141/20/
013810/20121221/90216/2180/301/20/
013810/20121221/90437/2165/573/10/
013810/20121221/90437/2160/987/10/
013810/20121221/90603/2180/101/20/
013810/20121221/90823/2165/306/20/
013810/20121221/90850/2160/605/10/
013810/20121221/90856/2160/2713/10/
013810/20121221/90902/2160/501/20/
013810/20121221/90909/2160/756/20/
013810/20121221/91141/2165/255/10/
013810/20121221/91209/2165/445/20/
013810/20121221/91247/2160/559/10/
013810/20121221/91247/2160/2441/20/
013810/20121221/91258/2155/1000/10/
013810/20121221/91322/2155/2302/10/
013810/20121221/91400/2155/2179/10/
013810/20121221/91400/2150/4026/10/
013810/20121221/91401/2150/870/20/
013810/20121221/91735/2155/181/10/
013810/20121221/91834/2155/421/10/
013810/20121221/92023/2155/570/10/
013810/20121221/92036/2155/420/10/
013810/20121221/92214/2155/1004/10/
013810/20121221/92259/2155/103/10/
013810/20121221/92318/2155/293/10/
013810/20121221/92332/2150/3629/10/
013810/20121221/92435/2145/1244/10/
013810/20121221/92435/2140/670/10/
013810/20121221/92435/2135/5503/10/
013810/20121221/92435/2130/6000/10/
013810/20121221/92444/2125/143/20/
013810/20121221/92444/2130/1072/20/
013810/20121221/92454/2130/512/20/
013810/20121221/92715/2135/1429/10/
013810/20121221/92715/2130/2622/10/
013810/20121221/92817/2135/1001/10/
013810/20121221/92817/2130/3700/10/
013810/20121221/92825/2130/1619/10/
013810/20121221/92906/2150/1324/20/
013810/20121221/93144/2140/100/10/
013810/20121221/93207/2130/2148/10/
013810/20121221/93323/2130/1601/10/
013810/20121221/93323/2125/3331/10/
013810/20121221/93323/2120/3643/10/
013810/20121221/93323/2115/2851/10/
013810/20121221/93323/2110/3069/10/
013810/20121221/93323/2105/6037/10/
013810/20121221/93457/2135/501/20/
013810/20121221/93559/2135/941/20/
013810/20121221/93603/2140/500/20/
013810/20121221/94029/2145/107/20/
013810/20121221/94029/2150/693/20/
013810/20121221/94029/2155/241/20/
013810/20121221/94119/2130/1150/10/
013810/20121221/94149/2130/1000/10/
013810/20121221/94655/2150/1155/20/
013810/20121221/94655/2155/145/20/
013810/20121221/94904/2135/100/10/
013810/20121221/94925/2145/100/20/
013810/20121221/95405/2135/1000/10/
013810/20121221/95408/2135/586/10/
013810/20121221/95509/2145/1385/20/
013810/20121221/95542/2145/432/10/
013810/20121221/95600/2145/518/20/
013810/20121221/95610/2145/482/10/
013810/20121221/95625/2145/1518/20/
013810/20121221/95643/2145/100/10/
013810/20121221/100042/2155/659/20/
013810/20121221/100056/2155/470/20/
013810/20121221/100110/2155/100/20/
013810/20121221/100227/2155/550/20/
013810/20121221/100306/2150/370/20/
013810/20121221/100710/2145/462/10/
013810/20121221/100844/2145/531/10/
013810/20121221/101022/2145/300/10/
013810/20121221/101022/2140/2730/10/
013810/20121221/101032/2140/778/10/
013810/20121221/101032/2135/2922/10/
013810/20121221/101032/2130/1838/10/
013810/20121221/101657/2135/1509/10/
013810/20121221/101715/2135/100/20/
013810/20121221/101722/2135/110/20/
013810/20121221/101856/2135/591/20/
013810/20121221/101856/2140/197/20/
013810/20121221/101856/2145/256/20/
013810/20121221/102058/2145/1010/20/
013810/20121221/102236/2135/100/10/
013810/20121221/102236/2135/100/10/
013810/20121221/102320/2130/1000/10/
013810/20121221/102418/2135/100/20/
013810/20121221/102428/2135/100/20/
013810/20121221/102503/2130/2457/10/
013810/20121221/103000/2135/315/20/
013810/20121221/103012/2135/155/10/
013810/20121221/103433/2130/88/10/
013810/20121221/103517/2130/491/10/
013810/20121221/103519/2125/3173/10/
013810/20121221/103519/2120/3827/10/
013810/20121221/103630/2125/1004/10/
013810/20121221/103648/2125/715/20/
013810/20121221/104812/2130/2524/10/
013810/20121221/104812/2125/1675/10/
013810/20121221/105042/2125/190/10/
013810/20121221/105227/2130/300/20/
013810/20121221/105424/2125/6370/10/
013810/20121221/105506/2125/1300/10/
013810/20121221/105919/2130/113/20/
013810/20121221/110107/2130/103/20/
013810/20121221/110126/2130/173/10/
013810/20121221/110240/2135/2087/20/
013810/20121221/110317/2140/551/20/
013810/20121221/110345/2140/490/20/
013810/20121221/110358/2135/275/10/
013810/20121221/110408/2140/1000/20/
013810/20121221/110453/2135/101/10/
013810/20121221/110537/2130/494/10/
013810/20121221/110812/2130/3000/10/
013810/20121221/110915/2135/201/20/
013810/20121221/111010/2135/2355/10/
013810/20121221/111017/2135/300/10/
013810/20121221/111057/2135/357/10/
013810/20121221/111208/2135/179/10/
013810/20121221/111647/2140/2014/20/
013810/20121221/111709/2140/2000/20/
013810/20121221/111714/2140/151/20/
013810/20121221/111723/2145/1406/20/
013810/20121221/111759/2145/260/10/
013810/20121221/111828/2145/1644/10/
013810/20121221/111833/2145/150/10/
013810/20121221/111927/2145/419/10/
013810/20121221/112115/2145/201/20/
013810/20121221/112218/2145/630/20/
013810/20121221/112323/2145/1500/20/
013810/20121221/112332/2145/200/20/
013810/20121221/112453/2150/97/20/
013810/20121221/112530/2145/980/10/
013810/20121221/112541/2145/1320/20/
013810/20121221/112701/2145/1703/20/
013810/20121221/112705/2145/708/10/
013810/20121221/112705/2140/2956/10/
013810/20121221/112946/2145/618/20/
013810/20121221/113116/2145/200/20/
013810/20121221/113610/2145/502/20/
013810/20121221/113610/2145/771/20/
013810/20121221/113632/2145/250/10/
013810/20121221/113741/2145/200/20/
013810/20121221/113819/2145/450/20/
013810/20121221/114041/2150/217/20/
013810/20121221/114145/2150/100/20/
013810/20121221/114220/2150/100/20/
013810/20121221/114832/2150/254/20/
013810/20121221/115022/2145/705/10/
013810/20121221/115022/2140/795/10/
013810/20121221/115333/2145/1107/10/
013810/20121221/115359/2145/164/10/
013810/20121221/120318/2145/290/20/
013810/20121221/120737/2145/354/10/
013810/20121221/121119/2145/130/20/
013810/20121221/121356/2140/268/10/
013810/20121221/121933/2140/220/10/
013810/20121221/122034/2140/750/10/
013810/20121221/122044/2140/1000/10/
013810/20121221/122107/2140/183/10/
013810/20121221/122311/2145/172/20/
013810/20121221/122531/2150/569/20/
013810/20121221/123456/2145/368/10/
013810/20121221/123958/2145/688/20/
013810/20121221/124100/2145/551/10/
013810/20121221/124350/2145/664/10/
013810/20121221/124405/2145/227/10/
013810/20121221/124429/2145/274/20/
013810/20121221/124447/2145/126/10/
013810/20121221/124448/2145/605/10/
013810/20121221/124526/2145/315/20/
013810/20121221/124746/2145/502/10/
013810/20121221/124840/2145/300/10/
013810/20121221/124922/2150/663/20/
013810/20121221/125132/2145/1501/10/
013810/20121221/125253/2150/478/20/
013810/20121221/125302/2150/142/10/
013810/20121221/125952/2150/1699/20/
013810/20121221/130116/2150/200/10/
013810/20121221/130116/2150/850/20/
013810/20121221/130343/2150/98/10/
013810/20121221/131017/2150/105/10/
013810/20121221/131506/2150/331/10/
013810/20121221/131512/2150/1000/10/
013810/20121221/131552/2150/1034/10/
013810/20121221/131632/2145/300/10/
013810/20121221/131835/2150/2801/20/
013810/20121221/131835/2150/1945/10/
013810/20121221/132538/2145/732/10/
013810/20121221/133541/2150/84/10/
013810/20121221/133605/2155/1249/20/
013810/20121221/133659/2155/157/10/
013810/20121221/133853/2160/403/20/
013810/20121221/133859/2160/100/20/
013810/20121221/133931/2160/238/20/
013810/20121221/134251/2160/1105/20/
013810/20121221/134634/2160/707/20/
013810/20121221/134648/2160/673/10/
013810/20121221/134841/2165/1685/20/
013810/20121221/135028/2165/100/20/
013810/20121221/135049/2165/500/20/
013810/20121221/135222/2165/500/20/
013810/20121221/135224/2165/500/20/
013810/20121221/135244/2165/2084/20/
013810/20121221/135308/2165/612/20/
013810/20121221/135340/2170/149/20/
013810/20121221/135413/2170/1000/20/
013810/20121221/135648/2165/500/10/
013810/20121221/135846/2165/310/10/
013810/20121221/135859/2165/300/20/
013810/20121221/135914/2165/100/20/
013810/20121221/135938/2165/104/20/
013810/20121221/140007/2165/99/20/
013810/20121221/140025/2165/101/10/
013810/20121221/140035/2165/607/10/
013810/20121221/140035/2160/411/10/
013810/20121221/140050/2160/500/10/
013810/20121221/140102/2160/101/10/
013810/20121221/140309/2160/158/20/
013810/20121221/140405/2165/658/20/
013810/20121221/140406/2160/129/10/
013810/20121221/140432/2160/1000/20/
013810/20121221/140432/2160/871/20/
013810/20121221/140617/2165/822/20/
013810/20121221/140920/2160/90/10/
013810/20121221/141413/2155/208/10/
013810/20121221/141413/2150/311/10/
013810/20121221/141811/2165/1006/20/
013810/20121221/141852/2165/350/20/
013810/20121221/141857/2165/100/20/
013810/20121221/141952/2170/1019/20/
013810/20121221/142129/2170/81/20/
013810/20121221/142258/2170/2002/20/
013810/20121221/142307/2170/670/20/
013810/20121221/142645/2170/401/20/
013810/20121221/142740/2175/1805/20/
013810/20121221/142834/2175/200/10/
013810/20121221/142915/2175/117/20/
013810/20121221/142923/2175/659/10/
013810/20121221/142925/2175/227/10/
013810/20121221/143000/2175/502/20/
013810/20121221/143008/2175/200/20/
013810/20121221/143021/2175/500/10/
013810/20121221/143040/2175/300/20/
013810/20121221/143223/2175/304/20/
013810/20121221/143225/2175/205/20/
013810/20121221/143314/2180/2801/20/
013810/20121221/143403/2180/558/20/
013810/20121221/143524/2180/551/20/
013810/20121221/143547/2180/302/20/
013810/20121221/143603/2180/208/20/
013810/20121221/143932/2180/1815/20/
013810/20121221/143956/2180/1000/20/
013810/20121221/144000/2180/307/20/
013810/20121221/144004/2180/295/20/
013810/20121221/144125/2180/3000/20/
013810/20121221/144140/2180/100/20/
013810/20121221/144217/2180/220/10/
013810/20121221/144231/2180/508/20/
013810/20121221/144249/2185/3368/20/
013810/20121221/144341/2185/798/20/
013810/20121221/144357/2180/381/20/
013810/20121221/144447/2180/2574/20/
013810/20121221/144510/2180/400/20/
013810/20121221/144620/2180/99/20/
013810/20121221/144639/2180/1050/20/
013810/20121221/144641/2180/796/20/
013810/20121221/144701/2185/2900/20/
013810/20121221/144713/2180/201/10/
013810/20121221/144741/2180/1009/10/
013810/20121221/144759/2180/507/10/
013810/20121221/144837/2180/301/20/
013810/20121221/144837/2185/1419/20/
013810/20121221/144844/2185/288/10/
013810/20121221/144917/2185/106/20/
013810/20121221/144921/2190/1001/20/
013810/20121221/144933/2190/2284/20/
013810/20121221/144944/2185/1000/20/
013810/20121221/144945/2190/500/20/
013810/20121221/144949/2190/2000/20/
013810/20121221/144952/2190/100/20/
013810/20121221/144954/2190/259/20/
013810/20121221/150000/2200/17103/10/
