006910/20121121/90000/1620/100/10/
006910/20121121/90122/1635/303/20/
006910/20121121/90404/1640/200/20/
006910/20121121/90411/1640/1856/20/
006910/20121121/90551/1630/200/10/
006910/20121121/90712/1630/400/20/
006910/20121121/90910/1630/240/10/
006910/20121121/91046/1630/135/10/
006910/20121121/92224/1645/561/20/
006910/20121121/92334/1645/1000/20/
006910/20121121/92818/1640/112/10/
006910/20121121/92838/1640/200/10/
006910/20121121/92923/1640/90/10/
006910/20121121/93133/1640/261/10/
006910/20121121/93448/1645/600/20/
006910/20121121/93902/1645/432/20/
006910/20121121/93916/1645/204/10/
006910/20121121/93916/1645/432/20/
006910/20121121/94131/1640/1000/10/
006910/20121121/94250/1640/796/20/
006910/20121121/94329/1640/314/10/
006910/20121121/94511/1645/330/20/
006910/20121121/94705/1645/101/20/
006910/20121121/94755/1640/501/10/
006910/20121121/95354/1645/256/20/
006910/20121121/95433/1645/1212/20/
006910/20121121/95442/1645/766/10/
006910/20121121/95603/1645/483/10/
006910/20121121/95607/1645/517/20/
006910/20121121/95625/1645/483/20/
006910/20121121/95642/1645/500/20/
006910/20121121/95748/1650/3501/20/
006910/20121121/95901/1650/511/20/
006910/20121121/95947/1650/210/10/
006910/20121121/100407/1645/147/10/
006910/20121121/100445/1645/378/20/
006910/20121121/100502/1645/515/20/
006910/20121121/100538/1650/500/20/
006910/20121121/100716/1650/500/20/
006910/20121121/101032/1650/200/20/
006910/20121121/101043/1650/300/20/
006910/20121121/101143/1650/280/10/
006910/20121121/101200/1650/730/20/
006910/20121121/101258/1655/1302/20/
006910/20121121/101318/1660/1151/20/
006910/20121121/101353/1660/2289/20/
006910/20121121/101402/1665/200/20/
006910/20121121/101403/1660/2000/10/
006910/20121121/101425/1660/200/10/
006910/20121121/101512/1665/1886/20/
006910/20121121/101512/1670/1114/20/
006910/20121121/101519/1670/3012/20/
006910/20121121/101520/1670/234/20/
006910/20121121/101530/1675/210/20/
006910/20121121/101535/1680/485/20/
006910/20121121/101536/1685/476/20/
006910/20121121/101536/1690/122/20/
006910/20121121/101541/1685/234/10/
006910/20121121/101542/1690/2000/20/
006910/20121121/101542/1690/1300/20/
006910/20121121/101543/1685/766/10/
006910/20121121/101543/1685/234/20/
006910/20121121/101545/1695/1152/20/
006910/20121121/101554/1695/216/20/
006910/20121121/101558/1695/288/10/
006910/20121121/101558/1690/666/10/
006910/20121121/101618/1690/88/20/
006910/20121121/101652/1685/400/10/
006910/20121121/101659/1685/485/10/
006910/20121121/101727/1680/135/20/
006910/20121121/101816/1665/218/10/
006910/20121121/101906/1675/86/20/
006910/20121121/101938/1675/904/20/
006910/20121121/101938/1680/1588/20/
006910/20121121/102133/1675/1033/20/
006910/20121121/102143/1675/111/20/
006910/20121121/102246/1675/88/20/
006910/20121121/102320/1675/95/20/
006910/20121121/102320/1680/677/20/
006910/20121121/102335/1680/244/10/
006910/20121121/102406/1680/760/20/
006910/20121121/102418/1685/1055/20/
006910/20121121/102436/1690/1058/20/
006910/20121121/102442/1690/133/20/
006910/20121121/102452/1690/99/20/
006910/20121121/102503/1690/333/20/
006910/20121121/102527/1685/960/10/
006910/20121121/102527/1680/2049/10/
006910/20121121/102536/1680/2006/10/
006910/20121121/102547/1680/531/10/
006910/20121121/102619/1670/781/10/
006910/20121121/102630/1670/227/20/
006910/20121121/102752/1680/1718/20/
006910/20121121/102825/1680/329/20/
006910/20121121/103212/1670/529/10/
006910/20121121/103339/1685/502/20/
006910/20121121/103409/1690/976/20/
006910/20121121/103413/1690/1000/10/
006910/20121121/103446/1695/1968/20/
006910/20121121/103525/1690/200/10/
006910/20121121/103538/1695/453/20/
006910/20121121/103609/1690/100/10/
006910/20121121/103646/1695/186/20/
006910/20121121/103712/1695/201/20/
006910/20121121/103741/1695/996/20/
006910/20121121/103742/1695/966/20/
006910/20121121/103810/1700/2011/20/
006910/20121121/103822/1700/324/20/
006910/20121121/103828/1700/2062/20/
006910/20121121/103847/1705/1515/20/
006910/20121121/103850/1705/158/10/
006910/20121121/103855/1705/105/10/
006910/20121121/103858/1705/105/20/
006910/20121121/104004/1695/541/10/
006910/20121121/104226/1695/2031/10/
006910/20121121/104258/1695/110/20/
006910/20121121/104334/1695/81/20/
006910/20121121/104406/1690/3638/10/
006910/20121121/104449/1685/122/10/
006910/20121121/104456/1685/500/10/
006910/20121121/104615/1685/132/10/
006910/20121121/104818/1685/204/20/
006910/20121121/104828/1685/120/10/
006910/20121121/104912/1680/101/10/
006910/20121121/105049/1680/501/10/
006910/20121121/105223/1680/1000/10/
006910/20121121/105323/1680/878/10/
006910/20121121/105607/1680/1085/20/
006910/20121121/105619/1680/1242/10/
006910/20121121/105806/1680/89/10/
006910/20121121/110656/1675/1777/10/
006910/20121121/111209/1675/714/20/
006910/20121121/111333/1675/301/10/
006910/20121121/111555/1675/101/10/
006910/20121121/111625/1675/95/10/
006910/20121121/112143/1675/1001/20/
006910/20121121/112154/1675/1000/20/
006910/20121121/112435/1675/321/20/
006910/20121121/113225/1675/883/20/
006910/20121121/113413/1675/1100/20/
006910/20121121/113535/1675/100/20/
006910/20121121/113820/1670/3070/10/
006910/20121121/113824/1670/2807/10/
006910/20121121/113856/1670/100/20/
006910/20121121/114104/1670/512/20/
006910/20121121/114208/1665/2025/10/
006910/20121121/114208/1665/870/10/
006910/20121121/115840/1660/1196/10/
006910/20121121/123002/1665/478/10/
006910/20121121/123002/1660/1572/10/
006910/20121121/123312/1660/193/10/
006910/20121121/123346/1655/1179/10/
006910/20121121/123347/1655/1811/10/
006910/20121121/123555/1670/201/20/
006910/20121121/124453/1655/138/10/
006910/20121121/124453/1650/4224/10/
006910/20121121/124454/1650/1233/20/
006910/20121121/124626/1645/1416/10/
006910/20121121/124627/1645/1607/20/
006910/20121121/124713/1645/2300/20/
006910/20121121/125637/1665/121/10/
006910/20121121/125717/1665/174/10/
006910/20121121/130658/1640/2744/10/
006910/20121121/131605/1645/207/10/
006910/20121121/131629/1645/200/10/
006910/20121121/132122/1650/100/20/
006910/20121121/132205/1660/219/10/
006910/20121121/132205/1665/189/10/
006910/20121121/132205/1670/2002/20/
006910/20121121/132221/1655/990/10/
006910/20121121/132221/1645/2049/10/
006910/20121121/132221/1640/741/10/
006910/20121121/132238/1670/343/20/
006910/20121121/132238/1675/180/20/
006910/20121121/132255/1675/137/10/
006910/20121121/132422/1660/1571/10/
006910/20121121/132520/1660/321/10/
006910/20121121/132840/1665/231/20/
006910/20121121/132840/1670/1000/20/
006910/20121121/132840/1670/1728/10/
006910/20121121/133019/1670/594/20/
006910/20121121/133118/1670/238/10/
006910/20121121/133134/1675/1051/20/
006910/20121121/133149/1675/2547/20/
006910/20121121/133149/1675/753/10/
006910/20121121/133156/1675/747/20/
006910/20121121/133228/1680/5172/20/
006910/20121121/133303/1680/263/10/
006910/20121121/133422/1680/359/20/
006910/20121121/133422/1685/771/20/
006910/20121121/133505/1680/503/20/
006910/20121121/133530/1680/1001/10/
006910/20121121/133541/1680/221/10/
006910/20121121/133726/1680/150/20/
006910/20121121/133805/1680/935/20/
006910/20121121/133913/1680/81/20/
006910/20121121/134057/1680/504/20/
006910/20121121/134327/1675/300/10/
006910/20121121/134334/1675/2899/10/
006910/20121121/134501/1675/101/20/
006910/20121121/134625/1670/587/10/
006910/20121121/134647/1670/1489/10/
006910/20121121/134805/1660/165/10/
006910/20121121/134929/1660/295/10/
006910/20121121/135003/1660/143/10/
006910/20121121/135154/1660/1006/20/
006910/20121121/135204/1660/100/20/
006910/20121121/135903/1650/1164/10/
006910/20121121/135950/1650/1702/10/
006910/20121121/135950/1645/1672/10/
006910/20121121/135950/1640/626/10/
006910/20121121/140034/1655/654/20/
006910/20121121/140034/1660/796/20/
006910/20121121/140305/1640/1690/10/
006910/20121121/140344/1640/3538/10/
006910/20121121/141118/1650/150/20/
006910/20121121/141146/1650/400/10/
006910/20121121/141704/1640/1001/10/
006910/20121121/141711/1640/444/10/
006910/20121121/141711/1635/1120/10/
006910/20121121/142257/1635/2967/10/
006910/20121121/142308/1635/141/10/
006910/20121121/143415/1640/81/10/
006910/20121121/143415/1635/3693/10/
006910/20121121/143415/1630/1090/10/
006910/20121121/143451/1635/1000/10/
006910/20121121/143451/1630/993/10/
006910/20121121/143509/1630/1000/10/
006910/20121121/144727/1635/1061/10/
006910/20121121/144759/1630/2725/10/
006910/20121121/144928/1625/1248/10/
006910/20121121/150000/1635/7335/10/
