006910/20130104/90000/1875/6238/10/
006910/20130104/90036/1885/221/20/
006910/20130104/90100/1895/911/20/
006910/20130104/90116/1905/102/10/
006910/20130104/90128/1915/81/20/
006910/20130104/90131/1910/139/10/
006910/20130104/90146/1910/264/20/
006910/20130104/90151/1905/361/10/
006910/20130104/90201/1905/326/20/
006910/20130104/90232/1900/1516/10/
006910/20130104/90313/1900/1577/10/
006910/20130104/90319/1900/861/10/
006910/20130104/90330/1900/568/20/
006910/20130104/90332/1900/472/20/
006910/20130104/90412/1890/264/10/
006910/20130104/90412/1885/1674/10/
006910/20130104/90412/1880/2080/10/
006910/20130104/90412/1875/988/10/
006910/20130104/90539/1885/135/10/
006910/20130104/90539/1880/2213/10/
006910/20130104/90539/1875/2801/10/
006910/20130104/90703/1880/108/10/
006910/20130104/90703/1875/1041/10/
006910/20130104/90840/1890/317/20/
006910/20130104/90943/1880/295/10/
006910/20130104/90943/1880/1709/20/
006910/20130104/91236/1875/729/10/
006910/20130104/91446/1880/262/10/
006910/20130104/91447/1890/100/20/
006910/20130104/91746/1880/1053/10/
006910/20130104/91856/1885/1365/20/
006910/20130104/92001/1880/2001/10/
006910/20130104/92757/1885/173/20/
006910/20130104/92941/1885/143/20/
006910/20130104/92942/1885/174/10/
006910/20130104/93031/1880/105/10/
006910/20130104/93154/1890/1020/20/
006910/20130104/93214/1890/301/20/
006910/20130104/93220/1890/280/20/
006910/20130104/93220/1895/522/20/
006910/20130104/93303/1895/835/20/
006910/20130104/93305/1895/411/20/
006910/20130104/93305/1900/215/20/
006910/20130104/93306/1890/100/10/
006910/20130104/93314/1890/401/10/
006910/20130104/93614/1890/81/20/
006910/20130104/93707/1890/1097/20/
006910/20130104/93808/1895/504/20/
006910/20130104/93825/1900/1685/20/
006910/20130104/93825/1905/2318/20/
006910/20130104/93851/1905/81/20/
006910/20130104/93902/1900/87/20/
006910/20130104/93913/1900/232/20/
006910/20130104/93930/1900/359/20/
006910/20130104/93943/1895/435/10/
006910/20130104/94000/1895/1363/10/
006910/20130104/94000/1890/1996/10/
006910/20130104/94000/1890/791/20/
006910/20130104/94101/1895/702/20/
006910/20130104/94116/1895/701/20/
006910/20130104/94232/1895/701/10/
006910/20130104/94325/1900/1511/20/
006910/20130104/94351/1900/301/20/
006910/20130104/94528/1900/819/20/
006910/20130104/94615/1905/3001/20/
006910/20130104/94753/1905/638/20/
006910/20130104/94753/1905/564/20/
006910/20130104/94913/1910/1030/20/
006910/20130104/94919/1910/339/20/
006910/20130104/94919/1910/661/10/
006910/20130104/94946/1910/502/20/
006910/20130104/94946/1915/1594/20/
006910/20130104/95009/1910/81/20/
006910/20130104/95056/1905/2012/10/
006910/20130104/95056/1895/92/10/
006910/20130104/95120/1910/1698/20/
006910/20130104/95120/1910/303/10/
006910/20130104/95243/1915/601/20/
006910/20130104/95251/1915/2000/20/
006910/20130104/95258/1915/100/20/
006910/20130104/95305/1915/277/20/
006910/20130104/95308/1915/100/10/
006910/20130104/95422/1915/2129/10/
006910/20130104/95427/1910/646/10/
006910/20130104/95439/1915/417/20/
006910/20130104/95455/1910/2501/10/
006910/20130104/95557/1910/414/20/
006910/20130104/95618/1910/516/10/
006910/20130104/95623/1910/1401/10/
006910/20130104/95626/1910/251/10/
006910/20130104/95626/1910/336/10/
006910/20130104/95711/1910/201/20/
006910/20130104/95711/1915/600/20/
006910/20130104/95949/1905/141/10/
006910/20130104/100252/1900/2161/10/
006910/20130104/100503/1900/135/10/
006910/20130104/100818/1900/1629/10/
006910/20130104/100943/1900/579/10/
006910/20130104/100943/1895/2122/10/
006910/20130104/101031/1900/600/20/
006910/20130104/101202/1895/531/10/
006910/20130104/101237/1895/114/10/
006910/20130104/101351/1895/89/10/
006910/20130104/101420/1895/402/10/
006910/20130104/101443/1900/583/20/
006910/20130104/101443/1900/4314/20/
006910/20130104/101643/1905/261/20/
006910/20130104/102348/1895/610/10/
006910/20130104/102411/1905/302/20/
006910/20130104/102418/1905/643/20/
006910/20130104/102433/1905/1001/10/
006910/20130104/102436/1905/1357/10/
006910/20130104/102653/1900/159/10/
006910/20130104/102714/1900/1204/10/
006910/20130104/102920/1900/305/20/
006910/20130104/102931/1900/400/20/
006910/20130104/103029/1900/84/20/
006910/20130104/103215/1900/2178/20/
006910/20130104/103759/1900/1111/10/
006910/20130104/103801/1900/197/10/
006910/20130104/103801/1900/953/20/
006910/20130104/104008/1905/165/20/
006910/20130104/104011/1905/200/20/
006910/20130104/104034/1905/314/20/
006910/20130104/104047/1905/214/20/
006910/20130104/104050/1905/390/20/
006910/20130104/104418/1905/318/10/
006910/20130104/104418/1905/686/10/
006910/20130104/104429/1910/101/20/
006910/20130104/104738/1905/125/20/
006910/20130104/104826/1900/885/10/
006910/20130104/104828/1905/100/10/
006910/20130104/105035/1905/106/10/
006910/20130104/105218/1910/114/20/
006910/20130104/105431/1905/92/20/
006910/20130104/105436/1905/100/20/
006910/20130104/105533/1900/2028/10/
006910/20130104/110007/1905/1434/20/
006910/20130104/110027/1905/100/20/
006910/20130104/110203/1905/1846/20/
006910/20130104/110204/1905/524/10/
006910/20130104/110249/1905/1001/10/
006910/20130104/110406/1905/1001/10/
006910/20130104/110612/1905/95/10/
006910/20130104/110643/1905/238/10/
006910/20130104/110723/1910/4519/20/
006910/20130104/110740/1910/201/20/
006910/20130104/110745/1910/300/10/
006910/20130104/110804/1910/133/10/
006910/20130104/110840/1905/3190/10/
006910/20130104/111200/1910/572/20/
006910/20130104/111222/1915/81/20/
006910/20130104/111231/1915/1519/20/
006910/20130104/111234/1915/511/20/
006910/20130104/111249/1915/529/20/
006910/20130104/111254/1915/241/20/
006910/20130104/111257/1915/200/10/
006910/20130104/111301/1915/377/10/
006910/20130104/111311/1915/188/10/
006910/20130104/111519/1905/1554/10/
006910/20130104/111538/1905/537/10/
006910/20130104/111612/1905/416/20/
006910/20130104/111724/1910/401/20/
006910/20130104/112032/1905/1010/10/
006910/20130104/112234/1910/2817/20/
006910/20130104/112329/1910/150/10/
006910/20130104/112350/1910/100/10/
006910/20130104/112404/1910/100/10/
006910/20130104/112407/1910/100/10/
006910/20130104/112505/1915/3150/20/
006910/20130104/112518/1915/100/10/
006910/20130104/112520/1915/416/10/
006910/20130104/112604/1915/1056/20/
006910/20130104/112746/1915/102/20/
006910/20130104/113029/1910/3556/10/
006910/20130104/113237/1910/1486/20/
006910/20130104/113334/1910/100/10/
006910/20130104/113337/1910/414/10/
006910/20130104/113406/1910/100/20/
006910/20130104/113853/1905/3043/10/
006910/20130104/114142/1905/3703/10/
006910/20130104/114256/1905/202/20/
006910/20130104/114400/1905/357/20/
006910/20130104/114727/1900/6362/10/
006910/20130104/114801/1900/261/20/
006910/20130104/114806/1900/420/20/
006910/20130104/115153/1900/173/20/
006910/20130104/115254/1900/131/20/
006910/20130104/115258/1895/500/10/
006910/20130104/115307/1900/360/20/
006910/20130104/115434/1895/4268/10/
006910/20130104/115529/1895/500/20/
006910/20130104/115559/1895/243/10/
006910/20130104/115650/1895/100/10/
006910/20130104/115658/1895/527/10/
006910/20130104/115718/1895/410/10/
006910/20130104/115753/1900/303/20/
006910/20130104/115949/1900/122/20/
006910/20130104/120706/1895/369/10/
006910/20130104/120734/1895/2335/10/
006910/20130104/120734/1890/335/10/
006910/20130104/120805/1890/1000/10/
006910/20130104/121210/1900/590/20/
006910/20130104/121248/1900/1438/10/
006910/20130104/121327/1890/2043/10/
006910/20130104/121327/1885/6800/10/
006910/20130104/121327/1880/7237/10/
006910/20130104/121328/1880/3923/20/
006910/20130104/121510/1885/1160/10/
006910/20130104/121608/1885/310/20/
006910/20130104/121628/1885/1005/20/
006910/20130104/121651/1885/95/20/
006910/20130104/122035/1895/218/20/
006910/20130104/122112/1895/100/20/
006910/20130104/122351/1890/98/10/
006910/20130104/122451/1885/2113/10/
006910/20130104/123111/1895/292/20/
006910/20130104/123139/1900/1000/20/
006910/20130104/123140/1900/600/10/
006910/20130104/123220/1900/517/10/
006910/20130104/123321/1900/166/20/
006910/20130104/123715/1905/263/20/
006910/20130104/123746/1895/449/10/
006910/20130104/124535/1895/365/20/
006910/20130104/125053/1890/414/10/
006910/20130104/125345/1895/2607/20/
006910/20130104/125413/1895/81/10/
006910/20130104/125448/1895/1007/10/
006910/20130104/125454/1895/649/10/
006910/20130104/125523/1895/103/20/
006910/20130104/125610/1895/1248/20/
006910/20130104/125628/1895/754/10/
006910/20130104/125635/1895/847/20/
006910/20130104/125649/1895/103/10/
006910/20130104/125823/1900/2806/20/
006910/20130104/130043/1900/164/20/
006910/20130104/130210/1895/769/10/
006910/20130104/130233/1895/305/20/
006910/20130104/130251/1895/87/20/
006910/20130104/130321/1895/101/10/
006910/20130104/130521/1895/1004/10/
006910/20130104/130851/1895/2312/10/
006910/20130104/130908/1895/205/20/
006910/20130104/131301/1895/982/20/
006910/20130104/131919/1900/3035/20/
006910/20130104/132012/1900/101/10/
006910/20130104/132048/1900/102/20/
006910/20130104/132142/1905/109/20/
006910/20130104/132301/1900/800/10/
006910/20130104/132310/1900/101/10/
006910/20130104/132352/1905/127/20/
006910/20130104/132553/1905/1178/20/
006910/20130104/132616/1905/2071/20/
006910/20130104/132622/1905/582/20/
006910/20130104/132819/1910/141/20/
006910/20130104/132857/1910/1207/20/
006910/20130104/132932/1910/1047/20/
006910/20130104/133006/1910/201/20/
006910/20130104/133016/1910/100/20/
006910/20130104/133021/1910/106/20/
006910/20130104/133122/1910/1795/10/
006910/20130104/133133/1910/206/20/
006910/20130104/133307/1900/1020/10/
006910/20130104/133615/1900/1211/10/
006910/20130104/134009/1900/782/10/
006910/20130104/134201/1900/334/10/
006910/20130104/134222/1900/701/10/
006910/20130104/134222/1895/5168/10/
006910/20130104/134311/1895/1803/10/
006910/20130104/134340/1895/404/10/
006910/20130104/134651/1900/2237/20/
006910/20130104/134801/1900/4001/10/
006910/20130104/135115/1900/1011/10/
006910/20130104/135245/1900/531/10/
006910/20130104/135631/1900/145/10/
006910/20130104/135734/1900/577/10/
006910/20130104/135817/1900/1112/10/
006910/20130104/135817/1895/4476/10/
006910/20130104/135817/1890/1414/10/
006910/20130104/135835/1890/1066/10/
006910/20130104/140010/1900/284/10/
006910/20130104/140632/1900/2315/20/
006910/20130104/140744/1900/1847/20/
006910/20130104/140755/1900/300/10/
006910/20130104/140757/1900/478/10/
006910/20130104/140818/1900/509/20/
006910/20130104/140946/1900/1005/20/
006910/20130104/141114/1900/1008/10/
006910/20130104/141451/1900/127/10/
006910/20130104/142132/1900/95/10/
006910/20130104/142153/1905/81/20/
006910/20130104/142200/1905/1271/20/
006910/20130104/142244/1900/4675/10/
006910/20130104/142244/1895/1016/10/
006910/20130104/142304/1900/136/20/
006910/20130104/142340/1900/865/20/
006910/20130104/142514/1900/602/10/
006910/20130104/142530/1900/1066/10/
006910/20130104/142803/1900/1002/10/
006910/20130104/142811/1900/200/10/
006910/20130104/142920/1905/1293/20/
006910/20130104/142923/1905/1578/20/
006910/20130104/142927/1905/1050/20/
006910/20130104/142927/1905/1509/20/
006910/20130104/142931/1905/737/20/
006910/20130104/142957/1910/5001/20/
006910/20130104/143006/1910/702/20/
006910/20130104/143048/1910/1202/20/
006910/20130104/143048/1905/580/10/
006910/20130104/143134/1910/326/20/
006910/20130104/143134/1915/2277/20/
006910/20130104/143143/1910/321/20/
006910/20130104/143246/1905/532/10/
006910/20130104/143252/1905/122/20/
006910/20130104/143717/1905/277/10/
006910/20130104/144041/1910/1335/20/
006910/20130104/144042/1910/1300/20/
006910/20130104/144051/1910/339/10/
006910/20130104/144052/1910/200/10/
006910/20130104/144052/1910/764/10/
006910/20130104/144053/1910/237/20/
006910/20130104/144101/1910/202/10/
006910/20130104/144107/1910/261/10/
006910/20130104/144143/1910/253/10/
006910/20130104/144152/1910/1001/10/
006910/20130104/144153/1910/663/10/
006910/20130104/144157/1910/337/20/
006910/20130104/144205/1910/203/10/
006910/20130104/144207/1910/387/10/
006910/20130104/144225/1915/5484/20/
006910/20130104/144313/1910/1250/10/
006910/20130104/144321/1910/251/10/
006910/20130104/144345/1910/431/10/
006910/20130104/144345/1905/2570/10/
006910/20130104/144358/1910/566/20/
006910/20130104/144358/1915/3898/20/
006910/20130104/144431/1915/2001/20/
006910/20130104/144536/1905/203/10/
006910/20130104/144548/1900/840/10/
006910/20130104/144554/1895/1728/10/
006910/20130104/144603/1895/500/20/
006910/20130104/144606/1895/1000/20/
006910/20130104/144620/1895/367/20/
006910/20130104/144646/1905/105/20/
006910/20130104/144911/1900/81/20/
006910/20130104/144921/1900/81/20/
006910/20130104/144926/1895/490/10/
006910/20130104/144932/1900/82/20/
006910/20130104/144937/1900/1032/20/
006910/20130104/144943/1900/87/20/
006910/20130104/144955/1900/81/20/
006910/20130104/150000/1915/10918/20/
