006910/20121120/90000/1630/202/10/
006910/20121120/90125/1630/1001/10/
006910/20121120/90203/1635/1255/20/
006910/20121120/90220/1640/1480/20/
006910/20121120/90321/1645/3353/20/
006910/20121120/90321/1650/1148/20/
006910/20121120/90331/1650/500/20/
006910/20121120/90339/1650/500/20/
006910/20121120/90412/1650/402/20/
006910/20121120/90435/1640/1000/20/
006910/20121120/90501/1650/1001/20/
006910/20121120/90504/1650/150/20/
006910/20121120/90641/1650/850/20/
006910/20121120/90700/1640/2500/10/
006910/20121120/90706/1640/424/20/
006910/20121120/90743/1635/1000/10/
006910/20121120/90807/1640/3121/20/
006910/20121120/91148/1650/181/20/
006910/20121120/91203/1650/107/20/
006910/20121120/91255/1645/252/10/
006910/20121120/91446/1650/504/20/
006910/20121120/91603/1650/143/20/
006910/20121120/91620/1645/779/10/
006910/20121120/91620/1635/120/10/
006910/20121120/92330/1650/208/10/
006910/20121120/92402/1650/1000/20/
006910/20121120/92423/1640/3970/10/
006910/20121120/92552/1640/490/10/
006910/20121120/93251/1640/252/10/
006910/20121120/93436/1640/301/10/
006910/20121120/93733/1650/1609/20/
006910/20121120/94015/1655/1039/20/
006910/20121120/94015/1660/4383/20/
006910/20121120/94100/1660/150/10/
006910/20121120/94103/1660/429/10/
006910/20121120/94452/1645/2500/10/
006910/20121120/94855/1645/2190/10/
006910/20121120/95118/1645/1800/10/
006910/20121120/95915/1645/3553/10/
006910/20121120/95915/1640/5375/10/
006910/20121120/100018/1640/123/20/
006910/20121120/100039/1640/1000/10/
006910/20121120/101210/1645/5068/10/
006910/20121120/102402/1645/632/10/
006910/20121120/102632/1640/2002/10/
006910/20121120/102642/1635/100/10/
006910/20121120/102647/1635/280/10/
006910/20121120/102714/1635/1109/10/
006910/20121120/102716/1635/1813/10/
006910/20121120/103021/1630/1244/10/
006910/20121120/103451/1630/150/10/
006910/20121120/103617/1630/3000/10/
006910/20121120/103654/1625/311/10/
006910/20121120/103726/1625/3611/10/
006910/20121120/103928/1625/706/10/
006910/20121120/103928/1620/1296/10/
006910/20121120/103935/1620/371/10/
006910/20121120/103935/1615/569/10/
006910/20121120/104341/1620/311/10/
006910/20121120/105605/1630/89/20/
006910/20121120/110429/1630/1355/10/
006910/20121120/113015/1630/121/10/
006910/20121120/113408/1630/1700/10/
006910/20121120/115229/1635/515/20/
006910/20121120/115321/1635/500/20/
006910/20121120/115503/1635/197/20/
006910/20121120/121105/1635/102/10/
006910/20121120/121402/1635/88/10/
006910/20121120/122044/1635/158/10/
006910/20121120/124010/1630/864/10/
006910/20121120/124407/1630/1054/10/
006910/20121120/124407/1625/2946/10/
006910/20121120/125313/1630/301/10/
006910/20121120/130120/1625/173/10/
006910/20121120/130204/1625/1476/10/
006910/20121120/130326/1620/1724/10/
006910/20121120/131120/1625/1027/10/
006910/20121120/131120/1620/3366/10/
006910/20121120/132008/1620/511/10/
006910/20121120/132741/1625/1861/10/
006910/20121120/133132/1625/200/10/
006910/20121120/133207/1625/1085/10/
006910/20121120/133207/1620/1032/10/
006910/20121120/133306/1620/1000/10/
006910/20121120/134332/1630/800/20/
006910/20121120/135605/1630/100/20/
006910/20121120/140041/1625/100/10/
006910/20121120/140636/1620/358/10/
006910/20121120/140909/1620/400/10/
006910/20121120/141206/1625/900/20/
006910/20121120/142435/1630/235/20/
006910/20121120/142554/1630/100/20/
006910/20121120/142944/1630/557/20/
006910/20121120/143332/1630/210/20/
006910/20121120/144526/1625/500/10/
006910/20121120/144840/1625/509/20/
006910/20121120/144846/1620/1000/10/
006910/20121120/150000/1625/3886/10/
