006910/20121218/90000/1770/4919/10/
006910/20121218/90017/1770/2500/10/
006910/20121218/90111/1785/123/20/
006910/20121218/90138/1770/603/10/
006910/20121218/90138/1765/100/10/
006910/20121218/90244/1780/507/20/
006910/20121218/90258/1780/101/20/
006910/20121218/90446/1770/916/10/
006910/20121218/90450/1770/210/10/
006910/20121218/90450/1765/727/10/
006910/20121218/90528/1770/2121/10/
006910/20121218/90534/1770/401/20/
006910/20121218/90614/1770/343/20/
006910/20121218/90641/1765/167/10/
006910/20121218/90708/1770/94/20/
006910/20121218/90712/1770/101/20/
006910/20121218/90722/1770/102/20/
006910/20121218/90807/1770/308/20/
006910/20121218/90856/1770/101/10/
006910/20121218/90901/1770/174/20/
006910/20121218/91050/1765/3149/10/
006910/20121218/91053/1760/205/10/
006910/20121218/91056/1760/1800/10/
006910/20121218/91057/1760/152/10/
006910/20121218/91100/1760/3000/10/
006910/20121218/91102/1760/1500/10/
006910/20121218/91112/1765/202/20/
006910/20121218/91124/1765/201/20/
006910/20121218/91148/1765/222/20/
006910/20121218/91157/1760/5338/10/
006910/20121218/91205/1760/200/10/
006910/20121218/91215/1760/155/10/
006910/20121218/91222/1760/100/20/
006910/20121218/91229/1760/100/20/
006910/20121218/91236/1760/100/20/
006910/20121218/91240/1760/200/20/
006910/20121218/91243/1760/100/20/
006910/20121218/91251/1760/100/20/
006910/20121218/91253/1760/100/20/
006910/20121218/91254/1755/4600/10/
006910/20121218/91257/1755/2671/10/
006910/20121218/91301/1755/2791/10/
006910/20121218/91308/1755/450/10/
006910/20121218/91339/1755/560/20/
006910/20121218/91416/1760/1000/20/
006910/20121218/91421/1755/1000/10/
006910/20121218/91434/1755/558/10/
006910/20121218/91442/1755/932/10/
006910/20121218/91448/1755/1038/20/
006910/20121218/91452/1755/309/10/
006910/20121218/91459/1750/500/10/
006910/20121218/91508/1750/220/10/
006910/20121218/91531/1750/116/10/
006910/20121218/91538/1750/560/10/
006910/20121218/91550/1750/858/10/
006910/20121218/91551/1755/100/20/
006910/20121218/91612/1750/331/10/
006910/20121218/91621/1755/136/20/
006910/20121218/91622/1755/100/20/
006910/20121218/91629/1755/441/20/
006910/20121218/91653/1750/558/10/
006910/20121218/91656/1755/200/20/
006910/20121218/91712/1750/1908/10/
006910/20121218/91724/1750/150/20/
006910/20121218/91725/1745/1611/10/
006910/20121218/91727/1740/1545/10/
006910/20121218/91731/1740/100/20/
006910/20121218/91732/1740/100/20/
006910/20121218/91734/1740/378/20/
006910/20121218/91743/1745/100/20/
006910/20121218/91750/1740/455/10/
006910/20121218/91811/1745/300/10/
006910/20121218/91817/1745/401/20/
006910/20121218/91827/1745/192/20/
006910/20121218/91831/1745/190/20/
006910/20121218/91906/1760/699/10/
006910/20121218/91930/1745/771/10/
006910/20121218/91938/1745/200/20/
006910/20121218/92057/1760/206/20/
006910/20121218/92250/1745/510/10/
006910/20121218/92415/1745/904/10/
006910/20121218/92415/1740/597/10/
006910/20121218/92448/1740/1001/10/
006910/20121218/92451/1740/1604/10/
006910/20121218/92458/1740/700/10/
006910/20121218/92458/1740/1000/10/
006910/20121218/92502/1740/3361/10/
006910/20121218/92509/1740/500/10/
006910/20121218/92510/1740/173/10/
006910/20121218/92527/1740/427/20/
006910/20121218/92531/1740/1000/10/
006910/20121218/92540/1740/500/10/
006910/20121218/92600/1740/84/10/
006910/20121218/92600/1735/218/10/
006910/20121218/92629/1740/502/10/
006910/20121218/92659/1740/361/10/
006910/20121218/92717/1735/1000/10/
006910/20121218/92719/1735/1000/10/
006910/20121218/92720/1735/500/10/
006910/20121218/92722/1735/2889/20/
006910/20121218/92722/1730/1000/10/
006910/20121218/92742/1730/201/10/
006910/20121218/92800/1735/264/20/
006910/20121218/92810/1735/309/20/
006910/20121218/92819/1735/152/20/
006910/20121218/92824/1740/100/20/
006910/20121218/92850/1735/700/10/
006910/20121218/92902/1735/168/10/
006910/20121218/92922/1730/200/10/
006910/20121218/92939/1730/566/10/
006910/20121218/92942/1730/1465/10/
006910/20121218/92944/1730/770/10/
006910/20121218/92945/1730/1000/10/
006910/20121218/92947/1730/1916/10/
006910/20121218/93001/1730/122/20/
006910/20121218/93006/1730/100/20/
006910/20121218/93017/1725/502/10/
006910/20121218/93018/1725/560/10/
006910/20121218/93019/1725/500/10/
006910/20121218/93031/1725/1139/10/
006910/20121218/93031/1730/100/20/
006910/20121218/93057/1730/512/20/
006910/20121218/93104/1730/82/20/
006910/20121218/93114/1730/113/20/
006910/20121218/93114/1725/500/10/
006910/20121218/93121/1725/293/10/
006910/20121218/93149/1730/1010/20/
006910/20121218/93234/1730/100/20/
006910/20121218/93257/1725/178/10/
006910/20121218/93305/1725/1413/10/
006910/20121218/93314/1725/87/20/
006910/20121218/93333/1725/1901/10/
006910/20121218/93343/1725/1140/20/
006910/20121218/93401/1725/789/10/
006910/20121218/93413/1725/101/20/
006910/20121218/93414/1725/100/20/
006910/20121218/93417/1725/521/20/
006910/20121218/93420/1725/200/10/
006910/20121218/93430/1725/130/20/
006910/20121218/93431/1725/100/20/
006910/20121218/93437/1720/110/10/
006910/20121218/93437/1720/339/10/
006910/20121218/93444/1720/1400/10/
006910/20121218/93509/1725/2068/20/
006910/20121218/93511/1720/1500/10/
006910/20121218/93512/1720/700/10/
006910/20121218/93531/1725/546/20/
006910/20121218/93532/1725/195/10/
006910/20121218/93532/1720/1305/10/
006910/20121218/93554/1730/110/20/
006910/20121218/93556/1730/100/20/
006910/20121218/93556/1730/500/20/
006910/20121218/93558/1730/100/20/
006910/20121218/93559/1730/100/20/
006910/20121218/93623/1725/843/10/
006910/20121218/93626/1725/100/20/
006910/20121218/93626/1725/107/20/
006910/20121218/93655/1730/3020/20/
006910/20121218/93721/1735/156/20/
006910/20121218/93744/1735/455/20/
006910/20121218/94327/1735/219/10/
006910/20121218/94335/1730/201/10/
006910/20121218/94540/1730/2781/10/
006910/20121218/94540/1725/224/10/
006910/20121218/94657/1730/801/10/
006910/20121218/94741/1730/101/20/
006910/20121218/95110/1730/279/10/
006910/20121218/95111/1730/170/20/
006910/20121218/95124/1730/100/20/
006910/20121218/95131/1730/100/20/
006910/20121218/95137/1730/110/20/
006910/20121218/95140/1730/100/20/
006910/20121218/95210/1730/100/20/
006910/20121218/95221/1730/100/20/
006910/20121218/95308/1735/967/20/
006910/20121218/95450/1730/1264/10/
006910/20121218/95450/1725/1262/10/
006910/20121218/95521/1725/1003/10/
006910/20121218/95735/1730/111/20/
006910/20121218/95908/1730/203/20/
006910/20121218/95953/1730/286/10/
006910/20121218/100045/1735/266/20/
006910/20121218/100111/1735/102/20/
006910/20121218/100141/1730/550/10/
006910/20121218/100143/1735/100/20/
006910/20121218/100249/1740/686/20/
006910/20121218/100301/1745/162/20/
006910/20121218/100436/1740/81/10/
006910/20121218/100443/1740/1168/10/
006910/20121218/100501/1740/85/10/
006910/20121218/100727/1735/178/10/
006910/20121218/100821/1735/239/10/
006910/20121218/100842/1735/302/20/
006910/20121218/100909/1735/100/20/
006910/20121218/100915/1735/100/20/
006910/20121218/100924/1735/100/20/
006910/20121218/100942/1735/500/20/
006910/20121218/100945/1735/100/20/
006910/20121218/100949/1735/300/20/
006910/20121218/100953/1735/100/20/
006910/20121218/101002/1735/100/20/
006910/20121218/101012/1735/102/20/
006910/20121218/101018/1735/150/20/
006910/20121218/101019/1735/729/20/
006910/20121218/101148/1735/292/10/
006910/20121218/101447/1740/128/10/
006910/20121218/101628/1740/106/10/
006910/20121218/101628/1735/1807/10/
006910/20121218/101628/1730/919/10/
006910/20121218/101756/1740/111/10/
006910/20121218/102338/1740/563/20/
006910/20121218/102413/1745/1000/20/
006910/20121218/102551/1745/99/20/
006910/20121218/102808/1745/81/10/
006910/20121218/103447/1740/528/10/
006910/20121218/103447/1735/2014/10/
006910/20121218/103447/1730/2893/10/
006910/20121218/103536/1730/475/10/
006910/20121218/104928/1740/342/10/
006910/20121218/104952/1740/166/10/
006910/20121218/105201/1735/1801/10/
006910/20121218/105215/1735/200/10/
006910/20121218/105216/1735/896/10/
006910/20121218/105233/1735/5048/20/
006910/20121218/105236/1735/1000/20/
006910/20121218/105453/1735/702/10/
006910/20121218/105629/1740/451/10/
006910/20121218/105722/1735/1500/10/
006910/20121218/105755/1735/298/10/
006910/20121218/105838/1735/357/10/
006910/20121218/110058/1740/101/20/
006910/20121218/110906/1735/876/10/
006910/20121218/110934/1735/87/10/
006910/20121218/111047/1735/500/10/
006910/20121218/112207/1745/121/20/
006910/20121218/112210/1735/235/10/
006910/20121218/112226/1735/1973/10/
006910/20121218/112243/1735/1072/20/
006910/20121218/112246/1735/200/20/
006910/20121218/112251/1735/100/20/
006910/20121218/112255/1735/100/20/
006910/20121218/112258/1735/100/20/
006910/20121218/112301/1735/100/20/
006910/20121218/112305/1735/100/20/
006910/20121218/112308/1735/100/20/
006910/20121218/112311/1735/100/20/
006910/20121218/112315/1735/100/20/
006910/20121218/112321/1735/100/20/
006910/20121218/112325/1735/100/20/
006910/20121218/112328/1735/100/20/
006910/20121218/112332/1735/101/20/
006910/20121218/112336/1735/100/20/
006910/20121218/112339/1735/100/20/
006910/20121218/112342/1735/100/20/
006910/20121218/112347/1735/100/20/
006910/20121218/112351/1735/100/20/
006910/20121218/112400/1735/100/20/
006910/20121218/112404/1735/100/20/
006910/20121218/112408/1735/100/20/
006910/20121218/112424/1730/1938/10/
006910/20121218/112627/1730/965/10/
006910/20121218/113611/1730/2077/10/
006910/20121218/113950/1730/6162/10/
006910/20121218/114307/1730/901/10/
006910/20121218/114941/1730/102/10/
006910/20121218/115059/1735/83/20/
006910/20121218/115312/1735/138/20/
006910/20121218/115801/1730/1240/10/
006910/20121218/115849/1730/909/10/
006910/20121218/120153/1735/520/20/
006910/20121218/120330/1735/151/20/
006910/20121218/120334/1735/100/20/
006910/20121218/120419/1735/101/10/
006910/20121218/120750/1740/1018/20/
006910/20121218/121326/1735/90/10/
006910/20121218/121715/1740/114/20/
006910/20121218/122054/1735/480/10/
006910/20121218/122412/1730/1102/10/
006910/20121218/122555/1730/210/10/
006910/20121218/122717/1735/82/20/
006910/20121218/122831/1735/102/20/
006910/20121218/123221/1730/248/10/
006910/20121218/123441/1735/449/20/
006910/20121218/123658/1740/93/20/
006910/20121218/125313/1735/325/10/
006910/20121218/125313/1730/3577/10/
006910/20121218/125313/1725/1920/10/
006910/20121218/125314/1725/450/10/
006910/20121218/125725/1730/130/10/
006910/20121218/130008/1730/804/10/
006910/20121218/130206/1730/254/10/
006910/20121218/130430/1725/146/10/
006910/20121218/130437/1725/1697/10/
006910/20121218/130437/1720/1281/10/
006910/20121218/130438/1720/1902/10/
006910/20121218/130549/1725/500/20/
006910/20121218/130607/1725/230/20/
006910/20121218/130628/1725/504/20/
006910/20121218/131138/1730/891/20/
006910/20121218/131539/1730/113/10/
006910/20121218/131837/1730/500/10/
006910/20121218/131840/1730/321/10/
006910/20121218/131901/1725/1779/10/
006910/20121218/132646/1725/217/10/
006910/20121218/133432/1725/203/10/
006910/20121218/133654/1730/86/20/
006910/20121218/133816/1720/3025/10/
006910/20121218/133934/1720/201/10/
006910/20121218/134048/1730/91/20/
006910/20121218/134134/1730/7041/20/
006910/20121218/134152/1730/799/10/
006910/20121218/134215/1725/300/10/
006910/20121218/134239/1730/101/20/
006910/20121218/134249/1730/200/20/
006910/20121218/134253/1730/550/20/
006910/20121218/134425/1725/199/10/
006910/20121218/134525/1730/100/20/
006910/20121218/134547/1725/584/10/
006910/20121218/134603/1720/2819/10/
006910/20121218/134702/1725/1061/20/
006910/20121218/134725/1725/90/20/
006910/20121218/134807/1725/90/20/
006910/20121218/134816/1725/180/20/
006910/20121218/134902/1725/105/20/
006910/20121218/134940/1725/519/20/
006910/20121218/134941/1725/1300/20/
006910/20121218/134947/1725/101/20/
006910/20121218/135355/1735/202/20/
006910/20121218/135627/1730/165/20/
006910/20121218/135708/1730/285/10/
006910/20121218/135901/1735/82/20/
006910/20121218/140033/1735/87/20/
006910/20121218/140328/1730/89/10/
006910/20121218/140552/1730/133/10/
006910/20121218/140609/1730/744/10/
006910/20121218/140609/1725/318/10/
006910/20121218/140820/1735/81/20/
006910/20121218/141554/1730/95/10/
006910/20121218/141805/1730/150/10/
006910/20121218/141903/1735/2542/20/
006910/20121218/142049/1735/324/10/
006910/20121218/142109/1735/2520/10/
006910/20121218/142113/1735/100/10/
006910/20121218/142113/1735/290/10/
006910/20121218/142116/1735/3000/10/
006910/20121218/142130/1735/654/10/
006910/20121218/142213/1730/281/10/
006910/20121218/142236/1735/172/20/
006910/20121218/142409/1730/81/10/
006910/20121218/143046/1730/1607/10/
006910/20121218/143304/1730/227/20/
006910/20121218/143512/1730/401/10/
006910/20121218/143637/1730/3001/10/
006910/20121218/143651/1725/310/10/
006910/20121218/143720/1725/3118/10/
006910/20121218/143721/1720/331/10/
006910/20121218/143730/1720/3371/10/
006910/20121218/143759/1725/130/20/
006910/20121218/143935/1725/84/20/
006910/20121218/144105/1720/120/10/
006910/20121218/144106/1720/5000/10/
006910/20121218/144151/1720/865/10/
006910/20121218/144207/1720/155/20/
006910/20121218/144347/1725/114/20/
006910/20121218/144457/1725/200/20/
006910/20121218/144534/1720/502/10/
006910/20121218/144606/1720/600/10/
006910/20121218/144716/1720/3435/20/
006910/20121218/144725/1725/100/20/
006910/20121218/144729/1725/100/20/
006910/20121218/144735/1725/180/20/
006910/20121218/144854/1725/1585/10/
006910/20121218/144908/1725/313/10/
006910/20121218/144909/1730/1266/20/
006910/20121218/144922/1735/901/20/
006910/20121218/144938/1735/502/10/
006910/20121218/144942/1735/500/10/
006910/20121218/144944/1735/392/10/
006910/20121218/144946/1735/2500/10/
006910/20121218/144951/1735/210/10/
006910/20121218/150000/1735/8564/10/
