006910/20130214/90106/1715/430/20/
006910/20130214/90143/1705/1255/10/
006910/20130214/90143/1700/604/10/
006910/20130214/90510/1705/331/10/
006910/20130214/92003/1715/370/20/
006910/20130214/92008/1710/200/10/
006910/20130214/92053/1705/643/10/
006910/20130214/92213/1715/912/20/
006910/20130214/92314/1715/2000/10/
006910/20130214/92558/1715/90/10/
006910/20130214/93143/1715/210/20/
006910/20130214/93456/1715/110/20/
006910/20130214/93457/1710/723/10/
006910/20130214/93536/1705/3340/10/
006910/20130214/93619/1705/3000/20/
006910/20130214/93646/1705/1998/20/
006910/20130214/93705/1710/676/20/
006910/20130214/93818/1710/1600/10/
006910/20130214/93836/1710/100/20/
006910/20130214/93958/1715/253/20/
006910/20130214/94151/1710/1533/10/
006910/20130214/94347/1705/2600/10/
006910/20130214/94701/1705/650/10/
006910/20130214/94741/1705/594/20/
006910/20130214/94741/1710/159/20/
006910/20130214/95520/1715/226/20/
006910/20130214/100114/1710/101/10/
006910/20130214/100407/1715/160/20/
006910/20130214/100408/1710/337/10/
006910/20130214/100408/1705/223/10/
006910/20130214/100408/1700/1440/10/
006910/20130214/100644/1715/1459/20/
006910/20130214/100654/1715/250/10/
006910/20130214/100700/1715/295/10/
006910/20130214/100852/1710/1002/10/
006910/20130214/101345/1710/100/10/
006910/20130214/102837/1710/151/10/
006910/20130214/103012/1710/500/10/
006910/20130214/103012/1710/718/10/
006910/20130214/103159/1710/100/20/
006910/20130214/104045/1710/132/20/
006910/20130214/104437/1710/468/20/
006910/20130214/105237/1715/171/20/
006910/20130214/105754/1710/634/10/
006910/20130214/110447/1710/721/20/
006910/20130214/110839/1715/2001/20/
006910/20130214/110859/1715/2000/20/
006910/20130214/111003/1715/251/20/
006910/20130214/112615/1720/1801/20/
006910/20130214/112733/1720/1988/20/
006910/20130214/113234/1725/2475/20/
006910/20130214/113259/1725/159/20/
006910/20130214/113516/1720/524/10/
006910/20130214/113632/1720/100/10/
006910/20130214/113726/1720/1000/10/
006910/20130214/113737/1720/101/10/
006910/20130214/113846/1720/881/10/
006910/20130214/113856/1720/141/20/
006910/20130214/114009/1720/166/20/
006910/20130214/114157/1725/761/20/
006910/20130214/114200/1725/100/10/
006910/20130214/114324/1730/3100/20/
006910/20130214/114516/1730/1910/10/
006910/20130214/114654/1730/90/20/
006910/20130214/114709/1730/2000/10/
006910/20130214/114721/1730/970/10/
006910/20130214/115039/1730/1000/20/
006910/20130214/115440/1735/221/20/
006910/20130214/120140/1725/2189/10/
006910/20130214/120140/1720/2811/10/
006910/20130214/120201/1730/1692/10/
006910/20130214/120201/1730/1109/10/
006910/20130214/120356/1715/3001/10/
006910/20130214/120848/1720/3003/10/
006910/20130214/121020/1720/500/10/
006910/20130214/121459/1720/198/20/
006910/20130214/122450/1720/1000/10/
006910/20130214/122505/1720/1000/10/
006910/20130214/122738/1720/320/10/
006910/20130214/124432/1725/130/20/
006910/20130214/124958/1725/116/20/
006910/20130214/130122/1720/980/10/
006910/20130214/130511/1720/101/20/
006910/20130214/130818/1720/601/10/
006910/20130214/130944/1720/1432/10/
006910/20130214/131542/1720/140/10/
006910/20130214/131542/1715/4328/10/
006910/20130214/131824/1715/1000/10/
006910/20130214/132612/1720/250/20/
006910/20130214/133133/1720/200/10/
006910/20130214/133512/1720/201/10/
006910/20130214/135132/1725/901/20/
006910/20130214/135536/1720/594/10/
006910/20130214/135742/1715/1060/10/
006910/20130214/140057/1715/549/10/
006910/20130214/140159/1715/140/20/
006910/20130214/140341/1715/353/20/
006910/20130214/140536/1720/112/20/
006910/20130214/140943/1720/178/20/
006910/20130214/141006/1715/2000/10/
006910/20130214/142341/1715/1911/10/
006910/20130214/142446/1710/3500/10/
006910/20130214/142514/1715/1000/20/
006910/20130214/142753/1710/90/10/
006910/20130214/143801/1710/2012/10/
006910/20130214/143838/1710/1934/10/
006910/20130214/144403/1715/201/20/
006910/20130214/144906/1715/2304/20/
006910/20130214/144929/1715/698/10/
006910/20130214/144941/1715/1000/20/
006910/20130214/150000/1720/2382/20/
