006910/20121212/90000/1800/42130/20/
006910/20121212/90000/1800/6070/20/
006910/20121212/90001/1800/1291/20/
006910/20121212/90002/1805/101/20/
006910/20121212/90002/1805/379/20/
006910/20121212/90003/1805/371/20/
006910/20121212/90003/1800/6129/20/
006910/20121212/90003/1800/1000/20/
006910/20121212/90006/1810/100/20/
006910/20121212/90006/1815/127/20/
006910/20121212/90006/1815/100/20/
006910/20121212/90009/1815/387/20/
006910/20121212/90012/1820/241/20/
006910/20121212/90013/1815/425/10/
006910/20121212/90014/1820/654/20/
006910/20121212/90015/1820/106/20/
006910/20121212/90016/1815/164/10/
006910/20121212/90018/1820/87/20/
006910/20121212/90020/1820/353/20/
006910/20121212/90020/1825/120/20/
006910/20121212/90021/1820/156/10/
006910/20121212/90022/1820/346/20/
006910/20121212/90022/1815/1276/10/
006910/20121212/90022/1805/226/10/
006910/20121212/90024/1820/2046/20/
006910/20121212/90026/1820/173/20/
006910/20121212/90026/1820/442/20/
006910/20121212/90026/1820/160/20/
006910/20121212/90027/1830/86/20/
006910/20121212/90028/1820/115/10/
006910/20121212/90029/1830/82/20/
006910/20121212/90031/1825/260/20/
006910/20121212/90032/1825/323/20/
006910/20121212/90032/1830/215/20/
006910/20121212/90032/1830/567/20/
006910/20121212/90033/1830/95/20/
006910/20121212/90034/1830/636/20/
006910/20121212/90035/1820/560/10/
006910/20121212/90035/1830/553/20/
006910/20121212/90035/1830/367/20/
006910/20121212/90036/1830/1000/20/
006910/20121212/90036/1830/81/20/
006910/20121212/90036/1835/2190/20/
006910/20121212/90036/1840/2978/20/
006910/20121212/90036/1845/6690/20/
006910/20121212/90036/1850/1087/20/
006910/20121212/90036/1855/3152/20/
006910/20121212/90036/1855/105/20/
006910/20121212/90037/1855/83/20/
006910/20121212/90039/1855/109/20/
006910/20121212/90039/1850/677/10/
006910/20121212/90039/1820/705/10/
006910/20121212/90039/1815/118/10/
006910/20121212/90039/1855/1144/20/
006910/20121212/90041/1850/88/20/
006910/20121212/90043/1845/86/20/
006910/20121212/90043/1850/152/20/
006910/20121212/90044/1850/572/20/
006910/20121212/90046/1845/88/20/
006910/20121212/90049/1845/87/20/
006910/20121212/90050/1840/121/20/
006910/20121212/90053/1825/601/10/
006910/20121212/90054/1840/222/20/
006910/20121212/90057/1835/524/20/
006910/20121212/90058/1840/120/20/
006910/20121212/90101/1840/1983/20/
006910/20121212/90101/1835/206/20/
006910/20121212/90101/1840/500/20/
006910/20121212/90104/1825/119/10/
006910/20121212/90104/1835/938/20/
006910/20121212/90106/1840/236/20/
006910/20121212/90109/1840/361/20/
006910/20121212/90112/1825/318/10/
006910/20121212/90112/1820/301/10/
006910/20121212/90112/1815/397/10/
006910/20121212/90114/1835/92/20/
006910/20121212/90115/1835/202/20/
006910/20121212/90119/1825/456/10/
006910/20121212/90119/1825/1000/20/
006910/20121212/90119/1815/1285/10/
006910/20121212/90121/1815/88/10/
006910/20121212/90125/1815/215/10/
006910/20121212/90126/1815/554/10/
006910/20121212/90129/1815/595/10/
006910/20121212/90129/1810/343/10/
006910/20121212/90134/1815/94/10/
006910/20121212/90134/1815/150/10/
006910/20121212/90134/1810/350/10/
006910/20121212/90135/1810/877/10/
006910/20121212/90137/1810/728/10/
006910/20121212/90137/1810/137/10/
006910/20121212/90138/1820/82/20/
006910/20121212/90139/1810/1463/10/
006910/20121212/90140/1810/176/10/
006910/20121212/90140/1805/5000/10/
006910/20121212/90141/1805/4048/10/
006910/20121212/90142/1800/5006/10/
006910/20121212/90142/1805/1202/10/
006910/20121212/90143/1800/1621/10/
006910/20121212/90143/1800/461/10/
006910/20121212/90143/1795/1159/10/
006910/20121212/90143/1795/213/10/
006910/20121212/90144/1800/210/10/
006910/20121212/90147/1800/349/20/
006910/20121212/90148/1795/155/10/
006910/20121212/90149/1800/200/20/
006910/20121212/90149/1800/642/20/
006910/20121212/90150/1800/202/10/
006910/20121212/90151/1800/510/10/
006910/20121212/90152/1800/10967/10/
006910/20121212/90153/1800/110/10/
006910/20121212/90153/1795/465/10/
006910/20121212/90155/1800/102/20/
006910/20121212/90158/1800/434/20/
006910/20121212/90159/1810/91/20/
006910/20121212/90159/1810/230/20/
006910/20121212/90200/1800/512/10/
006910/20121212/90201/1800/2014/10/
006910/20121212/90201/1810/111/20/
006910/20121212/90201/1800/300/10/
006910/20121212/90205/1805/635/10/
006910/20121212/90207/1800/7037/10/
006910/20121212/90209/1805/84/20/
006910/20121212/90214/1800/380/10/
006910/20121212/90215/1805/504/20/
006910/20121212/90216/1805/109/20/
006910/20121212/90219/1800/2658/10/
006910/20121212/90222/1805/101/20/
006910/20121212/90223/1800/504/10/
006910/20121212/90224/1800/474/10/
006910/20121212/90227/1800/339/20/
006910/20121212/90227/1795/502/10/
006910/20121212/90228/1800/187/10/
006910/20121212/90229/1800/316/20/
006910/20121212/90231/1800/522/10/
006910/20121212/90234/1805/83/20/
006910/20121212/90237/1805/104/20/
006910/20121212/90237/1800/159/10/
006910/20121212/90238/1805/211/20/
006910/20121212/90239/1800/3203/10/
006910/20121212/90240/1805/1268/20/
006910/20121212/90240/1800/406/10/
006910/20121212/90241/1800/1233/10/
006910/20121212/90241/1795/1242/10/
006910/20121212/90248/1800/114/10/
006910/20121212/90250/1800/238/20/
006910/20121212/90253/1800/101/20/
006910/20121212/90254/1800/90/20/
006910/20121212/90258/1800/113/20/
006910/20121212/90258/1800/166/20/
006910/20121212/90259/1800/2800/20/
006910/20121212/90259/1800/1202/10/
006910/20121212/90305/1805/616/20/
006910/20121212/90307/1805/1027/20/
006910/20121212/90312/1805/122/20/
006910/20121212/90313/1800/200/10/
006910/20121212/90317/1805/457/20/
006910/20121212/90318/1805/402/10/
006910/20121212/90319/1805/176/10/
006910/20121212/90321/1800/752/10/
006910/20121212/90324/1810/2757/20/
006910/20121212/90325/1810/207/20/
006910/20121212/90325/1810/182/20/
006910/20121212/90326/1810/1886/20/
006910/20121212/90335/1815/102/20/
006910/20121212/90336/1815/578/20/
006910/20121212/90337/1810/2515/10/
006910/20121212/90338/1815/317/20/
006910/20121212/90340/1815/5648/20/
006910/20121212/90340/1820/2540/20/
006910/20121212/90342/1810/448/10/
006910/20121212/90344/1815/273/20/
006910/20121212/90347/1815/85/20/
006910/20121212/90348/1810/108/10/
006910/20121212/90351/1815/82/20/
006910/20121212/90357/1815/230/20/
006910/20121212/90359/1815/1870/20/
006910/20121212/90400/1815/504/10/
006910/20121212/90403/1820/1906/20/
006910/20121212/90410/1820/1015/20/
006910/20121212/90411/1820/340/20/
006910/20121212/90411/1820/664/10/
006910/20121212/90411/1820/268/20/
006910/20121212/90414/1820/337/20/
006910/20121212/90414/1815/513/10/
006910/20121212/90414/1825/269/20/
006910/20121212/90419/1820/133/20/
006910/20121212/90420/1820/282/20/
006910/20121212/90428/1820/82/20/
006910/20121212/90433/1820/82/20/
006910/20121212/90434/1815/137/10/
006910/20121212/90436/1815/4467/10/
006910/20121212/90438/1810/669/10/
006910/20121212/90440/1815/81/20/
006910/20121212/90447/1815/81/20/
006910/20121212/90449/1815/127/20/
006910/20121212/90449/1810/500/10/
006910/20121212/90458/1815/87/20/
006910/20121212/90508/1815/85/20/
006910/20121212/90508/1810/522/10/
006910/20121212/90511/1815/2013/20/
006910/20121212/90517/1810/131/10/
006910/20121212/90521/1815/454/20/
006910/20121212/90529/1810/249/10/
006910/20121212/90529/1805/1591/10/
006910/20121212/90537/1810/370/10/
006910/20121212/90537/1805/2459/10/
006910/20121212/90537/1800/5377/10/
006910/20121212/90538/1800/450/10/
006910/20121212/90546/1810/127/20/
006910/20121212/90555/1810/82/20/
006910/20121212/90607/1810/855/20/
006910/20121212/90611/1805/316/10/
006910/20121212/90612/1810/505/20/
006910/20121212/90615/1810/175/20/
006910/20121212/90615/1805/1300/10/
006910/20121212/90619/1805/506/10/
006910/20121212/90620/1810/505/20/
006910/20121212/90622/1810/117/20/
006910/20121212/90622/1815/1844/20/
006910/20121212/90631/1820/2052/20/
006910/20121212/90637/1820/2023/20/
006910/20121212/90638/1820/915/20/
006910/20121212/90652/1820/81/20/
006910/20121212/90703/1805/4025/10/
006910/20121212/90703/1800/6631/10/
006910/20121212/90704/1800/1078/10/
006910/20121212/90711/1810/82/20/
006910/20121212/90722/1810/177/10/
006910/20121212/90737/1810/146/10/
006910/20121212/90742/1810/969/10/
006910/20121212/90742/1805/268/10/
006910/20121212/90750/1805/762/10/
006910/20121212/90750/1800/8256/10/
006910/20121212/90750/1800/742/20/
006910/20121212/90801/1815/1152/20/
006910/20121212/90807/1810/815/20/
006910/20121212/90814/1810/1549/20/
006910/20121212/90816/1810/932/10/
006910/20121212/90818/1815/82/20/
006910/20121212/90821/1805/136/10/
006910/20121212/90828/1800/229/10/
006910/20121212/90830/1800/533/10/
006910/20121212/90832/1805/315/20/
006910/20121212/90836/1805/611/20/
006910/20121212/90852/1805/193/20/
006910/20121212/90853/1800/145/10/
006910/20121212/90901/1805/129/20/
006910/20121212/90901/1795/4211/10/
006910/20121212/90907/1800/106/20/
006910/20121212/90908/1800/90/10/
006910/20121212/90918/1800/83/20/
006910/20121212/90923/1800/82/20/
006910/20121212/90926/1795/439/10/
006910/20121212/90926/1795/1071/10/
006910/20121212/90927/1795/82/20/
006910/20121212/90930/1795/580/20/
006910/20121212/90932/1795/661/20/
006910/20121212/90933/1790/9516/10/
006910/20121212/90933/1785/501/10/
006910/20121212/90938/1790/82/20/
006910/20121212/90939/1790/247/20/
006910/20121212/90939/1795/1903/20/
006910/20121212/90939/1790/1512/10/
006910/20121212/90942/1800/88/20/
006910/20121212/90945/1790/205/10/
006910/20121212/90948/1790/1023/10/
006910/20121212/90948/1790/885/10/
006910/20121212/90948/1785/3889/10/
006910/20121212/90948/1780/2839/10/
006910/20121212/90948/1780/498/10/
006910/20121212/90948/1780/186/10/
006910/20121212/90948/1775/314/10/
006910/20121212/90949/1775/578/10/
006910/20121212/90951/1795/112/20/
006910/20121212/90952/1775/1019/10/
006910/20121212/90955/1775/238/10/
006910/20121212/90955/1775/564/10/
006910/20121212/90959/1775/532/10/
006910/20121212/91008/1780/171/10/
006910/20121212/91011/1780/110/10/
006910/20121212/91012/1785/500/10/
006910/20121212/91012/1780/1802/10/
006910/20121212/91012/1775/1448/10/
006910/20121212/91012/1770/2310/10/
006910/20121212/91013/1775/154/10/
006910/20121212/91015/1770/1851/10/
006910/20121212/91018/1780/174/10/
006910/20121212/91020/1780/85/20/
006910/20121212/91025/1780/126/20/
006910/20121212/91027/1780/504/20/
006910/20121212/91029/1780/1012/20/
006910/20121212/91033/1775/82/20/
006910/20121212/91034/1775/209/20/
006910/20121212/91036/1780/82/20/
006910/20121212/91039/1780/89/20/
006910/20121212/91041/1780/86/20/
006910/20121212/91045/1780/83/20/
006910/20121212/91048/1780/2053/20/
006910/20121212/91049/1780/1909/20/
006910/20121212/91050/1780/459/20/
006910/20121212/91056/1785/90/20/
006910/20121212/91057/1785/176/20/
006910/20121212/91100/1785/197/20/
006910/20121212/91100/1785/531/20/
006910/20121212/91105/1785/1289/20/
006910/20121212/91106/1785/515/20/
006910/20121212/91109/1785/357/20/
006910/20121212/91110/1780/1002/10/
006910/20121212/91110/1785/563/20/
006910/20121212/91112/1785/539/20/
006910/20121212/91112/1785/503/20/
006910/20121212/91112/1785/100/20/
006910/20121212/91113/1785/140/20/
006910/20121212/91116/1785/1016/10/
006910/20121212/91118/1790/1037/20/
006910/20121212/91119/1790/104/10/
006910/20121212/91125/1795/91/20/
006910/20121212/91128/1795/181/20/
006910/20121212/91129/1795/577/20/
006910/20121212/91145/1790/115/10/
006910/20121212/91145/1795/1000/20/
006910/20121212/91145/1790/219/10/
006910/20121212/91149/1795/86/20/
006910/20121212/91152/1795/89/20/
006910/20121212/91154/1795/88/20/
006910/20121212/91155/1795/81/20/
006910/20121212/91158/1795/91/20/
006910/20121212/91158/1790/3374/10/
006910/20121212/91158/1785/126/10/
006910/20121212/91201/1795/93/20/
006910/20121212/91205/1795/103/20/
006910/20121212/91208/1795/98/20/
006910/20121212/91210/1795/86/20/
006910/20121212/91215/1795/81/20/
006910/20121212/91216/1795/500/20/
006910/20121212/91224/1795/156/20/
006910/20121212/91236/1790/571/10/
006910/20121212/91239/1795/132/20/
006910/20121212/91241/1790/590/10/
006910/20121212/91241/1785/845/10/
006910/20121212/91247/1795/81/20/
006910/20121212/91254/1795/84/20/
006910/20121212/91258/1795/2028/20/
006910/20121212/91259/1795/992/20/
006910/20121212/91301/1800/86/20/
006910/20121212/91304/1800/81/20/
006910/20121212/91305/1800/113/20/
006910/20121212/91305/1800/84/20/
006910/20121212/91306/1800/100/20/
006910/20121212/91307/1800/90/20/
006910/20121212/91308/1800/154/20/
006910/20121212/91309/1800/140/20/
006910/20121212/91309/1800/169/20/
006910/20121212/91310/1800/151/20/
006910/20121212/91310/1800/9374/20/
006910/20121212/91310/1800/1935/20/
006910/20121212/91310/1795/744/10/
006910/20121212/91311/1800/162/20/
006910/20121212/91311/1800/391/20/
006910/20121212/91313/1805/101/20/
006910/20121212/91314/1805/135/20/
006910/20121212/91315/1805/300/20/
006910/20121212/91317/1805/85/20/
006910/20121212/91318/1805/1035/20/
006910/20121212/91318/1805/825/10/
006910/20121212/91319/1810/89/20/
006910/20121212/91319/1805/1170/10/
006910/20121212/91322/1805/572/20/
006910/20121212/91322/1805/512/20/
006910/20121212/91325/1805/560/20/
006910/20121212/91325/1805/337/20/
006910/20121212/91326/1805/684/10/
006910/20121212/91334/1805/81/20/
006910/20121212/91334/1805/279/20/
006910/20121212/91336/1805/498/20/
006910/20121212/91336/1805/300/20/
006910/20121212/91337/1805/215/20/
006910/20121212/91337/1805/113/20/
006910/20121212/91343/1805/186/20/
006910/20121212/91347/1805/124/20/
006910/20121212/91349/1805/824/20/
006910/20121212/91349/1800/202/10/
006910/20121212/91352/1805/246/20/
006910/20121212/91357/1805/141/20/
006910/20121212/91407/1805/81/20/
006910/20121212/91410/1805/116/20/
006910/20121212/91411/1805/121/20/
006910/20121212/91413/1805/173/20/
006910/20121212/91413/1805/500/20/
006910/20121212/91415/1805/235/20/
006910/20121212/91417/1805/145/20/
006910/20121212/91418/1805/232/20/
006910/20121212/91420/1805/235/20/
006910/20121212/91421/1805/101/20/
006910/20121212/91423/1805/253/20/
006910/20121212/91425/1805/256/20/
006910/20121212/91429/1805/85/20/
006910/20121212/91430/1805/204/20/
006910/20121212/91431/1805/358/20/
006910/20121212/91433/1805/123/20/
006910/20121212/91434/1805/455/20/
006910/20121212/91435/1805/100/20/
006910/20121212/91438/1805/582/20/
006910/20121212/91440/1805/83/10/
006910/20121212/91444/1805/483/20/
006910/20121212/91446/1805/203/10/
006910/20121212/91450/1805/580/20/
006910/20121212/91452/1805/102/20/
006910/20121212/91452/1805/1001/20/
006910/20121212/91453/1805/239/20/
006910/20121212/91455/1810/90/20/
006910/20121212/91458/1805/526/10/
006910/20121212/91508/1810/354/20/
006910/20121212/91510/1810/88/20/
006910/20121212/91523/1810/84/20/
006910/20121212/91524/1805/1327/10/
006910/20121212/91525/1805/112/20/
006910/20121212/91529/1800/1565/10/
006910/20121212/91530/1800/445/20/
006910/20121212/91533/1800/144/20/
006910/20121212/91533/1800/200/10/
006910/20121212/91543/1800/182/10/
006910/20121212/91550/1805/2502/20/
006910/20121212/91553/1805/505/10/
006910/20121212/91603/1805/90/20/
006910/20121212/91606/1800/607/10/
006910/20121212/91612/1800/81/20/
006910/20121212/91613/1795/3000/10/
006910/20121212/91615/1790/325/10/
006910/20121212/91616/1800/351/20/
006910/20121212/91629/1800/405/20/
006910/20121212/91633/1795/376/10/
006910/20121212/91635/1795/87/20/
006910/20121212/91637/1795/81/20/
006910/20121212/91639/1795/360/20/
006910/20121212/91641/1790/833/10/
006910/20121212/91641/1795/176/20/
006910/20121212/91643/1795/89/20/
006910/20121212/91644/1795/571/20/
006910/20121212/91646/1800/101/20/
006910/20121212/91648/1800/89/20/
006910/20121212/91649/1800/88/20/
006910/20121212/91652/1800/81/20/
006910/20121212/91658/1795/392/10/
006910/20121212/91700/1800/91/20/
006910/20121212/91704/1800/82/20/
006910/20121212/91707/1800/90/20/
006910/20121212/91716/1800/81/20/
006910/20121212/91721/1800/85/20/
006910/20121212/91730/1800/81/20/
006910/20121212/91732/1795/315/10/
006910/20121212/91742/1800/84/20/
006910/20121212/91747/1795/93/10/
006910/20121212/91752/1795/104/10/
006910/20121212/91756/1795/124/10/
006910/20121212/91829/1795/777/10/
006910/20121212/91832/1795/151/10/
006910/20121212/91843/1795/203/20/
006910/20121212/91847/1795/130/20/
006910/20121212/91851/1800/2002/20/
006910/20121212/91853/1800/670/20/
006910/20121212/91854/1800/101/20/
006910/20121212/91855/1800/2573/20/
006910/20121212/91900/1805/104/20/
006910/20121212/91914/1805/1055/20/
006910/20121212/91925/1800/105/10/
006910/20121212/91935/1800/1005/10/
006910/20121212/91956/1800/623/10/
006910/20121212/92011/1795/184/10/
006910/20121212/92012/1795/102/10/
006910/20121212/92017/1795/204/10/
006910/20121212/92057/1790/2148/10/
006910/20121212/92125/1790/658/10/
006910/20121212/92126/1785/101/10/
006910/20121212/92139/1795/82/20/
006910/20121212/92214/1790/640/10/
006910/20121212/92216/1785/782/10/
006910/20121212/92223/1790/624/10/
006910/20121212/92226/1785/553/10/
006910/20121212/92234/1790/273/20/
006910/20121212/92240/1790/104/20/
006910/20121212/92240/1785/300/10/
006910/20121212/92246/1790/113/20/
006910/20121212/92249/1790/104/20/
006910/20121212/92253/1790/118/10/
006910/20121212/92255/1795/120/20/
006910/20121212/92320/1795/81/20/
006910/20121212/92328/1795/1072/20/
006910/20121212/92329/1795/520/20/
006910/20121212/92330/1795/300/20/
006910/20121212/92338/1795/724/20/
006910/20121212/92406/1795/310/10/
006910/20121212/92420/1800/3269/20/
006910/20121212/92436/1800/250/20/
006910/20121212/92443/1800/1000/20/
006910/20121212/92443/1800/500/20/
006910/20121212/92444/1800/583/20/
006910/20121212/92445/1800/300/20/
006910/20121212/92446/1800/500/20/
006910/20121212/92448/1800/250/20/
006910/20121212/92501/1800/2020/20/
006910/20121212/92502/1795/5700/10/
006910/20121212/92503/1800/407/20/
006910/20121212/92515/1800/116/10/
006910/20121212/92534/1795/856/10/
006910/20121212/92600/1790/125/10/
006910/20121212/92601/1790/84/10/
006910/20121212/92603/1790/6680/10/
006910/20121212/92622/1785/5026/10/
006910/20121212/92623/1785/300/10/
006910/20121212/92624/1785/300/10/
006910/20121212/92643/1785/1002/20/
006910/20121212/92646/1785/635/20/
006910/20121212/92652/1785/3458/10/
006910/20121212/92708/1780/3057/10/
006910/20121212/92708/1780/583/10/
006910/20121212/92709/1780/300/10/
006910/20121212/92710/1780/121/10/
006910/20121212/92721/1780/100/20/
006910/20121212/92733/1780/1034/20/
006910/20121212/92739/1780/175/10/
006910/20121212/92740/1780/2870/20/
006910/20121212/92755/1785/1053/20/
006910/20121212/92755/1790/630/20/
006910/20121212/92804/1790/561/20/
006910/20121212/92807/1790/632/20/
006910/20121212/92825/1790/600/10/
006910/20121212/92827/1795/110/20/
006910/20121212/92831/1795/188/20/
006910/20121212/92838/1795/1392/20/
006910/20121212/92846/1795/124/20/
006910/20121212/92917/1795/130/20/
006910/20121212/92923/1800/107/20/
006910/20121212/93059/1800/540/20/
006910/20121212/93118/1795/1526/10/
006910/20121212/93131/1795/370/10/
006910/20121212/93136/1795/203/20/
006910/20121212/93141/1800/100/20/
006910/20121212/93152/1800/206/20/
006910/20121212/93258/1800/2013/20/
006910/20121212/93315/1795/282/10/
006910/20121212/93315/1790/592/10/
006910/20121212/93342/1795/260/10/
006910/20121212/93410/1795/207/20/
006910/20121212/93423/1790/2552/10/
006910/20121212/93437/1790/308/10/
006910/20121212/93437/1785/1463/10/
006910/20121212/93439/1790/1001/20/
006910/20121212/93623/1795/819/20/
006910/20121212/93636/1790/123/10/
006910/20121212/93659/1790/136/10/
006910/20121212/93706/1795/957/20/
006910/20121212/93712/1795/145/10/
006910/20121212/93755/1795/503/10/
006910/20121212/93816/1795/205/10/
006910/20121212/93823/1795/158/10/
006910/20121212/93836/1795/502/10/
006910/20121212/93855/1795/90/10/
006910/20121212/93856/1795/292/10/
006910/20121212/93859/1795/522/10/
006910/20121212/93901/1795/82/10/
006910/20121212/93914/1795/410/10/
006910/20121212/93932/1800/1008/20/
006910/20121212/93957/1795/202/10/
006910/20121212/93959/1795/200/10/
006910/20121212/93959/1795/301/10/
006910/20121212/94002/1795/663/10/
006910/20121212/94018/1795/1638/20/
006910/20121212/94025/1800/10044/20/
006910/20121212/94026/1800/1612/20/
006910/20121212/94026/1800/4400/20/
006910/20121212/94027/1800/7339/20/
006910/20121212/94027/1800/100/20/
006910/20121212/94027/1800/520/20/
006910/20121212/94027/1795/425/10/
006910/20121212/94029/1800/276/20/
006910/20121212/94030/1800/10000/20/
006910/20121212/94044/1805/1432/20/
006910/20121212/94053/1805/111/20/
006910/20121212/94054/1805/1700/20/
006910/20121212/94057/1805/641/20/
006910/20121212/94057/1805/1015/20/
006910/20121212/94100/1810/1265/20/
006910/20121212/94120/1810/575/20/
006910/20121212/94140/1805/92/10/
006910/20121212/94151/1805/1101/10/
006910/20121212/94152/1805/693/10/
006910/20121212/94221/1805/657/20/
006910/20121212/94240/1810/240/20/
006910/20121212/94248/1810/102/20/
006910/20121212/94308/1810/526/20/
006910/20121212/94316/1810/3004/20/
006910/20121212/94320/1810/107/20/
006910/20121212/94321/1810/150/20/
006910/20121212/94322/1810/100/20/
006910/20121212/94323/1810/951/20/
006910/20121212/94325/1810/82/20/
006910/20121212/94326/1810/150/20/
006910/20121212/94329/1810/651/10/
006910/20121212/94330/1815/188/20/
006910/20121212/94334/1815/552/20/
006910/20121212/94345/1810/592/10/
006910/20121212/94357/1810/1006/20/
006910/20121212/94359/1810/82/20/
006910/20121212/94408/1815/83/20/
006910/20121212/94412/1815/6001/20/
006910/20121212/94412/1810/1272/10/
006910/20121212/94416/1810/1001/20/
006910/20121212/94417/1810/83/20/
006910/20121212/94420/1810/444/20/
006910/20121212/94425/1810/559/10/
006910/20121212/94425/1805/1100/10/
006910/20121212/94425/1800/3114/10/
006910/20121212/94436/1810/1268/20/
006910/20121212/94439/1810/3756/10/
006910/20121212/94444/1810/502/10/
006910/20121212/94445/1810/3221/10/
006910/20121212/94457/1805/281/10/
006910/20121212/94500/1805/1156/10/
006910/20121212/94506/1805/102/20/
006910/20121212/94506/1805/144/20/
006910/20121212/94522/1810/1000/20/
006910/20121212/94534/1815/1824/20/
006910/20121212/94535/1815/151/20/
006910/20121212/94539/1815/551/20/
006910/20121212/94541/1815/111/20/
006910/20121212/94545/1815/631/20/
006910/20121212/94546/1820/5685/20/
006910/20121212/94548/1820/318/10/
006910/20121212/94556/1820/1631/20/
006910/20121212/94558/1820/4293/20/
006910/20121212/94559/1820/327/10/
006910/20121212/94600/1825/1293/20/
006910/20121212/94601/1825/1024/20/
006910/20121212/94603/1825/202/20/
006910/20121212/94604/1825/912/10/
006910/20121212/94606/1820/372/10/
006910/20121212/94611/1825/106/20/
006910/20121212/94611/1825/215/20/
006910/20121212/94612/1825/520/20/
006910/20121212/94614/1825/117/20/
006910/20121212/94614/1825/855/20/
006910/20121212/94614/1825/756/20/
006910/20121212/94615/1825/502/10/
006910/20121212/94615/1825/91/10/
006910/20121212/94616/1830/327/20/
006910/20121212/94617/1830/3299/10/
006910/20121212/94617/1830/333/10/
006910/20121212/94619/1835/116/20/
006910/20121212/94623/1835/4835/20/
006910/20121212/94623/1835/728/10/
006910/20121212/94625/1840/82/20/
006910/20121212/94626/1840/84/20/
006910/20121212/94628/1840/590/20/
006910/20121212/94629/1835/719/10/
006910/20121212/94630/1835/168/20/
006910/20121212/94630/1840/4884/20/
006910/20121212/94633/1840/3502/20/
006910/20121212/94634/1845/200/20/
006910/20121212/94634/1840/216/10/
006910/20121212/94635/1845/3996/10/
006910/20121212/94635/1850/1234/20/
006910/20121212/94636/1840/2879/10/
006910/20121212/94636/1840/719/10/
006910/20121212/94636/1840/121/20/
006910/20121212/94636/1850/115/20/
006910/20121212/94637/1850/112/20/
006910/20121212/94638/1850/92/20/
006910/20121212/94639/1840/1778/10/
006910/20121212/94639/1850/861/20/
006910/20121212/94643/1845/313/20/
006910/20121212/94643/1850/421/20/
006910/20121212/94644/1850/125/20/
006910/20121212/94644/1835/1000/10/
006910/20121212/94644/1845/160/10/
006910/20121212/94644/1850/120/20/
006910/20121212/94645/1850/526/20/
006910/20121212/94648/1845/97/20/
006910/20121212/94649/1850/230/20/
006910/20121212/94652/1845/85/20/
006910/20121212/94652/1845/82/20/
006910/20121212/94654/1840/143/10/
006910/20121212/94654/1845/236/20/
006910/20121212/94657/1845/94/20/
006910/20121212/94657/1845/3177/20/
006910/20121212/94658/1850/541/20/
006910/20121212/94658/1845/1143/10/
006910/20121212/94700/1850/96/20/
006910/20121212/94700/1850/200/20/
006910/20121212/94701/1850/119/20/
006910/20121212/94703/1850/502/20/
006910/20121212/94703/1845/312/10/
006910/20121212/94705/1845/84/10/
006910/20121212/94708/1850/89/20/
006910/20121212/94709/1845/152/10/
006910/20121212/94709/1845/500/10/
006910/20121212/94709/1845/301/10/
006910/20121212/94710/1850/204/20/
006910/20121212/94712/1850/609/20/
006910/20121212/94713/1850/82/20/
006910/20121212/94714/1845/195/10/
006910/20121212/94714/1845/512/10/
006910/20121212/94716/1845/1957/10/
006910/20121212/94716/1840/217/10/
006910/20121212/94717/1850/224/20/
006910/20121212/94717/1845/100/10/
006910/20121212/94718/1850/123/20/
006910/20121212/94719/1845/961/10/
006910/20121212/94721/1845/95/10/
006910/20121212/94721/1845/960/10/
006910/20121212/94725/1845/117/20/
006910/20121212/94726/1845/1046/20/
006910/20121212/94727/1845/958/20/
006910/20121212/94730/1845/154/10/
006910/20121212/94732/1850/154/20/
006910/20121212/94733/1845/1010/10/
006910/20121212/94733/1850/3001/20/
006910/20121212/94737/1850/88/20/
006910/20121212/94741/1850/89/20/
006910/20121212/94743/1845/701/10/
006910/20121212/94743/1845/409/20/
006910/20121212/94747/1845/512/10/
006910/20121212/94747/1845/136/10/
006910/20121212/94749/1845/916/20/
006910/20121212/94749/1850/1096/20/
006910/20121212/94750/1845/112/20/
006910/20121212/94754/1845/218/20/
006910/20121212/94801/1845/5067/20/
006910/20121212/94801/1845/196/10/
006910/20121212/94801/1840/240/10/
006910/20121212/94804/1840/667/20/
006910/20121212/94804/1845/100/20/
006910/20121212/94805/1845/110/10/
006910/20121212/94805/1845/563/10/
006910/20121212/94807/1850/552/20/
006910/20121212/94809/1845/649/10/
006910/20121212/94809/1845/374/20/
006910/20121212/94813/1850/5971/20/
006910/20121212/94814/1850/112/20/
006910/20121212/94814/1850/500/20/
006910/20121212/94815/1850/100/20/
006910/20121212/94815/1850/2510/20/
006910/20121212/94816/1850/520/20/
006910/20121212/94817/1850/100/20/
006910/20121212/94818/1855/343/20/
006910/20121212/94819/1850/201/20/
006910/20121212/94820/1855/3023/20/
006910/20121212/94821/1855/287/20/
006910/20121212/94823/1855/981/20/
006910/20121212/94823/1860/315/20/
006910/20121212/94824/1860/106/20/
006910/20121212/94828/1855/110/20/
006910/20121212/94830/1855/204/20/
006910/20121212/94832/1855/359/20/
006910/20121212/94834/1855/1012/20/
006910/20121212/94837/1855/414/20/
006910/20121212/94837/1855/210/20/
006910/20121212/94837/1855/479/20/
006910/20121212/94838/1855/500/10/
006910/20121212/94842/1855/86/10/
006910/20121212/94842/1855/417/10/
006910/20121212/94844/1860/210/20/
006910/20121212/94846/1855/522/10/
006910/20121212/94849/1855/1218/10/
006910/20121212/94851/1855/84/20/
006910/20121212/94852/1855/258/20/
006910/20121212/94852/1855/536/20/
006910/20121212/94855/1850/473/10/
006910/20121212/94859/1855/6143/20/
006910/20121212/94859/1860/282/20/
006910/20121212/94859/1855/210/20/
006910/20121212/94859/1855/100/20/
006910/20121212/94900/1855/111/20/
006910/20121212/94901/1855/270/20/
006910/20121212/94902/1855/325/10/
006910/20121212/94902/1855/205/10/
006910/20121212/94902/1855/106/20/
006910/20121212/94903/1855/1690/20/
006910/20121212/94904/1855/3135/10/
006910/20121212/94906/1850/205/10/
006910/20121212/94906/1850/200/10/
006910/20121212/94907/1850/132/10/
006910/20121212/94908/1855/335/20/
006910/20121212/94920/1845/82/10/
006910/20121212/94921/1850/200/20/
006910/20121212/94923/1845/583/10/
006910/20121212/94925/1850/114/20/
006910/20121212/94926/1850/603/20/
006910/20121212/94928/1845/101/20/
006910/20121212/94931/1850/367/20/
006910/20121212/94936/1845/992/10/
006910/20121212/94940/1845/3026/20/
006910/20121212/94944/1845/110/20/
006910/20121212/94949/1840/542/10/
006910/20121212/94953/1840/1730/10/
006910/20121212/94953/1835/2677/10/
006910/20121212/94958/1845/555/20/
006910/20121212/95001/1845/1015/20/
006910/20121212/95001/1845/470/20/
006910/20121212/95009/1845/260/10/
006910/20121212/95009/1850/207/20/
006910/20121212/95009/1845/315/10/
006910/20121212/95010/1845/181/20/
006910/20121212/95010/1850/5820/20/
006910/20121212/95015/1850/184/20/
006910/20121212/95024/1845/81/20/
006910/20121212/95025/1845/112/20/
006910/20121212/95035/1840/336/10/
006910/20121212/95035/1835/558/10/
006910/20121212/95038/1835/1004/10/
006910/20121212/95045/1830/163/10/
006910/20121212/95046/1830/183/10/
006910/20121212/95048/1830/597/10/
006910/20121212/95054/1830/610/10/
006910/20121212/95055/1835/101/20/
006910/20121212/95120/1830/97/10/
006910/20121212/95126/1830/575/10/
006910/20121212/95132/1830/411/10/
006910/20121212/95140/1830/252/10/
006910/20121212/95202/1830/89/20/
006910/20121212/95206/1830/3384/20/
006910/20121212/95214/1835/85/20/
006910/20121212/95227/1835/81/20/
006910/20121212/95236/1835/88/20/
006910/20121212/95241/1830/111/10/
006910/20121212/95256/1835/90/20/
006910/20121212/95258/1830/1001/10/
006910/20121212/95303/1830/312/10/
006910/20121212/95305/1830/335/10/
006910/20121212/95309/1830/307/10/
006910/20121212/95315/1830/204/10/
006910/20121212/95319/1830/524/10/
006910/20121212/95320/1835/1473/20/
006910/20121212/95321/1835/211/20/
006910/20121212/95322/1835/215/20/
006910/20121212/95333/1835/235/20/
006910/20121212/95335/1830/1038/10/
006910/20121212/95335/1835/6001/20/
006910/20121212/95336/1835/130/20/
006910/20121212/95337/1835/660/20/
006910/20121212/95338/1835/300/20/
006910/20121212/95354/1835/1026/10/
006910/20121212/95359/1835/106/10/
006910/20121212/95406/1835/123/20/
006910/20121212/95412/1830/5023/10/
006910/20121212/95416/1830/459/10/
006910/20121212/95436/1825/81/10/
006910/20121212/95445/1830/152/20/
006910/20121212/95515/1830/1649/20/
006910/20121212/95525/1830/445/10/
006910/20121212/95525/1825/3187/10/
006910/20121212/95525/1820/1394/10/
006910/20121212/95525/1830/500/10/
006910/20121212/95532/1830/210/10/
006910/20121212/95533/1830/1012/10/
006910/20121212/95534/1830/355/10/
006910/20121212/95552/1830/84/20/
006910/20121212/95600/1830/126/20/
006910/20121212/95608/1830/83/20/
006910/20121212/95628/1825/2011/10/
006910/20121212/95712/1830/86/20/
006910/20121212/95715/1825/260/10/
006910/20121212/95737/1825/278/10/
006910/20121212/95745/1825/2015/10/
006910/20121212/95748/1825/604/10/
006910/20121212/95757/1825/461/10/
006910/20121212/95812/1825/286/10/
006910/20121212/95818/1825/401/10/
006910/20121212/95820/1825/84/20/
006910/20121212/95827/1825/211/20/
006910/20121212/95834/1820/131/10/
006910/20121212/95844/1820/319/10/
006910/20121212/95845/1820/600/10/
006910/20121212/95845/1820/3607/10/
006910/20121212/95846/1815/1478/10/
006910/20121212/95847/1815/825/10/
006910/20121212/95847/1810/787/10/
006910/20121212/95847/1810/483/10/
006910/20121212/95847/1805/92/10/
006910/20121212/95848/1810/2587/20/
006910/20121212/95855/1810/172/20/
006910/20121212/95910/1805/347/10/
006910/20121212/95911/1810/200/20/
006910/20121212/95914/1810/201/20/
006910/20121212/95924/1810/111/20/
006910/20121212/95925/1805/4502/10/
006910/20121212/95926/1805/2010/10/
006910/20121212/95926/1805/303/10/
006910/20121212/95926/1805/408/10/
006910/20121212/95927/1805/1095/20/
006910/20121212/95928/1800/1580/10/
006910/20121212/95928/1805/135/20/
006910/20121212/95928/1800/270/10/
006910/20121212/95929/1805/435/20/
006910/20121212/95929/1805/251/20/
006910/20121212/95930/1800/13305/10/
006910/20121212/95930/1805/332/20/
006910/20121212/95930/1810/220/20/
006910/20121212/95936/1805/136/10/
006910/20121212/95942/1800/92/20/
006910/20121212/95942/1795/1000/10/
006910/20121212/95943/1795/245/10/
006910/20121212/95944/1795/1002/10/
006910/20121212/95949/1795/424/10/
006910/20121212/95949/1790/4819/10/
006910/20121212/95949/1790/485/10/
006910/20121212/95952/1790/12221/10/
006910/20121212/95953/1785/1902/10/
006910/20121212/95957/1780/695/10/
006910/20121212/95959/1780/521/10/
006910/20121212/95959/1775/4679/10/
006910/20121212/100000/1785/320/20/
006910/20121212/100001/1785/166/20/
006910/20121212/100002/1785/101/20/
006910/20121212/100004/1800/94/20/
006910/20121212/100004/1800/1164/20/
006910/20121212/100004/1810/125/20/
006910/20121212/100005/1810/478/10/
006910/20121212/100006/1815/81/20/
006910/20121212/100007/1810/3842/10/
006910/20121212/100010/1815/84/20/
006910/20121212/100011/1785/2076/10/
006910/20121212/100012/1785/547/10/
006910/20121212/100016/1815/81/20/
006910/20121212/100019/1810/99/20/
006910/20121212/100126/1800/567/10/
006910/20121212/100127/1800/186/10/
006910/20121212/100131/1800/1361/10/
006910/20121212/100155/1800/106/20/
006910/20121212/100158/1805/890/20/
006910/20121212/100206/1800/1003/20/
006910/20121212/100213/1800/1001/20/
006910/20121212/100216/1800/500/20/
006910/20121212/100218/1800/124/20/
006910/20121212/100219/1800/84/20/
006910/20121212/100220/1800/89/20/
006910/20121212/100237/1800/285/10/
006910/20121212/100241/1800/2024/20/
006910/20121212/100242/1800/705/20/
006910/20121212/100243/1805/126/20/
006910/20121212/100245/1805/82/20/
006910/20121212/100249/1810/88/20/
006910/20121212/100250/1805/132/10/
006910/20121212/100251/1805/101/20/
006910/20121212/100259/1805/1850/20/
006910/20121212/100300/1805/215/10/
006910/20121212/100303/1805/175/20/
006910/20121212/100303/1805/100/20/
006910/20121212/100305/1810/81/20/
006910/20121212/100311/1810/81/20/
006910/20121212/100315/1810/82/20/
006910/20121212/100325/1810/94/20/
006910/20121212/100341/1810/3010/20/
006910/20121212/100344/1810/4955/10/
006910/20121212/100403/1805/708/10/
006910/20121212/100428/1805/351/10/
006910/20121212/100438/1810/96/20/
006910/20121212/100447/1800/1904/10/
006910/20121212/100447/1795/926/10/
006910/20121212/100447/1790/81/10/
006910/20121212/100500/1810/1661/20/
006910/20121212/100503/1810/3374/10/
006910/20121212/100518/1800/8111/10/
006910/20121212/100526/1810/127/20/
006910/20121212/100528/1810/127/20/
006910/20121212/100530/1810/1000/20/
006910/20121212/100559/1810/81/20/
006910/20121212/100621/1805/127/20/
006910/20121212/100649/1805/268/20/
006910/20121212/100706/1805/275/10/
006910/20121212/100739/1810/93/20/
006910/20121212/100757/1810/1064/20/
006910/20121212/100804/1810/100/20/
006910/20121212/100811/1810/1026/20/
006910/20121212/100815/1810/500/20/
006910/20121212/100816/1810/211/20/
006910/20121212/100847/1810/1010/20/
006910/20121212/101016/1810/575/20/
006910/20121212/101040/1810/1389/20/
006910/20121212/101146/1815/2264/20/
006910/20121212/101151/1815/10010/10/
006910/20121212/101154/1815/5002/10/
006910/20121212/101156/1820/1001/20/
006910/20121212/101212/1820/2249/20/
006910/20121212/101212/1825/1460/20/
006910/20121212/101213/1825/3120/10/
006910/20121212/101220/1830/325/20/
006910/20121212/101232/1830/2205/20/
006910/20121212/101252/1830/105/20/
006910/20121212/101256/1830/226/20/
006910/20121212/101259/1830/1001/20/
006910/20121212/101307/1830/1637/20/
006910/20121212/101308/1830/3000/10/
006910/20121212/101309/1830/401/10/
006910/20121212/101322/1830/18528/10/
006910/20121212/101326/1835/2506/20/
006910/20121212/101342/1835/237/20/
006910/20121212/101400/1835/2828/20/
006910/20121212/101400/1840/1376/20/
006910/20121212/101403/1840/501/20/
006910/20121212/101411/1840/350/20/
006910/20121212/101456/1835/1872/20/
006910/20121212/101503/1835/1333/20/
006910/20121212/101503/1840/669/20/
006910/20121212/101550/1830/534/10/
006910/20121212/101614/1825/207/10/
006910/20121212/101615/1820/4774/10/
006910/20121212/101655/1825/530/20/
006910/20121212/101712/1820/107/10/
006910/20121212/101733/1820/1008/10/
006910/20121212/101733/1815/1437/10/
006910/20121212/101733/1805/1750/10/
006910/20121212/101733/1800/2855/10/
006910/20121212/101759/1815/1051/10/
006910/20121212/101759/1810/138/10/
006910/20121212/101815/1815/1210/10/
006910/20121212/101825/1810/1010/10/
006910/20121212/101842/1810/488/10/
006910/20121212/101938/1805/1505/10/
006910/20121212/101947/1805/276/10/
006910/20121212/101950/1805/1000/10/
006910/20121212/101957/1805/145/10/
006910/20121212/102101/1805/81/10/
006910/20121212/102104/1805/1738/10/
006910/20121212/102119/1805/164/10/
006910/20121212/102200/1805/914/10/
006910/20121212/102210/1800/164/10/
006910/20121212/102301/1805/87/20/
006910/20121212/102338/1805/3164/10/
006910/20121212/102345/1805/87/10/
006910/20121212/102405/1800/3863/10/
006910/20121212/102419/1795/227/10/
006910/20121212/102420/1795/3641/10/
006910/20121212/102421/1795/1453/10/
006910/20121212/102442/1790/1334/10/
006910/20121212/102451/1790/2172/10/
006910/20121212/102459/1790/166/10/
006910/20121212/102509/1790/1189/10/
006910/20121212/102512/1790/2479/10/
006910/20121212/102512/1785/2325/10/
006910/20121212/102512/1780/196/10/
006910/20121212/102523/1780/1000/10/
006910/20121212/102531/1785/112/10/
006910/20121212/102531/1780/398/10/
006910/20121212/102532/1780/602/10/
006910/20121212/102545/1780/596/10/
006910/20121212/102602/1785/112/10/
006910/20121212/102612/1790/1000/20/
006910/20121212/102614/1790/602/20/
006910/20121212/102627/1785/3338/10/
006910/20121212/102627/1780/2662/10/
006910/20121212/102644/1785/1600/10/
006910/20121212/102651/1785/192/10/
006910/20121212/102722/1795/150/20/
006910/20121212/102745/1795/107/20/
006910/20121212/102752/1790/96/10/
006910/20121212/102901/1795/1002/20/
006910/20121212/102904/1795/144/20/
006910/20121212/103008/1795/234/20/
006910/20121212/103049/1795/672/10/
006910/20121212/103120/1795/109/10/
006910/20121212/103139/1800/5542/20/
006910/20121212/103146/1805/286/20/
006910/20121212/103148/1805/283/20/
006910/20121212/103228/1805/81/20/
006910/20121212/103317/1800/613/10/
006910/20121212/103426/1800/213/10/
006910/20121212/103535/1800/647/20/
006910/20121212/103547/1800/150/10/
006910/20121212/103549/1800/221/10/
006910/20121212/103601/1805/397/20/
006910/20121212/103630/1800/563/10/
006910/20121212/103630/1795/826/10/
006910/20121212/103641/1795/339/10/
006910/20121212/103657/1795/219/20/
006910/20121212/103657/1795/173/10/
006910/20121212/103747/1800/276/20/
006910/20121212/103813/1800/250/10/
006910/20121212/103824/1795/152/10/
006910/20121212/103826/1795/100/10/
006910/20121212/103827/1795/300/10/
006910/20121212/103835/1795/191/10/
006910/20121212/103838/1795/100/10/
006910/20121212/103839/1795/100/10/
006910/20121212/103848/1795/1063/10/
006910/20121212/103859/1790/101/10/
006910/20121212/103904/1790/1000/10/
006910/20121212/103910/1790/5642/10/
006910/20121212/103925/1790/100/10/
006910/20121212/103958/1790/113/10/
006910/20121212/103958/1785/128/10/
006910/20121212/104136/1790/228/10/
006910/20121212/104146/1785/3687/10/
006910/20121212/104205/1780/1028/10/
006910/20121212/104212/1785/95/20/
006910/20121212/104218/1780/8208/10/
006910/20121212/104218/1775/10512/10/
006910/20121212/104218/1770/12967/10/
006910/20121212/104219/1770/477/10/
006910/20121212/104224/1770/978/10/
006910/20121212/104226/1770/84/10/
006910/20121212/104234/1770/800/10/
006910/20121212/104246/1770/914/10/
006910/20121212/104258/1780/639/20/
006910/20121212/104259/1780/607/10/
006910/20121212/104259/1770/1193/10/
006910/20121212/104306/1770/1000/10/
006910/20121212/104340/1770/373/10/
006910/20121212/104421/1780/1001/20/
006910/20121212/104436/1780/801/20/
006910/20121212/104447/1780/332/10/
006910/20121212/104522/1780/1000/20/
006910/20121212/104544/1780/500/20/
006910/20121212/104553/1780/310/10/
006910/20121212/104608/1780/409/10/
006910/20121212/104616/1775/1163/10/
006910/20121212/104626/1775/1272/10/
006910/20121212/104709/1780/540/20/
006910/20121212/104811/1775/2826/10/
006910/20121212/104811/1770/636/10/
006910/20121212/104811/1780/565/20/
006910/20121212/104916/1780/261/20/
006910/20121212/104927/1780/300/20/
006910/20121212/104936/1775/510/10/
006910/20121212/104940/1780/347/20/
006910/20121212/104946/1780/960/10/
006910/20121212/104948/1780/1010/10/
006910/20121212/105047/1785/171/20/
006910/20121212/105049/1785/2574/20/
006910/20121212/105133/1790/86/20/
006910/20121212/105234/1790/178/20/
006910/20121212/105300/1785/200/10/
006910/20121212/105348/1785/138/10/
006910/20121212/105349/1785/1675/10/
006910/20121212/105349/1780/382/10/
006910/20121212/105358/1780/146/10/
006910/20121212/105404/1780/2660/10/
006910/20121212/105419/1780/511/10/
006910/20121212/105448/1780/108/10/
006910/20121212/105458/1785/200/20/
006910/20121212/105509/1785/440/20/
006910/20121212/105511/1780/957/10/
006910/20121212/105511/1775/3079/10/
006910/20121212/105511/1770/5964/10/
006910/20121212/105515/1770/2207/10/
006910/20121212/105515/1765/2793/10/
006910/20121212/105516/1765/196/10/
006910/20121212/105526/1770/1002/20/
006910/20121212/105553/1770/203/10/
006910/20121212/105600/1770/200/10/
006910/20121212/105615/1775/218/20/
006910/20121212/105617/1775/285/20/
006910/20121212/105635/1775/100/10/
006910/20121212/105705/1780/262/20/
006910/20121212/105810/1780/2046/20/
006910/20121212/105818/1780/456/20/
006910/20121212/105931/1780/239/10/
006910/20121212/105953/1780/229/10/
006910/20121212/105956/1780/606/10/
006910/20121212/110020/1780/390/20/
006910/20121212/110241/1775/1347/10/
006910/20121212/110247/1775/404/10/
006910/20121212/110303/1775/353/10/
006910/20121212/110322/1770/2107/10/
006910/20121212/110323/1770/660/10/
006910/20121212/110400/1770/941/10/
006910/20121212/110429/1765/1588/10/
006910/20121212/110435/1770/101/10/
006910/20121212/110435/1765/309/10/
006910/20121212/110455/1770/87/10/
006910/20121212/110455/1765/2016/10/
006910/20121212/110507/1765/300/10/
006910/20121212/110515/1765/607/10/
006910/20121212/110515/1760/6682/10/
006910/20121212/110515/1755/6171/10/
006910/20121212/110515/1750/9786/10/
006910/20121212/110515/1750/831/10/
006910/20121212/110515/1750/298/10/
006910/20121212/110515/1745/702/10/
006910/20121212/110515/1745/250/10/
006910/20121212/110515/1745/500/10/
006910/20121212/110515/1755/350/20/
006910/20121212/110515/1765/550/20/
006910/20121212/110517/1765/100/10/
006910/20121212/110517/1745/400/10/
006910/20121212/110525/1760/143/10/
006910/20121212/110525/1750/469/10/
006910/20121212/110534/1750/972/10/
006910/20121212/110536/1755/200/10/
006910/20121212/110546/1750/104/10/
006910/20121212/110553/1750/447/10/
006910/20121212/110620/1760/542/20/
006910/20121212/110635/1760/1022/10/
006910/20121212/110642/1760/141/20/
006910/20121212/110643/1760/99/20/
006910/20121212/110651/1760/232/20/
006910/20121212/110701/1760/1048/10/
006910/20121212/110713/1760/100/20/
006910/20121212/110717/1760/215/20/
006910/20121212/110736/1760/149/20/
006910/20121212/110747/1760/430/20/
006910/20121212/110750/1760/100/20/
006910/20121212/110804/1760/472/10/
006910/20121212/110810/1760/588/20/
006910/20121212/110818/1760/99/20/
006910/20121212/110822/1760/95/20/
006910/20121212/110828/1760/100/10/
006910/20121212/110849/1760/237/20/
006910/20121212/110854/1760/169/20/
006910/20121212/110855/1760/500/20/
006910/20121212/110900/1760/105/20/
006910/20121212/110901/1760/489/20/
006910/20121212/110903/1760/611/10/
006910/20121212/110909/1760/137/20/
006910/20121212/110919/1755/4815/10/
006910/20121212/110925/1760/110/20/
006910/20121212/110927/1760/345/20/
006910/20121212/110950/1760/140/20/
006910/20121212/110954/1760/721/20/
006910/20121212/111022/1760/439/10/
006910/20121212/111027/1760/510/20/
006910/20121212/111100/1760/428/20/
006910/20121212/111123/1760/464/10/
006910/20121212/111123/1755/886/10/
006910/20121212/111136/1765/110/20/
006910/20121212/111328/1765/1300/20/
006910/20121212/111407/1765/460/20/
006910/20121212/111423/1765/419/20/
006910/20121212/111427/1765/583/20/
006910/20121212/111611/1765/281/10/
006910/20121212/111652/1770/2644/20/
006910/20121212/111659/1770/386/10/
006910/20121212/111702/1770/100/20/
006910/20121212/111720/1770/120/10/
006910/20121212/111744/1770/164/20/
006910/20121212/111918/1770/444/10/
006910/20121212/112010/1770/410/10/
006910/20121212/112031/1770/273/10/
006910/20121212/112106/1770/169/10/
006910/20121212/112141/1765/190/10/
006910/20121212/112159/1765/1090/10/
006910/20121212/112159/1760/1910/10/
006910/20121212/112159/1755/3050/10/
006910/20121212/112302/1760/90/10/
006910/20121212/112419/1760/1280/10/
006910/20121212/112419/1755/5307/10/
006910/20121212/112500/1755/2685/10/
006910/20121212/112504/1755/100/20/
006910/20121212/112536/1755/255/10/
006910/20121212/112541/1755/1290/20/
006910/20121212/112555/1755/1035/10/
006910/20121212/112637/1755/2189/10/
006910/20121212/112645/1755/3221/10/
006910/20121212/112655/1755/747/20/
006910/20121212/112712/1755/250/20/
006910/20121212/112714/1755/139/20/
006910/20121212/112721/1755/100/20/
006910/20121212/112845/1755/310/10/
006910/20121212/112859/1755/731/20/
006910/20121212/112924/1750/9072/10/
006910/20121212/112935/1750/3716/20/
006910/20121212/113021/1755/230/20/
006910/20121212/113113/1760/122/20/
006910/20121212/113213/1760/625/20/
006910/20121212/113241/1760/376/10/
006910/20121212/113252/1760/120/20/
006910/20121212/113346/1755/577/10/
006910/20121212/113401/1755/100/10/
006910/20121212/113437/1760/158/20/
006910/20121212/113440/1760/142/10/
006910/20121212/113458/1760/100/10/
006910/20121212/113507/1760/255/20/
006910/20121212/113526/1760/110/10/
006910/20121212/113536/1760/1775/10/
006910/20121212/113554/1760/1054/10/
006910/20121212/113720/1760/5050/20/
006910/20121212/113723/1760/100/20/
006910/20121212/113724/1760/250/20/
006910/20121212/113917/1765/1449/10/
006910/20121212/113922/1765/113/10/
006910/20121212/113924/1765/287/20/
006910/20121212/113939/1765/514/10/
006910/20121212/114029/1765/182/10/
006910/20121212/114042/1765/324/10/
006910/20121212/114117/1770/3523/20/
006910/20121212/114157/1770/500/20/
006910/20121212/114159/1770/530/20/
006910/20121212/114217/1775/1400/20/
006910/20121212/114221/1780/306/20/
006910/20121212/114239/1775/100/20/
006910/20121212/114250/1775/100/20/
006910/20121212/114300/1775/100/20/
006910/20121212/114310/1775/100/20/
006910/20121212/114314/1775/300/20/
006910/20121212/114336/1775/430/20/
006910/20121212/114414/1780/6050/20/
006910/20121212/114420/1775/1000/20/
006910/20121212/114531/1775/584/10/
006910/20121212/114620/1775/579/10/
006910/20121212/114630/1775/250/10/
006910/20121212/114700/1775/1934/10/
006910/20121212/114747/1775/300/10/
006910/20121212/114805/1775/363/10/
006910/20121212/114805/1770/122/10/
006910/20121212/114816/1770/2300/10/
006910/20121212/114816/1765/1896/10/
006910/20121212/114816/1760/1804/10/
006910/20121212/114831/1760/520/10/
006910/20121212/114935/1760/3009/10/
006910/20121212/115330/1770/91/20/
006910/20121212/115823/1765/1866/10/
006910/20121212/115912/1765/101/20/
006910/20121212/115935/1765/200/10/
006910/20121212/115952/1765/100/20/
006910/20121212/120320/1760/508/10/
006910/20121212/120531/1760/149/10/
006910/20121212/120643/1765/110/20/
006910/20121212/120718/1765/100/20/
006910/20121212/120730/1760/194/10/
006910/20121212/120752/1760/500/10/
006910/20121212/120832/1760/1197/10/
006910/20121212/120832/1755/5803/10/
006910/20121212/120852/1755/848/10/
006910/20121212/120901/1755/102/20/
006910/20121212/120902/1755/150/20/
006910/20121212/120930/1755/223/10/
006910/20121212/121106/1755/539/10/
006910/20121212/121221/1755/571/10/
006910/20121212/121232/1755/2429/20/
006910/20121212/121250/1755/635/10/
006910/20121212/121250/1750/2570/10/
006910/20121212/121319/1760/551/20/
006910/20121212/121356/1750/1000/10/
006910/20121212/121632/1760/1118/20/
006910/20121212/121704/1765/324/20/
006910/20121212/121715/1765/537/10/
006910/20121212/121804/1770/124/20/
006910/20121212/121839/1765/603/10/
006910/20121212/122302/1770/91/20/
006910/20121212/122548/1765/81/10/
006910/20121212/122605/1765/350/10/
006910/20121212/122700/1760/130/10/
006910/20121212/123135/1765/327/10/
006910/20121212/123151/1765/485/10/
006910/20121212/123158/1760/254/10/
006910/20121212/123203/1765/100/10/
006910/20121212/123239/1765/486/10/
006910/20121212/123302/1765/524/10/
006910/20121212/123351/1765/600/10/
006910/20121212/123410/1765/1000/20/
006910/20121212/123452/1765/397/20/
006910/20121212/123519/1765/708/20/
006910/20121212/123522/1765/826/20/
006910/20121212/123632/1770/150/20/
006910/20121212/123652/1765/1000/10/
006910/20121212/123903/1765/871/10/
006910/20121212/123937/1760/2733/10/
006910/20121212/123937/1755/2477/10/
006910/20121212/124017/1755/208/10/
006910/20121212/124241/1755/1724/10/
006910/20121212/124256/1755/400/10/
006910/20121212/124311/1755/299/10/
006910/20121212/124315/1755/301/20/
006910/20121212/124514/1760/119/20/
006910/20121212/125056/1760/398/10/
006910/20121212/125120/1760/500/10/
006910/20121212/125129/1760/741/10/
006910/20121212/125142/1760/2000/10/
006910/20121212/125208/1760/570/10/
006910/20121212/125504/1765/127/20/
006910/20121212/125627/1765/89/20/
006910/20121212/125849/1765/251/20/
006910/20121212/125908/1765/1253/20/
006910/20121212/125928/1770/1744/20/
006910/20121212/125929/1770/130/10/
006910/20121212/125943/1770/137/10/
006910/20121212/125943/1765/1464/10/
006910/20121212/130131/1775/677/20/
006910/20121212/130257/1775/563/20/
006910/20121212/130306/1775/1450/20/
006910/20121212/130315/1780/113/20/
006910/20121212/130321/1775/162/10/
006910/20121212/130321/1765/398/10/
006910/20121212/130358/1765/1000/10/
006910/20121212/130414/1765/600/10/
006910/20121212/130547/1765/152/10/
006910/20121212/130730/1765/335/10/
006910/20121212/130737/1765/350/10/
006910/20121212/130743/1765/498/10/
006910/20121212/130816/1765/81/10/
006910/20121212/130835/1765/586/10/
006910/20121212/130930/1765/300/10/
006910/20121212/131055/1760/446/10/
006910/20121212/131649/1760/199/10/
006910/20121212/131835/1765/700/20/
006910/20121212/131838/1765/904/20/
006910/20121212/132311/1765/84/20/
006910/20121212/132439/1765/598/10/
006910/20121212/132603/1760/302/10/
006910/20121212/132748/1765/2374/20/
006910/20121212/132849/1765/645/20/
006910/20121212/132856/1765/160/20/
006910/20121212/132908/1765/2287/20/
006910/20121212/132913/1765/422/20/
006910/20121212/132937/1770/121/20/
006910/20121212/132953/1770/1329/20/
006910/20121212/132953/1775/366/20/
006910/20121212/133130/1770/1192/10/
006910/20121212/133457/1770/209/20/
006910/20121212/133756/1770/81/20/
006910/20121212/133821/1770/2904/20/
006910/20121212/133829/1775/1003/20/
006910/20121212/133844/1780/1478/20/
006910/20121212/133929/1780/320/20/
006910/20121212/133956/1780/365/20/
006910/20121212/133957/1775/1556/10/
006910/20121212/134144/1775/2038/10/
006910/20121212/134239/1780/1502/20/
006910/20121212/134542/1775/658/10/
006910/20121212/134649/1780/1380/10/
006910/20121212/134650/1780/650/10/
006910/20121212/134700/1785/104/20/
006910/20121212/134707/1785/120/20/
006910/20121212/134715/1785/2916/20/
006910/20121212/134716/1785/200/10/
006910/20121212/134716/1785/1555/10/
006910/20121212/134742/1790/92/20/
006910/20121212/134751/1785/300/10/
006910/20121212/134806/1775/81/10/
006910/20121212/134810/1785/217/20/
006910/20121212/134814/1790/81/20/
006910/20121212/134816/1790/106/20/
006910/20121212/134816/1790/1000/20/
006910/20121212/134817/1790/2927/20/
006910/20121212/134820/1795/82/20/
006910/20121212/134822/1795/111/20/
006910/20121212/134823/1795/298/20/
006910/20121212/134824/1795/1715/20/
006910/20121212/134825/1795/194/20/
006910/20121212/134827/1795/123/20/
006910/20121212/134827/1795/415/20/
006910/20121212/134827/1795/3679/20/
006910/20121212/134828/1795/1694/20/
006910/20121212/134829/1795/918/20/
006910/20121212/134829/1795/1854/20/
006910/20121212/134830/1795/951/20/
006910/20121212/134830/1800/1211/20/
006910/20121212/134834/1800/81/20/
006910/20121212/134837/1800/510/20/
006910/20121212/134838/1800/1005/20/
006910/20121212/134839/1800/1050/20/
006910/20121212/134839/1800/238/20/
006910/20121212/134840/1800/1621/20/
006910/20121212/134840/1795/1138/10/
006910/20121212/134840/1795/2982/20/
006910/20121212/134842/1795/208/20/
006910/20121212/134843/1795/209/20/
006910/20121212/134844/1800/81/20/
006910/20121212/134845/1800/110/20/
006910/20121212/134845/1800/566/10/
006910/20121212/134845/1800/104/10/
006910/20121212/134846/1805/104/20/
006910/20121212/134848/1800/2118/10/
006910/20121212/134848/1795/1305/10/
006910/20121212/134849/1805/107/20/
006910/20121212/134851/1800/351/20/
006910/20121212/134858/1795/2926/10/
006910/20121212/134859/1795/796/10/
006910/20121212/134900/1790/1037/10/
006910/20121212/134902/1790/904/10/
006910/20121212/134903/1790/1684/10/
006910/20121212/134904/1795/1372/20/
006910/20121212/134904/1800/628/20/
006910/20121212/134923/1790/167/10/
006910/20121212/134924/1800/7097/20/
006910/20121212/134939/1805/1590/20/
006910/20121212/134940/1805/200/20/
006910/20121212/134941/1805/300/20/
006910/20121212/134941/1810/508/20/
006910/20121212/134952/1805/115/10/
006910/20121212/134954/1805/299/10/
006910/20121212/134956/1805/374/10/
006910/20121212/134957/1805/1237/10/
006910/20121212/134957/1800/4224/10/
006910/20121212/135021/1795/281/10/
006910/20121212/135023/1800/100/20/
006910/20121212/135023/1795/169/10/
006910/20121212/135040/1795/120/10/
006910/20121212/135045/1795/1000/10/
006910/20121212/135053/1795/983/10/
006910/20121212/135109/1800/477/20/
006910/20121212/135119/1790/118/10/
006910/20121212/135119/1785/806/10/
006910/20121212/135337/1790/2233/10/
006910/20121212/135405/1790/692/10/
006910/20121212/135405/1785/1007/10/
006910/20121212/135458/1790/449/10/
006910/20121212/135531/1785/1947/10/
006910/20121212/135550/1785/168/10/
006910/20121212/135731/1790/82/20/
006910/20121212/135759/1790/224/10/
006910/20121212/135835/1790/223/10/
006910/20121212/135904/1790/119/10/
006910/20121212/135904/1785/1039/10/
006910/20121212/140334/1785/638/10/
006910/20121212/140418/1790/81/20/
006910/20121212/140611/1785/110/10/
006910/20121212/140628/1785/160/10/
006910/20121212/140638/1785/297/10/
006910/20121212/140642/1780/363/10/
006910/20121212/140646/1780/2506/10/
006910/20121212/140703/1775/465/10/
006910/20121212/140717/1775/555/10/
006910/20121212/140725/1770/1000/10/
006910/20121212/140727/1780/100/20/
006910/20121212/140739/1770/231/10/
006910/20121212/140811/1780/167/20/
006910/20121212/140825/1780/242/10/
006910/20121212/140836/1780/596/10/
006910/20121212/140938/1785/1037/20/
006910/20121212/141228/1780/207/10/
006910/20121212/141344/1785/98/20/
006910/20121212/141434/1780/129/10/
006910/20121212/141450/1780/216/10/
006910/20121212/141603/1780/602/10/
006910/20121212/141604/1780/100/20/
006910/20121212/141717/1775/299/10/
006910/20121212/141732/1775/585/10/
006910/20121212/141742/1770/663/10/
006910/20121212/141743/1770/106/10/
006910/20121212/141837/1775/210/20/
006910/20121212/141927/1770/1070/10/
006910/20121212/141930/1785/100/20/
006910/20121212/141948/1785/967/20/
006910/20121212/142219/1780/720/20/
006910/20121212/142351/1775/1010/10/
006910/20121212/142414/1775/561/20/
006910/20121212/142435/1780/690/20/
006910/20121212/142439/1780/320/10/
006910/20121212/142617/1780/571/20/
006910/20121212/142757/1785/85/20/
006910/20121212/142837/1780/488/10/
006910/20121212/142837/1775/1997/10/
006910/20121212/142903/1775/285/10/
006910/20121212/143130/1780/411/10/
006910/20121212/143137/1780/192/10/
006910/20121212/143137/1775/2168/10/
006910/20121212/143137/1770/640/10/
006910/20121212/143227/1770/115/10/
006910/20121212/143308/1775/205/20/
006910/20121212/143327/1770/200/10/
006910/20121212/143415/1775/119/20/
006910/20121212/143415/1780/2714/20/
006910/20121212/143445/1780/500/20/
006910/20121212/143509/1780/135/20/
006910/20121212/143534/1780/90/20/
006910/20121212/143615/1785/81/20/
006910/20121212/143619/1785/1414/20/
006910/20121212/143641/1785/483/20/
006910/20121212/143645/1785/140/20/
006910/20121212/143656/1785/469/20/
006910/20121212/143658/1785/1000/20/
006910/20121212/143718/1785/722/20/
006910/20121212/143720/1780/100/10/
006910/20121212/143742/1785/90/20/
006910/20121212/143821/1785/359/10/
006910/20121212/143845/1790/200/20/
006910/20121212/143845/1795/1800/20/
006910/20121212/143847/1790/170/20/
006910/20121212/143850/1790/254/20/
006910/20121212/143921/1785/1544/10/
006910/20121212/143944/1780/610/10/
006910/20121212/144053/1785/520/10/
006910/20121212/144056/1780/573/10/
006910/20121212/144142/1780/632/10/
006910/20121212/144205/1780/759/10/
006910/20121212/144226/1780/4512/10/
006910/20121212/144244/1780/96/10/
006910/20121212/144306/1780/113/10/
006910/20121212/144307/1780/387/20/
006910/20121212/144343/1780/1413/10/
006910/20121212/144346/1775/2673/10/
006910/20121212/144358/1775/928/10/
006910/20121212/144405/1775/604/10/
006910/20121212/144411/1770/2000/10/
006910/20121212/144422/1775/502/20/
006910/20121212/144432/1770/93/10/
006910/20121212/144434/1775/465/20/
006910/20121212/144450/1775/1200/10/
006910/20121212/144544/1775/929/20/
006910/20121212/144546/1775/1449/20/
006910/20121212/144547/1775/200/10/
006910/20121212/144547/1770/4852/10/
006910/20121212/144549/1775/200/10/
006910/20121212/144549/1770/1500/10/
006910/20121212/144629/1770/1141/20/
006910/20121212/144631/1770/283/20/
006910/20121212/144707/1770/300/10/
006910/20121212/144709/1770/1000/10/
006910/20121212/144718/1775/283/20/
006910/20121212/144719/1775/200/20/
006910/20121212/144720/1775/222/20/
006910/20121212/144731/1775/583/10/
006910/20121212/144731/1770/5069/10/
006910/20121212/144737/1770/100/20/
006910/20121212/144741/1765/91/10/
006910/20121212/144804/1770/250/20/
006910/20121212/144807/1770/300/20/
006910/20121212/144811/1765/3570/10/
006910/20121212/144811/1760/2462/10/
006910/20121212/144811/1755/3532/10/
006910/20121212/144813/1755/201/10/
006910/20121212/144814/1755/2493/10/
006910/20121212/144814/1750/2507/10/
006910/20121212/144816/1750/1500/10/
006910/20121212/144816/1750/1000/10/
006910/20121212/144817/1750/9764/10/
006910/20121212/144817/1745/2869/10/
006910/20121212/144817/1740/1391/10/
006910/20121212/144817/1735/1350/10/
006910/20121212/144817/1745/120/20/
006910/20121212/144818/1735/563/10/
006910/20121212/144818/1735/1543/10/
006910/20121212/144818/1730/1374/10/
006910/20121212/144818/1730/967/10/
006910/20121212/144818/1730/3000/10/
006910/20121212/144818/1730/1105/10/
006910/20121212/144818/1730/915/10/
006910/20121212/144819/1730/193/10/
006910/20121212/144820/1725/1000/10/
006910/20121212/144821/1725/547/10/
006910/20121212/144821/1730/101/20/
006910/20121212/144826/1725/314/10/
006910/20121212/144826/1725/1002/10/
006910/20121212/144829/1725/283/10/
006910/20121212/144829/1725/176/10/
006910/20121212/144832/1725/1159/10/
006910/20121212/144832/1720/865/10/
006910/20121212/144833/1720/225/10/
006910/20121212/144834/1720/3110/10/
006910/20121212/144835/1720/4611/10/
006910/20121212/144835/1720/1000/10/
006910/20121212/144835/1725/100/20/
006910/20121212/144835/1725/100/20/
006910/20121212/144836/1720/3487/10/
006910/20121212/144836/1715/246/10/
006910/20121212/144836/1710/776/10/
006910/20121212/144836/1710/2695/10/
006910/20121212/144836/1705/1357/10/
006910/20121212/144836/1700/117/10/
006910/20121212/144836/1700/852/10/
006910/20121212/144836/1700/10123/10/
006910/20121212/144836/1710/561/20/
006910/20121212/144837/1725/469/20/
006910/20121212/144837/1720/319/10/
006910/20121212/144837/1720/1650/10/
006910/20121212/144839/1720/274/10/
006910/20121212/144840/1720/1001/10/
006910/20121212/144844/1725/801/20/
006910/20121212/144902/1740/2727/20/
006910/20121212/144902/1745/2470/20/
006910/20121212/144904/1750/97/20/
006910/20121212/144907/1750/167/20/
006910/20121212/144909/1745/744/10/
006910/20121212/144911/1745/104/20/
006910/20121212/144917/1745/321/20/
006910/20121212/144920/1745/921/20/
006910/20121212/144920/1750/1472/20/
006910/20121212/144922/1745/107/20/
006910/20121212/144924/1750/111/20/
006910/20121212/144928/1745/100/20/
006910/20121212/144944/1735/150/10/
006910/20121212/144944/1730/250/10/
006910/20121212/144958/1745/97/20/
006910/20121212/150000/1750/54092/10/
