006910/20121123/90000/1630/3490/20/
006910/20121123/90125/1620/300/10/
006910/20121123/90137/1630/2000/20/
006910/20121123/91324/1625/219/10/
006910/20121123/91324/1620/3291/10/
006910/20121123/91631/1620/252/10/
006910/20121123/91631/1615/431/10/
006910/20121123/91631/1610/317/10/
006910/20121123/91647/1630/359/20/
006910/20121123/91647/1640/580/20/
006910/20121123/91647/1645/661/20/
006910/20121123/92248/1620/250/10/
006910/20121123/92315/1620/2000/10/
006910/20121123/92324/1615/112/10/
006910/20121123/92324/1610/944/10/
006910/20121123/92520/1630/318/20/
006910/20121123/93507/1620/273/10/
006910/20121123/93544/1625/239/20/
006910/20121123/93622/1625/500/20/
006910/20121123/93911/1620/1005/10/
006910/20121123/94008/1620/600/10/
006910/20121123/94707/1620/116/10/
006910/20121123/100025/1615/132/10/
006910/20121123/100035/1615/600/10/
006910/20121123/100041/1610/1839/10/
006910/20121123/100107/1610/2045/10/
006910/20121123/100139/1610/955/20/
006910/20121123/100341/1620/102/20/
006910/20121123/100954/1610/123/10/
006910/20121123/101052/1610/819/10/
006910/20121123/101052/1605/10682/10/
006910/20121123/101052/1600/2736/10/
006910/20121123/101128/1605/201/10/
006910/20121123/101139/1600/2000/10/
006910/20121123/101149/1600/2000/10/
006910/20121123/101150/1595/265/10/
006910/20121123/101222/1595/300/10/
006910/20121123/101304/1595/269/10/
006910/20121123/101319/1595/2000/10/
006910/20121123/101325/1595/201/10/
006910/20121123/101405/1590/3005/10/
006910/20121123/101622/1595/163/20/
006910/20121123/101624/1595/100/20/
006910/20121123/101709/1595/200/10/
006910/20121123/101709/1590/750/10/
006910/20121123/101724/1590/110/20/
006910/20121123/102122/1590/110/10/
006910/20121123/102845/1610/111/20/
006910/20121123/102903/1610/100/20/
006910/20121123/103155/1605/974/10/
006910/20121123/103204/1605/108/20/
006910/20121123/103214/1600/1900/10/
006910/20121123/103241/1600/1320/10/
006910/20121123/103640/1600/81/20/
006910/20121123/103757/1595/210/10/
006910/20121123/103757/1590/1084/10/
006910/20121123/103757/1585/706/10/
006910/20121123/103844/1590/400/10/
006910/20121123/104154/1595/101/10/
006910/20121123/104428/1600/642/20/
006910/20121123/104611/1600/561/10/
006910/20121123/104708/1600/382/10/
006910/20121123/104713/1600/500/10/
006910/20121123/104838/1600/150/10/
006910/20121123/105840/1600/90/10/
006910/20121123/110254/1600/89/10/
006910/20121123/110254/1595/207/10/
006910/20121123/110507/1605/2539/20/
006910/20121123/110511/1600/280/10/
006910/20121123/111204/1610/2011/10/
006910/20121123/111646/1615/170/20/
006910/20121123/111716/1605/500/10/
006910/20121123/114527/1610/219/10/
006910/20121123/115557/1615/639/20/
006910/20121123/120316/1610/1168/10/
006910/20121123/121101/1605/1566/20/
006910/20121123/121442/1605/1012/20/
006910/20121123/121856/1605/134/20/
006910/20121123/122032/1600/81/10/
006910/20121123/122259/1605/477/20/
006910/20121123/122345/1605/229/20/
006910/20121123/122929/1615/110/20/
006910/20121123/125759/1605/869/10/
006910/20121123/125819/1600/2661/10/
006910/20121123/125911/1595/1673/10/
006910/20121123/131155/1600/126/10/
006910/20121123/132031/1595/142/10/
006910/20121123/132158/1600/1394/20/
006910/20121123/132445/1600/631/10/
006910/20121123/132958/1605/100/10/
006910/20121123/133305/1605/100/10/
006910/20121123/133603/1610/1413/20/
006910/20121123/134106/1610/801/20/
006910/20121123/134739/1605/283/10/
006910/20121123/134759/1605/2272/10/
006910/20121123/134759/1600/1414/10/
006910/20121123/134809/1600/3314/20/
006910/20121123/135123/1600/851/10/
006910/20121123/140709/1605/231/10/
006910/20121123/141041/1605/251/20/
006910/20121123/142137/1605/650/10/
006910/20121123/142448/1605/829/10/
006910/20121123/142502/1605/1025/10/
006910/20121123/142502/1600/285/10/
006910/20121123/142550/1600/100/10/
006910/20121123/143212/1605/310/10/
006910/20121123/143212/1600/2520/10/
006910/20121123/143420/1600/2600/10/
006910/20121123/143444/1600/5443/10/
006910/20121123/143628/1600/200/10/
006910/20121123/143856/1605/495/20/
006910/20121123/144144/1605/100/20/
006910/20121123/144148/1605/400/20/
006910/20121123/144220/1605/100/20/
006910/20121123/144400/1605/116/20/
006910/20121123/144403/1605/100/20/
006910/20121123/144410/1605/510/10/
006910/20121123/144459/1605/711/10/
006910/20121123/150000/1600/2806/10/
