006910/20130219/90000/1785/3650/20/
006910/20130219/90053/1770/200/10/
006910/20130219/90354/1770/2000/10/
006910/20130219/90445/1770/1000/10/
006910/20130219/90520/1770/100/20/
006910/20130219/90611/1765/1302/10/
006910/20130219/90611/1760/3708/10/
006910/20130219/90918/1770/703/10/
006910/20130219/91015/1770/102/10/
006910/20130219/91042/1770/143/20/
006910/20130219/91243/1770/145/10/
006910/20130219/91514/1770/400/10/
006910/20130219/91542/1770/600/10/
006910/20130219/91703/1770/120/10/
006910/20130219/91826/1775/100/20/
006910/20130219/91848/1775/395/20/
006910/20130219/92810/1770/164/10/
006910/20130219/92904/1770/1722/10/
006910/20130219/92922/1770/279/20/
006910/20130219/93035/1770/625/10/
006910/20130219/93125/1770/375/20/
006910/20130219/93202/1775/604/20/
006910/20130219/93502/1770/2546/10/
006910/20130219/93524/1770/981/10/
006910/20130219/93554/1770/869/10/
006910/20130219/93636/1770/721/10/
006910/20130219/93650/1770/719/20/
006910/20130219/93720/1765/1390/10/
006910/20130219/93729/1770/427/20/
006910/20130219/93743/1775/645/20/
006910/20130219/93833/1775/232/10/
006910/20130219/93844/1775/101/10/
006910/20130219/93846/1780/300/20/
006910/20130219/93942/1775/303/10/
006910/20130219/93942/1770/593/10/
006910/20130219/93942/1765/113/10/
006910/20130219/94142/1780/1204/20/
006910/20130219/94409/1780/2190/20/
006910/20130219/94449/1785/1006/20/
006910/20130219/94828/1780/901/10/
006910/20130219/94829/1770/300/10/
006910/20130219/95100/1770/1052/10/
006910/20130219/95417/1770/1297/20/
006910/20130219/95525/1765/279/10/
006910/20130219/95815/1770/675/20/
006910/20130219/95815/1775/326/20/
006910/20130219/95957/1775/2003/20/
006910/20130219/100229/1770/2000/10/
006910/20130219/100239/1770/101/10/
006910/20130219/100510/1775/501/20/
006910/20130219/100902/1770/2172/10/
006910/20130219/100950/1770/231/10/
006910/20130219/101216/1770/2001/10/
006910/20130219/102153/1770/2948/10/
006910/20130219/102305/1770/201/10/
006910/20130219/102648/1770/1501/10/
006910/20130219/102722/1770/300/10/
006910/20130219/103227/1770/220/10/
006910/20130219/104548/1765/1062/10/
006910/20130219/105444/1765/1224/10/
006910/20130219/105910/1770/301/20/
006910/20130219/105913/1770/469/20/
006910/20130219/110323/1770/934/10/
006910/20130219/110553/1770/1069/10/
006910/20130219/111333/1775/363/20/
006910/20130219/111500/1775/2724/20/
006910/20130219/112118/1780/782/20/
006910/20130219/112125/1780/2276/20/
006910/20130219/112401/1775/1804/10/
006910/20130219/112444/1775/3197/10/
006910/20130219/112544/1775/500/20/
006910/20130219/112844/1780/92/20/
006910/20130219/113910/1780/2010/20/
006910/20130219/114022/1780/500/20/
006910/20130219/114152/1780/1500/20/
006910/20130219/120256/1780/3078/20/
006910/20130219/120419/1785/9049/20/
006910/20130219/120434/1790/642/20/
006910/20130219/120627/1785/1027/10/
006910/20130219/120710/1785/456/10/
006910/20130219/120858/1780/1900/10/
006910/20130219/121204/1780/124/20/
006910/20130219/121246/1780/977/20/
006910/20130219/121514/1780/500/10/
006910/20130219/122825/1780/134/10/
006910/20130219/123240/1780/488/10/
006910/20130219/124018/1780/5551/10/
006910/20130219/124255/1785/111/20/
006910/20130219/124318/1780/410/10/
006910/20130219/125034/1780/500/20/
006910/20130219/125109/1775/170/10/
006910/20130219/125634/1770/1795/10/
006910/20130219/125942/1770/1506/10/
006910/20130219/130208/1770/1702/10/
006910/20130219/130600/1770/2177/10/
006910/20130219/130644/1770/150/20/
006910/20130219/130728/1765/5562/10/
006910/20130219/130955/1765/103/10/
006910/20130219/131046/1765/190/10/
006910/20130219/131046/1760/6911/10/
006910/20130219/131046/1755/2367/10/
006910/20130219/131140/1765/202/20/
006910/20130219/131223/1765/100/20/
006910/20130219/131405/1765/216/20/
006910/20130219/132311/1760/283/10/
006910/20130219/132433/1760/717/20/
006910/20130219/132739/1765/128/20/
006910/20130219/132929/1760/500/10/
006910/20130219/132929/1760/1874/10/
006910/20130219/134613/1755/279/10/
006910/20130219/134705/1755/7333/10/
006910/20130219/134705/1750/15262/10/
006910/20130219/134719/1750/2045/20/
006910/20130219/134720/1750/100/20/
006910/20130219/134802/1750/2068/20/
006910/20130219/134803/1750/280/10/
006910/20130219/134903/1750/927/10/
006910/20130219/134903/1745/2549/10/
006910/20130219/134903/1740/2535/10/
006910/20130219/135237/1745/736/10/
006910/20130219/135244/1745/303/10/
006910/20130219/135257/1755/161/20/
006910/20130219/140328/1750/101/10/
006910/20130219/140359/1745/4666/10/
006910/20130219/140500/1750/230/20/
006910/20130219/140952/1745/100/10/
006910/20130219/141019/1745/1060/10/
006910/20130219/141503/1750/101/20/
006910/20130219/141829/1750/515/10/
006910/20130219/141904/1750/132/10/
006910/20130219/141924/1750/357/10/
006910/20130219/142356/1750/95/20/
006910/20130219/142545/1755/84/20/
006910/20130219/142902/1755/130/20/
006910/20130219/142953/1755/350/20/
006910/20130219/143507/1755/2018/20/
006910/20130219/143635/1755/318/20/
006910/20130219/143659/1755/1936/20/
006910/20130219/143845/1760/514/20/
006910/20130219/143917/1755/5000/10/
006910/20130219/144100/1755/2002/20/
006910/20130219/144106/1755/2276/10/
006910/20130219/144147/1755/1520/20/
006910/20130219/144156/1755/500/20/
006910/20130219/144157/1755/500/10/
006910/20130219/144159/1755/500/20/
006910/20130219/144201/1755/510/10/
006910/20130219/144245/1755/200/20/
006910/20130219/144304/1755/100/20/
006910/20130219/144338/1755/122/20/
006910/20130219/144416/1755/500/20/
006910/20130219/144416/1750/1076/10/
006910/20130219/144453/1755/502/20/
006910/20130219/144511/1755/115/20/
006910/20130219/144632/1760/314/20/
006910/20130219/144632/1760/350/20/
006910/20130219/144632/1760/300/20/
006910/20130219/144640/1760/600/20/
006910/20130219/144651/1760/852/20/
006910/20130219/144653/1760/1866/20/
006910/20130219/144707/1760/514/10/
006910/20130219/144731/1765/504/20/
006910/20130219/144823/1765/94/20/
006910/20130219/144902/1760/400/10/
006910/20130219/144905/1765/500/20/
006910/20130219/150000/1775/12416/10/
