006910/20130116/90000/1910/616/20/
006910/20130116/90004/1910/761/20/
006910/20130116/90009/1915/500/20/
006910/20130116/90017/1915/100/20/
006910/20130116/90100/1910/200/10/
006910/20130116/90118/1910/1483/10/
006910/20130116/90120/1910/1000/20/
006910/20130116/90122/1910/3517/20/
006910/20130116/90131/1915/101/20/
006910/20130116/90142/1915/442/20/
006910/20130116/90229/1920/2870/20/
006910/20130116/90249/1920/2000/20/
006910/20130116/90258/1925/265/20/
006910/20130116/90258/1925/264/20/
006910/20130116/90258/1925/264/20/
006910/20130116/90258/1925/264/20/
006910/20130116/90258/1925/264/20/
006910/20130116/90345/1925/330/20/
006910/20130116/90352/1925/2300/20/
006910/20130116/90353/1925/4061/20/
006910/20130116/90355/1925/939/10/
006910/20130116/90526/1925/1865/20/
006910/20130116/90530/1925/1138/10/
006910/20130116/90530/1920/863/10/
006910/20130116/90546/1930/2001/20/
006910/20130116/90607/1925/200/10/
006910/20130116/90608/1930/1000/20/
006910/20130116/90609/1925/150/10/
006910/20130116/90624/1920/603/10/
006910/20130116/90729/1930/2152/20/
006910/20130116/90830/1930/105/20/
006910/20130116/90843/1930/1048/20/
006910/20130116/90858/1925/650/10/
006910/20130116/90859/1925/150/10/
006910/20130116/90902/1925/755/10/
006910/20130116/90902/1920/2145/10/
006910/20130116/90955/1920/100/10/
006910/20130116/91014/1920/1048/10/
006910/20130116/91028/1920/3855/10/
006910/20130116/91104/1920/245/20/
006910/20130116/91104/1920/300/10/
006910/20130116/91111/1920/800/10/
006910/20130116/91122/1920/500/10/
006910/20130116/91126/1920/150/10/
006910/20130116/91157/1925/1540/20/
006910/20130116/91202/1925/150/10/
006910/20130116/91248/1925/1830/10/
006910/20130116/91304/1925/220/10/
006910/20130116/91351/1930/103/20/
006910/20130116/91410/1925/2065/10/
006910/20130116/91413/1925/305/10/
006910/20130116/91503/1930/1060/20/
006910/20130116/91620/1930/350/20/
006910/20130116/91625/1930/344/20/
006910/20130116/91630/1930/732/20/
006910/20130116/91654/1930/400/20/
006910/20130116/91657/1930/1316/20/
006910/20130116/91657/1935/4065/20/
006910/20130116/91725/1935/478/20/
006910/20130116/91741/1935/122/20/
006910/20130116/91752/1935/729/10/
006910/20130116/91857/1930/180/10/
006910/20130116/91924/1930/520/10/
006910/20130116/91940/1930/281/10/
006910/20130116/92043/1925/1020/10/
006910/20130116/92112/1925/1010/10/
006910/20130116/92128/1925/500/10/
006910/20130116/92155/1930/420/20/
006910/20130116/92258/1930/499/20/
006910/20130116/92322/1930/150/20/
006910/20130116/92325/1930/1626/20/
006910/20130116/92332/1935/4501/20/
006910/20130116/92333/1940/1366/20/
006910/20130116/92336/1940/841/20/
006910/20130116/92336/1945/159/20/
006910/20130116/92338/1945/126/20/
006910/20130116/92340/1945/136/20/
006910/20130116/92341/1945/126/20/
006910/20130116/92416/1935/624/10/
006910/20130116/92439/1940/81/20/
006910/20130116/92445/1940/81/20/
006910/20130116/92447/1940/102/20/
006910/20130116/92449/1940/928/10/
006910/20130116/92450/1940/1066/20/
006910/20130116/92451/1940/2025/20/
006910/20130116/92453/1940/128/10/
006910/20130116/92453/1945/3471/20/
006910/20130116/92456/1945/82/20/
006910/20130116/92458/1940/140/10/
006910/20130116/92458/1945/1837/20/
006910/20130116/92501/1945/573/10/
006910/20130116/92501/1950/558/20/
006910/20130116/92501/1945/201/10/
006910/20130116/92504/1950/84/20/
006910/20130116/92507/1950/1079/20/
006910/20130116/92510/1950/81/20/
006910/20130116/92516/1950/83/20/
006910/20130116/92519/1945/3024/10/
006910/20130116/92521/1945/82/20/
006910/20130116/92523/1945/1930/20/
006910/20130116/92523/1950/659/20/
006910/20130116/92526/1950/82/20/
006910/20130116/92527/1945/137/20/
006910/20130116/92528/1950/714/20/
006910/20130116/92531/1950/81/20/
006910/20130116/92532/1945/632/10/
006910/20130116/92536/1950/81/20/
006910/20130116/92539/1950/1054/20/
006910/20130116/92540/1950/1436/20/
006910/20130116/92540/1950/84/20/
006910/20130116/92541/1950/5058/20/
006910/20130116/92541/1950/11480/20/
006910/20130116/92542/1950/408/10/
006910/20130116/92544/1950/1080/10/
006910/20130116/92548/1955/473/20/
006910/20130116/92550/1955/103/20/
006910/20130116/92554/1950/5072/10/
006910/20130116/92600/1950/310/10/
006910/20130116/92606/1945/3000/10/
006910/20130116/92608/1945/408/10/
006910/20130116/92611/1945/108/20/
006910/20130116/92615/1945/124/20/
006910/20130116/92619/1945/135/20/
006910/20130116/92620/1945/644/20/
006910/20130116/92621/1945/1343/20/
006910/20130116/92623/1945/117/20/
006910/20130116/92625/1945/117/20/
006910/20130116/92626/1945/586/20/
006910/20130116/92629/1945/82/20/
006910/20130116/92631/1945/418/20/
006910/20130116/92636/1940/295/10/
006910/20130116/92643/1945/339/20/
006910/20130116/92644/1945/197/20/
006910/20130116/92649/1945/1385/20/
006910/20130116/92654/1945/819/20/
006910/20130116/92704/1945/107/10/
006910/20130116/92707/1945/142/20/
006910/20130116/92738/1945/113/10/
006910/20130116/92741/1950/258/20/
006910/20130116/92747/1950/3274/20/
006910/20130116/92747/1950/1518/20/
006910/20130116/92750/1950/500/20/
006910/20130116/92756/1950/128/20/
006910/20130116/92802/1950/1851/20/
006910/20130116/92804/1950/235/10/
006910/20130116/92819/1950/163/10/
006910/20130116/92823/1950/203/20/
006910/20130116/92824/1950/97/20/
006910/20130116/92828/1955/6744/20/
006910/20130116/92828/1960/1901/20/
006910/20130116/92831/1960/173/20/
006910/20130116/92834/1960/2616/20/
006910/20130116/92851/1960/577/20/
006910/20130116/92857/1960/3120/20/
006910/20130116/92859/1960/219/10/
006910/20130116/92901/1960/1005/10/
006910/20130116/92903/1960/656/10/
006910/20130116/92905/1960/293/20/
006910/20130116/92907/1960/1648/20/
006910/20130116/92907/1960/3037/20/
006910/20130116/92907/1960/1557/20/
006910/20130116/92908/1960/163/20/
006910/20130116/92937/1955/1035/10/
006910/20130116/92950/1955/413/10/
006910/20130116/92953/1950/5800/10/
006910/20130116/93027/1955/2029/20/
006910/20130116/93030/1955/152/20/
006910/20130116/93032/1955/499/20/
006910/20130116/93040/1955/101/10/
006910/20130116/93104/1955/2866/20/
006910/20130116/93113/1955/2248/10/
006910/20130116/93119/1955/1752/20/
006910/20130116/93142/1960/250/20/
006910/20130116/93154/1955/2070/10/
006910/20130116/93156/1955/6218/20/
006910/20130116/93156/1955/622/20/
006910/20130116/93156/1960/878/20/
006910/20130116/93201/1955/100/20/
006910/20130116/93206/1955/2000/20/
006910/20130116/93208/1955/170/20/
006910/20130116/93210/1955/510/10/
006910/20130116/93215/1955/1370/10/
006910/20130116/93218/1955/260/20/
006910/20130116/93221/1955/380/20/
006910/20130116/93234/1955/11040/10/
006910/20130116/93237/1955/100/10/
006910/20130116/93242/1955/2300/10/
006910/20130116/93250/1955/3846/10/
006910/20130116/93253/1955/500/10/
006910/20130116/93255/1955/500/10/
006910/20130116/93257/1955/787/10/
006910/20130116/93301/1950/1320/10/
006910/20130116/93313/1950/11027/10/
006910/20130116/93314/1950/1000/10/
006910/20130116/93315/1950/500/10/
006910/20130116/93320/1950/4588/10/
006910/20130116/93417/1950/2955/20/
006910/20130116/93425/1950/500/10/
006910/20130116/93428/1950/636/10/
006910/20130116/93430/1950/5000/10/
006910/20130116/93430/1950/500/10/
006910/20130116/93437/1955/3000/20/
006910/20130116/93455/1955/1642/20/
006910/20130116/93511/1955/1358/10/
006910/20130116/93523/1955/2152/20/
006910/20130116/93536/1955/500/10/
006910/20130116/93537/1955/500/10/
006910/20130116/93601/1955/5075/10/
006910/20130116/93604/1955/550/10/
006910/20130116/93609/1955/200/10/
006910/20130116/93621/1955/407/10/
006910/20130116/93624/1960/15000/20/
006910/20130116/93633/1960/200/20/
006910/20130116/93648/1960/500/20/
006910/20130116/93715/1960/2004/20/
006910/20130116/93726/1960/322/10/
006910/20130116/93735/1960/1000/10/
006910/20130116/93736/1965/3748/20/
006910/20130116/93736/1970/1252/20/
006910/20130116/93752/1970/92/20/
006910/20130116/93759/1965/266/10/
006910/20130116/93804/1970/828/20/
006910/20130116/93806/1970/100/20/
006910/20130116/93835/1970/3618/20/
006910/20130116/93836/1970/1000/20/
006910/20130116/93837/1970/250/20/
006910/20130116/93838/1970/101/20/
006910/20130116/93839/1970/1000/20/
006910/20130116/93846/1965/1040/10/
006910/20130116/93848/1965/2000/10/
006910/20130116/93908/1965/1000/10/
006910/20130116/93915/1965/4050/10/
006910/20130116/93916/1965/165/10/
006910/20130116/93934/1965/1196/20/
006910/20130116/93934/1970/1834/20/
006910/20130116/93952/1965/2050/10/
006910/20130116/94002/1965/3600/20/
006910/20130116/94003/1960/500/10/
006910/20130116/94003/1960/100/10/
006910/20130116/94013/1960/1811/10/
006910/20130116/94017/1960/220/10/
006910/20130116/94018/1960/115/10/
006910/20130116/94030/1960/937/10/
006910/20130116/94030/1955/1824/10/
006910/20130116/94030/1950/239/10/
006910/20130116/94112/1955/1000/20/
006910/20130116/94123/1955/236/10/
006910/20130116/94128/1955/254/10/
006910/20130116/94132/1955/352/10/
006910/20130116/94138/1950/510/10/
006910/20130116/94153/1950/1413/10/
006910/20130116/94231/1950/100/10/
006910/20130116/94233/1950/1010/10/
006910/20130116/94249/1950/2001/10/
006910/20130116/94531/1950/561/10/
006910/20130116/94616/1950/311/10/
006910/20130116/94638/1950/81/10/
006910/20130116/94810/1955/3224/20/
006910/20130116/94849/1955/452/10/
006910/20130116/94850/1955/1405/10/
006910/20130116/94922/1950/100/10/
006910/20130116/94922/1955/595/20/
006910/20130116/94953/1955/1500/10/
006910/20130116/95005/1955/6917/10/
006910/20130116/95013/1955/5000/20/
006910/20130116/95020/1955/2000/20/
006910/20130116/95028/1955/500/20/
006910/20130116/95030/1955/300/20/
006910/20130116/95235/1950/323/10/
006910/20130116/95250/1950/4719/10/
006910/20130116/95252/1950/615/10/
006910/20130116/95440/1945/166/10/
006910/20130116/95602/1945/5114/10/
006910/20130116/95647/1950/722/20/
006910/20130116/95652/1950/354/10/
006910/20130116/95728/1945/90/20/
006910/20130116/95740/1945/260/10/
006910/20130116/95838/1945/786/10/
006910/20130116/95838/1940/2214/10/
006910/20130116/95908/1940/127/10/
006910/20130116/95923/1940/400/10/
006910/20130116/100048/1950/136/20/
006910/20130116/100206/1945/571/10/
006910/20130116/100318/1945/421/10/
006910/20130116/100353/1945/300/20/
006910/20130116/100403/1945/176/20/
006910/20130116/100403/1945/187/20/
006910/20130116/100403/1945/344/20/
006910/20130116/100429/1945/500/20/
006910/20130116/100438/1945/151/20/
006910/20130116/100459/1945/210/10/
006910/20130116/100631/1945/377/10/
006910/20130116/100706/1945/550/10/
006910/20130116/100712/1945/1435/10/
006910/20130116/101108/1945/422/20/
006910/20130116/101139/1940/2000/10/
006910/20130116/101141/1945/500/20/
006910/20130116/101249/1950/3652/10/
006910/20130116/101307/1950/500/10/
006910/20130116/101334/1950/637/10/
006910/20130116/101740/1945/137/10/
006910/20130116/101806/1950/2013/20/
006910/20130116/101831/1945/100/10/
006910/20130116/101850/1945/142/10/
006910/20130116/102226/1950/2015/20/
006910/20130116/102232/1945/2833/10/
006910/20130116/102413/1940/1002/10/
006910/20130116/102457/1940/4024/10/
006910/20130116/102457/1935/10879/10/
006910/20130116/102507/1935/980/20/
006910/20130116/102637/1940/90/20/
006910/20130116/102640/1940/90/20/
006910/20130116/102643/1940/90/20/
006910/20130116/102646/1940/90/20/
006910/20130116/102648/1940/540/20/
006910/20130116/102651/1940/90/20/
006910/20130116/102654/1945/90/20/
006910/20130116/102657/1945/87/20/
006910/20130116/102700/1950/83/20/
006910/20130116/102702/1950/190/20/
006910/20130116/102705/1955/90/20/
006910/20130116/102707/1955/90/20/
006910/20130116/102710/1955/90/20/
006910/20130116/102713/1955/90/20/
006910/20130116/102716/1955/90/20/
006910/20130116/102721/1955/90/20/
006910/20130116/102723/1955/90/20/
006910/20130116/102726/1955/90/20/
006910/20130116/102728/1955/157/20/
006910/20130116/102730/1955/90/20/
006910/20130116/102733/1955/90/20/
006910/20130116/102734/1955/120/20/
006910/20130116/102736/1955/419/20/
006910/20130116/102739/1955/90/20/
006910/20130116/102742/1955/90/20/
006910/20130116/102745/1955/90/20/
006910/20130116/102748/1960/90/20/
006910/20130116/102751/1960/90/20/
006910/20130116/102830/1955/913/20/
006910/20130116/102830/1955/599/10/
006910/20130116/103447/1945/130/20/
006910/20130116/104122/1940/2582/10/
006910/20130116/104210/1935/4313/10/
006910/20130116/104224/1930/700/10/
006910/20130116/104249/1930/9561/10/
006910/20130116/104301/1930/400/20/
006910/20130116/104427/1930/687/10/
006910/20130116/104439/1930/98/20/
006910/20130116/104447/1930/427/20/
006910/20130116/104541/1930/3605/20/
006910/20130116/104804/1935/341/20/
006910/20130116/104818/1935/198/20/
006910/20130116/104929/1935/2152/20/
006910/20130116/104949/1930/3675/10/
006910/20130116/104949/1930/3000/20/
006910/20130116/104953/1930/200/20/
006910/20130116/105004/1930/500/20/
006910/20130116/105009/1930/176/20/
006910/20130116/105156/1930/1114/10/
006910/20130116/105508/1935/1013/20/
006910/20130116/105548/1935/2000/20/
006910/20130116/105603/1935/198/20/
006910/20130116/110102/1935/201/10/
006910/20130116/110116/1940/358/20/
006910/20130116/110320/1940/100/20/
006910/20130116/110617/1940/298/20/
006910/20130116/110651/1940/170/20/
006910/20130116/110917/1935/1070/10/
006910/20130116/110923/1935/160/10/
006910/20130116/111017/1935/170/10/
006910/20130116/111026/1935/580/10/
006910/20130116/111119/1935/180/20/
006910/20130116/111212/1935/100/10/
006910/20130116/111850/1935/852/10/
006910/20130116/112054/1935/450/10/
006910/20130116/112117/1935/266/10/
006910/20130116/112256/1935/1142/10/
006910/20130116/112623/1940/3845/20/
006910/20130116/112729/1940/2289/20/
006910/20130116/112746/1945/2000/20/
006910/20130116/113002/1945/309/20/
006910/20130116/113002/1950/245/20/
006910/20130116/113002/1950/771/20/
006910/20130116/113002/1950/771/20/
006910/20130116/113003/1950/1025/20/
006910/20130116/113004/1950/1025/20/
006910/20130116/113033/1950/500/20/
006910/20130116/113302/1950/212/20/
006910/20130116/113504/1940/2500/10/
006910/20130116/113549/1945/289/20/
006910/20130116/113612/1940/100/10/
006910/20130116/113809/1945/196/20/
006910/20130116/113904/1940/220/10/
006910/20130116/113940/1940/4171/10/
006910/20130116/113953/1940/1001/10/
006910/20130116/114014/1940/1001/10/
006910/20130116/114014/1940/1000/10/
006910/20130116/114154/1945/1530/20/
006910/20130116/114200/1945/471/10/
006910/20130116/114224/1945/190/20/
006910/20130116/114239/1945/793/20/
006910/20130116/114244/1945/500/10/
006910/20130116/114246/1945/1000/10/
006910/20130116/114247/1945/707/10/
006910/20130116/114630/1945/4326/20/
006910/20130116/114934/1950/2689/20/
006910/20130116/114940/1950/312/10/
006910/20130116/115803/1945/5053/10/
006910/20130116/115839/1945/1000/10/
006910/20130116/120144/1945/92/10/
006910/20130116/120432/1945/213/10/
006910/20130116/120432/1940/1110/10/
006910/20130116/120515/1940/3601/20/
006910/20130116/120755/1935/259/10/
006910/20130116/121410/1935/212/10/
006910/20130116/121433/1935/140/10/
006910/20130116/122114/1935/116/10/
006910/20130116/122136/1935/965/10/
006910/20130116/122324/1935/125/10/
006910/20130116/122812/1940/661/20/
006910/20130116/122821/1940/1000/20/
006910/20130116/123300/1935/834/10/
006910/20130116/123909/1935/1027/10/
006910/20130116/123933/1940/700/20/
006910/20130116/124226/1940/2329/20/
006910/20130116/124737/1945/300/20/
006910/20130116/125621/1945/1042/20/
006910/20130116/125621/1950/11958/20/
006910/20130116/130004/1945/184/10/
006910/20130116/130016/1950/4970/20/
006910/20130116/130125/1950/552/20/
006910/20130116/130346/1950/458/10/
006910/20130116/130519/1950/3080/20/
006910/20130116/130519/1950/488/10/
006910/20130116/130638/1950/494/20/
006910/20130116/130753/1950/101/10/
006910/20130116/130936/1950/779/10/
006910/20130116/130953/1950/500/20/
006910/20130116/131021/1950/5103/20/
006910/20130116/131021/1955/9897/20/
006910/20130116/131312/1955/480/20/
006910/20130116/131334/1950/410/10/
006910/20130116/131342/1950/590/20/
006910/20130116/131451/1950/1632/10/
006910/20130116/131504/1950/369/20/
006910/20130116/131504/1950/733/20/
006910/20130116/131558/1950/501/10/
006910/20130116/131702/1950/199/10/
006910/20130116/132030/1950/1021/20/
006910/20130116/132139/1950/309/20/
006910/20130116/132140/1950/700/20/
006910/20130116/132248/1950/521/20/
006910/20130116/132342/1955/2015/20/
006910/20130116/132520/1950/700/20/
006910/20130116/132627/1950/137/10/
006910/20130116/132644/1950/105/10/
006910/20130116/132839/1955/81/20/
006910/20130116/133021/1950/529/10/
006910/20130116/133102/1950/1000/10/
006910/20130116/133135/1950/209/10/
006910/20130116/133213/1950/529/10/
006910/20130116/133223/1950/753/10/
006910/20130116/133252/1950/247/20/
006910/20130116/133321/1950/813/10/
006910/20130116/133526/1945/3720/10/
006910/20130116/133644/1940/644/10/
006910/20130116/133731/1940/1218/10/
006910/20130116/133731/1935/1115/10/
006910/20130116/133926/1940/300/20/
006910/20130116/134017/1940/123/20/
006910/20130116/134106/1940/200/20/
006910/20130116/134327/1940/572/20/
006910/20130116/134823/1935/7814/10/
006910/20130116/134823/1930/13637/10/
006910/20130116/135330/1935/250/20/
006910/20130116/135501/1930/753/10/
006910/20130116/135646/1935/609/20/
006910/20130116/135646/1940/823/20/
006910/20130116/135656/1940/153/20/
006910/20130116/140104/1935/3520/20/
006910/20130116/140114/1940/4661/20/
006910/20130116/140124/1940/5339/10/
006910/20130116/140125/1940/2661/20/
006910/20130116/140125/1945/2339/20/
006910/20130116/140127/1945/4007/20/
006910/20130116/140132/1950/7692/20/
006910/20130116/140136/1955/5000/20/
006910/20130116/140136/1955/5000/20/
006910/20130116/140137/1955/5000/20/
006910/20130116/140145/1955/10000/20/
006910/20130116/140147/1955/2557/20/
006910/20130116/140150/1955/584/20/
006910/20130116/140150/1960/816/20/
006910/20130116/140203/1955/200/20/
006910/20130116/140203/1960/2800/20/
006910/20130116/140215/1955/1719/20/
006910/20130116/140219/1955/2037/20/
006910/20130116/140233/1955/363/10/
006910/20130116/140251/1955/16047/20/
006910/20130116/140251/1960/3953/20/
006910/20130116/140342/1955/100/20/
006910/20130116/140408/1950/1853/10/
006910/20130116/140417/1950/300/10/
006910/20130116/140515/1950/155/10/
006910/20130116/140643/1950/1945/20/
006910/20130116/140643/1955/1400/20/
006910/20130116/140644/1955/655/10/
006910/20130116/140713/1950/200/20/
006910/20130116/140742/1950/500/10/
006910/20130116/140754/1950/165/10/
006910/20130116/140913/1945/145/10/
006910/20130116/141017/1945/217/10/
006910/20130116/141054/1940/2721/10/
006910/20130116/141108/1935/368/10/
006910/20130116/141137/1935/135/10/
006910/20130116/141255/1945/220/20/
006910/20130116/141258/1945/100/20/
006910/20130116/141310/1935/2163/10/
006910/20130116/141310/1930/2451/10/
006910/20130116/141310/1945/2000/20/
006910/20130116/141325/1935/2000/10/
006910/20130116/141331/1930/1796/10/
006910/20130116/141352/1935/1920/20/
006910/20130116/141417/1935/530/10/
006910/20130116/141430/1935/100/20/
006910/20130116/141523/1935/2370/20/
006910/20130116/141534/1935/3000/10/
006910/20130116/141537/1935/680/10/
006910/20130116/141600/1935/540/20/
006910/20130116/141625/1935/500/20/
006910/20130116/141656/1935/1280/20/
006910/20130116/141741/1935/302/10/
006910/20130116/141946/1935/1717/10/
006910/20130116/141946/1930/5350/10/
006910/20130116/142005/1930/1500/10/
006910/20130116/142127/1935/90/20/
006910/20130116/142214/1930/110/10/
006910/20130116/142230/1935/502/20/
006910/20130116/142234/1935/1500/20/
006910/20130116/142248/1935/322/20/
006910/20130116/142458/1935/353/10/
006910/20130116/142508/1935/520/20/
006910/20130116/142530/1935/150/20/
006910/20130116/142531/1935/300/20/
006910/20130116/142607/1930/1347/10/
006910/20130116/142619/1930/1000/10/
006910/20130116/142623/1930/3500/10/
006910/20130116/142628/1930/647/10/
006910/20130116/142646/1930/5442/10/
006910/20130116/142756/1930/110/20/
006910/20130116/142808/1925/90/10/
006910/20130116/142912/1930/120/20/
006910/20130116/142958/1925/1338/10/
006910/20130116/143041/1925/896/10/
006910/20130116/143143/1925/1000/10/
006910/20130116/143204/1925/100/10/
006910/20130116/143208/1925/499/10/
006910/20130116/143612/1935/87/20/
006910/20130116/143724/1925/2612/10/
006910/20130116/143750/1930/130/20/
006910/20130116/143852/1925/4097/10/
006910/20130116/143902/1925/200/20/
006910/20130116/143918/1925/481/20/
006910/20130116/143919/1925/100/20/
006910/20130116/143921/1925/5000/20/
006910/20130116/143923/1925/122/20/
006910/20130116/144122/1930/2005/20/
006910/20130116/144148/1930/100/20/
006910/20130116/144204/1930/100/20/
006910/20130116/144213/1930/165/20/
006910/20130116/144249/1935/100/20/
006910/20130116/144256/1935/100/20/
006910/20130116/144304/1935/150/20/
006910/20130116/144316/1935/177/20/
006910/20130116/144335/1935/1095/20/
006910/20130116/144404/1935/100/10/
006910/20130116/144514/1940/2018/20/
006910/20130116/144543/1940/81/20/
006910/20130116/144553/1940/81/20/
006910/20130116/144556/1935/7124/10/
006910/20130116/144603/1940/83/20/
006910/20130116/144613/1940/81/20/
006910/20130116/144625/1940/81/20/
006910/20130116/144636/1935/81/10/
006910/20130116/144646/1940/81/20/
006910/20130116/144651/1940/549/20/
006910/20130116/144653/1940/1014/20/
006910/20130116/144654/1940/687/20/
006910/20130116/144701/1940/449/20/
006910/20130116/144709/1940/354/20/
006910/20130116/144718/1940/154/20/
006910/20130116/144729/1945/81/20/
006910/20130116/144733/1945/415/20/
006910/20130116/144742/1945/237/20/
006910/20130116/144752/1940/179/10/
006910/20130116/144755/1945/82/20/
006910/20130116/144808/1940/81/10/
006910/20130116/144815/1945/173/20/
006910/20130116/144821/1940/858/10/
006910/20130116/144821/1940/574/10/
006910/20130116/144822/1940/402/10/
006910/20130116/144822/1940/281/10/
006910/20130116/144822/1940/197/10/
006910/20130116/144822/1940/138/10/
006910/20130116/144822/1940/96/10/
006910/20130116/144822/1945/87/20/
006910/20130116/144823/1940/103/10/
006910/20130116/144828/1940/276/10/
006910/20130116/144829/1940/680/10/
006910/20130116/144833/1940/1665/10/
006910/20130116/144847/1935/354/10/
006910/20130116/144851/1935/500/10/
006910/20130116/144908/1935/2965/10/
006910/20130116/144916/1935/1951/10/
006910/20130116/144943/1930/3041/10/
006910/20130116/150000/1940/20282/20/
