006910/20130307/90000/1885/58497/10/
006910/20130307/90001/1885/500/10/
006910/20130307/90002/1890/2000/20/
006910/20130307/90002/1890/1000/20/
006910/20130307/90002/1885/2000/10/
006910/20130307/90003/1885/500/10/
006910/20130307/90004/1890/480/20/
006910/20130307/90006/1890/100/20/
006910/20130307/90007/1885/100/10/
006910/20130307/90007/1890/4000/20/
006910/20130307/90007/1890/500/20/
006910/20130307/90008/1885/435/10/
006910/20130307/90008/1885/150/10/
006910/20130307/90009/1890/770/20/
006910/20130307/90009/1895/760/20/
006910/20130307/90009/1895/1750/20/
006910/20130307/90009/1895/350/20/
006910/20130307/90010/1885/815/10/
006910/20130307/90010/1880/4895/10/
006910/20130307/90010/1875/4290/10/
006910/20130307/90010/1890/100/20/
006910/20130307/90010/1895/495/20/
006910/20130307/90016/1890/273/20/
006910/20130307/90019/1890/502/20/
006910/20130307/90021/1885/99/20/
006910/20130307/90021/1885/300/20/
006910/20130307/90022/1885/1064/20/
006910/20130307/90024/1885/600/20/
006910/20130307/90025/1885/100/20/
006910/20130307/90027/1880/353/20/
006910/20130307/90029/1880/793/20/
006910/20130307/90029/1885/1000/20/
006910/20130307/90029/1885/359/20/
006910/20130307/90030/1880/2787/10/
006910/20130307/90030/1880/1100/10/
006910/20130307/90031/1885/704/20/
006910/20130307/90031/1885/600/10/
006910/20130307/90032/1885/119/10/
006910/20130307/90033/1880/330/10/
006910/20130307/90033/1875/670/10/
006910/20130307/90037/1880/500/20/
006910/20130307/90038/1875/1030/10/
006910/20130307/90038/1870/8970/10/
006910/20130307/90040/1870/3500/10/
006910/20130307/90040/1870/620/10/
006910/20130307/90040/1870/4040/10/
006910/20130307/90044/1865/1811/10/
006910/20130307/90044/1860/2155/10/
006910/20130307/90045/1870/100/20/
006910/20130307/90046/1865/100/10/
006910/20130307/90048/1860/2513/10/
006910/20130307/90059/1860/252/20/
006910/20130307/90101/1860/136/20/
006910/20130307/90102/1855/100/10/
006910/20130307/90102/1855/1100/10/
006910/20130307/90102/1855/300/10/
006910/20130307/90102/1855/400/10/
006910/20130307/90104/1855/600/10/
006910/20130307/90105/1855/150/10/
006910/20130307/90105/1860/100/20/
006910/20130307/90110/1855/1000/10/
006910/20130307/90111/1860/685/20/
006910/20130307/90111/1855/300/10/
006910/20130307/90114/1855/500/10/
006910/20130307/90116/1855/1648/10/
006910/20130307/90117/1860/2500/20/
006910/20130307/90119/1855/250/10/
006910/20130307/90119/1860/217/20/
006910/20130307/90119/1865/183/20/
006910/20130307/90123/1860/241/10/
006910/20130307/90125/1860/100/20/
006910/20130307/90128/1860/500/20/
006910/20130307/90129/1855/500/10/
006910/20130307/90131/1860/100/10/
006910/20130307/90131/1860/751/10/
006910/20130307/90131/1855/1249/10/
006910/20130307/90132/1860/100/20/
006910/20130307/90137/1855/500/10/
006910/20130307/90138/1855/812/10/
006910/20130307/90143/1855/300/10/
006910/20130307/90144/1855/260/10/
006910/20130307/90146/1855/3440/10/
006910/20130307/90146/1850/1560/10/
006910/20130307/90148/1850/477/10/
006910/20130307/90150/1850/8090/10/
006910/20130307/90155/1850/85/20/
006910/20130307/90201/1840/205/10/
006910/20130307/90203/1850/5000/20/
006910/20130307/90205/1840/351/10/
006910/20130307/90208/1850/200/20/
006910/20130307/90218/1850/101/20/
006910/20130307/90218/1850/519/20/
006910/20130307/90218/1855/226/20/
006910/20130307/90222/1850/4182/20/
006910/20130307/90224/1850/818/20/
006910/20130307/90224/1855/237/20/
006910/20130307/90227/1850/1000/20/
006910/20130307/90228/1850/100/20/
006910/20130307/90228/1850/1000/20/
006910/20130307/90228/1850/100/20/
006910/20130307/90228/1850/1000/20/
006910/20130307/90230/1850/179/20/
006910/20130307/90231/1850/200/20/
006910/20130307/90233/1850/367/20/
006910/20130307/90233/1850/643/10/
006910/20130307/90234/1855/820/20/
006910/20130307/90234/1855/966/10/
006910/20130307/90235/1850/100/20/
006910/20130307/90239/1845/269/10/
006910/20130307/90241/1850/1003/20/
006910/20130307/90242/1850/1002/20/
006910/20130307/90245/1850/1000/20/
006910/20130307/90245/1850/500/20/
006910/20130307/90246/1850/1002/20/
006910/20130307/90248/1845/3894/10/
006910/20130307/90249/1840/120/10/
006910/20130307/90249/1850/607/20/
006910/20130307/90251/1850/89/10/
006910/20130307/90256/1840/3003/10/
006910/20130307/90257/1845/199/20/
006910/20130307/90300/1845/201/10/
006910/20130307/90305/1845/311/20/
006910/20130307/90311/1840/239/10/
006910/20130307/90311/1845/545/20/
006910/20130307/90312/1840/1793/10/
006910/20130307/90318/1840/300/20/
006910/20130307/90323/1840/102/20/
006910/20130307/90328/1840/2150/20/
006910/20130307/90331/1840/3280/10/
006910/20130307/90331/1835/5861/10/
006910/20130307/90331/1830/4110/10/
006910/20130307/90331/1825/3330/10/
006910/20130307/90331/1820/2679/10/
006910/20130307/90331/1815/2240/10/
006910/20130307/90333/1845/2038/20/
006910/20130307/90337/1840/4728/20/
006910/20130307/90352/1830/3000/10/
006910/20130307/90352/1825/1320/10/
006910/20130307/90402/1840/267/20/
006910/20130307/90405/1840/610/20/
006910/20130307/90410/1840/1006/20/
006910/20130307/90415/1840/500/20/
006910/20130307/90419/1840/500/20/
006910/20130307/90419/1840/1557/20/
006910/20130307/90421/1840/303/20/
006910/20130307/90422/1840/1197/10/
006910/20130307/90423/1840/103/10/
006910/20130307/90428/1840/138/10/
006910/20130307/90429/1840/302/10/
006910/20130307/90430/1840/961/10/
006910/20130307/90434/1840/102/20/
006910/20130307/90438/1840/300/20/
006910/20130307/90442/1840/1302/10/
006910/20130307/90442/1835/1302/10/
006910/20130307/90442/1830/2435/10/
006910/20130307/90446/1830/402/10/
006910/20130307/90500/1840/1013/20/
006910/20130307/90501/1840/201/20/
006910/20130307/90502/1840/799/10/
006910/20130307/90509/1840/281/20/
006910/20130307/90514/1840/723/10/
006910/20130307/90520/1840/1000/20/
006910/20130307/90534/1830/4322/10/
006910/20130307/90538/1830/84/20/
006910/20130307/90544/1830/500/20/
006910/20130307/90552/1825/122/10/
006910/20130307/90557/1825/515/10/
006910/20130307/90602/1830/114/20/
006910/20130307/90615/1830/4006/10/
006910/20130307/90643/1830/2259/10/
006910/20130307/90647/1830/1427/10/
006910/20130307/90709/1830/2808/10/
006910/20130307/90743/1830/1369/10/
006910/20130307/90750/1825/650/10/
006910/20130307/90805/1830/1002/20/
006910/20130307/90815/1830/300/20/
006910/20130307/90819/1830/100/20/
006910/20130307/90819/1830/229/20/
006910/20130307/90824/1840/300/20/
006910/20130307/90847/1835/136/10/
006910/20130307/90850/1840/1000/20/
006910/20130307/90851/1840/668/20/
006910/20130307/90919/1835/1869/10/
006910/20130307/90939/1835/2761/20/
006910/20130307/90949/1835/300/10/
006910/20130307/90949/1835/2562/10/
006910/20130307/90955/1835/519/20/
006910/20130307/91001/1835/1919/20/
006910/20130307/91005/1835/123/10/
006910/20130307/91012/1835/1000/10/
006910/20130307/91014/1835/5400/10/
006910/20130307/91018/1830/3000/10/
006910/20130307/91021/1830/1000/10/
006910/20130307/91027/1830/223/10/
006910/20130307/91027/1830/777/10/
006910/20130307/91033/1830/418/10/
006910/20130307/91038/1825/1477/10/
006910/20130307/91051/1820/502/10/
006910/20130307/91052/1825/521/20/
006910/20130307/91055/1825/479/10/
006910/20130307/91058/1825/300/20/
006910/20130307/91103/1825/1221/20/
006910/20130307/91120/1825/1500/10/
006910/20130307/91129/1825/1000/10/
006910/20130307/91149/1825/6675/10/
006910/20130307/91159/1820/10010/10/
006910/20130307/91200/1820/522/10/
006910/20130307/91203/1820/500/20/
006910/20130307/91209/1815/600/10/
006910/20130307/91210/1820/200/20/
006910/20130307/91215/1820/200/20/
006910/20130307/91216/1820/326/20/
006910/20130307/91218/1820/105/20/
006910/20130307/91220/1820/100/20/
006910/20130307/91221/1820/2447/20/
006910/20130307/91222/1820/553/10/
006910/20130307/91224/1820/150/20/
006910/20130307/91225/1820/297/20/
006910/20130307/91225/1825/3425/20/
006910/20130307/91225/1825/1278/10/
006910/20130307/91231/1820/722/20/
006910/20130307/91236/1825/1000/20/
006910/20130307/91244/1825/500/20/
006910/20130307/91251/1825/100/20/
006910/20130307/91256/1825/1020/20/
006910/20130307/91257/1825/1101/20/
006910/20130307/91302/1825/263/20/
006910/20130307/91303/1825/2000/20/
006910/20130307/91304/1825/340/20/
006910/20130307/91305/1825/1186/20/
006910/20130307/91314/1825/200/10/
006910/20130307/91324/1825/2846/10/
006910/20130307/91329/1825/1010/20/
006910/20130307/91337/1825/1050/20/
006910/20130307/91338/1825/95/20/
006910/20130307/91344/1825/2405/10/
006910/20130307/91349/1825/2000/20/
006910/20130307/91353/1825/200/20/
006910/20130307/91404/1820/10010/10/
006910/20130307/91408/1820/312/10/
006910/20130307/91410/1820/1688/20/
006910/20130307/91421/1825/1001/20/
006910/20130307/91433/1825/1385/20/
006910/20130307/91449/1825/627/10/
006910/20130307/91451/1825/526/20/
006910/20130307/91457/1825/1370/20/
006910/20130307/91458/1825/129/20/
006910/20130307/91501/1825/2000/20/
006910/20130307/91505/1825/351/20/
006910/20130307/91624/1825/1051/10/
006910/20130307/91624/1830/160/20/
006910/20130307/91656/1825/301/10/
006910/20130307/91658/1825/4183/10/
006910/20130307/91703/1825/1245/10/
006910/20130307/91703/1825/2500/20/
006910/20130307/91730/1825/3011/20/
006910/20130307/91733/1825/1000/20/
006910/20130307/91733/1825/2246/20/
006910/20130307/91749/1825/601/10/
006910/20130307/91809/1825/2500/10/
006910/20130307/91817/1825/1000/20/
006910/20130307/91839/1825/122/20/
006910/20130307/91848/1825/3378/20/
006910/20130307/91858/1825/86/10/
006910/20130307/91929/1830/124/20/
006910/20130307/92102/1830/139/20/
006910/20130307/92105/1830/5163/20/
006910/20130307/92203/1840/924/20/
006910/20130307/92223/1830/4526/10/
006910/20130307/92240/1830/484/20/
006910/20130307/92240/1830/1155/20/
006910/20130307/92323/1825/367/10/
006910/20130307/92330/1825/1285/10/
006910/20130307/92403/1830/273/20/
006910/20130307/92406/1830/120/20/
006910/20130307/92410/1830/2452/20/
006910/20130307/92415/1830/2000/10/
006910/20130307/92428/1830/1002/10/
006910/20130307/92437/1830/1000/10/
006910/20130307/92505/1835/500/20/
006910/20130307/92510/1835/848/20/
006910/20130307/92510/1840/178/20/
006910/20130307/92515/1840/116/20/
006910/20130307/92537/1840/1013/20/
006910/20130307/92546/1840/1352/20/
006910/20130307/92549/1840/1783/20/
006910/20130307/92600/1840/1001/10/
006910/20130307/92609/1840/3313/10/
006910/20130307/92615/1840/100/20/
006910/20130307/92621/1840/252/20/
006910/20130307/92656/1840/547/20/
006910/20130307/92701/1840/1089/20/
006910/20130307/92736/1840/100/20/
006910/20130307/92804/1840/1000/20/
006910/20130307/92820/1840/500/20/
006910/20130307/92827/1840/1310/20/
006910/20130307/93005/1840/4305/10/
006910/20130307/93019/1840/1372/20/
006910/20130307/93019/1845/7250/20/
006910/20130307/93019/1850/821/20/
006910/20130307/93042/1850/202/20/
006910/20130307/93123/1840/544/10/
006910/20130307/93125/1840/234/20/
006910/20130307/93132/1840/980/20/
006910/20130307/93147/1835/9012/10/
006910/20130307/93147/1830/3860/10/
006910/20130307/93147/1825/2131/10/
006910/20130307/93214/1830/81/10/
006910/20130307/93231/1835/931/20/
006910/20130307/93232/1830/500/10/
006910/20130307/93300/1835/503/20/
006910/20130307/93321/1835/2469/20/
006910/20130307/93321/1840/534/20/
006910/20130307/93337/1835/900/10/
006910/20130307/93348/1835/127/10/
006910/20130307/93348/1835/373/20/
006910/20130307/93401/1840/1000/20/
006910/20130307/93410/1835/89/10/
006910/20130307/93413/1840/500/20/
006910/20130307/93446/1840/650/20/
006910/20130307/93515/1835/1150/10/
006910/20130307/93515/1830/2050/10/
006910/20130307/93637/1835/901/20/
006910/20130307/93640/1835/104/10/
006910/20130307/93859/1835/614/20/
006910/20130307/93925/1830/100/10/
006910/20130307/93940/1830/885/10/
006910/20130307/94105/1830/669/10/
006910/20130307/94207/1830/276/10/
006910/20130307/94222/1835/1000/20/
006910/20130307/94224/1835/370/20/
006910/20130307/94244/1835/833/10/
006910/20130307/94312/1835/1002/20/
006910/20130307/94355/1835/1067/20/
006910/20130307/94404/1835/160/20/
006910/20130307/94414/1835/441/20/
006910/20130307/94457/1835/1973/10/
006910/20130307/94538/1835/4251/10/
006910/20130307/94538/1830/224/10/
006910/20130307/94650/1830/102/10/
006910/20130307/94718/1830/4000/10/
006910/20130307/94718/1830/1082/10/
006910/20130307/94804/1830/491/10/
006910/20130307/94944/1825/220/10/
006910/20130307/95000/1825/1104/10/
006910/20130307/95004/1825/11002/10/
006910/20130307/95004/1825/1164/10/
006910/20130307/95005/1825/3002/10/
006910/20130307/95016/1825/509/10/
006910/20130307/95028/1825/993/20/
006910/20130307/95109/1830/367/20/
006910/20130307/95224/1825/6005/10/
006910/20130307/95236/1825/5000/10/
006910/20130307/95238/1825/1371/10/
006910/20130307/95258/1825/1689/20/
006910/20130307/95259/1825/231/10/
006910/20130307/95329/1825/2409/10/
006910/20130307/95333/1825/693/10/
006910/20130307/95411/1820/300/10/
006910/20130307/95424/1820/2086/10/
006910/20130307/95435/1820/400/10/
006910/20130307/95444/1820/1000/10/
006910/20130307/95446/1820/1001/10/
006910/20130307/95458/1820/1984/10/
006910/20130307/95503/1820/151/10/
006910/20130307/95516/1820/145/20/
006910/20130307/95536/1820/754/20/
006910/20130307/95556/1820/247/10/
006910/20130307/95608/1820/276/10/
006910/20130307/95636/1820/133/20/
006910/20130307/95641/1820/300/20/
006910/20130307/95700/1820/100/20/
006910/20130307/95713/1820/100/20/
006910/20130307/95730/1820/111/20/
006910/20130307/95738/1820/111/20/
006910/20130307/95744/1820/100/20/
006910/20130307/95744/1820/120/20/
006910/20130307/95757/1820/2001/20/
006910/20130307/95757/1820/1382/20/
006910/20130307/95906/1825/81/20/
006910/20130307/95955/1825/1005/20/
006910/20130307/100031/1825/300/20/
006910/20130307/100108/1825/200/20/
006910/20130307/100114/1825/7000/20/
006910/20130307/100258/1820/345/10/
006910/20130307/100301/1820/2870/10/
006910/20130307/100437/1820/1501/10/
006910/20130307/100511/1820/81/10/
006910/20130307/100655/1820/1152/10/
006910/20130307/100718/1820/300/10/
006910/20130307/100811/1820/308/10/
006910/20130307/100833/1820/1404/10/
006910/20130307/100901/1825/500/20/
006910/20130307/100908/1825/1154/20/
006910/20130307/100955/1830/813/20/
006910/20130307/101243/1825/1020/10/
006910/20130307/101433/1830/115/20/
006910/20130307/101441/1830/134/20/
006910/20130307/101542/1825/96/10/
006910/20130307/101625/1825/1360/10/
006910/20130307/101714/1825/97/20/
006910/20130307/101725/1820/100/10/
006910/20130307/101848/1820/470/10/
006910/20130307/101850/1825/954/20/
006910/20130307/101856/1825/209/10/
006910/20130307/101942/1825/200/20/
006910/20130307/102007/1825/1460/20/
006910/20130307/102032/1825/540/10/
006910/20130307/102039/1825/460/20/
006910/20130307/102046/1825/540/10/
006910/20130307/102049/1825/460/20/
006910/20130307/102056/1825/540/10/
006910/20130307/102057/1825/460/20/
006910/20130307/102108/1825/540/10/
006910/20130307/102109/1825/460/20/
006910/20130307/102110/1825/540/10/
006910/20130307/102111/1825/460/20/
006910/20130307/102114/1825/82/10/
006910/20130307/102119/1825/2000/10/
006910/20130307/102231/1825/1007/10/
006910/20130307/102328/1825/1203/10/
006910/20130307/102328/1820/2649/10/
006910/20130307/102352/1830/4001/20/
006910/20130307/102500/1830/1000/20/
006910/20130307/102725/1825/1010/10/
006910/20130307/102755/1825/2044/10/
006910/20130307/102809/1825/1000/10/
006910/20130307/102820/1825/449/10/
006910/20130307/102911/1820/1714/10/
006910/20130307/102942/1820/141/10/
006910/20130307/102951/1820/100/10/
006910/20130307/103015/1820/443/10/
006910/20130307/103024/1820/250/10/
006910/20130307/103056/1820/1505/10/
006910/20130307/103108/1820/1000/10/
006910/20130307/103146/1820/1899/10/
006910/20130307/103319/1815/144/10/
006910/20130307/103421/1820/1475/20/
006910/20130307/103507/1820/525/10/
006910/20130307/103510/1820/121/20/
006910/20130307/103636/1825/750/20/
006910/20130307/103643/1825/1231/10/
006910/20130307/103701/1825/610/20/
006910/20130307/103705/1825/348/10/
006910/20130307/104034/1830/103/20/
006910/20130307/104528/1820/1700/10/
006910/20130307/104547/1820/800/10/
006910/20130307/104557/1820/1514/10/
006910/20130307/104714/1820/1003/20/
006910/20130307/104724/1815/3980/10/
006910/20130307/104837/1815/3011/10/
006910/20130307/105011/1815/501/10/
006910/20130307/105036/1815/677/10/
006910/20130307/105207/1820/971/20/
006910/20130307/105316/1820/940/10/
006910/20130307/105818/1820/208/10/
006910/20130307/110038/1820/502/10/
006910/20130307/110104/1820/3750/20/
006910/20130307/110530/1820/1346/10/
006910/20130307/110550/1820/1162/20/
006910/20130307/111049/1820/183/10/
006910/20130307/111107/1820/1295/10/
006910/20130307/111121/1820/1500/10/
006910/20130307/111348/1820/1248/10/
006910/20130307/111535/1820/200/10/
006910/20130307/111639/1825/2000/20/
006910/20130307/111655/1825/2000/20/
006910/20130307/112043/1820/566/10/
006910/20130307/112122/1825/85/20/
006910/20130307/112425/1820/2058/10/
006910/20130307/112500/1825/3154/20/
006910/20130307/112523/1825/1000/10/
006910/20130307/112526/1825/851/10/
006910/20130307/112603/1825/211/20/
006910/20130307/112613/1825/100/10/
006910/20130307/113020/1825/1024/20/
006910/20130307/113446/1820/330/10/
006910/20130307/113927/1820/2035/10/
006910/20130307/114205/1825/155/20/
006910/20130307/114211/1820/794/10/
006910/20130307/114237/1825/247/20/
006910/20130307/114355/1820/1030/10/
006910/20130307/114451/1820/1029/10/
006910/20130307/114732/1820/2445/10/
006910/20130307/114732/1815/8114/10/
006910/20130307/114742/1815/1653/10/
006910/20130307/114846/1815/1000/10/
006910/20130307/115208/1820/2351/20/
006910/20130307/115246/1820/921/10/
006910/20130307/115325/1820/1005/20/
006910/20130307/115411/1815/148/10/
006910/20130307/115506/1820/94/20/
006910/20130307/115526/1820/401/20/
006910/20130307/115831/1820/510/10/
006910/20130307/120007/1825/83/20/
006910/20130307/120209/1820/942/10/
006910/20130307/120209/1815/7234/10/
006910/20130307/120320/1815/1000/20/
006910/20130307/120322/1815/100/20/
006910/20130307/120342/1815/742/20/
006910/20130307/120803/1820/506/20/
006910/20130307/120841/1820/701/20/
006910/20130307/121009/1820/134/10/
006910/20130307/121309/1820/120/20/
006910/20130307/121605/1815/90/10/
006910/20130307/121711/1815/6005/10/
006910/20130307/121722/1815/1694/10/
006910/20130307/121722/1810/2685/10/
006910/20130307/121722/1810/391/10/
006910/20130307/121801/1810/2344/10/
006910/20130307/121826/1810/4661/10/
006910/20130307/121904/1810/3510/10/
006910/20130307/121912/1810/537/10/
006910/20130307/122003/1805/15478/10/
006910/20130307/122009/1805/658/20/
006910/20130307/122013/1800/9300/10/
006910/20130307/122014/1800/3000/10/
006910/20130307/122018/1800/400/10/
006910/20130307/122020/1800/2000/10/
006910/20130307/122021/1800/122/10/
006910/20130307/122027/1800/1475/10/
006910/20130307/122034/1800/4295/10/
006910/20130307/122045/1795/377/10/
006910/20130307/122056/1795/400/10/
006910/20130307/122102/1795/258/10/
006910/20130307/122252/1800/507/20/
006910/20130307/122258/1800/2933/20/
006910/20130307/122301/1800/450/20/
006910/20130307/122316/1800/1813/20/
006910/20130307/122318/1800/1500/10/
006910/20130307/122322/1800/1500/10/
006910/20130307/122325/1800/189/10/
006910/20130307/122404/1800/2711/10/
006910/20130307/122407/1800/2000/10/
006910/20130307/122413/1800/369/10/
006910/20130307/122418/1800/120/20/
006910/20130307/122418/1800/1000/20/
006910/20130307/122435/1800/1000/20/
006910/20130307/122435/1795/199/10/
006910/20130307/122446/1800/500/20/
006910/20130307/122455/1800/377/20/
006910/20130307/122504/1800/2623/10/
006910/20130307/122540/1800/500/20/
006910/20130307/122559/1800/317/20/
006910/20130307/122600/1800/683/10/
006910/20130307/123141/1795/510/10/
006910/20130307/123145/1795/11235/10/
006910/20130307/123356/1795/916/20/
006910/20130307/123403/1795/300/20/
006910/20130307/123432/1795/383/20/
006910/20130307/123448/1790/500/10/
006910/20130307/123449/1790/3274/10/
006910/20130307/123543/1790/2000/10/
006910/20130307/123546/1790/1155/10/
006910/20130307/123602/1790/300/10/
006910/20130307/123602/1790/284/10/
006910/20130307/124014/1795/1000/20/
006910/20130307/124022/1795/1000/10/
006910/20130307/124038/1795/1000/10/
006910/20130307/124044/1795/500/10/
006910/20130307/124116/1795/1000/20/
006910/20130307/124226/1790/201/10/
006910/20130307/124243/1795/1041/20/
006910/20130307/124254/1795/1009/10/
006910/20130307/124316/1795/300/20/
006910/20130307/124327/1795/850/20/
006910/20130307/124428/1795/500/20/
006910/20130307/124429/1795/457/20/
006910/20130307/124853/1795/299/10/
006910/20130307/124957/1795/1352/10/
006910/20130307/125057/1795/1178/20/
006910/20130307/125217/1795/300/10/
006910/20130307/125315/1795/502/10/
006910/20130307/125632/1800/701/20/
006910/20130307/125647/1800/510/20/
006910/20130307/125814/1800/370/20/
006910/20130307/125935/1800/500/20/
006910/20130307/130015/1800/501/20/
006910/20130307/130035/1800/1489/20/
006910/20130307/130038/1800/2352/10/
006910/20130307/130129/1800/1804/10/
006910/20130307/130227/1800/501/20/
006910/20130307/130504/1800/931/20/
006910/20130307/130548/1805/5000/20/
006910/20130307/130712/1805/100/20/
006910/20130307/130718/1805/680/20/
006910/20130307/130750/1805/337/10/
006910/20130307/130848/1805/1412/20/
006910/20130307/130925/1805/200/10/
006910/20130307/130927/1805/685/10/
006910/20130307/130927/1805/508/10/
006910/20130307/130943/1800/5000/10/
006910/20130307/131028/1800/196/20/
006910/20130307/131028/1800/200/20/
006910/20130307/131054/1800/130/20/
006910/20130307/131103/1795/100/10/
006910/20130307/131107/1800/474/20/
006910/20130307/131231/1800/865/10/
006910/20130307/131231/1795/2661/10/
006910/20130307/131237/1795/500/10/
006910/20130307/131633/1795/3056/10/
006910/20130307/131633/1790/6404/10/
006910/20130307/131745/1790/500/10/
006910/20130307/131812/1790/100/10/
006910/20130307/131841/1790/268/10/
006910/20130307/131841/1785/4072/10/
006910/20130307/131841/1785/364/10/
006910/20130307/133310/1800/796/20/
006910/20130307/133312/1800/243/10/
006910/20130307/133451/1800/503/20/
006910/20130307/133509/1800/500/20/
006910/20130307/133510/1795/455/10/
006910/20130307/133510/1790/462/10/
006910/20130307/133745/1795/426/10/
006910/20130307/133756/1795/480/10/
006910/20130307/134013/1795/94/10/
006910/20130307/134109/1795/100/10/
006910/20130307/134507/1795/208/10/
006910/20130307/134656/1795/256/10/
006910/20130307/134845/1795/89/10/
006910/20130307/134922/1795/1526/10/
006910/20130307/134955/1795/154/20/
006910/20130307/135012/1795/416/10/
006910/20130307/135104/1795/430/10/
006910/20130307/135110/1790/5430/10/
006910/20130307/135122/1790/3865/10/
006910/20130307/135147/1790/1000/20/
006910/20130307/135157/1790/135/20/
006910/20130307/135401/1790/100/10/
006910/20130307/135435/1795/1000/20/
006910/20130307/135549/1795/1000/20/
006910/20130307/135807/1795/1000/20/
006910/20130307/135901/1795/310/20/
006910/20130307/135945/1795/1000/20/
006910/20130307/140232/1795/300/20/
006910/20130307/140429/1795/209/20/
006910/20130307/140454/1795/1000/20/
006910/20130307/140552/1795/600/20/
006910/20130307/140554/1795/83/20/
006910/20130307/140554/1800/117/20/
006910/20130307/140641/1800/201/20/
006910/20130307/140912/1800/617/20/
006910/20130307/140959/1800/600/20/
006910/20130307/141520/1800/1002/20/
006910/20130307/141541/1800/1700/20/
006910/20130307/141606/1805/415/20/
006910/20130307/141635/1800/324/10/
006910/20130307/141852/1795/1302/10/
006910/20130307/142033/1795/1184/10/
006910/20130307/142050/1795/100/20/
006910/20130307/142102/1795/91/20/
006910/20130307/142358/1795/126/20/
006910/20130307/142425/1795/139/20/
006910/20130307/142445/1790/600/10/
006910/20130307/142541/1790/1613/10/
006910/20130307/142555/1790/174/20/
006910/20130307/142559/1790/1202/20/
006910/20130307/142817/1790/305/10/
006910/20130307/142910/1785/512/10/
006910/20130307/143013/1790/102/20/
006910/20130307/143022/1790/1000/20/
006910/20130307/143027/1790/100/20/
006910/20130307/143036/1790/601/20/
006910/20130307/143118/1790/1031/20/
006910/20130307/143140/1790/150/20/
006910/20130307/143215/1790/679/20/
006910/20130307/143322/1790/402/10/
006910/20130307/143420/1790/201/20/
006910/20130307/143442/1785/400/10/
006910/20130307/143450/1790/511/20/
006910/20130307/143658/1790/86/20/
006910/20130307/143758/1785/92/10/
006910/20130307/143837/1790/1826/20/
006910/20130307/144058/1795/210/20/
006910/20130307/144105/1795/111/20/
006910/20130307/144121/1795/1010/20/
006910/20130307/144249/1800/90/20/
006910/20130307/144437/1800/88/20/
006910/20130307/144453/1800/111/20/
006910/20130307/144522/1795/122/20/
006910/20130307/144533/1795/222/20/
006910/20130307/144546/1795/111/20/
006910/20130307/144614/1790/511/10/
006910/20130307/144639/1795/122/20/
006910/20130307/144656/1795/111/20/
006910/20130307/144712/1790/1000/10/
006910/20130307/144715/1790/501/10/
006910/20130307/144722/1795/112/20/
006910/20130307/144739/1795/111/20/
006910/20130307/144755/1795/333/20/
006910/20130307/144814/1795/1436/20/
006910/20130307/144841/1800/1064/20/
006910/20130307/144910/1800/1347/20/
006910/20130307/144927/1800/1682/10/
006910/20130307/144931/1800/111/20/
006910/20130307/144947/1795/1360/10/
006910/20130307/144959/1800/2158/20/
006910/20130307/150000/1790/11980/20/
