006910/20130325/90000/1745/513/10/
006910/20130325/90005/1750/2521/20/
006910/20130325/90006/1745/236/10/
006910/20130325/90122/1745/505/10/
006910/20130325/90203/1745/412/10/
006910/20130325/90251/1750/596/20/
006910/20130325/90705/1750/515/10/
006910/20130325/90721/1750/1405/10/
006910/20130325/90849/1750/1016/20/
006910/20130325/91007/1745/359/10/
006910/20130325/91014/1745/300/10/
006910/20130325/91024/1745/1118/10/
006910/20130325/91034/1745/2006/20/
006910/20130325/91037/1745/878/20/
006910/20130325/91045/1745/172/10/
006910/20130325/91048/1745/101/20/
006910/20130325/91214/1745/112/20/
006910/20130325/91320/1740/1003/10/
006910/20130325/91329/1740/1000/10/
006910/20130325/91646/1745/1004/20/
006910/20130325/91701/1745/1001/20/
006910/20130325/91744/1745/2001/20/
006910/20130325/91744/1745/5510/20/
006910/20130325/91749/1745/1000/20/
006910/20130325/92115/1750/570/10/
006910/20130325/92142/1755/2770/20/
006910/20130325/92257/1760/1050/20/
006910/20130325/92302/1750/3615/10/
006910/20130325/92427/1750/2387/10/
006910/20130325/92824/1750/552/10/
006910/20130325/93258/1755/122/10/
006910/20130325/93428/1755/93/20/
006910/20130325/93615/1755/255/10/
006910/20130325/93615/1750/3092/10/
006910/20130325/93615/1745/3339/10/
006910/20130325/93615/1740/2688/10/
006910/20130325/94528/1745/1452/10/
006910/20130325/94601/1745/543/10/
006910/20130325/94616/1745/2001/20/
006910/20130325/94645/1745/2003/20/
006910/20130325/94657/1745/3001/20/
006910/20130325/94659/1745/512/20/
006910/20130325/94705/1745/1800/20/
006910/20130325/94722/1745/149/20/
006910/20130325/95446/1745/611/10/
006910/20130325/95746/1745/201/10/
006910/20130325/95846/1750/201/20/
006910/20130325/100831/1750/218/20/
006910/20130325/102642/1745/1624/10/
006910/20130325/102711/1750/505/20/
006910/20130325/103115/1750/457/20/
006910/20130325/104233/1745/3000/10/
006910/20130325/104245/1745/1000/10/
006910/20130325/105652/1745/670/10/
006910/20130325/105652/1740/1875/10/
006910/20130325/105916/1745/501/10/
006910/20130325/110543/1745/292/10/
006910/20130325/111342/1745/1001/20/
006910/20130325/111455/1745/201/20/
006910/20130325/112414/1745/1001/20/
006910/20130325/112734/1740/506/10/
006910/20130325/113356/1750/2001/20/
006910/20130325/113543/1745/504/10/
006910/20130325/113543/1740/1196/10/
006910/20130325/113916/1745/6407/10/
006910/20130325/115023/1745/394/20/
006910/20130325/115208/1745/102/10/
006910/20130325/115239/1745/231/10/
006910/20130325/115410/1745/1000/10/
006910/20130325/115432/1745/100/20/
006910/20130325/115732/1745/865/10/
006910/20130325/115937/1745/200/20/
006910/20130325/120037/1745/537/10/
006910/20130325/121550/1745/2587/10/
006910/20130325/121939/1745/317/10/
006910/20130325/121939/1740/1750/10/
006910/20130325/122349/1740/300/10/
006910/20130325/123657/1750/81/20/
006910/20130325/123752/1750/400/20/
006910/20130325/124042/1745/1725/10/
006910/20130325/124143/1745/123/10/
006910/20130325/125958/1745/2853/10/
006910/20130325/130243/1745/1000/10/
006910/20130325/130530/1745/600/10/
006910/20130325/131443/1745/4004/10/
006910/20130325/131516/1745/240/10/
006910/20130325/131516/1740/5760/10/
006910/20130325/131542/1745/400/10/
006910/20130325/133953/1745/90/20/
006910/20130325/135219/1745/2432/20/
006910/20130325/135322/1740/3000/10/
006910/20130325/135723/1750/118/20/
006910/20130325/140256/1745/563/10/
006910/20130325/141113/1745/208/20/
006910/20130325/141231/1745/130/20/
006910/20130325/142047/1745/404/20/
006910/20130325/142112/1745/1000/20/
006910/20130325/143442/1750/1402/20/
006910/20130325/143616/1750/102/20/
006910/20130325/143841/1750/2600/20/
006910/20130325/143851/1750/5849/20/
006910/20130325/143858/1750/1001/10/
006910/20130325/144249/1755/102/20/
006910/20130325/144302/1755/100/20/
006910/20130325/144318/1755/90/20/
006910/20130325/144401/1755/9393/20/
006910/20130325/144449/1760/290/20/
006910/20130325/144450/1760/2999/20/
006910/20130325/144454/1760/133/20/
006910/20130325/144514/1760/795/20/
006910/20130325/144533/1765/175/20/
006910/20130325/144612/1760/160/10/
006910/20130325/144620/1760/1800/10/
006910/20130325/144733/1760/102/10/
006910/20130325/144741/1765/3220/20/
006910/20130325/144752/1765/101/10/
006910/20130325/144753/1765/1680/10/
006910/20130325/144852/1760/1948/10/
006910/20130325/144852/1755/962/10/
006910/20130325/144908/1765/2335/20/
006910/20130325/144908/1770/4240/20/
006910/20130325/144908/1775/425/20/
006910/20130325/144938/1760/100/10/
006910/20130325/144941/1775/2455/20/
006910/20130325/144946/1770/745/20/
006910/20130325/144957/1770/101/10/
006910/20130325/150000/1775/3093/20/
