006910/20130208/90044/1710/613/10/
006910/20130208/90202/1720/110/20/
006910/20130208/90552/1715/510/20/
006910/20130208/90620/1715/1217/20/
006910/20130208/90748/1715/144/20/
006910/20130208/90758/1715/809/20/
006910/20130208/90843/1710/200/10/
006910/20130208/91300/1720/81/20/
006910/20130208/91437/1720/1300/20/
006910/20130208/91515/1725/110/20/
006910/20130208/91544/1725/214/20/
006910/20130208/91717/1725/287/10/
006910/20130208/91734/1725/1914/20/
006910/20130208/91935/1730/3703/20/
006910/20130208/92053/1730/100/20/
006910/20130208/92227/1725/550/10/
006910/20130208/92311/1725/785/10/
006910/20130208/92702/1725/101/20/
006910/20130208/92719/1725/114/20/
006910/20130208/92734/1725/500/10/
006910/20130208/93007/1725/1001/10/
006910/20130208/93254/1725/179/10/
006910/20130208/93658/1725/171/10/
006910/20130208/93905/1720/320/10/
006910/20130208/94351/1725/101/20/
006910/20130208/94905/1725/908/20/
006910/20130208/100039/1725/1061/10/
006910/20130208/100324/1720/586/10/
006910/20130208/100714/1730/2006/20/
006910/20130208/100903/1730/1000/20/
006910/20130208/101811/1725/3061/10/
006910/20130208/102335/1720/502/10/
006910/20130208/102956/1720/675/10/
006910/20130208/103414/1720/185/10/
006910/20130208/103930/1720/501/10/
006910/20130208/104816/1720/294/10/
006910/20130208/105122/1720/139/20/
006910/20130208/105146/1720/320/20/
006910/20130208/105212/1720/118/20/
006910/20130208/105222/1715/500/10/
006910/20130208/105309/1720/131/20/
006910/20130208/105333/1720/300/20/
006910/20130208/105359/1715/6000/10/
006910/20130208/105838/1720/1289/20/
006910/20130208/105853/1720/1020/10/
006910/20130208/110951/1720/497/10/
006910/20130208/111100/1720/200/10/
006910/20130208/111209/1725/100/20/
006910/20130208/111402/1725/200/20/
006910/20130208/111502/1725/200/20/
006910/20130208/111503/1725/500/20/
006910/20130208/112048/1720/147/10/
006910/20130208/114937/1720/2020/10/
006910/20130208/115351/1715/2994/10/
006910/20130208/115916/1720/1401/10/
006910/20130208/120315/1720/160/10/
006910/20130208/120916/1725/200/20/
006910/20130208/124121/1720/530/10/
006910/20130208/124732/1720/500/10/
006910/20130208/125029/1720/500/10/
006910/20130208/130656/1725/301/20/
006910/20130208/130938/1720/1000/10/
006910/20130208/133819/1720/124/10/
006910/20130208/134241/1720/1601/10/
006910/20130208/134806/1720/1440/10/
006910/20130208/134908/1720/1970/10/
006910/20130208/135309/1720/202/10/
006910/20130208/135309/1720/1031/10/
006910/20130208/135426/1720/1836/10/
006910/20130208/135544/1720/1001/10/
006910/20130208/135906/1720/196/10/
006910/20130208/140039/1720/605/20/
006910/20130208/140451/1720/1000/20/
006910/20130208/141257/1715/1268/10/
006910/20130208/141351/1715/732/10/
006910/20130208/142243/1715/482/10/
006910/20130208/142453/1720/618/20/
006910/20130208/143300/1715/300/10/
006910/20130208/143505/1715/3630/10/
006910/20130208/143651/1720/101/20/
006910/20130208/143655/1720/100/20/
006910/20130208/144546/1720/1050/20/
006910/20130208/144557/1720/1461/20/
006910/20130208/144638/1720/141/20/
006910/20130208/144722/1720/332/20/
006910/20130208/144809/1720/300/20/
006910/20130208/144836/1720/174/20/
006910/20130208/144903/1725/101/20/
006910/20130208/144920/1725/111/20/
006910/20130208/144934/1725/100/20/
006910/20130208/144939/1720/4000/10/
006910/20130208/144941/1720/500/10/
006910/20130208/144957/1725/101/20/
006910/20130208/150000/1715/5569/10/
