006910/20121122/90000/1665/3837/20/
006910/20121122/90009/1670/1310/20/
006910/20121122/90026/1670/783/20/
006910/20121122/90035/1675/3000/20/
006910/20121122/90042/1675/202/20/
006910/20121122/90048/1680/200/20/
006910/20121122/90054/1680/100/20/
006910/20121122/90100/1685/781/20/
006910/20121122/90100/1690/230/20/
006910/20121122/90103/1685/500/20/
006910/20121122/90113/1690/439/20/
006910/20121122/90117/1690/592/20/
006910/20121122/90120/1690/2000/20/
006910/20121122/90122/1690/259/20/
006910/20121122/90123/1690/241/10/
006910/20121122/90134/1680/1060/10/
006910/20121122/90137/1680/429/10/
006910/20121122/90137/1675/534/10/
006910/20121122/90138/1675/2481/10/
006910/20121122/90210/1675/150/20/
006910/20121122/90213/1675/300/20/
006910/20121122/90429/1660/782/10/
006910/20121122/90429/1650/1218/10/
006910/20121122/90448/1650/903/10/
006910/20121122/90450/1650/300/10/
006910/20121122/90452/1650/200/10/
006910/20121122/90534/1655/151/10/
006910/20121122/90534/1650/850/10/
006910/20121122/90645/1665/191/20/
006910/20121122/90912/1660/200/20/
006910/20121122/90934/1660/100/20/
006910/20121122/91008/1660/200/20/
006910/20121122/91043/1650/2000/10/
006910/20121122/91048/1650/360/10/
006910/20121122/91050/1650/1640/20/
006910/20121122/91129/1660/1001/20/
006910/20121122/91203/1645/200/10/
006910/20121122/91206/1645/300/10/
006910/20121122/91619/1655/102/20/
006910/20121122/91733/1660/3001/20/
006910/20121122/91934/1660/101/20/
006910/20121122/91934/1665/955/20/
006910/20121122/91934/1675/1168/20/
006910/20121122/92052/1675/100/20/
006910/20121122/92058/1675/2041/20/
006910/20121122/92109/1675/223/20/
006910/20121122/92322/1660/160/10/
006910/20121122/92322/1655/2758/10/
006910/20121122/92322/1645/1942/10/
006910/20121122/93347/1665/87/20/
006910/20121122/94117/1655/137/10/
006910/20121122/94158/1655/204/10/
006910/20121122/94359/1660/121/20/
006910/20121122/94858/1655/128/10/
006910/20121122/94917/1660/1001/20/
006910/20121122/95638/1660/100/20/
006910/20121122/95713/1665/201/20/
006910/20121122/95716/1665/163/20/
006910/20121122/95759/1665/301/20/
006910/20121122/95908/1665/245/20/
006910/20121122/100241/1665/266/10/
006910/20121122/100720/1665/432/20/
006910/20121122/100934/1665/1000/20/
006910/20121122/101015/1665/191/20/
006910/20121122/101515/1665/132/10/
006910/20121122/101600/1665/684/10/
006910/20121122/102411/1655/1004/10/
006910/20121122/102513/1655/1884/10/
006910/20121122/102513/1650/118/10/
006910/20121122/103414/1655/110/20/
006910/20121122/103414/1660/3702/20/
006910/20121122/103414/1665/2532/20/
006910/20121122/103818/1660/200/10/
006910/20121122/103818/1650/684/10/
006910/20121122/104325/1650/3011/10/
006910/20121122/104502/1650/1502/10/
006910/20121122/104911/1665/163/20/
006910/20121122/105436/1660/84/20/
006910/20121122/105456/1655/500/10/
006910/20121122/105805/1650/1012/10/
006910/20121122/105835/1650/1001/20/
006910/20121122/111539/1650/307/10/
006910/20121122/111818/1650/116/10/
006910/20121122/111845/1650/85/10/
006910/20121122/111845/1645/1157/10/
006910/20121122/113557/1645/500/10/
006910/20121122/113609/1655/840/20/
006910/20121122/113751/1665/1782/20/
006910/20121122/113751/1665/2071/10/
006910/20121122/113820/1670/1273/20/
006910/20121122/113821/1670/4055/10/
006910/20121122/115530/1650/3950/10/
006910/20121122/120402/1665/93/20/
006910/20121122/121939/1665/387/20/
006910/20121122/122018/1665/614/10/
006910/20121122/122458/1655/502/10/
006910/20121122/123011/1655/551/10/
006910/20121122/123142/1655/500/10/
006910/20121122/123217/1655/1000/10/
006910/20121122/123909/1665/340/20/
006910/20121122/123913/1665/400/10/
006910/20121122/123934/1665/100/10/
006910/20121122/124009/1665/160/10/
006910/20121122/124951/1670/2003/20/
006910/20121122/125356/1660/341/10/
006910/20121122/125819/1660/959/10/
006910/20121122/130104/1655/1778/10/
006910/20121122/130409/1655/1251/10/
006910/20121122/131430/1655/6047/10/
006910/20121122/131430/1650/3263/10/
006910/20121122/131516/1650/2495/10/
006910/20121122/131522/1650/505/20/
006910/20121122/131730/1650/100/10/
006910/20121122/131745/1650/100/10/
006910/20121122/131747/1650/100/10/
006910/20121122/132938/1650/200/10/
006910/20121122/133020/1650/400/10/
006910/20121122/133127/1650/87/10/
006910/20121122/133605/1650/213/20/
006910/20121122/134211/1645/538/10/
006910/20121122/135932/1650/349/10/
006910/20121122/140406/1650/1000/10/
006910/20121122/141000/1655/991/20/
006910/20121122/141216/1650/89/10/
006910/20121122/141304/1655/442/20/
006910/20121122/141336/1655/100/20/
006910/20121122/141713/1655/1000/20/
006910/20121122/142513/1655/742/20/
006910/20121122/142528/1655/100/20/
006910/20121122/142751/1655/97/20/
006910/20121122/143125/1650/2001/10/
006910/20121122/143145/1650/432/10/
006910/20121122/143225/1650/568/20/
006910/20121122/143311/1650/283/10/
006910/20121122/143837/1645/404/10/
006910/20121122/144051/1640/310/10/
006910/20121122/144209/1640/200/10/
006910/20121122/144249/1645/86/20/
006910/20121122/144316/1640/2589/10/
006910/20121122/144316/1635/2505/10/
006910/20121122/144317/1635/906/20/
006910/20121122/144526/1635/506/10/
006910/20121122/144526/1630/6116/10/
006910/20121122/144527/1630/3378/20/
006910/20121122/144951/1630/1080/10/
006910/20121122/150000/1620/10739/20/
