006910/20130108/90000/1900/4445/20/
006910/20130108/90002/1900/700/20/
006910/20130108/90002/1905/175/20/
006910/20130108/90003/1895/799/10/
006910/20130108/90015/1900/700/20/
006910/20130108/90015/1905/1315/20/
006910/20130108/90017/1905/100/20/
006910/20130108/90021/1905/1314/20/
006910/20130108/90022/1905/686/10/
006910/20130108/90027/1910/1200/20/
006910/20130108/90027/1915/3800/20/
006910/20130108/90033/1915/700/20/
006910/20130108/90033/1920/1301/20/
006910/20130108/90033/1915/1000/10/
006910/20130108/90040/1920/1003/20/
006910/20130108/90046/1920/203/20/
006910/20130108/90054/1920/1004/20/
006910/20130108/90057/1920/235/20/
006910/20130108/90058/1920/100/20/
006910/20130108/90100/1920/500/20/
006910/20130108/90100/1920/500/20/
006910/20130108/90100/1920/500/20/
006910/20130108/90102/1915/399/20/
006910/20130108/90102/1920/101/20/
006910/20130108/90111/1920/1510/20/
006910/20130108/90112/1920/1000/20/
006910/20130108/90114/1925/2036/20/
006910/20130108/90114/1925/875/20/
006910/20130108/90114/1920/400/10/
006910/20130108/90115/1925/100/20/
006910/20130108/90115/1920/1000/10/
006910/20130108/90117/1920/3000/10/
006910/20130108/90120/1925/1857/20/
006910/20130108/90121/1920/500/10/
006910/20130108/90123/1920/500/10/
006910/20130108/90125/1920/604/10/
006910/20130108/90133/1920/614/10/
006910/20130108/90135/1920/237/20/
006910/20130108/90136/1920/202/20/
006910/20130108/90143/1920/525/20/
006910/20130108/90143/1920/557/20/
006910/20130108/90153/1925/300/20/
006910/20130108/90159/1925/500/20/
006910/20130108/90202/1920/1000/10/
006910/20130108/90209/1920/300/10/
006910/20130108/90211/1925/112/20/
006910/20130108/90216/1925/1003/20/
006910/20130108/90218/1925/1002/20/
006910/20130108/90220/1925/600/20/
006910/20130108/90221/1925/1606/20/
006910/20130108/90222/1930/1739/20/
006910/20130108/90232/1930/260/20/
006910/20130108/90242/1930/2108/20/
006910/20130108/90253/1935/2001/20/
006910/20130108/90254/1935/177/20/
006910/20130108/90301/1935/354/10/
006910/20130108/90301/1940/87/20/
006910/20130108/90306/1940/200/20/
006910/20130108/90308/1940/1001/20/
006910/20130108/90309/1940/736/20/
006910/20130108/90318/1945/553/20/
006910/20130108/90318/1940/500/10/
006910/20130108/90323/1945/3504/20/
006910/20130108/90324/1945/1290/20/
006910/20130108/90335/1940/1816/10/
006910/20130108/90336/1940/1510/10/
006910/20130108/90337/1940/500/10/
006910/20130108/90337/1940/1000/10/
006910/20130108/90337/1940/2157/10/
006910/20130108/90339/1935/2224/10/
006910/20130108/90342/1935/3598/10/
006910/20130108/90346/1935/2568/10/
006910/20130108/90347/1935/111/20/
006910/20130108/90351/1935/100/20/
006910/20130108/90353/1935/200/20/
006910/20130108/90356/1935/3131/20/
006910/20130108/90400/1935/500/20/
006910/20130108/90402/1935/500/20/
006910/20130108/90403/1935/890/20/
006910/20130108/90403/1935/110/10/
006910/20130108/90403/1935/218/10/
006910/20130108/90403/1935/200/10/
006910/20130108/90405/1935/472/20/
006910/20130108/90406/1935/500/10/
006910/20130108/90412/1930/622/10/
006910/20130108/90431/1935/375/20/
006910/20130108/90434/1935/1000/20/
006910/20130108/90438/1935/100/20/
006910/20130108/90442/1935/2494/20/
006910/20130108/90445/1935/300/20/
006910/20130108/90445/1935/1062/20/
006910/20130108/90446/1935/300/20/
006910/20130108/90447/1930/12597/10/
006910/20130108/90457/1925/3205/10/
006910/20130108/90504/1925/841/10/
006910/20130108/90506/1925/1000/20/
006910/20130108/90511/1925/1041/20/
006910/20130108/90512/1925/319/20/
006910/20130108/90521/1925/1080/10/
006910/20130108/90521/1925/100/10/
006910/20130108/90538/1930/547/20/
006910/20130108/90539/1930/1000/20/
006910/20130108/90541/1930/199/20/
006910/20130108/90547/1925/3002/10/
006910/20130108/90605/1925/514/10/
006910/20130108/90622/1925/369/10/
006910/20130108/90631/1930/1937/20/
006910/20130108/90632/1930/200/10/
006910/20130108/90634/1930/1500/10/
006910/20130108/90635/1930/136/10/
006910/20130108/90657/1925/348/10/
006910/20130108/90703/1930/258/20/
006910/20130108/90705/1925/500/10/
006910/20130108/90714/1930/6003/20/
006910/20130108/90716/1930/250/20/
006910/20130108/90728/1930/202/20/
006910/20130108/90737/1930/874/20/
006910/20130108/90742/1935/501/20/
006910/20130108/90743/1935/2001/20/
006910/20130108/90746/1935/530/20/
006910/20130108/90751/1935/327/20/
006910/20130108/90753/1935/501/20/
006910/20130108/90754/1935/100/20/
006910/20130108/90800/1935/419/20/
006910/20130108/90801/1935/81/20/
006910/20130108/90802/1935/500/20/
006910/20130108/90816/1930/604/10/
006910/20130108/90832/1930/601/10/
006910/20130108/90834/1930/2787/10/
006910/20130108/90906/1925/215/10/
006910/20130108/90938/1930/2061/20/
006910/20130108/90958/1930/124/20/
006910/20130108/91015/1930/100/20/
006910/20130108/91041/1930/326/20/
006910/20130108/91102/1930/1500/20/
006910/20130108/91125/1930/1890/20/
006910/20130108/91134/1930/201/10/
006910/20130108/91143/1930/1191/10/
006910/20130108/91145/1925/5300/10/
006910/20130108/91154/1925/1839/10/
006910/20130108/91155/1925/1133/10/
006910/20130108/91157/1925/2071/10/
006910/20130108/91202/1925/84/10/
006910/20130108/91202/1925/500/10/
006910/20130108/91204/1925/1014/10/
006910/20130108/91204/1925/914/10/
006910/20130108/91227/1920/1052/10/
006910/20130108/91229/1920/3263/10/
006910/20130108/91304/1920/2793/20/
006910/20130108/91308/1920/301/10/
006910/20130108/91349/1925/114/10/
006910/20130108/91404/1930/2306/20/
006910/20130108/91417/1930/100/10/
006910/20130108/91432/1930/1731/10/
006910/20130108/91511/1925/2000/10/
006910/20130108/91521/1925/1871/10/
006910/20130108/91521/1925/2088/10/
006910/20130108/91531/1925/114/10/
006910/20130108/91531/1925/594/10/
006910/20130108/91627/1920/256/10/
006910/20130108/91640/1920/1000/10/
006910/20130108/91702/1925/514/20/
006910/20130108/91713/1925/1385/10/
006910/20130108/91735/1925/257/10/
006910/20130108/91811/1920/1068/10/
006910/20130108/91821/1925/854/20/
006910/20130108/91828/1925/146/10/
006910/20130108/91858/1925/3854/20/
006910/20130108/91913/1925/146/10/
006910/20130108/92046/1920/2963/10/
006910/20130108/92111/1920/123/20/
006910/20130108/92141/1920/127/20/
006910/20130108/92201/1920/200/20/
006910/20130108/92209/1920/200/20/
006910/20130108/92217/1920/133/20/
006910/20130108/92251/1920/167/10/
006910/20130108/92251/1915/389/10/
006910/20130108/92307/1915/326/10/
006910/20130108/92349/1920/500/20/
006910/20130108/92411/1920/100/20/
006910/20130108/92425/1920/114/20/
006910/20130108/92610/1925/100/20/
006910/20130108/92724/1925/798/20/
006910/20130108/92903/1920/758/10/
006910/20130108/92916/1920/200/10/
006910/20130108/93024/1925/1030/20/
006910/20130108/93033/1925/300/20/
006910/20130108/93147/1920/1270/10/
006910/20130108/93159/1920/500/10/
006910/20130108/93204/1920/94/10/
006910/20130108/93204/1915/906/10/
006910/20130108/93214/1920/100/10/
006910/20130108/93229/1920/100/20/
006910/20130108/93324/1920/844/10/
006910/20130108/93333/1920/1000/10/
006910/20130108/93408/1920/4000/10/
006910/20130108/93505/1920/3033/10/
006910/20130108/93531/1920/134/10/
006910/20130108/93609/1920/395/20/
006910/20130108/93616/1920/155/10/
006910/20130108/93748/1920/684/20/
006910/20130108/93756/1920/2023/20/
006910/20130108/93846/1920/1070/10/
006910/20130108/93853/1920/679/10/
006910/20130108/93924/1920/704/20/
006910/20130108/93928/1920/101/20/
006910/20130108/93929/1920/100/20/
006910/20130108/93952/1920/595/20/
006910/20130108/94011/1920/816/10/
006910/20130108/94154/1920/2428/20/
006910/20130108/94231/1920/100/10/
006910/20130108/94256/1920/2000/10/
006910/20130108/94347/1925/1010/20/
006910/20130108/94457/1925/100/20/
006910/20130108/94517/1920/1300/10/
006910/20130108/94526/1925/3000/20/
006910/20130108/94606/1925/279/10/
006910/20130108/94620/1920/100/10/
006910/20130108/94629/1925/227/20/
006910/20130108/94637/1925/1000/10/
006910/20130108/94642/1930/81/20/
006910/20130108/94647/1930/5074/20/
006910/20130108/94648/1930/1008/20/
006910/20130108/94648/1930/3501/20/
006910/20130108/94648/1930/2602/20/
006910/20130108/94652/1935/85/20/
006910/20130108/94653/1935/81/20/
006910/20130108/94654/1935/122/20/
006910/20130108/94656/1930/81/10/
006910/20130108/94657/1935/7749/20/
006910/20130108/94657/1935/1643/20/
006910/20130108/94658/1940/258/20/
006910/20130108/94701/1940/81/20/
006910/20130108/94703/1940/85/20/
006910/20130108/94704/1940/507/20/
006910/20130108/94706/1940/87/20/
006910/20130108/94708/1940/84/20/
006910/20130108/94711/1940/82/20/
006910/20130108/94714/1935/567/10/
006910/20130108/94716/1940/90/20/
006910/20130108/94716/1940/1002/20/
006910/20130108/94718/1940/81/20/
006910/20130108/94719/1940/1010/20/
006910/20130108/94720/1940/948/20/
006910/20130108/94721/1945/267/20/
006910/20130108/94721/1940/104/10/
006910/20130108/94723/1940/81/20/
006910/20130108/94724/1940/380/20/
006910/20130108/94727/1935/81/10/
006910/20130108/94729/1940/81/20/
006910/20130108/94731/1940/90/20/
006910/20130108/94733/1940/209/20/
006910/20130108/94735/1935/81/10/
006910/20130108/94736/1940/138/20/
006910/20130108/94738/1940/155/20/
006910/20130108/94738/1940/91/20/
006910/20130108/94740/1940/83/20/
006910/20130108/94742/1940/127/20/
006910/20130108/94745/1940/365/20/
006910/20130108/94748/1940/90/20/
006910/20130108/94751/1940/81/20/
006910/20130108/94753/1940/83/20/
006910/20130108/94757/1940/85/20/
006910/20130108/94757/1935/5041/10/
006910/20130108/94757/1930/3616/10/
006910/20130108/94759/1940/633/20/
006910/20130108/94804/1930/1275/10/
006910/20130108/94804/1930/1018/20/
006910/20130108/94805/1930/100/20/
006910/20130108/94808/1930/720/20/
006910/20130108/94813/1930/211/20/
006910/20130108/94814/1935/112/20/
006910/20130108/94815/1930/500/10/
006910/20130108/94819/1930/1000/10/
006910/20130108/94830/1930/245/10/
006910/20130108/94836/1930/239/20/
006910/20130108/94921/1925/3911/10/
006910/20130108/94931/1925/590/20/
006910/20130108/95001/1930/777/20/
006910/20130108/95107/1930/838/20/
006910/20130108/95116/1930/1002/20/
006910/20130108/95140/1930/1948/20/
006910/20130108/95209/1930/500/20/
006910/20130108/95243/1930/1006/10/
006910/20130108/95311/1930/301/10/
006910/20130108/95354/1930/1943/10/
006910/20130108/95457/1930/165/20/
006910/20130108/95547/1930/1975/20/
006910/20130108/95729/1930/390/10/
006910/20130108/100121/1930/2023/20/
006910/20130108/100254/1925/2052/10/
006910/20130108/100308/1930/2022/20/
006910/20130108/100318/1930/98/20/
006910/20130108/100331/1930/100/20/
006910/20130108/100348/1930/113/20/
006910/20130108/100349/1930/1176/20/
006910/20130108/100434/1930/500/20/
006910/20130108/100453/1930/1620/20/
006910/20130108/100453/1935/3430/20/
006910/20130108/100542/1930/113/10/
006910/20130108/100602/1930/128/10/
006910/20130108/100634/1930/409/10/
006910/20130108/100725/1925/795/10/
006910/20130108/100857/1930/118/20/
006910/20130108/100900/1925/3000/10/
006910/20130108/100907/1925/173/10/
006910/20130108/100936/1925/150/20/
006910/20130108/101033/1920/230/10/
006910/20130108/101050/1920/6562/10/
006910/20130108/101056/1920/2625/10/
006910/20130108/101057/1920/561/10/
006910/20130108/101058/1915/518/10/
006910/20130108/101144/1915/500/10/
006910/20130108/101204/1920/100/20/
006910/20130108/101211/1920/100/20/
006910/20130108/101212/1915/3000/10/
006910/20130108/101213/1920/1000/20/
006910/20130108/101223/1920/140/20/
006910/20130108/101232/1920/99/20/
006910/20130108/101236/1920/101/10/
006910/20130108/101240/1920/899/20/
006910/20130108/101323/1920/116/10/
006910/20130108/101353/1920/400/20/
006910/20130108/101425/1915/2000/10/
006910/20130108/101517/1915/166/10/
006910/20130108/101610/1915/320/10/
006910/20130108/101615/1915/500/10/
006910/20130108/101855/1920/1041/20/
006910/20130108/101900/1920/500/20/
006910/20130108/101905/1920/300/20/
006910/20130108/101920/1915/720/10/
006910/20130108/102154/1920/2040/20/
006910/20130108/102247/1915/520/10/
006910/20130108/102249/1920/868/20/
006910/20130108/102249/1925/2083/20/
006910/20130108/102307/1925/2049/10/
006910/20130108/102654/1925/89/20/
006910/20130108/102711/1925/150/20/
006910/20130108/102718/1925/286/20/
006910/20130108/102735/1930/100/20/
006910/20130108/102756/1930/100/20/
006910/20130108/102812/1925/1516/10/
006910/20130108/102812/1920/2756/10/
006910/20130108/102854/1920/653/20/
006910/20130108/102918/1925/85/20/
006910/20130108/103006/1925/117/20/
006910/20130108/103145/1920/997/10/
006910/20130108/103202/1920/300/10/
006910/20130108/103411/1920/465/10/
006910/20130108/103415/1920/250/10/
006910/20130108/103534/1920/510/10/
006910/20130108/103655/1920/2858/10/
006910/20130108/103702/1920/921/20/
006910/20130108/103723/1920/1079/10/
006910/20130108/103740/1915/3090/10/
006910/20130108/104051/1915/3909/10/
006910/20130108/104110/1915/1000/10/
006910/20130108/104303/1915/216/10/
006910/20130108/104355/1915/490/10/
006910/20130108/104446/1915/661/10/
006910/20130108/104636/1915/90/20/
006910/20130108/104708/1910/1816/10/
006910/20130108/104757/1915/240/20/
006910/20130108/104805/1910/200/10/
006910/20130108/105040/1910/583/10/
006910/20130108/105056/1915/400/20/
006910/20130108/105146/1915/2693/20/
006910/20130108/105327/1915/100/10/
006910/20130108/105713/1920/8014/20/
006910/20130108/105759/1920/505/20/
006910/20130108/105848/1920/200/20/
006910/20130108/105850/1920/100/20/
006910/20130108/105958/1920/1180/20/
006910/20130108/110153/1920/251/10/
006910/20130108/110351/1920/862/10/
006910/20130108/110624/1920/153/20/
006910/20130108/110924/1920/126/10/
006910/20130108/110946/1920/874/20/
006910/20130108/111024/1920/100/10/
006910/20130108/111043/1920/166/10/
006910/20130108/111142/1915/100/10/
006910/20130108/111204/1915/5210/10/
006910/20130108/111204/1910/4602/10/
006910/20130108/111230/1910/100/20/
006910/20130108/111245/1910/88/20/
006910/20130108/112136/1915/146/10/
006910/20130108/112150/1910/2080/10/
006910/20130108/112150/1905/520/10/
006910/20130108/112422/1920/101/20/
006910/20130108/112926/1915/320/10/
006910/20130108/113001/1915/85/20/
006910/20130108/113001/1920/1176/20/
006910/20130108/113001/1925/2982/20/
006910/20130108/113001/1930/811/20/
006910/20130108/113043/1930/731/20/
006910/20130108/113103/1930/179/20/
006910/20130108/113338/1930/552/20/
006910/20130108/113350/1930/300/20/
006910/20130108/113701/1925/210/10/
006910/20130108/113826/1930/210/20/
006910/20130108/113842/1930/1000/20/
006910/20130108/113908/1930/1000/20/
006910/20130108/113911/1935/1000/20/
006910/20130108/113922/1930/200/10/
006910/20130108/113955/1930/100/10/
006910/20130108/114039/1935/588/20/
006910/20130108/114041/1935/300/20/
006910/20130108/114047/1935/200/20/
006910/20130108/114106/1935/114/20/
006910/20130108/114108/1935/1250/20/
006910/20130108/114109/1935/310/20/
006910/20130108/114116/1935/1000/20/
006910/20130108/114124/1935/500/20/
006910/20130108/114134/1935/166/20/
006910/20130108/114141/1935/148/10/
006910/20130108/114316/1930/106/10/
006910/20130108/114336/1930/3000/10/
006910/20130108/114408/1930/194/10/
006910/20130108/114413/1930/420/20/
006910/20130108/114514/1925/94/10/
006910/20130108/114543/1925/1413/10/
006910/20130108/114555/1925/2200/20/
006910/20130108/114637/1925/85/10/
006910/20130108/114816/1925/88/10/
006910/20130108/114901/1920/1820/10/
006910/20130108/115112/1925/714/20/
006910/20130108/115253/1925/300/10/
006910/20130108/115505/1930/3109/20/
006910/20130108/115542/1930/416/10/
006910/20130108/120139/1925/191/10/
006910/20130108/120139/1920/2083/10/
006910/20130108/120139/1915/3063/10/
006910/20130108/120543/1915/285/10/
006910/20130108/120951/1915/1200/10/
006910/20130108/122100/1920/1024/10/
006910/20130108/122136/1920/400/20/
006910/20130108/122253/1915/1139/10/
006910/20130108/122346/1915/3028/20/
006910/20130108/122433/1915/129/20/
006910/20130108/122440/1915/138/20/
006910/20130108/122441/1915/351/20/
006910/20130108/122441/1915/215/20/
006910/20130108/122556/1920/140/20/
006910/20130108/123342/1915/248/10/
006910/20130108/123452/1915/200/10/
006910/20130108/123826/1915/256/10/
006910/20130108/123859/1920/301/20/
006910/20130108/123956/1920/528/20/
006910/20130108/124054/1920/265/20/
006910/20130108/124126/1920/200/20/
006910/20130108/124403/1920/282/10/
006910/20130108/125150/1925/164/20/
006910/20130108/125224/1925/1030/20/
006910/20130108/125227/1925/1765/20/
006910/20130108/125255/1930/716/20/
006910/20130108/125256/1930/122/20/
006910/20130108/125311/1930/532/20/
006910/20130108/125351/1930/2020/20/
006910/20130108/125353/1930/103/20/
006910/20130108/125430/1930/1202/20/
006910/20130108/125430/1930/2500/10/
006910/20130108/125514/1935/114/20/
006910/20130108/125528/1935/3279/20/
006910/20130108/125530/1935/802/20/
006910/20130108/125543/1935/490/20/
006910/20130108/125550/1935/150/20/
006910/20130108/125618/1930/1050/10/
006910/20130108/125620/1935/600/20/
006910/20130108/125638/1935/3800/20/
006910/20130108/125641/1935/402/20/
006910/20130108/125712/1930/615/10/
006910/20130108/125746/1935/334/20/
006910/20130108/125825/1930/501/10/
006910/20130108/125834/1930/6001/10/
006910/20130108/125837/1930/1001/10/
006910/20130108/125846/1930/301/10/
006910/20130108/125849/1930/574/10/
006910/20130108/125903/1930/158/10/
006910/20130108/125907/1930/115/10/
006910/20130108/125908/1930/100/10/
006910/20130108/125909/1930/100/10/
006910/20130108/125909/1930/100/10/
006910/20130108/125912/1930/114/10/
006910/20130108/125916/1930/114/10/
006910/20130108/125926/1930/128/10/
006910/20130108/125945/1925/145/10/
006910/20130108/125949/1925/100/10/
006910/20130108/125954/1925/1535/10/
006910/20130108/130056/1920/102/10/
006910/20130108/130106/1920/100/10/
006910/20130108/130119/1925/466/20/
006910/20130108/130119/1930/840/20/
006910/20130108/130807/1930/101/20/
006910/20130108/130841/1925/100/10/
006910/20130108/130846/1930/300/20/
006910/20130108/130949/1925/1030/10/
006910/20130108/131006/1925/700/10/
006910/20130108/131023/1925/320/10/
006910/20130108/131057/1925/220/10/
006910/20130108/131442/1925/151/20/
006910/20130108/131642/1920/1005/10/
006910/20130108/132126/1920/518/10/
006910/20130108/132236/1920/447/10/
006910/20130108/132332/1920/503/20/
006910/20130108/132448/1920/84/20/
006910/20130108/132520/1920/83/10/
006910/20130108/132914/1920/334/10/
006910/20130108/132914/1915/716/10/
006910/20130108/133035/1915/896/10/
006910/20130108/133158/1915/1261/10/
006910/20130108/133227/1915/88/20/
006910/20130108/133245/1915/206/20/
006910/20130108/133652/1915/358/10/
006910/20130108/133749/1915/792/10/
006910/20130108/133855/1915/1503/20/
006910/20130108/133944/1915/220/10/
006910/20130108/134504/1920/756/20/
006910/20130108/135350/1915/938/10/
006910/20130108/135704/1920/3123/20/
006910/20130108/135714/1920/2014/20/
006910/20130108/135716/1920/688/20/
006910/20130108/135851/1920/1222/10/
006910/20130108/135924/1920/128/10/
006910/20130108/135959/1920/162/10/
006910/20130108/140033/1920/361/20/
006910/20130108/140135/1920/556/20/
006910/20130108/140301/1925/275/20/
006910/20130108/140423/1930/527/20/
006910/20130108/140435/1925/500/10/
006910/20130108/140809/1925/1014/10/
006910/20130108/140832/1925/100/10/
006910/20130108/140842/1925/100/10/
006910/20130108/141052/1925/500/10/
006910/20130108/141100/1925/1000/10/
006910/20130108/141241/1925/203/10/
006910/20130108/141241/1920/1507/10/
006910/20130108/141632/1920/1955/10/
006910/20130108/141633/1925/805/20/
006910/20130108/141633/1925/795/10/
006910/20130108/142031/1920/1020/10/
006910/20130108/142031/1915/7432/10/
006910/20130108/142031/1910/6680/10/
006910/20130108/142437/1910/7016/10/
006910/20130108/142437/1905/727/10/
006910/20130108/142523/1915/1000/10/
006910/20130108/142737/1905/6152/10/
006910/20130108/142737/1900/6903/10/
006910/20130108/143121/1910/303/10/
006910/20130108/143121/1910/100/10/
006910/20130108/143121/1910/301/10/
006910/20130108/143217/1910/334/10/
006910/20130108/143241/1910/1321/10/
006910/20130108/143448/1905/751/10/
006910/20130108/143502/1905/2600/10/
006910/20130108/143546/1905/1044/10/
006910/20130108/143853/1905/1343/10/
006910/20130108/144003/1905/2502/10/
006910/20130108/144126/1905/204/10/
006910/20130108/144134/1905/2716/10/
006910/20130108/144146/1905/919/10/
006910/20130108/144154/1910/138/20/
006910/20130108/144242/1905/94/10/
006910/20130108/144323/1905/218/10/
006910/20130108/144434/1905/1103/10/
006910/20130108/144644/1905/381/20/
006910/20130108/144715/1905/641/20/
006910/20130108/144729/1910/501/20/
006910/20130108/144747/1910/359/20/
006910/20130108/144813/1900/500/10/
006910/20130108/144848/1910/1104/20/
006910/20130108/144848/1910/1000/20/
006910/20130108/144848/1910/939/20/
006910/20130108/144849/1910/638/20/
006910/20130108/144851/1910/263/10/
006910/20130108/144853/1910/1016/20/
006910/20130108/144854/1910/1085/10/
006910/20130108/144854/1915/186/20/
006910/20130108/144908/1910/1101/10/
006910/20130108/144911/1910/781/20/
006910/20130108/144916/1910/100/20/
006910/20130108/144934/1905/1007/10/
006910/20130108/144934/1900/3000/10/
006910/20130108/144936/1910/801/20/
006910/20130108/144955/1910/1002/20/
006910/20130108/150000/1900/28496/10/
