006910/20121217/90000/1765/3510/10/
006910/20121217/90000/1770/300/20/
006910/20121217/90003/1770/101/20/
006910/20121217/90009/1770/456/10/
006910/20121217/90132/1770/107/20/
006910/20121217/90152/1780/108/20/
006910/20121217/90152/1770/470/10/
006910/20121217/90159/1770/3000/10/
006910/20121217/90159/1770/197/10/
006910/20121217/90159/1765/153/10/
006910/20121217/90201/1765/659/10/
006910/20121217/90214/1760/703/10/
006910/20121217/90313/1775/101/20/
006910/20121217/90313/1780/219/20/
006910/20121217/90313/1785/345/20/
006910/20121217/90328/1765/1260/20/
006910/20121217/90337/1780/100/20/
006910/20121217/90458/1775/141/20/
006910/20121217/90502/1775/259/20/
006910/20121217/90515/1775/425/10/
006910/20121217/90548/1775/151/10/
006910/20121217/90619/1775/524/10/
006910/20121217/90636/1775/1617/10/
006910/20121217/90636/1770/105/10/
006910/20121217/90701/1775/101/10/
006910/20121217/90708/1775/1000/10/
006910/20121217/90715/1775/82/20/
006910/20121217/90721/1775/218/20/
006910/20121217/90748/1780/1000/20/
006910/20121217/90756/1780/1476/20/
006910/20121217/90803/1780/100/10/
006910/20121217/90818/1780/500/10/
006910/20121217/90820/1780/300/10/
006910/20121217/90823/1785/1300/20/
006910/20121217/90828/1785/200/10/
006910/20121217/90830/1785/500/10/
006910/20121217/90830/1780/210/10/
006910/20121217/90859/1785/201/20/
006910/20121217/90923/1790/1531/20/
006910/20121217/90928/1790/100/10/
006910/20121217/90928/1790/379/10/
006910/20121217/90934/1790/305/20/
006910/20121217/90957/1790/1100/20/
006910/20121217/90958/1790/172/20/
006910/20121217/91009/1790/316/10/
006910/20121217/91011/1795/834/20/
006910/20121217/91027/1795/1565/20/
006910/20121217/91031/1795/2826/10/
006910/20121217/91042/1790/523/10/
006910/20121217/91048/1790/1010/20/
006910/20121217/91102/1790/641/20/
006910/20121217/91123/1790/196/10/
006910/20121217/91128/1790/500/20/
006910/20121217/91129/1790/84/20/
006910/20121217/91139/1790/416/10/
006910/20121217/91147/1790/385/20/
006910/20121217/91154/1790/115/10/
006910/20121217/91208/1790/295/20/
006910/20121217/91211/1790/100/10/
006910/20121217/91232/1795/1605/20/
006910/20121217/91256/1790/471/10/
006910/20121217/91303/1785/3292/10/
006910/20121217/91326/1785/500/20/
006910/20121217/91351/1780/310/10/
006910/20121217/91414/1780/100/10/
006910/20121217/91439/1785/121/20/
006910/20121217/91443/1785/1685/20/
006910/20121217/91448/1780/520/10/
006910/20121217/91545/1785/149/20/
006910/20121217/91622/1790/101/20/
006910/20121217/91649/1785/2371/10/
006910/20121217/91649/1780/2203/10/
006910/20121217/91717/1775/388/10/
006910/20121217/91725/1770/1622/10/
006910/20121217/91803/1770/134/20/
006910/20121217/91823/1770/1001/10/
006910/20121217/91909/1765/84/10/
006910/20121217/91917/1765/471/10/
006910/20121217/91927/1765/129/20/
006910/20121217/91944/1770/1442/20/
006910/20121217/92020/1775/162/20/
006910/20121217/92143/1780/420/20/
006910/20121217/92223/1780/500/20/
006910/20121217/92243/1780/169/20/
006910/20121217/92259/1785/750/20/
006910/20121217/92310/1790/118/20/
006910/20121217/92414/1780/780/10/
006910/20121217/92650/1775/928/10/
006910/20121217/92709/1770/1050/10/
006910/20121217/92746/1770/779/10/
006910/20121217/92814/1770/230/10/
006910/20121217/92916/1770/107/10/
006910/20121217/92931/1770/1196/10/
006910/20121217/93038/1775/1124/20/
006910/20121217/93116/1775/1743/20/
006910/20121217/93116/1780/257/20/
006910/20121217/93213/1780/2200/20/
006910/20121217/93218/1780/1566/20/
006910/20121217/93325/1780/160/20/
006910/20121217/93358/1770/235/10/
006910/20121217/93438/1770/1020/10/
006910/20121217/93516/1780/700/20/
006910/20121217/93559/1780/1104/20/
006910/20121217/93725/1775/96/10/
006910/20121217/93737/1770/2714/10/
006910/20121217/93822/1770/300/20/
006910/20121217/93939/1765/906/10/
006910/20121217/93956/1760/3615/10/
006910/20121217/93956/1760/1330/10/
006910/20121217/94006/1755/1300/10/
006910/20121217/94009/1755/2969/10/
006910/20121217/94026/1755/2282/10/
006910/20121217/94047/1755/103/10/
006910/20121217/94118/1760/164/20/
006910/20121217/94236/1755/3287/10/
006910/20121217/94258/1760/100/20/
006910/20121217/94336/1755/195/10/
006910/20121217/94353/1755/88/20/
006910/20121217/94433/1755/552/20/
006910/20121217/94509/1755/600/20/
006910/20121217/94510/1755/810/20/
006910/20121217/94528/1755/188/20/
006910/20121217/94528/1755/312/10/
006910/20121217/94623/1755/301/10/
006910/20121217/94628/1755/709/10/
006910/20121217/94655/1760/101/20/
006910/20121217/94728/1755/847/10/
006910/20121217/94759/1750/301/10/
006910/20121217/94859/1755/836/20/
006910/20121217/94903/1755/1200/20/
006910/20121217/94913/1755/1305/10/
006910/20121217/94934/1755/109/10/
006910/20121217/95041/1760/741/20/
006910/20121217/95042/1760/376/10/
006910/20121217/95310/1760/353/10/
006910/20121217/95716/1760/140/20/
006910/20121217/95918/1755/692/10/
006910/20121217/100206/1755/2056/10/
006910/20121217/100341/1755/301/10/
006910/20121217/100445/1760/282/10/
006910/20121217/100629/1760/201/20/
006910/20121217/100730/1760/122/10/
006910/20121217/100926/1760/481/10/
006910/20121217/101011/1760/1000/10/
006910/20121217/101027/1760/100/10/
006910/20121217/101118/1755/236/10/
006910/20121217/101401/1755/211/10/
006910/20121217/101434/1760/177/20/
006910/20121217/101706/1755/1227/10/
006910/20121217/102135/1755/2625/10/
006910/20121217/102203/1755/250/10/
006910/20121217/102328/1760/113/20/
006910/20121217/102401/1755/2600/10/
006910/20121217/102414/1755/550/10/
006910/20121217/102421/1760/144/20/
006910/20121217/102424/1760/89/20/
006910/20121217/102426/1760/81/20/
006910/20121217/102429/1760/84/20/
006910/20121217/102430/1760/265/20/
006910/20121217/102430/1765/3374/20/
006910/20121217/102432/1770/90/20/
006910/20121217/102434/1765/81/10/
006910/20121217/102436/1770/1348/20/
006910/20121217/102438/1775/81/20/
006910/20121217/102440/1775/154/20/
006910/20121217/102440/1775/2001/20/
006910/20121217/102441/1775/979/20/
006910/20121217/102441/1780/832/20/
006910/20121217/102444/1785/91/20/
006910/20121217/102444/1785/1701/20/
006910/20121217/102444/1785/1331/10/
006910/20121217/102446/1790/625/20/
006910/20121217/102448/1790/81/20/
006910/20121217/102450/1790/81/20/
006910/20121217/102452/1785/83/20/
006910/20121217/102454/1785/85/20/
006910/20121217/102456/1785/1051/20/
006910/20121217/102456/1785/357/20/
006910/20121217/102458/1785/81/20/
006910/20121217/102501/1785/83/20/
006910/20121217/102503/1780/82/20/
006910/20121217/102503/1780/412/20/
006910/20121217/102504/1780/533/20/
006910/20121217/102506/1775/81/10/
006910/20121217/102506/1775/1562/10/
006910/20121217/102508/1775/82/20/
006910/20121217/102510/1775/81/20/
006910/20121217/102511/1775/583/20/
006910/20121217/102511/1780/1112/20/
006910/20121217/102513/1780/82/20/
006910/20121217/102515/1780/93/20/
006910/20121217/102517/1780/84/20/
006910/20121217/102519/1780/88/20/
006910/20121217/102519/1780/171/20/
006910/20121217/102520/1780/519/20/
006910/20121217/102520/1780/232/20/
006910/20121217/102520/1780/88/20/
006910/20121217/102522/1780/3077/20/
006910/20121217/102524/1785/82/20/
006910/20121217/102526/1785/239/20/
006910/20121217/102527/1785/1076/20/
006910/20121217/102529/1785/454/20/
006910/20121217/102529/1790/1139/20/
006910/20121217/102530/1790/977/20/
006910/20121217/102530/1790/287/20/
006910/20121217/102533/1795/97/20/
006910/20121217/102533/1795/103/20/
006910/20121217/102533/1795/516/20/
006910/20121217/102534/1795/2015/20/
006910/20121217/102534/1795/1664/20/
006910/20121217/102537/1800/579/20/
006910/20121217/102538/1795/964/10/
006910/20121217/102539/1795/122/20/
006910/20121217/102541/1795/3019/20/
006910/20121217/102541/1795/1001/20/
006910/20121217/102542/1795/86/20/
006910/20121217/102543/1795/503/20/
006910/20121217/102546/1790/743/10/
006910/20121217/102546/1790/114/20/
006910/20121217/102548/1790/599/20/
006910/20121217/102548/1790/1735/20/
006910/20121217/102549/1785/2405/10/
006910/20121217/102549/1785/510/10/
006910/20121217/102552/1785/236/10/
006910/20121217/102556/1785/3020/10/
006910/20121217/102559/1785/549/10/
006910/20121217/102601/1785/3001/10/
006910/20121217/102602/1785/243/10/
006910/20121217/102609/1790/6033/20/
006910/20121217/102613/1790/600/10/
006910/20121217/102617/1790/3000/10/
006910/20121217/102618/1790/2548/10/
006910/20121217/102625/1790/500/20/
006910/20121217/102643/1780/1335/10/
006910/20121217/102652/1775/4252/10/
006910/20121217/102655/1775/669/10/
006910/20121217/102659/1775/1004/20/
006910/20121217/102703/1775/1000/20/
006910/20121217/102707/1775/222/20/
006910/20121217/102718/1775/110/20/
006910/20121217/102722/1775/90/10/
006910/20121217/102726/1780/666/20/
006910/20121217/102726/1790/2651/20/
006910/20121217/102727/1795/480/20/
006910/20121217/102737/1795/355/20/
006910/20121217/102744/1790/212/10/
006910/20121217/102752/1790/219/10/
006910/20121217/102826/1780/206/10/
006910/20121217/102829/1780/1000/10/
006910/20121217/102841/1780/504/10/
006910/20121217/102845/1780/1544/10/
006910/20121217/102845/1775/1047/10/
006910/20121217/102851/1780/500/10/
006910/20121217/102905/1780/500/10/
006910/20121217/102909/1780/2129/20/
006910/20121217/103205/1780/972/10/
006910/20121217/103227/1780/119/10/
006910/20121217/103246/1780/344/10/
006910/20121217/103309/1785/211/20/
006910/20121217/103316/1790/1117/20/
006910/20121217/103325/1790/332/20/
006910/20121217/103339/1795/669/20/
006910/20121217/103347/1790/450/10/
006910/20121217/103352/1790/321/10/
006910/20121217/103415/1790/1331/20/
006910/20121217/103423/1795/3255/20/
006910/20121217/103424/1790/2000/10/
006910/20121217/103424/1795/431/20/
006910/20121217/103442/1795/729/20/
006910/20121217/103447/1795/500/20/
006910/20121217/103501/1795/100/20/
006910/20121217/103526/1795/3540/20/
006910/20121217/103531/1795/501/20/
006910/20121217/103540/1795/2001/20/
006910/20121217/103544/1795/1000/20/
006910/20121217/103601/1795/835/20/
006910/20121217/103602/1795/3000/20/
006910/20121217/103602/1795/678/20/
006910/20121217/103622/1795/500/10/
006910/20121217/103622/1800/334/20/
006910/20121217/103626/1800/200/20/
006910/20121217/103632/1795/319/10/
006910/20121217/103633/1795/121/20/
006910/20121217/103647/1795/954/10/
006910/20121217/103647/1795/93/10/
006910/20121217/103649/1795/100/10/
006910/20121217/103655/1795/500/10/
006910/20121217/103657/1800/100/20/
006910/20121217/103704/1800/603/20/
006910/20121217/103739/1795/500/10/
006910/20121217/103748/1795/110/10/
006910/20121217/103750/1800/4815/20/
006910/20121217/103759/1800/200/20/
006910/20121217/103800/1800/500/20/
006910/20121217/103802/1800/100/20/
006910/20121217/103803/1800/500/20/
006910/20121217/103803/1800/2336/20/
006910/20121217/103804/1800/351/20/
006910/20121217/103804/1800/513/20/
006910/20121217/103805/1800/112/20/
006910/20121217/103813/1800/443/20/
006910/20121217/103817/1805/1980/20/
006910/20121217/103818/1810/100/20/
006910/20121217/103829/1810/544/20/
006910/20121217/103832/1810/1108/20/
006910/20121217/103833/1810/1000/20/
006910/20121217/103833/1810/200/20/
006910/20121217/103834/1810/901/20/
006910/20121217/103837/1810/200/20/
006910/20121217/103842/1810/200/20/
006910/20121217/103852/1810/100/20/
006910/20121217/103853/1810/1000/20/
006910/20121217/103912/1805/280/10/
006910/20121217/103928/1800/1460/10/
006910/20121217/103932/1800/1020/20/
006910/20121217/103950/1795/596/10/
006910/20121217/104021/1795/200/10/
006910/20121217/104032/1800/1000/20/
006910/20121217/104112/1795/3191/10/
006910/20121217/104203/1790/1501/10/
006910/20121217/104242/1795/972/20/
006910/20121217/104247/1795/832/20/
006910/20121217/104323/1800/255/20/
006910/20121217/104334/1800/428/20/
006910/20121217/104357/1800/4508/20/
006910/20121217/104419/1805/85/20/
006910/20121217/104426/1805/150/20/
006910/20121217/104502/1805/134/20/
006910/20121217/104503/1805/200/20/
006910/20121217/104504/1805/1500/20/
006910/20121217/104505/1805/380/20/
006910/20121217/104509/1805/335/20/
006910/20121217/104510/1805/198/20/
006910/20121217/104517/1805/100/20/
006910/20121217/104521/1805/87/20/
006910/20121217/104600/1805/179/20/
006910/20121217/104611/1805/1939/20/
006910/20121217/104711/1800/3396/10/
006910/20121217/104717/1800/313/10/
006910/20121217/104718/1800/291/10/
006910/20121217/104812/1800/408/20/
006910/20121217/104820/1805/100/20/
006910/20121217/104822/1805/1000/20/
006910/20121217/104827/1805/155/20/
006910/20121217/104831/1805/300/20/
006910/20121217/104843/1810/358/20/
006910/20121217/104921/1805/125/10/
006910/20121217/104940/1805/105/10/
006910/20121217/104948/1805/408/10/
006910/20121217/104950/1805/250/10/
006910/20121217/104954/1805/100/10/
006910/20121217/104956/1805/152/10/
006910/20121217/105001/1805/362/10/
006910/20121217/105002/1805/100/10/
006910/20121217/105004/1805/501/10/
006910/20121217/105010/1805/203/10/
006910/20121217/105042/1805/109/10/
006910/20121217/105046/1805/1092/10/
006910/20121217/105051/1805/500/20/
006910/20121217/105052/1805/408/20/
006910/20121217/105119/1805/102/10/
006910/20121217/105126/1805/248/10/
006910/20121217/105150/1805/768/10/
006910/20121217/105221/1805/237/10/
006910/20121217/105229/1805/1139/10/
006910/20121217/105255/1805/873/20/
006910/20121217/105314/1805/506/10/
006910/20121217/105321/1805/1019/10/
006910/20121217/105354/1805/82/10/
006910/20121217/105357/1805/1000/20/
006910/20121217/105428/1805/1240/20/
006910/20121217/105434/1805/480/10/
006910/20121217/105515/1810/2222/20/
006910/20121217/105554/1810/100/20/
006910/20121217/105558/1810/200/20/
006910/20121217/105600/1810/3000/20/
006910/20121217/105631/1810/700/20/
006910/20121217/105633/1810/355/20/
006910/20121217/105752/1805/98/10/
006910/20121217/105755/1805/340/10/
006910/20121217/105811/1805/100/10/
006910/20121217/105844/1805/91/10/
006910/20121217/105851/1805/2186/10/
006910/20121217/105851/1800/1560/10/
006910/20121217/105903/1805/210/10/
006910/20121217/105931/1805/300/20/
006910/20121217/110256/1800/129/10/
006910/20121217/110327/1800/100/10/
006910/20121217/110443/1800/1805/10/
006910/20121217/110445/1800/300/10/
006910/20121217/110507/1795/2575/10/
006910/20121217/110507/1790/470/10/
006910/20121217/110703/1795/112/10/
006910/20121217/110745/1790/2001/10/
006910/20121217/110759/1790/1502/10/
006910/20121217/110801/1790/200/10/
006910/20121217/110801/1790/1500/10/
006910/20121217/110803/1790/380/10/
006910/20121217/110803/1790/1304/10/
006910/20121217/110924/1795/1535/20/
006910/20121217/110935/1795/139/20/
006910/20121217/111105/1800/802/20/
006910/20121217/111105/1800/1250/20/
006910/20121217/111110/1800/742/20/
006910/20121217/111119/1800/1000/20/
006910/20121217/111137/1795/3025/10/
006910/20121217/111232/1795/1010/20/
006910/20121217/111253/1795/500/20/
006910/20121217/111622/1795/407/20/
006910/20121217/111643/1795/300/20/
006910/20121217/111646/1795/258/20/
006910/20121217/111733/1795/101/10/
006910/20121217/111756/1790/1000/10/
006910/20121217/111928/1790/661/20/
006910/20121217/111928/1795/1839/20/
006910/20121217/112009/1785/3149/10/
006910/20121217/112306/1785/168/10/
006910/20121217/112346/1800/2601/20/
006910/20121217/112421/1790/199/10/
006910/20121217/112424/1790/313/10/
006910/20121217/112424/1785/187/10/
006910/20121217/112855/1795/136/20/
006910/20121217/112856/1790/100/10/
006910/20121217/112909/1795/270/20/
006910/20121217/112946/1790/500/10/
006910/20121217/112954/1790/150/10/
006910/20121217/113001/1790/998/10/
006910/20121217/113324/1790/95/20/
006910/20121217/113502/1790/429/10/
006910/20121217/113502/1785/1644/10/
006910/20121217/113510/1785/590/10/
006910/20121217/113520/1785/1108/10/
006910/20121217/113622/1785/501/10/
006910/20121217/113658/1785/403/10/
006910/20121217/113658/1780/233/10/
006910/20121217/113848/1795/81/20/
006910/20121217/113859/1795/1489/20/
006910/20121217/113913/1795/81/10/
006910/20121217/113927/1795/81/10/
006910/20121217/113931/1800/526/20/
006910/20121217/113932/1800/1228/20/
006910/20121217/113936/1800/810/20/
006910/20121217/113947/1800/130/10/
006910/20121217/113952/1805/1116/20/
006910/20121217/113952/1805/102/10/
006910/20121217/113955/1805/120/10/
006910/20121217/113957/1805/664/10/
006910/20121217/113957/1805/458/10/
006910/20121217/113957/1800/323/10/
006910/20121217/113957/1800/225/10/
006910/20121217/113957/1800/141/10/
006910/20121217/113957/1795/127/10/
006910/20121217/113958/1795/131/10/
006910/20121217/113958/1800/2000/20/
006910/20121217/113958/1810/3000/20/
006910/20121217/113959/1810/996/20/
006910/20121217/114000/1795/81/10/
006910/20121217/114043/1800/278/10/
006910/20121217/114103/1800/393/10/
006910/20121217/114118/1795/1290/10/
006910/20121217/114119/1795/207/10/
006910/20121217/114119/1795/128/10/
006910/20121217/114143/1795/280/20/
006910/20121217/114222/1790/500/10/
006910/20121217/114222/1780/458/10/
006910/20121217/114227/1780/500/10/
006910/20121217/114356/1795/179/20/
006910/20121217/114523/1785/500/10/
006910/20121217/114709/1785/501/10/
006910/20121217/114914/1790/602/20/
006910/20121217/114929/1790/202/20/
006910/20121217/115207/1790/288/20/
006910/20121217/115334/1795/783/20/
006910/20121217/115451/1800/213/20/
006910/20121217/115458/1800/2000/10/
006910/20121217/115524/1805/527/20/
006910/20121217/115527/1805/1162/10/
006910/20121217/115537/1810/124/20/
006910/20121217/115610/1805/879/20/
006910/20121217/115636/1800/2053/10/
006910/20121217/120124/1800/215/10/
006910/20121217/120151/1800/200/10/
006910/20121217/120238/1805/1420/20/
006910/20121217/120238/1810/1948/20/
006910/20121217/120400/1800/193/10/
006910/20121217/120501/1810/759/20/
006910/20121217/120513/1815/103/20/
006910/20121217/120532/1810/710/10/
006910/20121217/120542/1810/3445/10/
006910/20121217/120600/1815/117/20/
006910/20121217/120620/1810/510/10/
006910/20121217/120650/1810/1100/10/
006910/20121217/120656/1810/333/10/
006910/20121217/120711/1810/450/10/
006910/20121217/120719/1810/690/10/
006910/20121217/121043/1805/700/10/
006910/20121217/121053/1805/1128/10/
006910/20121217/121109/1805/100/10/
006910/20121217/121111/1805/151/10/
006910/20121217/121221/1805/419/20/
006910/20121217/121227/1805/81/10/
006910/20121217/121327/1805/138/20/
006910/20121217/121355/1805/96/10/
006910/20121217/121426/1805/1724/10/
006910/20121217/121436/1805/186/20/
006910/20121217/121457/1805/306/20/
006910/20121217/121540/1805/210/10/
006910/20121217/121546/1805/141/20/
006910/20121217/121703/1805/549/10/
006910/20121217/122148/1805/730/10/
006910/20121217/122205/1805/1943/10/
006910/20121217/122222/1800/5389/10/
006910/20121217/122444/1800/612/20/
006910/20121217/122801/1800/823/10/
006910/20121217/122906/1800/866/10/
006910/20121217/123037/1795/5475/10/
006910/20121217/123148/1800/100/20/
006910/20121217/123152/1800/3701/10/
006910/20121217/123528/1790/600/10/
006910/20121217/124422/1800/881/20/
006910/20121217/124431/1800/550/10/
006910/20121217/124522/1805/1000/20/
006910/20121217/124539/1800/2000/10/
006910/20121217/124622/1800/185/10/
006910/20121217/124832/1800/382/10/
006910/20121217/125225/1800/524/10/
006910/20121217/125250/1800/249/10/
006910/20121217/125419/1795/640/10/
006910/20121217/125531/1795/600/10/
006910/20121217/125902/1795/232/10/
006910/20121217/125922/1795/827/10/
006910/20121217/130505/1795/343/10/
006910/20121217/130534/1790/100/10/
006910/20121217/130549/1790/400/10/
006910/20121217/130558/1790/500/10/
006910/20121217/130946/1790/674/10/
006910/20121217/130952/1790/1327/20/
006910/20121217/131943/1790/921/10/
006910/20121217/132003/1790/3361/10/
006910/20121217/132015/1790/850/10/
006910/20121217/132219/1790/147/10/
006910/20121217/132719/1785/2019/10/
006910/20121217/132721/1785/700/10/
006910/20121217/132810/1785/90/10/
006910/20121217/132848/1785/1810/10/
006910/20121217/133005/1790/81/20/
006910/20121217/133117/1790/893/20/
006910/20121217/133237/1790/114/10/
006910/20121217/133305/1785/2500/10/
006910/20121217/134014/1785/1658/10/
006910/20121217/134248/1785/3901/10/
006910/20121217/134431/1785/366/10/
006910/20121217/134525/1780/753/10/
006910/20121217/134724/1780/137/10/
006910/20121217/134732/1780/200/10/
006910/20121217/134841/1785/251/20/
006910/20121217/135228/1780/436/10/
006910/20121217/135349/1780/513/10/
006910/20121217/135356/1780/882/10/
006910/20121217/135423/1780/1847/10/
006910/20121217/135426/1780/480/10/
006910/20121217/135757/1780/5545/10/
006910/20121217/135935/1780/203/10/
006910/20121217/135935/1775/1439/10/
006910/20121217/140008/1780/350/10/
006910/20121217/140021/1780/100/20/
006910/20121217/140337/1780/300/20/
006910/20121217/140403/1780/100/20/
006910/20121217/140440/1775/2622/10/
006910/20121217/140655/1775/976/10/
006910/20121217/140914/1775/301/10/
006910/20121217/141114/1775/3500/10/
006910/20121217/141243/1775/3733/10/
006910/20121217/141251/1775/1221/10/
006910/20121217/141301/1775/578/10/
006910/20121217/141323/1770/669/10/
006910/20121217/141400/1775/150/20/
006910/20121217/141434/1775/2050/20/
006910/20121217/141444/1775/93/20/
006910/20121217/141512/1775/180/20/
006910/20121217/141552/1780/1320/20/
006910/20121217/141724/1790/111/20/
006910/20121217/142057/1790/608/20/
006910/20121217/142122/1790/111/20/
006910/20121217/142303/1790/500/20/
006910/20121217/142831/1790/640/20/
006910/20121217/142924/1780/2500/10/
006910/20121217/142951/1780/296/10/
006910/20121217/143052/1780/1312/10/
006910/20121217/143052/1775/288/10/
006910/20121217/143100/1775/1102/10/
006910/20121217/143143/1780/730/20/
006910/20121217/143520/1780/1642/10/
006910/20121217/143557/1775/167/10/
006910/20121217/143558/1780/200/20/
006910/20121217/143728/1780/214/20/
006910/20121217/143951/1775/2240/10/
006910/20121217/143956/1775/7036/10/
006910/20121217/144030/1770/771/10/
006910/20121217/144030/1775/300/20/
006910/20121217/144036/1770/544/10/
006910/20121217/144219/1770/959/10/
006910/20121217/144253/1770/600/10/
006910/20121217/144314/1775/331/20/
006910/20121217/144339/1775/499/20/
006910/20121217/144343/1775/100/20/
006910/20121217/144408/1775/2850/20/
006910/20121217/144410/1775/300/20/
006910/20121217/144411/1775/500/20/
006910/20121217/144417/1775/100/20/
006910/20121217/144425/1775/205/20/
006910/20121217/144432/1775/200/20/
006910/20121217/144600/1775/232/10/
006910/20121217/144615/1775/533/10/
006910/20121217/144640/1770/500/10/
006910/20121217/144644/1775/967/20/
006910/20121217/144646/1775/174/10/
006910/20121217/144729/1775/359/10/
006910/20121217/144741/1775/146/20/
006910/20121217/144755/1775/628/10/
006910/20121217/144758/1775/1226/10/
006910/20121217/144803/1775/225/20/
006910/20121217/144803/1775/527/20/
006910/20121217/144815/1780/937/20/
006910/20121217/144845/1780/200/10/
006910/20121217/144858/1780/308/20/
006910/20121217/144940/1780/256/20/
006910/20121217/144947/1780/500/10/
006910/20121217/144956/1780/200/10/
006910/20121217/150000/1770/24024/10/
