010670/20121214/91044/5620/301/10/
010670/20121214/91107/5610/500/10/
010670/20121214/91107/5610/151/10/
010670/20121214/91112/5600/248/10/
010670/20121214/91233/5640/99/20/
010670/20121214/91239/5640/471/10/
010670/20121214/91331/5660/102/20/
010670/20121214/91405/5670/110/20/
010670/20121214/91409/5670/353/20/
010670/20121214/91409/5680/2145/20/
010670/20121214/91427/5690/149/20/
010670/20121214/91435/5680/436/10/
010670/20121214/91503/5680/500/20/
010670/20121214/91511/5680/500/20/
010670/20121214/91517/5680/200/20/
010670/20121214/91600/5690/83/20/
010670/20121214/91600/5700/101/20/
010670/20121214/91600/5710/102/20/
010670/20121214/91600/5720/101/20/
010670/20121214/91600/5730/113/20/
010670/20121214/91627/5720/507/20/
010670/20121214/91641/5720/170/20/
010670/20121214/91714/5720/2380/20/
010670/20121214/91719/5730/500/20/
010670/20121214/91720/5720/500/10/
010670/20121214/91742/5730/500/20/
010670/20121214/91801/5730/500/20/
010670/20121214/91815/5720/150/10/
010670/20121214/91815/5720/294/10/
010670/20121214/91815/5710/100/10/
010670/20121214/91823/5710/500/20/
010670/20121214/91828/5710/100/20/
010670/20121214/91843/5730/1006/20/
010670/20121214/91849/5730/191/20/
010670/20121214/91851/5730/109/10/
010670/20121214/91851/5710/1391/10/
010670/20121214/91855/5740/100/20/
010670/20121214/91900/5740/310/20/
010670/20121214/91919/5730/114/20/
010670/20121214/91942/5710/120/10/
010670/20121214/92028/5720/85/20/
010670/20121214/92047/5720/1012/20/
010670/20121214/92047/5720/1240/20/
010670/20121214/92049/5720/1000/10/
010670/20121214/92049/5700/600/10/
010670/20121214/92049/5690/286/10/
010670/20121214/92102/5730/1000/20/
010670/20121214/92118/5710/302/10/
010670/20121214/92118/5700/500/10/
010670/20121214/92205/5730/1003/20/
010670/20121214/92214/5700/300/10/
010670/20121214/92214/5690/1700/10/
010670/20121214/92313/5700/908/20/
010670/20121214/92315/5700/94/10/
010670/20121214/92326/5690/1307/10/
010670/20121214/92326/5680/1743/10/
010670/20121214/92358/5680/2000/10/
010670/20121214/92400/5680/1001/10/
010670/20121214/92402/5680/150/10/
010670/20121214/92411/5680/351/20/
010670/20121214/92441/5700/1450/20/
010670/20121214/92442/5680/192/10/
010670/20121214/92503/5710/472/20/
010670/20121214/92503/5720/1836/20/
010670/20121214/92508/5700/343/10/
010670/20121214/92508/5680/157/10/
010670/20121214/92712/5700/670/20/
010670/20121214/92812/5680/540/10/
010670/20121214/93114/5680/376/10/
010670/20121214/93127/5670/648/10/
010670/20121214/93129/5670/352/10/
010670/20121214/93140/5660/100/10/
010670/20121214/93150/5680/100/20/
010670/20121214/93306/5680/233/10/
010670/20121214/93329/5680/500/10/
010670/20121214/93435/5680/203/10/
010670/20121214/93526/5660/133/10/
010670/20121214/93607/5660/500/10/
010670/20121214/93632/5660/495/10/
010670/20121214/93702/5660/518/20/
010670/20121214/94119/5660/372/20/
010670/20121214/94218/5660/93/20/
010670/20121214/94332/5660/101/10/
010670/20121214/94416/5660/1008/10/
010670/20121214/94421/5650/602/10/
010670/20121214/94611/5660/118/20/
010670/20121214/94614/5660/560/20/
010670/20121214/94848/5660/111/10/
010670/20121214/95219/5650/366/10/
010670/20121214/95235/5640/187/10/
010670/20121214/95246/5640/101/10/
010670/20121214/95252/5640/300/10/
010670/20121214/95255/5640/256/10/
010670/20121214/95301/5630/100/10/
010670/20121214/95412/5640/201/20/
010670/20121214/95659/5610/964/10/
010670/20121214/95659/5600/1658/10/
010670/20121214/95722/5600/142/10/
010670/20121214/95754/5550/454/10/
010670/20121214/95754/5540/508/10/
010670/20121214/95754/5530/2039/10/
010670/20121214/100109/5550/566/10/
010670/20121214/100236/5600/123/20/
010670/20121214/100330/5620/318/20/
010670/20121214/100601/5620/84/10/
010670/20121214/100703/5610/304/10/
010670/20121214/100712/5600/1000/10/
010670/20121214/100906/5600/404/10/
010670/20121214/101121/5600/250/20/
010670/20121214/101156/5600/900/20/
010670/20121214/102031/5600/1001/20/
010670/20121214/102053/5600/400/20/
010670/20121214/102112/5600/240/20/
010670/20121214/102123/5600/100/20/
010670/20121214/102141/5580/100/10/
010670/20121214/102159/5580/174/10/
010670/20121214/102215/5570/434/10/
010670/20121214/102228/5570/101/10/
010670/20121214/102235/5560/514/10/
010670/20121214/102301/5560/600/10/
010670/20121214/102415/5560/301/10/
010670/20121214/102450/5560/291/10/
010670/20121214/102450/5550/1207/10/
010670/20121214/102500/5540/1000/10/
010670/20121214/102510/5530/826/10/
010670/20121214/102529/5530/547/10/
010670/20121214/102529/5520/1453/10/
010670/20121214/102537/5520/200/10/
010670/20121214/102547/5520/300/10/
010670/20121214/102552/5520/250/10/
010670/20121214/102607/5520/298/10/
010670/20121214/102607/5510/2300/10/
010670/20121214/102607/5500/1068/10/
010670/20121214/102621/5500/150/20/
010670/20121214/102626/5500/185/20/
010670/20121214/102650/5470/132/10/
010670/20121214/102650/5460/2168/10/
010670/20121214/102708/5460/100/10/
010670/20121214/102714/5460/101/10/
010670/20121214/102725/5460/100/10/
010670/20121214/102726/5460/101/10/
010670/20121214/102742/5450/100/10/
010670/20121214/102852/5500/176/20/
010670/20121214/103211/5500/541/10/
010670/20121214/103257/5500/605/10/
010670/20121214/103257/5490/396/10/
010670/20121214/103318/5490/600/10/
010670/20121214/103449/5480/500/10/
010670/20121214/103502/5480/200/10/
010670/20121214/103801/5500/1003/10/
010670/20121214/103936/5500/703/10/
010670/20121214/104034/5500/200/10/
010670/20121214/104057/5500/1000/10/
010670/20121214/104955/5530/890/20/
010670/20121214/104955/5540/1000/20/
010670/20121214/105042/5540/100/10/
010670/20121214/105335/5550/108/20/
010670/20121214/105413/5550/412/20/
010670/20121214/105426/5550/388/10/
010670/20121214/105426/5560/615/20/
010670/20121214/105426/5570/385/20/
010670/20121214/105556/5550/2000/10/
010670/20121214/105727/5550/130/10/
010670/20121214/105958/5550/251/10/
010670/20121214/110532/5560/277/20/
010670/20121214/110638/5560/205/20/
010670/20121214/110644/5540/130/10/
010670/20121214/110847/5550/712/10/
010670/20121214/110847/5540/404/10/
010670/20121214/110847/5520/396/10/
010670/20121214/110902/5520/500/10/
010670/20121214/111800/5540/617/10/
010670/20121214/111832/5530/400/10/
010670/20121214/111832/5520/604/10/
010670/20121214/111832/5510/300/10/
010670/20121214/111832/5500/269/10/
010670/20121214/111912/5510/1000/10/
010670/20121214/112153/5550/531/20/
010670/20121214/112700/5520/157/10/
010670/20121214/112854/5520/324/10/
010670/20121214/112854/5510/1640/10/
010670/20121214/112951/5510/541/10/
010670/20121214/113054/5510/525/10/
010670/20121214/113223/5530/113/10/
010670/20121214/113317/5520/100/10/
010670/20121214/113352/5520/304/10/
010670/20121214/113352/5510/1197/10/
010670/20121214/113439/5510/881/10/
010670/20121214/113447/5510/184/10/
010670/20121214/113500/5510/200/20/
010670/20121214/113536/5500/4000/10/
010670/20121214/113554/5500/298/10/
010670/20121214/113721/5500/116/10/
010670/20121214/113749/5500/1005/10/
010670/20121214/113755/5500/4000/10/
010670/20121214/113804/5500/500/10/
010670/20121214/113807/5500/995/10/
010670/20121214/114006/5510/85/10/
010670/20121214/115725/5560/177/20/
010670/20121214/115822/5550/122/10/
010670/20121214/115854/5560/100/20/
010670/20121214/115958/5550/173/10/
010670/20121214/120144/5550/323/20/
010670/20121214/120514/5550/166/10/
010670/20121214/121101/5550/249/10/
010670/20121214/121205/5550/91/10/
010670/20121214/121305/5550/89/10/
010670/20121214/121316/5550/100/10/
010670/20121214/121709/5550/95/10/
010670/20121214/122243/5560/101/20/
010670/20121214/122500/5560/499/20/
010670/20121214/122626/5570/102/20/
010670/20121214/122935/5560/250/10/
010670/20121214/123052/5560/90/10/
010670/20121214/123129/5570/393/20/
010670/20121214/123142/5570/100/10/
010670/20121214/123241/5570/394/20/
010670/20121214/123253/5570/170/10/
010670/20121214/123257/5560/100/10/
010670/20121214/123347/5570/161/10/
010670/20121214/123606/5580/331/20/
010670/20121214/123750/5580/206/10/
010670/20121214/123834/5580/200/10/
010670/20121214/123844/5590/97/20/
010670/20121214/123933/5590/466/20/
010670/20121214/124320/5590/200/20/
010670/20121214/124628/5590/210/20/
010670/20121214/124628/5600/363/20/
010670/20121214/124637/5600/108/20/
010670/20121214/124659/5600/230/20/
010670/20121214/124716/5600/100/20/
010670/20121214/124717/5600/424/20/
010670/20121214/124811/5600/130/10/
010670/20121214/124919/5610/472/20/
010670/20121214/125027/5610/83/20/
010670/20121214/125047/5600/114/10/
010670/20121214/125130/5610/330/20/
010670/20121214/125207/5620/207/20/
010670/20121214/125232/5630/110/20/
010670/20121214/125304/5630/94/10/
010670/20121214/125328/5640/310/20/
010670/20121214/125738/5630/134/10/
010670/20121214/125819/5630/118/20/
010670/20121214/130025/5630/82/20/
010670/20121214/130419/5630/501/10/
010670/20121214/130440/5640/321/20/
010670/20121214/130456/5650/144/20/
010670/20121214/130509/5650/500/20/
010670/20121214/130512/5650/100/20/
010670/20121214/130653/5650/532/20/
010670/20121214/130720/5640/500/10/
010670/20121214/130803/5640/501/10/
010670/20121214/131025/5650/316/20/
010670/20121214/131230/5640/1350/10/
010670/20121214/131403/5630/124/10/
010670/20121214/131405/5630/309/10/
010670/20121214/131424/5630/90/10/
010670/20121214/131424/5620/2193/10/
010670/20121214/131424/5600/805/10/
010670/20121214/131446/5600/750/20/
010670/20121214/131707/5600/571/20/
010670/20121214/131737/5600/500/20/
010670/20121214/131743/5600/91/20/
010670/20121214/132451/5600/165/10/
010670/20121214/132505/5590/650/10/
010670/20121214/132505/5580/2350/10/
010670/20121214/132718/5580/101/10/
010670/20121214/132750/5580/299/10/
010670/20121214/132753/5570/600/10/
010670/20121214/132805/5560/130/10/
010670/20121214/132805/5550/851/10/
010670/20121214/132941/5550/465/10/
010670/20121214/133055/5550/367/10/
010670/20121214/133131/5550/202/20/
010670/20121214/133141/5550/115/20/
010670/20121214/133201/5550/226/20/
010670/20121214/133219/5550/144/20/
010670/20121214/133332/5570/200/20/
010670/20121214/133359/5570/85/20/
010670/20121214/133439/5580/200/20/
010670/20121214/133557/5580/751/10/
010670/20121214/133742/5580/250/20/
010670/20121214/133934/5590/1050/20/
010670/20121214/134038/5590/452/10/
010670/20121214/134124/5590/131/20/
010670/20121214/134148/5590/300/20/
010670/20121214/134617/5580/570/10/
010670/20121214/134617/5570/1448/10/
010670/20121214/134756/5580/301/10/
010670/20121214/135413/5570/184/10/
010670/20121214/135526/5570/105/10/
010670/20121214/135548/5570/150/10/
010670/20121214/135634/5560/400/10/
010670/20121214/135644/5560/300/10/
010670/20121214/135706/5560/100/10/
010670/20121214/135735/5560/106/10/
010670/20121214/135735/5550/395/10/
010670/20121214/135744/5550/178/10/
010670/20121214/135806/5550/875/10/
010670/20121214/135829/5550/117/20/
010670/20121214/140131/5580/625/20/
010670/20121214/140458/5590/503/20/
010670/20121214/140516/5590/798/20/
010670/20121214/140541/5600/100/20/
010670/20121214/140552/5600/258/20/
010670/20121214/140632/5600/94/20/
010670/20121214/140711/5610/115/20/
010670/20121214/140711/5620/601/20/
010670/20121214/140719/5620/84/10/
010670/20121214/141019/5600/300/10/
010670/20121214/141234/5590/1227/10/
010670/20121214/141514/5580/594/10/
010670/20121214/141606/5580/118/20/
010670/20121214/142100/5570/1419/10/
010670/20121214/142100/5560/985/10/
010670/20121214/142716/5570/114/20/
010670/20121214/142935/5580/379/20/
010670/20121214/143029/5580/110/10/
010670/20121214/143122/5570/364/10/
010670/20121214/143208/5580/98/20/
010670/20121214/143208/5590/82/20/
010670/20121214/143402/5570/183/10/
010670/20121214/143431/5570/300/10/
010670/20121214/143716/5580/271/20/
010670/20121214/143806/5590/259/20/
010670/20121214/143806/5600/1312/20/
010670/20121214/143827/5600/189/10/
010670/20121214/144006/5600/117/20/
010670/20121214/144012/5600/296/20/
010670/20121214/144022/5600/801/10/
010670/20121214/144125/5600/428/20/
010670/20121214/144125/5610/350/20/
010670/20121214/144125/5620/466/20/
010670/20121214/144136/5620/131/20/
010670/20121214/144648/5600/437/20/
010670/20121214/144701/5600/504/10/
010670/20121214/144705/5600/87/10/
010670/20121214/144837/5600/515/20/
010670/20121214/144859/5600/457/20/
010670/20121214/144902/5600/539/20/
010670/20121214/144908/5600/501/10/
010670/20121214/144913/5600/461/10/
010670/20121214/144918/5600/83/20/
010670/20121214/144932/5600/100/20/
010670/20121214/144932/5610/1100/20/
010670/20121214/144943/5610/202/20/
010670/20121214/150000/5620/4925/20/
