010670/20130111/90000/4980/1839/10/
010670/20130111/90001/5100/500/20/
010670/20130111/90127/5030/100/20/
010670/20130111/90136/5030/100/20/
010670/20130111/90318/5010/231/20/
010670/20130111/90612/5040/656/20/
010670/20130111/90918/5080/351/20/
010670/20130111/90918/5090/150/20/
010670/20130111/91028/5090/366/20/
010670/20130111/91028/5100/134/20/
010670/20130111/91446/5050/444/10/
010670/20130111/91542/5050/501/10/
010670/20130111/91655/5090/301/20/
010670/20130111/92254/5050/1000/10/
010670/20130111/92358/5070/301/20/
010670/20130111/92716/5050/2000/10/
010670/20130111/92726/5050/1000/10/
010670/20130111/92808/5050/93/10/
010670/20130111/92808/5040/1408/10/
010670/20130111/92851/5040/540/10/
010670/20130111/94716/5050/721/20/
010670/20130111/94809/5050/515/20/
010670/20130111/94820/5050/285/10/
010670/20130111/95106/5030/133/10/
010670/20130111/95106/5020/1180/10/
010670/20130111/95552/5020/737/20/
010670/20130111/95724/5020/1284/10/
010670/20130111/100015/5020/85/20/
010670/20130111/100037/5020/132/20/
010670/20130111/100403/5020/286/10/
010670/20130111/100403/5010/1315/10/
010670/20130111/101342/5020/1501/10/
010670/20130111/101408/5020/356/10/
010670/20130111/102651/5030/633/10/
010670/20130111/102651/5020/1322/10/
010670/20130111/102901/5020/497/10/
010670/20130111/102901/5010/624/10/
010670/20130111/102901/5000/196/10/
010670/20130111/104029/5010/218/10/
010670/20130111/104122/5010/801/10/
010670/20130111/104212/5010/501/10/
010670/20130111/104642/5000/656/10/
010670/20130111/105357/5000/1934/10/
010670/20130111/110739/5000/299/10/
010670/20130111/110748/5000/219/20/
010670/20130111/111057/5000/83/20/
010670/20130111/111432/5000/198/20/
010670/20130111/111453/5000/301/10/
010670/20130111/111459/5000/147/10/
010670/20130111/111517/4990/800/10/
010670/20130111/111555/4995/500/20/
010670/20130111/111625/4995/153/20/
010670/20130111/114233/5020/210/20/
010670/20130111/120917/5020/116/20/
010670/20130111/121759/5000/261/10/
010670/20130111/122359/5020/128/20/
010670/20130111/122428/5020/113/20/
010670/20130111/122434/5020/150/10/
010670/20130111/122643/5020/110/10/
010670/20130111/122643/5010/91/10/
010670/20130111/122746/5010/901/10/
010670/20130111/123025/5010/201/10/
010670/20130111/124213/5020/172/20/
010670/20130111/125053/5020/262/20/
010670/20130111/130255/5020/285/10/
010670/20130111/130325/5020/232/10/
010670/20130111/131339/5030/553/20/
010670/20130111/131341/5030/208/10/
010670/20130111/131544/5030/292/10/
010670/20130111/131732/5020/112/10/
010670/20130111/132816/5040/81/20/
010670/20130111/132913/5020/300/10/
010670/20130111/133026/5020/85/10/
010670/20130111/133147/5010/90/10/
010670/20130111/133547/5010/570/10/
010670/20130111/133547/5000/1460/10/
010670/20130111/134058/5000/148/10/
010670/20130111/134058/4995/356/10/
010670/20130111/134058/4990/990/10/
010670/20130111/134058/4980/832/10/
010670/20130111/134428/5020/1003/20/
010670/20130111/134554/5010/1001/10/
010670/20130111/135125/5000/332/10/
010670/20130111/135138/5000/92/10/
010670/20130111/135527/5000/1023/10/
010670/20130111/135822/4990/1506/10/
010670/20130111/135953/4990/502/10/
010670/20130111/140014/4990/97/10/
010670/20130111/140131/4990/503/20/
010670/20130111/140307/4985/2199/10/
010670/20130111/140343/4985/550/10/
010670/20130111/140622/4995/181/20/
010670/20130111/140643/4985/400/10/
010670/20130111/140706/4985/200/20/
010670/20130111/140853/4985/124/10/
010670/20130111/141010/4990/452/20/
010670/20130111/141045/4995/208/20/
010670/20130111/141108/5000/345/20/
010670/20130111/141146/4985/649/10/
010670/20130111/141256/4990/100/10/
010670/20130111/141409/4990/128/20/
010670/20130111/141518/4985/360/10/
010670/20130111/141621/4990/153/20/
010670/20130111/142046/4985/104/10/
010670/20130111/142049/4985/100/10/
010670/20130111/142143/4980/176/10/
010670/20130111/142215/4980/2020/10/
010670/20130111/142215/4980/1454/10/
010670/20130111/142223/4975/359/10/
010670/20130111/142315/4970/301/10/
010670/20130111/142316/4970/720/10/
010670/20130111/142629/4980/91/10/
010670/20130111/142644/4965/244/10/
010670/20130111/142750/4965/312/10/
010670/20130111/142858/4965/206/10/
010670/20130111/143001/4960/190/10/
010670/20130111/143204/4955/342/10/
010670/20130111/143426/4955/425/10/
010670/20130111/143603/4960/253/10/
010670/20130111/143603/4955/747/10/
010670/20130111/143622/4950/208/10/
010670/20130111/143929/4960/124/10/
010670/20130111/143940/4980/546/20/
010670/20130111/144045/4960/83/10/
010670/20130111/144045/4955/217/10/
010670/20130111/144131/4955/251/10/
010670/20130111/144150/4950/251/10/
010670/20130111/144152/4975/81/20/
010670/20130111/144152/4975/219/10/
010670/20130111/144356/4950/211/10/
010670/20130111/144420/4950/1601/10/
010670/20130111/144603/4940/126/10/
010670/20130111/144829/4930/592/10/
010670/20130111/150000/4965/1759/10/
