010670/20130226/90000/5910/1221/10/
010670/20130226/90001/5910/362/10/
010670/20130226/90001/5900/638/10/
010670/20130226/90029/5900/430/10/
010670/20130226/90041/5950/202/20/
010670/20130226/90246/5920/500/10/
010670/20130226/90246/5900/1800/10/
010670/20130226/90320/5900/500/10/
010670/20130226/90453/5950/501/20/
010670/20130226/90511/5950/307/20/
010670/20130226/90517/5950/500/10/
010670/20130226/90540/5950/268/10/
010670/20130226/90644/5910/501/10/
010670/20130226/90644/5900/950/10/
010670/20130226/90933/5900/409/10/
010670/20130226/90936/5900/318/10/
010670/20130226/91027/5890/300/20/
010670/20130226/91107/5880/309/10/
010670/20130226/91329/5870/549/10/
010670/20130226/91339/5870/103/10/
010670/20130226/91339/5860/1252/10/
010670/20130226/91339/5850/2091/10/
010670/20130226/91340/5840/190/10/
010670/20130226/91348/5830/110/10/
010670/20130226/91350/5830/90/20/
010670/20130226/91350/5850/410/20/
010670/20130226/91431/5830/97/10/
010670/20130226/91431/5820/91/10/
010670/20130226/91431/5810/682/10/
010670/20130226/91431/5800/1180/10/
010670/20130226/91431/5800/303/10/
010670/20130226/91443/5800/981/10/
010670/20130226/91448/5800/180/20/
010670/20130226/91459/5830/702/20/
010670/20130226/91552/5830/300/20/
010670/20130226/91555/5830/228/10/
010670/20130226/91601/5830/171/20/
010670/20130226/91607/5830/101/20/
010670/20130226/91607/5850/1094/20/
010670/20130226/91633/5850/806/10/
010670/20130226/91648/5850/600/20/
010670/20130226/91653/5850/200/20/
010670/20130226/91823/5850/120/20/
010670/20130226/91836/5850/500/20/
010670/20130226/91851/5850/100/20/
010670/20130226/91949/5840/170/10/
010670/20130226/92008/5850/354/20/
010670/20130226/92022/5850/400/20/
010670/20130226/92022/5840/232/10/
010670/20130226/92022/5830/1163/10/
010670/20130226/92022/5820/2511/10/
010670/20130226/92022/5810/2271/10/
010670/20130226/92022/5800/1823/10/
010670/20130226/92123/5810/314/10/
010670/20130226/92123/5800/2656/10/
010670/20130226/92143/5790/1046/10/
010670/20130226/92212/5800/4012/10/
010670/20130226/92236/5820/211/20/
010670/20130226/92238/5800/2000/10/
010670/20130226/92257/5800/1010/10/
010670/20130226/92302/5800/1000/10/
010670/20130226/92316/5800/230/10/
010670/20130226/92318/5800/270/20/
010670/20130226/92330/5800/231/10/
010670/20130226/92330/5790/768/10/
010670/20130226/92330/5780/1002/10/
010670/20130226/92343/5780/1002/10/
010670/20130226/92501/5800/181/20/
010670/20130226/92514/5790/2537/10/
010670/20130226/92518/5790/122/10/
010670/20130226/92518/5790/2103/10/
010670/20130226/92523/5790/316/20/
010670/20130226/92524/5790/484/10/
010670/20130226/92544/5780/500/10/
010670/20130226/92545/5790/100/20/
010670/20130226/92606/5780/923/10/
010670/20130226/92606/5780/853/20/
010670/20130226/92616/5780/157/10/
010670/20130226/92622/5780/700/20/
010670/20130226/92631/5770/500/10/
010670/20130226/92635/5770/1551/10/
010670/20130226/92644/5770/131/10/
010670/20130226/92644/5760/869/10/
010670/20130226/92647/5760/270/10/
010670/20130226/92647/5750/2337/10/
010670/20130226/92649/5740/240/10/
010670/20130226/92659/5730/847/10/
010670/20130226/92659/5730/353/20/
010670/20130226/92705/5730/500/10/
010670/20130226/92709/5730/157/20/
010670/20130226/92728/5740/170/20/
010670/20130226/92730/5740/100/20/
010670/20130226/92730/5740/118/20/
010670/20130226/92731/5730/1000/10/
010670/20130226/92731/5740/99/20/
010670/20130226/92732/5740/500/20/
010670/20130226/92733/5740/99/20/
010670/20130226/92734/5730/402/10/
010670/20130226/92808/5770/150/20/
010670/20130226/92809/5750/470/10/
010670/20130226/92809/5740/376/10/
010670/20130226/92809/5730/1154/10/
010670/20130226/92832/5740/378/10/
010670/20130226/92832/5730/424/10/
010670/20130226/92846/5730/166/10/
010670/20130226/92855/5740/312/10/
010670/20130226/92855/5730/1152/10/
010670/20130226/92855/5720/263/10/
010670/20130226/92909/5750/105/10/
010670/20130226/92914/5750/150/10/
010670/20130226/92922/5750/850/20/
010670/20130226/93014/5770/150/20/
010670/20130226/93024/5770/797/20/
010670/20130226/93025/5770/203/20/
010670/20130226/93035/5770/799/10/
010670/20130226/93036/5770/203/20/
010670/20130226/93055/5770/874/10/
010670/20130226/93057/5770/153/20/
010670/20130226/93103/5770/102/10/
010670/20130226/93112/5770/410/10/
010670/20130226/93119/5770/94/20/
010670/20130226/93126/5780/500/10/
010670/20130226/93129/5780/535/20/
010670/20130226/93131/5780/372/10/
010670/20130226/93152/5780/128/20/
010670/20130226/93202/5780/569/20/
010670/20130226/93205/5780/500/20/
010670/20130226/93205/5780/495/20/
010670/20130226/93216/5780/119/20/
010670/20130226/93218/5780/671/10/
010670/20130226/93222/5780/329/20/
010670/20130226/93223/5780/171/10/
010670/20130226/93223/5750/1603/10/
010670/20130226/93223/5740/850/10/
010670/20130226/93223/5730/1176/10/
010670/20130226/93516/5780/452/20/
010670/20130226/93536/5770/850/10/
010670/20130226/93537/5770/170/10/
010670/20130226/93556/5770/850/20/
010670/20130226/93633/5780/530/20/
010670/20130226/93659/5780/89/10/
010670/20130226/93701/5780/980/20/
010670/20130226/93717/5780/520/10/
010670/20130226/93725/5780/487/20/
010670/20130226/93802/5780/559/20/
010670/20130226/93808/5780/441/20/
010670/20130226/93904/5790/302/20/
010670/20130226/94112/5820/139/20/
010670/20130226/94318/5790/441/10/
010670/20130226/94533/5800/162/20/
010670/20130226/94743/5800/265/10/
010670/20130226/94743/5790/413/10/
010670/20130226/94758/5810/500/20/
010670/20130226/94852/5810/720/20/
010670/20130226/94912/5820/91/20/
010670/20130226/94924/5820/101/20/
010670/20130226/94934/5820/1000/20/
010670/20130226/95018/5820/292/20/
010670/20130226/95204/5830/118/20/
010670/20130226/95239/5820/241/10/
010670/20130226/95352/5830/501/20/
010670/20130226/95413/5830/1000/20/
010670/20130226/95419/5830/100/20/
010670/20130226/95444/5840/1008/20/
010670/20130226/95445/5840/199/20/
010670/20130226/95447/5840/905/10/
010670/20130226/95514/5840/95/20/
010670/20130226/95633/5860/164/20/
010670/20130226/95705/5860/92/20/
010670/20130226/95908/5850/447/20/
010670/20130226/100118/5850/154/10/
010670/20130226/100157/5860/131/20/
010670/20130226/100221/5870/110/20/
010670/20130226/100231/5860/100/10/
010670/20130226/100234/5860/1042/10/
010670/20130226/100321/5860/118/10/
010670/20130226/100410/5850/731/10/
010670/20130226/100710/5860/101/20/
010670/20130226/101518/5860/150/20/
010670/20130226/101823/5840/500/10/
010670/20130226/102031/5860/213/20/
010670/20130226/102038/5860/787/10/
010670/20130226/102316/5870/301/20/
010670/20130226/102721/5850/301/10/
010670/20130226/102807/5850/101/10/
010670/20130226/102944/5850/203/10/
010670/20130226/103034/5850/301/10/
010670/20130226/103139/5850/100/20/
010670/20130226/103157/5850/2001/10/
010670/20130226/103217/5850/699/10/
010670/20130226/103528/5850/362/10/
010670/20130226/103559/5850/310/10/
010670/20130226/103911/5850/500/20/
010670/20130226/103930/5850/120/20/
010670/20130226/104133/5840/708/10/
010670/20130226/104212/5840/425/10/
010670/20130226/104219/5840/154/10/
010670/20130226/104219/5840/686/20/
010670/20130226/104246/5830/537/10/
010670/20130226/104246/5830/449/20/
010670/20130226/104317/5850/270/10/
010670/20130226/104727/5890/156/20/
010670/20130226/105032/5890/119/20/
010670/20130226/110102/5850/849/10/
010670/20130226/110512/5850/829/10/
010670/20130226/110702/5850/134/10/
010670/20130226/110710/5840/103/10/
010670/20130226/110710/5820/218/10/
010670/20130226/110952/5830/500/10/
010670/20130226/111401/5820/374/10/
010670/20130226/111654/5850/535/20/
010670/20130226/111654/5870/660/20/
010670/20130226/111654/5880/1806/20/
010670/20130226/112031/5860/101/20/
010670/20130226/112031/5870/371/20/
010670/20130226/113404/5820/1458/10/
010670/20130226/113615/5820/675/10/
010670/20130226/113726/5820/1300/10/
010670/20130226/113739/5810/3588/10/
010670/20130226/113953/5810/101/20/
010670/20130226/114151/5800/5044/10/
010670/20130226/114243/5800/1009/20/
010670/20130226/114312/5800/100/20/
010670/20130226/114325/5800/202/20/
010670/20130226/114327/5800/300/20/
010670/20130226/114352/5800/3151/20/
010670/20130226/114357/5800/201/20/
010670/20130226/114404/5800/1001/20/
010670/20130226/114416/5810/170/20/
010670/20130226/115115/5820/219/20/
010670/20130226/115206/5800/1122/10/
010670/20130226/115248/5800/101/20/
010670/20130226/115332/5800/132/20/
010670/20130226/115449/5790/455/10/
010670/20130226/115449/5780/1324/10/
010670/20130226/115449/5770/1442/10/
010670/20130226/115835/5780/191/10/
010670/20130226/115837/5800/200/20/
010670/20130226/120109/5780/103/10/
010670/20130226/120110/5780/290/10/
010670/20130226/120110/5770/1563/10/
010670/20130226/120110/5760/4092/10/
010670/20130226/120110/5750/5387/10/
010670/20130226/120110/5740/4555/10/
010670/20130226/120110/5730/3043/10/
010670/20130226/120110/5720/6557/10/
010670/20130226/120110/5710/2506/10/
010670/20130226/120237/5740/461/10/
010670/20130226/120237/5730/158/10/
010670/20130226/120237/5720/379/10/
010670/20130226/120237/5710/255/10/
010670/20130226/120319/5750/387/10/
010670/20130226/120334/5750/120/10/
010670/20130226/120355/5770/90/20/
010670/20130226/120521/5770/210/20/
010670/20130226/120521/5790/300/20/
010670/20130226/120646/5750/457/10/
010670/20130226/120646/5750/506/10/
010670/20130226/120705/5740/1000/10/
010670/20130226/120750/5730/2001/10/
010670/20130226/120759/5730/134/10/
010670/20130226/120759/5720/1718/10/
010670/20130226/120759/5710/4321/10/
010670/20130226/120759/5700/13504/10/
010670/20130226/120800/5700/323/20/
010670/20130226/120826/5700/415/20/
010670/20130226/120829/5700/101/20/
010670/20130226/120832/5700/2000/20/
010670/20130226/120839/5700/201/20/
010670/20130226/120848/5700/86/20/
010670/20130226/120907/5730/501/20/
010670/20130226/120919/5730/501/20/
010670/20130226/120953/5710/81/10/
010670/20130226/121223/5740/83/20/
010670/20130226/121227/5740/179/20/
010670/20130226/121237/5750/110/20/
010670/20130226/121253/5760/90/20/
010670/20130226/121322/5760/99/20/
010670/20130226/121344/5750/527/10/
010670/20130226/121352/5740/159/20/
010670/20130226/121409/5730/500/10/
010670/20130226/121409/5720/618/10/
010670/20130226/121409/5710/782/10/
010670/20130226/121443/5720/1000/10/
010670/20130226/121451/5720/1398/20/
010670/20130226/121632/5750/153/10/
010670/20130226/121847/5730/235/10/
010670/20130226/121847/5720/500/10/
010670/20130226/121922/5730/201/20/
010670/20130226/121944/5720/1005/10/
010670/20130226/121957/5710/504/10/
010670/20130226/122039/5710/804/10/
010670/20130226/122039/5700/700/10/
010670/20130226/122134/5720/430/10/
010670/20130226/122342/5770/417/20/
010670/20130226/122342/5780/579/20/
010670/20130226/122800/5750/493/20/
010670/20130226/122800/5750/559/10/
010670/20130226/122829/5740/111/20/
010670/20130226/122829/5750/498/20/
010670/20130226/122829/5760/429/20/
010670/20130226/123053/5760/373/20/
010670/20130226/123107/5760/114/20/
010670/20130226/123132/5760/213/10/
010670/20130226/123300/5750/164/10/
010670/20130226/123337/5770/577/10/
010670/20130226/123525/5770/301/10/
010670/20130226/123546/5760/435/10/
010670/20130226/123558/5770/319/10/
010670/20130226/124221/5760/1073/10/
010670/20130226/124403/5760/7000/10/
010670/20130226/124408/5760/2000/10/
010670/20130226/124639/5760/639/10/
010670/20130226/124701/5760/327/10/
010670/20130226/124701/5750/87/10/
010670/20130226/125716/5750/502/10/
010670/20130226/125759/5750/567/10/
010670/20130226/125759/5750/684/10/
010670/20130226/125915/5740/202/10/
010670/20130226/125942/5740/115/10/
010670/20130226/130213/5740/328/10/
010670/20130226/130213/5730/545/10/
010670/20130226/130534/5730/1235/10/
010670/20130226/131316/5730/84/10/
010670/20130226/131330/5730/527/10/
010670/20130226/131433/5750/301/20/
010670/20130226/131608/5770/201/20/
010670/20130226/131608/5770/335/10/
010670/20130226/131721/5780/301/20/
010670/20130226/131955/5760/270/10/
010670/20130226/131955/5750/787/10/
010670/20130226/131957/5750/232/10/
010670/20130226/132041/5750/1043/10/
010670/20130226/132052/5740/1129/10/
010670/20130226/132154/5730/2185/10/
010670/20130226/132230/5730/500/20/
010670/20130226/132234/5730/501/20/
010670/20130226/132317/5720/1831/10/
010670/20130226/132320/5720/470/20/
010670/20130226/132706/5730/102/10/
010670/20130226/133041/5730/651/10/
010670/20130226/133055/5720/3201/10/
010670/20130226/133119/5720/894/10/
010670/20130226/133205/5720/464/10/
010670/20130226/133242/5720/405/10/
010670/20130226/133248/5720/121/20/
010670/20130226/133312/5720/518/20/
010670/20130226/133312/5720/266/20/
010670/20130226/133518/5760/128/20/
010670/20130226/133538/5770/132/20/
010670/20130226/133556/5770/200/20/
010670/20130226/133802/5770/261/20/
010670/20130226/133835/5780/1520/20/
010670/20130226/134002/5790/508/20/
010670/20130226/134013/5790/123/20/
010670/20130226/134107/5790/184/20/
010670/20130226/134129/5790/275/20/
010670/20130226/134308/5800/871/20/
010670/20130226/134425/5800/601/20/
010670/20130226/134439/5800/601/10/
010670/20130226/134446/5800/101/10/
010670/20130226/134455/5800/155/10/
010670/20130226/134700/5800/197/20/
010670/20130226/134819/5800/150/20/
010670/20130226/134947/5800/300/20/
010670/20130226/134947/5810/261/20/
010670/20130226/134955/5810/90/20/
010670/20130226/135848/5810/105/10/
010670/20130226/140153/5790/528/10/
010670/20130226/140752/5790/103/10/
010670/20130226/140840/5780/90/10/
010670/20130226/141011/5780/468/10/
010670/20130226/141011/5760/1349/10/
010670/20130226/141011/5750/1348/10/
010670/20130226/141706/5790/209/20/
010670/20130226/142413/5780/198/10/
010670/20130226/142506/5800/2001/20/
010670/20130226/142509/5800/199/20/
010670/20130226/142529/5800/1301/10/
010670/20130226/142602/5800/301/20/
010670/20130226/142612/5800/301/10/
010670/20130226/142815/5810/1052/20/
010670/20130226/142937/5790/1501/10/
010670/20130226/142944/5780/1000/10/
010670/20130226/143044/5780/188/20/
010670/20130226/143052/5780/112/20/
010670/20130226/143126/5780/381/10/
010670/20130226/143137/5780/509/10/
010670/20130226/143322/5790/553/20/
010670/20130226/143322/5800/4448/20/
010670/20130226/143409/5800/265/20/
010670/20130226/143424/5800/3000/20/
010670/20130226/143426/5800/1787/20/
010670/20130226/143438/5810/557/20/
010670/20130226/143511/5810/605/20/
010670/20130226/143714/5820/121/20/
010670/20130226/143827/5820/100/20/
010670/20130226/144232/5810/896/10/
010670/20130226/144232/5800/1853/10/
010670/20130226/144232/5780/1251/10/
010670/20130226/144658/5790/89/10/
010670/20130226/144738/5780/674/10/
010670/20130226/144947/5800/389/20/
010670/20130226/150000/5800/3706/10/
