010670/20121101/90157/5440/122/10/
010670/20121101/90310/5480/81/20/
010670/20121101/90429/5480/276/20/
010670/20121101/91410/5430/1050/10/
010670/20121101/91429/5430/118/20/
010670/20121101/91621/5430/700/10/
010670/20121101/92310/5450/175/20/
010670/20121101/92529/5430/357/10/
010670/20121101/92756/5430/200/20/
010670/20121101/93057/5430/199/10/
010670/20121101/93125/5430/204/10/
010670/20121101/93850/5420/224/10/
010670/20121101/93854/5420/1509/10/
010670/20121101/93950/5420/197/10/
010670/20121101/94010/5420/200/10/
010670/20121101/94509/5410/2005/10/
010670/20121101/94848/5410/800/10/
010670/20121101/94925/5410/100/10/
010670/20121101/95118/5400/1000/10/
010670/20121101/95122/5400/1821/10/
010670/20121101/95158/5390/152/10/
010670/20121101/95204/5390/101/10/
010670/20121101/95407/5400/200/20/
010670/20121101/95623/5400/100/20/
010670/20121101/100106/5400/174/20/
010670/20121101/100546/5400/250/10/
010670/20121101/100619/5400/1400/10/
010670/20121101/100711/5390/502/10/
010670/20121101/100831/5390/200/10/
010670/20121101/101011/5390/138/10/
010670/20121101/101208/5390/109/10/
010670/20121101/101309/5400/180/10/
010670/20121101/101547/5420/1000/20/
010670/20121101/101712/5420/1000/20/
010670/20121101/101924/5400/102/10/
010670/20121101/102131/5400/400/10/
010670/20121101/102147/5400/400/10/
010670/20121101/102640/5400/2017/10/
010670/20121101/104242/5400/437/10/
010670/20121101/104455/5400/165/10/
010670/20121101/105146/5400/201/10/
010670/20121101/105605/5400/100/10/
010670/20121101/105613/5400/105/10/
010670/20121101/105656/5390/3000/10/
010670/20121101/110319/5390/377/10/
010670/20121101/110319/5380/496/10/
010670/20121101/110408/5380/2600/10/
010670/20121101/110526/5380/100/20/
010670/20121101/110756/5400/677/10/
010670/20121101/110756/5400/824/10/
010670/20121101/113153/5400/91/20/
010670/20121101/113233/5400/200/20/
010670/20121101/113235/5400/100/20/
010670/20121101/114235/5390/370/10/
010670/20121101/114419/5380/463/10/
010670/20121101/114515/5380/108/10/
010670/20121101/114617/5380/338/10/
010670/20121101/114617/5370/393/10/
010670/20121101/114657/5370/1000/10/
010670/20121101/114717/5370/598/10/
010670/20121101/114738/5370/188/10/
010670/20121101/114927/5370/500/10/
010670/20121101/120054/5370/353/10/
010670/20121101/120137/5360/2611/10/
010670/20121101/120137/5350/2646/10/
010670/20121101/120137/5340/1030/10/
010670/20121101/120137/5330/2531/10/
010670/20121101/120137/5320/1110/10/
010670/20121101/120222/5310/1020/10/
010670/20121101/120222/5300/1469/10/
010670/20121101/120320/5310/209/10/
010670/20121101/120320/5300/1532/10/
010670/20121101/120711/5300/251/10/
010670/20121101/120801/5300/500/10/
010670/20121101/120858/5300/1056/10/
010670/20121101/121205/5330/130/20/
010670/20121101/121205/5340/200/20/
010670/20121101/121205/5350/200/20/
010670/20121101/121205/5370/310/20/
010670/20121101/122735/5330/199/10/
010670/20121101/123306/5370/146/20/
010670/20121101/123322/5380/500/20/
010670/20121101/123341/5370/300/10/
010670/20121101/123404/5330/274/10/
010670/20121101/123837/5340/766/10/
010670/20121101/123837/5330/1503/10/
010670/20121101/123958/5330/100/20/
010670/20121101/124010/5330/202/20/
010670/20121101/124017/5330/460/20/
010670/20121101/124206/5370/103/20/
010670/20121101/124223/5370/100/20/
010670/20121101/124243/5370/209/20/
010670/20121101/124326/5380/498/20/
010670/20121101/124332/5390/400/20/
010670/20121101/124332/5400/100/20/
010670/20121101/124420/5400/100/20/
010670/20121101/124708/5380/113/10/
010670/20121101/124922/5380/897/20/
010670/20121101/124930/5390/255/20/
010670/20121101/124937/5400/333/20/
010670/20121101/124946/5410/500/20/
010670/20121101/125143/5400/671/10/
010670/20121101/125143/5390/635/10/
010670/20121101/125358/5390/122/10/
010670/20121101/130040/5380/81/10/
010670/20121101/132830/5350/536/10/
010670/20121101/133129/5350/501/10/
010670/20121101/133752/5350/175/10/
010670/20121101/133752/5340/300/10/
010670/20121101/133809/5330/900/20/
010670/20121101/133824/5320/200/10/
010670/20121101/133922/5320/301/10/
010670/20121101/133948/5330/100/20/
010670/20121101/134121/5330/528/10/
010670/20121101/134547/5330/500/10/
010670/20121101/135033/5330/188/10/
010670/20121101/135033/5320/362/10/
010670/20121101/135118/5310/500/10/
010670/20121101/135132/5310/800/10/
010670/20121101/135204/5310/492/10/
010670/20121101/135204/5300/509/10/
010670/20121101/135331/5310/200/10/
010670/20121101/135704/5310/93/10/
010670/20121101/135759/5310/85/10/
010670/20121101/140045/5310/98/10/
010670/20121101/140253/5310/1036/10/
010670/20121101/140331/5310/500/10/
010670/20121101/140416/5310/1036/10/
010670/20121101/140534/5310/100/10/
010670/20121101/140906/5310/180/10/
010670/20121101/140906/5300/211/10/
010670/20121101/140916/5300/401/10/
010670/20121101/140954/5310/183/10/
010670/20121101/141645/5360/158/20/
010670/20121101/141753/5360/409/20/
010670/20121101/141955/5360/1001/10/
010670/20121101/141955/5360/563/10/
010670/20121101/142538/5360/224/20/
010670/20121101/142958/5340/431/10/
010670/20121101/143300/5350/86/20/
010670/20121101/144059/5330/116/10/
010670/20121101/144059/5320/2241/10/
010670/20121101/144114/5320/140/20/
010670/20121101/144141/5310/1507/10/
010670/20121101/144308/5310/309/10/
010670/20121101/144316/5310/200/20/
010670/20121101/144323/5310/291/20/
010670/20121101/144905/5310/254/10/
010670/20121101/144930/5310/274/10/
010670/20121101/144930/5300/689/10/
010670/20121101/144940/5300/196/10/
010670/20121101/150000/5340/3050/10/
