010670/20130206/90732/5240/214/10/
010670/20130206/90740/5230/300/10/
010670/20130206/91039/5280/105/20/
010670/20130206/91446/5270/100/20/
010670/20130206/91712/5230/200/10/
010670/20130206/91730/5230/300/10/
010670/20130206/91842/5230/292/10/
010670/20130206/91842/5220/1355/10/
010670/20130206/91842/5220/256/20/
010670/20130206/92310/5210/1670/10/
010670/20130206/92808/5250/201/10/
010670/20130206/93142/5220/501/10/
010670/20130206/93713/5240/293/10/
010670/20130206/93838/5240/238/20/
010670/20130206/94509/5270/815/20/
010670/20130206/94833/5240/502/10/
010670/20130206/95039/5270/104/10/
010670/20130206/95039/5300/201/20/
010670/20130206/95813/5250/2006/10/
010670/20130206/100036/5250/1002/10/
010670/20130206/100201/5240/1001/10/
010670/20130206/100308/5240/1501/10/
010670/20130206/100432/5240/800/10/
010670/20130206/100708/5240/161/10/
010670/20130206/100708/5230/1140/10/
010670/20130206/100829/5230/103/10/
010670/20130206/100946/5230/400/10/
010670/20130206/101358/5230/408/10/
010670/20130206/101520/5230/331/10/
010670/20130206/101700/5230/169/20/
010670/20130206/102001/5230/93/10/
010670/20130206/102148/5250/110/10/
010670/20130206/102535/5220/1547/10/
010670/20130206/102719/5220/279/10/
010670/20130206/103032/5220/210/10/
010670/20130206/103133/5220/505/10/
010670/20130206/103150/5210/491/10/
010670/20130206/103631/5220/135/10/
010670/20130206/104337/5220/156/10/
010670/20130206/104337/5210/358/10/
010670/20130206/104920/5220/461/10/
010670/20130206/104927/5220/348/20/
010670/20130206/105024/5220/520/10/
010670/20130206/105058/5230/500/10/
010670/20130206/105348/5230/701/10/
010670/20130206/105843/5220/81/10/
010670/20130206/105853/5230/2232/20/
010670/20130206/110144/5230/104/10/
010670/20130206/111935/5250/196/20/
010670/20130206/113304/5270/1061/20/
010670/20130206/113310/5270/143/20/
010670/20130206/114236/5300/352/20/
010670/20130206/114246/5300/100/20/
010670/20130206/114251/5300/107/20/
010670/20130206/114315/5310/101/20/
010670/20130206/114333/5310/99/20/
010670/20130206/114558/5310/456/10/
010670/20130206/114803/5310/223/20/
010670/20130206/114940/5310/300/20/
010670/20130206/115008/5310/88/20/
010670/20130206/115040/5320/402/20/
010670/20130206/115535/5300/99/10/
010670/20130206/115725/5320/201/20/
010670/20130206/115749/5330/400/20/
010670/20130206/115811/5330/101/20/
010670/20130206/115817/5340/1002/20/
010670/20130206/120038/5340/143/20/
010670/20130206/120241/5350/275/20/
010670/20130206/120301/5350/101/10/
010670/20130206/120551/5350/402/20/
010670/20130206/120604/5350/187/20/
010670/20130206/120723/5360/160/20/
010670/20130206/120839/5360/104/20/
010670/20130206/121410/5320/123/20/
010670/20130206/121411/5310/105/10/
010670/20130206/122017/5340/516/20/
010670/20130206/122030/5350/200/20/
010670/20130206/122116/5350/260/10/
010670/20130206/122117/5350/261/20/
010670/20130206/122117/5360/1022/20/
010670/20130206/122124/5360/140/10/
010670/20130206/122321/5360/780/20/
010670/20130206/122618/5360/336/20/
010670/20130206/122618/5370/2183/20/
010670/20130206/122628/5380/1045/20/
010670/20130206/122659/5390/117/20/
010670/20130206/122701/5390/100/20/
010670/20130206/122824/5370/2069/10/
010670/20130206/122853/5370/482/10/
010670/20130206/123104/5370/100/20/
010670/20130206/123638/5370/513/10/
010670/20130206/123650/5370/312/20/
010670/20130206/124009/5360/95/20/
010670/20130206/124016/5370/307/20/
010670/20130206/124149/5350/1006/10/
010670/20130206/124337/5350/523/10/
010670/20130206/124455/5350/518/10/
010670/20130206/124518/5350/220/10/
010670/20130206/124534/5350/81/20/
010670/20130206/124622/5360/200/20/
010670/20130206/124902/5350/501/10/
010670/20130206/125021/5350/800/10/
010670/20130206/125143/5350/109/10/
010670/20130206/125225/5350/900/10/
010670/20130206/125326/5350/90/20/
010670/20130206/125501/5350/912/20/
010670/20130206/125719/5360/300/20/
010670/20130206/125755/5370/343/20/
010670/20130206/125755/5380/107/20/
010670/20130206/125755/5390/2865/20/
010670/20130206/125755/5400/686/20/
010670/20130206/130056/5360/1057/10/
010670/20130206/130127/5360/524/10/
010670/20130206/130127/5360/476/20/
010670/20130206/130511/5400/626/20/
010670/20130206/130513/5400/185/20/
010670/20130206/130638/5410/121/20/
010670/20130206/130650/5400/170/10/
010670/20130206/131520/5420/501/20/
010670/20130206/131738/5400/642/10/
010670/20130206/132009/5380/601/10/
010670/20130206/132009/5370/1127/10/
010670/20130206/132009/5370/274/20/
010670/20130206/132059/5400/401/20/
010670/20130206/132114/5400/1000/20/
010670/20130206/132340/5400/500/20/
010670/20130206/132957/5420/102/20/
010670/20130206/133312/5400/203/10/
010670/20130206/133613/5400/427/20/
010670/20130206/133632/5400/99/20/
010670/20130206/133716/5420/2520/20/
010670/20130206/133851/5410/160/20/
010670/20130206/133912/5410/100/20/
010670/20130206/135010/5420/105/20/
010670/20130206/135305/5420/1000/20/
010670/20130206/135534/5400/175/10/
010670/20130206/140426/5420/1006/20/
010670/20130206/140610/5420/215/20/
010670/20130206/140637/5400/177/10/
010670/20130206/140637/5400/244/20/
010670/20130206/140640/5430/1312/20/
010670/20130206/140648/5440/355/20/
010670/20130206/140710/5450/1000/20/
010670/20130206/140710/5440/200/10/
010670/20130206/140753/5450/198/20/
010670/20130206/140845/5460/1031/20/
010670/20130206/140913/5430/513/10/
010670/20130206/140947/5440/301/10/
010670/20130206/140953/5440/200/20/
010670/20130206/141012/5450/101/20/
010670/20130206/141050/5450/571/20/
010670/20130206/141125/5430/204/10/
010670/20130206/141154/5430/281/20/
010670/20130206/141237/5400/1323/10/
010670/20130206/141237/5400/678/20/
010670/20130206/141345/5410/501/10/
010670/20130206/141439/5410/800/10/
010670/20130206/141639/5450/1001/20/
010670/20130206/142440/5440/95/20/
010670/20130206/142531/5410/552/10/
010670/20130206/142635/5410/536/10/
010670/20130206/142635/5390/1408/10/
010670/20130206/142635/5380/1289/10/
010670/20130206/142635/5370/1018/10/
010670/20130206/142635/5360/1075/10/
010670/20130206/142635/5350/175/10/
010670/20130206/142925/5430/374/20/
010670/20130206/143909/5420/532/20/
010670/20130206/144017/5410/145/10/
010670/20130206/144118/5410/92/10/
010670/20130206/144156/5420/375/20/
010670/20130206/144322/5420/95/20/
010670/20130206/144322/5430/918/20/
010670/20130206/144331/5430/200/20/
010670/20130206/144716/5430/177/20/
010670/20130206/144734/5440/259/20/
010670/20130206/144953/5410/104/10/
010670/20130206/144959/5400/100/10/
010670/20130206/150000/5400/698/20/
