010670/20130314/90014/7240/861/10/
010670/20130314/90014/7240/165/20/
010670/20130314/90027/7280/241/20/
010670/20130314/90027/7290/235/20/
010670/20130314/90033/7290/1302/10/
010670/20130314/90100/7290/226/10/
010670/20130314/90318/7250/652/10/
010670/20130314/90359/7290/1449/20/
010670/20130314/90400/7290/552/10/
010670/20130314/90431/7290/646/10/
010670/20130314/90537/7250/701/10/
010670/20130314/90613/7250/280/10/
010670/20130314/90718/7250/464/10/
010670/20130314/90742/7290/99/20/
010670/20130314/90742/7300/202/20/
010670/20130314/90810/7290/1000/20/
010670/20130314/90817/7300/978/20/
010670/20130314/90846/7300/800/20/
010670/20130314/91008/7280/1002/20/
010670/20130314/91009/7260/985/10/
010670/20130314/91024/7250/1000/10/
010670/20130314/91107/7250/510/10/
010670/20130314/91147/7260/2840/10/
010670/20130314/91147/7250/529/10/
010670/20130314/91147/7240/1500/10/
010670/20130314/91147/7230/1050/10/
010670/20130314/91147/7220/1020/10/
010670/20130314/91147/7210/3066/10/
010670/20130314/91158/7200/325/10/
010670/20130314/91213/7200/100/10/
010670/20130314/91251/7200/456/10/
010670/20130314/91252/7200/3384/10/
010670/20130314/91252/7200/575/20/
010670/20130314/91300/7190/700/10/
010670/20130314/91304/7190/600/10/
010670/20130314/91311/7190/435/20/
010670/20130314/91338/7200/1300/10/
010670/20130314/91405/7200/230/20/
010670/20130314/91407/7200/100/20/
010670/20130314/91409/7200/200/20/
010670/20130314/91415/7200/100/20/
010670/20130314/91428/7200/100/20/
010670/20130314/91933/7220/554/10/
010670/20130314/91940/7210/249/10/
010670/20130314/91940/7200/1005/10/
010670/20130314/92011/7190/496/10/
010670/20130314/92013/7200/500/20/
010670/20130314/92030/7200/746/20/
010670/20130314/92048/7200/160/10/
010670/20130314/92223/7200/1500/10/
010670/20130314/92228/7200/94/10/
010670/20130314/92228/7190/906/10/
010670/20130314/92409/7190/133/10/
010670/20130314/92508/7190/840/10/
010670/20130314/92544/7190/212/10/
010670/20130314/92600/7190/289/20/
010670/20130314/92700/7190/200/10/
010670/20130314/92702/7190/297/10/
010670/20130314/92800/7190/1100/10/
010670/20130314/92801/7190/125/10/
010670/20130314/92915/7200/274/20/
010670/20130314/92932/7200/945/20/
010670/20130314/92943/7200/100/10/
010670/20130314/93034/7200/1002/20/
010670/20130314/93113/7200/374/10/
010670/20130314/93121/7200/600/20/
010670/20130314/93208/7210/330/20/
010670/20130314/93251/7230/500/20/
010670/20130314/93257/7230/197/10/
010670/20130314/93338/7250/714/20/
010670/20130314/93345/7250/186/20/
010670/20130314/93503/7270/202/20/
010670/20130314/93550/7250/314/10/
010670/20130314/93602/7250/86/20/
010670/20130314/93616/7250/480/10/
010670/20130314/93632/7250/176/20/
010670/20130314/93638/7250/99/20/
010670/20130314/93643/7250/811/10/
010670/20130314/93755/7240/801/10/
010670/20130314/93814/7240/81/10/
010670/20130314/93821/7230/192/10/
010670/20130314/94146/7240/510/10/
010670/20130314/94146/7230/4503/10/
010670/20130314/94157/7230/475/10/
010670/20130314/94215/7210/214/10/
010670/20130314/94215/7200/624/10/
010670/20130314/94224/7200/163/20/
010670/20130314/94236/7200/300/10/
010670/20130314/94503/7200/1940/10/
010670/20130314/94626/7220/398/20/
010670/20130314/94633/7220/300/10/
010670/20130314/94932/7200/1550/10/
010670/20130314/94934/7200/500/20/
010670/20130314/94950/7190/1000/10/
010670/20130314/95017/7200/1111/20/
010670/20130314/95321/7200/291/10/
010670/20130314/95349/7200/180/10/
010670/20130314/95429/7200/120/10/
010670/20130314/95446/7200/648/10/
010670/20130314/95823/7200/164/10/
010670/20130314/95904/7190/2540/10/
010670/20130314/95915/7190/276/10/
010670/20130314/95919/7190/200/10/
010670/20130314/95919/7190/447/10/
010670/20130314/95919/7180/6178/10/
010670/20130314/95919/7170/1026/10/
010670/20130314/95929/7170/349/20/
010670/20130314/100042/7160/231/10/
010670/20130314/100233/7170/322/10/
010670/20130314/100233/7170/200/10/
010670/20130314/100459/7170/327/10/
010670/20130314/100535/7170/90/10/
010670/20130314/100551/7170/118/10/
010670/20130314/100603/7170/100/10/
010670/20130314/100630/7170/111/20/
010670/20130314/100641/7170/300/10/
010670/20130314/100825/7160/1515/10/
010670/20130314/100918/7160/125/10/
010670/20130314/100918/7150/388/10/
010670/20130314/100942/7160/213/10/
010670/20130314/101032/7160/324/10/
010670/20130314/101132/7150/1339/10/
010670/20130314/101222/7150/1014/10/
010670/20130314/101232/7140/156/10/
010670/20130314/101245/7140/894/10/
010670/20130314/101245/7130/2106/10/
010670/20130314/101249/7120/2501/10/
010670/20130314/101254/7120/356/20/
010670/20130314/101325/7120/430/10/
010670/20130314/101335/7110/158/10/
010670/20130314/101335/7100/1842/10/
010670/20130314/101335/7110/100/10/
010670/20130314/101335/7100/1753/10/
010670/20130314/101352/7100/148/20/
010670/20130314/101441/7100/636/10/
010670/20130314/101457/7100/1002/10/
010670/20130314/101532/7100/811/10/
010670/20130314/101534/7090/340/10/
010670/20130314/101540/7090/176/10/
010670/20130314/101540/7080/200/10/
010670/20130314/101540/7070/600/10/
010670/20130314/101540/7060/1000/10/
010670/20130314/101606/7090/124/20/
010670/20130314/101612/7090/300/10/
010670/20130314/101707/7100/1020/20/
010670/20130314/101707/7090/304/10/
010670/20130314/101739/7090/696/20/
010670/20130314/101747/7080/2000/10/
010670/20130314/101749/7100/140/20/
010670/20130314/101822/7100/300/20/
010670/20130314/101857/7100/150/10/
010670/20130314/101857/7090/291/10/
010670/20130314/102008/7090/1002/10/
010670/20130314/102023/7100/100/10/
010670/20130314/102107/7100/112/20/
010670/20130314/102129/7110/500/20/
010670/20130314/102142/7110/500/20/
010670/20130314/102204/7120/1001/20/
010670/20130314/102236/7110/790/10/
010670/20130314/102236/7100/250/10/
010670/20130314/102248/7110/1000/10/
010670/20130314/102322/7140/310/20/
010670/20130314/102335/7100/1886/10/
010670/20130314/102335/7090/1257/10/
010670/20130314/102335/7080/1857/10/
010670/20130314/102348/7110/510/10/
010670/20130314/102423/7110/220/10/
010670/20130314/102448/7100/500/10/
010670/20130314/102448/7090/1018/10/
010670/20130314/102448/7080/282/10/
010670/20130314/102457/7080/1142/10/
010670/20130314/102457/7070/1858/10/
010670/20130314/102513/7070/394/10/
010670/20130314/102513/7060/2606/10/
010670/20130314/102518/7060/213/10/
010670/20130314/102520/7060/189/20/
010670/20130314/102556/7060/578/10/
010670/20130314/102556/7050/1355/10/
010670/20130314/102601/7050/240/10/
010670/20130314/102616/7060/502/10/
010670/20130314/102652/7060/102/10/
010670/20130314/102701/7060/510/10/
010670/20130314/102712/7060/100/10/
010670/20130314/102719/7060/102/20/
010670/20130314/102721/7060/298/20/
010670/20130314/102850/7060/568/10/
010670/20130314/103016/7070/93/10/
010670/20130314/103127/7070/911/10/
010670/20130314/103127/7070/98/20/
010670/20130314/103227/7080/178/10/
010670/20130314/103313/7070/502/10/
010670/20130314/103326/7070/540/10/
010670/20130314/103326/7060/2460/10/
010670/20130314/103335/7060/239/10/
010670/20130314/103356/7060/160/10/
010670/20130314/103646/7060/793/10/
010670/20130314/103648/7050/600/10/
010670/20130314/103651/7050/500/10/
010670/20130314/103658/7060/247/20/
010670/20130314/103658/7060/329/10/
010670/20130314/103855/7060/210/10/
010670/20130314/103908/7050/910/10/
010670/20130314/103921/7050/614/10/
010670/20130314/103921/7040/1251/10/
010670/20130314/103925/7040/800/10/
010670/20130314/103925/7030/1055/10/
010670/20130314/103931/7030/1855/10/
010670/20130314/103943/7030/210/10/
010670/20130314/104006/7030/1302/10/
010670/20130314/104006/7020/143/10/
010670/20130314/104011/7020/1200/10/
010670/20130314/104032/7020/386/10/
010670/20130314/104032/7010/494/10/
010670/20130314/104041/7010/611/10/
010670/20130314/104043/7010/855/10/
010670/20130314/104100/7010/255/20/
010670/20130314/104141/7050/99/20/
010670/20130314/104141/7060/498/20/
010670/20130314/104141/7070/1149/20/
010670/20130314/104141/7080/1264/20/
010670/20130314/104519/7030/184/10/
010670/20130314/104821/7050/166/20/
010670/20130314/104821/7050/87/10/
010670/20130314/104831/7060/210/20/
010670/20130314/104841/7050/559/10/
010670/20130314/104859/7050/100/10/
010670/20130314/104945/7050/110/10/
010670/20130314/104948/7050/114/10/
010670/20130314/105016/7050/101/20/
010670/20130314/105049/7050/235/20/
010670/20130314/105146/7060/110/20/
010670/20130314/105204/7060/100/20/
010670/20130314/105344/7070/418/20/
010670/20130314/105421/7080/695/20/
010670/20130314/105520/7090/361/20/
010670/20130314/105659/7090/378/10/
010670/20130314/105707/7090/100/10/
010670/20130314/105746/7080/165/10/
010670/20130314/110118/7070/101/10/
010670/20130314/110128/7070/130/10/
010670/20130314/110230/7070/479/10/
010670/20130314/110336/7060/90/10/
010670/20130314/110435/7080/157/20/
010670/20130314/110819/7080/100/20/
010670/20130314/110856/7080/208/20/
010670/20130314/111041/7080/175/10/
010670/20130314/111131/7080/131/10/
010670/20130314/111145/7080/170/20/
010670/20130314/111355/7080/501/10/
010670/20130314/111508/7090/85/20/
010670/20130314/111631/7090/312/20/
010670/20130314/111739/7100/480/20/
010670/20130314/111758/7100/500/10/
010670/20130314/111811/7100/222/10/
010670/20130314/111812/7100/108/20/
010670/20130314/111836/7100/215/10/
010670/20130314/111836/7090/1759/10/
010670/20130314/111840/7110/875/20/
010670/20130314/111840/7120/2018/20/
010670/20130314/111915/7120/106/10/
010670/20130314/111941/7090/703/10/
010670/20130314/111959/7090/301/20/
010670/20130314/112444/7120/1147/10/
010670/20130314/112805/7100/104/10/
010670/20130314/113205/7100/1015/10/
010670/20130314/113348/7090/160/10/
010670/20130314/113429/7090/191/10/
010670/20130314/113543/7090/202/10/
010670/20130314/113652/7080/689/10/
010670/20130314/114219/7100/538/10/
010670/20130314/114248/7100/101/10/
010670/20130314/114546/7100/500/10/
010670/20130314/114848/7100/541/10/
010670/20130314/114951/7100/511/10/
010670/20130314/114958/7100/421/10/
010670/20130314/115039/7110/1005/20/
010670/20130314/115039/7120/975/20/
010670/20130314/115056/7120/1048/20/
010670/20130314/115058/7120/500/10/
010670/20130314/115100/7120/500/10/
010670/20130314/115456/7120/392/20/
010670/20130314/115735/7120/595/20/
010670/20130314/120127/7120/535/20/
010670/20130314/120150/7120/183/10/
010670/20130314/120218/7120/430/20/
010670/20130314/120350/7120/165/20/
010670/20130314/120426/7130/199/20/
010670/20130314/120614/7120/541/20/
010670/20130314/120659/7110/955/10/
010670/20130314/120940/7120/610/20/
010670/20130314/121118/7130/675/20/
010670/20130314/121259/7140/507/20/
010670/20130314/121517/7140/254/20/
010670/20130314/121530/7140/263/20/
010670/20130314/121539/7140/478/20/
010670/20130314/121716/7150/1024/20/
010670/20130314/121824/7150/521/20/
010670/20130314/122038/7160/630/20/
010670/20130314/122038/7170/682/20/
010670/20130314/122351/7180/105/20/
010670/20130314/122527/7180/211/20/
010670/20130314/122527/7190/1789/20/
010670/20130314/122545/7190/500/20/
010670/20130314/122624/7170/567/10/
010670/20130314/122733/7190/131/20/
010670/20130314/122840/7200/115/20/
010670/20130314/123022/7200/541/20/
010670/20130314/123042/7210/502/20/
010670/20130314/123233/7200/1651/10/
010670/20130314/123306/7210/185/20/
010670/20130314/123309/7210/500/20/
010670/20130314/123314/7210/100/20/
010670/20130314/123332/7200/900/10/
010670/20130314/123343/7200/962/10/
010670/20130314/123842/7150/86/10/
010670/20130314/124408/7180/302/10/
010670/20130314/124738/7180/229/20/
010670/20130314/124801/7180/300/20/
010670/20130314/125226/7180/426/20/
010670/20130314/125852/7180/544/20/
010670/20130314/130037/7150/165/10/
010670/20130314/130042/7150/445/20/
010670/20130314/131022/7180/177/20/
010670/20130314/131028/7180/166/10/
010670/20130314/131102/7160/500/10/
010670/20130314/131328/7160/402/10/
010670/20130314/131549/7160/102/10/
010670/20130314/132237/7170/120/10/
010670/20130314/132307/7170/215/20/
010670/20130314/132322/7170/173/10/
010670/20130314/132520/7150/380/10/
010670/20130314/132900/7150/368/10/
010670/20130314/132900/7140/132/10/
010670/20130314/132902/7170/237/20/
010670/20130314/132913/7170/181/10/
010670/20130314/132944/7150/526/10/
010670/20130314/132944/7140/1658/10/
010670/20130314/133015/7170/130/10/
010670/20130314/133052/7170/101/20/
010670/20130314/133059/7170/86/10/
010670/20130314/133130/7170/114/20/
010670/20130314/133136/7170/100/10/
010670/20130314/133214/7170/91/20/
010670/20130314/133224/7150/500/10/
010670/20130314/133308/7170/121/10/
010670/20130314/133425/7170/101/20/
010670/20130314/133511/7180/148/20/
010670/20130314/133615/7180/850/20/
010670/20130314/133615/7190/150/20/
010670/20130314/133657/7190/1000/20/
010670/20130314/133721/7190/100/20/
010670/20130314/133724/7190/3000/20/
010670/20130314/133729/7190/1900/20/
010670/20130314/133729/7190/1540/20/
010670/20130314/133738/7190/1461/10/
010670/20130314/133745/7190/490/20/
010670/20130314/133913/7200/100/20/
010670/20130314/134243/7200/349/20/
010670/20130314/134323/7210/558/20/
010670/20130314/134535/7210/554/20/
010670/20130314/134535/7220/456/20/
010670/20130314/134700/7200/1005/20/
010670/20130314/134749/7210/102/20/
010670/20130314/135007/7170/106/10/
010670/20130314/135120/7190/500/20/
010670/20130314/135433/7200/1486/20/
010670/20130314/135510/7200/531/10/
010670/20130314/135541/7200/431/20/
010670/20130314/135547/7200/249/20/
010670/20130314/135616/7200/461/10/
010670/20130314/135633/7200/141/20/
010670/20130314/135813/7200/251/10/
010670/20130314/135911/7210/1052/20/
010670/20130314/140005/7200/110/10/
010670/20130314/140012/7200/224/20/
010670/20130314/140139/7200/128/10/
010670/20130314/140147/7200/250/10/
010670/20130314/140205/7200/241/10/
010670/20130314/140205/7210/1000/20/
010670/20130314/140320/7200/502/10/
010670/20130314/140348/7200/506/10/
010670/20130314/140413/7200/200/20/
010670/20130314/140658/7200/1054/10/
010670/20130314/140658/7190/502/10/
010670/20130314/140734/7200/200/10/
010670/20130314/140739/7200/300/10/
010670/20130314/140752/7190/499/10/
010670/20130314/140810/7200/299/20/
010670/20130314/140816/7200/500/10/
010670/20130314/140824/7200/200/10/
010670/20130314/140907/7170/176/10/
010670/20130314/140911/7170/1101/10/
010670/20130314/140911/7160/870/10/
010670/20130314/140911/7150/1029/10/
010670/20130314/140916/7150/550/10/
010670/20130314/141114/7150/1270/10/
010670/20130314/141230/7140/802/10/
010670/20130314/141714/7150/308/10/
010670/20130314/141836/7140/104/10/
010670/20130314/141836/7130/950/10/
010670/20130314/141836/7120/1630/10/
010670/20130314/141855/7120/500/10/
010670/20130314/141859/7120/381/20/
010670/20130314/141943/7120/295/10/
010670/20130314/142000/7120/108/20/
010670/20130314/142225/7140/208/20/
010670/20130314/142357/7120/504/10/
010670/20130314/142533/7120/551/10/
010670/20130314/142603/7120/100/10/
010670/20130314/142647/7120/500/10/
010670/20130314/142800/7120/504/10/
010670/20130314/142903/7150/1071/20/
010670/20130314/142903/7160/2967/20/
010670/20130314/142933/7160/686/20/
010670/20130314/142933/7170/566/20/
010670/20130314/142933/7180/766/20/
010670/20130314/143018/7150/105/10/
010670/20130314/143409/7150/993/10/
010670/20130314/143456/7150/204/10/
010670/20130314/143724/7150/1070/10/
010670/20130314/143814/7170/855/20/
010670/20130314/143829/7170/153/10/
010670/20130314/143915/7150/1001/10/
010670/20130314/143942/7150/200/10/
010670/20130314/143947/7150/95/10/
010670/20130314/144043/7140/304/10/
010670/20130314/144104/7140/199/10/
010670/20130314/144104/7130/2401/10/
010670/20130314/144112/7130/144/10/
010670/20130314/144112/7120/1736/10/
010670/20130314/144112/7110/1360/10/
010670/20130314/144150/7110/628/10/
010670/20130314/144150/7100/1372/10/
010670/20130314/144158/7140/1200/20/
010670/20130314/144158/7150/503/20/
010670/20130314/144158/7170/1147/20/
010670/20130314/144158/7180/150/20/
010670/20130314/144412/7160/704/20/
010670/20130314/144433/7160/299/20/
010670/20130314/144433/7170/1000/20/
010670/20130314/144441/7170/1000/10/
010670/20130314/144444/7180/850/20/
010670/20130314/144444/7190/100/20/
010670/20130314/144454/7170/3158/10/
010670/20130314/144521/7170/115/10/
010670/20130314/144533/7170/601/10/
010670/20130314/144649/7190/401/20/
010670/20130314/144731/7190/137/20/
010670/20130314/144751/7170/500/10/
010670/20130314/144843/7190/1834/20/
010670/20130314/144843/7200/178/20/
010670/20130314/144853/7200/1120/20/
010670/20130314/144911/7200/81/10/
010670/20130314/144911/7180/226/10/
010670/20130314/144911/7170/644/10/
010670/20130314/144953/7200/91/20/
010670/20130314/144953/7210/518/20/
010670/20130314/144953/7220/347/20/
010670/20130314/150000/7210/6686/20/
