010670/20130326/90000/6470/2832/10/
010670/20130326/90026/6670/408/20/
010670/20130326/90402/6540/103/20/
010670/20130326/90416/6540/100/20/
010670/20130326/90514/6550/202/20/
010670/20130326/90947/6540/200/10/
010670/20130326/91024/6540/126/20/
010670/20130326/91920/6540/1162/10/
010670/20130326/92029/6540/580/20/
010670/20130326/92135/6550/214/20/
010670/20130326/92245/6550/508/20/
010670/20130326/92438/6550/278/20/
010670/20130326/92606/6550/792/10/
010670/20130326/92635/6560/104/20/
010670/20130326/93406/6550/236/10/
010670/20130326/93406/6540/565/10/
010670/20130326/93452/6540/111/10/
010670/20130326/93507/6540/500/10/
010670/20130326/93524/6540/435/10/
010670/20130326/93544/6530/500/10/
010670/20130326/93551/6520/500/10/
010670/20130326/93620/6510/1032/10/
010670/20130326/93657/6510/2000/10/
010670/20130326/93706/6510/501/10/
010670/20130326/93830/6540/201/20/
010670/20130326/94134/6540/700/20/
010670/20130326/94219/6540/87/20/
010670/20130326/94619/6560/301/20/
010670/20130326/94707/6540/300/10/
010670/20130326/94741/6540/100/10/
010670/20130326/94933/6550/90/20/
010670/20130326/95104/6540/438/10/
010670/20130326/95629/6540/1013/10/
010670/20130326/95804/6540/200/10/
010670/20130326/100040/6560/82/10/
010670/20130326/100122/6560/800/20/
010670/20130326/100122/6560/190/10/
010670/20130326/100326/6550/769/10/
010670/20130326/100430/6550/101/10/
010670/20130326/100437/6550/904/20/
010670/20130326/100528/6550/110/20/
010670/20130326/100746/6540/1414/10/
010670/20130326/100746/6530/1200/10/
010670/20130326/100819/6530/1000/20/
010670/20130326/100831/6530/300/20/
010670/20130326/101438/6530/120/20/
010670/20130326/101756/6530/135/20/
010670/20130326/101841/6520/3198/10/
010670/20130326/101905/6520/360/20/
010670/20130326/102005/6520/98/20/
010670/20130326/102150/6520/344/20/
010670/20130326/102211/6510/200/10/
010670/20130326/102714/6520/1275/10/
010670/20130326/102839/6510/150/10/
010670/20130326/102947/6520/798/20/
010670/20130326/103929/6520/1273/10/
010670/20130326/104013/6520/200/20/
010670/20130326/104042/6520/100/20/
010670/20130326/104127/6520/300/20/
010670/20130326/104135/6520/175/20/
010670/20130326/104209/6520/326/10/
010670/20130326/104209/6510/675/10/
010670/20130326/104243/6510/2973/10/
010670/20130326/104919/6510/1788/10/
010670/20130326/104943/6510/100/20/
010670/20130326/105641/6510/812/10/
010670/20130326/105641/6500/2330/10/
010670/20130326/105732/6500/920/10/
010670/20130326/105738/6500/81/20/
010670/20130326/105810/6500/719/10/
010670/20130326/105828/6500/100/20/
010670/20130326/105851/6500/182/20/
010670/20130326/110029/6500/437/10/
010670/20130326/110043/6490/2694/10/
010670/20130326/110051/6480/2950/10/
010670/20130326/110051/6470/2050/10/
010670/20130326/110122/6470/1000/10/
010670/20130326/110135/6470/89/10/
010670/20130326/110135/6460/311/10/
010670/20130326/110145/6460/739/10/
010670/20130326/110145/6450/2200/10/
010670/20130326/110234/6420/318/10/
010670/20130326/110234/6420/200/10/
010670/20130326/110244/6410/200/10/
010670/20130326/110304/6410/200/10/
010670/20130326/110334/6410/97/20/
010670/20130326/110336/6400/673/10/
010670/20130326/110336/6360/1039/10/
010670/20130326/110336/6350/300/10/
010670/20130326/110336/6350/1056/20/
010670/20130326/110341/6350/133/20/
010670/20130326/110345/6410/103/20/
010670/20130326/110433/6440/100/20/
010670/20130326/110447/6440/131/10/
010670/20130326/110804/6410/101/10/
010670/20130326/110816/6410/424/10/
010670/20130326/110816/6400/576/10/
010670/20130326/110822/6410/441/20/
010670/20130326/110830/6400/101/10/
010670/20130326/110852/6410/169/10/
010670/20130326/110956/6410/127/10/
010670/20130326/110956/6410/873/10/
010670/20130326/110956/6400/127/10/
010670/20130326/111151/6410/100/10/
010670/20130326/111240/6440/100/20/
010670/20130326/111256/6440/300/20/
010670/20130326/111441/6420/694/20/
010670/20130326/111442/6400/109/10/
010670/20130326/111525/6440/100/20/
010670/20130326/111637/6410/201/10/
010670/20130326/111648/6410/500/10/
010670/20130326/111750/6410/560/10/
010670/20130326/112045/6410/2127/10/
010670/20130326/112045/6400/4867/10/
010670/20130326/112509/6400/97/10/
010670/20130326/112512/6400/200/20/
010670/20130326/112550/6390/235/10/
010670/20130326/112558/6390/840/10/
010670/20130326/112558/6380/1167/10/
010670/20130326/112604/6390/241/20/
010670/20130326/112645/6380/81/10/
010670/20130326/112809/6380/224/10/
010670/20130326/112809/6380/214/10/
010670/20130326/112825/6380/500/10/
010670/20130326/112841/6380/500/10/
010670/20130326/112951/6380/487/10/
010670/20130326/112951/6370/3101/10/
010670/20130326/112951/6360/4531/10/
010670/20130326/112951/6350/1162/10/
010670/20130326/112957/6350/722/20/
010670/20130326/113058/6350/261/10/
010670/20130326/113101/6350/420/10/
010670/20130326/113101/6340/1580/10/
010670/20130326/113134/6350/105/10/
010670/20130326/113136/6350/82/10/
010670/20130326/113148/6350/101/10/
010670/20130326/113220/6350/167/10/
010670/20130326/113721/6390/121/10/
010670/20130326/113929/6380/165/10/
010670/20130326/114036/6390/245/10/
010670/20130326/114341/6380/503/10/
010670/20130326/114517/6380/149/20/
010670/20130326/114633/6380/101/20/
010670/20130326/114637/6380/221/20/
010670/20130326/114637/6380/134/20/
010670/20130326/114814/6380/1343/10/
010670/20130326/114830/6370/2000/10/
010670/20130326/115735/6380/310/20/
010670/20130326/120037/6400/127/20/
010670/20130326/120418/6440/84/20/
010670/20130326/120426/6440/83/20/
010670/20130326/120426/6440/106/10/
010670/20130326/121101/6410/202/10/
010670/20130326/121115/6410/101/20/
010670/20130326/121115/6440/199/20/
010670/20130326/121115/6450/1700/20/
010670/20130326/121257/6450/2000/20/
010670/20130326/122102/6450/100/20/
010670/20130326/123555/6410/376/10/
010670/20130326/123644/6410/102/10/
010670/20130326/124021/6410/201/10/
010670/20130326/124713/6440/93/20/
010670/20130326/124713/6450/1443/20/
010670/20130326/124729/6450/100/10/
010670/20130326/124756/6450/300/10/
010670/20130326/125019/6470/278/20/
010670/20130326/125203/6450/100/10/
010670/20130326/125234/6450/154/10/
010670/20130326/125429/6450/117/10/
010670/20130326/125533/6450/100/10/
010670/20130326/125846/6450/100/10/
010670/20130326/131038/6470/1660/20/
010670/20130326/131109/6500/160/20/
010670/20130326/131111/6470/1000/10/
010670/20130326/131440/6500/451/20/
010670/20130326/131458/6470/200/10/
010670/20130326/131602/6490/84/20/
010670/20130326/132053/6500/2001/20/
010670/20130326/132333/6500/1000/20/
010670/20130326/132359/6500/484/20/
010670/20130326/132541/6500/107/10/
010670/20130326/132632/6480/153/10/
010670/20130326/133421/6470/1688/10/
010670/20130326/133422/6470/200/20/
010670/20130326/133425/6470/100/20/
010670/20130326/133937/6500/259/20/
010670/20130326/134255/6500/450/20/
010670/20130326/134340/6500/751/10/
010670/20130326/134340/6500/249/10/
010670/20130326/134822/6500/153/20/
010670/20130326/135022/6480/300/10/
010670/20130326/135332/6490/102/20/
010670/20130326/135657/6490/100/20/
010670/20130326/135904/6490/768/10/
010670/20130326/135956/6490/663/10/
010670/20130326/135957/6470/629/10/
010670/20130326/140137/6470/150/20/
010670/20130326/142629/6490/699/20/
010670/20130326/142629/6500/993/20/
010670/20130326/142630/6500/347/10/
010670/20130326/142746/6500/850/20/
010670/20130326/142746/6500/2150/10/
010670/20130326/142801/6500/330/10/
010670/20130326/142819/6510/500/20/
010670/20130326/142838/6510/1400/20/
010670/20130326/142858/6510/500/20/
010670/20130326/142936/6500/100/20/
010670/20130326/142949/6500/621/10/
010670/20130326/142949/6500/280/10/
010670/20130326/143055/6500/1012/10/
010670/20130326/143128/6460/402/10/
010670/20130326/143130/6500/1000/10/
010670/20130326/143514/6500/535/10/
010670/20130326/143521/6500/400/10/
010670/20130326/143534/6500/120/20/
010670/20130326/143536/6500/331/20/
010670/20130326/143541/6500/669/10/
010670/20130326/143603/6500/441/20/
010670/20130326/143609/6500/500/10/
010670/20130326/143634/6500/321/20/
010670/20130326/143739/6500/1740/10/
010670/20130326/143803/6500/315/20/
010670/20130326/143810/6500/686/10/
010670/20130326/143832/6500/315/20/
010670/20130326/143839/6500/500/10/
010670/20130326/143846/6500/150/10/
010670/20130326/143928/6500/1037/20/
010670/20130326/143946/6500/260/20/
010670/20130326/144030/6500/1162/20/
010670/20130326/144038/6500/841/10/
010670/20130326/144230/6480/404/10/
010670/20130326/144245/6500/1242/20/
010670/20130326/144259/6500/152/10/
010670/20130326/144314/6500/609/10/
010670/20130326/144334/6500/1003/20/
010670/20130326/144625/6480/409/10/
010670/20130326/144647/6500/3299/20/
010670/20130326/144647/6510/1460/20/
010670/20130326/144655/6510/243/10/
010670/20130326/144809/6510/1272/20/
010670/20130326/144809/6520/1736/20/
010670/20130326/144821/6520/100/20/
010670/20130326/144836/6520/155/20/
010670/20130326/144844/6530/131/20/
010670/20130326/144851/6530/1606/20/
010670/20130326/144900/6540/1050/20/
010670/20130326/144909/6550/1579/20/
010670/20130326/144918/6560/1000/20/
010670/20130326/144918/6570/1543/20/
010670/20130326/144924/6580/753/20/
010670/20130326/144946/6570/1021/10/
010670/20130326/144947/6570/253/10/
010670/20130326/144954/6540/1001/10/
010670/20130326/144956/6570/251/20/
010670/20130326/150000/6540/10576/10/
