010670/20121127/90000/4950/1038/20/
010670/20121127/90001/4950/882/20/
010670/20121127/90032/5120/101/20/
010670/20121127/90258/5040/90/10/
010670/20121127/90615/5030/151/20/
010670/20121127/90746/5030/700/20/
010670/20121127/90815/5030/151/20/
010670/20121127/90824/5030/150/10/
010670/20121127/90911/5030/102/10/
010670/20121127/91202/5030/695/20/
010670/20121127/91203/5030/306/10/
010670/20121127/91648/4990/573/10/
010670/20121127/92454/5000/201/20/
010670/20121127/92520/5020/151/20/
010670/20121127/92758/5030/714/20/
010670/20121127/92758/5040/804/20/
010670/20121127/92758/5050/1782/20/
010670/20121127/93144/5050/178/20/
010670/20121127/93202/5060/119/20/
010670/20121127/93220/5070/81/20/
010670/20121127/93550/5070/318/20/
010670/20121127/93647/5080/144/20/
010670/20121127/94144/5090/557/20/
010670/20121127/94144/5090/243/20/
010670/20121127/94249/5080/451/10/
010670/20121127/94346/5100/501/20/
010670/20121127/94350/5100/808/20/
010670/20121127/94354/5100/1192/10/
010670/20121127/94405/5090/190/10/
010670/20121127/94451/5100/448/20/
010670/20121127/94453/5100/360/20/
010670/20121127/94500/5100/400/10/
010670/20121127/94653/5100/148/20/
010670/20121127/94653/5110/105/20/
010670/20121127/94700/5110/187/20/
010670/20121127/94722/5110/148/20/
010670/20121127/95507/5090/206/10/
010670/20121127/95733/5090/369/20/
010670/20121127/95834/5090/178/20/
010670/20121127/100132/5070/575/10/
010670/20121127/100240/5070/150/10/
010670/20121127/100254/5060/200/10/
010670/20121127/100454/5060/1101/10/
010670/20121127/100724/5040/1301/10/
010670/20121127/101500/5070/536/20/
010670/20121127/101558/5080/173/20/
010670/20121127/101843/5080/162/20/
010670/20121127/101901/5080/211/20/
010670/20121127/101948/5090/101/20/
010670/20121127/102201/5100/361/20/
010670/20121127/102230/5100/100/20/
010670/20121127/102418/5100/100/20/
010670/20121127/102633/5100/1000/20/
010670/20121127/102653/5100/100/20/
010670/20121127/102710/5100/157/20/
010670/20121127/102718/5100/843/10/
010670/20121127/102723/5100/157/20/
010670/20121127/102753/5100/801/10/
010670/20121127/102803/5100/160/10/
010670/20121127/103014/5080/199/10/
010670/20121127/103110/5070/566/10/
010670/20121127/103213/5070/1006/10/
010670/20121127/103337/5070/1001/10/
010670/20121127/103413/5070/466/10/
010670/20121127/103424/5070/1000/10/
010670/20121127/103442/5070/201/10/
010670/20121127/103523/5070/500/10/
010670/20121127/103536/5070/500/10/
010670/20121127/103547/5070/500/10/
010670/20121127/103605/5070/300/10/
010670/20121127/103703/5060/360/10/
010670/20121127/103704/5060/507/10/
010670/20121127/103741/5040/500/10/
010670/20121127/103818/5040/500/10/
010670/20121127/103830/5040/121/10/
010670/20121127/103910/5030/500/10/
010670/20121127/104004/5030/503/10/
010670/20121127/104102/5040/183/20/
010670/20121127/104328/5040/293/20/
010670/20121127/104354/5040/501/10/
010670/20121127/104402/5040/200/10/
010670/20121127/105053/5070/714/20/
010670/20121127/105150/5070/545/10/
010670/20121127/105333/5080/501/20/
010670/20121127/105634/5070/158/10/
010670/20121127/105948/5080/555/20/
010670/20121127/110241/5090/510/20/
010670/20121127/110242/5090/300/10/
010670/20121127/110304/5090/301/10/
010670/20121127/110318/5100/2001/20/
010670/20121127/110325/5100/902/20/
010670/20121127/110339/5110/359/20/
010670/20121127/110403/5100/101/10/
010670/20121127/110421/5110/90/20/
010670/20121127/110449/5110/810/20/
010670/20121127/110738/5110/106/20/
010670/20121127/110748/5120/701/20/
010670/20121127/110847/5110/430/10/
010670/20121127/110921/5120/1461/20/
010670/20121127/110958/5120/168/20/
010670/20121127/111016/5130/417/20/
010670/20121127/111047/5130/183/20/
010670/20121127/111312/5140/1171/20/
010670/20121127/111317/5140/201/10/
010670/20121127/111346/5150/101/20/
010670/20121127/111400/5150/200/20/
010670/20121127/111416/5150/778/20/
010670/20121127/111424/5160/1802/20/
010670/20121127/111447/5170/1001/20/
010670/20121127/111501/5170/244/20/
010670/20121127/111557/5170/137/20/
010670/20121127/111639/5170/100/20/
010670/20121127/111754/5160/200/10/
010670/20121127/112339/5170/1229/20/
010670/20121127/112344/5170/490/20/
010670/20121127/112526/5170/656/20/
010670/20121127/112543/5180/141/20/
010670/20121127/112714/5180/1009/20/
010670/20121127/112717/5180/400/20/
010670/20121127/112724/5180/201/20/
010670/20121127/112728/5180/579/20/
010670/20121127/112812/5190/511/20/
010670/20121127/112816/5190/83/20/
010670/20121127/112823/5200/598/20/
010670/20121127/112832/5200/104/20/
010670/20121127/112859/5200/967/20/
010670/20121127/112947/5200/144/20/
010670/20121127/113008/5200/130/20/
010670/20121127/113028/5200/140/20/
010670/20121127/113036/5200/146/20/
010670/20121127/113108/5210/295/20/
010670/20121127/113116/5220/418/20/
010670/20121127/113133/5230/1012/20/
010670/20121127/113155/5240/111/20/
010670/20121127/113202/5240/100/20/
010670/20121127/113216/5240/165/20/
010670/20121127/113224/5240/200/20/
010670/20121127/113232/5240/343/20/
010670/20121127/113237/5240/110/10/
010670/20121127/113248/5240/149/10/
010670/20121127/113303/5240/104/10/
010670/20121127/113320/5240/116/20/
010670/20121127/113330/5240/100/20/
010670/20121127/113445/5230/409/10/
010670/20121127/113714/5210/306/10/
010670/20121127/113817/5200/265/10/
010670/20121127/114257/5190/92/10/
010670/20121127/115314/5180/512/10/
010670/20121127/115358/5170/952/10/
010670/20121127/115809/5190/488/10/
010670/20121127/120028/5190/556/20/
010670/20121127/120107/5190/346/10/
010670/20121127/120353/5180/115/10/
010670/20121127/120526/5190/310/20/
010670/20121127/120707/5200/502/20/
010670/20121127/120707/5200/297/20/
010670/20121127/120736/5210/590/20/
010670/20121127/120736/5220/410/20/
010670/20121127/121929/5190/242/10/
010670/20121127/122753/5170/1232/10/
010670/20121127/123242/5210/613/20/
010670/20121127/123306/5210/553/10/
010670/20121127/123329/5210/115/10/
010670/20121127/123512/5210/108/10/
010670/20121127/123551/5210/240/10/
010670/20121127/123656/5200/1901/10/
010670/20121127/123906/5180/150/10/
010670/20121127/123906/5170/600/10/
010670/20121127/124204/5210/438/20/
010670/20121127/124317/5220/645/20/
010670/20121127/124342/5220/156/10/
010670/20121127/124450/5220/153/20/
010670/20121127/124453/5220/423/10/
010670/20121127/124526/5220/101/20/
010670/20121127/124527/5210/98/10/
010670/20121127/124553/5200/200/10/
010670/20121127/124614/5190/101/10/
010670/20121127/124614/5180/900/10/
010670/20121127/124638/5180/1000/10/
010670/20121127/124732/5180/450/10/
010670/20121127/124757/5170/593/10/
010670/20121127/124939/5160/895/10/
010670/20121127/124957/5160/98/10/
010670/20121127/125152/5160/655/10/
010670/20121127/125223/5160/400/10/
010670/20121127/125522/5150/2625/10/
010670/20121127/125532/5150/269/10/
010670/20121127/125539/5140/208/10/
010670/20121127/125543/5140/140/10/
010670/20121127/125602/5140/82/10/
010670/20121127/125609/5140/118/20/
010670/20121127/125710/5150/147/10/
010670/20121127/125710/5140/121/10/
010670/20121127/125718/5140/224/10/
010670/20121127/125730/5130/401/10/
010670/20121127/130136/5130/306/10/
010670/20121127/130405/5120/515/10/
010670/20121127/130451/5130/248/20/
010670/20121127/130546/5120/391/10/
010670/20121127/130754/5110/300/10/
010670/20121127/130754/5100/400/10/
010670/20121127/130754/5090/104/10/
010670/20121127/130925/5090/717/10/
010670/20121127/131027/5090/2918/20/
010670/20121127/131040/5090/235/10/
010670/20121127/131051/5090/1612/20/
010670/20121127/131057/5090/131/10/
010670/20121127/131318/5120/709/20/
010670/20121127/131551/5130/492/20/
010670/20121127/131637/5140/300/20/
010670/20121127/131637/5150/1000/20/
010670/20121127/131712/5180/906/20/
010670/20121127/131712/5190/1097/20/
010670/20121127/131739/5190/454/20/
010670/20121127/131739/5190/350/10/
010670/20121127/131752/5150/94/10/
010670/20121127/131915/5200/498/20/
010670/20121127/131915/5200/1503/10/
010670/20121127/133009/5180/332/10/
010670/20121127/133009/5170/1200/10/
010670/20121127/133009/5160/200/10/
010670/20121127/133047/5160/220/10/
010670/20121127/133047/5150/1790/10/
010670/20121127/133418/5200/510/20/
010670/20121127/133427/5150/200/10/
010670/20121127/134443/5150/805/10/
010670/20121127/134706/5130/301/10/
010670/20121127/134743/5120/500/10/
010670/20121127/134804/5120/500/10/
010670/20121127/134840/5130/2001/10/
010670/20121127/134927/5130/200/10/
010670/20121127/135242/5130/103/20/
010670/20121127/135251/5120/100/10/
010670/20121127/135558/5110/500/10/
010670/20121127/135558/5110/300/20/
010670/20121127/135629/5100/800/10/
010670/20121127/135639/5100/200/20/
010670/20121127/140422/5090/1301/10/
010670/20121127/140655/5090/520/10/
010670/20121127/140828/5100/331/10/
010670/20121127/141157/5100/420/20/
010670/20121127/141335/5120/103/20/
010670/20121127/141414/5120/100/10/
010670/20121127/141557/5130/708/20/
010670/20121127/142535/5120/509/10/
010670/20121127/143436/5110/545/10/
010670/20121127/143436/5100/1010/10/
010670/20121127/143436/5090/547/10/
010670/20121127/143744/5100/301/10/
010670/20121127/144122/5110/491/10/
010670/20121127/144122/5100/502/10/
010670/20121127/144122/5090/1089/10/
010670/20121127/144122/5080/919/10/
010670/20121127/144402/5110/1001/20/
010670/20121127/144446/5100/503/10/
010670/20121127/144621/5090/299/10/
010670/20121127/144701/5100/498/20/
010670/20121127/144851/5100/202/10/
010670/20121127/144855/5090/1000/10/
010670/20121127/144946/5100/511/10/
010670/20121127/144953/5100/501/10/
010670/20121127/150000/5090/2391/10/
