010670/20121128/90000/5150/1234/10/
010670/20121128/90001/5150/674/10/
010670/20121128/90136/5130/551/20/
010670/20121128/90334/5090/591/10/
010670/20121128/90506/5090/100/10/
010670/20121128/90550/5030/100/10/
010670/20121128/90912/5040/150/10/
010670/20121128/91008/5040/245/10/
010670/20121128/91121/5030/1011/10/
010670/20121128/91121/5020/510/10/
010670/20121128/91121/5010/331/10/
010670/20121128/91121/5000/1209/10/
010670/20121128/91148/5070/233/20/
010670/20121128/91149/5070/567/10/
010670/20121128/91647/5010/162/10/
010670/20121128/92107/5010/241/10/
010670/20121128/92829/5040/99/20/
010670/20121128/92829/5060/244/20/
010670/20121128/92941/5060/96/20/
010670/20121128/93940/5060/371/20/
010670/20121128/94018/5060/500/10/
010670/20121128/94220/5080/545/20/
010670/20121128/94251/5080/112/20/
010670/20121128/94319/5080/143/20/
010670/20121128/94319/5090/257/20/
010670/20121128/94423/5090/300/20/
010670/20121128/94450/5090/143/20/
010670/20121128/94550/5100/500/20/
010670/20121128/94555/5110/301/20/
010670/20121128/94610/5110/114/20/
010670/20121128/94649/5140/343/20/
010670/20121128/94702/5160/251/20/
010670/20121128/94837/5140/306/10/
010670/20121128/94843/5160/394/20/
010670/20121128/94909/5180/700/20/
010670/20121128/95021/5190/351/20/
010670/20121128/95021/5200/1002/20/
010670/20121128/95522/5200/220/20/
010670/20121128/95540/5200/600/10/
010670/20121128/95631/5200/90/20/
010670/20121128/95631/5200/162/10/
010670/20121128/95735/5200/130/20/
010670/20121128/95750/5190/160/10/
010670/20121128/95803/5160/101/10/
010670/20121128/95956/5160/501/10/
010670/20121128/100127/5180/100/20/
010670/20121128/100603/5180/411/20/
010670/20121128/100804/5160/783/10/
010670/20121128/100927/5150/1031/10/
010670/20121128/101012/5150/220/20/
010670/20121128/101046/5150/280/20/
010670/20121128/101213/5150/161/10/
010670/20121128/101237/5140/600/10/
010670/20121128/101248/5130/100/10/
010670/20121128/101302/5120/131/10/
010670/20121128/101619/5150/500/20/
010670/20121128/101638/5160/701/20/
010670/20121128/102626/5150/337/10/
010670/20121128/102651/5150/83/10/
010670/20121128/103118/5150/109/10/
010670/20121128/103646/5150/109/20/
010670/20121128/103657/5150/390/10/
010670/20121128/103819/5150/256/10/
010670/20121128/104006/5130/500/10/
010670/20121128/104006/5120/2256/10/
010670/20121128/104302/5120/125/10/
010670/20121128/104302/5110/487/10/
010670/20121128/104302/5100/96/10/
010670/20121128/104302/5090/1292/10/
010670/20121128/104519/5090/1013/10/
010670/20121128/105120/5090/82/10/
010670/20121128/105120/5090/418/20/
010670/20121128/110511/5080/111/10/
010670/20121128/110611/5080/158/10/
010670/20121128/110804/5080/302/10/
010670/20121128/111028/5080/550/10/
010670/20121128/111028/5070/600/10/
010670/20121128/111028/5060/602/10/
010670/20121128/111118/5060/1598/10/
010670/20121128/111145/5060/402/20/
010670/20121128/111223/5060/1099/10/
010670/20121128/111242/5060/231/20/
010670/20121128/111331/5060/227/20/
010670/20121128/111443/5040/1002/10/
010670/20121128/111616/5040/450/10/
010670/20121128/111628/5040/752/10/
010670/20121128/111628/5040/248/20/
010670/20121128/111657/5040/300/10/
010670/20121128/111657/5040/700/20/
010670/20121128/111759/5040/1001/10/
010670/20121128/111923/5040/322/10/
010670/20121128/112013/5040/211/20/
010670/20121128/112013/5040/469/20/
010670/20121128/112054/5040/163/20/
010670/20121128/112200/5040/889/20/
010670/20121128/112447/5040/704/10/
010670/20121128/112501/5030/2000/10/
010670/20121128/112536/5040/1306/20/
010670/20121128/112559/5040/659/10/
010670/20121128/112633/5030/388/10/
010670/20121128/112714/5020/205/10/
010670/20121128/112736/5020/1798/10/
010670/20121128/112736/5010/3071/10/
010670/20121128/112736/5000/2131/10/
010670/20121128/112751/5000/347/10/
010670/20121128/112915/5030/415/20/
010670/20121128/114509/5050/359/10/
010670/20121128/114509/5040/326/10/
010670/20121128/114845/5070/110/20/
010670/20121128/114858/5070/100/20/
010670/20121128/115814/5060/148/10/
010670/20121128/115814/5050/463/10/
010670/20121128/120030/5070/98/20/
010670/20121128/120140/5080/521/20/
010670/20121128/120642/5080/138/20/
010670/20121128/120938/5080/101/20/
010670/20121128/121105/5100/421/20/
010670/20121128/121320/5100/1000/20/
010670/20121128/123026/5080/105/10/
010670/20121128/123104/5080/777/10/
010670/20121128/123107/5080/168/10/
010670/20121128/123435/5070/253/10/
010670/20121128/123749/5070/315/10/
010670/20121128/124736/5080/100/20/
010670/20121128/124805/5090/100/20/
010670/20121128/124845/5100/180/20/
010670/20121128/125055/5100/2047/20/
010670/20121128/125225/5100/192/20/
010670/20121128/125617/5090/110/10/
010670/20121128/130342/5090/354/10/
010670/20121128/130528/5100/100/20/
010670/20121128/130553/5100/100/20/
010670/20121128/131238/5100/200/20/
010670/20121128/131320/5100/500/20/
010670/20121128/131400/5090/90/10/
010670/20121128/131436/5100/200/20/
010670/20121128/131646/5100/286/20/
010670/20121128/131730/5100/653/20/
010670/20121128/131950/5110/201/20/
010670/20121128/131952/5110/951/20/
010670/20121128/131952/5120/1501/20/
010670/20121128/131952/5130/848/20/
010670/20121128/132408/5130/1000/20/
010670/20121128/132433/5130/200/20/
010670/20121128/132434/5130/152/20/
010670/20121128/133247/5120/145/20/
010670/20121128/133533/5100/1061/10/
010670/20121128/133647/5100/398/10/
010670/20121128/133840/5120/142/20/
010670/20121128/133847/5120/100/10/
010670/20121128/133853/5120/101/10/
010670/20121128/133857/5120/100/10/
010670/20121128/133958/5120/501/10/
010670/20121128/134409/5120/418/20/
010670/20121128/134614/5100/1308/10/
010670/20121128/134638/5100/1500/10/
010670/20121128/135107/5120/501/20/
010670/20121128/135432/5110/400/10/
010670/20121128/135727/5120/313/20/
010670/20121128/135741/5120/197/20/
010670/20121128/140522/5120/130/10/
010670/20121128/141136/5120/291/20/
010670/20121128/141136/5130/456/20/
010670/20121128/141553/5130/618/20/
010670/20121128/141653/5140/125/20/
010670/20121128/141657/5140/502/20/
010670/20121128/141831/5140/419/20/
010670/20121128/141951/5150/184/20/
010670/20121128/141954/5150/415/20/
010670/20121128/142005/5150/1000/20/
010670/20121128/142031/5150/218/20/
010670/20121128/142052/5150/158/20/
010670/20121128/142230/5160/1055/20/
010670/20121128/142240/5160/88/20/
010670/20121128/142246/5160/368/20/
010670/20121128/142254/5160/410/10/
010670/20121128/142420/5160/601/20/
010670/20121128/142420/5170/411/20/
010670/20121128/142434/5170/462/20/
010670/20121128/142443/5170/92/20/
010670/20121128/142647/5170/1213/20/
010670/20121128/142647/5180/1218/20/
010670/20121128/142647/5190/591/20/
010670/20121128/142823/5190/532/20/
010670/20121128/142824/5180/500/10/
010670/20121128/142918/5180/254/10/
010670/20121128/143018/5180/85/10/
010670/20121128/143116/5180/1001/10/
010670/20121128/143159/5190/83/20/
010670/20121128/143159/5180/145/10/
010670/20121128/143203/5180/201/10/
010670/20121128/143213/5180/122/10/
010670/20121128/143221/5180/200/20/
010670/20121128/143232/5170/900/10/
010670/20121128/143314/5180/579/20/
010670/20121128/143331/5190/1002/20/
010670/20121128/143646/5180/374/10/
010670/20121128/143656/5180/177/10/
010670/20121128/143859/5180/1052/20/
010670/20121128/143903/5170/150/10/
010670/20121128/143911/5170/86/10/
010670/20121128/143957/5170/365/10/
010670/20121128/143957/5160/669/10/
010670/20121128/144107/5160/1101/10/
010670/20121128/144615/5150/793/10/
010670/20121128/144615/5140/259/10/
010670/20121128/144726/5170/1011/20/
010670/20121128/144831/5170/250/20/
010670/20121128/144947/5180/1478/20/
010670/20121128/150000/5180/6246/20/
