010670/20130227/90000/5780/3186/10/
010670/20130227/90115/5830/102/10/
010670/20130227/90338/5810/100/10/
010670/20130227/90338/5800/910/10/
010670/20130227/90342/5800/200/10/
010670/20130227/90344/5800/328/10/
010670/20130227/90405/5800/100/10/
010670/20130227/90446/5780/546/10/
010670/20130227/90446/5770/500/10/
010670/20130227/90446/5760/500/10/
010670/20130227/90455/5750/323/10/
010670/20130227/90536/5750/233/10/
010670/20130227/90610/5740/214/10/
010670/20130227/90710/5750/245/10/
010670/20130227/90710/5740/200/10/
010670/20130227/91208/5790/553/20/
010670/20130227/91228/5790/500/10/
010670/20130227/91313/5790/358/10/
010670/20130227/91421/5790/342/10/
010670/20130227/91445/5800/352/20/
010670/20130227/91641/5810/83/20/
010670/20130227/91728/5800/100/20/
010670/20130227/91923/5800/333/10/
010670/20130227/92121/5800/99/10/
010670/20130227/92220/5800/602/10/
010670/20130227/92403/5760/109/10/
010670/20130227/92542/5770/527/10/
010670/20130227/92542/5760/474/10/
010670/20130227/92654/5770/101/20/
010670/20130227/92835/5770/1001/10/
010670/20130227/92943/5770/300/10/
010670/20130227/93504/5770/113/10/
010670/20130227/93537/5770/300/10/
010670/20130227/93614/5770/684/10/
010670/20130227/93823/5760/849/10/
010670/20130227/94145/5760/382/20/
010670/20130227/94223/5790/102/10/
010670/20130227/94352/5760/603/10/
010670/20130227/94412/5760/401/10/
010670/20130227/94549/5770/209/10/
010670/20130227/94600/5760/1001/10/
010670/20130227/94629/5760/1001/10/
010670/20130227/94700/5760/201/10/
010670/20130227/94709/5760/608/10/
010670/20130227/94820/5770/801/20/
010670/20130227/94932/5770/107/10/
010670/20130227/95111/5780/370/20/
010670/20130227/95111/5790/635/20/
010670/20130227/95232/5770/564/10/
010670/20130227/95446/5800/2450/20/
010670/20130227/95446/5810/1914/20/
010670/20130227/95503/5810/100/20/
010670/20130227/95531/5820/110/20/
010670/20130227/95538/5820/150/20/
010670/20130227/95541/5820/100/20/
010670/20130227/95603/5820/100/20/
010670/20130227/95807/5810/695/10/
010670/20130227/100419/5810/811/20/
010670/20130227/100550/5810/200/20/
010670/20130227/100752/5810/548/20/
010670/20130227/100800/5810/390/20/
010670/20130227/100844/5820/372/20/
010670/20130227/101035/5810/100/10/
010670/20130227/101138/5810/566/10/
010670/20130227/101142/5810/100/20/
010670/20130227/101153/5810/335/20/
010670/20130227/101212/5810/501/10/
010670/20130227/101415/5820/102/20/
010670/20130227/101646/5810/100/10/
010670/20130227/101713/5810/204/10/
010670/20130227/102040/5810/296/20/
010670/20130227/102102/5810/200/10/
010670/20130227/102131/5820/2000/20/
010670/20130227/102318/5820/585/10/
010670/20130227/102358/5830/401/20/
010670/20130227/102412/5830/2906/20/
010670/20130227/102444/5830/81/10/
010670/20130227/102447/5840/2011/20/
010670/20130227/102459/5840/81/10/
010670/20130227/102504/5850/136/20/
010670/20130227/102516/5850/990/20/
010670/20130227/102532/5860/82/20/
010670/20130227/102537/5860/148/20/
010670/20130227/102541/5860/116/20/
010670/20130227/102544/5860/859/20/
010670/20130227/102546/5860/389/20/
010670/20130227/102551/5860/524/10/
010670/20130227/102601/5870/1057/20/
010670/20130227/102603/5870/1004/20/
010670/20130227/102604/5870/168/20/
010670/20130227/102609/5880/122/20/
010670/20130227/102609/5880/269/20/
010670/20130227/102613/5880/777/10/
010670/20130227/102614/5880/102/10/
010670/20130227/102617/5890/1328/20/
010670/20130227/102622/5900/1014/20/
010670/20130227/102622/5900/3247/20/
010670/20130227/102626/5910/308/20/
010670/20130227/102630/5920/288/20/
010670/20130227/102632/5920/530/20/
010670/20130227/102636/5920/797/20/
010670/20130227/102640/5920/308/10/
010670/20130227/102641/5920/228/20/
010670/20130227/102641/5930/756/20/
010670/20130227/102650/5920/107/20/
010670/20130227/102651/5930/108/20/
010670/20130227/102702/5930/371/20/
010670/20130227/102707/5930/127/20/
010670/20130227/102722/5920/253/10/
010670/20130227/102737/5910/183/10/
010670/20130227/102740/5910/100/20/
010670/20130227/102742/5910/236/20/
010670/20130227/102759/5910/254/20/
010670/20130227/102814/5900/507/10/
010670/20130227/102827/5900/219/20/
010670/20130227/102844/5900/305/10/
010670/20130227/102851/5900/302/10/
010670/20130227/102934/5880/250/10/
010670/20130227/102943/5900/200/20/
010670/20130227/102947/5880/300/10/
010670/20130227/102959/5880/619/10/
010670/20130227/102959/5880/2365/20/
010670/20130227/103038/5900/924/20/
010670/20130227/103153/5890/144/10/
010670/20130227/103208/5900/801/20/
010670/20130227/103340/5890/91/20/
010670/20130227/103409/5890/505/20/
010670/20130227/103413/5890/105/10/
010670/20130227/103603/5870/2027/10/
010670/20130227/103612/5890/201/20/
010670/20130227/103627/5870/200/10/
010670/20130227/103839/5890/752/20/
010670/20130227/103857/5890/344/10/
010670/20130227/103907/5890/108/20/
010670/20130227/103913/5890/897/10/
010670/20130227/103917/5890/361/20/
010670/20130227/104134/5900/737/10/
010670/20130227/104216/5900/301/10/
010670/20130227/104232/5900/905/10/
010670/20130227/104232/5900/200/20/
010670/20130227/104248/5890/382/10/
010670/20130227/104250/5890/118/20/
010670/20130227/104325/5900/721/20/
010670/20130227/104445/5890/932/10/
010670/20130227/104804/5880/175/10/
010670/20130227/104826/5880/1001/10/
010670/20130227/104841/5880/200/10/
010670/20130227/104929/5870/1051/10/
010670/20130227/104940/5870/500/10/
010670/20130227/105032/5860/129/10/
010670/20130227/105303/5860/256/10/
010670/20130227/105410/5860/225/20/
010670/20130227/105723/5850/830/10/
010670/20130227/105752/5850/381/10/
010670/20130227/105851/5840/1854/10/
010670/20130227/105913/5840/319/10/
010670/20130227/110254/5860/347/20/
010670/20130227/110504/5850/126/10/
010670/20130227/110605/5850/124/10/
010670/20130227/111032/5880/83/20/
010670/20130227/111144/5880/83/20/
010670/20130227/111201/5890/100/20/
010670/20130227/111253/5890/246/10/
010670/20130227/111550/5890/509/20/
010670/20130227/111635/5890/96/10/
010670/20130227/111723/5890/161/10/
010670/20130227/111726/5900/414/20/
010670/20130227/111831/5890/316/10/
010670/20130227/111849/5880/1001/10/
010670/20130227/112112/5870/1048/10/
010670/20130227/112947/5890/266/10/
010670/20130227/112955/5890/750/10/
010670/20130227/113811/5870/495/10/
010670/20130227/113811/5860/542/10/
010670/20130227/113931/5860/582/10/
010670/20130227/113931/5850/419/10/
010670/20130227/114508/5850/540/10/
010670/20130227/115016/5850/178/10/
010670/20130227/123041/5850/105/10/
010670/20130227/123114/5860/97/20/
010670/20130227/123339/5850/378/10/
010670/20130227/123339/5840/499/10/
010670/20130227/124255/5850/1001/10/
010670/20130227/124746/5850/502/10/
010670/20130227/124753/5870/1000/20/
010670/20130227/125339/5880/107/20/
010670/20130227/130711/5880/2527/20/
010670/20130227/130803/5890/400/20/
010670/20130227/130911/5880/533/10/
010670/20130227/130921/5880/158/20/
010670/20130227/130925/5880/312/20/
010670/20130227/131033/5890/102/20/
010670/20130227/131126/5890/614/20/
010670/20130227/131133/5900/2000/20/
010670/20130227/131209/5900/357/20/
010670/20130227/131219/5900/600/10/
010670/20130227/131237/5900/100/10/
010670/20130227/131256/5910/2199/20/
010670/20130227/131317/5920/1001/20/
010670/20130227/131321/5930/1047/20/
010670/20130227/131326/5930/1000/20/
010670/20130227/131329/5930/1000/20/
010670/20130227/131406/5920/200/10/
010670/20130227/131409/5920/800/10/
010670/20130227/131422/5920/700/20/
010670/20130227/131446/5920/501/10/
010670/20130227/131526/5910/291/10/
010670/20130227/131529/5910/1709/10/
010670/20130227/131539/5910/291/10/
010670/20130227/131539/5920/1466/20/
010670/20130227/131622/5910/200/10/
010670/20130227/131838/5920/178/20/
010670/20130227/132210/5900/924/10/
010670/20130227/132309/5900/316/10/
010670/20130227/132428/5900/118/10/
010670/20130227/132752/5900/301/20/
010670/20130227/133058/5900/155/20/
010670/20130227/133127/5910/751/20/
010670/20130227/133133/5920/1384/20/
010670/20130227/133200/5930/1964/20/
010670/20130227/133344/5930/138/20/
010670/20130227/133555/5920/181/10/
010670/20130227/133649/5930/563/20/
010670/20130227/133705/5930/401/20/
010670/20130227/133750/5940/1020/20/
010670/20130227/133754/5940/1000/20/
010670/20130227/133759/5940/500/20/
010670/20130227/133808/5930/1010/10/
010670/20130227/133859/5940/308/20/
010670/20130227/133906/5950/1000/20/
010670/20130227/133926/5950/300/20/
010670/20130227/133929/5950/100/20/
010670/20130227/133937/5950/847/20/
010670/20130227/133948/5950/1000/20/
010670/20130227/134016/5950/781/20/
010670/20130227/134034/5950/1050/10/
010670/20130227/134123/5950/1001/10/
010670/20130227/134158/5960/586/20/
010670/20130227/134207/5960/1473/20/
010670/20130227/134207/5970/2219/20/
010670/20130227/134239/5960/500/10/
010670/20130227/134246/5970/500/20/
010670/20130227/134255/5960/500/10/
010670/20130227/134328/5970/501/20/
010670/20130227/134517/5960/500/10/
010670/20130227/134519/5970/500/20/
010670/20130227/134630/5960/1001/10/
010670/20130227/134739/5960/211/10/
010670/20130227/134755/5960/90/10/
010670/20130227/134806/5970/1011/20/
010670/20130227/134817/5970/249/20/
010670/20130227/134822/5970/500/20/
010670/20130227/134828/5980/4000/20/
010670/20130227/134828/5980/356/20/
010670/20130227/134839/5990/308/20/
010670/20130227/134844/5990/998/20/
010670/20130227/134850/5990/200/20/
010670/20130227/134859/5990/2600/20/
010670/20130227/134859/6000/2400/20/
010670/20130227/134911/6000/149/20/
010670/20130227/134933/6000/2280/20/
010670/20130227/134936/6000/1072/20/
010670/20130227/134938/6000/2000/20/
010670/20130227/134956/6010/203/20/
010670/20130227/135156/6000/1004/20/
010670/20130227/135159/6000/496/20/
010670/20130227/135202/6000/344/10/
010670/20130227/135213/6000/1036/20/
010670/20130227/135219/6000/843/10/
010670/20130227/135230/6000/150/20/
010670/20130227/135234/6010/142/20/
010670/20130227/135240/6000/492/10/
010670/20130227/135246/6000/1008/20/
010670/20130227/135343/6010/508/20/
010670/20130227/135409/6000/122/10/
010670/20130227/135418/6000/424/10/
010670/20130227/135454/6000/576/20/
010670/20130227/135536/6000/426/10/
010670/20130227/135652/5990/121/10/
010670/20130227/135716/5990/327/10/
010670/20130227/135733/5990/1000/10/
010670/20130227/135919/5990/81/10/
010670/20130227/140051/6000/863/20/
010670/20130227/140112/6000/105/20/
010670/20130227/140235/5990/83/10/
010670/20130227/140256/5980/1009/10/
010670/20130227/140303/5980/1000/10/
010670/20130227/140309/5990/113/20/
010670/20130227/140313/5990/120/10/
010670/20130227/140315/5990/287/10/
010670/20130227/140422/5980/500/10/
010670/20130227/140451/5980/82/10/
010670/20130227/140710/5970/206/10/
010670/20130227/140710/5960/105/10/
010670/20130227/140710/5950/328/10/
010670/20130227/141018/5980/1738/20/
010670/20130227/141112/5980/152/20/
010670/20130227/141328/5980/520/20/
010670/20130227/141556/5980/425/20/
010670/20130227/141707/5990/100/20/
010670/20130227/141711/5980/87/10/
010670/20130227/141845/5970/488/10/
010670/20130227/141845/5960/1297/10/
010670/20130227/141845/5950/362/10/
010670/20130227/142126/5990/1058/20/
010670/20130227/142146/5990/813/20/
010670/20130227/142146/6000/5387/20/
010670/20130227/142205/6000/2000/20/
010670/20130227/142211/5970/1001/10/
010670/20130227/142225/6000/1001/10/
010670/20130227/142254/6000/1853/20/
010670/20130227/142411/6000/558/20/
010670/20130227/142640/6000/200/20/
010670/20130227/142658/6010/1004/20/
010670/20130227/142707/6010/201/20/
010670/20130227/142709/6020/898/20/
010670/20130227/142709/6030/1024/20/
010670/20130227/142716/6040/107/20/
010670/20130227/142720/6030/81/10/
010670/20130227/142743/6030/104/20/
010670/20130227/142808/6040/305/20/
010670/20130227/142919/6040/571/20/
010670/20130227/142934/6040/411/20/
010670/20130227/142934/6050/166/20/
010670/20130227/142936/6050/90/20/
010670/20130227/142952/6050/1200/20/
010670/20130227/143002/6060/1012/20/
010670/20130227/143004/6050/101/10/
010670/20130227/143006/6060/300/20/
010670/20130227/143022/6070/1040/20/
010670/20130227/143023/6070/395/20/
010670/20130227/143025/6070/100/20/
010670/20130227/143040/6070/1928/20/
010670/20130227/143043/6070/151/10/
010670/20130227/143055/6080/406/20/
010670/20130227/143057/6080/200/10/
010670/20130227/143101/6090/4033/20/
010670/20130227/143102/6090/272/20/
010670/20130227/143112/6090/90/20/
010670/20130227/143113/6090/300/20/
010670/20130227/143116/6090/146/20/
010670/20130227/143117/6090/355/10/
010670/20130227/143126/6090/1997/20/
010670/20130227/143135/6090/1531/20/
010670/20130227/143144/6090/301/20/
010670/20130227/143147/6090/297/20/
010670/20130227/143202/6090/1008/20/
010670/20130227/143225/6080/93/10/
010670/20130227/143238/6080/149/10/
010670/20130227/143307/6070/3071/10/
010670/20130227/143315/6070/122/10/
010670/20130227/143320/6050/135/10/
010670/20130227/143346/6080/576/20/
010670/20130227/143346/6090/425/20/
010670/20130227/143414/6090/88/20/
010670/20130227/143430/6050/500/10/
010670/20130227/143754/6050/1002/10/
010670/20130227/143813/6050/107/10/
010670/20130227/143842/6030/130/10/
010670/20130227/143842/6020/275/10/
010670/20130227/143851/6020/178/10/
010670/20130227/143917/6030/201/10/
010670/20130227/143917/6020/1657/10/
010670/20130227/143926/6020/300/20/
010670/20130227/144258/6070/85/20/
010670/20130227/144503/6040/380/10/
010670/20130227/144540/6060/501/20/
010670/20130227/144618/6060/223/10/
010670/20130227/144745/6070/847/20/
010670/20130227/144811/6070/287/20/
010670/20130227/144824/6080/1001/20/
010670/20130227/144825/6070/100/10/
010670/20130227/144829/6080/779/20/
010670/20130227/144843/6070/617/10/
010670/20130227/144854/6070/101/10/
010670/20130227/144937/6070/685/10/
010670/20130227/144937/6060/1000/10/
010670/20130227/150000/6050/7986/20/
