010670/20121105/90000/5300/1630/10/
010670/20121105/90250/5320/204/10/
010670/20121105/91138/5330/93/10/
010670/20121105/91148/5320/331/10/
010670/20121105/91557/5310/611/10/
010670/20121105/91557/5300/390/10/
010670/20121105/91730/5350/510/20/
010670/20121105/91819/5350/430/20/
010670/20121105/92055/5320/572/10/
010670/20121105/92510/5320/501/10/
010670/20121105/92549/5320/500/10/
010670/20121105/92718/5320/87/20/
010670/20121105/92806/5320/186/10/
010670/20121105/92904/5350/429/20/
010670/20121105/92904/5360/1772/20/
010670/20121105/92906/5320/300/10/
010670/20121105/92936/5380/1436/20/
010670/20121105/92936/5390/630/20/
010670/20121105/92936/5400/88/20/
010670/20121105/93559/5330/668/10/
010670/20121105/93559/5320/1362/10/
010670/20121105/93629/5320/228/10/
010670/20121105/94229/5320/801/10/
010670/20121105/94537/5320/870/10/
010670/20121105/94537/5310/915/10/
010670/20121105/94646/5310/216/20/
010670/20121105/95253/5310/2001/10/
010670/20121105/95430/5310/501/10/
010670/20121105/95905/5320/501/20/
010670/20121105/100022/5320/501/10/
010670/20121105/100043/5320/1010/10/
010670/20121105/100110/5320/1000/10/
010670/20121105/100158/5310/2050/10/
010670/20121105/100422/5320/880/20/
010670/20121105/101322/5310/2002/10/
010670/20121105/101825/5310/99/10/
010670/20121105/102353/5300/500/10/
010670/20121105/102644/5300/149/10/
010670/20121105/102644/5290/552/10/
010670/20121105/102720/5290/104/10/
010670/20121105/102819/5290/201/10/
010670/20121105/102910/5300/301/20/
010670/20121105/103057/5290/206/10/
010670/20121105/103057/5280/594/10/
010670/20121105/103351/5270/399/10/
010670/20121105/103351/5260/601/10/
010670/20121105/103406/5260/430/10/
010670/20121105/103406/5250/1446/10/
010670/20121105/103427/5250/142/20/
010670/20121105/103637/5280/501/10/
010670/20121105/103637/5230/168/10/
010670/20121105/103637/5210/191/10/
010670/20121105/103849/5200/341/10/
010670/20121105/103849/5180/560/10/
010670/20121105/103954/5180/81/10/
010670/20121105/103954/5170/295/10/
010670/20121105/104033/5200/251/10/
010670/20121105/104033/5170/650/10/
010670/20121105/104123/5180/515/10/
010670/20121105/104832/5230/519/20/
010670/20121105/105214/5230/101/20/
010670/20121105/105316/5230/118/20/
010670/20121105/105316/5240/111/20/
010670/20121105/105959/5240/132/20/
010670/20121105/110643/5270/82/20/
010670/20121105/111602/5210/782/10/
010670/20121105/112154/5250/202/20/
010670/20121105/112439/5250/143/10/
010670/20121105/113329/5200/400/10/
010670/20121105/113453/5190/501/10/
010670/20121105/122512/5230/265/20/
010670/20121105/123006/5240/85/20/
010670/20121105/123057/5240/100/20/
010670/20121105/124026/5250/89/20/
010670/20121105/125011/5230/131/10/
010670/20121105/125620/5230/177/10/
010670/20121105/131516/5220/88/20/
010670/20121105/131707/5200/1515/10/
010670/20121105/131902/5200/400/10/
010670/20121105/131904/5200/379/10/
010670/20121105/131904/5190/342/10/
010670/20121105/132142/5190/500/10/
010670/20121105/132157/5180/804/10/
010670/20121105/133052/5190/662/10/
010670/20121105/133052/5180/346/10/
010670/20121105/133052/5170/83/10/
010670/20121105/133220/5180/190/10/
010670/20121105/133232/5180/500/20/
010670/20121105/133236/5180/300/20/
010670/20121105/133449/5170/1011/10/
010670/20121105/133550/5170/756/10/
010670/20121105/133550/5160/1244/10/
010670/20121105/133819/5160/252/10/
010670/20121105/133833/5160/515/10/
010670/20121105/133942/5160/250/20/
010670/20121105/134542/5180/652/10/
010670/20121105/134542/5170/920/10/
010670/20121105/135403/5170/103/10/
010670/20121105/135916/5170/182/10/
010670/20121105/135916/5160/573/10/
010670/20121105/135945/5160/752/10/
010670/20121105/135945/5150/192/10/
010670/20121105/140054/5150/909/10/
010670/20121105/140134/5150/101/10/
010670/20121105/140339/5150/669/10/
010670/20121105/140339/5140/1037/10/
010670/20121105/140339/5130/1860/10/
010670/20121105/140339/5120/3020/10/
010670/20121105/140339/5110/4410/10/
010670/20121105/140339/5100/2004/10/
010670/20121105/140346/5100/1000/10/
010670/20121105/140404/5090/576/10/
010670/20121105/140410/5100/300/20/
010670/20121105/140415/5100/500/20/
010670/20121105/140430/5100/200/20/
010670/20121105/140430/5100/250/20/
010670/20121105/140438/5100/400/20/
010670/20121105/140439/5100/84/20/
010670/20121105/140851/5120/117/10/
010670/20121105/140851/5110/1010/10/
010670/20121105/140851/5100/1650/10/
010670/20121105/140905/5100/214/20/
010670/20121105/140941/5150/164/10/
010670/20121105/141111/5110/110/10/
010670/20121105/141119/5110/90/20/
010670/20121105/141134/5100/1910/10/
010670/20121105/141134/5090/310/10/
010670/20121105/141138/5080/260/10/
010670/20121105/141140/5090/1000/10/
010670/20121105/141157/5060/350/10/
010670/20121105/141210/5100/300/20/
010670/20121105/141242/5060/101/10/
010670/20121105/141325/5050/252/10/
010670/20121105/141325/5040/306/10/
010670/20121105/141325/5030/430/10/
010670/20121105/141331/5020/101/10/
010670/20121105/141331/5010/752/10/
010670/20121105/141331/5000/160/10/
010670/20121105/141348/5000/306/10/
010670/20121105/141348/4995/101/10/
010670/20121105/141348/4990/2094/10/
010670/20121105/141403/4995/1001/10/
010670/20121105/141409/4990/201/10/
010670/20121105/141409/4995/150/20/
010670/20121105/141411/4995/849/20/
010670/20121105/141420/5000/500/10/
010670/20121105/141420/5000/500/20/
010670/20121105/141425/5000/201/10/
010670/20121105/141425/4995/702/20/
010670/20121105/141433/4995/98/20/
010670/20121105/141442/4995/90/20/
010670/20121105/141445/4995/411/20/
010670/20121105/141511/4990/1001/10/
010670/20121105/141606/5000/200/10/
010670/20121105/141608/5000/181/10/
010670/20121105/141614/4990/1394/10/
010670/20121105/141623/4990/100/20/
010670/20121105/141627/4990/100/10/
010670/20121105/141628/4985/328/20/
010670/20121105/141642/4980/350/10/
010670/20121105/141643/4985/100/20/
010670/20121105/141645/4985/103/20/
010670/20121105/141652/4990/101/20/
010670/20121105/141702/4990/100/20/
010670/20121105/141734/4990/201/10/
010670/20121105/141734/4995/490/20/
010670/20121105/141742/5000/378/20/
010670/20121105/141753/5010/100/20/
010670/20121105/141753/5020/161/20/
010670/20121105/141759/5020/436/20/
010670/20121105/141759/5030/564/20/
010670/20121105/141802/5030/100/20/
010670/20121105/141805/5030/300/20/
010670/20121105/141831/5000/300/10/
010670/20121105/141925/5000/525/10/
010670/20121105/141944/5000/101/20/
010670/20121105/142158/5030/107/20/
010670/20121105/142243/5040/647/20/
010670/20121105/142251/5050/100/20/
010670/20121105/142326/5050/88/20/
010670/20121105/142334/5090/100/20/
010670/20121105/142510/5040/574/10/
010670/20121105/142827/5070/301/20/
010670/20121105/142921/5030/500/10/
010670/20121105/143005/5030/500/10/
010670/20121105/143056/5060/101/20/
010670/20121105/143125/5060/153/10/
010670/20121105/143155/5070/101/20/
010670/20121105/143214/5070/100/20/
010670/20121105/143234/5070/100/20/
010670/20121105/143254/5070/126/20/
010670/20121105/143307/5070/175/20/
010670/20121105/143324/5070/100/10/
010670/20121105/143328/5070/226/20/
010670/20121105/143345/5080/88/20/
010670/20121105/143450/5080/1031/20/
010670/20121105/143452/5080/133/20/
010670/20121105/143456/5080/118/10/
010670/20121105/143507/5080/183/20/
010670/20121105/143600/5100/301/20/
010670/20121105/143606/5100/503/10/
010670/20121105/143607/5100/251/10/
010670/20121105/143617/5100/200/20/
010670/20121105/143628/5100/100/20/
010670/20121105/143657/5100/200/20/
010670/20121105/143702/5100/145/10/
010670/20121105/143735/5100/158/20/
010670/20121105/143743/5100/167/10/
010670/20121105/143828/5120/323/10/
010670/20121105/143954/5100/501/10/
010670/20121105/144033/5130/154/10/
010670/20121105/144456/5100/531/10/
010670/20121105/144653/5100/550/10/
010670/20121105/144716/5100/301/10/
010670/20121105/144739/5100/272/10/
010670/20121105/144752/5080/355/10/
010670/20121105/144801/5070/100/10/
010670/20121105/144801/5060/102/10/
010670/20121105/144801/5050/101/10/
010670/20121105/144801/5040/250/10/
010670/20121105/144801/5030/800/10/
010670/20121105/144801/5020/301/10/
010670/20121105/144801/5010/200/10/
010670/20121105/144801/5000/1004/10/
010670/20121105/144812/5000/150/20/
010670/20121105/144822/5000/140/20/
010670/20121105/144825/5000/1000/20/
010670/20121105/144827/5000/1000/20/
010670/20121105/144829/5000/500/20/
010670/20121105/144832/5000/1010/20/
010670/20121105/144832/5000/2732/20/
010670/20121105/144834/5000/610/20/
010670/20121105/144929/5080/342/20/
010670/20121105/144929/5090/610/20/
010670/20121105/144956/5040/282/20/
010670/20121105/144956/5010/655/20/
010670/20121105/144956/5000/2110/20/
010670/20121105/150000/5100/2496/10/
