010670/20121109/90000/4960/1050/20/
010670/20121109/90034/4960/118/20/
010670/20121109/90052/4960/120/10/
010670/20121109/90059/4960/392/10/
010670/20121109/90541/4930/150/10/
010670/20121109/90809/4900/241/10/
010670/20121109/90949/4940/109/20/
010670/20121109/90949/4950/1000/20/
010670/20121109/91111/4960/93/20/
010670/20121109/91123/4960/117/20/
010670/20121109/91127/4960/150/10/
010670/20121109/91136/4980/300/20/
010670/20121109/91139/4980/233/20/
010670/20121109/91205/4960/250/10/
010670/20121109/91209/4960/483/10/
010670/20121109/91247/4960/517/20/
010670/20121109/91258/4960/483/10/
010670/20121109/91433/4980/141/20/
010670/20121109/91556/4980/167/20/
010670/20121109/91619/4985/100/20/
010670/20121109/91659/4985/102/10/
010670/20121109/91707/4980/278/10/
010670/20121109/91801/4970/183/10/
010670/20121109/91812/4970/222/10/
010670/20121109/92015/4980/503/10/
010670/20121109/92056/4980/101/10/
010670/20121109/92204/4975/251/10/
010670/20121109/92304/4970/226/10/
010670/20121109/92305/4970/298/10/
010670/20121109/92400/4970/346/10/
010670/20121109/92413/4950/2000/10/
010670/20121109/92428/4950/356/10/
010670/20121109/92457/4950/244/10/
010670/20121109/92918/4920/901/10/
010670/20121109/93714/4890/203/10/
010670/20121109/94240/4935/103/20/
010670/20121109/94446/4930/103/20/
010670/20121109/94857/4935/137/20/
010670/20121109/95356/4900/284/10/
010670/20121109/95420/4890/1009/10/
010670/20121109/95526/4890/201/20/
010670/20121109/95531/4880/806/10/
010670/20121109/95531/4890/606/20/
010670/20121109/95602/4900/395/10/
010670/20121109/95634/4900/106/20/
010670/20121109/95644/4900/194/10/
010670/20121109/95757/4890/3000/10/
010670/20121109/100011/4885/966/10/
010670/20121109/100011/4880/320/10/
010670/20121109/100027/4880/372/10/
010670/20121109/100220/4900/93/20/
010670/20121109/100447/4880/460/10/
010670/20121109/100508/4900/1900/20/
010670/20121109/100545/4900/1000/20/
010670/20121109/101641/4910/449/10/
010670/20121109/101658/4910/101/20/
010670/20121109/101849/4905/503/10/
010670/20121109/102038/4945/840/20/
010670/20121109/102038/4950/962/20/
010670/20121109/102149/4950/82/20/
010670/20121109/103403/4985/462/20/
010670/20121109/103403/4990/266/20/
010670/20121109/103403/4995/660/20/
010670/20121109/103403/5000/633/20/
010670/20121109/103459/4995/270/20/
010670/20121109/103459/5000/331/20/
010670/20121109/103527/5000/200/20/
010670/20121109/103604/5000/100/20/
010670/20121109/103829/4995/225/20/
010670/20121109/103855/4995/91/10/
010670/20121109/104230/4995/90/20/
010670/20121109/104230/5000/1911/20/
010670/20121109/104334/5000/1292/20/
010670/20121109/104357/5010/3001/20/
010670/20121109/104416/5010/100/20/
010670/20121109/104437/5020/396/20/
010670/20121109/104438/5020/102/20/
010670/20121109/104439/5020/83/20/
010670/20121109/104526/5030/518/20/
010670/20121109/104533/5040/1000/20/
010670/20121109/104533/5050/1000/20/
010670/20121109/104621/5050/650/20/
010670/20121109/104621/5060/1793/20/
010670/20121109/104713/5060/180/20/
010670/20121109/104829/5050/201/10/
010670/20121109/104833/5050/299/10/
010670/20121109/104835/5050/100/20/
010670/20121109/104839/5050/301/20/
010670/20121109/104857/5050/155/10/
010670/20121109/105133/5050/2276/20/
010670/20121109/105257/5050/260/10/
010670/20121109/105319/5050/207/10/
010670/20121109/105424/5060/321/20/
010670/20121109/105502/5060/505/20/
010670/20121109/105506/5060/511/20/
010670/20121109/105557/5070/1001/20/
010670/20121109/105655/5070/244/20/
010670/20121109/105738/5070/101/10/
010670/20121109/105810/5060/1032/10/
010670/20121109/105821/5060/1777/10/
010670/20121109/105821/5050/223/10/
010670/20121109/105826/5050/500/10/
010670/20121109/105919/5050/83/20/
010670/20121109/110307/5020/600/10/
010670/20121109/110318/5010/1000/10/
010670/20121109/110407/5000/1003/10/
010670/20121109/111050/4995/224/20/
010670/20121109/111142/4995/100/10/
010670/20121109/111222/4995/174/20/
010670/20121109/111222/5000/826/20/
010670/20121109/111303/5000/199/20/
010670/20121109/111844/4995/224/20/
010670/20121109/111939/4990/4928/10/
010670/20121109/112746/4970/430/10/
010670/20121109/112925/4965/249/10/
010670/20121109/112925/4960/1952/10/
010670/20121109/113058/4960/461/10/
010670/20121109/113058/4955/104/10/
010670/20121109/113210/4950/224/10/
010670/20121109/113607/4945/342/10/
010670/20121109/113706/4945/127/10/
010670/20121109/113853/4945/207/10/
010670/20121109/114005/4940/936/10/
010670/20121109/114007/4940/348/20/
010670/20121109/114157/4940/268/20/
010670/20121109/114340/4940/1301/20/
010670/20121109/114518/4950/83/20/
010670/20121109/115006/4935/462/10/
010670/20121109/115108/4935/137/10/
010670/20121109/120015/4935/87/10/
010670/20121109/120216/4935/139/10/
010670/20121109/120316/4935/92/10/
010670/20121109/122723/4935/514/10/
010670/20121109/122724/4930/155/10/
010670/20121109/123040/4930/179/10/
010670/20121109/123348/4935/101/20/
010670/20121109/123657/4935/315/10/
010670/20121109/124634/4935/1005/10/
010670/20121109/124951/4945/4300/20/
010670/20121109/125010/4945/95/20/
010670/20121109/125210/4945/87/10/
010670/20121109/125307/4945/128/10/
010670/20121109/125558/4945/215/10/
010670/20121109/130036/4950/105/20/
010670/20121109/131220/4950/114/10/
010670/20121109/135241/4980/335/20/
010670/20121109/140111/4960/90/10/
010670/20121109/140158/4960/260/10/
010670/20121109/140158/4955/200/10/
010670/20121109/140158/4950/540/10/
010670/20121109/140635/4950/237/10/
010670/20121109/140635/4945/251/10/
010670/20121109/140811/4950/520/10/
010670/20121109/140822/4950/501/20/
010670/20121109/140825/4950/499/10/
010670/20121109/140831/4950/500/20/
010670/20121109/140853/4950/502/20/
010670/20121109/140910/4945/297/10/
010670/20121109/141006/4945/122/10/
010670/20121109/141031/4950/475/20/
010670/20121109/141044/4945/1033/10/
010670/20121109/141149/4950/122/20/
010670/20121109/141320/4950/414/20/
010670/20121109/141510/4950/116/10/
010670/20121109/141525/4945/1001/10/
010670/20121109/141554/4945/314/10/
010670/20121109/141651/4945/142/10/
010670/20121109/141750/4945/516/10/
010670/20121109/141957/4945/146/10/
010670/20121109/142101/4945/110/10/
010670/20121109/142123/4950/294/20/
010670/20121109/142305/4945/230/10/
010670/20121109/142721/4950/276/20/
010670/20121109/142841/4950/112/20/
010670/20121109/142855/4950/162/20/
010670/20121109/142901/4950/338/10/
010670/20121109/142906/4950/100/20/
010670/20121109/143008/4950/87/20/
010670/20121109/143611/4945/857/10/
010670/20121109/143858/4950/427/20/
010670/20121109/144004/4965/533/20/
010670/20121109/144004/4970/641/20/
010670/20121109/144004/4975/1000/20/
010670/20121109/144004/4975/832/10/
010670/20121109/144140/4980/654/20/
010670/20121109/144140/4985/1699/20/
010670/20121109/144140/4985/653/10/
010670/20121109/144301/4980/2003/20/
010670/20121109/144339/4980/202/20/
010670/20121109/144342/4980/296/20/
010670/20121109/144342/4990/1164/20/
010670/20121109/144342/4990/540/10/
010670/20121109/144432/4970/1003/10/
010670/20121109/144629/4995/1146/20/
010670/20121109/144629/5000/855/20/
010670/20121109/144737/4970/1000/10/
010670/20121109/144747/4970/950/10/
010670/20121109/144805/4970/2051/10/
010670/20121109/144809/4970/850/10/
010670/20121109/144931/4970/103/20/
010670/20121109/150000/4960/6674/10/
