010670/20130109/90000/5160/111/20/
010670/20130109/90257/5100/359/10/
010670/20130109/90322/5100/129/10/
010670/20130109/90606/5060/266/10/
010670/20130109/90719/5080/99/10/
010670/20130109/90719/5070/901/10/
010670/20130109/91054/5140/349/20/
010670/20130109/91108/5120/400/10/
010670/20130109/91119/5080/120/10/
010670/20130109/91223/5110/102/10/
010670/20130109/91354/5120/102/10/
010670/20130109/91402/5120/178/10/
010670/20130109/91404/5120/87/10/
010670/20130109/91435/5110/89/10/
010670/20130109/91808/5110/121/10/
010670/20130109/93238/5080/1057/10/
010670/20130109/93525/5070/362/10/
010670/20130109/93939/5100/101/10/
010670/20130109/93958/5100/170/10/
010670/20130109/94024/5070/904/10/
010670/20130109/94731/5080/434/10/
010670/20130109/94731/5070/506/10/
010670/20130109/94731/5060/294/10/
010670/20130109/94828/5100/89/20/
010670/20130109/95145/5070/91/10/
010670/20130109/95145/5060/211/10/
010670/20130109/95247/5070/113/10/
010670/20130109/95303/5070/99/20/
010670/20130109/95315/5070/401/10/
010670/20130109/95331/5070/104/20/
010670/20130109/95429/5060/1025/10/
010670/20130109/95454/5060/107/10/
010670/20130109/95542/5060/210/10/
010670/20130109/95542/5050/293/10/
010670/20130109/95743/5050/1001/10/
010670/20130109/95759/5050/2000/10/
010670/20130109/95947/5040/110/10/
010670/20130109/100014/5040/502/10/
010670/20130109/100014/5030/900/10/
010670/20130109/100022/5030/100/10/
010670/20130109/100029/5020/320/10/
010670/20130109/100037/5030/180/20/
010670/20130109/100045/5010/855/10/
010670/20130109/100045/5000/1645/10/
010670/20130109/100133/5010/802/10/
010670/20130109/100133/5000/3106/10/
010670/20130109/100135/4990/800/10/
010670/20130109/100218/5000/92/20/
010670/20130109/100620/5010/462/10/
010670/20130109/100620/5000/1551/10/
010670/20130109/100633/5000/431/10/
010670/20130109/100732/5000/565/10/
010670/20130109/100937/5000/184/10/
010670/20130109/100940/5000/133/10/
010670/20130109/100943/5000/133/10/
010670/20130109/101010/5000/300/10/
010670/20130109/101026/5000/100/10/
010670/20130109/101403/5030/179/20/
010670/20130109/101429/5030/82/10/
010670/20130109/101737/5020/124/10/
010670/20130109/101744/5010/100/10/
010670/20130109/101903/5010/86/20/
010670/20130109/101906/5010/86/20/
010670/20130109/101948/5000/1562/10/
010670/20130109/102335/5000/146/10/
010670/20130109/102424/5000/202/10/
010670/20130109/102544/5000/382/10/
010670/20130109/102628/4995/101/10/
010670/20130109/102631/4995/500/10/
010670/20130109/102655/4990/500/10/
010670/20130109/102711/4990/141/10/
010670/20130109/103202/5000/93/10/
010670/20130109/103339/4995/127/10/
010670/20130109/103409/5010/102/20/
010670/20130109/103440/5000/419/10/
010670/20130109/103440/4995/242/10/
010670/20130109/103628/4995/500/10/
010670/20130109/103637/4990/358/10/
010670/20130109/103733/4985/83/10/
010670/20130109/103829/4985/117/10/
010670/20130109/104018/4990/300/10/
010670/20130109/104032/4990/122/20/
010670/20130109/104423/4995/222/10/
010670/20130109/104525/4995/83/10/
010670/20130109/104608/4995/100/10/
010670/20130109/104934/5000/542/20/
010670/20130109/104947/5000/163/10/
010670/20130109/105103/5010/395/20/
010670/20130109/105148/5020/109/20/
010670/20130109/105312/5020/141/20/
010670/20130109/105341/5020/151/20/
010670/20130109/105449/5010/223/10/
010670/20130109/110044/5010/91/10/
010670/20130109/110303/5000/222/10/
010670/20130109/110306/5000/140/10/
010670/20130109/110317/5000/301/10/
010670/20130109/110409/5000/200/10/
010670/20130109/110509/5000/88/10/
010670/20130109/110720/5000/303/10/
010670/20130109/111146/4995/120/10/
010670/20130109/111153/4995/97/10/
010670/20130109/111206/4995/326/10/
010670/20130109/111220/4990/265/10/
010670/20130109/111315/4995/146/20/
010670/20130109/111338/4990/181/10/
010670/20130109/111449/4995/251/20/
010670/20130109/111515/4995/95/10/
010670/20130109/111606/4990/477/10/
010670/20130109/111650/4985/2476/10/
010670/20130109/111719/4985/113/20/
010670/20130109/111736/4985/205/10/
010670/20130109/111736/4980/141/10/
010670/20130109/111757/4980/100/10/
010670/20130109/111803/4980/100/10/
010670/20130109/111815/4980/92/20/
010670/20130109/112146/4990/225/20/
010670/20130109/112336/4980/303/10/
010670/20130109/112744/4980/233/10/
010670/20130109/112936/4980/84/10/
010670/20130109/113004/4980/417/20/
010670/20130109/113557/4980/169/10/
010670/20130109/114117/5000/787/20/
010670/20130109/114117/5010/215/20/
010670/20130109/114231/5000/205/20/
010670/20130109/114231/5010/298/20/
010670/20130109/114347/4995/113/20/
010670/20130109/114834/4995/224/20/
010670/20130109/115343/4995/148/10/
010670/20130109/121028/5000/327/20/
010670/20130109/121028/5000/179/20/
010670/20130109/121414/5010/141/20/
010670/20130109/121520/5010/389/20/
010670/20130109/121632/5020/120/20/
010670/20130109/121644/5020/84/20/
010670/20130109/121646/5020/112/20/
010670/20130109/121723/5020/380/20/
010670/20130109/121737/5030/99/20/
010670/20130109/121744/5030/452/20/
010670/20130109/121814/5040/555/20/
010670/20130109/121814/5040/300/20/
010670/20130109/121817/5040/90/20/
010670/20130109/122153/5030/226/10/
010670/20130109/122824/5040/407/20/
010670/20130109/123039/5040/466/20/
010670/20130109/123246/5040/120/20/
010670/20130109/123451/5050/241/20/
010670/20130109/123746/5030/351/10/
010670/20130109/124012/5050/116/20/
010670/20130109/124030/5050/88/20/
010670/20130109/124410/5030/212/10/
010670/20130109/124410/5020/190/10/
010670/20130109/124512/5020/82/20/
010670/20130109/124841/5020/214/10/
010670/20130109/125153/5010/181/10/
010670/20130109/130119/5000/531/10/
010670/20130109/130836/5010/268/10/
010670/20130109/130836/5000/240/10/
010670/20130109/130956/5000/500/10/
010670/20130109/130957/5000/351/10/
010670/20130109/131144/4995/706/10/
010670/20130109/131316/4990/310/10/
010670/20130109/131417/4990/100/20/
010670/20130109/132142/4985/1058/10/
010670/20130109/132155/4980/1000/10/
010670/20130109/132328/4980/241/10/
010670/20130109/132415/4980/1300/10/
010670/20130109/133503/4995/84/20/
010670/20130109/133736/4995/464/20/
010670/20130109/133750/4995/86/10/
010670/20130109/133943/5000/502/20/
010670/20130109/134415/4985/1000/10/
010670/20130109/134657/4980/390/10/
010670/20130109/134657/4975/1230/10/
010670/20130109/134657/4970/1321/10/
010670/20130109/134808/4970/401/10/
010670/20130109/140001/4975/130/10/
010670/20130109/140027/4970/120/10/
010670/20130109/140031/4970/597/10/
010670/20130109/140129/4965/755/10/
010670/20130109/140129/4960/640/10/
010670/20130109/140129/4955/656/10/
010670/20130109/140321/4960/83/20/
010670/20130109/140403/4960/421/20/
010670/20130109/140415/4970/117/20/
010670/20130109/140501/4970/181/20/
010670/20130109/140613/4980/201/20/
010670/20130109/140810/4980/106/20/
010670/20130109/140847/4980/511/10/
010670/20130109/140953/4980/580/20/
010670/20130109/141034/4970/419/10/
010670/20130109/141115/4965/83/10/
010670/20130109/141146/4970/83/10/
010670/20130109/141257/4980/268/20/
010670/20130109/141321/4980/201/10/
010670/20130109/141516/4970/668/10/
010670/20130109/141838/4970/174/10/
010670/20130109/142228/4970/107/10/
010670/20130109/142323/4980/184/20/
010670/20130109/142330/4980/170/10/
010670/20130109/142421/4980/131/10/
010670/20130109/142513/4985/249/20/
010670/20130109/142550/4985/101/20/
010670/20130109/142807/4985/249/20/
010670/20130109/143307/4970/210/10/
010670/20130109/143459/4970/99/10/
010670/20130109/143459/4965/403/10/
010670/20130109/143543/4970/501/10/
010670/20130109/143620/4965/501/10/
010670/20130109/143736/4965/529/10/
010670/20130109/143743/4970/100/20/
010670/20130109/144026/4965/617/10/
010670/20130109/144108/4960/300/10/
010670/20130109/144108/4960/1724/10/
010670/20130109/144113/4955/166/10/
010670/20130109/144120/4955/962/10/
010670/20130109/144124/4955/101/10/
010670/20130109/144150/4955/500/20/
010670/20130109/144153/4955/98/20/
010670/20130109/144158/4955/190/20/
010670/20130109/144204/4955/141/20/
010670/20130109/144208/4955/300/20/
010670/20130109/144208/4955/100/20/
010670/20130109/144214/4955/188/20/
010670/20130109/144241/4960/501/20/
010670/20130109/144251/4960/220/10/
010670/20130109/144341/4960/328/10/
010670/20130109/144404/4960/85/20/
010670/20130109/144447/4960/415/20/
010670/20130109/144502/4960/130/10/
010670/20130109/144522/4960/375/10/
010670/20130109/144525/4960/137/10/
010670/20130109/144637/4955/226/10/
010670/20130109/144641/4955/500/10/
010670/20130109/144725/4955/105/10/
010670/20130109/144739/4955/179/10/
010670/20130109/144829/4960/442/20/
010670/20130109/144913/4960/235/20/
010670/20130109/144913/4965/500/20/
010670/20130109/144913/4985/500/20/
010670/20130109/144913/4990/100/20/
010670/20130109/144913/4995/300/20/
010670/20130109/144913/5000/100/20/
010670/20130109/144913/5010/266/20/
010670/20130109/144930/4955/136/10/
010670/20130109/150000/4950/2156/10/
