010670/20130130/90000/5670/200/20/
010670/20130130/90008/5660/884/20/
010670/20130130/90034/5660/100/20/
010670/20130130/90635/5650/100/10/
010670/20130130/90635/5640/460/10/
010670/20130130/90635/5630/1190/10/
010670/20130130/90808/5620/286/10/
010670/20130130/90809/5620/100/20/
010670/20130130/90845/5620/99/20/
010670/20130130/90859/5610/278/10/
010670/20130130/90904/5610/1172/10/
010670/20130130/90904/5600/2828/10/
010670/20130130/91035/5600/770/10/
010670/20130130/91116/5600/204/20/
010670/20130130/91609/5620/173/20/
010670/20130130/91746/5600/377/10/
010670/20130130/91845/5600/683/10/
010670/20130130/91858/5600/501/20/
010670/20130130/92149/5600/384/10/
010670/20130130/92149/5590/598/10/
010670/20130130/92418/5590/1000/10/
010670/20130130/92436/5590/300/10/
010670/20130130/92525/5590/252/10/
010670/20130130/92525/5580/1406/10/
010670/20130130/92525/5570/1844/10/
010670/20130130/92632/5570/362/10/
010670/20130130/92632/5560/356/10/
010670/20130130/92632/5550/1523/10/
010670/20130130/92632/5540/1259/10/
010670/20130130/92928/5560/469/10/
010670/20130130/93354/5550/120/10/
010670/20130130/93450/5560/1000/20/
010670/20130130/93459/5560/500/20/
010670/20130130/93624/5550/1003/10/
010670/20130130/93700/5550/101/10/
010670/20130130/94058/5550/249/10/
010670/20130130/94129/5540/963/10/
010670/20130130/94135/5560/133/20/
010670/20130130/94201/5530/212/10/
010670/20130130/94201/5520/1790/10/
010670/20130130/94211/5520/410/10/
010670/20130130/94211/5510/355/10/
010670/20130130/94215/5510/795/10/
010670/20130130/94215/5500/205/10/
010670/20130130/94449/5530/511/10/
010670/20130130/94808/5530/278/10/
010670/20130130/94820/5530/185/20/
010670/20130130/95126/5530/122/10/
010670/20130130/95440/5530/467/10/
010670/20130130/95500/5530/100/10/
010670/20130130/95602/5530/89/10/
010670/20130130/95602/5520/1914/10/
010670/20130130/95602/5510/1033/10/
010670/20130130/95631/5510/147/10/
010670/20130130/95649/5500/503/10/
010670/20130130/95801/5510/119/10/
010670/20130130/95801/5500/2194/10/
010670/20130130/95810/5500/706/20/
010670/20130130/95928/5500/361/10/
010670/20130130/100638/5550/255/20/
010670/20130130/100753/5520/2268/10/
010670/20130130/100753/5510/293/10/
010670/20130130/100810/5510/814/10/
010670/20130130/100810/5500/1189/10/
010670/20130130/100821/5500/541/10/
010670/20130130/100821/5490/2551/10/
010670/20130130/100843/5490/1909/20/
010670/20130130/101030/5500/701/10/
010670/20130130/101030/5490/4192/10/
010670/20130130/101030/5480/2108/10/
010670/20130130/101151/5490/205/10/
010670/20130130/101205/5490/84/10/
010670/20130130/101447/5490/1003/10/
010670/20130130/101617/5490/1406/10/
010670/20130130/101617/5480/276/10/
010670/20130130/102039/5480/253/10/
010670/20130130/102312/5480/1011/10/
010670/20130130/102312/5470/746/10/
010670/20130130/102754/5470/1205/10/
010670/20130130/102754/5460/127/10/
010670/20130130/103430/5480/215/10/
010670/20130130/103614/5490/116/20/
010670/20130130/103633/5490/85/20/
010670/20130130/103753/5520/87/20/
010670/20130130/103812/5530/200/20/
010670/20130130/103812/5540/259/20/
010670/20130130/103828/5540/636/20/
010670/20130130/103857/5520/200/10/
010670/20130130/103949/5540/221/20/
010670/20130130/103949/5550/200/20/
010670/20130130/103949/5560/117/20/
010670/20130130/103949/5570/220/20/
010670/20130130/103949/5580/340/10/
010670/20130130/103949/5600/720/10/
010670/20130130/103949/5610/1184/20/
010670/20130130/104427/5590/358/20/
010670/20130130/104548/5600/690/20/
010670/20130130/104552/5600/95/20/
010670/20130130/105957/5580/237/20/
010670/20130130/105958/5580/798/10/
010670/20130130/113103/5550/83/10/
010670/20130130/113143/5550/151/20/
010670/20130130/113658/5550/768/10/
010670/20130130/113703/5550/91/10/
010670/20130130/114545/5530/170/10/
010670/20130130/114606/5530/310/10/
010670/20130130/114920/5540/409/20/
010670/20130130/115442/5550/204/20/
010670/20130130/120252/5560/497/20/
010670/20130130/120503/5570/784/20/
010670/20130130/120626/5580/308/20/
010670/20130130/120626/5590/1378/20/
010670/20130130/120626/5600/1215/20/
010670/20130130/120710/5590/550/20/
010670/20130130/121228/5570/670/10/
010670/20130130/122358/5580/100/20/
010670/20130130/122358/5590/1062/20/
010670/20130130/122827/5590/200/20/
010670/20130130/123149/5590/151/20/
010670/20130130/123227/5590/248/20/
010670/20130130/123528/5600/104/20/
010670/20130130/123550/5600/140/20/
010670/20130130/124710/5590/211/10/
010670/20130130/124711/5590/371/10/
010670/20130130/124729/5590/164/10/
010670/20130130/124755/5600/1800/20/
010670/20130130/124812/5590/792/10/
010670/20130130/124826/5590/200/20/
010670/20130130/125228/5590/151/10/
010670/20130130/125228/5560/108/10/
010670/20130130/130538/5560/1001/10/
010670/20130130/130840/5600/2001/20/
010670/20130130/133612/5600/910/20/
010670/20130130/133837/5600/448/20/
010670/20130130/134059/5610/1001/20/
010670/20130130/134130/5610/300/20/
010670/20130130/134138/5600/1500/10/
010670/20130130/134233/5600/280/20/
010670/20130130/134546/5590/1808/10/
010670/20130130/134819/5600/301/20/
010670/20130130/135154/5620/540/20/
010670/20130130/135644/5610/88/20/
010670/20130130/135745/5610/100/20/
010670/20130130/140324/5610/90/20/
010670/20130130/140739/5630/290/20/
010670/20130130/140933/5650/104/20/
010670/20130130/141123/5640/500/20/
010670/20130130/141208/5630/2701/10/
010670/20130130/141251/5640/1000/20/
010670/20130130/141251/5650/3832/20/
010670/20130130/141251/5630/500/10/
010670/20130130/141436/5650/695/20/
010670/20130130/141718/5660/101/20/
010670/20130130/141913/5660/250/20/
010670/20130130/141944/5660/1100/20/
010670/20130130/141947/5660/2394/20/
010670/20130130/142004/5660/250/20/
010670/20130130/142100/5660/110/10/
010670/20130130/142148/5660/180/10/
010670/20130130/142159/5660/401/10/
010670/20130130/142204/5670/4213/20/
010670/20130130/142210/5670/300/10/
010670/20130130/142315/5680/877/20/
010670/20130130/142325/5680/1000/20/
010670/20130130/142336/5680/451/20/
010670/20130130/142336/5690/3274/20/
010670/20130130/142336/5700/2875/20/
010670/20130130/142557/5670/1000/10/
010670/20130130/142705/5660/310/10/
010670/20130130/142705/5630/90/10/
010670/20130130/143451/5660/501/10/
010670/20130130/143659/5660/81/10/
010670/20130130/144429/5660/476/10/
010670/20130130/144429/5650/894/10/
010670/20130130/144429/5640/100/10/
010670/20130130/144429/5630/1004/10/
010670/20130130/144429/5620/1830/10/
010670/20130130/144429/5610/697/10/
010670/20130130/144634/5660/201/20/
010670/20130130/144643/5660/220/20/
010670/20130130/144729/5670/201/20/
010670/20130130/144834/5660/500/10/
010670/20130130/144922/5660/201/10/
010670/20130130/144932/5660/1051/10/
010670/20130130/150000/5630/3593/10/
