010670/20121217/90218/5600/1020/10/
010670/20121217/90536/5610/232/10/
010670/20121217/90614/5700/201/20/
010670/20121217/90615/5610/267/10/
010670/20121217/90847/5680/141/20/
010670/20121217/90904/5660/100/10/
010670/20121217/90904/5640/150/10/
010670/20121217/90949/5680/342/20/
010670/20121217/91158/5680/101/10/
010670/20121217/91438/5660/549/10/
010670/20121217/91452/5660/528/20/
010670/20121217/91527/5650/926/10/
010670/20121217/91537/5640/372/10/
010670/20121217/91730/5660/252/10/
010670/20121217/91730/5650/152/10/
010670/20121217/91854/5650/100/10/
010670/20121217/91935/5650/155/10/
010670/20121217/91952/5650/100/10/
010670/20121217/92045/5650/100/10/
010670/20121217/92130/5650/492/10/
010670/20121217/92130/5640/407/10/
010670/20121217/92403/5680/119/20/
010670/20121217/92403/5690/1641/20/
010670/20121217/92823/5690/469/20/
010670/20121217/92823/5700/3611/20/
010670/20121217/92823/5710/1927/20/
010670/20121217/92848/5710/130/20/
010670/20121217/92902/5710/154/10/
010670/20121217/92909/5720/290/20/
010670/20121217/92909/5720/205/20/
010670/20121217/92909/5730/1169/20/
010670/20121217/92925/5730/1047/20/
010670/20121217/93004/5710/152/10/
010670/20121217/93057/5730/1548/20/
010670/20121217/93057/5740/210/20/
010670/20121217/93149/5740/2297/20/
010670/20121217/93204/5740/1704/10/
010670/20121217/93409/5740/898/20/
010670/20121217/93413/5750/200/20/
010670/20121217/93427/5750/500/20/
010670/20121217/93430/5750/142/20/
010670/20121217/93435/5750/400/20/
010670/20121217/93447/5750/1039/20/
010670/20121217/93453/5750/173/20/
010670/20121217/93458/5730/370/10/
010670/20121217/93509/5730/130/20/
010670/20121217/93606/5750/276/20/
010670/20121217/93617/5750/622/20/
010670/20121217/93631/5750/140/20/
010670/20121217/93641/5750/450/20/
010670/20121217/93732/5750/468/20/
010670/20121217/93749/5730/210/10/
010670/20121217/93920/5710/551/10/
010670/20121217/93931/5710/188/10/
010670/20121217/93931/5700/1158/10/
010670/20121217/94008/5690/1005/10/
010670/20121217/94008/5680/995/10/
010670/20121217/94101/5680/154/10/
010670/20121217/94101/5670/598/10/
010670/20121217/94110/5670/200/20/
010670/20121217/94131/5670/191/10/
010670/20121217/94149/5660/445/10/
010670/20121217/94151/5660/100/20/
010670/20121217/94151/5670/100/20/
010670/20121217/94154/5670/214/10/
010670/20121217/94204/5670/86/10/
010670/20121217/94224/5670/323/20/
010670/20121217/94252/5670/91/20/
010670/20121217/94321/5670/215/10/
010670/20121217/94336/5660/446/10/
010670/20121217/94336/5650/2271/10/
010670/20121217/94336/5640/638/10/
010670/20121217/94759/5670/200/20/
010670/20121217/94811/5670/86/20/
010670/20121217/94833/5670/234/20/
010670/20121217/94852/5670/200/20/
010670/20121217/95010/5670/100/10/
010670/20121217/95015/5670/260/20/
010670/20121217/95020/5670/206/20/
010670/20121217/95042/5670/244/10/
010670/20121217/95143/5670/179/20/
010670/20121217/95218/5690/122/20/
010670/20121217/95243/5690/98/20/
010670/20121217/95251/5690/553/20/
010670/20121217/95319/5690/501/20/
010670/20121217/95319/5690/534/10/
010670/20121217/95330/5700/176/20/
010670/20121217/95338/5700/175/20/
010670/20121217/95455/5690/428/20/
010670/20121217/95526/5690/100/10/
010670/20121217/95629/5690/100/20/
010670/20121217/95701/5680/206/10/
010670/20121217/95927/5670/277/20/
010670/20121217/95930/5670/182/20/
010670/20121217/100043/5670/489/10/
010670/20121217/100049/5670/500/20/
010670/20121217/100216/5690/993/20/
010670/20121217/100232/5690/227/20/
010670/20121217/100250/5700/500/20/
010670/20121217/100304/5690/100/10/
010670/20121217/100416/5700/203/20/
010670/20121217/100516/5690/173/20/
010670/20121217/100540/5680/559/10/
010670/20121217/100549/5680/300/10/
010670/20121217/100610/5670/400/10/
010670/20121217/100717/5680/180/20/
010670/20121217/100724/5680/121/10/
010670/20121217/100729/5670/1389/10/
010670/20121217/100750/5660/1014/10/
010670/20121217/100824/5660/679/10/
010670/20121217/100914/5670/1597/20/
010670/20121217/100938/5690/102/20/
010670/20121217/101229/5690/1000/20/
010670/20121217/101241/5690/423/20/
010670/20121217/101511/5690/1020/20/
010670/20121217/101515/5680/200/10/
010670/20121217/101607/5670/1181/20/
010670/20121217/101930/5690/562/20/
010670/20121217/101939/5690/439/10/
010670/20121217/102136/5670/369/10/
010670/20121217/102146/5670/731/10/
010670/20121217/102302/5660/373/10/
010670/20121217/102304/5670/600/20/
010670/20121217/102404/5690/577/20/
010670/20121217/102404/5700/2940/20/
010670/20121217/102422/5700/100/20/
010670/20121217/102540/5700/152/20/
010670/20121217/102751/5700/136/20/
010670/20121217/102927/5700/146/20/
010670/20121217/103227/5690/93/10/
010670/20121217/103306/5690/141/10/
010670/20121217/103316/5680/146/10/
010670/20121217/103316/5670/354/10/
010670/20121217/103330/5670/300/10/
010670/20121217/103601/5670/101/10/
010670/20121217/103723/5680/117/20/
010670/20121217/104208/5670/171/10/
010670/20121217/104642/5680/100/10/
010670/20121217/104951/5670/763/10/
010670/20121217/105120/5670/421/10/
010670/20121217/105120/5660/579/10/
010670/20121217/105146/5660/1000/10/
010670/20121217/105847/5660/1614/10/
010670/20121217/105847/5650/1889/10/
010670/20121217/105847/5640/2786/10/
010670/20121217/105848/5640/223/20/
010670/20121217/110233/5670/111/20/
010670/20121217/110307/5670/101/10/
010670/20121217/110355/5670/210/10/
010670/20121217/110436/5670/106/10/
010670/20121217/110436/5660/1000/10/
010670/20121217/110436/5650/1814/10/
010670/20121217/110643/5650/280/10/
010670/20121217/110706/5650/122/10/
010670/20121217/110706/5640/278/10/
010670/20121217/110744/5640/900/10/
010670/20121217/111228/5640/501/10/
010670/20121217/111246/5640/198/10/
010670/20121217/111303/5640/100/20/
010670/20121217/111304/5640/202/20/
010670/20121217/111711/5640/101/10/
010670/20121217/112116/5640/821/10/
010670/20121217/112116/5630/2180/10/
010670/20121217/113045/5630/154/10/
010670/20121217/113045/5620/377/10/
010670/20121217/115757/5640/214/10/
010670/20121217/120002/5650/322/10/
010670/20121217/120013/5660/303/20/
010670/20121217/120102/5650/120/10/
010670/20121217/120118/5660/101/20/
010670/20121217/120408/5660/101/10/
010670/20121217/120846/5650/151/10/
010670/20121217/121230/5670/756/10/
010670/20121217/121230/5670/236/10/
010670/20121217/121609/5680/107/20/
010670/20121217/121628/5670/609/10/
010670/20121217/121957/5670/202/20/
010670/20121217/122236/5650/100/10/
010670/20121217/122348/5650/200/10/
010670/20121217/122348/5650/200/10/
010670/20121217/122348/5650/129/10/
010670/20121217/122514/5640/2965/10/
010670/20121217/122635/5630/100/10/
010670/20121217/122653/5630/1000/10/
010670/20121217/122716/5630/202/10/
010670/20121217/122716/5620/2464/10/
010670/20121217/123523/5620/108/10/
010670/20121217/123835/5620/152/10/
010670/20121217/123835/5610/848/10/
010670/20121217/124521/5620/356/10/
010670/20121217/124843/5620/501/10/
010670/20121217/124944/5620/201/10/
010670/20121217/124949/5620/92/10/
010670/20121217/124949/5610/608/10/
010670/20121217/125002/5610/300/10/
010670/20121217/125005/5610/500/10/
010670/20121217/125925/5610/374/10/
010670/20121217/130007/5610/218/10/
010670/20121217/130119/5600/246/10/
010670/20121217/130120/5600/363/10/
010670/20121217/130120/5590/138/10/
010670/20121217/130525/5600/204/10/
010670/20121217/130554/5590/350/10/
010670/20121217/130609/5600/250/20/
010670/20121217/130825/5600/501/20/
010670/20121217/130951/5600/200/10/
010670/20121217/131012/5600/301/20/
010670/20121217/131327/5590/370/10/
010670/20121217/131435/5590/117/20/
010670/20121217/131508/5580/130/10/
010670/20121217/131532/5580/120/10/
010670/20121217/131601/5580/300/10/
010670/20121217/131613/5590/574/20/
010670/20121217/131621/5590/100/20/
010670/20121217/131710/5580/273/10/
010670/20121217/131710/5580/200/10/
010670/20121217/131710/5580/200/10/
010670/20121217/131710/5580/104/10/
010670/20121217/131710/5570/96/10/
010670/20121217/131710/5570/200/10/
010670/20121217/131915/5570/1810/10/
010670/20121217/131915/5560/1190/10/
010670/20121217/132026/5550/99/10/
010670/20121217/132328/5590/507/20/
010670/20121217/132535/5590/334/20/
010670/20121217/132608/5590/501/10/
010670/20121217/132758/5590/101/10/
010670/20121217/133107/5570/503/10/
010670/20121217/133718/5570/1050/10/
010670/20121217/134234/5570/326/10/
010670/20121217/134234/5560/1510/10/
010670/20121217/134234/5550/1280/10/
010670/20121217/134234/5540/1121/10/
010670/20121217/134234/5530/181/10/
010670/20121217/134234/5520/618/10/
010670/20121217/134234/5510/1012/10/
010670/20121217/134234/5500/878/10/
010670/20121217/134315/5550/107/10/
010670/20121217/135009/5520/367/10/
010670/20121217/135009/5510/559/10/
010670/20121217/135009/5500/1142/10/
010670/20121217/135101/5500/202/10/
010670/20121217/135111/5510/98/10/
010670/20121217/140241/5570/416/20/
010670/20121217/140433/5560/108/10/
010670/20121217/140819/5580/501/20/
010670/20121217/140819/5590/400/20/
010670/20121217/140819/5600/1404/20/
010670/20121217/141449/5590/104/20/
010670/20121217/141538/5600/159/20/
010670/20121217/142243/5600/87/20/
010670/20121217/142511/5600/500/20/
010670/20121217/142530/5600/300/20/
010670/20121217/142540/5600/84/20/
010670/20121217/142550/5600/102/20/
010670/20121217/142755/5610/235/20/
010670/20121217/142835/5610/366/20/
010670/20121217/142857/5620/101/20/
010670/20121217/142920/5610/152/10/
010670/20121217/143011/5620/94/20/
010670/20121217/143338/5610/103/10/
010670/20121217/143351/5600/320/10/
010670/20121217/144044/5620/148/20/
010670/20121217/144057/5620/100/20/
010670/20121217/144209/5620/612/10/
010670/20121217/144244/5620/501/20/
010670/20121217/144249/5630/100/20/
010670/20121217/144426/5630/1300/20/
010670/20121217/144513/5620/305/20/
010670/20121217/144725/5600/111/10/
010670/20121217/144746/5620/846/20/
010670/20121217/144931/5620/308/20/
010670/20121217/144932/5620/300/20/
010670/20121217/144944/5620/393/20/
010670/20121217/144944/5630/157/20/
010670/20121217/150000/5620/1185/20/
