010670/20130320/90000/6900/3774/10/
010670/20130320/90120/6930/98/20/
010670/20130320/90132/6930/100/20/
010670/20130320/90235/6920/121/10/
010670/20130320/90255/6930/283/20/
010670/20130320/90255/6940/2031/20/
010670/20130320/90255/6950/689/20/
010670/20130320/90322/6950/719/20/
010670/20130320/90323/6950/802/20/
010670/20130320/90327/6950/1000/10/
010670/20130320/90327/6980/100/20/
010670/20130320/90332/6980/3010/20/
010670/20130320/90339/6980/170/20/
010670/20130320/90340/6980/1314/20/
010670/20130320/90348/7000/160/20/
010670/20130320/90349/7000/100/20/
010670/20130320/90359/7000/276/20/
010670/20130320/90410/7000/180/10/
010670/20130320/90415/7000/330/20/
010670/20130320/90418/7000/120/20/
010670/20130320/90418/7010/1343/20/
010670/20130320/90418/7030/301/20/
010670/20130320/90418/7040/544/20/
010670/20130320/90418/7050/3692/20/
010670/20130320/90419/7000/500/20/
010670/20130320/90433/7020/105/20/
010670/20130320/90438/7010/120/10/
010670/20130320/90440/7000/600/10/
010670/20130320/90441/7000/340/20/
010670/20130320/90441/7000/1030/10/
010670/20130320/90443/7000/100/10/
010670/20130320/90450/7010/321/20/
010670/20130320/90459/7010/579/10/
010670/20130320/90500/7010/136/10/
010670/20130320/90502/7010/346/20/
010670/20130320/90514/7020/113/20/
010670/20130320/90514/7020/100/10/
010670/20130320/90514/7030/110/20/
010670/20130320/90518/7040/1001/20/
010670/20130320/90528/7050/81/20/
010670/20130320/90530/7050/242/20/
010670/20130320/90534/7060/530/10/
010670/20130320/90534/7070/297/20/
010670/20130320/90534/7080/349/20/
010670/20130320/90534/7090/1163/20/
010670/20130320/90534/7100/7040/20/
010670/20130320/90534/7100/651/10/
010670/20130320/90534/7040/448/10/
010670/20130320/90537/7050/247/10/
010670/20130320/90537/7020/261/10/
010670/20130320/90540/7050/200/10/
010670/20130320/90545/7050/100/20/
010670/20130320/90545/7090/125/20/
010670/20130320/90547/7090/1000/20/
010670/20130320/90552/7080/163/20/
010670/20130320/90557/7050/150/20/
010670/20130320/90559/7080/339/20/
010670/20130320/90559/7080/140/20/
010670/20130320/90601/7080/101/10/
010670/20130320/90601/7080/269/10/
010670/20130320/90622/7080/1954/20/
010670/20130320/90625/7080/504/10/
010670/20130320/90628/7080/102/10/
010670/20130320/90628/7050/509/10/
010670/20130320/90638/7060/712/10/
010670/20130320/90639/7060/333/10/
010670/20130320/90706/7050/136/10/
010670/20130320/90712/7060/167/20/
010670/20130320/90720/7060/175/10/
010670/20130320/90736/7060/333/10/
010670/20130320/90740/7050/2012/10/
010670/20130320/90741/7050/206/10/
010670/20130320/90746/7050/349/10/
010670/20130320/90753/7030/343/10/
010670/20130320/90757/7030/1133/10/
010670/20130320/90818/7030/580/10/
010670/20130320/90818/7030/1154/10/
010670/20130320/90821/7020/2504/10/
010670/20130320/90821/7020/500/10/
010670/20130320/90822/7030/174/20/
010670/20130320/90838/7020/802/10/
010670/20130320/90858/7010/101/10/
010670/20130320/90905/7000/1533/10/
010670/20130320/90910/6980/801/10/
010670/20130320/90952/7000/515/20/
010670/20130320/91021/7010/284/10/
010670/20130320/91100/7010/205/10/
010670/20130320/91147/7010/90/10/
010670/20130320/91250/7040/541/20/
010670/20130320/91317/7040/596/10/
010670/20130320/91346/7030/101/10/
010670/20130320/91354/7020/1080/10/
010670/20130320/91354/7010/167/10/
010670/20130320/91354/7000/698/10/
010670/20130320/91400/7000/2005/10/
010670/20130320/91538/7010/1608/10/
010670/20130320/91546/7000/200/10/
010670/20130320/91546/7010/500/20/
010670/20130320/91553/7000/2000/10/
010670/20130320/91602/7000/105/10/
010670/20130320/91643/7010/1482/20/
010670/20130320/91648/7010/534/10/
010670/20130320/91820/7010/767/20/
010670/20130320/92009/7010/2017/10/
010670/20130320/92039/7010/103/10/
010670/20130320/92057/7010/1105/10/
010670/20130320/92135/7000/962/10/
010670/20130320/92200/6960/461/10/
010670/20130320/92350/7000/1083/20/
010670/20130320/92354/7000/429/10/
010670/20130320/92359/7000/571/20/
010670/20130320/92408/7010/81/20/
010670/20130320/92437/7020/111/20/
010670/20130320/92440/7000/3000/10/
010670/20130320/92444/7000/817/10/
010670/20130320/92514/7000/200/20/
010670/20130320/92519/7000/1283/20/
010670/20130320/92551/7000/471/10/
010670/20130320/92631/7000/164/20/
010670/20130320/92635/7010/1100/20/
010670/20130320/92639/7020/226/20/
010670/20130320/92655/7020/1706/20/
010670/20130320/92736/7020/788/10/
010670/20130320/92738/7020/400/10/
010670/20130320/92758/7020/163/10/
010670/20130320/92803/7020/857/20/
010670/20130320/92811/7020/163/10/
010670/20130320/92811/7010/600/10/
010670/20130320/92811/7000/745/10/
010670/20130320/92811/6980/3649/10/
010670/20130320/92818/6970/1308/10/
010670/20130320/92822/6980/270/20/
010670/20130320/92825/6980/400/20/
010670/20130320/92838/6980/392/20/
010670/20130320/92915/6980/308/10/
010670/20130320/92940/7000/163/20/
010670/20130320/93003/7000/110/20/
010670/20130320/93015/7000/200/20/
010670/20130320/93035/6980/226/10/
010670/20130320/93041/6980/700/10/
010670/20130320/93055/6970/675/10/
010670/20130320/93055/6960/1094/10/
010670/20130320/93135/6960/150/10/
010670/20130320/93135/6960/225/10/
010670/20130320/93203/6970/99/20/
010670/20130320/93203/6950/719/10/
010670/20130320/93223/6950/120/10/
010670/20130320/93228/6950/100/10/
010670/20130320/93230/6950/327/10/
010670/20130320/93234/6940/759/10/
010670/20130320/93236/6940/268/10/
010670/20130320/93311/6930/1160/10/
010670/20130320/93322/6920/153/10/
010670/20130320/93340/6910/1768/10/
010670/20130320/93421/6920/151/10/
010670/20130320/93421/6900/1201/10/
010670/20130320/93429/6900/401/20/
010670/20130320/93438/6900/100/20/
010670/20130320/93447/6900/170/20/
010670/20130320/93458/6900/560/10/
010670/20130320/93519/6900/110/10/
010670/20130320/93543/6890/129/10/
010670/20130320/93609/6900/757/20/
010670/20130320/93627/6880/204/10/
010670/20130320/93638/6880/1003/10/
010670/20130320/93645/6870/180/10/
010670/20130320/93708/6890/253/20/
010670/20130320/93754/6870/1247/10/
010670/20130320/93810/6860/876/10/
010670/20130320/93810/6850/1022/10/
010670/20130320/93834/6850/561/10/
010670/20130320/93847/6850/300/10/
010670/20130320/93911/6890/210/20/
010670/20130320/93921/6890/200/20/
010670/20130320/93931/6890/200/20/
010670/20130320/93944/6890/200/20/
010670/20130320/93952/6890/200/20/
010670/20130320/94002/6890/210/20/
010670/20130320/94004/6890/100/20/
010670/20130320/94014/6890/200/10/
010670/20130320/94015/6900/100/20/
010670/20130320/94024/6900/200/20/
010670/20130320/94032/6900/210/20/
010670/20130320/94037/6900/100/20/
010670/20130320/94044/6900/200/20/
010670/20130320/94104/6900/1027/20/
010670/20130320/94121/6900/100/20/
010670/20130320/94133/6900/100/20/
010670/20130320/94331/6900/112/10/
010670/20130320/94352/6860/578/10/
010670/20130320/94426/6860/111/20/
010670/20130320/94431/6860/200/20/
010670/20130320/94832/6890/82/20/
010670/20130320/94946/6890/146/20/
010670/20130320/94946/6900/2363/20/
010670/20130320/95033/6900/106/10/
010670/20130320/95124/6910/153/20/
010670/20130320/95213/6910/84/20/
010670/20130320/95311/6910/915/20/
010670/20130320/95311/6920/1097/20/
010670/20130320/95321/6920/105/20/
010670/20130320/95329/6920/209/20/
010670/20130320/95338/6940/106/20/
010670/20130320/95338/6950/1904/20/
010670/20130320/95342/6940/415/20/
010670/20130320/95342/6950/629/20/
010670/20130320/95401/6970/316/20/
010670/20130320/95423/6970/200/20/
010670/20130320/95436/6970/200/20/
010670/20130320/95442/6960/120/10/
010670/20130320/95449/6960/100/10/
010670/20130320/95449/6960/99/10/
010670/20130320/95452/6970/200/20/
010670/20130320/95457/6960/99/10/
010670/20130320/95500/6960/2000/10/
010670/20130320/95501/6960/124/10/
010670/20130320/95508/6960/200/20/
010670/20130320/95540/6960/200/20/
010670/20130320/95611/6960/1000/20/
010670/20130320/95617/6960/137/20/
010670/20130320/95821/6960/612/20/
010670/20130320/95914/6960/150/10/
010670/20130320/100020/6930/136/10/
010670/20130320/100043/6930/1000/10/
010670/20130320/100124/6960/1169/20/
010670/20130320/100447/6960/335/10/
010670/20130320/100459/6930/2000/10/
010670/20130320/100520/6930/275/10/
010670/20130320/100520/6920/254/10/
010670/20130320/100750/6970/200/20/
010670/20130320/100822/6970/123/20/
010670/20130320/100840/6970/100/20/
010670/20130320/100840/6970/177/10/
010670/20130320/100931/6920/200/10/
010670/20130320/100940/6970/136/20/
010670/20130320/101047/6920/372/10/
010670/20130320/101612/6950/260/20/
010670/20130320/101727/6920/200/10/
010670/20130320/102045/6930/734/10/
010670/20130320/102048/6930/300/10/
010670/20130320/102140/6930/178/10/
010670/20130320/102206/6920/216/10/
010670/20130320/102226/6920/794/10/
010670/20130320/102300/6910/493/10/
010670/20130320/102430/6920/149/20/
010670/20130320/102430/6940/218/20/
010670/20130320/102430/6940/1501/10/
010670/20130320/102645/6920/1052/10/
010670/20130320/102839/6930/165/10/
010670/20130320/102948/6940/905/20/
010670/20130320/103007/6940/501/20/
010670/20130320/103030/6940/800/20/
010670/20130320/103035/6940/96/20/
010670/20130320/103035/6940/404/10/
010670/20130320/103122/6940/138/10/
010670/20130320/103243/6940/101/10/
010670/20130320/103441/6940/525/10/
010670/20130320/103835/6930/377/10/
010670/20130320/104433/6920/175/10/
010670/20130320/104529/6920/475/10/
010670/20130320/104723/6930/121/20/
010670/20130320/104911/6930/201/20/
010670/20130320/104911/6930/102/10/
010670/20130320/105032/6930/87/10/
010670/20130320/105408/6940/411/20/
010670/20130320/105408/6950/1384/20/
010670/20130320/105759/6950/401/10/
010670/20130320/105925/6960/234/10/
010670/20130320/110340/6950/196/10/
010670/20130320/110459/6950/982/10/
010670/20130320/110517/6940/99/10/
010670/20130320/110606/6950/844/20/
010670/20130320/110606/6950/84/10/
010670/20130320/110827/6950/95/10/
010670/20130320/110928/6940/380/10/
010670/20130320/110958/6940/952/10/
010670/20130320/111016/6930/1272/10/
010670/20130320/111016/6920/729/10/
010670/20130320/111535/6940/92/20/
010670/20130320/111535/6950/408/20/
010670/20130320/111731/6950/100/20/
010670/20130320/111731/6950/304/10/
010670/20130320/112020/6940/873/10/
010670/20130320/112117/6940/170/10/
010670/20130320/112216/6940/289/10/
010670/20130320/112632/6950/467/20/
010670/20130320/112910/6940/141/10/
010670/20130320/113027/6940/429/10/
010670/20130320/113027/6930/1139/10/
010670/20130320/113409/6940/176/10/
010670/20130320/114250/6950/263/20/
010670/20130320/114330/6950/270/10/
010670/20130320/114458/6940/1026/10/
010670/20130320/114500/6940/100/10/
010670/20130320/114531/6940/999/10/
010670/20130320/114541/6940/112/10/
010670/20130320/114906/6940/817/10/
010670/20130320/114906/6930/728/10/
010670/20130320/115103/6930/1780/10/
010670/20130320/115103/6920/1220/10/
010670/20130320/115118/6930/266/20/
010670/20130320/115433/6930/271/10/
010670/20130320/115905/6950/263/10/
010670/20130320/115928/6940/200/10/
010670/20130320/115956/6940/207/20/
010670/20130320/115956/6940/121/10/
010670/20130320/120007/6940/552/20/
010670/20130320/120016/6940/192/20/
010670/20130320/120016/6940/86/10/
010670/20130320/120048/6950/1023/20/
010670/20130320/120058/6950/142/10/
010670/20130320/120122/6960/101/20/
010670/20130320/120355/6960/185/20/
010670/20130320/120442/6970/101/20/
010670/20130320/120443/6970/280/20/
010670/20130320/120443/6970/97/10/
010670/20130320/120452/6980/575/20/
010670/20130320/120523/6980/81/20/
010670/20130320/120537/6980/441/20/
010670/20130320/120537/6990/2562/20/
010670/20130320/120538/6970/300/10/
010670/20130320/120558/6990/214/20/
010670/20130320/120817/6970/147/10/
010670/20130320/120901/6980/406/20/
010670/20130320/120901/6990/2266/20/
010670/20130320/120918/7000/782/20/
010670/20130320/120923/7010/82/20/
010670/20130320/120923/7020/291/10/
010670/20130320/120950/7000/511/10/
010670/20130320/120959/7000/486/20/
010670/20130320/121344/6980/97/10/
010670/20130320/121357/6980/527/10/
010670/20130320/121418/6980/97/10/
010670/20130320/121455/6980/89/10/
010670/20130320/121538/6980/459/10/
010670/20130320/121738/6980/931/10/
010670/20130320/121748/6970/88/10/
010670/20130320/121818/6970/117/10/
010670/20130320/121827/6970/110/10/
010670/20130320/121845/6970/117/10/
010670/20130320/122115/6970/151/10/
010670/20130320/122241/6980/2011/20/
010670/20130320/122242/6970/200/10/
010670/20130320/122304/6990/201/20/
010670/20130320/122306/7000/925/20/
010670/20130320/122314/7000/135/10/
010670/20130320/122333/7010/106/20/
010670/20130320/122400/6990/82/10/
010670/20130320/122426/7010/170/20/
010670/20130320/122442/7010/609/20/
010670/20130320/122454/7020/546/20/
010670/20130320/122456/7020/105/20/
010670/20130320/122457/7020/104/20/
010670/20130320/122505/7020/261/10/
010670/20130320/122514/7030/537/20/
010670/20130320/122515/7020/82/10/
010670/20130320/122517/7030/435/20/
010670/20130320/122525/7020/86/10/
010670/20130320/122526/7030/200/20/
010670/20130320/122530/7020/213/10/
010670/20130320/122532/7020/155/10/
010670/20130320/122547/7000/186/20/
010670/20130320/122548/7020/123/10/
010670/20130320/122559/7030/549/20/
010670/20130320/122610/7030/81/20/
010670/20130320/122610/7030/500/20/
010670/20130320/122621/7030/143/20/
010670/20130320/122702/7000/81/10/
010670/20130320/122717/7020/266/20/
010670/20130320/122729/7030/615/20/
010670/20130320/122731/7030/203/20/
010670/20130320/122731/7040/1529/20/
010670/20130320/122731/7040/273/10/
010670/20130320/122732/7020/273/10/
010670/20130320/122746/7050/1140/20/
010670/20130320/122822/7050/82/20/
010670/20130320/122831/7030/212/10/
010670/20130320/122855/7040/538/20/
010670/20130320/122901/7040/109/20/
010670/20130320/122918/7040/349/10/
010670/20130320/122928/7040/444/10/
010670/20130320/122930/7040/454/20/
010670/20130320/122930/7050/340/20/
010670/20130320/122937/7050/1010/20/
010670/20130320/123006/7040/126/20/
010670/20130320/123006/7040/232/10/
010670/20130320/123013/7050/1097/20/
010670/20130320/123016/7050/147/10/
010670/20130320/123021/7050/1165/10/
010670/20130320/123021/7050/100/20/
010670/20130320/123026/7040/140/10/
010670/20130320/123028/7040/385/20/
010670/20130320/123049/7040/511/20/
010670/20130320/123106/7040/248/20/
010670/20130320/123122/7040/212/20/
010670/20130320/123136/7030/1288/10/
010670/20130320/123136/7030/278/10/
010670/20130320/123148/7040/81/20/
010670/20130320/123217/7030/86/10/
010670/20130320/123232/7020/1100/10/
010670/20130320/123237/7010/100/10/
010670/20130320/123401/7010/82/10/
010670/20130320/123450/7020/381/20/
010670/20130320/123501/7020/86/10/
010670/20130320/123526/7020/690/10/
010670/20130320/123650/7010/1011/10/
010670/20130320/123650/7010/147/10/
010670/20130320/123743/7000/768/10/
010670/20130320/123937/7010/114/10/
010670/20130320/123945/7010/177/10/
010670/20130320/124502/7000/648/10/
010670/20130320/125116/7010/177/10/
010670/20130320/125633/7010/135/10/
010670/20130320/125655/7010/202/10/
010670/20130320/125655/7000/831/10/
010670/20130320/125715/7000/268/10/
010670/20130320/125816/6990/223/10/
010670/20130320/125821/6990/200/10/
010670/20130320/125827/6990/200/10/
010670/20130320/125827/6990/189/10/
010670/20130320/125832/6990/500/10/
010670/20130320/125835/6990/100/10/
010670/20130320/125841/6990/155/10/
010670/20130320/125844/6990/424/20/
010670/20130320/125855/6980/100/10/
010670/20130320/125920/6980/100/10/
010670/20130320/125935/6990/128/10/
010670/20130320/125945/6990/106/10/
010670/20130320/130132/6980/171/10/
010670/20130320/130151/6980/800/10/
010670/20130320/130152/6980/108/10/
010670/20130320/130210/6980/82/10/
010670/20130320/130233/6970/81/10/
010670/20130320/130437/6980/265/10/
010670/20130320/130519/6980/83/10/
010670/20130320/130728/6980/601/10/
010670/20130320/130859/6980/83/10/
010670/20130320/130959/6990/200/20/
010670/20130320/131012/6990/200/20/
010670/20130320/132112/6990/120/10/
010670/20130320/132112/6980/1211/10/
010670/20130320/132112/6970/1241/10/
010670/20130320/132112/6960/1019/10/
010670/20130320/132112/6960/90/10/
010670/20130320/132153/6960/499/10/
010670/20130320/132304/6970/610/10/
010670/20130320/132304/6960/240/10/
010670/20130320/132519/6980/111/10/
010670/20130320/132658/6980/406/10/
010670/20130320/132706/6980/920/10/
010670/20130320/132708/6980/133/10/
010670/20130320/133014/6990/542/20/
010670/20130320/133457/6980/412/10/
010670/20130320/133958/7000/309/20/
010670/20130320/133958/7000/122/10/
010670/20130320/134306/6980/87/10/
010670/20130320/134454/7010/501/20/
010670/20130320/134522/7010/100/20/
010670/20130320/134522/7010/100/20/
010670/20130320/134702/7010/275/20/
010670/20130320/134839/7010/525/20/
010670/20130320/134921/7010/700/20/
010670/20130320/134949/7010/500/20/
010670/20130320/135008/6980/100/10/
010670/20130320/135033/7010/501/20/
010670/20130320/135037/6980/100/10/
010670/20130320/135159/7010/89/20/
010670/20130320/135238/7010/700/20/
010670/20130320/135239/7010/419/10/
010670/20130320/135240/7010/452/10/
010670/20130320/135244/7010/500/10/
010670/20130320/135250/7010/97/10/
010670/20130320/135332/7020/934/20/
010670/20130320/135436/7010/101/10/
010670/20130320/135439/7010/500/10/
010670/20130320/135454/7010/1566/10/
010670/20130320/135517/7020/738/20/
010670/20130320/135754/7000/235/10/
010670/20130320/135840/7010/322/20/
010670/20130320/135846/7000/281/10/
010670/20130320/135925/6980/1274/10/
010670/20130320/140104/6970/880/10/
010670/20130320/140445/6980/203/20/
010670/20130320/140751/6980/99/10/
010670/20130320/140953/6970/147/10/
010670/20130320/141011/6970/415/10/
010670/20130320/141025/6970/1155/10/
010670/20130320/141115/6960/1000/10/
010670/20130320/141115/6960/284/10/
010670/20130320/141223/6950/650/10/
010670/20130320/141223/6950/379/10/
010670/20130320/141515/6960/201/20/
010670/20130320/141558/6940/1695/10/
010670/20130320/141558/6940/121/10/
010670/20130320/141703/6940/392/10/
010670/20130320/141703/6930/1188/10/
010670/20130320/141723/6930/332/10/
010670/20130320/141723/6920/1710/10/
010670/20130320/141723/6910/1009/10/
010670/20130320/141723/6900/1513/10/
010670/20130320/141724/6890/1013/10/
010670/20130320/141842/6890/509/10/
010670/20130320/141842/6880/1269/10/
010670/20130320/141842/6870/2573/10/
010670/20130320/142147/6890/502/10/
010670/20130320/142850/6900/218/10/
010670/20130320/142850/6890/2274/10/
010670/20130320/142906/6890/125/10/
010670/20130320/142906/6880/1810/10/
010670/20130320/142906/6870/2113/10/
010670/20130320/142906/6860/1050/10/
010670/20130320/142906/6850/3364/10/
010670/20130320/142906/6840/2047/10/
010670/20130320/142906/6830/1001/10/
010670/20130320/142916/6830/422/20/
010670/20130320/142925/6830/88/20/
010670/20130320/143031/6840/447/10/
010670/20130320/143040/6830/313/10/
010670/20130320/143103/6830/102/10/
010670/20130320/143103/6820/1000/10/
010670/20130320/143154/6820/209/10/
010670/20130320/143154/6810/1001/10/
010670/20130320/143154/6800/1144/10/
010670/20130320/143218/6870/111/20/
010670/20130320/143230/6870/112/10/
010670/20130320/143242/6810/101/10/
010670/20130320/143242/6800/1002/10/
010670/20130320/143312/6810/150/10/
010670/20130320/143312/6800/101/10/
010670/20130320/143337/6860/102/20/
010670/20130320/143422/6810/255/10/
010670/20130320/143437/6860/82/20/
010670/20130320/143459/6800/1186/10/
010670/20130320/143459/6790/300/10/
010670/20130320/143459/6780/104/10/
010670/20130320/143755/6840/248/20/
010670/20130320/143755/6850/300/20/
010670/20130320/143755/6860/252/20/
010670/20130320/143755/6870/98/20/
010670/20130320/143755/6890/198/20/
010670/20130320/144517/6830/991/10/
010670/20130320/144534/6810/101/10/
010670/20130320/144534/6800/691/10/
010670/20130320/144604/6810/101/10/
010670/20130320/144619/6810/201/10/
010670/20130320/144619/6800/100/10/
010670/20130320/144741/6840/155/20/
010670/20130320/144812/6810/151/10/
010670/20130320/144819/6800/201/10/
010670/20130320/150000/6790/4824/10/
