010670/20121102/90224/5410/807/20/
010670/20121102/90224/5410/695/10/
010670/20121102/90543/5410/112/20/
010670/20121102/91342/5360/385/10/
010670/20121102/91342/5340/1000/10/
010670/20121102/94452/5370/88/10/
010670/20121102/94519/5380/100/20/
010670/20121102/101553/5370/2020/20/
010670/20121102/101714/5350/992/20/
010670/20121102/101748/5370/257/20/
010670/20121102/102018/5330/432/10/
010670/20121102/102018/5320/132/10/
010670/20121102/102428/5320/391/10/
010670/20121102/102519/5320/101/10/
010670/20121102/102519/5310/500/10/
010670/20121102/102530/5320/93/10/
010670/20121102/102954/5350/437/20/
010670/20121102/103902/5350/88/20/
010670/20121102/104337/5340/81/10/
010670/20121102/110710/5350/98/20/
010670/20121102/110808/5370/954/20/
010670/20121102/111115/5380/482/20/
010670/20121102/111148/5380/500/20/
010670/20121102/111323/5400/509/20/
010670/20121102/111750/5400/1380/20/
010670/20121102/112149/5370/150/10/
010670/20121102/112435/5370/100/10/
010670/20121102/112718/5370/87/10/
010670/20121102/113446/5350/243/10/
010670/20121102/113524/5340/202/10/
010670/20121102/113611/5330/800/10/
010670/20121102/113649/5330/500/10/
010670/20121102/113731/5320/556/10/
010670/20121102/114122/5330/817/20/
010670/20121102/115602/5390/271/20/
010670/20121102/120010/5390/475/10/
010670/20121102/120129/5390/516/20/
010670/20121102/122959/5350/4075/20/
010670/20121102/124039/5350/527/10/
010670/20121102/125619/5350/525/20/
010670/20121102/125827/5340/400/10/
010670/20121102/125827/5330/598/10/
010670/20121102/130016/5350/2365/20/
010670/20121102/130518/5350/485/20/
010670/20121102/130518/5360/1091/20/
010670/20121102/130859/5360/122/20/
010670/20121102/131533/5360/729/20/
010670/20121102/133806/5380/422/20/
010670/20121102/134930/5350/1068/10/
010670/20121102/135349/5350/158/10/
010670/20121102/135402/5350/400/10/
010670/20121102/135402/5340/200/10/
010670/20121102/135402/5330/596/10/
010670/20121102/135402/5320/1625/10/
010670/20121102/135519/5320/346/20/
010670/20121102/135559/5320/101/20/
010670/20121102/135650/5320/358/20/
010670/20121102/135701/5320/200/20/
010670/20121102/135721/5320/1133/20/
010670/20121102/140017/5370/454/20/
010670/20121102/140355/5320/565/10/
010670/20121102/140450/5320/1000/20/
010670/20121102/140540/5320/100/20/
010670/20121102/140603/5310/1015/10/
010670/20121102/140901/5310/481/10/
010670/20121102/140901/5300/1534/10/
010670/20121102/140930/5300/310/10/
010670/20121102/141238/5290/800/10/
010670/20121102/141305/5290/314/10/
010670/20121102/141750/5300/82/20/
010670/20121102/142153/5290/203/10/
010670/20121102/142627/5290/114/20/
010670/20121102/142739/5280/509/10/
010670/20121102/142828/5290/3210/20/
010670/20121102/142828/5300/1192/20/
010670/20121102/142828/5310/500/20/
010670/20121102/142828/5380/100/20/
010670/20121102/143847/5300/163/10/
010670/20121102/143904/5300/297/20/
010670/20121102/143943/5300/201/10/
010670/20121102/144345/5290/303/10/
010670/20121102/144731/5340/1529/20/
010670/20121102/144731/5350/482/20/
010670/20121102/144928/5360/881/20/
010670/20121102/144928/5370/631/20/
010670/20121102/150000/5370/863/20/
