039980/20121220/90000/1970/16774/10/
039980/20121220/90008/1970/1592/10/
039980/20121220/90008/1965/2795/10/
039980/20121220/90022/1960/1554/10/
039980/20121220/90022/1955/446/10/
039980/20121220/90041/1965/2594/20/
039980/20121220/90134/1970/202/20/
039980/20121220/90137/1970/96/20/
039980/20121220/90139/1970/232/20/
039980/20121220/90215/1970/949/10/
039980/20121220/90215/1965/1054/10/
039980/20121220/90219/1965/4412/10/
039980/20121220/90222/1965/588/20/
039980/20121220/90226/1965/520/10/
039980/20121220/90235/1965/100/10/
039980/20121220/90235/1960/1112/10/
039980/20121220/90251/1965/150/10/
039980/20121220/90251/1960/2112/10/
039980/20121220/90251/1955/273/10/
039980/20121220/90251/1955/500/10/
039980/20121220/90253/1955/552/10/
039980/20121220/90255/1955/600/10/
039980/20121220/90256/1955/200/10/
039980/20121220/90259/1955/1604/10/
039980/20121220/90259/1950/2089/10/
039980/20121220/90302/1950/100/20/
039980/20121220/90302/1945/520/10/
039980/20121220/90302/1940/170/10/
039980/20121220/90302/1935/230/10/
039980/20121220/90302/1930/401/10/
039980/20121220/90302/1920/731/10/
039980/20121220/90304/1920/150/10/
039980/20121220/90310/1920/140/10/
039980/20121220/90310/1920/100/10/
039980/20121220/90311/1920/100/10/
039980/20121220/90311/1920/100/10/
039980/20121220/90311/1920/100/10/
039980/20121220/90311/1920/100/10/
039980/20121220/90313/1920/144/10/
039980/20121220/90316/1920/98/10/
039980/20121220/90316/1910/454/10/
039980/20121220/90318/1920/99/10/
039980/20121220/90318/1910/303/10/
039980/20121220/90321/1905/1670/10/
039980/20121220/90325/1905/99/20/
039980/20121220/90330/1900/554/10/
039980/20121220/90330/1905/200/20/
039980/20121220/90331/1905/900/20/
039980/20121220/90336/1905/102/20/
039980/20121220/90340/1905/200/20/
039980/20121220/90343/1900/3000/10/
039980/20121220/90346/1900/100/10/
039980/20121220/90347/1905/102/20/
039980/20121220/90348/1905/500/20/
039980/20121220/90349/1900/300/10/
039980/20121220/90352/1900/1191/10/
039980/20121220/90353/1905/1000/20/
039980/20121220/90354/1900/5000/10/
039980/20121220/90358/1900/100/10/
039980/20121220/90400/1900/500/10/
039980/20121220/90410/1905/193/20/
039980/20121220/90413/1905/140/20/
039980/20121220/90415/1905/1000/20/
039980/20121220/90415/1905/99/20/
039980/20121220/90415/1905/100/20/
039980/20121220/90415/1905/1159/20/
039980/20121220/90416/1910/157/20/
039980/20121220/90416/1910/100/20/
039980/20121220/90420/1905/961/10/
039980/20121220/90420/1905/975/20/
039980/20121220/90427/1910/533/20/
039980/20121220/90436/1910/200/10/
039980/20121220/90454/1915/856/10/
039980/20121220/90454/1910/6181/10/
039980/20121220/90454/1905/5028/10/
039980/20121220/90524/1910/500/10/
039980/20121220/90524/1910/1573/10/
039980/20121220/90529/1910/203/10/
039980/20121220/90535/1920/1022/20/
039980/20121220/90539/1920/3981/10/
039980/20121220/90555/1920/505/20/
039980/20121220/90559/1920/514/20/
039980/20121220/90604/1920/500/10/
039980/20121220/90605/1920/486/10/
039980/20121220/90612/1920/164/20/
039980/20121220/90615/1925/200/20/
039980/20121220/90624/1925/203/20/
039980/20121220/90630/1925/201/20/
039980/20121220/90631/1930/2506/20/
039980/20121220/90633/1925/201/10/
039980/20121220/90644/1935/346/20/
039980/20121220/90654/1940/122/10/
039980/20121220/90700/1935/993/10/
039980/20121220/90720/1935/101/20/
039980/20121220/90744/1945/148/20/
039980/20121220/90746/1945/100/20/
039980/20121220/90803/1940/2430/10/
039980/20121220/90805/1935/300/10/
039980/20121220/90817/1935/5001/10/
039980/20121220/90818/1940/101/20/
039980/20121220/90835/1940/1000/20/
039980/20121220/90847/1940/111/20/
039980/20121220/90900/1935/343/10/
039980/20121220/90901/1940/1000/20/
039980/20121220/90901/1940/500/20/
039980/20121220/90908/1940/102/10/
039980/20121220/90917/1940/1312/20/
039980/20121220/90921/1940/5670/10/
039980/20121220/90934/1940/500/10/
039980/20121220/91005/1940/89/20/
039980/20121220/91030/1940/565/20/
039980/20121220/91039/1940/150/10/
039980/20121220/91055/1940/1279/10/
039980/20121220/91055/1940/521/20/
039980/20121220/91153/1945/177/20/
039980/20121220/91208/1945/334/10/
039980/20121220/91210/1940/5000/10/
039980/20121220/91211/1940/1000/20/
039980/20121220/91246/1945/96/20/
039980/20121220/91309/1945/203/20/
039980/20121220/91310/1950/1313/20/
039980/20121220/91316/1945/2800/10/
039980/20121220/91325/1945/3200/20/
039980/20121220/91614/1955/101/20/
039980/20121220/91639/1955/100/10/
039980/20121220/91639/1950/1165/10/
039980/20121220/91650/1950/250/20/
039980/20121220/91737/1950/500/20/
039980/20121220/91749/1950/100/20/
039980/20121220/91805/1950/3966/20/
039980/20121220/91904/1960/660/20/
039980/20121220/91910/1960/2197/10/
039980/20121220/91930/1955/402/10/
039980/20121220/91930/1950/1808/10/
039980/20121220/92051/1950/1254/10/
039980/20121220/92051/1945/1279/10/
039980/20121220/92106/1945/3430/10/
039980/20121220/92106/1940/103/10/
039980/20121220/92121/1945/144/10/
039980/20121220/92121/1940/4576/10/
039980/20121220/92121/1935/10204/10/
039980/20121220/92121/1935/1876/20/
039980/20121220/92126/1935/300/10/
039980/20121220/92222/1955/577/20/
039980/20121220/92222/1960/4436/20/
039980/20121220/92237/1955/1000/10/
039980/20121220/92404/1955/1010/10/
039980/20121220/92441/1950/108/10/
039980/20121220/92444/1945/2000/10/
039980/20121220/92516/1955/5000/20/
039980/20121220/92519/1950/258/10/
039980/20121220/92524/1950/1742/20/
039980/20121220/92551/1950/2001/20/
039980/20121220/92600/1950/1140/20/
039980/20121220/92603/1945/1641/10/
039980/20121220/92656/1950/1000/20/
039980/20121220/92718/1950/1010/10/
039980/20121220/92718/1945/1990/10/
039980/20121220/92759/1950/102/20/
039980/20121220/92759/1950/1098/20/
039980/20121220/92933/1955/517/20/
039980/20121220/93039/1955/500/20/
039980/20121220/93134/1955/268/10/
039980/20121220/93200/1955/262/10/
039980/20121220/93354/1955/401/20/
039980/20121220/93638/1955/1060/20/
039980/20121220/93728/1950/353/10/
039980/20121220/93742/1955/100/20/
039980/20121220/93900/1955/390/20/
039980/20121220/93942/1955/224/20/
039980/20121220/94017/1960/1000/20/
039980/20121220/94041/1960/230/20/
039980/20121220/94045/1960/90/20/
039980/20121220/94052/1960/500/20/
039980/20121220/94123/1955/385/10/
039980/20121220/94235/1955/512/10/
039980/20121220/94241/1955/483/10/
039980/20121220/94328/1955/814/20/
039980/20121220/94422/1955/186/10/
039980/20121220/94502/1955/700/20/
039980/20121220/94631/1955/100/20/
039980/20121220/94837/1960/1014/20/
039980/20121220/94858/1960/1000/20/
039980/20121220/95008/1955/500/10/
039980/20121220/95148/1960/1020/20/
039980/20121220/95219/1955/457/10/
039980/20121220/95314/1955/170/10/
039980/20121220/95335/1955/200/10/
039980/20121220/95336/1955/1000/10/
039980/20121220/95411/1955/950/10/
039980/20121220/95454/1955/100/10/
039980/20121220/95526/1950/186/10/
039980/20121220/95642/1950/1000/10/
039980/20121220/95901/1955/283/20/
039980/20121220/100146/1960/1019/20/
039980/20121220/100154/1960/501/20/
039980/20121220/100159/1960/1030/20/
039980/20121220/100214/1960/1473/20/
039980/20121220/100307/1960/1428/20/
039980/20121220/100346/1960/149/20/
039980/20121220/100407/1960/1451/20/
039980/20121220/100510/1960/449/20/
039980/20121220/100539/1960/200/20/
039980/20121220/100638/1960/1000/10/
039980/20121220/100716/1960/109/10/
039980/20121220/100726/1965/500/20/
039980/20121220/100807/1965/940/20/
039980/20121220/100822/1960/401/10/
039980/20121220/100822/1955/617/10/
039980/20121220/101304/1970/1319/20/
039980/20121220/101337/1970/699/20/
039980/20121220/101412/1970/490/20/
039980/20121220/101515/1970/311/20/
039980/20121220/101609/1970/500/10/
039980/20121220/101611/1970/90/10/
039980/20121220/101650/1975/104/20/
039980/20121220/101716/1975/852/20/
039980/20121220/101720/1980/3400/20/
039980/20121220/101757/1980/200/20/
039980/20121220/102008/1975/108/10/
039980/20121220/102228/1980/1900/20/
039980/20121220/102241/1980/100/10/
039980/20121220/102254/1985/5000/20/
039980/20121220/102319/1985/99/20/
039980/20121220/102320/1985/81/20/
039980/20121220/102320/1990/2432/20/
039980/20121220/102333/1990/358/20/
039980/20121220/102351/1990/89/20/
039980/20121220/102351/1995/411/20/
039980/20121220/102548/1990/1201/20/
039980/20121220/102548/1995/1857/20/
039980/20121220/102805/1990/200/20/
039980/20121220/102913/1985/1000/10/
039980/20121220/103228/1985/500/20/
039980/20121220/103531/1985/501/20/
039980/20121220/103545/1980/1000/10/
039980/20121220/103548/1980/4348/10/
039980/20121220/103605/1975/1000/10/
039980/20121220/104158/1980/470/20/
039980/20121220/104644/1985/137/20/
039980/20121220/104644/1990/1200/20/
039980/20121220/104707/1990/172/10/
039980/20121220/105233/1980/1100/10/
039980/20121220/105259/1980/474/10/
039980/20121220/105532/1980/543/20/
039980/20121220/105543/1985/1000/20/
039980/20121220/110220/1985/1020/20/
039980/20121220/110512/1985/200/20/
039980/20121220/110652/1980/1457/10/
039980/20121220/110652/1975/2583/10/
039980/20121220/111019/1980/942/10/
039980/20121220/111120/1980/453/10/
039980/20121220/111120/1975/2478/10/
039980/20121220/111410/1985/460/20/
039980/20121220/111756/1980/371/10/
039980/20121220/112126/1980/537/10/
039980/20121220/112323/1980/214/10/
039980/20121220/112436/1980/295/20/
039980/20121220/112546/1975/500/10/
039980/20121220/112902/1975/2000/10/
039980/20121220/113103/1975/1437/10/
039980/20121220/113103/1970/1567/10/
039980/20121220/113425/1975/519/10/
039980/20121220/113458/1975/500/10/
039980/20121220/113504/1965/1811/10/
039980/20121220/113537/1965/420/10/
039980/20121220/113655/1965/826/10/
039980/20121220/113707/1970/400/10/
039980/20121220/114054/1970/1312/10/
039980/20121220/114059/1970/500/10/
039980/20121220/114139/1970/166/10/
039980/20121220/114326/1980/377/20/
039980/20121220/114614/1985/2834/20/
039980/20121220/114817/1990/5020/20/
039980/20121220/115017/1990/371/20/
039980/20121220/115027/1990/135/10/
039980/20121220/115240/1990/449/20/
039980/20121220/115243/1995/1092/20/
039980/20121220/115243/2000/2186/20/
039980/20121220/115243/2005/3303/20/
039980/20121220/115308/2005/110/10/
039980/20121220/115311/2005/300/10/
039980/20121220/120600/1985/265/10/
039980/20121220/120647/1985/459/10/
039980/20121220/121003/1980/2010/10/
039980/20121220/121003/1970/447/10/
039980/20121220/121003/1965/2461/10/
039980/20121220/121839/1970/2119/10/
039980/20121220/121859/1970/1481/20/
039980/20121220/122734/1970/1052/10/
039980/20121220/123650/1970/524/10/
039980/20121220/123844/1970/1006/10/
039980/20121220/124718/1970/118/10/
039980/20121220/125051/1970/4217/10/
039980/20121220/130620/1970/89/10/
039980/20121220/130832/1980/168/20/
039980/20121220/130926/1975/89/10/
039980/20121220/131633/1980/150/20/
039980/20121220/131736/1980/100/20/
039980/20121220/131848/1980/353/20/
039980/20121220/132353/1975/2024/10/
039980/20121220/132625/1980/10000/20/
039980/20121220/132640/1980/240/20/
039980/20121220/132752/1980/3000/20/
039980/20121220/132806/1980/115/20/
039980/20121220/133203/1980/105/10/
039980/20121220/133416/1980/130/10/
039980/20121220/133416/1975/1455/10/
039980/20121220/133634/1985/2116/20/
039980/20121220/133653/1985/184/10/
039980/20121220/133732/1985/99/10/
039980/20121220/133900/1985/120/20/
039980/20121220/134331/1980/210/10/
039980/20121220/134351/1980/1826/20/
039980/20121220/134636/1980/272/10/
039980/20121220/134809/1975/1000/10/
039980/20121220/135135/1980/276/20/
039980/20121220/135208/1980/1728/20/
039980/20121220/135248/1980/772/10/
039980/20121220/135301/1980/100/20/
039980/20121220/135320/1980/138/20/
039980/20121220/135322/1980/362/10/
039980/20121220/135501/1975/6000/10/
039980/20121220/135749/1975/257/10/
039980/20121220/135909/1970/211/10/
039980/20121220/140108/1970/250/10/
039980/20121220/140235/1975/176/20/
039980/20121220/140748/1970/84/10/
039980/20121220/140947/1970/387/10/
039980/20121220/141153/1970/109/10/
039980/20121220/141204/1975/1464/20/
039980/20121220/141311/1975/1283/20/
039980/20121220/142023/1975/892/10/
039980/20121220/142118/1975/321/10/
039980/20121220/142118/1970/2679/10/
039980/20121220/142305/1970/147/10/
039980/20121220/142319/1970/3000/10/
039980/20121220/142324/1970/3000/10/
039980/20121220/142326/1970/510/10/
039980/20121220/142334/1970/1536/10/
039980/20121220/142348/1965/150/10/
039980/20121220/142420/1965/5000/10/
039980/20121220/142443/1965/2016/10/
039980/20121220/142451/1965/134/10/
039980/20121220/142451/1960/366/10/
039980/20121220/142513/1960/2055/10/
039980/20121220/142557/1965/500/10/
039980/20121220/142613/1960/1007/10/
039980/20121220/142632/1960/2000/10/
039980/20121220/142716/1960/500/10/
039980/20121220/142830/1960/1501/10/
039980/20121220/142842/1970/300/20/
039980/20121220/143029/1960/1160/10/
039980/20121220/143043/1960/150/20/
039980/20121220/143043/1955/2328/10/
039980/20121220/143048/1955/4000/10/
039980/20121220/143116/1955/399/10/
039980/20121220/143119/1955/100/10/
039980/20121220/143124/1950/4120/10/
039980/20121220/143132/1950/4870/10/
039980/20121220/143138/1950/1000/10/
039980/20121220/143205/1955/119/20/
039980/20121220/143211/1955/314/10/
039980/20121220/143334/1955/1486/10/
039980/20121220/143334/1950/3389/10/
039980/20121220/143334/1945/3624/10/
039980/20121220/143418/1945/575/10/
039980/20121220/143420/1945/100/20/
039980/20121220/143843/1955/256/20/
039980/20121220/143943/1945/1008/10/
039980/20121220/144020/1955/85/20/
039980/20121220/144228/1945/8001/10/
039980/20121220/144308/1950/110/10/
039980/20121220/144522/1950/166/10/
039980/20121220/144705/1950/4015/10/
039980/20121220/144722/1955/688/20/
039980/20121220/144733/1955/317/10/
039980/20121220/144810/1955/1001/10/
039980/20121220/144816/1955/692/20/
039980/20121220/144839/1965/1001/20/
039980/20121220/144853/1960/1000/10/
039980/20121220/144941/1960/1012/10/
039980/20121220/144941/1955/398/10/
039980/20121220/144941/1950/1539/10/
039980/20121220/144941/1945/7063/10/
039980/20121220/150000/1950/8816/10/
