039980/20130329/90000/2245/476/20/
039980/20130329/90250/2240/128/10/
039980/20130329/90250/2235/1112/10/
039980/20130329/90250/2235/2282/20/
039980/20130329/90349/2240/700/10/
039980/20130329/90428/2240/150/10/
039980/20130329/90548/2240/301/10/
039980/20130329/90809/2235/641/10/
039980/20130329/90853/2235/401/10/
039980/20130329/90929/2235/507/10/
039980/20130329/90949/2230/992/10/
039980/20130329/91009/2230/836/10/
039980/20130329/91126/2235/100/20/
039980/20130329/91250/2230/909/10/
039980/20130329/91331/2240/4820/20/
039980/20130329/91457/2230/941/10/
039980/20130329/91516/2230/14182/20/
039980/20130329/91532/2230/200/20/
039980/20130329/91545/2230/203/20/
039980/20130329/91548/2230/268/20/
039980/20130329/91549/2230/224/20/
039980/20130329/91554/2230/136/20/
039980/20130329/91558/2230/140/20/
039980/20130329/91608/2225/100/10/
039980/20130329/91640/2225/2702/10/
039980/20130329/91808/2225/134/10/
039980/20130329/91815/2225/153/10/
039980/20130329/91833/2225/3555/10/
039980/20130329/91845/2225/88/20/
039980/20130329/91857/2220/800/10/
039980/20130329/91857/2225/708/20/
039980/20130329/91858/2220/1079/10/
039980/20130329/91859/2225/2200/20/
039980/20130329/91902/2220/1098/10/
039980/20130329/91955/2225/207/20/
039980/20130329/92006/2225/1000/20/
039980/20130329/92015/2225/892/20/
039980/20130329/92027/2225/100/20/
039980/20130329/92056/2220/6078/10/
039980/20130329/92154/2225/4832/20/
039980/20130329/92358/2235/2808/20/
039980/20130329/92421/2240/112/20/
039980/20130329/92609/2240/2193/20/
039980/20130329/92722/2240/202/20/
039980/20130329/92822/2240/113/20/
039980/20130329/92859/2240/144/20/
039980/20130329/93025/2240/1086/20/
039980/20130329/93037/2240/86/20/
039980/20130329/93112/2235/92/20/
039980/20130329/93127/2230/801/10/
039980/20130329/93425/2240/509/20/
039980/20130329/93438/2240/1500/20/
039980/20130329/93451/2240/565/20/
039980/20130329/93556/2245/3641/20/
039980/20130329/93614/2250/101/20/
039980/20130329/93625/2245/458/10/
039980/20130329/93629/2245/542/20/
039980/20130329/93645/2250/101/20/
039980/20130329/93645/2245/458/10/
039980/20130329/93647/2245/100/20/
039980/20130329/93648/2245/100/20/
039980/20130329/93649/2245/342/20/
039980/20130329/93659/2250/90/20/
039980/20130329/93702/2250/82/20/
039980/20130329/93704/2250/1971/20/
039980/20130329/93704/2250/472/20/
039980/20130329/93704/2245/1001/10/
039980/20130329/93706/2250/546/20/
039980/20130329/93709/2250/82/20/
039980/20130329/93711/2250/359/20/
039980/20130329/93716/2245/439/10/
039980/20130329/93729/2240/654/10/
039980/20130329/93733/2250/513/20/
039980/20130329/93736/2250/83/20/
039980/20130329/93737/2250/1004/20/
039980/20130329/93739/2245/580/20/
039980/20130329/93744/2245/443/20/
039980/20130329/93751/2250/3105/20/
039980/20130329/93753/2250/263/10/
039980/20130329/93754/2250/1002/20/
039980/20130329/93803/2250/4781/20/
039980/20130329/93804/2250/209/10/
039980/20130329/93809/2250/1018/20/
039980/20130329/93814/2250/1020/20/
039980/20130329/93815/2250/1005/20/
039980/20130329/93822/2245/2027/10/
039980/20130329/93828/2245/1021/10/
039980/20130329/93844/2240/81/10/
039980/20130329/93913/2240/3991/10/
039980/20130329/93914/2240/1000/20/
039980/20130329/93914/2240/172/20/
039980/20130329/93920/2240/828/10/
039980/20130329/93929/2240/3290/20/
039980/20130329/93929/2245/1710/20/
039980/20130329/94001/2245/1000/20/
039980/20130329/94011/2245/500/20/
039980/20130329/94011/2245/100/20/
039980/20130329/94201/2245/1011/10/
039980/20130329/94210/2245/398/10/
039980/20130329/94210/2240/1603/10/
039980/20130329/94232/2250/119/20/
039980/20130329/94315/2240/2007/10/
039980/20130329/94317/2250/190/20/
039980/20130329/94338/2240/1002/10/
039980/20130329/94348/2240/1003/10/
039980/20130329/94409/2240/1004/10/
039980/20130329/94422/2240/1000/10/
039980/20130329/94618/2240/1001/10/
039980/20130329/94626/2240/1000/10/
039980/20130329/94757/2240/1001/10/
039980/20130329/94811/2240/111/10/
039980/20130329/94913/2240/1001/20/
039980/20130329/95121/2235/840/10/
039980/20130329/95123/2240/650/20/
039980/20130329/95226/2240/2008/10/
039980/20130329/95230/2240/1158/10/
039980/20130329/95400/2235/1000/10/
039980/20130329/95729/2235/320/10/
039980/20130329/95747/2235/2298/10/
039980/20130329/95748/2235/380/20/
039980/20130329/95855/2235/322/20/
039980/20130329/100353/2235/701/10/
039980/20130329/100455/2235/260/10/
039980/20130329/100512/2235/1000/10/
039980/20130329/100553/2235/115/10/
039980/20130329/100605/2235/341/10/
039980/20130329/100605/2230/8485/10/
039980/20130329/101017/2230/5836/10/
039980/20130329/101027/2230/3096/20/
039980/20130329/101109/2230/100/10/
039980/20130329/101359/2235/126/20/
039980/20130329/101535/2230/5008/10/
039980/20130329/101606/2230/340/10/
039980/20130329/102313/2235/1373/20/
039980/20130329/102423/2235/151/20/
039980/20130329/102529/2235/117/20/
039980/20130329/102945/2235/1375/20/
039980/20130329/103639/2240/451/20/
039980/20130329/103651/2240/3500/20/
039980/20130329/103704/2240/270/20/
039980/20130329/103903/2240/1030/20/
039980/20130329/104221/2235/202/10/
039980/20130329/104415/2240/702/10/
039980/20130329/104710/2240/101/10/
039980/20130329/104720/2240/1206/10/
039980/20130329/104739/2240/274/20/
039980/20130329/104839/2240/228/10/
039980/20130329/104853/2235/300/10/
039980/20130329/104952/2235/103/10/
039980/20130329/105052/2235/135/10/
039980/20130329/105102/2235/201/10/
039980/20130329/105210/2235/203/10/
039980/20130329/105215/2240/685/20/
039980/20130329/105349/2245/89/20/
039980/20130329/105448/2245/501/20/
039980/20130329/105520/2240/1000/10/
039980/20130329/105532/2240/1000/10/
039980/20130329/105535/2240/1915/10/
039980/20130329/105539/2240/785/20/
039980/20130329/105539/2245/215/20/
039980/20130329/105552/2240/1000/20/
039980/20130329/105904/2235/393/10/
039980/20130329/110020/2240/3088/20/
039980/20130329/110034/2240/1213/20/
039980/20130329/110050/2240/807/10/
039980/20130329/110059/2240/211/20/
039980/20130329/110251/2240/2009/10/
039980/20130329/110303/2240/1002/10/
039980/20130329/110451/2240/502/10/
039980/20130329/110551/2240/1000/20/
039980/20130329/110634/2240/2002/20/
039980/20130329/110818/2240/3002/10/
039980/20130329/110830/2240/901/10/
039980/20130329/111307/2240/729/20/
039980/20130329/111610/2235/500/10/
039980/20130329/111806/2235/302/10/
039980/20130329/112323/2235/1002/10/
039980/20130329/112351/2235/3000/10/
039980/20130329/112635/2235/1001/10/
039980/20130329/112744/2235/2625/10/
039980/20130329/113048/2230/2950/10/
039980/20130329/113048/2230/3360/10/
039980/20130329/113115/2230/581/20/
039980/20130329/113136/2230/420/20/
039980/20130329/113503/2230/100/10/
039980/20130329/113503/2225/7440/10/
039980/20130329/113503/2220/2496/10/
039980/20130329/113611/2235/2086/20/
039980/20130329/114011/2225/208/10/
039980/20130329/114240/2225/101/10/
039980/20130329/114335/2230/1002/20/
039980/20130329/115058/2235/435/20/
039980/20130329/115104/2235/200/20/
039980/20130329/115113/2230/3000/10/
039980/20130329/115127/2230/441/10/
039980/20130329/115200/2230/2870/10/
039980/20130329/115743/2230/1022/20/
039980/20130329/115955/2225/3208/10/
039980/20130329/115955/2220/13570/10/
039980/20130329/115955/2215/2255/10/
039980/20130329/120350/2220/2011/10/
039980/20130329/120418/2220/230/20/
039980/20130329/120449/2220/330/10/
039980/20130329/123140/2225/1361/10/
039980/20130329/123217/2220/927/10/
039980/20130329/123235/2220/3670/10/
039980/20130329/123658/2225/1013/20/
039980/20130329/124129/2225/211/20/
039980/20130329/124244/2225/858/10/
039980/20130329/124244/2220/4142/10/
039980/20130329/124801/2220/441/10/
039980/20130329/124855/2220/901/10/
039980/20130329/124901/2220/84/10/
039980/20130329/124952/2220/265/10/
039980/20130329/125052/2220/412/20/
039980/20130329/125318/2215/1000/10/
039980/20130329/125333/2215/1000/10/
039980/20130329/125631/2215/7799/10/
039980/20130329/125648/2215/1320/10/
039980/20130329/125648/2210/1817/10/
039980/20130329/125825/2215/401/20/
039980/20130329/125840/2215/338/10/
039980/20130329/125957/2220/1818/20/
039980/20130329/130012/2220/472/10/
039980/20130329/130059/2220/1000/10/
039980/20130329/130112/2220/1759/10/
039980/20130329/130115/2220/350/20/
039980/20130329/130238/2220/300/10/
039980/20130329/130243/2220/3414/10/
039980/20130329/130323/2220/586/20/
039980/20130329/130544/2225/1740/20/
039980/20130329/130800/2225/89/20/
039980/20130329/130859/2225/100/20/
039980/20130329/131041/2220/1422/10/
039980/20130329/131050/2220/100/10/
039980/20130329/131124/2220/85/10/
039980/20130329/131312/2225/103/20/
039980/20130329/131538/2225/500/20/
039980/20130329/132440/2225/789/20/
039980/20130329/132446/2225/500/10/
039980/20130329/132633/2230/5051/20/
039980/20130329/133032/2230/1320/20/
039980/20130329/133759/2230/3252/20/
039980/20130329/133805/2230/801/20/
039980/20130329/133833/2230/113/20/
039980/20130329/133859/2230/3000/10/
039980/20130329/133940/2230/1893/10/
039980/20130329/133946/2230/151/20/
039980/20130329/134220/2230/1144/10/
039980/20130329/134329/2230/371/20/
039980/20130329/134647/2230/732/10/
039980/20130329/134813/2230/321/20/
039980/20130329/135027/2230/153/10/
039980/20130329/135556/2230/162/10/
039980/20130329/135619/2230/150/10/
039980/20130329/135622/2230/300/10/
039980/20130329/135659/2230/753/10/
039980/20130329/135733/2225/2500/10/
039980/20130329/140155/2225/3656/10/
039980/20130329/140232/2225/1000/10/
039980/20130329/140445/2230/885/20/
039980/20130329/140605/2225/896/10/
039980/20130329/140624/2220/1002/10/
039980/20130329/140634/2220/113/10/
039980/20130329/140811/2220/558/10/
039980/20130329/140821/2220/1000/10/
039980/20130329/140834/2220/500/10/
039980/20130329/141011/2220/1016/10/
039980/20130329/141138/2220/808/10/
039980/20130329/141216/2220/150/10/
039980/20130329/141437/2220/2533/10/
039980/20130329/141445/2220/1000/10/
039980/20130329/141458/2220/988/10/
039980/20130329/141523/2215/2006/10/
039980/20130329/141824/2215/494/10/
039980/20130329/141918/2215/6009/10/
039980/20130329/142014/2215/400/10/
039980/20130329/142023/2215/600/10/
039980/20130329/142134/2215/104/10/
039980/20130329/142341/2215/452/10/
039980/20130329/142419/2220/311/20/
039980/20130329/142520/2220/6011/20/
039980/20130329/142534/2215/922/10/
039980/20130329/142816/2215/336/10/
039980/20130329/142926/2220/105/20/
039980/20130329/142937/2220/101/20/
039980/20130329/142949/2220/130/20/
039980/20130329/143238/2215/932/10/
039980/20130329/143507/2220/1217/20/
039980/20130329/143856/2220/113/20/
039980/20130329/143858/2215/1000/10/
039980/20130329/144030/2220/1021/20/
039980/20130329/144236/2220/1153/20/
039980/20130329/144307/2225/219/20/
039980/20130329/144349/2225/177/20/
039980/20130329/144659/2220/820/10/
039980/20130329/144711/2220/1000/10/
039980/20130329/144718/2220/500/10/
039980/20130329/144800/2225/2001/20/
039980/20130329/144924/2220/825/10/
039980/20130329/144957/2220/955/10/
039980/20130329/144957/2215/1227/10/
039980/20130329/150000/2235/12514/20/
