039980/20130129/90000/2010/200/10/
039980/20130129/90002/2015/1170/20/
039980/20130129/90455/2015/1800/10/
039980/20130129/90605/2015/100/10/
039980/20130129/90825/2020/1000/10/
039980/20130129/90836/2020/680/10/
039980/20130129/90901/2020/975/20/
039980/20130129/90904/2020/453/20/
039980/20130129/91515/2020/664/10/
039980/20130129/91546/2020/1300/20/
039980/20130129/91821/2020/90/20/
039980/20130129/91958/2020/207/10/
039980/20130129/92122/2025/107/20/
039980/20130129/92337/2020/700/20/
039980/20130129/92414/2020/838/10/
039980/20130129/92414/2015/1962/10/
039980/20130129/92701/2020/82/20/
039980/20130129/92709/2020/3014/20/
039980/20130129/92730/2020/2323/20/
039980/20130129/92759/2020/1007/20/
039980/20130129/92831/2025/82/20/
039980/20130129/93118/2020/98/10/
039980/20130129/93131/2020/300/10/
039980/20130129/93326/2020/154/20/
039980/20130129/93519/2015/1713/10/
039980/20130129/93644/2020/3002/20/
039980/20130129/93713/2020/155/20/
039980/20130129/94046/2020/204/10/
039980/20130129/94048/2020/300/10/
039980/20130129/94053/2020/204/20/
039980/20130129/94105/2020/96/20/
039980/20130129/94229/2020/502/10/
039980/20130129/94601/2025/1007/20/
039980/20130129/94655/2025/457/20/
039980/20130129/94702/2030/90/20/
039980/20130129/94746/2025/408/20/
039980/20130129/95746/2025/1725/10/
039980/20130129/95815/2025/150/10/
039980/20130129/100653/2025/213/20/
039980/20130129/100858/2025/188/20/
039980/20130129/101000/2030/243/20/
039980/20130129/101200/2030/384/20/
039980/20130129/102713/2030/149/20/
039980/20130129/102815/2030/361/20/
039980/20130129/102957/2030/124/20/
039980/20130129/103033/2035/100/20/
039980/20130129/103156/2035/1000/20/
039980/20130129/103238/2035/154/20/
039980/20130129/103315/2035/356/10/
039980/20130129/103632/2035/1000/20/
039980/20130129/104116/2035/121/20/
039980/20130129/104128/2035/248/20/
039980/20130129/104240/2035/1052/20/
039980/20130129/104521/2035/356/20/
039980/20130129/105704/2030/954/10/
039980/20130129/105720/2030/494/10/
039980/20130129/110806/2025/138/10/
039980/20130129/110855/2030/105/20/
039980/20130129/111003/2025/1850/10/
039980/20130129/111220/2035/770/20/
039980/20130129/112146/2030/119/20/
039980/20130129/112238/2030/399/10/
039980/20130129/112706/2030/1767/10/
039980/20130129/112738/2025/539/10/
039980/20130129/113203/2025/111/20/
039980/20130129/113301/2025/350/20/
039980/20130129/113400/2025/288/10/
039980/20130129/113457/2025/308/20/
039980/20130129/114209/2030/743/20/
039980/20130129/114301/2030/907/10/
039980/20130129/114410/2030/103/20/
039980/20130129/114410/2035/8697/20/
039980/20130129/115908/2030/410/20/
039980/20130129/120452/2030/608/20/
039980/20130129/120807/2030/162/20/
039980/20130129/121702/2025/237/10/
039980/20130129/122748/2030/317/20/
039980/20130129/122849/2025/562/10/
039980/20130129/123259/2025/214/10/
039980/20130129/123547/2025/304/10/
039980/20130129/123905/2030/1268/20/
039980/20130129/124204/2030/324/10/
039980/20130129/124246/2035/502/20/
039980/20130129/124320/2035/500/20/
039980/20130129/124559/2035/152/20/
039980/20130129/124846/2030/1060/20/
039980/20130129/125024/2025/1000/10/
039980/20130129/125842/2030/489/20/
039980/20130129/125924/2030/266/20/
039980/20130129/130859/2030/100/20/
039980/20130129/130906/2030/100/20/
039980/20130129/130918/2030/200/20/
039980/20130129/130923/2030/200/20/
039980/20130129/130933/2030/200/20/
039980/20130129/130942/2030/200/20/
039980/20130129/131207/2025/200/10/
039980/20130129/131416/2025/2450/10/
039980/20130129/131521/2025/1500/10/
039980/20130129/131639/2025/780/10/
039980/20130129/131844/2025/84/20/
039980/20130129/133151/2025/1186/20/
039980/20130129/133323/2025/800/10/
039980/20130129/133347/2030/1808/20/
039980/20130129/133415/2030/100/10/
039980/20130129/133655/2030/1000/10/
039980/20130129/133709/2030/100/10/
039980/20130129/133714/2030/1000/10/
039980/20130129/133743/2030/1000/10/
039980/20130129/133751/2030/200/10/
039980/20130129/133802/2030/792/10/
039980/20130129/134006/2030/210/20/
039980/20130129/134615/2025/402/10/
039980/20130129/135019/2025/3021/10/
039980/20130129/135255/2025/200/10/
039980/20130129/135700/2025/420/10/
039980/20130129/140750/2025/386/20/
039980/20130129/140801/2030/1484/20/
039980/20130129/141720/2025/1631/10/
039980/20130129/141801/2025/500/20/
039980/20130129/141927/2020/2768/10/
039980/20130129/142036/2020/2000/10/
039980/20130129/142312/2020/600/10/
039980/20130129/142338/2025/1560/20/
039980/20130129/142532/2025/309/20/
039980/20130129/142543/2020/209/10/
039980/20130129/142642/2030/1557/10/
039980/20130129/142642/2035/4500/20/
039980/20130129/142706/2035/300/20/
039980/20130129/142839/2040/582/20/
039980/20130129/142952/2040/111/20/
039980/20130129/143046/2040/488/20/
039980/20130129/143317/2045/82/20/
039980/20130129/143318/2045/1000/20/
039980/20130129/143349/2045/300/20/
039980/20130129/143521/2040/433/10/
039980/20130129/143521/2035/1078/10/
039980/20130129/143553/2045/600/20/
039980/20130129/143614/2045/430/20/
039980/20130129/143642/2050/500/20/
039980/20130129/143642/2050/300/20/
039980/20130129/143731/2045/635/10/
039980/20130129/143916/2040/130/20/
039980/20130129/144058/2040/980/10/
039980/20130129/144202/2050/925/20/
039980/20130129/144229/2040/750/10/
039980/20130129/144321/2040/1002/10/
039980/20130129/144510/2040/215/10/
039980/20130129/144654/2045/90/20/
039980/20130129/144656/2050/2894/20/
039980/20130129/144750/2050/186/10/
039980/20130129/144852/2045/300/20/
039980/20130129/144909/2045/2376/20/
039980/20130129/144909/2050/829/20/
039980/20130129/144953/2050/1000/20/
039980/20130129/150000/2050/7172/10/
