039980/20121224/90000/2005/1285/10/
039980/20121224/90001/2005/1033/10/
039980/20121224/90038/2005/300/20/
039980/20121224/90051/2010/120/20/
039980/20121224/90108/2010/2516/20/
039980/20121224/90126/2010/2471/10/
039980/20121224/90311/2005/650/10/
039980/20121224/90317/2005/310/10/
039980/20121224/90317/2000/2385/10/
039980/20121224/90504/2010/501/20/
039980/20121224/90601/2010/85/20/
039980/20121224/90738/2010/414/20/
039980/20121224/90800/2010/240/10/
039980/20121224/90800/2005/320/10/
039980/20121224/90831/2005/759/10/
039980/20121224/90918/2010/573/20/
039980/20121224/90958/2010/2405/20/
039980/20121224/91056/2010/501/10/
039980/20121224/91141/2015/2989/20/
039980/20121224/91149/2015/112/20/
039980/20121224/91449/2010/388/10/
039980/20121224/91450/2015/254/20/
039980/20121224/91455/2015/226/20/
039980/20121224/91539/2015/98/20/
039980/20121224/91604/2015/940/20/
039980/20121224/91624/2020/4960/20/
039980/20121224/91650/2025/438/20/
039980/20121224/91653/2020/1000/10/
039980/20121224/91732/2020/596/10/
039980/20121224/91850/2020/1483/20/
039980/20121224/91858/2020/1122/20/
039980/20121224/92009/2020/655/20/
039980/20121224/92009/2020/1123/20/
039980/20121224/92039/2015/2177/10/
039980/20121224/92141/2010/180/10/
039980/20121224/92155/2010/226/10/
039980/20121224/92211/2010/1378/10/
039980/20121224/92227/2010/225/20/
039980/20121224/92256/2010/200/10/
039980/20121224/92341/2010/100/10/
039980/20121224/92503/2010/570/10/
039980/20121224/92527/2010/2070/10/
039980/20121224/92543/2010/700/10/
039980/20121224/92648/2010/977/10/
039980/20121224/92656/2005/7550/10/
039980/20121224/92704/2005/500/20/
039980/20121224/92715/2005/90/20/
039980/20121224/92719/2005/500/20/
039980/20121224/92803/2005/396/20/
039980/20121224/92943/2005/213/10/
039980/20121224/93004/2005/879/10/
039980/20121224/93004/2000/2141/10/
039980/20121224/93016/2000/179/10/
039980/20121224/93337/2005/1104/10/
039980/20121224/93356/2000/14219/10/
039980/20121224/93420/1995/1216/10/
039980/20121224/93430/1995/437/10/
039980/20121224/93446/1995/486/10/
039980/20121224/93600/1995/656/10/
039980/20121224/93625/2000/200/20/
039980/20121224/93748/1995/604/10/
039980/20121224/93956/1995/2000/10/
039980/20121224/94134/2000/407/20/
039980/20121224/94148/1995/780/10/
039980/20121224/94344/1995/750/10/
039980/20121224/94550/2000/5016/20/
039980/20121224/94555/2000/500/20/
039980/20121224/94604/2000/1002/20/
039980/20121224/94605/2000/1000/20/
039980/20121224/94945/2010/563/10/
039980/20121224/95009/2010/100/20/
039980/20121224/95051/2010/780/20/
039980/20121224/95147/2010/379/20/
039980/20121224/95246/2010/264/20/
039980/20121224/95352/2005/1257/10/
039980/20121224/95418/2010/395/20/
039980/20121224/95830/2010/1040/10/
039980/20121224/95910/2015/100/20/
039980/20121224/95911/2010/1000/10/
039980/20121224/100031/2010/1650/10/
039980/20121224/100045/2010/210/20/
039980/20121224/100121/2010/250/10/
039980/20121224/100446/2015/302/20/
039980/20121224/100545/2015/2511/20/
039980/20121224/100549/2015/259/20/
039980/20121224/100633/2010/3000/10/
039980/20121224/100927/2015/100/20/
039980/20121224/101158/2010/1181/10/
039980/20121224/101158/2005/823/10/
039980/20121224/101537/2015/1021/20/
039980/20121224/101713/2015/1000/20/
039980/20121224/101809/2010/3943/10/
039980/20121224/101853/2010/1057/10/
039980/20121224/102139/2010/2627/10/
039980/20121224/102200/2010/968/20/
039980/20121224/102323/2010/347/20/
039980/20121224/102429/2005/117/10/
039980/20121224/102447/2010/100/20/
039980/20121224/102506/2010/200/20/
039980/20121224/102552/2010/100/20/
039980/20121224/102618/2005/1000/10/
039980/20121224/102728/2005/1000/10/
039980/20121224/102912/2010/639/20/
039980/20121224/103027/2010/1001/10/
039980/20121224/103041/2010/1000/10/
039980/20121224/103257/2005/9115/10/
039980/20121224/103349/2000/141/10/
039980/20121224/103633/2005/300/20/
039980/20121224/103821/2005/910/20/
039980/20121224/103827/2005/350/20/
039980/20121224/103942/2005/1468/20/
039980/20121224/104244/2005/1022/20/
039980/20121224/104306/2005/100/20/
039980/20121224/104332/2005/1655/20/
039980/20121224/104334/2005/580/20/
039980/20121224/104349/2005/150/20/
039980/20121224/104359/2005/120/20/
039980/20121224/104400/2005/120/20/
039980/20121224/104419/2000/2540/10/
039980/20121224/104455/2005/542/20/
039980/20121224/104612/2005/400/20/
039980/20121224/104812/2005/1000/20/
039980/20121224/104911/2005/2001/20/
039980/20121224/104923/2005/82/20/
039980/20121224/105055/2005/1229/10/
039980/20121224/105602/2005/550/10/
039980/20121224/105602/2000/3458/10/
039980/20121224/105812/2000/371/10/
039980/20121224/105947/2000/458/10/
039980/20121224/110004/2010/102/20/
039980/20121224/110350/2010/309/20/
039980/20121224/110358/2010/5000/20/
039980/20121224/110402/2010/363/20/
039980/20121224/110600/2015/4014/20/
039980/20121224/110637/2020/10057/20/
039980/20121224/110703/2020/333/10/
039980/20121224/110733/2020/1030/10/
039980/20121224/110739/2020/1002/10/
039980/20121224/110826/2020/164/20/
039980/20121224/110841/2020/1001/10/
039980/20121224/110909/2020/1004/10/
039980/20121224/110937/2025/251/20/
039980/20121224/111003/2020/1000/10/
039980/20121224/111014/2020/142/10/
039980/20121224/111126/2025/252/20/
039980/20121224/111228/2015/4000/10/
039980/20121224/111234/2015/752/20/
039980/20121224/111447/2015/206/20/
039980/20121224/111530/2020/543/20/
039980/20121224/111814/2020/1438/20/
039980/20121224/112041/2020/2620/20/
039980/20121224/112051/2020/1597/20/
039980/20121224/112142/2020/1001/10/
039980/20121224/112200/2020/1000/10/
039980/20121224/112215/2020/1000/10/
039980/20121224/112337/2020/96/10/
039980/20121224/112404/2025/602/20/
039980/20121224/112511/2025/101/20/
039980/20121224/112515/2025/500/20/
039980/20121224/112615/2020/600/10/
039980/20121224/112653/2020/1344/20/
039980/20121224/112726/2020/1800/10/
039980/20121224/112739/2020/260/10/
039980/20121224/112753/2020/100/10/
039980/20121224/112909/2020/101/10/
039980/20121224/113105/2020/1417/10/
039980/20121224/113129/2020/971/10/
039980/20121224/113135/2025/500/20/
039980/20121224/113202/2025/400/20/
039980/20121224/113714/2020/2010/10/
039980/20121224/113946/2020/100/10/
039980/20121224/114119/2020/800/10/
039980/20121224/114132/2020/400/10/
039980/20121224/114142/2020/100/10/
039980/20121224/114431/2020/1054/10/
039980/20121224/115033/2015/100/10/
039980/20121224/120012/2020/1268/20/
039980/20121224/120051/2020/595/10/
039980/20121224/120235/2020/200/10/
039980/20121224/120902/2025/2447/20/
039980/20121224/120925/2020/1000/10/
039980/20121224/121708/2020/111/10/
039980/20121224/121726/2020/100/10/
039980/20121224/121742/2020/101/10/
039980/20121224/121752/2020/400/10/
039980/20121224/121807/2020/100/10/
039980/20121224/121843/2025/247/20/
039980/20121224/121846/2020/1000/10/
039980/20121224/121906/2020/100/10/
039980/20121224/122015/2025/432/20/
039980/20121224/122119/2025/669/20/
039980/20121224/122121/2020/1459/10/
039980/20121224/122142/2020/618/10/
039980/20121224/122306/2015/800/10/
039980/20121224/123023/2025/501/20/
039980/20121224/124234/2025/103/20/
039980/20121224/124445/2025/1012/20/
039980/20121224/124451/2020/201/10/
039980/20121224/124501/2025/102/20/
039980/20121224/124625/2025/120/20/
039980/20121224/124649/2025/105/20/
039980/20121224/124820/2025/163/20/
039980/20121224/124833/2025/2004/20/
039980/20121224/125030/2020/12003/10/
039980/20121224/125241/2025/252/20/
039980/20121224/125253/2025/1000/20/
039980/20121224/125337/2025/306/20/
039980/20121224/125536/2025/366/20/
039980/20121224/125640/2025/590/20/
039980/20121224/125736/2025/206/20/
039980/20121224/125835/2025/482/20/
039980/20121224/125933/2025/329/20/
039980/20121224/125938/2025/9500/20/
039980/20121224/125938/2025/2180/20/
039980/20121224/130100/2030/510/20/
039980/20121224/130122/2030/2000/20/
039980/20121224/130135/2030/92/20/
039980/20121224/130144/2030/501/20/
039980/20121224/130148/2030/3001/20/
039980/20121224/130157/2030/1031/20/
039980/20121224/130159/2030/1500/20/
039980/20121224/130159/2030/500/20/
039980/20121224/130200/2030/605/20/
039980/20121224/130201/2030/500/20/
039980/20121224/130201/2030/725/20/
039980/20121224/130201/2035/277/20/
039980/20121224/130212/2025/1004/10/
039980/20121224/130218/2035/102/20/
039980/20121224/130258/2035/1771/20/
039980/20121224/130651/2030/324/10/
039980/20121224/130721/2030/1390/20/
039980/20121224/130736/2030/202/20/
039980/20121224/130917/2030/938/10/
039980/20121224/130928/2030/601/10/
039980/20121224/131122/2035/2523/20/
039980/20121224/131304/2035/2016/20/
039980/20121224/131315/2035/501/20/
039980/20121224/131335/2035/2053/20/
039980/20121224/131346/2035/103/20/
039980/20121224/131618/2035/412/20/
039980/20121224/131641/2035/250/20/
039980/20121224/131652/2035/87/20/
039980/20121224/131747/2035/295/20/
039980/20121224/131802/2035/1000/20/
039980/20121224/131814/2035/1010/20/
039980/20121224/131859/2035/100/20/
039980/20121224/131933/2035/356/20/
039980/20121224/132022/2035/1539/20/
039980/20121224/132025/2035/469/10/
039980/20121224/132032/2035/82/20/
039980/20121224/132049/2030/3004/10/
039980/20121224/132103/2030/84/10/
039980/20121224/132316/2030/647/10/
039980/20121224/132508/2035/256/20/
039980/20121224/132627/2030/320/20/
039980/20121224/132711/2030/344/20/
039980/20121224/132825/2030/171/20/
039980/20121224/132927/2030/1000/20/
039980/20121224/133036/2030/95/20/
039980/20121224/133334/2030/1195/10/
039980/20121224/133613/2030/945/10/
039980/20121224/133622/2030/350/10/
039980/20121224/133622/2030/175/10/
039980/20121224/133640/2030/175/20/
039980/20121224/133816/2035/8397/20/
039980/20121224/133819/2035/801/10/
039980/20121224/133819/2030/99/10/
039980/20121224/133849/2035/2020/20/
039980/20121224/133918/2040/825/20/
039980/20121224/133922/2040/1000/20/
039980/20121224/133927/2040/1277/20/
039980/20121224/133936/2040/521/20/
039980/20121224/133956/2040/1000/20/
039980/20121224/134030/2035/4000/10/
039980/20121224/134034/2035/1000/10/
039980/20121224/134231/2040/520/20/
039980/20121224/134353/2040/2437/20/
039980/20121224/134354/2035/500/10/
039980/20121224/134549/2035/2041/10/
039980/20121224/134605/2035/531/10/
039980/20121224/134741/2040/290/20/
039980/20121224/134832/2035/400/10/
039980/20121224/134841/2035/210/10/
039980/20121224/134934/2035/224/10/
039980/20121224/135149/2040/502/20/
039980/20121224/135312/2035/10000/10/
039980/20121224/135314/2035/164/10/
039980/20121224/135508/2030/3229/10/
039980/20121224/135525/2025/771/10/
039980/20121224/135624/2025/700/10/
039980/20121224/135630/2025/90/10/
039980/20121224/135806/2030/1096/20/
039980/20121224/135855/2030/259/10/
039980/20121224/135905/2030/1000/10/
039980/20121224/140429/2035/1186/20/
039980/20121224/140750/2030/716/10/
039980/20121224/140829/2030/590/20/
039980/20121224/140910/2030/1500/10/
039980/20121224/140928/2030/522/10/
039980/20121224/140930/2030/1262/10/
039980/20121224/140942/2025/1607/10/
039980/20121224/141110/2025/611/10/
039980/20121224/141131/2025/772/10/
039980/20121224/141259/2025/213/20/
039980/20121224/141522/2030/155/20/
039980/20121224/141602/2030/1500/20/
039980/20121224/141604/2030/158/20/
039980/20121224/141604/2035/4842/20/
039980/20121224/141607/2035/1509/20/
039980/20121224/141607/2040/6963/20/
039980/20121224/141614/2040/583/20/
039980/20121224/141615/2040/500/20/
039980/20121224/141620/2040/500/20/
039980/20121224/141628/2040/500/20/
039980/20121224/141633/2040/200/20/
039980/20121224/141637/2040/3642/20/
039980/20121224/141637/2045/1826/20/
039980/20121224/141716/2040/507/10/
039980/20121224/141716/2035/500/10/
039980/20121224/141722/2040/1000/10/
039980/20121224/141834/2030/4236/10/
039980/20121224/142025/2030/447/10/
039980/20121224/142052/2030/600/20/
039980/20121224/142054/2030/400/10/
039980/20121224/142107/2025/2537/10/
039980/20121224/142112/2020/463/10/
039980/20121224/142120/2020/140/10/
039980/20121224/142133/2025/500/10/
039980/20121224/142133/2020/4968/10/
039980/20121224/142143/2030/2452/20/
039980/20121224/142143/2040/815/20/
039980/20121224/142525/2035/1084/20/
039980/20121224/142724/2035/213/20/
039980/20121224/142934/2035/302/20/
039980/20121224/142948/2035/200/20/
039980/20121224/143031/2030/2000/10/
039980/20121224/143210/2030/81/10/
039980/20121224/143336/2030/380/10/
039980/20121224/143502/2025/300/10/
039980/20121224/143624/2025/300/10/
039980/20121224/143720/2030/481/20/
039980/20121224/143856/2035/533/20/
039980/20121224/143921/2035/500/20/
039980/20121224/143926/2035/100/20/
039980/20121224/144205/2030/2022/10/
039980/20121224/144300/2030/4071/10/
039980/20121224/144401/2025/732/10/
039980/20121224/144549/2025/2045/10/
039980/20121224/144751/2025/82/10/
039980/20121224/144819/2025/1114/10/
039980/20121224/150000/2035/13043/20/
