039980/20130109/90000/2130/5479/20/
039980/20130109/90009/2130/521/20/
039980/20130109/90117/2130/378/10/
039980/20130109/90215/2140/1000/20/
039980/20130109/90523/2140/100/20/
039980/20130109/90703/2130/588/10/
039980/20130109/90750/2130/1323/10/
039980/20130109/90826/2125/2021/10/
039980/20130109/90826/2120/3279/10/
039980/20130109/90857/2120/100/10/
039980/20130109/90946/2120/350/10/
039980/20130109/90952/2120/100/10/
039980/20130109/90953/2120/900/10/
039980/20130109/91043/2120/100/10/
039980/20130109/91346/2120/102/10/
039980/20130109/91520/2125/101/10/
039980/20130109/91650/2125/200/10/
039980/20130109/91725/2125/2213/10/
039980/20130109/91909/2120/9059/10/
039980/20130109/91909/2120/828/10/
039980/20130109/92110/2120/200/20/
039980/20130109/92133/2120/120/10/
039980/20130109/92220/2120/1681/10/
039980/20130109/92235/2120/163/20/
039980/20130109/92331/2120/714/10/
039980/20130109/92336/2120/1000/10/
039980/20130109/92424/2120/1137/10/
039980/20130109/92533/2120/500/10/
039980/20130109/92621/2120/333/20/
039980/20130109/92645/2120/3000/20/
039980/20130109/92652/2120/167/20/
039980/20130109/92711/2120/270/10/
039980/20130109/92755/2125/1403/20/
039980/20130109/92850/2125/1000/20/
039980/20130109/92851/2125/398/20/
039980/20130109/92900/2125/197/20/
039980/20130109/92901/2125/88/20/
039980/20130109/92930/2125/412/10/
039980/20130109/93006/2125/1760/10/
039980/20130109/93019/2125/2113/20/
039980/20130109/93045/2130/1000/20/
039980/20130109/93046/2130/999/20/
039980/20130109/93052/2130/1000/10/
039980/20130109/93125/2130/1000/20/
039980/20130109/93454/2130/307/10/
039980/20130109/93544/2135/1358/20/
039980/20130109/93631/2135/1920/20/
039980/20130109/93714/2130/2113/10/
039980/20130109/93810/2130/1021/10/
039980/20130109/93815/2130/441/10/
039980/20130109/93935/2130/500/20/
039980/20130109/94048/2130/100/10/
039980/20130109/94112/2130/99/20/
039980/20130109/94115/2125/1400/10/
039980/20130109/94115/2120/1700/10/
039980/20130109/94118/2130/100/20/
039980/20130109/94128/2130/100/20/
039980/20130109/94133/2130/100/20/
039980/20130109/94141/2130/100/20/
039980/20130109/94150/2130/200/20/
039980/20130109/94306/2130/200/20/
039980/20130109/94325/2130/200/20/
039980/20130109/94348/2120/4000/10/
039980/20130109/94842/2125/540/10/
039980/20130109/95007/2125/500/10/
039980/20130109/95023/2130/1670/20/
039980/20130109/95036/2130/394/10/
039980/20130109/95040/2130/1000/10/
039980/20130109/95249/2130/518/10/
039980/20130109/95306/2135/1014/20/
039980/20130109/95332/2135/2035/20/
039980/20130109/95344/2135/102/10/
039980/20130109/95350/2135/944/10/
039980/20130109/95443/2135/253/20/
039980/20130109/95457/2135/1303/20/
039980/20130109/95457/2140/201/20/
039980/20130109/95557/2140/5000/20/
039980/20130109/95600/2140/467/20/
039980/20130109/95623/2135/100/20/
039980/20130109/95625/2135/1000/20/
039980/20130109/95647/2135/532/20/
039980/20130109/95650/2135/500/20/
039980/20130109/95702/2135/688/20/
039980/20130109/95719/2140/100/20/
039980/20130109/95723/2140/100/20/
039980/20130109/95728/2140/100/20/
039980/20130109/95734/2140/100/20/
039980/20130109/95822/2135/1010/10/
039980/20130109/95848/2140/500/20/
039980/20130109/95852/2140/1162/20/
039980/20130109/95854/2140/2900/20/
039980/20130109/95855/2140/500/20/
039980/20130109/95855/2140/2188/20/
039980/20130109/95857/2140/2049/10/
039980/20130109/95903/2140/461/20/
039980/20130109/95920/2140/1000/10/
039980/20130109/95922/2140/550/10/
039980/20130109/95925/2140/890/10/
039980/20130109/95925/2140/299/10/
039980/20130109/95926/2140/500/20/
039980/20130109/95947/2140/1201/20/
039980/20130109/100003/2145/300/20/
039980/20130109/100008/2145/9770/20/
039980/20130109/100018/2150/90/20/
039980/20130109/100020/2150/1000/20/
039980/20130109/100023/2150/5000/20/
039980/20130109/100023/2150/587/20/
039980/20130109/100027/2150/413/10/
039980/20130109/100029/2150/240/20/
039980/20130109/100034/2150/348/20/
039980/20130109/100053/2155/135/20/
039980/20130109/100055/2155/100/20/
039980/20130109/100056/2155/100/20/
039980/20130109/100059/2155/701/20/
039980/20130109/100103/2155/3001/20/
039980/20130109/100105/2155/464/20/
039980/20130109/100106/2155/522/20/
039980/20130109/100112/2155/161/10/
039980/20130109/100133/2155/1870/20/
039980/20130109/100135/2155/860/10/
039980/20130109/100136/2155/2861/20/
039980/20130109/100136/2160/4139/20/
039980/20130109/100151/2160/230/20/
039980/20130109/100159/2155/2900/10/
039980/20130109/100214/2150/1501/10/
039980/20130109/100218/2150/4015/10/
039980/20130109/100219/2150/285/10/
039980/20130109/100220/2150/100/20/
039980/20130109/100222/2150/210/20/
039980/20130109/100230/2155/1227/20/
039980/20130109/100257/2155/344/20/
039980/20130109/100301/2155/500/20/
039980/20130109/100314/2150/5000/10/
039980/20130109/100317/2155/100/20/
039980/20130109/100317/2150/530/10/
039980/20130109/100319/2150/500/20/
039980/20130109/100330/2150/470/20/
039980/20130109/100330/2155/155/20/
039980/20130109/100341/2155/158/20/
039980/20130109/100503/2150/417/20/
039980/20130109/100526/2150/517/20/
039980/20130109/100741/2145/251/10/
039980/20130109/100749/2145/715/10/
039980/20130109/100800/2145/3001/10/
039980/20130109/100809/2145/1495/10/
039980/20130109/100848/2145/505/20/
039980/20130109/100954/2145/1000/10/
039980/20130109/101013/2145/495/10/
039980/20130109/101015/2145/200/20/
039980/20130109/101032/2145/287/10/
039980/20130109/101058/2145/162/10/
039980/20130109/101118/2145/250/10/
039980/20130109/101147/2145/750/20/
039980/20130109/101149/2145/1251/10/
039980/20130109/101151/2140/5529/10/
039980/20130109/101242/2145/2500/20/
039980/20130109/101245/2145/749/20/
039980/20130109/101249/2145/1772/10/
039980/20130109/101253/2145/1479/10/
039980/20130109/101301/2145/2218/20/
039980/20130109/101306/2145/2782/10/
039980/20130109/101315/2145/218/20/
039980/20130109/101333/2145/1782/10/
039980/20130109/101340/2145/218/20/
039980/20130109/101422/2145/1000/10/
039980/20130109/101427/2145/140/10/
039980/20130109/101431/2145/642/10/
039980/20130109/101440/2145/858/20/
039980/20130109/101537/2145/1000/10/
039980/20130109/101746/2145/500/10/
039980/20130109/101942/2145/601/10/
039980/20130109/102037/2145/2000/10/
039980/20130109/102039/2145/500/10/
039980/20130109/102040/2145/5000/10/
039980/20130109/102058/2145/500/10/
039980/20130109/102059/2145/3037/10/
039980/20130109/102109/2145/1469/10/
039980/20130109/102116/2145/1731/20/
039980/20130109/102310/2145/114/10/
039980/20130109/102330/2150/6000/20/
039980/20130109/102336/2150/100/20/
039980/20130109/102445/2150/102/20/
039980/20130109/102459/2145/2000/10/
039980/20130109/102626/2150/1267/20/
039980/20130109/102748/2150/150/20/
039980/20130109/102816/2150/500/20/
039980/20130109/103404/2150/757/20/
039980/20130109/103422/2150/2500/20/
039980/20130109/103452/2150/1000/20/
039980/20130109/103539/2150/200/20/
039980/20130109/103649/2150/620/20/
039980/20130109/103751/2150/400/20/
039980/20130109/104040/2150/500/20/
039980/20130109/104054/2150/1000/20/
039980/20130109/104408/2145/1060/10/
039980/20130109/104410/2150/2596/20/
039980/20130109/104657/2145/5040/10/
039980/20130109/104700/2145/3500/10/
039980/20130109/104705/2145/1000/10/
039980/20130109/104709/2145/2000/10/
039980/20130109/104718/2145/498/10/
039980/20130109/104726/2145/2653/10/
039980/20130109/104737/2145/1000/10/
039980/20130109/104811/2140/1500/10/
039980/20130109/104819/2140/5000/10/
039980/20130109/104820/2140/500/10/
039980/20130109/104828/2140/1806/10/
039980/20130109/104828/2135/194/10/
039980/20130109/104931/2135/459/10/
039980/20130109/105212/2135/1100/10/
039980/20130109/105215/2135/508/10/
039980/20130109/105218/2135/5000/10/
039980/20130109/105233/2135/200/10/
039980/20130109/105244/2135/943/10/
039980/20130109/105244/2130/19071/10/
039980/20130109/105730/2140/81/20/
039980/20130109/105745/2135/90/20/
039980/20130109/105847/2130/1510/10/
039980/20130109/110053/2135/3827/20/
039980/20130109/110127/2135/93/20/
039980/20130109/110243/2135/200/10/
039980/20130109/110439/2135/407/10/
039980/20130109/110631/2135/818/20/
039980/20130109/110642/2135/665/20/
039980/20130109/110653/2135/335/10/
039980/20130109/110759/2135/1604/20/
039980/20130109/110903/2135/896/10/
039980/20130109/110939/2135/698/20/
039980/20130109/111113/2135/800/20/
039980/20130109/111608/2135/400/20/
039980/20130109/111633/2130/1677/10/
039980/20130109/111635/2135/450/20/
039980/20130109/112144/2135/1607/20/
039980/20130109/112148/2135/1000/20/
039980/20130109/112156/2135/400/20/
039980/20130109/112546/2130/3867/10/
039980/20130109/112622/2135/483/20/
039980/20130109/112705/2135/497/20/
039980/20130109/113019/2135/8061/20/
039980/20130109/113231/2135/200/20/
039980/20130109/113242/2135/101/20/
039980/20130109/113250/2135/223/20/
039980/20130109/113327/2135/2500/10/
039980/20130109/113335/2135/157/20/
039980/20130109/113416/2130/2908/10/
039980/20130109/113422/2130/92/20/
039980/20130109/113426/2130/900/10/
039980/20130109/113755/2130/400/10/
039980/20130109/113755/2125/2199/10/
039980/20130109/114056/2130/179/20/
039980/20130109/114134/2130/310/20/
039980/20130109/114157/2130/159/20/
039980/20130109/114237/2130/107/20/
039980/20130109/114250/2130/100/20/
039980/20130109/114335/2130/796/20/
039980/20130109/114537/2130/501/10/
039980/20130109/114709/2135/84/20/
039980/20130109/114739/2135/200/20/
039980/20130109/114926/2135/1000/20/
039980/20130109/115007/2135/656/20/
039980/20130109/115231/2130/557/10/
039980/20130109/115753/2130/4502/10/
039980/20130109/120113/2125/6271/10/
039980/20130109/120256/2125/7534/10/
039980/20130109/120330/2125/1555/20/
039980/20130109/120421/2125/923/20/
039980/20130109/120831/2130/5422/20/
039980/20130109/121856/2130/3480/10/
039980/20130109/122101/2125/336/10/
039980/20130109/122154/2125/200/10/
039980/20130109/122204/2125/3000/10/
039980/20130109/122224/2125/2411/10/
039980/20130109/122255/2125/89/20/
039980/20130109/122311/2125/113/20/
039980/20130109/122324/2125/100/20/
039980/20130109/122337/2125/963/20/
039980/20130109/122423/2125/1000/20/
039980/20130109/122527/2125/90/20/
039980/20130109/122632/2125/100/20/
039980/20130109/122814/2125/140/20/
039980/20130109/122816/2120/2000/10/
039980/20130109/123035/2125/1987/20/
039980/20130109/123633/2120/604/10/
039980/20130109/123704/2120/526/10/
039980/20130109/123806/2120/380/10/
039980/20130109/123907/2120/158/10/
039980/20130109/124004/2120/229/10/
039980/20130109/124036/2125/112/20/
039980/20130109/124229/2125/2001/20/
039980/20130109/124236/2125/1000/20/
039980/20130109/124242/2125/414/20/
039980/20130109/124556/2125/587/10/
039980/20130109/124556/2120/4659/10/
039980/20130109/124652/2120/1599/10/
039980/20130109/125058/2130/1501/20/
039980/20130109/125112/2130/104/20/
039980/20130109/125237/2135/131/20/
039980/20130109/125432/2125/108/20/
039980/20130109/125451/2125/1000/20/
039980/20130109/125515/2125/300/20/
039980/20130109/125718/2120/1002/10/
039980/20130109/125843/2125/365/20/
039980/20130109/130024/2125/355/10/
039980/20130109/130429/2125/1000/10/
039980/20130109/130429/2125/662/10/
039980/20130109/130525/2125/305/10/
039980/20130109/130555/2125/148/10/
039980/20130109/130600/2125/148/10/
039980/20130109/130605/2125/148/10/
039980/20130109/130610/2125/147/10/
039980/20130109/130613/2125/945/10/
039980/20130109/130615/2125/147/10/
039980/20130109/130620/2120/147/10/
039980/20130109/130625/2120/147/10/
039980/20130109/131825/2125/523/10/
039980/20130109/132016/2125/1800/10/
039980/20130109/132016/2120/9488/10/
039980/20130109/132208/2120/4485/20/
039980/20130109/132434/2120/260/20/
039980/20130109/132442/2120/362/10/
039980/20130109/132515/2120/128/20/
039980/20130109/132813/2115/3056/10/
039980/20130109/133119/2120/1006/20/
039980/20130109/133121/2120/609/20/
039980/20130109/133201/2125/85/20/
039980/20130109/133233/2125/1100/20/
039980/20130109/133529/2125/2684/20/
039980/20130109/133608/2130/3032/20/
039980/20130109/133618/2130/969/10/
039980/20130109/133814/2125/1400/20/
039980/20130109/133829/2125/636/10/
039980/20130109/134105/2125/164/20/
039980/20130109/134143/2125/115/10/
039980/20130109/134243/2125/428/10/
039980/20130109/134408/2125/2572/10/
039980/20130109/134413/2125/83/10/
039980/20130109/134441/2125/346/10/
039980/20130109/134605/2125/111/20/
039980/20130109/134826/2125/2544/20/
039980/20130109/134828/2125/100/10/
039980/20130109/134917/2130/470/20/
039980/20130109/135035/2125/110/10/
039980/20130109/135202/2125/1031/10/
039980/20130109/140258/2125/505/10/
039980/20130109/140406/2125/2010/10/
039980/20130109/140544/2125/1000/10/
039980/20130109/140619/2125/225/10/
039980/20130109/140704/2125/1896/20/
039980/20130109/140757/2125/144/20/
039980/20130109/140800/2125/100/20/
039980/20130109/140901/2125/300/20/
039980/20130109/140936/2125/466/20/
039980/20130109/141450/2125/1024/20/
039980/20130109/141745/2130/2001/20/
039980/20130109/142101/2125/1921/10/
039980/20130109/142157/2130/1957/20/
039980/20130109/142203/2125/187/10/
039980/20130109/142358/2130/2001/20/
039980/20130109/142408/2130/3000/20/
039980/20130109/142449/2125/2734/10/
039980/20130109/142539/2130/4000/20/
039980/20130109/142553/2125/400/10/
039980/20130109/142556/2130/3000/20/
039980/20130109/142626/2130/706/20/
039980/20130109/142727/2130/617/10/
039980/20130109/142949/2125/1009/10/
039980/20130109/143001/2125/4389/10/
039980/20130109/143030/2125/100/20/
039980/20130109/143102/2125/400/20/
039980/20130109/143132/2120/200/10/
039980/20130109/143132/2125/2000/20/
039980/20130109/143141/2125/333/20/
039980/20130109/143147/2125/1000/10/
039980/20130109/143211/2125/1001/20/
039980/20130109/143243/2125/1787/20/
039980/20130109/143254/2125/214/10/
039980/20130109/143256/2125/790/20/
039980/20130109/143352/2125/700/20/
039980/20130109/143717/2120/300/10/
039980/20130109/143717/2120/928/10/
039980/20130109/143740/2120/992/10/
039980/20130109/143750/2120/1000/10/
039980/20130109/143751/2120/1956/10/
039980/20130109/143757/2120/10044/10/
039980/20130109/143757/2120/1547/10/
039980/20130109/143912/2120/3067/10/
039980/20130109/143912/2120/2933/10/
039980/20130109/143933/2115/3022/10/
039980/20130109/143937/2115/150/10/
039980/20130109/143937/2115/5000/10/
039980/20130109/143948/2115/400/10/
039980/20130109/143955/2115/4234/10/
039980/20130109/144002/2115/766/20/
039980/20130109/144014/2115/3835/10/
039980/20130109/144014/2110/6165/10/
039980/20130109/144111/2115/1500/10/
039980/20130109/144130/2115/348/10/
039980/20130109/144249/2115/553/10/
039980/20130109/144359/2115/503/10/
039980/20130109/144413/2115/146/10/
039980/20130109/144421/2115/554/20/
039980/20130109/144547/2120/101/20/
039980/20130109/144601/2115/3374/10/
039980/20130109/144606/2115/300/20/
039980/20130109/144622/2115/316/20/
039980/20130109/144730/2115/184/10/
039980/20130109/144730/2110/5616/10/
039980/20130109/144942/2115/246/10/
039980/20130109/150000/2105/42244/10/
