039980/20130130/90000/2040/4547/10/
039980/20130130/90103/2045/1560/10/
039980/20130130/90103/2040/200/10/
039980/20130130/90103/2035/240/10/
039980/20130130/90153/2040/345/10/
039980/20130130/90154/2040/1216/20/
039980/20130130/90517/2050/270/10/
039980/20130130/90529/2050/782/10/
039980/20130130/90533/2050/400/20/
039980/20130130/90614/2050/288/20/
039980/20130130/90627/2050/192/10/
039980/20130130/90630/2045/2137/10/
039980/20130130/90641/2045/1163/20/
039980/20130130/90722/2050/150/20/
039980/20130130/90742/2050/408/20/
039980/20130130/90916/2055/2604/20/
039980/20130130/90947/2050/500/10/
039980/20130130/91143/2050/2500/10/
039980/20130130/91205/2050/235/10/
039980/20130130/91247/2045/434/10/
039980/20130130/91323/2045/100/10/
039980/20130130/91516/2050/3510/20/
039980/20130130/91612/2045/1104/10/
039980/20130130/91650/2045/496/20/
039980/20130130/91914/2045/270/10/
039980/20130130/92136/2045/236/10/
039980/20130130/92405/2040/401/10/
039980/20130130/92535/2040/2000/10/
039980/20130130/92637/2040/1500/10/
039980/20130130/93238/2045/570/20/
039980/20130130/93837/2045/100/20/
039980/20130130/94352/2040/100/10/
039980/20130130/94404/2040/500/10/
039980/20130130/94724/2040/100/10/
039980/20130130/95343/2040/500/10/
039980/20130130/95403/2040/753/10/
039980/20130130/95535/2040/100/20/
039980/20130130/95801/2040/455/20/
039980/20130130/100401/2040/1694/10/
039980/20130130/100401/2035/1512/10/
039980/20130130/100826/2035/1000/10/
039980/20130130/101157/2035/444/10/
039980/20130130/101157/2030/2106/10/
039980/20130130/101212/2030/334/10/
039980/20130130/101244/2030/100/10/
039980/20130130/101247/2030/100/10/
039980/20130130/101550/2035/992/20/
039980/20130130/101550/2035/640/10/
039980/20130130/101641/2030/1502/10/
039980/20130130/103014/2035/297/20/
039980/20130130/103014/2035/1705/10/
039980/20130130/103134/2035/500/10/
039980/20130130/103814/2030/1006/10/
039980/20130130/104014/2035/292/10/
039980/20130130/104400/2040/111/20/
039980/20130130/104525/2040/115/20/
039980/20130130/104601/2040/404/20/
039980/20130130/104720/2035/6000/10/
039980/20130130/104911/2040/1002/20/
039980/20130130/105327/2040/2501/20/
039980/20130130/105454/2040/4000/20/
039980/20130130/105501/2040/3000/20/
039980/20130130/105504/2040/1342/20/
039980/20130130/105506/2040/350/20/
039980/20130130/105513/2040/1000/20/
039980/20130130/105513/2040/494/20/
039980/20130130/105702/2040/400/10/
039980/20130130/110040/2045/103/20/
039980/20130130/110308/2045/500/20/
039980/20130130/110344/2045/450/20/
039980/20130130/110555/2045/152/20/
039980/20130130/110711/2045/403/10/
039980/20130130/110755/2045/100/20/
039980/20130130/110925/2050/355/20/
039980/20130130/111908/2050/957/20/
039980/20130130/112055/2050/1522/20/
039980/20130130/113059/2050/86/20/
039980/20130130/113350/2055/2013/20/
039980/20130130/113350/2060/1164/20/
039980/20130130/113426/2060/1000/20/
039980/20130130/113426/2065/705/20/
039980/20130130/113743/2055/1046/20/
039980/20130130/113844/2055/231/20/
039980/20130130/114002/2055/500/20/
039980/20130130/114341/2050/500/10/
039980/20130130/114432/2050/119/10/
039980/20130130/114557/2050/2421/10/
039980/20130130/114557/2045/802/10/
039980/20130130/114908/2045/1498/10/
039980/20130130/120320/2055/1004/20/
039980/20130130/122221/2050/104/10/
039980/20130130/122530/2050/99/20/
039980/20130130/123058/2045/95/10/
039980/20130130/124502/2050/1000/20/
039980/20130130/124523/2050/200/20/
039980/20130130/124748/2055/200/20/
039980/20130130/125231/2050/560/10/
039980/20130130/125233/2055/130/20/
039980/20130130/125635/2050/2344/10/
039980/20130130/125643/2055/2000/20/
039980/20130130/125713/2055/200/20/
039980/20130130/125826/2055/100/20/
039980/20130130/125859/2055/575/20/
039980/20130130/130002/2060/4000/20/
039980/20130130/130159/2065/1011/20/
039980/20130130/130257/2065/700/20/
039980/20130130/130320/2065/1000/20/
039980/20130130/130359/2060/2101/10/
039980/20130130/130411/2060/899/20/
039980/20130130/130424/2060/3000/10/
039980/20130130/130441/2060/101/10/
039980/20130130/130723/2060/333/20/
039980/20130130/131043/2060/115/20/
039980/20130130/131224/2060/1113/20/
039980/20130130/131401/2060/301/10/
039980/20130130/131424/2060/300/10/
039980/20130130/131513/2060/100/10/
039980/20130130/131748/2060/187/10/
039980/20130130/131907/2055/231/10/
039980/20130130/131952/2055/100/10/
039980/20130130/132104/2055/1200/10/
039980/20130130/132108/2055/900/10/
039980/20130130/132127/2055/294/10/
039980/20130130/132136/2055/1642/10/
039980/20130130/132208/2050/368/10/
039980/20130130/132403/2050/1000/10/
039980/20130130/133128/2055/151/10/
039980/20130130/133238/2055/300/10/
039980/20130130/133336/2050/2800/10/
039980/20130130/133358/2045/500/10/
039980/20130130/133450/2050/1000/10/
039980/20130130/133505/2050/1000/10/
039980/20130130/133519/2045/10000/10/
039980/20130130/133641/2045/3000/10/
039980/20130130/133836/2045/445/10/
039980/20130130/133836/2040/4872/10/
039980/20130130/134232/2045/100/10/
039980/20130130/134547/2040/924/10/
039980/20130130/135106/2045/710/20/
039980/20130130/135344/2045/1040/10/
039980/20130130/135841/2050/839/20/
039980/20130130/135841/2045/579/10/
039980/20130130/140700/2045/431/20/
039980/20130130/141040/2040/1741/10/
039980/20130130/141043/2045/488/20/
039980/20130130/141057/2040/3252/10/
039980/20130130/141108/2040/520/10/
039980/20130130/141108/2035/1790/10/
039980/20130130/141728/2045/1241/20/
039980/20130130/141728/2050/7150/20/
039980/20130130/141728/2050/1621/10/
039980/20130130/141754/2040/1000/10/
039980/20130130/142137/2050/200/20/
039980/20130130/142320/2045/500/10/
039980/20130130/143033/2045/1059/20/
039980/20130130/143033/2050/3947/20/
039980/20130130/143731/2040/317/10/
039980/20130130/143944/2050/2001/20/
039980/20130130/144535/2040/170/10/
039980/20130130/144546/2045/100/20/
039980/20130130/144600/2045/400/10/
039980/20130130/144641/2045/4444/20/
039980/20130130/144719/2045/100/10/
039980/20130130/144803/2045/1220/10/
039980/20130130/144803/2040/1474/10/
039980/20130130/150000/2040/5600/10/
