039980/20130201/90000/2105/63145/20/
039980/20130201/90001/2105/490/20/
039980/20130201/90001/2105/251/20/
039980/20130201/90002/2105/486/20/
039980/20130201/90003/2105/500/20/
039980/20130201/90004/2105/100/20/
039980/20130201/90006/2105/500/20/
039980/20130201/90007/2105/259/20/
039980/20130201/90011/2105/106/10/
039980/20130201/90012/2105/933/20/
039980/20130201/90015/2105/100/20/
039980/20130201/90016/2105/856/20/
039980/20130201/90022/2100/5110/10/
039980/20130201/90023/2100/941/20/
039980/20130201/90024/2100/1000/10/
039980/20130201/90031/2100/2545/10/
039980/20130201/90036/2100/1002/10/
039980/20130201/90044/2095/541/10/
039980/20130201/90051/2095/3235/10/
039980/20130201/90057/2090/401/10/
039980/20130201/90105/2095/603/20/
039980/20130201/90110/2095/200/20/
039980/20130201/90112/2095/2001/20/
039980/20130201/90112/2095/860/20/
039980/20130201/90137/2095/153/10/
039980/20130201/90146/2095/100/20/
039980/20130201/90154/2095/100/20/
039980/20130201/90200/2095/200/20/
039980/20130201/90217/2095/954/20/
039980/20130201/90218/2090/2430/10/
039980/20130201/90223/2090/466/10/
039980/20130201/90226/2095/1000/20/
039980/20130201/90243/2095/536/20/
039980/20130201/90301/2090/2841/10/
039980/20130201/90302/2085/400/10/
039980/20130201/90305/2085/3741/10/
039980/20130201/90320/2085/610/10/
039980/20130201/90320/2085/1344/10/
039980/20130201/90325/2085/500/10/
039980/20130201/90335/2085/500/20/
039980/20130201/90336/2090/300/20/
039980/20130201/90409/2090/100/20/
039980/20130201/90414/2090/2500/20/
039980/20130201/90426/2080/4002/10/
039980/20130201/90426/2075/2621/10/
039980/20130201/90426/2070/377/10/
039980/20130201/90434/2070/1832/10/
039980/20130201/90447/2085/167/20/
039980/20130201/90452/2075/500/10/
039980/20130201/90519/2075/712/10/
039980/20130201/90607/2075/540/10/
039980/20130201/90611/2075/500/10/
039980/20130201/90620/2075/502/10/
039980/20130201/90626/2075/1230/10/
039980/20130201/90632/2075/200/20/
039980/20130201/90636/2075/502/20/
039980/20130201/90638/2075/100/20/
039980/20130201/90642/2075/100/20/
039980/20130201/90644/2075/100/20/
039980/20130201/90646/2075/100/20/
039980/20130201/90720/2075/170/20/
039980/20130201/90730/2075/100/20/
039980/20130201/90733/2075/100/20/
039980/20130201/90737/2075/1347/20/
039980/20130201/90743/2080/100/20/
039980/20130201/90816/2080/100/20/
039980/20130201/90834/2075/2000/10/
039980/20130201/90834/2080/700/20/
039980/20130201/90840/2075/500/10/
039980/20130201/90858/2080/1850/20/
039980/20130201/90923/2085/4563/20/
039980/20130201/90925/2085/638/10/
039980/20130201/90946/2085/450/20/
039980/20130201/90955/2085/100/20/
039980/20130201/91027/2080/1300/10/
039980/20130201/91059/2080/100/20/
039980/20130201/91131/2080/2000/20/
039980/20130201/91138/2080/550/20/
039980/20130201/91149/2080/350/20/
039980/20130201/91152/2080/380/20/
039980/20130201/91152/2080/620/10/
039980/20130201/91153/2080/500/10/
039980/20130201/91213/2080/150/20/
039980/20130201/91227/2080/100/20/
039980/20130201/91240/2080/500/20/
039980/20130201/91343/2080/2000/20/
039980/20130201/91443/2080/304/20/
039980/20130201/91449/2080/1780/20/
039980/20130201/91455/2080/772/20/
039980/20130201/91512/2080/352/10/
039980/20130201/91609/2075/500/10/
039980/20130201/91611/2075/1558/10/
039980/20130201/91618/2075/4268/10/
039980/20130201/91627/2070/5510/10/
039980/20130201/91627/2070/1642/10/
039980/20130201/91635/2065/393/10/
039980/20130201/91635/2065/1219/10/
039980/20130201/91639/2065/787/10/
039980/20130201/91651/2060/2010/10/
039980/20130201/91651/2060/674/10/
039980/20130201/91651/2055/2326/10/
039980/20130201/91653/2055/198/10/
039980/20130201/91654/2055/393/10/
039980/20130201/91656/2055/2031/10/
039980/20130201/91656/2050/4052/10/
039980/20130201/91656/2050/264/10/
039980/20130201/91658/2050/932/10/
039980/20130201/91717/2050/100/10/
039980/20130201/91717/2050/3000/10/
039980/20130201/91721/2050/1886/10/
039980/20130201/91722/2050/100/20/
039980/20130201/91743/2055/634/10/
039980/20130201/91744/2055/381/20/
039980/20130201/91746/2055/1275/10/
039980/20130201/91750/2055/1225/20/
039980/20130201/91815/2060/500/20/
039980/20130201/91822/2060/100/20/
039980/20130201/91827/2060/452/20/
039980/20130201/91829/2060/1500/20/
039980/20130201/91831/2060/457/20/
039980/20130201/91838/2060/1250/10/
039980/20130201/91854/2060/494/20/
039980/20130201/92006/2060/2041/20/
039980/20130201/92013/2060/1003/20/
039980/20130201/92016/2060/293/20/
039980/20130201/92033/2060/216/20/
039980/20130201/92041/2055/184/10/
039980/20130201/92041/2060/1770/20/
039980/20130201/92101/2065/410/20/
039980/20130201/92102/2065/1000/20/
039980/20130201/92115/2065/861/20/
039980/20130201/92117/2065/807/20/
039980/20130201/92211/2070/2526/20/
039980/20130201/92211/2075/2000/20/
039980/20130201/92217/2075/141/10/
039980/20130201/92318/2075/500/20/
039980/20130201/92325/2075/202/20/
039980/20130201/92359/2070/103/20/
039980/20130201/92412/2070/490/20/
039980/20130201/92448/2065/1161/10/
039980/20130201/92503/2065/102/10/
039980/20130201/92542/2070/2097/20/
039980/20130201/92700/2070/163/10/
039980/20130201/92938/2070/3013/10/
039980/20130201/92940/2070/130/10/
039980/20130201/93812/2065/5013/10/
039980/20130201/93832/2065/551/10/
039980/20130201/93907/2060/3000/10/
039980/20130201/93907/2060/5280/10/
039980/20130201/93908/2055/2142/10/
039980/20130201/93925/2050/500/10/
039980/20130201/93925/2050/3000/10/
039980/20130201/93929/2050/500/10/
039980/20130201/93934/2050/2366/10/
039980/20130201/93953/2050/1018/20/
039980/20130201/93958/2050/200/20/
039980/20130201/94000/2050/416/20/
039980/20130201/94003/2060/3000/20/
039980/20130201/94057/2060/200/20/
039980/20130201/94101/2060/500/20/
039980/20130201/94153/2060/200/20/
039980/20130201/94211/2060/150/20/
039980/20130201/94223/2060/100/20/
039980/20130201/94236/2060/230/20/
039980/20130201/94241/2060/100/20/
039980/20130201/94349/2055/1000/10/
039980/20130201/94349/2055/1743/10/
039980/20130201/94352/2055/603/10/
039980/20130201/94400/2055/2000/10/
039980/20130201/94522/2055/128/10/
039980/20130201/94550/2055/101/10/
039980/20130201/94620/2060/4222/20/
039980/20130201/94709/2060/1001/10/
039980/20130201/94747/2065/201/10/
039980/20130201/94754/2065/100/10/
039980/20130201/94832/2065/200/20/
039980/20130201/95020/2060/494/10/
039980/20130201/95025/2060/2150/10/
039980/20130201/95032/2060/1187/10/
039980/20130201/95042/2060/947/10/
039980/20130201/95142/2055/472/10/
039980/20130201/95441/2060/161/20/
039980/20130201/95458/2055/3000/10/
039980/20130201/95612/2055/206/10/
039980/20130201/95647/2055/672/10/
039980/20130201/95648/2055/250/10/
039980/20130201/95737/2055/426/10/
039980/20130201/95742/2060/260/20/
039980/20130201/95838/2055/298/10/
039980/20130201/95943/2055/752/10/
039980/20130201/100025/2055/200/10/
039980/20130201/100037/2055/2600/10/
039980/20130201/100040/2055/785/10/
039980/20130201/100049/2055/2009/10/
039980/20130201/100059/2055/600/10/
039980/20130201/100135/2055/340/10/
039980/20130201/100135/2050/3113/10/
039980/20130201/100147/2045/500/10/
039980/20130201/100150/2045/493/10/
039980/20130201/100159/2045/2000/10/
039980/20130201/100203/2045/1000/10/
039980/20130201/100207/2045/1000/10/
039980/20130201/100218/2045/250/10/
039980/20130201/100227/2045/366/10/
039980/20130201/100243/2045/340/10/
039980/20130201/100315/2050/2543/20/
039980/20130201/100424/2050/2755/10/
039980/20130201/100439/2050/500/10/
039980/20130201/100546/2050/4338/20/
039980/20130201/100546/2050/100/10/
039980/20130201/100623/2050/562/10/
039980/20130201/100637/2050/400/20/
039980/20130201/100651/2050/253/20/
039980/20130201/100652/2050/144/20/
039980/20130201/100900/2050/357/10/
039980/20130201/100909/2045/1998/10/
039980/20130201/100921/2045/950/10/
039980/20130201/100951/2045/305/10/
039980/20130201/100954/2045/2790/10/
039980/20130201/101028/2045/248/20/
039980/20130201/101154/2045/592/10/
039980/20130201/101154/2045/229/10/
039980/20130201/101156/2045/771/20/
039980/20130201/101157/2045/1229/10/
039980/20130201/101157/2040/1821/10/
039980/20130201/101211/2040/410/10/
039980/20130201/101222/2040/1501/20/
039980/20130201/101235/2040/613/20/
039980/20130201/101249/2040/925/10/
039980/20130201/101416/2050/1298/20/
039980/20130201/101421/2045/450/10/
039980/20130201/101421/2040/2050/10/
039980/20130201/101458/2040/506/10/
039980/20130201/101501/2040/494/20/
039980/20130201/101544/2035/2555/10/
039980/20130201/101544/2035/446/20/
039980/20130201/101605/2040/1000/10/
039980/20130201/101721/2040/750/10/
039980/20130201/101726/2040/750/10/
039980/20130201/101754/2040/250/10/
039980/20130201/101802/2040/257/10/
039980/20130201/101802/2040/812/10/
039980/20130201/101811/2040/188/20/
039980/20130201/101926/2040/113/10/
039980/20130201/102052/2035/88/10/
039980/20130201/102128/2035/507/10/
039980/20130201/102135/2035/561/10/
039980/20130201/102205/2035/239/20/
039980/20130201/102210/2035/1000/20/
039980/20130201/102210/2035/1000/20/
039980/20130201/102238/2035/207/20/
039980/20130201/102453/2040/358/20/
039980/20130201/102729/2035/1272/10/
039980/20130201/102756/2030/2702/10/
039980/20130201/103035/2035/541/10/
039980/20130201/103342/2040/302/20/
039980/20130201/103352/2040/500/20/
039980/20130201/103445/2035/2087/10/
039980/20130201/103445/2030/1491/10/
039980/20130201/103509/2035/300/20/
039980/20130201/103516/2035/100/20/
039980/20130201/103522/2035/99/20/
039980/20130201/103523/2030/1220/10/
039980/20130201/103523/2025/3780/10/
039980/20130201/103553/2030/123/10/
039980/20130201/103631/2030/411/10/
039980/20130201/103700/2030/102/20/
039980/20130201/103731/2030/1929/20/
039980/20130201/103742/2030/349/10/
039980/20130201/103856/2030/500/20/
039980/20130201/104010/2030/100/20/
039980/20130201/104103/2025/1018/10/
039980/20130201/104154/2025/4330/10/
039980/20130201/104334/2025/1007/10/
039980/20130201/104533/2025/1868/10/
039980/20130201/104547/2025/1002/10/
039980/20130201/104706/2030/115/20/
039980/20130201/105103/2025/1164/10/
039980/20130201/105103/2020/2391/10/
039980/20130201/105120/2020/400/10/
039980/20130201/105124/2020/1055/10/
039980/20130201/105127/2020/1100/10/
039980/20130201/105201/2020/300/10/
039980/20130201/105223/2020/230/10/
039980/20130201/105312/2025/100/10/
039980/20130201/105332/2025/518/20/
039980/20130201/105335/2025/297/20/
039980/20130201/105624/2030/110/20/
039980/20130201/105655/2025/718/10/
039980/20130201/105743/2030/169/20/
039980/20130201/105822/2030/1000/20/
039980/20130201/105909/2030/199/20/
039980/20130201/105929/2030/889/20/
039980/20130201/110022/2035/1050/20/
039980/20130201/110030/2035/1492/20/
039980/20130201/110038/2035/300/20/
039980/20130201/110040/2035/986/20/
039980/20130201/110148/2040/340/20/
039980/20130201/110224/2040/1000/20/
039980/20130201/110457/2040/91/20/
039980/20130201/110649/2035/116/10/
039980/20130201/110733/2035/200/10/
039980/20130201/110750/2035/4000/10/
039980/20130201/110830/2030/25071/10/
039980/20130201/110852/2030/255/10/
039980/20130201/110954/2030/200/10/
039980/20130201/111238/2035/86/20/
039980/20130201/111444/2035/155/20/
039980/20130201/111503/2030/114/10/
039980/20130201/111648/2035/101/20/
039980/20130201/111808/2030/227/10/
039980/20130201/111852/2030/2000/10/
039980/20130201/111909/2030/531/10/
039980/20130201/112006/2030/720/10/
039980/20130201/112137/2030/1040/20/
039980/20130201/112202/2030/105/20/
039980/20130201/112220/2030/100/20/
039980/20130201/112409/2025/1207/10/
039980/20130201/112427/2030/250/20/
039980/20130201/112528/2030/1000/20/
039980/20130201/112546/2030/226/10/
039980/20130201/112647/2030/100/10/
039980/20130201/112858/2030/455/10/
039980/20130201/113218/2030/500/10/
039980/20130201/113457/2030/1919/10/
039980/20130201/113729/2025/4006/10/
039980/20130201/113844/2025/1000/10/
039980/20130201/113955/2030/101/20/
039980/20130201/114017/2030/3206/20/
039980/20130201/114423/2035/101/10/
039980/20130201/114423/2030/2405/10/
039980/20130201/115102/2030/526/10/
039980/20130201/115142/2030/1000/10/
039980/20130201/115148/2030/3900/10/
039980/20130201/115239/2030/1001/10/
039980/20130201/115354/2025/583/10/
039980/20130201/115637/2030/152/20/
039980/20130201/115658/2025/369/10/
039980/20130201/115748/2030/3284/20/
039980/20130201/115753/2030/200/20/
039980/20130201/115837/2030/101/20/
039980/20130201/115842/2030/100/20/
039980/20130201/115942/2030/350/20/
039980/20130201/120640/2035/83/20/
039980/20130201/120956/2035/190/20/
039980/20130201/121502/2035/100/20/
039980/20130201/122026/2035/1015/20/
039980/20130201/122037/2035/100/20/
039980/20130201/122312/2030/331/10/
039980/20130201/122529/2035/1048/20/
039980/20130201/122716/2035/1000/20/
039980/20130201/122821/2035/100/20/
039980/20130201/122822/2035/100/20/
039980/20130201/122839/2035/1340/20/
039980/20130201/122855/2035/1000/10/
039980/20130201/123009/2035/225/10/
039980/20130201/123044/2035/1000/10/
039980/20130201/123226/2035/85/10/
039980/20130201/123445/2030/100/10/
039980/20130201/123701/2030/985/10/
039980/20130201/123757/2030/912/10/
039980/20130201/123803/2030/534/10/
039980/20130201/124026/2035/204/20/
039980/20130201/124258/2030/202/10/
039980/20130201/124340/2030/537/10/
039980/20130201/124558/2030/1297/10/
039980/20130201/124620/2035/500/20/
039980/20130201/124659/2035/3643/20/
039980/20130201/124814/2035/1708/10/
039980/20130201/125133/2030/1060/10/
039980/20130201/125133/2035/3000/20/
039980/20130201/125136/2035/265/20/
039980/20130201/125352/2035/1960/10/
039980/20130201/125414/2035/1130/10/
039980/20130201/125529/2035/3001/10/
039980/20130201/125541/2035/880/10/
039980/20130201/125545/2035/120/20/
039980/20130201/125626/2035/1000/10/
039980/20130201/130044/2035/316/10/
039980/20130201/130118/2035/460/10/
039980/20130201/130130/2035/1000/10/
039980/20130201/130146/2035/1000/10/
039980/20130201/130148/2035/259/10/
039980/20130201/130443/2035/298/10/
039980/20130201/130545/2035/235/10/
039980/20130201/130710/2035/150/10/
039980/20130201/130835/2035/141/10/
039980/20130201/130936/2035/320/10/
039980/20130201/131326/2040/110/20/
039980/20130201/131343/2040/150/20/
039980/20130201/131448/2040/3996/20/
039980/20130201/131821/2040/799/20/
039980/20130201/132133/2045/1001/20/
039980/20130201/132200/2045/900/20/
039980/20130201/132223/2040/237/10/
039980/20130201/132234/2035/153/10/
039980/20130201/133117/2045/181/20/
039980/20130201/133148/2045/800/20/
039980/20130201/133546/2045/200/20/
039980/20130201/133655/2045/500/20/
039980/20130201/133707/2045/1300/20/
039980/20130201/133741/2045/502/10/
039980/20130201/133832/2045/1466/20/
039980/20130201/134023/2050/201/20/
039980/20130201/134208/2050/111/20/
039980/20130201/134211/2050/900/20/
039980/20130201/134233/2050/894/20/
039980/20130201/134322/2050/972/20/
039980/20130201/134339/2045/3000/10/
039980/20130201/134451/2045/501/10/
039980/20130201/134509/2045/510/10/
039980/20130201/134517/2045/2454/10/
039980/20130201/134549/2045/100/20/
039980/20130201/134551/2045/1000/20/
039980/20130201/134552/2045/446/20/
039980/20130201/134558/2045/500/10/
039980/20130201/134908/2045/366/10/
039980/20130201/134938/2045/135/20/
039980/20130201/135329/2045/554/20/
039980/20130201/140105/2040/515/10/
039980/20130201/140132/2045/600/20/
039980/20130201/140228/2045/139/20/
039980/20130201/140504/2050/101/20/
039980/20130201/140748/2050/91/20/
039980/20130201/140759/2050/140/20/
039980/20130201/140816/2050/387/20/
039980/20130201/140817/2050/610/20/
039980/20130201/140959/2050/1000/20/
039980/20130201/141013/2050/1000/20/
039980/20130201/141151/2050/1000/20/
039980/20130201/141433/2045/123/10/
039980/20130201/141520/2045/201/10/
039980/20130201/141534/2045/742/10/
039980/20130201/141930/2050/134/20/
039980/20130201/142049/2050/950/20/
039980/20130201/142100/2050/1000/20/
039980/20130201/142110/2050/950/20/
039980/20130201/142120/2050/800/20/
039980/20130201/142338/2050/200/20/
039980/20130201/142518/2050/150/20/
039980/20130201/142602/2050/500/20/
039980/20130201/142630/2050/1000/20/
039980/20130201/143151/2050/781/20/
039980/20130201/143159/2050/400/10/
039980/20130201/143301/2050/508/20/
039980/20130201/143322/2050/142/20/
039980/20130201/143602/2050/274/10/
039980/20130201/143705/2045/4792/10/
039980/20130201/143705/2040/5218/10/
039980/20130201/143731/2040/250/10/
039980/20130201/143909/2040/640/10/
039980/20130201/144322/2040/150/10/
039980/20130201/144517/2040/1984/10/
039980/20130201/144530/2040/400/10/
039980/20130201/144540/2040/153/10/
039980/20130201/144602/2040/700/10/
039980/20130201/144658/2035/2726/10/
039980/20130201/144723/2035/259/10/
039980/20130201/144800/2035/202/20/
039980/20130201/144910/2030/1003/10/
039980/20130201/144922/2030/672/10/
039980/20130201/144947/2030/206/10/
039980/20130201/144949/2030/578/10/
039980/20130201/144959/2030/3168/20/
039980/20130201/150000/2025/24191/10/
