039980/20121116/90000/1945/13759/10/
039980/20121116/90156/1955/220/10/
039980/20121116/90159/1955/240/10/
039980/20121116/90159/1960/480/20/
039980/20121116/90230/1970/88/20/
039980/20121116/90237/1970/1100/20/
039980/20121116/90302/1970/100/20/
039980/20121116/90314/1970/132/20/
039980/20121116/90315/1970/150/10/
039980/20121116/90332/1980/175/20/
039980/20121116/90337/1980/510/20/
039980/20121116/90339/1980/700/20/
039980/20121116/90341/1980/212/20/
039980/20121116/90341/1980/608/10/
039980/20121116/90400/1980/466/20/
039980/20121116/90437/1980/102/20/
039980/20121116/90443/1980/1976/20/
039980/20121116/90448/1985/1043/20/
039980/20121116/90455/1985/231/20/
039980/20121116/90507/1985/500/20/
039980/20121116/90509/1985/555/20/
039980/20121116/90522/1980/546/10/
039980/20121116/90523/1980/496/10/
039980/20121116/90535/1980/260/20/
039980/20121116/90535/1980/944/20/
039980/20121116/90536/1985/1600/20/
039980/20121116/90538/1985/100/20/
039980/20121116/90622/1975/212/10/
039980/20121116/90631/1975/100/10/
039980/20121116/90651/1980/1011/20/
039980/20121116/90655/1980/1033/20/
039980/20121116/90657/1980/2000/20/
039980/20121116/90716/1975/4920/10/
039980/20121116/90821/1970/325/10/
039980/20121116/90825/1980/500/20/
039980/20121116/90908/1970/1000/10/
039980/20121116/90913/1970/240/10/
039980/20121116/91117/1965/262/10/
039980/20121116/91123/1965/140/10/
039980/20121116/91128/1965/193/20/
039980/20121116/91136/1970/557/20/
039980/20121116/91136/1965/807/10/
039980/20121116/91150/1960/1000/10/
039980/20121116/91152/1960/2000/10/
039980/20121116/91210/1960/450/10/
039980/20121116/91213/1960/500/20/
039980/20121116/91433/1955/108/10/
039980/20121116/91449/1950/1053/10/
039980/20121116/91458/1955/124/20/
039980/20121116/91532/1955/1000/20/
039980/20121116/91537/1950/201/10/
039980/20121116/91606/1950/377/10/
039980/20121116/91631/1955/132/20/
039980/20121116/91735/1960/147/20/
039980/20121116/91801/1950/1005/10/
039980/20121116/91833/1950/1300/10/
039980/20121116/91855/1950/190/10/
039980/20121116/91937/1950/530/10/
039980/20121116/92000/1950/1857/10/
039980/20121116/92003/1950/500/20/
039980/20121116/92005/1950/252/20/
039980/20121116/92100/1950/1070/10/
039980/20121116/92236/1950/1511/10/
039980/20121116/92249/1950/1014/10/
039980/20121116/92256/1950/696/20/
039980/20121116/92305/1950/3000/10/
039980/20121116/92313/1950/804/10/
039980/20121116/92330/1945/2090/10/
039980/20121116/92330/1940/1150/10/
039980/20121116/92330/1935/656/10/
039980/20121116/92337/1935/500/10/
039980/20121116/92421/1935/1203/10/
039980/20121116/92500/1935/2510/10/
039980/20121116/92617/1935/160/10/
039980/20121116/92628/1935/100/10/
039980/20121116/92629/1935/1000/10/
039980/20121116/92716/1940/412/20/
039980/20121116/92719/1940/200/20/
039980/20121116/92754/1940/540/20/
039980/20121116/92758/1940/2373/20/
039980/20121116/92823/1940/270/10/
039980/20121116/92828/1940/625/10/
039980/20121116/92828/1935/1090/10/
039980/20121116/92828/1930/3285/10/
039980/20121116/92838/1940/100/10/
039980/20121116/92842/1940/281/10/
039980/20121116/92859/1940/1001/10/
039980/20121116/92951/1950/500/20/
039980/20121116/93007/1940/1000/10/
039980/20121116/93024/1950/126/20/
039980/20121116/93127/1940/201/10/
039980/20121116/93400/1940/528/10/
039980/20121116/93427/1940/2000/10/
039980/20121116/93635/1935/82/10/
039980/20121116/93642/1935/109/10/
039980/20121116/93846/1935/1420/10/
039980/20121116/94008/1935/2017/10/
039980/20121116/94020/1930/5798/10/
039980/20121116/94043/1925/1060/10/
039980/20121116/94043/1920/1940/10/
039980/20121116/94113/1925/500/10/
039980/20121116/94217/1920/2985/10/
039980/20121116/94226/1920/1022/20/
039980/20121116/94313/1920/1009/10/
039980/20121116/94415/1915/2545/10/
039980/20121116/94435/1915/200/20/
039980/20121116/94436/1915/210/20/
039980/20121116/94442/1910/1000/10/
039980/20121116/94455/1910/1426/10/
039980/20121116/94455/1905/3574/10/
039980/20121116/94457/1915/112/20/
039980/20121116/94503/1905/492/10/
039980/20121116/94541/1910/100/20/
039980/20121116/94549/1905/2000/10/
039980/20121116/94549/1905/9970/10/
039980/20121116/94611/1905/500/10/
039980/20121116/94611/1905/4500/10/
039980/20121116/94646/1910/500/20/
039980/20121116/94658/1905/1488/10/
039980/20121116/94726/1905/470/10/
039980/20121116/94807/1905/3045/10/
039980/20121116/94807/1900/1457/10/
039980/20121116/94808/1915/2606/20/
039980/20121116/94811/1915/631/20/
039980/20121116/94906/1905/510/10/
039980/20121116/94922/1905/302/10/
039980/20121116/95014/1905/300/10/
039980/20121116/95031/1915/100/20/
039980/20121116/95058/1905/3853/10/
039980/20121116/95131/1910/90/10/
039980/20121116/95209/1910/1070/10/
039980/20121116/95210/1915/466/20/
039980/20121116/95436/1925/170/20/
039980/20121116/95502/1920/3010/10/
039980/20121116/95502/1920/2001/10/
039980/20121116/95904/1915/173/10/
039980/20121116/95927/1910/100/10/
039980/20121116/95946/1910/200/10/
039980/20121116/100110/1915/193/20/
039980/20121116/100129/1915/500/10/
039980/20121116/100129/1920/500/20/
039980/20121116/100148/1920/654/10/
039980/20121116/100332/1925/1130/20/
039980/20121116/100344/1925/100/10/
039980/20121116/100358/1915/201/10/
039980/20121116/100458/1920/301/10/
039980/20121116/100521/1930/1963/20/
039980/20121116/100824/1925/552/10/
039980/20121116/100902/1930/94/20/
039980/20121116/101109/1935/104/20/
039980/20121116/101118/1935/296/20/
039980/20121116/101224/1940/200/20/
039980/20121116/101522/1940/101/10/
039980/20121116/101522/1945/100/20/
039980/20121116/101738/1940/90/20/
039980/20121116/101841/1940/390/20/
039980/20121116/101901/1945/2437/20/
039980/20121116/101951/1940/201/10/
039980/20121116/102033/1940/1000/10/
039980/20121116/102034/1940/500/10/
039980/20121116/102151/1940/99/10/
039980/20121116/102356/1940/317/10/
039980/20121116/102653/1935/522/20/
039980/20121116/102653/1940/1526/20/
039980/20121116/102703/1940/1311/20/
039980/20121116/102703/1945/1000/20/
039980/20121116/102703/1950/689/20/
039980/20121116/102716/1950/350/20/
039980/20121116/103231/1940/2000/10/
039980/20121116/103237/1940/100/20/
039980/20121116/103638/1940/101/20/
039980/20121116/103643/1940/1147/20/
039980/20121116/103757/1935/102/10/
039980/20121116/103953/1935/500/10/
039980/20121116/104000/1940/5000/20/
039980/20121116/104211/1935/1000/10/
039980/20121116/104215/1935/752/10/
039980/20121116/104235/1935/2228/10/
039980/20121116/104235/1930/272/10/
039980/20121116/104345/1930/1010/10/
039980/20121116/104452/1930/120/10/
039980/20121116/104729/1930/110/10/
039980/20121116/104950/1940/909/20/
039980/20121116/104950/1945/2061/10/
039980/20121116/104950/1950/2064/20/
039980/20121116/105233/1950/1000/20/
039980/20121116/105309/1940/670/10/
039980/20121116/105419/1950/105/20/
039980/20121116/110345/1950/676/20/
039980/20121116/110634/1950/429/10/
039980/20121116/110858/1955/1197/20/
039980/20121116/110957/1950/366/10/
039980/20121116/111006/1950/230/10/
039980/20121116/111059/1955/200/20/
039980/20121116/111345/1955/300/20/
039980/20121116/111345/1955/329/10/
039980/20121116/112026/1955/2452/10/
039980/20121116/112059/1955/1000/20/
039980/20121116/112111/1950/2000/10/
039980/20121116/112124/1950/642/10/
039980/20121116/112304/1955/501/20/
039980/20121116/112318/1955/2478/20/
039980/20121116/112440/1955/572/10/
039980/20121116/112804/1960/501/20/
039980/20121116/112923/1960/2007/20/
039980/20121116/113333/1950/1205/10/
039980/20121116/113602/1950/879/20/
039980/20121116/113602/1950/195/10/
039980/20121116/113834/1955/1112/20/
039980/20121116/114252/1955/100/20/
039980/20121116/114341/1955/100/20/
039980/20121116/114510/1950/1000/10/
039980/20121116/114657/1950/1011/20/
039980/20121116/114759/1950/1002/10/
039980/20121116/115423/1955/81/20/
039980/20121116/115738/1955/1010/20/
039980/20121116/115924/1955/90/20/
039980/20121116/120034/1955/3000/20/
039980/20121116/120613/1955/1602/20/
039980/20121116/120740/1955/134/10/
039980/20121116/120941/1955/1300/10/
039980/20121116/121138/1960/1013/20/
039980/20121116/121250/1960/2859/20/
039980/20121116/121404/1960/1119/20/
039980/20121116/121617/1960/3886/10/
039980/20121116/121617/1955/3083/10/
039980/20121116/121810/1955/2000/20/
039980/20121116/121930/1955/1002/20/
039980/20121116/122024/1955/100/20/
039980/20121116/122114/1955/3000/20/
039980/20121116/122122/1955/387/20/
039980/20121116/122338/1955/533/10/
039980/20121116/122434/1955/300/10/
039980/20121116/122740/1955/100/10/
039980/20121116/123136/1960/1001/20/
039980/20121116/123251/1960/663/10/
039980/20121116/123323/1960/219/10/
039980/20121116/123534/1965/1021/20/
039980/20121116/123549/1965/100/20/
039980/20121116/123645/1965/2573/20/
039980/20121116/123645/1965/427/10/
039980/20121116/123810/1965/500/10/
039980/20121116/123818/1965/1500/10/
039980/20121116/123836/1965/100/20/
039980/20121116/123836/1965/900/10/
039980/20121116/123905/1965/500/20/
039980/20121116/123910/1965/200/10/
039980/20121116/123911/1965/205/10/
039980/20121116/123923/1965/976/10/
039980/20121116/124025/1965/1502/10/
039980/20121116/124102/1960/500/10/
039980/20121116/124128/1960/4518/10/
039980/20121116/124134/1960/482/20/
039980/20121116/124143/1960/300/10/
039980/20121116/124201/1960/128/10/
039980/20121116/124229/1960/500/10/
039980/20121116/124303/1960/200/10/
039980/20121116/124712/1960/506/10/
039980/20121116/124858/1960/1050/10/
039980/20121116/125015/1960/502/10/
039980/20121116/125018/1960/200/10/
039980/20121116/125043/1960/1004/10/
039980/20121116/125057/1960/550/10/
039980/20121116/125129/1960/1147/10/
039980/20121116/125310/1960/1030/10/
039980/20121116/125314/1960/2061/10/
039980/20121116/125701/1960/454/20/
039980/20121116/125819/1960/352/20/
039980/20121116/125820/1960/148/10/
039980/20121116/125939/1955/1299/10/
039980/20121116/125959/1955/103/10/
039980/20121116/130037/1955/1187/10/
039980/20121116/130242/1950/501/10/
039980/20121116/130252/1950/6609/10/
039980/20121116/130252/1950/2916/10/
039980/20121116/130453/1945/500/10/
039980/20121116/130511/1945/5054/10/
039980/20121116/130619/1940/1182/10/
039980/20121116/130637/1940/100/10/
039980/20121116/130710/1940/368/10/
039980/20121116/130710/1935/3096/10/
039980/20121116/130748/1930/6000/10/
039980/20121116/130828/1935/200/20/
039980/20121116/130926/1930/500/10/
039980/20121116/130934/1935/336/20/
039980/20121116/130948/1945/770/20/
039980/20121116/131009/1945/778/20/
039980/20121116/131314/1935/446/10/
039980/20121116/131420/1935/1000/20/
039980/20121116/131439/1935/331/10/
039980/20121116/131521/1935/500/10/
039980/20121116/131611/1935/169/10/
039980/20121116/131639/1935/131/20/
039980/20121116/131721/1935/200/10/
039980/20121116/131825/1935/1013/10/
039980/20121116/131848/1935/656/10/
039980/20121116/131949/1935/1111/10/
039980/20121116/132051/1940/965/10/
039980/20121116/132052/1930/3237/10/
039980/20121116/132149/1930/1154/10/
039980/20121116/132252/1925/4747/10/
039980/20121116/132340/1925/902/10/
039980/20121116/132401/1925/178/10/
039980/20121116/132426/1930/502/20/
039980/20121116/132507/1925/502/10/
039980/20121116/132507/1925/92/10/
039980/20121116/132700/1920/1165/10/
039980/20121116/132705/1920/500/10/
039980/20121116/132718/1920/2921/10/
039980/20121116/132718/1915/3639/10/
039980/20121116/132718/1910/3440/10/
039980/20121116/132930/1925/106/20/
039980/20121116/133036/1910/112/10/
039980/20121116/133054/1910/1000/10/
039980/20121116/133059/1910/4000/10/
039980/20121116/133228/1915/100/10/
039980/20121116/133246/1915/444/10/
039980/20121116/133309/1920/256/20/
039980/20121116/133318/1920/400/20/
039980/20121116/133337/1920/400/20/
039980/20121116/133337/1920/110/10/
039980/20121116/133447/1915/150/20/
039980/20121116/133447/1920/500/20/
039980/20121116/133455/1920/360/10/
039980/20121116/133532/1915/500/10/
039980/20121116/133534/1920/150/20/
039980/20121116/133544/1920/500/10/
039980/20121116/133547/1920/650/10/
039980/20121116/133552/1920/500/20/
039980/20121116/133556/1920/500/10/
039980/20121116/133623/1915/100/10/
039980/20121116/133711/1910/1900/10/
039980/20121116/133754/1910/1000/10/
039980/20121116/133939/1910/1000/10/
039980/20121116/134012/1915/3000/20/
039980/20121116/134013/1915/100/20/
039980/20121116/134022/1915/1900/20/
039980/20121116/134113/1930/119/20/
039980/20121116/134329/1920/100/10/
039980/20121116/134329/1915/2612/10/
039980/20121116/134329/1910/298/10/
039980/20121116/134903/1915/308/10/
039980/20121116/135041/1915/564/10/
039980/20121116/135322/1915/5389/10/
039980/20121116/135326/1915/130/20/
039980/20121116/135331/1915/100/20/
039980/20121116/135434/1915/110/20/
039980/20121116/135706/1915/1099/20/
039980/20121116/135923/1915/3017/20/
039980/20121116/135930/1915/3000/20/
039980/20121116/135941/1915/1874/20/
039980/20121116/140123/1915/373/10/
039980/20121116/140125/1915/600/10/
039980/20121116/140224/1915/1033/10/
039980/20121116/140249/1920/100/20/
039980/20121116/140249/1920/868/10/
039980/20121116/140254/1915/400/10/
039980/20121116/140315/1915/5045/10/
039980/20121116/140315/1910/15705/10/
039980/20121116/140315/1905/7317/10/
039980/20121116/140315/1900/17049/10/
039980/20121116/140413/1915/3638/10/
039980/20121116/140545/1905/1910/10/
039980/20121116/140547/1905/100/10/
039980/20121116/140613/1900/1000/10/
039980/20121116/140624/1900/2000/10/
039980/20121116/140720/1900/2271/10/
039980/20121116/140720/1895/2729/10/
039980/20121116/140747/1895/510/10/
039980/20121116/140748/1900/500/20/
039980/20121116/140925/1900/551/20/
039980/20121116/140939/1900/1256/10/
039980/20121116/141218/1900/129/20/
039980/20121116/141346/1900/932/10/
039980/20121116/141555/1905/88/10/
039980/20121116/141957/1900/1546/10/
039980/20121116/142007/1895/6000/10/
039980/20121116/142047/1890/7245/10/
039980/20121116/142105/1890/592/20/
039980/20121116/142105/1895/490/10/
039980/20121116/142134/1890/165/20/
039980/20121116/142139/1890/839/10/
039980/20121116/142215/1890/161/20/
039980/20121116/142322/1890/431/10/
039980/20121116/142328/1890/200/10/
039980/20121116/142413/1895/529/20/
039980/20121116/142414/1895/511/10/
039980/20121116/142431/1890/1000/10/
039980/20121116/142442/1890/968/10/
039980/20121116/142448/1890/1000/10/
039980/20121116/142510/1890/400/10/
039980/20121116/142510/1885/8158/10/
039980/20121116/142526/1885/1010/20/
039980/20121116/142530/1880/5000/10/
039980/20121116/142536/1880/807/10/
039980/20121116/142536/1885/500/20/
039980/20121116/142551/1885/110/20/
039980/20121116/142552/1885/202/20/
039980/20121116/142726/1890/480/10/
039980/20121116/142757/1885/3000/10/
039980/20121116/142805/1885/270/10/
039980/20121116/142934/1890/81/20/
039980/20121116/142935/1885/1200/10/
039980/20121116/143010/1885/401/10/
039980/20121116/143105/1890/81/20/
039980/20121116/143138/1885/1308/10/
039980/20121116/143233/1885/1378/10/
039980/20121116/143301/1885/854/10/
039980/20121116/143307/1885/893/20/
039980/20121116/143404/1885/2832/20/
039980/20121116/143410/1885/6000/20/
039980/20121116/143424/1885/1020/20/
039980/20121116/143452/1885/200/20/
039980/20121116/143455/1885/205/20/
039980/20121116/143459/1890/1005/20/
039980/20121116/143459/1895/995/20/
039980/20121116/143846/1895/1015/20/
039980/20121116/143917/1895/1002/20/
039980/20121116/143928/1890/1513/10/
039980/20121116/143928/1885/3491/10/
039980/20121116/144026/1890/92/20/
039980/20121116/144051/1890/116/20/
039980/20121116/144119/1890/677/10/
039980/20121116/144245/1895/2531/20/
039980/20121116/144335/1895/750/20/
039980/20121116/144417/1890/234/10/
039980/20121116/144530/1895/1927/20/
039980/20121116/144548/1895/1000/10/
039980/20121116/144549/1895/81/10/
039980/20121116/144650/1895/533/20/
039980/20121116/144738/1895/156/20/
039980/20121116/144752/1900/2547/20/
039980/20121116/144813/1895/370/10/
039980/20121116/144821/1895/500/10/
039980/20121116/144822/1895/989/10/
039980/20121116/144847/1890/103/10/
039980/20121116/144850/1890/2000/10/
039980/20121116/144936/1895/1072/20/
039980/20121116/144947/1890/421/10/
039980/20121116/144947/1885/1535/10/
039980/20121116/150000/1875/57722/10/
