039980/20121029/90000/2690/38802/20/
039980/20121029/90000/2690/1000/20/
039980/20121029/90000/2690/3493/20/
039980/20121029/90000/2700/210/20/
039980/20121029/90000/2710/100/20/
039980/20121029/90000/2720/497/20/
039980/20121029/90004/2685/4500/10/
039980/20121029/90007/2690/300/10/
039980/20121029/90012/2690/828/10/
039980/20121029/90012/2690/1872/10/
039980/20121029/90014/2690/4936/20/
039980/20121029/90016/2685/300/10/
039980/20121029/90017/2685/800/10/
039980/20121029/90019/2685/1000/10/
039980/20121029/90023/2690/214/20/
039980/20121029/90023/2690/1312/20/
039980/20121029/90023/2695/800/10/
039980/20121029/90027/2695/188/10/
039980/20121029/90039/2690/567/20/
039980/20121029/90041/2690/173/10/
039980/20121029/90041/2685/1327/10/
039980/20121029/90044/2695/430/20/
039980/20121029/90045/2690/491/10/
039980/20121029/90045/2685/276/10/
039980/20121029/90045/2685/500/10/
039980/20121029/90053/2690/1053/20/
039980/20121029/90054/2690/100/20/
039980/20121029/90055/2685/100/10/
039980/20121029/90055/2690/372/20/
039980/20121029/90056/2690/375/20/
039980/20121029/90057/2695/3422/20/
039980/20121029/90058/2695/1448/20/
039980/20121029/90101/2695/6001/10/
039980/20121029/90102/2695/500/10/
039980/20121029/90105/2695/500/10/
039980/20121029/90108/2700/2703/20/
039980/20121029/90109/2695/130/10/
039980/20121029/90109/2695/370/10/
039980/20121029/90110/2700/685/20/
039980/20121029/90110/2700/1009/20/
039980/20121029/90111/2700/1014/10/
039980/20121029/90117/2705/302/20/
039980/20121029/90118/2705/118/20/
039980/20121029/90124/2700/3004/10/
039980/20121029/90129/2700/344/20/
039980/20121029/90132/2700/200/20/
039980/20121029/90133/2695/500/10/
039980/20121029/90134/2695/500/10/
039980/20121029/90136/2700/1359/20/
039980/20121029/90139/2700/2368/10/
039980/20121029/90140/2705/500/20/
039980/20121029/90142/2705/200/20/
039980/20121029/90142/2705/92/20/
039980/20121029/90144/2700/4809/10/
039980/20121029/90144/2705/100/20/
039980/20121029/90144/2705/587/20/
039980/20121029/90144/2700/1330/10/
039980/20121029/90145/2700/2000/10/
039980/20121029/90146/2700/114/10/
039980/20121029/90146/2695/1608/10/
039980/20121029/90147/2695/2050/10/
039980/20121029/90151/2695/1000/10/
039980/20121029/90154/2695/96/10/
039980/20121029/90157/2695/1060/10/
039980/20121029/90158/2695/200/10/
039980/20121029/90159/2695/850/10/
039980/20121029/90159/2695/907/10/
039980/20121029/90201/2690/589/10/
039980/20121029/90204/2695/2223/20/
039980/20121029/90204/2700/1297/20/
039980/20121029/90210/2700/1001/20/
039980/20121029/90212/2690/2333/10/
039980/20121029/90213/2690/100/20/
039980/20121029/90220/2685/161/10/
039980/20121029/90222/2690/1917/20/
039980/20121029/90224/2690/506/20/
039980/20121029/90225/2690/300/20/
039980/20121029/90227/2690/100/20/
039980/20121029/90237/2690/417/20/
039980/20121029/90250/2690/2041/20/
039980/20121029/90253/2690/2972/10/
039980/20121029/90300/2685/271/10/
039980/20121029/90301/2685/200/10/
039980/20121029/90305/2685/3210/10/
039980/20121029/90308/2680/102/10/
039980/20121029/90310/2680/2580/10/
039980/20121029/90313/2680/153/10/
039980/20121029/90313/2675/4847/10/
039980/20121029/90315/2675/1011/10/
039980/20121029/90315/2670/150/10/
039980/20121029/90328/2670/217/10/
039980/20121029/90328/2665/1799/10/
039980/20121029/90336/2665/891/10/
039980/20121029/90354/2680/145/20/
039980/20121029/90354/2685/1788/20/
039980/20121029/90401/2685/601/10/
039980/20121029/90405/2685/663/10/
039980/20121029/90406/2685/1000/10/
039980/20121029/90407/2685/531/10/
039980/20121029/90414/2685/737/10/
039980/20121029/90418/2690/90/20/
039980/20121029/90429/2690/1506/20/
039980/20121029/90431/2690/1494/10/
039980/20121029/90436/2690/800/20/
039980/20121029/90437/2690/206/20/
039980/20121029/90439/2690/410/20/
039980/20121029/90453/2690/502/20/
039980/20121029/90454/2690/383/20/
039980/20121029/90457/2690/110/20/
039980/20121029/90501/2690/1072/20/
039980/20121029/90501/2695/814/20/
039980/20121029/90501/2700/114/20/
039980/20121029/90524/2700/400/20/
039980/20121029/90535/2700/418/20/
039980/20121029/90539/2690/1000/10/
039980/20121029/90539/2700/500/20/
039980/20121029/90545/2700/1000/20/
039980/20121029/90550/2700/1000/20/
039980/20121029/90550/2700/300/20/
039980/20121029/90554/2700/391/10/
039980/20121029/90556/2705/1001/20/
039980/20121029/90557/2700/300/10/
039980/20121029/90559/2705/660/20/
039980/20121029/90602/2700/2000/10/
039980/20121029/90612/2695/139/20/
039980/20121029/90616/2695/1426/20/
039980/20121029/90617/2695/720/20/
039980/20121029/90620/2695/1423/20/
039980/20121029/90632/2700/600/20/
039980/20121029/90633/2700/163/20/
039980/20121029/90639/2700/2894/20/
039980/20121029/90645/2705/1142/20/
039980/20121029/90645/2710/3722/20/
039980/20121029/90649/2710/263/10/
039980/20121029/90656/2710/255/20/
039980/20121029/90657/2710/1188/20/
039980/20121029/90657/2710/300/20/
039980/20121029/90658/2710/154/20/
039980/20121029/90700/2715/2789/20/
039980/20121029/90701/2720/8069/20/
039980/20121029/90707/2720/388/10/
039980/20121029/90712/2720/3166/20/
039980/20121029/90713/2720/300/20/
039980/20121029/90716/2720/720/10/
039980/20121029/90716/2720/758/10/
039980/20121029/90717/2720/100/20/
039980/20121029/90717/2720/200/20/
039980/20121029/90719/2715/2442/10/
039980/20121029/90730/2710/88/20/
039980/20121029/90737/2705/221/10/
039980/20121029/90737/2710/1412/20/
039980/20121029/90741/2715/560/20/
039980/20121029/90745/2715/2598/20/
039980/20121029/90746/2715/660/20/
039980/20121029/90746/2715/400/20/
039980/20121029/90746/2710/1000/10/
039980/20121029/90747/2715/869/20/
039980/20121029/90749/2715/500/20/
039980/20121029/90750/2715/970/20/
039980/20121029/90752/2715/1841/10/
039980/20121029/90800/2720/501/20/
039980/20121029/90805/2720/903/20/
039980/20121029/90806/2720/2173/20/
039980/20121029/90808/2720/342/20/
039980/20121029/90808/2720/3696/20/
039980/20121029/90810/2720/2000/10/
039980/20121029/90810/2720/292/10/
039980/20121029/90819/2720/251/20/
039980/20121029/90822/2715/224/10/
039980/20121029/90827/2715/87/20/
039980/20121029/90829/2715/100/20/
039980/20121029/90829/2710/130/10/
039980/20121029/90841/2715/84/20/
039980/20121029/90844/2715/200/20/
039980/20121029/90904/2715/501/20/
039980/20121029/90904/2715/3600/20/
039980/20121029/90907/2715/1000/20/
039980/20121029/90908/2715/700/20/
039980/20121029/90923/2715/282/10/
039980/20121029/90933/2715/607/10/
039980/20121029/90943/2720/102/20/
039980/20121029/90946/2720/136/20/
039980/20121029/90948/2720/2117/20/
039980/20121029/90950/2720/4200/20/
039980/20121029/90950/2720/200/20/
039980/20121029/90951/2720/536/20/
039980/20121029/90952/2720/896/20/
039980/20121029/90952/2720/300/10/
039980/20121029/90954/2725/200/20/
039980/20121029/90954/2720/500/10/
039980/20121029/90955/2720/1000/10/
039980/20121029/90956/2720/1000/10/
039980/20121029/90957/2720/2264/10/
039980/20121029/91003/2720/2180/20/
039980/20121029/91007/2720/596/20/
039980/20121029/91009/2720/99/10/
039980/20121029/91009/2720/530/10/
039980/20121029/91011/2715/4400/10/
039980/20121029/91013/2715/110/10/
039980/20121029/91014/2720/500/20/
039980/20121029/91015/2715/793/10/
039980/20121029/91018/2715/100/10/
039980/20121029/91019/2715/1162/10/
039980/20121029/91021/2715/100/20/
039980/20121029/91026/2715/500/20/
039980/20121029/91030/2710/2701/10/
039980/20121029/91032/2710/3510/10/
039980/20121029/91034/2710/100/20/
039980/20121029/91043/2710/1387/20/
039980/20121029/91045/2710/442/20/
039980/20121029/91047/2705/1121/10/
039980/20121029/91052/2705/3278/10/
039980/20121029/91056/2700/1320/10/
039980/20121029/91056/2700/302/10/
039980/20121029/91057/2700/536/10/
039980/20121029/91058/2700/500/10/
039980/20121029/91058/2705/100/20/
039980/20121029/91100/2700/1000/10/
039980/20121029/91100/2700/995/10/
039980/20121029/91108/2700/200/20/
039980/20121029/91117/2700/100/20/
039980/20121029/91118/2695/1000/10/
039980/20121029/91118/2695/1130/10/
039980/20121029/91118/2690/2506/10/
039980/20121029/91118/2685/2575/10/
039980/20121029/91118/2680/2210/10/
039980/20121029/91118/2670/565/10/
039980/20121029/91120/2670/300/20/
039980/20121029/91122/2670/913/20/
039980/20121029/91123/2670/936/20/
039980/20121029/91124/2670/2452/20/
039980/20121029/91125/2670/221/20/
039980/20121029/91125/2670/100/20/
039980/20121029/91127/2670/332/20/
039980/20121029/91133/2685/210/20/
039980/20121029/91139/2680/200/20/
039980/20121029/91141/2680/200/20/
039980/20121029/91141/2680/100/20/
039980/20121029/91141/2685/300/20/
039980/20121029/91147/2685/100/20/
039980/20121029/91149/2680/100/10/
039980/20121029/91151/2685/120/20/
039980/20121029/91151/2685/300/20/
039980/20121029/91153/2685/617/20/
039980/20121029/91155/2685/272/10/
039980/20121029/91201/2685/3400/10/
039980/20121029/91208/2685/100/10/
039980/20121029/91216/2680/8103/10/
039980/20121029/91216/2675/1382/10/
039980/20121029/91238/2680/85/20/
039980/20121029/91240/2680/626/20/
039980/20121029/91241/2685/103/20/
039980/20121029/91249/2685/314/20/
039980/20121029/91251/2680/1530/10/
039980/20121029/91258/2685/513/20/
039980/20121029/91309/2685/167/10/
039980/20121029/91316/2690/521/20/
039980/20121029/91317/2690/100/20/
039980/20121029/91327/2685/172/10/
039980/20121029/91344/2685/86/10/
039980/20121029/91346/2685/1000/10/
039980/20121029/91403/2685/1519/10/
039980/20121029/91407/2680/1188/10/
039980/20121029/91410/2680/215/10/
039980/20121029/91412/2680/375/10/
039980/20121029/91413/2680/812/10/
039980/20121029/91414/2680/100/20/
039980/20121029/91423/2680/201/20/
039980/20121029/91424/2675/1545/10/
039980/20121029/91425/2725/2864/20/
039980/20121029/91425/2670/242/10/
039980/20121029/91511/2700/202/20/
039980/20121029/91522/2690/2543/10/
039980/20121029/91522/2685/2600/10/
039980/20121029/91522/2680/3883/10/
039980/20121029/91527/2700/680/20/
039980/20121029/91608/2690/422/10/
039980/20121029/91618/2690/248/10/
039980/20121029/91621/2690/81/20/
039980/20121029/91632/2690/2919/20/
039980/20121029/91634/2690/781/10/
039980/20121029/91637/2685/1105/10/
039980/20121029/91638/2690/100/20/
039980/20121029/91640/2690/1510/20/
039980/20121029/91647/2690/1521/10/
039980/20121029/91653/2690/184/20/
039980/20121029/91654/2690/375/20/
039980/20121029/91658/2690/2436/20/
039980/20121029/91658/2695/2614/20/
039980/20121029/91704/2695/354/20/
039980/20121029/91712/2695/308/10/
039980/20121029/91751/2695/159/20/
039980/20121029/91800/2695/192/10/
039980/20121029/91814/2700/115/20/
039980/20121029/91823/2700/2022/20/
039980/20121029/91835/2700/347/20/
039980/20121029/91838/2705/102/20/
039980/20121029/91844/2700/1083/10/
039980/20121029/91854/2700/1225/20/
039980/20121029/91903/2700/1009/10/
039980/20121029/91909/2700/302/10/
039980/20121029/91933/2695/326/10/
039980/20121029/91955/2700/133/20/
039980/20121029/91956/2700/1001/20/
039980/20121029/91957/2700/141/20/
039980/20121029/92006/2700/387/10/
039980/20121029/92016/2705/229/20/
039980/20121029/92017/2700/1001/10/
039980/20121029/92024/2705/158/20/
039980/20121029/92035/2700/602/20/
039980/20121029/92035/2705/1423/20/
039980/20121029/92048/2705/311/20/
039980/20121029/92051/2700/756/10/
039980/20121029/92053/2700/102/20/
039980/20121029/92057/2700/189/20/
039980/20121029/92100/2700/114/10/
039980/20121029/92100/2695/887/10/
039980/20121029/92120/2705/2097/20/
039980/20121029/92120/2705/1177/10/
039980/20121029/92126/2700/285/10/
039980/20121029/92126/2700/2719/20/
039980/20121029/92133/2700/1715/10/
039980/20121029/92134/2700/688/20/
039980/20121029/92155/2700/509/10/
039980/20121029/92204/2700/1237/20/
039980/20121029/92206/2700/629/10/
039980/20121029/92206/2695/4448/10/
039980/20121029/92206/2690/4928/10/
039980/20121029/92207/2690/3621/10/
039980/20121029/92212/2685/1120/10/
039980/20121029/92212/2680/392/10/
039980/20121029/92212/2690/1000/20/
039980/20121029/92217/2685/408/10/
039980/20121029/92224/2690/102/20/
039980/20121029/92238/2685/1618/10/
039980/20121029/92238/2680/896/10/
039980/20121029/92245/2680/1011/10/
039980/20121029/92246/2680/758/10/
039980/20121029/92247/2680/2500/10/
039980/20121029/92247/2680/603/10/
039980/20121029/92249/2675/9508/10/
039980/20121029/92249/2670/11243/10/
039980/20121029/92249/2665/4254/10/
039980/20121029/92252/2680/109/20/
039980/20121029/92258/2670/1005/10/
039980/20121029/92258/2665/1026/10/
039980/20121029/92302/2665/373/10/
039980/20121029/92302/2675/1000/20/
039980/20121029/92303/2665/1617/10/
039980/20121029/92306/2665/807/20/
039980/20121029/92307/2665/606/20/
039980/20121029/92310/2665/1001/10/
039980/20121029/92310/2665/857/20/
039980/20121029/92310/2680/1143/20/
039980/20121029/92317/2665/194/10/
039980/20121029/92328/2665/220/10/
039980/20121029/92328/2665/4084/10/
039980/20121029/92330/2660/9000/10/
039980/20121029/92331/2660/999/10/
039980/20121029/92331/2655/348/10/
039980/20121029/92331/2655/1000/10/
039980/20121029/92334/2655/735/10/
039980/20121029/92334/2655/300/10/
039980/20121029/92334/2655/1240/10/
039980/20121029/92334/2650/7524/10/
039980/20121029/92335/2645/377/10/
039980/20121029/92335/2645/993/10/
039980/20121029/92336/2640/502/10/
039980/20121029/92336/2640/870/10/
039980/20121029/92337/2640/898/10/
039980/20121029/92337/2650/380/20/
039980/20121029/92338/2650/200/20/
039980/20121029/92340/2640/3008/10/
039980/20121029/92340/2640/2385/10/
039980/20121029/92342/2640/81/10/
039980/20121029/92343/2650/746/20/
039980/20121029/92347/2640/2511/10/
039980/20121029/92349/2640/122/20/
039980/20121029/92352/2640/575/10/
039980/20121029/92352/2640/2641/10/
039980/20121029/92352/2640/4168/10/
039980/20121029/92353/2635/3001/10/
039980/20121029/92353/2645/1000/20/
039980/20121029/92353/2635/398/10/
039980/20121029/92353/2645/511/20/
039980/20121029/92353/2650/490/20/
039980/20121029/92353/2640/500/10/
039980/20121029/92358/2640/107/10/
039980/20121029/92400/2640/223/20/
039980/20121029/92401/2635/98/10/
039980/20121029/92402/2635/3906/20/
039980/20121029/92402/2640/267/20/
039980/20121029/92403/2635/101/20/
039980/20121029/92404/2635/181/20/
039980/20121029/92404/2635/156/10/
039980/20121029/92404/2640/201/20/
039980/20121029/92405/2640/1002/20/
039980/20121029/92406/2640/1618/20/
039980/20121029/92407/2640/505/10/
039980/20121029/92408/2640/202/10/
039980/20121029/92412/2645/188/10/
039980/20121029/92412/2640/714/10/
039980/20121029/92413/2655/1004/20/
039980/20121029/92418/2645/236/20/
039980/20121029/92418/2645/127/20/
039980/20121029/92420/2650/100/20/
039980/20121029/92421/2650/170/20/
039980/20121029/92421/2655/908/20/
039980/20121029/92425/2655/171/20/
039980/20121029/92431/2670/108/20/
039980/20121029/92437/2665/121/20/
039980/20121029/92439/2665/100/10/
039980/20121029/92456/2655/134/10/
039980/20121029/92503/2655/3008/10/
039980/20121029/92504/2655/178/10/
039980/20121029/92504/2655/1354/10/
039980/20121029/92508/2650/1043/10/
039980/20121029/92508/2645/417/10/
039980/20121029/92517/2655/103/10/
039980/20121029/92523/2650/220/10/
039980/20121029/92523/2645/800/10/
039980/20121029/92525/2655/1938/20/
039980/20121029/92534/2660/570/20/
039980/20121029/92541/2660/426/20/
039980/20121029/92547/2660/4711/20/
039980/20121029/92550/2670/405/20/
039980/20121029/92559/2670/2647/20/
039980/20121029/92559/2675/2359/20/
039980/20121029/92601/2675/104/20/
039980/20121029/92602/2675/557/10/
039980/20121029/92608/2680/1009/20/
039980/20121029/92609/2675/3451/10/
039980/20121029/92612/2680/501/20/
039980/20121029/92617/2680/1243/20/
039980/20121029/92642/2675/84/10/
039980/20121029/92650/2675/96/10/
039980/20121029/92658/2675/101/10/
039980/20121029/92700/2675/437/20/
039980/20121029/92704/2675/660/20/
039980/20121029/92717/2670/172/20/
039980/20121029/92743/2660/107/10/
039980/20121029/92744/2660/1564/10/
039980/20121029/92750/2660/112/10/
039980/20121029/92750/2660/549/20/
039980/20121029/92752/2660/1339/20/
039980/20121029/92753/2660/662/10/
039980/20121029/92757/2660/204/20/
039980/20121029/92802/2660/700/10/
039980/20121029/92804/2660/463/20/
039980/20121029/92808/2660/201/20/
039980/20121029/92814/2660/101/20/
039980/20121029/92826/2650/964/10/
039980/20121029/92833/2650/105/10/
039980/20121029/92833/2650/213/10/
039980/20121029/92835/2650/2305/10/
039980/20121029/92836/2650/1321/10/
039980/20121029/92839/2650/1029/10/
039980/20121029/92848/2650/621/10/
039980/20121029/92853/2650/107/10/
039980/20121029/92859/2650/2044/10/
039980/20121029/92901/2650/902/10/
039980/20121029/92901/2650/480/10/
039980/20121029/92904/2650/103/10/
039980/20121029/92906/2650/406/20/
039980/20121029/92919/2650/693/10/
039980/20121029/92925/2650/1040/20/
039980/20121029/92926/2650/283/20/
039980/20121029/92931/2645/539/10/
039980/20121029/92936/2650/623/20/
039980/20121029/92944/2650/385/10/
039980/20121029/92947/2650/101/20/
039980/20121029/92947/2650/200/20/
039980/20121029/92949/2650/256/20/
039980/20121029/92958/2650/240/10/
039980/20121029/93012/2660/102/10/
039980/20121029/93019/2660/2923/20/
039980/20121029/93020/2660/2077/10/
039980/20121029/93020/2650/1347/10/
039980/20121029/93020/2645/976/10/
039980/20121029/93044/2645/161/10/
039980/20121029/93053/2650/740/10/
039980/20121029/93053/2645/1362/10/
039980/20121029/93155/2655/373/10/
039980/20121029/93218/2655/149/10/
039980/20121029/93231/2655/121/20/
039980/20121029/93234/2650/84/10/
039980/20121029/93234/2650/500/10/
039980/20121029/93237/2650/1063/10/
039980/20121029/93238/2650/621/10/
039980/20121029/93241/2650/84/10/
039980/20121029/93243/2650/611/10/
039980/20121029/93244/2645/5021/10/
039980/20121029/93247/2645/84/10/
039980/20121029/93248/2645/1632/10/
039980/20121029/93248/2640/389/10/
039980/20121029/93258/2640/670/10/
039980/20121029/93300/2640/100/10/
039980/20121029/93301/2645/100/20/
039980/20121029/93304/2645/307/20/
039980/20121029/93305/2645/443/10/
039980/20121029/93306/2640/2000/10/
039980/20121029/93308/2640/600/10/
039980/20121029/93309/2645/1557/20/
039980/20121029/93314/2645/240/20/
039980/20121029/93316/2645/102/10/
039980/20121029/93328/2650/1441/20/
039980/20121029/93336/2655/1000/20/
039980/20121029/93336/2655/1000/20/
039980/20121029/93337/2655/751/20/
039980/20121029/93346/2660/146/20/
039980/20121029/93347/2660/1000/20/
039980/20121029/93352/2660/158/20/
039980/20121029/93356/2660/148/20/
039980/20121029/93357/2660/566/20/
039980/20121029/93357/2670/438/20/
039980/20121029/93414/2660/164/10/
039980/20121029/93420/2655/210/10/
039980/20121029/93430/2655/228/10/
039980/20121029/93432/2660/290/20/
039980/20121029/93432/2660/256/10/
039980/20121029/93433/2655/1591/10/
039980/20121029/93433/2650/1169/10/
039980/20121029/93455/2645/120/10/
039980/20121029/93458/2645/1000/10/
039980/20121029/93507/2650/1240/20/
039980/20121029/93532/2660/1040/20/
039980/20121029/93546/2660/205/20/
039980/20121029/93616/2655/838/10/
039980/20121029/93643/2650/185/10/
039980/20121029/93647/2650/370/10/
039980/20121029/93652/2650/200/10/
039980/20121029/93657/2650/686/10/
039980/20121029/93657/2650/2432/10/
039980/20121029/93706/2650/83/20/
039980/20121029/93718/2650/291/10/
039980/20121029/93729/2650/97/10/
039980/20121029/93735/2650/376/20/
039980/20121029/93750/2650/626/10/
039980/20121029/93802/2650/100/10/
039980/20121029/93831/2650/2001/10/
039980/20121029/93837/2655/1217/20/
039980/20121029/93842/2655/500/20/
039980/20121029/93856/2650/84/10/
039980/20121029/93856/2645/2975/10/
039980/20121029/93909/2645/1560/10/
039980/20121029/93910/2645/835/10/
039980/20121029/93910/2640/767/10/
039980/20121029/93913/2645/5000/10/
039980/20121029/93913/2640/8664/10/
039980/20121029/93913/2635/6612/10/
039980/20121029/93924/2635/1180/10/
039980/20121029/93926/2635/700/10/
039980/20121029/93927/2635/271/10/
039980/20121029/93928/2635/4003/10/
039980/20121029/93930/2635/100/10/
039980/20121029/93936/2635/3502/10/
039980/20121029/93940/2640/82/20/
039980/20121029/93941/2630/9134/10/
039980/20121029/93942/2630/9097/10/
039980/20121029/93942/2625/1882/10/
039980/20121029/93942/2625/2220/10/
039980/20121029/93944/2620/3834/10/
039980/20121029/93946/2615/3703/10/
039980/20121029/93947/2610/132/10/
039980/20121029/93947/2610/9326/10/
039980/20121029/93948/2605/549/10/
039980/20121029/93950/2605/426/10/
039980/20121029/93951/2605/524/10/
039980/20121029/93954/2615/547/20/
039980/20121029/93959/2610/82/20/
039980/20121029/93959/2610/272/20/
039980/20121029/93959/2605/103/10/
039980/20121029/93959/2610/1005/20/
039980/20121029/94000/2610/410/20/
039980/20121029/94000/2605/308/10/
039980/20121029/94001/2610/473/20/
039980/20121029/94002/2610/216/20/
039980/20121029/94002/2605/1104/10/
039980/20121029/94002/2610/201/20/
039980/20121029/94003/2610/512/20/
039980/20121029/94004/2610/294/20/
039980/20121029/94005/2605/1428/10/
039980/20121029/94006/2605/1908/10/
039980/20121029/94007/2610/1001/20/
039980/20121029/94011/2620/81/20/
039980/20121029/94011/2615/508/10/
039980/20121029/94013/2610/238/10/
039980/20121029/94014/2620/1934/20/
039980/20121029/94015/2630/1027/20/
039980/20121029/94018/2630/88/20/
039980/20121029/94020/2620/1547/10/
039980/20121029/94024/2630/82/20/
039980/20121029/94025/2620/1004/10/
039980/20121029/94027/2630/346/20/
039980/20121029/94029/2625/833/20/
039980/20121029/94033/2625/82/20/
039980/20121029/94034/2625/105/20/
039980/20121029/94038/2630/81/20/
039980/20121029/94039/2630/5023/20/
039980/20121029/94041/2630/1266/20/
039980/20121029/94044/2625/125/10/
039980/20121029/94046/2625/534/20/
039980/20121029/94050/2625/81/20/
039980/20121029/94051/2620/90/10/
039980/20121029/94056/2615/467/10/
039980/20121029/94056/2615/501/10/
039980/20121029/94057/2620/1016/20/
039980/20121029/94058/2615/165/10/
039980/20121029/94102/2620/81/20/
039980/20121029/94103/2615/421/10/
039980/20121029/94108/2620/83/20/
039980/20121029/94110/2620/83/20/
039980/20121029/94114/2620/90/20/
039980/20121029/94117/2625/166/20/
039980/20121029/94118/2625/83/20/
039980/20121029/94119/2625/121/20/
039980/20121029/94122/2620/2038/10/
039980/20121029/94125/2630/82/20/
039980/20121029/94128/2630/136/20/
039980/20121029/94128/2620/2883/10/
039980/20121029/94133/2620/82/20/
039980/20121029/94135/2620/1200/20/
039980/20121029/94135/2620/3451/10/
039980/20121029/94135/2620/518/10/
039980/20121029/94136/2630/82/20/
039980/20121029/94138/2620/378/10/
039980/20121029/94140/2635/81/20/
039980/20121029/94144/2635/82/20/
039980/20121029/94149/2635/81/20/
039980/20121029/94152/2625/161/10/
039980/20121029/94156/2635/82/20/
039980/20121029/94158/2635/132/20/
039980/20121029/94203/2630/81/20/
039980/20121029/94204/2625/723/10/
039980/20121029/94204/2620/2872/10/
039980/20121029/94204/2615/4885/10/
039980/20121029/94209/2630/81/20/
039980/20121029/94215/2630/82/20/
039980/20121029/94222/2630/1173/20/
039980/20121029/94223/2630/615/20/
039980/20121029/94223/2635/1405/20/
039980/20121029/94226/2625/127/10/
039980/20121029/94226/2620/1908/10/
039980/20121029/94229/2635/145/20/
039980/20121029/94232/2635/135/20/
039980/20121029/94234/2635/103/20/
039980/20121029/94240/2635/81/20/
039980/20121029/94243/2625/115/10/
039980/20121029/94248/2635/83/20/
039980/20121029/94253/2635/81/20/
039980/20121029/94258/2635/81/20/
039980/20121029/94300/2625/2017/10/
039980/20121029/94305/2635/81/20/
039980/20121029/94306/2635/86/20/
039980/20121029/94312/2630/81/10/
039980/20121029/94314/2630/9464/10/
039980/20121029/94314/2625/556/10/
039980/20121029/94317/2625/121/10/
039980/20121029/94318/2625/871/10/
039980/20121029/94320/2625/224/20/
039980/20121029/94322/2625/518/20/
039980/20121029/94327/2620/289/10/
039980/20121029/94327/2615/96/10/
039980/20121029/94329/2615/128/10/
039980/20121029/94330/2615/510/10/
039980/20121029/94335/2615/1240/10/
039980/20121029/94338/2615/83/10/
039980/20121029/94340/2620/224/20/
039980/20121029/94342/2615/1124/10/
039980/20121029/94343/2615/662/10/
039980/20121029/94348/2615/83/20/
039980/20121029/94352/2615/85/20/
039980/20121029/94353/2615/310/20/
039980/20121029/94355/2610/121/10/
039980/20121029/94355/2615/854/20/
039980/20121029/94359/2620/81/20/
039980/20121029/94404/2620/81/20/
039980/20121029/94407/2620/2052/20/
039980/20121029/94411/2615/84/10/
039980/20121029/94413/2620/580/20/
039980/20121029/94418/2625/81/20/
039980/20121029/94422/2625/83/20/
039980/20121029/94427/2625/1177/20/
039980/20121029/94428/2625/220/20/
039980/20121029/94430/2635/82/20/
039980/20121029/94436/2635/81/20/
039980/20121029/94441/2635/84/20/
039980/20121029/94443/2635/116/20/
039980/20121029/94448/2635/81/20/
039980/20121029/94453/2635/81/20/
039980/20121029/94459/2630/82/20/
039980/20121029/94502/2625/81/10/
039980/20121029/94507/2625/81/10/
039980/20121029/94512/2630/861/20/
039980/20121029/94518/2630/83/20/
039980/20121029/94520/2630/788/20/
039980/20121029/94527/2635/83/20/
039980/20121029/94534/2635/81/20/
039980/20121029/94537/2625/1041/10/
039980/20121029/94542/2630/83/20/
039980/20121029/94549/2630/81/20/
039980/20121029/94553/2630/143/20/
039980/20121029/94556/2630/88/20/
039980/20121029/94558/2630/668/20/
039980/20121029/94601/2635/86/20/
039980/20121029/94604/2630/303/10/
039980/20121029/94605/2630/2961/10/
039980/20121029/94605/2625/195/10/
039980/20121029/94613/2635/81/20/
039980/20121029/94620/2635/81/20/
039980/20121029/94620/2635/105/20/
039980/20121029/94625/2630/81/10/
039980/20121029/94625/2635/198/20/
039980/20121029/94627/2625/81/10/
039980/20121029/94633/2630/82/20/
039980/20121029/94633/2630/465/20/
039980/20121029/94638/2630/81/10/
039980/20121029/94648/2635/83/20/
039980/20121029/94653/2635/81/20/
039980/20121029/94658/2635/82/20/
039980/20121029/94702/2635/81/20/
039980/20121029/94708/2635/81/20/
039980/20121029/94713/2630/1272/10/
039980/20121029/94713/2625/1825/10/
039980/20121029/94718/2635/1181/20/
039980/20121029/94726/2635/390/10/
039980/20121029/94729/2635/145/20/
039980/20121029/94736/2635/81/20/
039980/20121029/94745/2620/81/10/
039980/20121029/94754/2685/1178/20/
039980/20121029/94754/2690/2909/20/
039980/20121029/94800/2690/340/20/
039980/20121029/94803/2690/137/20/
039980/20121029/94805/2690/679/20/
039980/20121029/94808/2685/877/10/
039980/20121029/94813/2680/81/20/
039980/20121029/94815/2680/551/20/
039980/20121029/94816/2680/388/20/
039980/20121029/94816/2680/1277/20/
039980/20121029/94816/2685/3728/20/
039980/20121029/94816/2680/379/10/
039980/20121029/94817/2680/384/20/
039980/20121029/94817/2680/125/20/
039980/20121029/94817/2685/255/20/
039980/20121029/94817/2680/380/10/
039980/20121029/94821/2680/169/20/
039980/20121029/94826/2670/81/10/
039980/20121029/94827/2670/3087/10/
039980/20121029/94828/2670/643/20/
039980/20121029/94834/2665/527/10/
039980/20121029/94835/2670/3379/20/
039980/20121029/94907/2670/346/20/
039980/20121029/95001/2655/195/10/
039980/20121029/95021/2655/3216/10/
039980/20121029/95039/2655/374/20/
039980/20121029/95057/2665/1284/20/
039980/20121029/95110/2665/310/10/
039980/20121029/95156/2655/1006/10/
039980/20121029/95249/2655/1486/10/
039980/20121029/95249/2650/2659/10/
039980/20121029/95259/2650/600/10/
039980/20121029/95304/2650/1888/10/
039980/20121029/95304/2645/722/10/
039980/20121029/95310/2645/100/10/
039980/20121029/95315/2645/236/10/
039980/20121029/95315/2645/400/10/
039980/20121029/95352/2645/610/10/
039980/20121029/95352/2640/3061/10/
039980/20121029/95354/2640/600/20/
039980/20121029/95355/2640/766/20/
039980/20121029/95408/2645/163/20/
039980/20121029/95413/2650/500/20/
039980/20121029/95421/2645/600/10/
039980/20121029/95426/2640/2155/10/
039980/20121029/95526/2650/653/20/
039980/20121029/95526/2655/1255/20/
039980/20121029/95526/2660/135/20/
039980/20121029/95638/2655/101/20/
039980/20121029/95726/2650/452/10/
039980/20121029/95807/2655/357/20/
039980/20121029/95813/2655/500/20/
039980/20121029/95841/2655/1010/20/
039980/20121029/95846/2655/501/20/
039980/20121029/95852/2655/200/20/
039980/20121029/95901/2650/200/10/
039980/20121029/95905/2650/1000/10/
039980/20121029/95908/2650/100/10/
039980/20121029/95909/2645/349/10/
039980/20121029/95910/2650/300/20/
039980/20121029/95923/2650/1000/20/
039980/20121029/95925/2650/550/20/
039980/20121029/95934/2645/1173/10/
039980/20121029/95934/2645/310/20/
039980/20121029/95951/2640/130/10/
039980/20121029/100006/2640/1000/10/
039980/20121029/100021/2640/200/10/
039980/20121029/100036/2645/384/20/
039980/20121029/100146/2640/602/10/
039980/20121029/100146/2635/899/10/
039980/20121029/100221/2635/420/10/
039980/20121029/100234/2640/830/20/
039980/20121029/100243/2640/146/10/
039980/20121029/100258/2645/124/20/
039980/20121029/100320/2640/1205/10/
039980/20121029/100355/2640/803/10/
039980/20121029/100504/2640/1501/10/
039980/20121029/100508/2640/510/20/
039980/20121029/100549/2635/100/10/
039980/20121029/100615/2635/1968/10/
039980/20121029/100629/2635/1220/10/
039980/20121029/100630/2630/400/10/
039980/20121029/100646/2630/477/10/
039980/20121029/100649/2630/1950/10/
039980/20121029/100650/2630/126/10/
039980/20121029/100705/2630/1147/10/
039980/20121029/100721/2630/100/10/
039980/20121029/100724/2630/100/10/
039980/20121029/100737/2630/468/10/
039980/20121029/100743/2630/290/10/
039980/20121029/100821/2630/730/10/
039980/20121029/100824/2630/100/10/
039980/20121029/101001/2635/202/10/
039980/20121029/101001/2630/3632/10/
039980/20121029/101001/2625/1168/10/
039980/20121029/101124/2640/193/20/
039980/20121029/101132/2640/1000/20/
039980/20121029/101136/2640/1512/20/
039980/20121029/101149/2640/416/20/
039980/20121029/101204/2640/202/10/
039980/20121029/101231/2645/3342/20/
039980/20121029/101247/2645/361/20/
039980/20121029/101247/2650/390/20/
039980/20121029/101307/2655/279/20/
039980/20121029/101317/2655/2273/20/
039980/20121029/101320/2660/100/20/
039980/20121029/101321/2660/2216/20/
039980/20121029/101324/2660/133/20/
039980/20121029/101326/2660/1000/20/
039980/20121029/101338/2660/812/20/
039980/20121029/101345/2660/143/10/
039980/20121029/101345/2660/426/20/
039980/20121029/101345/2665/174/20/
039980/20121029/101348/2665/803/20/
039980/20121029/101350/2665/1012/10/
039980/20121029/101351/2665/186/10/
039980/20121029/101354/2665/564/20/
039980/20121029/101404/2665/149/20/
039980/20121029/101407/2665/533/20/
039980/20121029/101411/2665/1000/10/
039980/20121029/101428/2665/89/20/
039980/20121029/101438/2665/437/20/
039980/20121029/101440/2665/311/10/
039980/20121029/101440/2660/1145/10/
039980/20121029/101452/2660/220/20/
039980/20121029/101501/2660/120/20/
039980/20121029/101518/2660/230/20/
039980/20121029/101532/2660/150/20/
039980/20121029/101540/2665/621/20/
039980/20121029/101540/2670/89/20/
039980/20121029/101604/2670/150/20/
039980/20121029/101617/2670/928/20/
039980/20121029/101635/2660/324/10/
039980/20121029/101635/2655/2749/10/
039980/20121029/101646/2670/1002/20/
039980/20121029/101701/2665/501/20/
039980/20121029/101705/2665/280/10/
039980/20121029/101710/2665/504/20/
039980/20121029/101721/2660/513/10/
039980/20121029/101742/2655/2026/10/
039980/20121029/101821/2660/136/20/
039980/20121029/101828/2660/121/20/
039980/20121029/101847/2660/207/20/
039980/20121029/101847/2665/260/20/
039980/20121029/101918/2665/89/20/
039980/20121029/101923/2670/115/20/
039980/20121029/101925/2665/201/10/
039980/20121029/101927/2665/268/10/
039980/20121029/101930/2670/81/20/
039980/20121029/102009/2665/929/20/
039980/20121029/102041/2660/1167/10/
039980/20121029/102045/2655/693/10/
039980/20121029/102057/2655/101/20/
039980/20121029/102100/2650/140/10/
039980/20121029/102108/2655/207/20/
039980/20121029/102108/2660/93/20/
039980/20121029/102204/2660/1051/20/
039980/20121029/102223/2650/110/10/
039980/20121029/102228/2660/1010/20/
039980/20121029/102237/2660/290/20/
039980/20121029/102300/2665/2429/20/
039980/20121029/102311/2665/369/20/
039980/20121029/102317/2670/383/20/
039980/20121029/102346/2670/4031/20/
039980/20121029/102355/2670/1101/20/
039980/20121029/102403/2670/457/20/
039980/20121029/102410/2675/104/20/
039980/20121029/102637/2670/218/20/
039980/20121029/102848/2655/425/10/
039980/20121029/102854/2655/698/20/
039980/20121029/102905/2655/2487/20/
039980/20121029/102953/2655/2008/10/
039980/20121029/103039/2655/1553/10/
039980/20121029/103119/2660/126/20/
039980/20121029/103213/2660/365/20/
039980/20121029/103227/2660/100/20/
039980/20121029/103239/2660/97/20/
039980/20121029/103414/2660/368/10/
039980/20121029/103504/2655/716/10/
039980/20121029/103555/2655/1000/20/
039980/20121029/103601/2655/100/20/
039980/20121029/103627/2650/640/10/
039980/20121029/103632/2650/801/10/
039980/20121029/103814/2655/2183/20/
039980/20121029/103822/2660/853/20/
039980/20121029/103822/2665/3839/20/
039980/20121029/103822/2670/1025/20/
039980/20121029/103836/2670/312/20/
039980/20121029/103838/2670/100/20/
039980/20121029/103843/2670/100/20/
039980/20121029/103851/2670/1032/20/
039980/20121029/103901/2670/1025/20/
039980/20121029/103909/2670/829/20/
039980/20121029/103909/2675/1651/20/
039980/20121029/103918/2675/428/10/
039980/20121029/103919/2680/1128/20/
039980/20121029/103925/2680/1036/20/
039980/20121029/103926/2680/408/10/
039980/20121029/103926/2680/582/10/
039980/20121029/103928/2675/158/10/
039980/20121029/103938/2675/87/20/
039980/20121029/103957/2680/117/20/
039980/20121029/103958/2680/98/20/
039980/20121029/104009/2680/82/20/
039980/20121029/104009/2680/354/20/
039980/20121029/104016/2680/88/20/
039980/20121029/104025/2680/533/20/
039980/20121029/104026/2680/270/20/
039980/20121029/104029/2685/81/20/
039980/20121029/104036/2685/536/20/
039980/20121029/104042/2685/5985/20/
039980/20121029/104045/2685/119/10/
039980/20121029/104049/2685/134/20/
039980/20121029/104049/2685/2558/20/
039980/20121029/104050/2685/223/10/
039980/20121029/104053/2685/1760/10/
039980/20121029/104054/2685/287/20/
039980/20121029/104054/2690/727/20/
039980/20121029/104059/2685/87/20/
039980/20121029/104102/2685/85/20/
039980/20121029/104103/2685/102/20/
039980/20121029/104106/2685/86/20/
039980/20121029/104108/2685/815/20/
039980/20121029/104113/2690/81/20/
039980/20121029/104118/2685/666/20/
039980/20121029/104119/2685/203/20/
039980/20121029/104120/2685/100/20/
039980/20121029/104121/2685/261/10/
039980/20121029/104123/2690/3440/20/
039980/20121029/104124/2685/99/10/
039980/20121029/104125/2685/913/20/
039980/20121029/104125/2690/1763/20/
039980/20121029/104129/2690/82/20/
039980/20121029/104132/2690/86/20/
039980/20121029/104133/2685/1014/10/
039980/20121029/104134/2685/115/10/
039980/20121029/104134/2680/5618/10/
039980/20121029/104137/2690/83/20/
039980/20121029/104138/2685/1002/10/
039980/20121029/104140/2685/2413/10/
039980/20121029/104143/2685/165/20/
039980/20121029/104147/2685/109/20/
039980/20121029/104149/2685/1010/20/
039980/20121029/104151/2685/120/20/
039980/20121029/104153/2685/544/20/
039980/20121029/104156/2685/90/20/
039980/20121029/104156/2680/321/10/
039980/20121029/104158/2675/3992/10/
039980/20121029/104208/2675/713/20/
039980/20121029/104239/2675/86/20/
039980/20121029/104245/2680/1073/20/
039980/20121029/104252/2675/215/10/
039980/20121029/104318/2680/336/20/
039980/20121029/104327/2670/1006/10/
039980/20121029/104331/2680/201/20/
039980/20121029/104345/2675/1514/10/
039980/20121029/104345/2670/1049/10/
039980/20121029/104428/2675/2320/10/
039980/20121029/104436/2675/788/20/
039980/20121029/104440/2675/281/10/
039980/20121029/104452/2680/494/20/
039980/20121029/104454/2680/506/20/
039980/20121029/104454/2680/1654/10/
039980/20121029/104504/2685/379/20/
039980/20121029/104507/2680/256/10/
039980/20121029/104509/2680/254/20/
039980/20121029/104534/2680/217/10/
039980/20121029/104539/2680/800/20/
039980/20121029/104541/2680/947/10/
039980/20121029/104543/2680/1053/20/
039980/20121029/104543/2685/1948/20/
039980/20121029/104603/2680/1058/10/
039980/20121029/104605/2680/1918/10/
039980/20121029/104605/2680/938/10/
039980/20121029/104626/2680/317/20/
039980/20121029/104627/2680/504/20/
039980/20121029/104629/2680/390/20/
039980/20121029/104637/2680/1102/20/
039980/20121029/104639/2680/150/10/
039980/20121029/104640/2680/306/10/
039980/20121029/104640/2675/3080/10/
039980/20121029/104647/2675/1001/20/
039980/20121029/104658/2670/2184/10/
039980/20121029/104658/2665/3976/10/
039980/20121029/104659/2665/1677/20/
039980/20121029/104703/2665/100/20/
039980/20121029/104706/2665/160/20/
039980/20121029/104708/2665/110/20/
039980/20121029/104709/2665/977/20/
039980/20121029/104711/2675/548/20/
039980/20121029/104723/2665/374/10/
039980/20121029/104756/2670/230/10/
039980/20121029/104801/2670/232/10/
039980/20121029/104824/2665/3809/10/
039980/20121029/104851/2665/94/20/
039980/20121029/104907/2665/97/20/
039980/20121029/104920/2665/108/10/
039980/20121029/104938/2665/202/20/
039980/20121029/105031/2660/368/10/
039980/20121029/105033/2660/1000/10/
039980/20121029/105128/2660/97/20/
039980/20121029/105143/2660/300/20/
039980/20121029/105402/2660/413/10/
039980/20121029/105503/2660/140/10/
039980/20121029/105613/2665/157/20/
039980/20121029/105633/2660/1004/10/
039980/20121029/105648/2660/400/10/
039980/20121029/105749/2660/595/20/
039980/20121029/105845/2660/357/20/
039980/20121029/105951/2665/234/20/
039980/20121029/110012/2660/1011/10/
039980/20121029/110023/2660/1000/10/
039980/20121029/110038/2660/562/10/
039980/20121029/110112/2660/962/10/
039980/20121029/110118/2660/2200/10/
039980/20121029/110118/2660/290/10/
039980/20121029/110118/2655/3662/10/
039980/20121029/110135/2650/817/10/
039980/20121029/110141/2650/3043/10/
039980/20121029/110146/2650/592/10/
039980/20121029/110148/2650/3582/10/
039980/20121029/110149/2650/1216/10/
039980/20121029/110200/2650/153/10/
039980/20121029/110202/2650/1055/10/
039980/20121029/110211/2650/1356/20/
039980/20121029/110213/2650/654/10/
039980/20121029/110213/2645/3353/10/
039980/20121029/110220/2645/569/10/
039980/20121029/110320/2660/688/20/
039980/20121029/110512/2660/122/20/
039980/20121029/110512/2665/1899/20/
039980/20121029/110533/2665/479/20/
039980/20121029/110544/2670/1317/20/
039980/20121029/110545/2670/2620/20/
039980/20121029/110604/2670/1053/10/
039980/20121029/110606/2670/298/10/
039980/20121029/110611/2670/1000/20/
039980/20121029/110612/2670/702/20/
039980/20121029/110639/2670/299/10/
039980/20121029/110721/2665/1551/10/
039980/20121029/110725/2665/400/20/
039980/20121029/110837/2660/777/10/
039980/20121029/110926/2660/1275/10/
039980/20121029/110947/2660/2327/10/
039980/20121029/110951/2660/598/20/
039980/20121029/111059/2665/89/20/
039980/20121029/111102/2665/638/20/
039980/20121029/111106/2665/87/20/
039980/20121029/111113/2665/169/20/
039980/20121029/111123/2670/1036/20/
039980/20121029/111125/2670/196/20/
039980/20121029/111131/2670/516/20/
039980/20121029/111132/2670/114/20/
039980/20121029/111138/2670/1025/20/
039980/20121029/111144/2675/777/20/
039980/20121029/111145/2675/1121/20/
039980/20121029/111145/2675/418/20/
039980/20121029/111157/2680/154/20/
039980/20121029/111203/2680/1021/20/
039980/20121029/111212/2680/1722/20/
039980/20121029/111215/2680/428/20/
039980/20121029/111222/2680/137/20/
039980/20121029/111227/2680/635/20/
039980/20121029/111227/2685/8038/20/
039980/20121029/111231/2685/515/20/
039980/20121029/111233/2680/1004/20/
039980/20121029/111233/2685/133/20/
039980/20121029/111235/2685/1206/20/
039980/20121029/111245/2685/1061/20/
039980/20121029/111249/2685/358/20/
039980/20121029/111257/2680/1036/10/
039980/20121029/111309/2680/373/20/
039980/20121029/111314/2680/118/20/
039980/20121029/111324/2680/1042/20/
039980/20121029/111327/2680/809/20/
039980/20121029/111338/2680/1998/20/
039980/20121029/111340/2680/462/10/
039980/20121029/111349/2685/644/20/
039980/20121029/111350/2685/103/20/
039980/20121029/111353/2685/1013/20/
039980/20121029/111404/2680/4611/10/
039980/20121029/111405/2680/5932/10/
039980/20121029/111420/2680/1531/20/
039980/20121029/111421/2680/1244/10/
039980/20121029/111421/2675/756/10/
039980/20121029/111432/2680/162/20/
039980/20121029/111434/2680/1256/20/
039980/20121029/111439/2680/1255/10/
039980/20121029/111440/2680/198/20/
039980/20121029/111448/2680/502/20/
039980/20121029/111455/2675/891/10/
039980/20121029/111516/2675/121/20/
039980/20121029/111535/2680/81/20/
039980/20121029/111536/2680/891/20/
039980/20121029/111553/2675/155/10/
039980/20121029/111606/2675/83/10/
039980/20121029/111613/2675/541/10/
039980/20121029/111623/2670/100/10/
039980/20121029/111623/2675/487/20/
039980/20121029/111637/2675/211/10/
039980/20121029/111652/2675/442/10/
039980/20121029/111700/2670/110/10/
039980/20121029/111701/2670/890/10/
039980/20121029/111705/2670/100/20/
039980/20121029/111712/2670/100/20/
039980/20121029/111738/2670/2019/10/
039980/20121029/111758/2670/81/10/
039980/20121029/111801/2670/100/20/
039980/20121029/111806/2670/200/20/
039980/20121029/111838/2670/150/20/
039980/20121029/111917/2670/135/20/
039980/20121029/111924/2670/534/10/
039980/20121029/111934/2670/431/10/
039980/20121029/111938/2670/569/20/
039980/20121029/111944/2670/470/10/
039980/20121029/111949/2670/530/20/
039980/20121029/111949/2675/470/20/
039980/20121029/112006/2670/130/10/
039980/20121029/112017/2665/150/10/
039980/20121029/112042/2665/1685/10/
039980/20121029/112115/2665/318/10/
039980/20121029/112121/2665/1000/10/
039980/20121029/112155/2665/1176/10/
039980/20121029/112202/2665/84/10/
039980/20121029/112202/2665/216/20/
039980/20121029/112206/2660/677/10/
039980/20121029/112209/2660/598/10/
039980/20121029/112212/2660/385/10/
039980/20121029/112215/2660/210/20/
039980/20121029/112215/2660/157/20/
039980/20121029/112222/2660/102/20/
039980/20121029/112223/2660/98/20/
039980/20121029/112230/2660/300/10/
039980/20121029/112246/2660/537/10/
039980/20121029/112313/2655/2665/10/
039980/20121029/112346/2660/149/10/
039980/20121029/112346/2655/6088/10/
039980/20121029/112354/2655/148/20/
039980/20121029/112359/2650/1674/10/
039980/20121029/112402/2655/200/20/
039980/20121029/112417/2655/2003/20/
039980/20121029/112418/2655/120/20/
039980/20121029/112611/2655/162/10/
039980/20121029/112639/2665/5000/20/
039980/20121029/112729/2665/3050/20/
039980/20121029/112743/2665/100/20/
039980/20121029/112752/2665/498/20/
039980/20121029/112802/2665/930/10/
039980/20121029/112802/2660/600/10/
039980/20121029/112802/2655/1249/10/
039980/20121029/112836/2660/401/10/
039980/20121029/112840/2660/105/20/
039980/20121029/112850/2660/300/20/
039980/20121029/112850/2660/190/10/
039980/20121029/112917/2665/100/20/
039980/20121029/112923/2660/504/10/
039980/20121029/112925/2660/532/10/
039980/20121029/112954/2660/300/10/
039980/20121029/113036/2660/202/10/
039980/20121029/113046/2660/302/10/
039980/20121029/113146/2660/245/10/
039980/20121029/113231/2655/100/10/
039980/20121029/113243/2655/1900/10/
039980/20121029/113256/2655/2000/10/
039980/20121029/113315/2660/629/20/
039980/20121029/113316/2660/100/20/
039980/20121029/113319/2660/100/20/
039980/20121029/113325/2660/100/20/
039980/20121029/113330/2655/2010/10/
039980/20121029/113441/2660/221/20/
039980/20121029/113637/2665/1290/20/
039980/20121029/113653/2665/1684/20/
039980/20121029/113719/2665/945/10/
039980/20121029/113729/2665/3000/20/
039980/20121029/113832/2665/2056/10/
039980/20121029/113838/2665/383/10/
039980/20121029/113900/2670/1005/20/
039980/20121029/113915/2670/338/20/
039980/20121029/113931/2665/100/10/
039980/20121029/113952/2665/723/10/
039980/20121029/114020/2675/3090/20/
039980/20121029/114020/2680/1920/20/
039980/20121029/114029/2680/2000/20/
039980/20121029/114121/2680/3648/20/
039980/20121029/114127/2685/501/20/
039980/20121029/114128/2685/500/20/
039980/20121029/114129/2685/1000/20/
039980/20121029/114130/2685/2000/20/
039980/20121029/114137/2685/837/20/
039980/20121029/114153/2685/173/20/
039980/20121029/114159/2680/103/10/
039980/20121029/114202/2680/200/10/
039980/20121029/114203/2680/438/10/
039980/20121029/114212/2680/721/10/
039980/20121029/114214/2680/200/20/
039980/20121029/114217/2680/200/20/
039980/20121029/114236/2680/500/20/
039980/20121029/114308/2675/3708/10/
039980/20121029/114321/2675/102/10/
039980/20121029/114329/2675/700/10/
039980/20121029/114333/2675/403/10/
039980/20121029/114336/2675/329/10/
039980/20121029/114339/2675/200/20/
039980/20121029/114342/2675/180/20/
039980/20121029/114343/2675/204/20/
039980/20121029/114344/2675/200/20/
039980/20121029/114420/2675/120/20/
039980/20121029/114428/2675/98/20/
039980/20121029/114519/2675/501/20/
039980/20121029/114530/2675/300/20/
039980/20121029/114534/2675/682/20/
039980/20121029/114631/2675/286/20/
039980/20121029/114635/2675/202/10/
039980/20121029/114738/2675/445/10/
039980/20121029/114750/2675/98/20/
039980/20121029/114831/2675/99/10/
039980/20121029/114902/2675/401/20/
039980/20121029/114912/2675/621/10/
039980/20121029/114915/2675/185/20/
039980/20121029/114921/2675/93/20/
039980/20121029/114958/2675/108/10/
039980/20121029/115014/2675/391/20/
039980/20121029/115031/2675/1123/10/
039980/20121029/115045/2675/1300/20/
039980/20121029/115047/2675/500/20/
039980/20121029/115110/2675/291/20/
039980/20121029/115128/2680/485/20/
039980/20121029/115128/2675/601/10/
039980/20121029/115152/2675/160/20/
039980/20121029/115205/2675/239/20/
039980/20121029/115209/2675/761/10/
039980/20121029/115226/2675/263/20/
039980/20121029/115230/2675/148/10/
039980/20121029/115312/2670/207/10/
039980/20121029/115344/2670/3383/10/
039980/20121029/115432/2670/194/10/
039980/20121029/115435/2670/405/10/
039980/20121029/115533/2670/330/10/
039980/20121029/115652/2670/1699/10/
039980/20121029/115705/2665/193/10/
039980/20121029/115731/2665/369/10/
039980/20121029/115744/2665/500/10/
039980/20121029/115821/2665/1000/10/
039980/20121029/115835/2665/930/10/
039980/20121029/115835/2660/2685/10/
039980/20121029/115841/2660/988/10/
039980/20121029/115921/2660/1000/10/
039980/20121029/115929/2670/2363/20/
039980/20121029/115936/2670/2639/10/
039980/20121029/120005/2670/100/20/
039980/20121029/120008/2670/500/20/
039980/20121029/120207/2670/501/20/
039980/20121029/120312/2670/992/10/
039980/20121029/120322/2670/248/10/
039980/20121029/120334/2675/1888/20/
039980/20121029/120345/2675/315/20/
039980/20121029/120349/2675/1000/10/
039980/20121029/120350/2675/287/10/
039980/20121029/120356/2675/1000/20/
039980/20121029/120408/2675/712/20/
039980/20121029/120411/2675/700/20/
039980/20121029/120427/2675/100/20/
039980/20121029/120429/2675/1000/20/
039980/20121029/120449/2675/497/20/
039980/20121029/120608/2670/1040/10/
039980/20121029/120631/2675/2263/20/
039980/20121029/120633/2675/889/20/
039980/20121029/120638/2675/700/20/
039980/20121029/120642/2675/300/20/
039980/20121029/120650/2675/3340/10/
039980/20121029/120656/2670/500/10/
039980/20121029/120740/2670/84/10/
039980/20121029/120745/2675/4322/20/
039980/20121029/120753/2675/369/20/
039980/20121029/120817/2675/524/10/
039980/20121029/120823/2675/96/20/
039980/20121029/120836/2675/102/20/
039980/20121029/120910/2675/120/20/
039980/20121029/120916/2675/89/20/
039980/20121029/120954/2675/2453/10/
039980/20121029/120958/2675/100/10/
039980/20121029/121051/2680/89/20/
039980/20121029/121053/2680/1001/20/
039980/20121029/121120/2675/488/10/
039980/20121029/121223/2680/875/20/
039980/20121029/121253/2675/2974/10/
039980/20121029/121253/2670/85/10/
039980/20121029/121313/2675/726/20/
039980/20121029/121428/2680/102/20/
039980/20121029/121528/2675/631/10/
039980/20121029/121555/2680/1980/20/
039980/20121029/121636/2680/106/20/
039980/20121029/121816/2680/1590/20/
039980/20121029/121823/2680/1128/20/
039980/20121029/121823/2680/1117/20/
039980/20121029/121829/2680/5130/20/
039980/20121029/121913/2685/648/20/
039980/20121029/121926/2680/260/10/
039980/20121029/121926/2685/2418/20/
039980/20121029/121936/2685/100/20/
039980/20121029/121959/2685/591/20/
039980/20121029/122000/2685/400/20/
039980/20121029/122001/2685/800/20/
039980/20121029/122002/2685/5000/20/
039980/20121029/122003/2685/306/20/
039980/20121029/122026/2690/494/20/
039980/20121029/122029/2690/200/20/
039980/20121029/122030/2690/400/20/
039980/20121029/122035/2685/101/10/
039980/20121029/122043/2685/103/10/
039980/20121029/122100/2685/109/10/
039980/20121029/122113/2690/319/20/
039980/20121029/122130/2690/84/20/
039980/20121029/122152/2690/4072/20/
039980/20121029/122154/2690/445/20/
039980/20121029/122155/2690/4476/20/
039980/20121029/122156/2690/162/20/
039980/20121029/122156/2690/1007/20/
039980/20121029/122157/2690/252/20/
039980/20121029/122157/2690/148/20/
039980/20121029/122157/2690/1000/20/
039980/20121029/122157/2690/1819/20/
039980/20121029/122157/2690/177/20/
039980/20121029/122158/2690/2002/20/
039980/20121029/122158/2690/980/20/
039980/20121029/122158/2695/416/20/
039980/20121029/122158/2690/702/10/
039980/20121029/122201/2695/131/20/
039980/20121029/122204/2695/1030/20/
039980/20121029/122204/2695/349/20/
039980/20121029/122205/2695/5000/20/
039980/20121029/122206/2695/587/20/
039980/20121029/122206/2695/1000/20/
039980/20121029/122206/2695/1012/20/
039980/20121029/122207/2695/105/20/
039980/20121029/122207/2695/2119/20/
039980/20121029/122207/2700/881/20/
039980/20121029/122209/2700/236/20/
039980/20121029/122212/2695/312/10/
039980/20121029/122213/2700/4510/20/
039980/20121029/122217/2700/83/20/
039980/20121029/122220/2700/228/20/
039980/20121029/122220/2700/5006/20/
039980/20121029/122221/2700/2122/20/
039980/20121029/122223/2700/339/20/
039980/20121029/122225/2700/1019/20/
039980/20121029/122227/2700/82/20/
039980/20121029/122228/2700/868/20/
039980/20121029/122229/2700/135/20/
039980/20121029/122235/2700/369/20/
039980/20121029/122237/2700/2043/20/
039980/20121029/122238/2700/423/20/
039980/20121029/122238/2700/97/20/
039980/20121029/122240/2705/330/20/
039980/20121029/122246/2705/81/20/
039980/20121029/122248/2705/216/20/
039980/20121029/122252/2705/888/20/
039980/20121029/122254/2705/214/20/
039980/20121029/122256/2705/226/20/
039980/20121029/122259/2705/328/20/
039980/20121029/122259/2705/234/20/
039980/20121029/122302/2700/1015/10/
039980/20121029/122303/2705/92/20/
039980/20121029/122304/2700/2005/10/
039980/20121029/122304/2700/4429/10/
039980/20121029/122308/2700/1123/20/
039980/20121029/122308/2705/5643/20/
039980/20121029/122311/2700/932/20/
039980/20121029/122311/2700/148/10/
039980/20121029/122312/2700/307/20/
039980/20121029/122314/2700/111/20/
039980/20121029/122316/2695/1206/10/
039980/20121029/122316/2700/2038/20/
039980/20121029/122317/2695/565/10/
039980/20121029/122318/2695/115/20/
039980/20121029/122318/2690/2004/10/
039980/20121029/122319/2695/224/20/
039980/20121029/122322/2695/387/10/
039980/20121029/122331/2700/1090/20/
039980/20121029/122332/2700/1003/20/
039980/20121029/122333/2700/137/20/
039980/20121029/122342/2700/565/20/
039980/20121029/122343/2695/402/10/
039980/20121029/122344/2695/914/10/
039980/20121029/122347/2700/84/20/
039980/20121029/122348/2700/1010/20/
039980/20121029/122350/2700/1000/20/
039980/20121029/122352/2700/1519/20/
039980/20121029/122358/2700/102/20/
039980/20121029/122359/2700/181/20/
039980/20121029/122400/2700/705/20/
039980/20121029/122410/2695/1991/10/
039980/20121029/122411/2695/3808/10/
039980/20121029/122419/2695/194/20/
039980/20121029/122425/2695/889/10/
039980/20121029/122425/2690/169/10/
039980/20121029/122448/2695/843/10/
039980/20121029/122501/2695/100/20/
039980/20121029/122501/2695/751/20/
039980/20121029/122504/2695/321/20/
039980/20121029/122513/2700/4103/20/
039980/20121029/122514/2700/1033/10/
039980/20121029/122516/2700/1846/10/
039980/20121029/122518/2700/1000/10/
039980/20121029/122521/2700/2019/10/
039980/20121029/122539/2695/835/10/
039980/20121029/122547/2695/301/10/
039980/20121029/122551/2695/602/10/
039980/20121029/122552/2695/589/20/
039980/20121029/122606/2700/381/20/
039980/20121029/122615/2700/2865/20/
039980/20121029/122620/2700/1000/10/
039980/20121029/122621/2700/136/10/
039980/20121029/122626/2700/1364/20/
039980/20121029/122628/2700/293/10/
039980/20121029/122630/2700/407/20/
039980/20121029/122633/2700/200/10/
039980/20121029/122636/2700/200/10/
039980/20121029/122640/2700/258/20/
039980/20121029/122649/2695/1500/10/
039980/20121029/122649/2695/908/10/
039980/20121029/122703/2695/532/20/
039980/20121029/122708/2695/506/20/
039980/20121029/122713/2695/1000/20/
039980/20121029/122809/2690/1240/10/
039980/20121029/122811/2690/1002/10/
039980/20121029/122814/2690/136/10/
039980/20121029/122816/2690/3000/10/
039980/20121029/122816/2690/127/10/
039980/20121029/122816/2685/630/10/
039980/20121029/122816/2680/1243/10/
039980/20121029/122816/2680/1200/10/
039980/20121029/122817/2680/200/10/
039980/20121029/122927/2690/2976/20/
039980/20121029/122956/2685/221/10/
039980/20121029/123016/2695/2978/20/
039980/20121029/123028/2700/757/20/
039980/20121029/123036/2700/756/20/
039980/20121029/123101/2695/1000/10/
039980/20121029/123112/2700/2900/20/
039980/20121029/123114/2700/179/20/
039980/20121029/123120/2695/500/10/
039980/20121029/123127/2700/370/20/
039980/20121029/123159/2700/631/20/
039980/20121029/123210/2695/2000/10/
039980/20121029/123236/2695/1071/10/
039980/20121029/123241/2695/484/10/
039980/20121029/123250/2695/473/10/
039980/20121029/123400/2695/548/20/
039980/20121029/123405/2695/352/20/
039980/20121029/123541/2695/186/20/
039980/20121029/123554/2695/520/20/
039980/20121029/123613/2690/2020/10/
039980/20121029/123615/2690/450/10/
039980/20121029/123623/2690/5000/10/
039980/20121029/123623/2690/2658/10/
039980/20121029/123628/2685/411/10/
039980/20121029/123645/2685/601/10/
039980/20121029/123655/2680/1429/10/
039980/20121029/123710/2680/166/10/
039980/20121029/123735/2680/2450/10/
039980/20121029/123735/2685/300/20/
039980/20121029/123755/2680/1030/10/
039980/20121029/123758/2680/410/20/
039980/20121029/123805/2680/400/10/
039980/20121029/123824/2685/241/20/
039980/20121029/123840/2685/100/20/
039980/20121029/123934/2680/227/10/
039980/20121029/123938/2680/788/20/
039980/20121029/123951/2680/3512/10/
039980/20121029/123959/2680/488/20/
039980/20121029/124030/2680/312/10/
039980/20121029/124121/2680/422/10/
039980/20121029/124134/2680/250/10/
039980/20121029/124138/2680/1500/10/
039980/20121029/124254/2680/130/10/
039980/20121029/124318/2680/500/20/
039980/20121029/124442/2680/110/20/
039980/20121029/124515/2680/101/20/
039980/20121029/124518/2680/123/10/
039980/20121029/124519/2680/500/10/
039980/20121029/124532/2680/278/10/
039980/20121029/124559/2675/4042/10/
039980/20121029/124611/2675/1965/20/
039980/20121029/124611/2680/350/20/
039980/20121029/124645/2680/550/20/
039980/20121029/124652/2680/150/20/
039980/20121029/124710/2675/121/10/
039980/20121029/124730/2670/151/10/
039980/20121029/124735/2675/138/20/
039980/20121029/124812/2675/92/20/
039980/20121029/124826/2675/182/20/
039980/20121029/124830/2670/100/10/
039980/20121029/124848/2675/833/20/
039980/20121029/124936/2675/1702/20/
039980/20121029/124953/2675/313/10/
039980/20121029/125005/2670/2030/10/
039980/20121029/125012/2670/2223/20/
039980/20121029/125016/2670/100/20/
039980/20121029/125019/2670/1647/20/
039980/20121029/125023/2670/353/20/
039980/20121029/125026/2665/300/10/
039980/20121029/125033/2670/1075/20/
039980/20121029/125034/2670/737/20/
039980/20121029/125035/2670/301/10/
039980/20121029/125119/2670/510/10/
039980/20121029/125208/2680/2533/20/
039980/20121029/125218/2680/92/20/
039980/20121029/125233/2685/7133/20/
039980/20121029/125402/2685/1060/20/
039980/20121029/125413/2685/941/20/
039980/20121029/125415/2685/1978/10/
039980/20121029/125419/2685/100/20/
039980/20121029/125424/2685/445/20/
039980/20121029/125527/2685/757/10/
039980/20121029/125604/2685/101/20/
039980/20121029/125627/2680/395/10/
039980/20121029/125637/2680/1050/10/
039980/20121029/125637/2680/200/10/
039980/20121029/125712/2680/8678/10/
039980/20121029/125734/2680/192/20/
039980/20121029/125739/2680/234/10/
039980/20121029/125751/2675/549/10/
039980/20121029/125851/2675/1219/10/
039980/20121029/125946/2675/1161/10/
039980/20121029/130036/2680/102/20/
039980/20121029/130052/2675/2031/10/
039980/20121029/130107/2680/535/20/
039980/20121029/130123/2690/4006/20/
039980/20121029/130139/2685/150/20/
039980/20121029/130147/2685/1050/20/
039980/20121029/130242/2690/151/20/
039980/20121029/130256/2685/450/10/
039980/20121029/130257/2685/482/10/
039980/20121029/130320/2685/617/20/
039980/20121029/130322/2685/467/20/
039980/20121029/130325/2685/369/10/
039980/20121029/130325/2685/164/10/
039980/20121029/130325/2680/632/10/
039980/20121029/130331/2680/204/20/
039980/20121029/130348/2680/131/10/
039980/20121029/130359/2685/1000/10/
039980/20121029/130402/2685/994/10/
039980/20121029/130412/2685/1006/10/
039980/20121029/130501/2685/213/10/
039980/20121029/130515/2680/1367/10/
039980/20121029/130517/2680/1299/10/
039980/20121029/130641/2675/652/10/
039980/20121029/130646/2680/1000/20/
039980/20121029/130706/2680/1265/20/
039980/20121029/130710/2675/1880/10/
039980/20121029/130719/2675/109/10/
039980/20121029/130724/2680/295/20/
039980/20121029/130737/2680/1006/10/
039980/20121029/130738/2680/199/10/
039980/20121029/130832/2675/277/10/
039980/20121029/130851/2675/100/10/
039980/20121029/130906/2675/412/10/
039980/20121029/130906/2670/2483/10/
039980/20121029/130940/2675/100/10/
039980/20121029/130940/2670/900/10/
039980/20121029/131113/2670/3836/10/
039980/20121029/131214/2670/358/10/
039980/20121029/131407/2670/369/10/
039980/20121029/131407/2665/1631/10/
039980/20121029/131412/2665/181/10/
039980/20121029/131416/2665/640/10/
039980/20121029/131433/2665/89/10/
039980/20121029/131435/2665/1197/10/
039980/20121029/131437/2665/100/10/
039980/20121029/131506/2665/900/10/
039980/20121029/131511/2665/180/10/
039980/20121029/131524/2665/700/10/
039980/20121029/131528/2665/1856/10/
039980/20121029/131528/2660/3144/10/
039980/20121029/131530/2660/1868/10/
039980/20121029/131537/2655/100/10/
039980/20121029/131542/2655/2050/10/
039980/20121029/131545/2655/500/10/
039980/20121029/131545/2655/253/10/
039980/20121029/131546/2655/793/10/
039980/20121029/131546/2650/3121/10/
039980/20121029/131546/2650/1361/10/
039980/20121029/131548/2645/190/10/
039980/20121029/131555/2645/370/10/
039980/20121029/131555/2645/297/10/
039980/20121029/131614/2650/85/20/
039980/20121029/131620/2650/91/20/
039980/20121029/131653/2650/150/20/
039980/20121029/131655/2650/150/20/
039980/20121029/131703/2650/1000/10/
039980/20121029/131729/2650/150/10/
039980/20121029/131729/2645/261/10/
039980/20121029/131744/2650/201/20/
039980/20121029/131750/2650/100/20/
039980/20121029/131818/2650/1450/10/
039980/20121029/131818/2645/2868/10/
039980/20121029/131909/2650/920/10/
039980/20121029/131917/2650/100/20/
039980/20121029/131919/2650/298/20/
039980/20121029/131919/2645/97/10/
039980/20121029/131924/2645/1277/10/
039980/20121029/131928/2645/314/20/
039980/20121029/131928/2640/7087/10/
039980/20121029/131928/2640/1578/10/
039980/20121029/131928/2635/3229/10/
039980/20121029/131928/2630/3941/10/
039980/20121029/131928/2625/291/10/
039980/20121029/131928/2620/873/10/
039980/20121029/131930/2645/480/20/
039980/20121029/131933/2645/400/10/
039980/20121029/131933/2645/1120/10/
039980/20121029/131933/2620/380/10/
039980/20121029/131936/2620/978/10/
039980/20121029/131944/2625/417/10/
039980/20121029/131944/2620/343/10/
039980/20121029/131946/2620/1350/10/
039980/20121029/131947/2620/1500/10/
039980/20121029/131958/2625/349/10/
039980/20121029/131958/2620/256/10/
039980/20121029/132003/2620/3378/10/
039980/20121029/132003/2615/6295/10/
039980/20121029/132003/2610/3827/10/
039980/20121029/132004/2610/373/10/
039980/20121029/132004/2620/585/20/
039980/20121029/132004/2620/415/10/
039980/20121029/132006/2620/500/20/
039980/20121029/132007/2610/4296/10/
039980/20121029/132010/2610/5878/10/
039980/20121029/132010/2605/204/10/
039980/20121029/132012/2605/604/10/
039980/20121029/132013/2605/4001/10/
039980/20121029/132015/2605/500/10/
039980/20121029/132015/2605/1900/10/
039980/20121029/132016/2605/3743/10/
039980/20121029/132016/2605/440/10/
039980/20121029/132016/2605/375/10/
039980/20121029/132017/2610/500/20/
039980/20121029/132017/2605/1200/10/
039980/20121029/132018/2605/375/10/
039980/20121029/132018/2605/400/10/
039980/20121029/132021/2610/2201/20/
039980/20121029/132021/2620/329/20/
039980/20121029/132022/2605/1495/10/
039980/20121029/132022/2605/1000/10/
039980/20121029/132026/2605/3989/10/
039980/20121029/132026/2600/27395/10/
039980/20121029/132028/2595/127/10/
039980/20121029/132028/2590/2453/10/
039980/20121029/132028/2585/433/10/
039980/20121029/132028/2585/2000/10/
039980/20121029/132028/2585/1000/10/
039980/20121029/132028/2585/2020/10/
039980/20121029/132031/2585/5000/10/
039980/20121029/132036/2600/1012/20/
039980/20121029/132036/2590/500/10/
039980/20121029/132036/2600/8608/20/
039980/20121029/132037/2600/102/10/
039980/20121029/132038/2600/294/10/
039980/20121029/132038/2595/846/10/
039980/20121029/132038/2590/3102/10/
039980/20121029/132045/2600/219/10/
039980/20121029/132046/2600/130/10/
039980/20121029/132050/2605/822/10/
039980/20121029/132052/2605/245/10/
039980/20121029/132054/2605/464/10/
039980/20121029/132054/2600/1234/10/
039980/20121029/132058/2610/90/20/
039980/20121029/132059/2610/930/20/
039980/20121029/132059/2615/2070/20/
039980/20121029/132102/2610/110/20/
039980/20121029/132106/2615/772/20/
039980/20121029/132107/2615/1823/20/
039980/20121029/132111/2615/1634/10/
039980/20121029/132112/2615/260/10/
039980/20121029/132114/2610/870/10/
039980/20121029/132115/2610/141/10/
039980/20121029/132125/2610/310/20/
039980/20121029/132126/2610/362/20/
039980/20121029/132137/2615/524/20/
039980/20121029/132140/2610/137/10/
039980/20121029/132143/2610/750/10/
039980/20121029/132143/2610/300/20/
039980/20121029/132147/2615/1590/10/
039980/20121029/132152/2620/172/20/
039980/20121029/132153/2620/187/20/
039980/20121029/132153/2625/124/20/
039980/20121029/132155/2620/214/10/
039980/20121029/132159/2620/206/20/
039980/20121029/132201/2625/89/20/
039980/20121029/132203/2625/994/20/
039980/20121029/132209/2630/500/20/
039980/20121029/132209/2635/1000/20/
039980/20121029/132209/2640/522/20/
039980/20121029/132221/2630/83/10/
039980/20121029/132221/2625/210/10/
039980/20121029/132221/2620/3921/10/
039980/20121029/132222/2635/300/20/
039980/20121029/132247/2620/515/20/
039980/20121029/132253/2615/120/10/
039980/20121029/132259/2610/110/10/
039980/20121029/132259/2610/174/20/
039980/20121029/132311/2615/1011/20/
039980/20121029/132313/2615/1010/20/
039980/20121029/132315/2615/1208/20/
039980/20121029/132315/2615/1846/20/
039980/20121029/132318/2615/305/20/
039980/20121029/132331/2615/148/10/
039980/20121029/132342/2615/365/20/
039980/20121029/132355/2615/196/20/
039980/20121029/132424/2615/100/20/
039980/20121029/132445/2620/2012/20/
039980/20121029/132527/2620/363/20/
039980/20121029/132527/2625/4754/20/
039980/20121029/132555/2620/175/20/
039980/20121029/132616/2625/110/20/
039980/20121029/132619/2620/95/10/
039980/20121029/132619/2615/306/10/
039980/20121029/132619/2615/500/10/
039980/20121029/132619/2615/500/10/
039980/20121029/132624/2615/100/10/
039980/20121029/132638/2620/420/20/
039980/20121029/132647/2620/1011/10/
039980/20121029/132647/2620/1465/10/
039980/20121029/132648/2620/518/10/
039980/20121029/132649/2620/200/10/
039980/20121029/132650/2620/1010/10/
039980/20121029/132651/2620/437/10/
039980/20121029/132657/2620/101/20/
039980/20121029/132658/2620/1120/10/
039980/20121029/132710/2625/85/20/
039980/20121029/132714/2625/1005/20/
039980/20121029/132723/2630/90/20/
039980/20121029/132723/2630/400/20/
039980/20121029/132728/2630/130/20/
039980/20121029/132733/2625/235/10/
039980/20121029/132738/2620/3788/10/
039980/20121029/132738/2615/2959/10/
039980/20121029/132742/2615/100/20/
039980/20121029/132745/2615/100/20/
039980/20121029/132748/2615/2039/20/
039980/20121029/132749/2615/762/20/
039980/20121029/132813/2615/114/10/
039980/20121029/132816/2615/372/20/
039980/20121029/132816/2615/102/20/
039980/20121029/132821/2615/100/20/
039980/20121029/132822/2610/213/10/
039980/20121029/132841/2615/612/20/
039980/20121029/132854/2615/501/10/
039980/20121029/132902/2615/3890/10/
039980/20121029/132902/2610/434/10/
039980/20121029/132922/2620/1098/20/
039980/20121029/132923/2615/2000/10/
039980/20121029/132931/2610/3000/10/
039980/20121029/132937/2610/1053/10/
039980/20121029/132938/2610/2500/10/
039980/20121029/132939/2610/2500/10/
039980/20121029/132944/2610/717/10/
039980/20121029/132954/2610/90/10/
039980/20121029/132959/2610/723/10/
039980/20121029/132959/2605/877/10/
039980/20121029/133007/2605/503/10/
039980/20121029/133007/2600/4497/10/
039980/20121029/133011/2600/1904/10/
039980/20121029/133011/2595/8060/10/
039980/20121029/133011/2590/4130/10/
039980/20121029/133011/2585/10273/10/
039980/20121029/133011/2580/12025/10/
039980/20121029/133011/2575/28529/10/
039980/20121029/133018/2580/372/10/
039980/20121029/133020/2580/372/10/
039980/20121029/133021/2580/372/10/
039980/20121029/133023/2580/3724/10/
039980/20121029/133023/2575/9276/10/
039980/20121029/133025/2575/267/10/
039980/20121029/133029/2575/377/10/
039980/20121029/133031/2575/1052/10/
039980/20121029/133039/2580/2003/10/
039980/20121029/133046/2590/303/20/
039980/20121029/133049/2580/502/10/
039980/20121029/133050/2580/600/10/
039980/20121029/133112/2580/1377/10/
039980/20121029/133113/2575/500/10/
039980/20121029/133117/2580/501/10/
039980/20121029/133117/2575/400/10/
039980/20121029/133118/2575/1000/10/
039980/20121029/133139/2580/226/20/
039980/20121029/133142/2580/181/20/
039980/20121029/133149/2580/121/10/
039980/20121029/133159/2580/3000/10/
039980/20121029/133200/2580/743/10/
039980/20121029/133201/2580/436/10/
039980/20121029/133202/2580/491/10/
039980/20121029/133203/2580/751/10/
039980/20121029/133203/2575/3181/10/
039980/20121029/133211/2575/1062/20/
039980/20121029/133213/2575/659/20/
039980/20121029/133229/2580/441/10/
039980/20121029/133231/2580/400/20/
039980/20121029/133237/2585/87/20/
039980/20121029/133237/2580/230/10/
039980/20121029/133242/2580/2594/10/
039980/20121029/133242/2575/4007/10/
039980/20121029/133242/2570/7900/10/
039980/20121029/133247/2580/101/20/
039980/20121029/133256/2575/132/10/
039980/20121029/133302/2575/1386/10/
039980/20121029/133303/2575/200/20/
039980/20121029/133303/2575/758/20/
039980/20121029/133311/2580/1023/10/
039980/20121029/133318/2585/301/20/
039980/20121029/133325/2585/102/20/
039980/20121029/133326/2585/400/20/
039980/20121029/133328/2585/1253/20/
039980/20121029/133332/2590/100/20/
039980/20121029/133332/2585/420/10/
039980/20121029/133333/2590/100/20/
039980/20121029/133335/2590/200/20/
039980/20121029/133338/2590/782/20/
039980/20121029/133339/2590/219/10/
039980/20121029/133345/2590/148/20/
039980/20121029/133345/2590/1581/20/
039980/20121029/133351/2595/1092/20/
039980/20121029/133353/2600/100/20/
039980/20121029/133354/2600/501/20/
039980/20121029/133355/2600/411/20/
039980/20121029/133356/2600/100/20/
039980/20121029/133403/2600/101/20/
039980/20121029/133412/2590/2419/10/
039980/20121029/133412/2585/1081/10/
039980/20121029/133413/2600/5000/20/
039980/20121029/133415/2600/102/20/
039980/20121029/133415/2600/1930/20/
039980/20121029/133415/2600/3640/20/
039980/20121029/133420/2610/707/20/
039980/20121029/133420/2615/303/20/
039980/20121029/133428/2600/121/10/
039980/20121029/133445/2600/100/10/
039980/20121029/133450/2610/500/20/
039980/20121029/133453/2600/500/10/
039980/20121029/133453/2610/200/20/
039980/20121029/133500/2610/500/20/
039980/20121029/133504/2610/100/10/
039980/20121029/133508/2610/1000/20/
039980/20121029/133542/2605/989/10/
039980/20121029/133608/2610/1063/20/
039980/20121029/133611/2610/200/10/
039980/20121029/133613/2615/876/20/
039980/20121029/133619/2615/172/10/
039980/20121029/133619/2615/828/20/
039980/20121029/133619/2620/1358/20/
039980/20121029/133620/2620/82/10/
039980/20121029/133626/2625/611/20/
039980/20121029/133634/2620/5733/10/
039980/20121029/133634/2610/3710/10/
039980/20121029/133639/2605/1000/10/
039980/20121029/133641/2600/1703/10/
039980/20121029/133700/2610/207/20/
039980/20121029/133707/2600/1000/10/
039980/20121029/133708/2610/300/20/
039980/20121029/133820/2605/105/10/
039980/20121029/133836/2605/1206/10/
039980/20121029/133902/2600/1990/10/
039980/20121029/133927/2600/118/10/
039980/20121029/134004/2600/296/20/
039980/20121029/134037/2595/541/10/
039980/20121029/134047/2605/301/20/
039980/20121029/134053/2605/144/20/
039980/20121029/134111/2605/166/10/
039980/20121029/134132/2600/420/10/
039980/20121029/134154/2600/150/10/
039980/20121029/134204/2600/2435/10/
039980/20121029/134208/2600/495/10/
039980/20121029/134208/2595/2689/10/
039980/20121029/134219/2595/983/10/
039980/20121029/134219/2590/2017/10/
039980/20121029/134223/2600/2000/20/
039980/20121029/134226/2600/1000/10/
039980/20121029/134247/2605/818/20/
039980/20121029/134247/2605/1500/20/
039980/20121029/134257/2600/300/10/
039980/20121029/134302/2600/150/10/
039980/20121029/134316/2605/100/20/
039980/20121029/134330/2605/434/20/
039980/20121029/134347/2605/620/10/
039980/20121029/134408/2605/153/10/
039980/20121029/134410/2605/229/20/
039980/20121029/134443/2605/454/10/
039980/20121029/134443/2600/439/10/
039980/20121029/134504/2600/870/10/
039980/20121029/134522/2605/700/20/
039980/20121029/134532/2610/183/20/
039980/20121029/134541/2610/1000/20/
039980/20121029/134551/2605/1797/10/
039980/20121029/134551/2600/150/10/
039980/20121029/134615/2600/354/10/
039980/20121029/134617/2605/1000/20/
039980/20121029/134619/2605/596/20/
039980/20121029/134708/2605/107/10/
039980/20121029/134721/2610/1981/20/
039980/20121029/134740/2610/230/10/
039980/20121029/134743/2610/517/10/
039980/20121029/134802/2605/750/10/
039980/20121029/134823/2605/2034/10/
039980/20121029/134842/2605/554/20/
039980/20121029/134850/2605/300/10/
039980/20121029/134853/2605/147/10/
039980/20121029/134853/2600/954/10/
039980/20121029/134911/2615/5008/20/
039980/20121029/134934/2605/1000/10/
039980/20121029/135147/2605/1998/10/
039980/20121029/135156/2600/1501/10/
039980/20121029/135157/2600/560/10/
039980/20121029/135158/2600/1241/10/
039980/20121029/135158/2600/500/10/
039980/20121029/135159/2600/295/10/
039980/20121029/135201/2600/1858/10/
039980/20121029/135201/2595/8142/10/
039980/20121029/135226/2600/81/20/
039980/20121029/135256/2600/219/20/
039980/20121029/135323/2600/153/10/
039980/20121029/135328/2600/958/10/
039980/20121029/135328/2600/1182/10/
039980/20121029/135350/2600/735/20/
039980/20121029/135432/2605/1055/20/
039980/20121029/135452/2605/328/20/
039980/20121029/135455/2605/207/20/
039980/20121029/135533/2605/1038/20/
039980/20121029/135542/2605/81/20/
039980/20121029/135615/2600/2527/10/
039980/20121029/135622/2600/289/20/
039980/20121029/135629/2600/212/20/
039980/20121029/135700/2605/113/20/
039980/20121029/135804/2605/212/20/
039980/20121029/135806/2600/2146/10/
039980/20121029/135829/2595/968/10/
039980/20121029/135830/2595/401/10/
039980/20121029/135830/2590/959/10/
039980/20121029/135837/2590/500/10/
039980/20121029/135844/2590/500/10/
039980/20121029/135914/2590/298/10/
039980/20121029/135922/2590/297/10/
039980/20121029/135924/2590/3149/10/
039980/20121029/135929/2585/423/10/
039980/20121029/135938/2585/84/10/
039980/20121029/135941/2585/7640/10/
039980/20121029/135949/2585/2100/20/
039980/20121029/135952/2585/977/20/
039980/20121029/135957/2585/911/20/
039980/20121029/140005/2585/150/10/
039980/20121029/140008/2585/350/10/
039980/20121029/140016/2590/100/20/
039980/20121029/140025/2585/1001/10/
039980/20121029/140031/2585/500/10/
039980/20121029/140057/2585/353/10/
039980/20121029/140057/2580/187/10/
039980/20121029/140104/2585/100/20/
039980/20121029/140112/2585/297/20/
039980/20121029/140114/2585/315/10/
039980/20121029/140118/2580/4000/10/
039980/20121029/140118/2585/1405/20/
039980/20121029/140159/2585/3000/10/
039980/20121029/140159/2590/753/20/
039980/20121029/140205/2590/593/20/
039980/20121029/140214/2590/407/10/
039980/20121029/140220/2590/593/20/
039980/20121029/140230/2600/298/10/
039980/20121029/140250/2590/2716/10/
039980/20121029/140305/2590/2000/20/
039980/20121029/140306/2590/100/20/
039980/20121029/140318/2590/140/20/
039980/20121029/140329/2590/2598/20/
039980/20121029/140338/2590/1500/10/
039980/20121029/140512/2590/1512/10/
039980/20121029/140533/2590/1040/20/
039980/20121029/140536/2590/1000/20/
039980/20121029/140541/2590/431/20/
039980/20121029/140548/2600/3100/20/
039980/20121029/140604/2590/1069/10/
039980/20121029/140606/2585/2074/10/
039980/20121029/140632/2585/300/10/
039980/20121029/140717/2585/4637/10/
039980/20121029/140722/2580/8034/10/
039980/20121029/140723/2580/1781/10/
039980/20121029/140727/2580/189/10/
039980/20121029/140728/2575/16000/10/
039980/20121029/140729/2575/1152/10/
039980/20121029/140729/2570/1242/10/
039980/20121029/140729/2570/2654/10/
039980/20121029/140729/2565/2348/10/
039980/20121029/140731/2565/1201/10/
039980/20121029/140733/2565/3058/10/
039980/20121029/140733/2560/3942/10/
039980/20121029/140733/2560/1000/10/
039980/20121029/140747/2575/571/10/
039980/20121029/140751/2575/1200/10/
039980/20121029/140753/2575/236/10/
039980/20121029/140809/2565/2600/10/
039980/20121029/140809/2560/9750/10/
039980/20121029/140809/2555/2650/10/
039980/20121029/140811/2565/1000/10/
039980/20121029/140811/2555/12390/10/
039980/20121029/140811/2550/21987/10/
039980/20121029/140811/2550/788/10/
039980/20121029/140815/2550/7991/10/
039980/20121029/140815/2550/1500/10/
039980/20121029/140816/2550/240/10/
039980/20121029/140817/2550/1413/10/
039980/20121029/140819/2560/2000/10/
039980/20121029/140819/2550/4481/10/
039980/20121029/140822/2550/4291/10/
039980/20121029/140822/2545/1637/10/
039980/20121029/140822/2540/1130/10/
039980/20121029/140822/2535/3281/10/
039980/20121029/140822/2530/1489/10/
039980/20121029/140822/2525/172/10/
039980/20121029/140823/2530/300/20/
039980/20121029/140825/2550/203/20/
039980/20121029/140828/2560/506/10/
039980/20121029/140831/2560/2078/10/
039980/20121029/140831/2550/518/10/
039980/20121029/140831/2540/922/10/
039980/20121029/140836/2550/100/10/
039980/20121029/140836/2550/600/10/
039980/20121029/140842/2550/300/10/
039980/20121029/140853/2545/127/10/
039980/20121029/140854/2545/700/10/
039980/20121029/140855/2550/931/20/
039980/20121029/140856/2550/299/10/
039980/20121029/140857/2550/551/20/
039980/20121029/140859/2550/449/10/
039980/20121029/140902/2550/1000/20/
039980/20121029/140907/2560/92/20/
039980/20121029/140911/2560/1800/20/
039980/20121029/140918/2560/150/10/
039980/20121029/140932/2565/159/20/
039980/20121029/140933/2560/100/10/
039980/20121029/140940/2565/190/10/
039980/20121029/140941/2560/462/10/
039980/20121029/140944/2565/490/20/
039980/20121029/140944/2565/100/10/
039980/20121029/141008/2565/172/10/
039980/20121029/141014/2565/1653/10/
039980/20121029/141020/2565/101/10/
039980/20121029/141026/2570/546/20/
039980/20121029/141038/2570/214/10/
039980/20121029/141038/2570/240/10/
039980/20121029/141042/2570/100/10/
039980/20121029/141102/2570/479/20/
039980/20121029/141102/2575/521/20/
039980/20121029/141112/2570/100/10/
039980/20121029/141112/2565/11900/10/
039980/20121029/141114/2565/3000/10/
039980/20121029/141115/2565/173/10/
039980/20121029/141115/2565/685/10/
039980/20121029/141126/2565/1000/20/
039980/20121029/141132/2560/403/10/
039980/20121029/141132/2555/2869/10/
039980/20121029/141132/2550/896/10/
039980/20121029/141134/2550/2000/10/
039980/20121029/141136/2550/205/10/
039980/20121029/141137/2550/1795/20/
039980/20121029/141141/2550/771/10/
039980/20121029/141201/2550/165/10/
039980/20121029/141207/2550/1015/10/
039980/20121029/141210/2550/985/10/
039980/20121029/141213/2545/591/10/
039980/20121029/141213/2550/100/20/
039980/20121029/141215/2545/390/10/
039980/20121029/141216/2550/766/20/
039980/20121029/141216/2560/234/20/
039980/20121029/141220/2545/853/10/
039980/20121029/141227/2550/600/10/
039980/20121029/141251/2550/1214/10/
039980/20121029/141301/2550/203/20/
039980/20121029/141303/2550/500/20/
039980/20121029/141304/2545/1600/10/
039980/20121029/141312/2550/583/20/
039980/20121029/141321/2555/112/20/
039980/20121029/141322/2555/500/10/
039980/20121029/141335/2555/141/10/
039980/20121029/141335/2550/1917/10/
039980/20121029/141403/2555/303/20/
039980/20121029/141412/2555/864/10/
039980/20121029/141419/2555/1000/20/
039980/20121029/141441/2550/874/10/
039980/20121029/141512/2555/100/20/
039980/20121029/141513/2550/225/10/
039980/20121029/141529/2550/286/10/
039980/20121029/141537/2550/100/20/
039980/20121029/141540/2550/1161/20/
039980/20121029/141549/2550/339/10/
039980/20121029/141559/2550/100/20/
039980/20121029/141602/2550/125/20/
039980/20121029/141612/2550/1622/10/
039980/20121029/141613/2550/134/10/
039980/20121029/141615/2550/421/20/
039980/20121029/141620/2550/82/10/
039980/20121029/141631/2550/108/20/
039980/20121029/141702/2550/237/20/
039980/20121029/141725/2550/160/20/
039980/20121029/141739/2545/274/10/
039980/20121029/141746/2550/845/20/
039980/20121029/141748/2545/1698/10/
039980/20121029/141751/2545/100/10/
039980/20121029/141755/2545/1044/10/
039980/20121029/141756/2545/185/20/
039980/20121029/141807/2540/91/10/
039980/20121029/141818/2540/947/10/
039980/20121029/141820/2540/2502/10/
039980/20121029/141820/2535/360/10/
039980/20121029/141823/2530/4117/10/
039980/20121029/141823/2525/14043/20/
039980/20121029/141825/2520/402/10/
039980/20121029/141827/2520/1488/10/
039980/20121029/141827/2515/2257/10/
039980/20121029/141827/2510/355/10/
039980/20121029/141827/2510/8000/10/
039980/20121029/141827/2510/1327/10/
039980/20121029/141827/2505/153/10/
039980/20121029/141832/2520/240/20/
039980/20121029/141834/2505/4000/10/
039980/20121029/141840/2525/150/20/
039980/20121029/141842/2525/100/20/
039980/20121029/141845/2515/993/10/
039980/20121029/141845/2510/1505/10/
039980/20121029/141845/2505/4647/10/
039980/20121029/141845/2500/2855/10/
039980/20121029/141855/2505/1107/10/
039980/20121029/141855/2500/7127/10/
039980/20121029/141856/2500/2222/10/
039980/20121029/141856/2500/4960/10/
039980/20121029/141857/2500/1718/10/
039980/20121029/141859/2500/100/20/
039980/20121029/141900/2500/6512/20/
039980/20121029/141901/2500/1665/20/
039980/20121029/141902/2500/614/20/
039980/20121029/141905/2510/500/10/
039980/20121029/141908/2505/90/10/
039980/20121029/141910/2505/1579/10/
039980/20121029/141910/2500/2421/10/
039980/20121029/141914/2500/187/10/
039980/20121029/141919/2505/108/10/
039980/20121029/141919/2500/3101/10/
039980/20121029/141932/2510/145/10/
039980/20121029/141932/2505/1097/10/
039980/20121029/141936/2520/501/20/
039980/20121029/141957/2515/601/20/
039980/20121029/142005/2505/2010/10/
039980/20121029/142008/2505/99/10/
039980/20121029/142015/2515/501/20/
039980/20121029/142017/2515/300/20/
039980/20121029/142020/2515/1814/20/
039980/20121029/142020/2515/340/20/
039980/20121029/142020/2515/150/20/
039980/20121029/142022/2515/1270/20/
039980/20121029/142024/2515/200/20/
039980/20121029/142024/2515/181/20/
039980/20121029/142030/2515/1000/10/
039980/20121029/142045/2520/1010/20/
039980/20121029/142047/2520/2092/20/
039980/20121029/142055/2525/500/20/
039980/20121029/142055/2525/240/20/
039980/20121029/142056/2520/122/10/
039980/20121029/142057/2525/500/20/
039980/20121029/142058/2530/300/20/
039980/20121029/142101/2530/236/20/
039980/20121029/142101/2535/1764/20/
039980/20121029/142116/2535/479/20/
039980/20121029/142116/2535/100/20/
039980/20121029/142118/2535/298/20/
039980/20121029/142121/2535/2400/10/
039980/20121029/142122/2535/100/20/
039980/20121029/142133/2525/246/10/
039980/20121029/142223/2530/110/20/
039980/20121029/142235/2530/405/20/
039980/20121029/142237/2530/550/20/
039980/20121029/142237/2535/2950/20/
039980/20121029/142239/2535/3362/20/
039980/20121029/142243/2535/200/10/
039980/20121029/142243/2535/1100/10/
039980/20121029/142244/2535/338/10/
039980/20121029/142302/2535/1247/20/
039980/20121029/142324/2530/122/10/
039980/20121029/142333/2535/317/20/
039980/20121029/142353/2535/1537/20/
039980/20121029/142404/2535/468/10/
039980/20121029/142416/2530/600/10/
039980/20121029/142419/2535/1000/20/
039980/20121029/142452/2530/131/10/
039980/20121029/142455/2530/390/20/
039980/20121029/142455/2535/450/20/
039980/20121029/142507/2535/822/20/
039980/20121029/142511/2535/378/10/
039980/20121029/142511/2530/870/10/
039980/20121029/142511/2525/1752/10/
039980/20121029/142514/2525/881/10/
039980/20121029/142514/2520/3134/10/
039980/20121029/142514/2515/986/10/
039980/20121029/142533/2520/500/10/
039980/20121029/142539/2520/337/10/
039980/20121029/142539/2515/1163/10/
039980/20121029/142543/2515/2647/10/
039980/20121029/142543/2510/3052/10/
039980/20121029/142543/2505/201/10/
039980/20121029/142548/2505/4000/10/
039980/20121029/142550/2505/600/10/
039980/20121029/142556/2505/3000/10/
039980/20121029/142621/2525/1040/20/
039980/20121029/142625/2525/100/20/
039980/20121029/142626/2520/1660/10/
039980/20121029/142626/2515/1850/10/
039980/20121029/142626/2510/2941/10/
039980/20121029/142626/2505/549/10/
039980/20121029/142638/2525/82/20/
039980/20121029/142639/2510/1500/10/
039980/20121029/142639/2525/1000/20/
039980/20121029/142647/2530/3040/20/
039980/20121029/142648/2510/3000/10/
039980/20121029/142657/2515/178/10/
039980/20121029/142708/2525/1673/20/
039980/20121029/142708/2530/350/20/
039980/20121029/142709/2530/120/20/
039980/20121029/142720/2515/426/10/
039980/20121029/142743/2520/4001/10/
039980/20121029/142748/2520/601/10/
039980/20121029/142759/2525/300/10/
039980/20121029/142759/2520/350/10/
039980/20121029/142808/2525/271/20/
039980/20121029/142809/2525/278/20/
039980/20121029/142814/2530/140/20/
039980/20121029/142814/2530/555/20/
039980/20121029/142823/2530/604/20/
039980/20121029/142833/2535/1400/20/
039980/20121029/142838/2540/1002/20/
039980/20121029/142840/2540/301/20/
039980/20121029/142841/2540/482/20/
039980/20121029/142844/2540/500/20/
039980/20121029/142848/2540/142/20/
039980/20121029/142849/2540/1144/10/
039980/20121029/142850/2540/661/20/
039980/20121029/142850/2540/303/20/
039980/20121029/142851/2540/892/20/
039980/20121029/142855/2545/1253/20/
039980/20121029/142857/2545/501/10/
039980/20121029/142859/2545/249/10/
039980/20121029/142901/2545/585/10/
039980/20121029/142901/2545/500/10/
039980/20121029/142902/2545/556/10/
039980/20121029/142902/2550/4532/20/
039980/20121029/142910/2555/502/20/
039980/20121029/142911/2555/101/20/
039980/20121029/142914/2550/300/10/
039980/20121029/142914/2555/3477/20/
039980/20121029/142914/2560/2089/20/
039980/20121029/142925/2560/212/20/
039980/20121029/142932/2560/450/20/
039980/20121029/142938/2555/2645/10/
039980/20121029/142938/2550/3865/10/
039980/20121029/142940/2555/1000/20/
039980/20121029/142944/2560/500/20/
039980/20121029/142953/2555/424/20/
039980/20121029/142953/2555/919/20/
039980/20121029/143001/2555/101/10/
039980/20121029/143012/2555/435/10/
039980/20121029/143014/2555/241/10/
039980/20121029/143018/2550/5800/10/
039980/20121029/143019/2550/169/10/
039980/20121029/143019/2545/1645/10/
039980/20121029/143026/2545/753/10/
039980/20121029/143027/2545/98/10/
039980/20121029/143027/2540/1202/10/
039980/20121029/143036/2545/161/20/
039980/20121029/143039/2545/352/10/
039980/20121029/143046/2545/201/10/
039980/20121029/143046/2545/588/10/
039980/20121029/143102/2540/100/10/
039980/20121029/143105/2545/632/20/
039980/20121029/143105/2550/1149/20/
039980/20121029/143105/2555/219/20/
039980/20121029/143135/2550/2000/20/
039980/20121029/143136/2550/500/20/
039980/20121029/143139/2540/1393/10/
039980/20121029/143139/2535/3105/10/
039980/20121029/143139/2530/1909/10/
039980/20121029/143209/2540/220/20/
039980/20121029/143215/2545/1000/20/
039980/20121029/143221/2545/1000/20/
039980/20121029/143229/2550/500/20/
039980/20121029/143236/2550/311/10/
039980/20121029/143249/2550/83/20/
039980/20121029/143255/2540/310/10/
039980/20121029/143319/2540/263/10/
039980/20121029/143329/2540/200/10/
039980/20121029/143339/2540/3390/10/
039980/20121029/143341/2540/315/10/
039980/20121029/143358/2540/1002/10/
039980/20121029/143401/2540/100/10/
039980/20121029/143403/2540/301/10/
039980/20121029/143416/2535/3618/10/
039980/20121029/143416/2530/2487/10/
039980/20121029/143416/2530/2696/20/
039980/20121029/143445/2535/501/20/
039980/20121029/143453/2535/1531/10/
039980/20121029/143453/2530/1479/10/
039980/20121029/143510/2535/564/10/
039980/20121029/143520/2535/502/10/
039980/20121029/143528/2540/2000/20/
039980/20121029/143529/2540/307/20/
039980/20121029/143541/2540/135/10/
039980/20121029/143548/2540/1001/10/
039980/20121029/143553/2540/691/10/
039980/20121029/143559/2540/110/20/
039980/20121029/143619/2540/951/20/
039980/20121029/143623/2535/3380/10/
039980/20121029/143629/2535/5010/10/
039980/20121029/143630/2535/1993/10/
039980/20121029/143632/2535/590/10/
039980/20121029/143632/2535/305/10/
039980/20121029/143651/2530/1002/10/
039980/20121029/143709/2525/2002/10/
039980/20121029/143711/2525/292/10/
039980/20121029/143713/2525/1057/10/
039980/20121029/143724/2535/264/20/
039980/20121029/143728/2525/450/10/
039980/20121029/143738/2525/500/10/
039980/20121029/143740/2530/240/20/
039980/20121029/143742/2530/760/20/
039980/20121029/143744/2535/1000/20/
039980/20121029/143746/2535/131/20/
039980/20121029/143802/2535/81/10/
039980/20121029/143810/2535/119/20/
039980/20121029/143814/2535/102/10/
039980/20121029/143818/2535/300/10/
039980/20121029/143839/2540/1001/20/
039980/20121029/143840/2535/300/10/
039980/20121029/143841/2535/636/10/
039980/20121029/143842/2535/364/20/
039980/20121029/143842/2540/1318/20/
039980/20121029/143847/2540/318/10/
039980/20121029/143847/2530/1059/10/
039980/20121029/143857/2535/380/10/
039980/20121029/143907/2540/100/20/
039980/20121029/143909/2540/1000/10/
039980/20121029/143923/2540/262/10/
039980/20121029/143938/2540/647/10/
039980/20121029/143938/2535/427/10/
039980/20121029/143943/2535/1131/10/
039980/20121029/143947/2535/474/10/
039980/20121029/143950/2535/363/20/
039980/20121029/143950/2540/108/20/
039980/20121029/144006/2535/105/10/
039980/20121029/144006/2530/1898/10/
039980/20121029/144009/2530/1600/10/
039980/20121029/144022/2530/500/10/
039980/20121029/144022/2530/106/10/
039980/20121029/144024/2530/424/10/
039980/20121029/144024/2530/435/20/
039980/20121029/144036/2530/301/20/
039980/20121029/144048/2535/1031/20/
039980/20121029/144049/2535/4928/10/
039980/20121029/144049/2530/4040/10/
039980/20121029/144049/2525/4710/10/
039980/20121029/144049/2520/6961/10/
039980/20121029/144049/2515/4797/10/
039980/20121029/144049/2510/3150/10/
039980/20121029/144051/2535/370/10/
039980/20121029/144059/2520/1501/10/
039980/20121029/144101/2520/130/10/
039980/20121029/144101/2510/3124/10/
039980/20121029/144101/2505/12239/10/
039980/20121029/144101/2505/4517/20/
039980/20121029/144133/2515/3057/10/
039980/20121029/144145/2515/800/10/
039980/20121029/144207/2520/522/10/
039980/20121029/144208/2520/117/10/
039980/20121029/144209/2520/100/20/
039980/20121029/144209/2520/1783/20/
039980/20121029/144212/2515/500/10/
039980/20121029/144243/2520/222/10/
039980/20121029/144245/2520/100/10/
039980/20121029/144254/2515/2422/10/
039980/20121029/144254/2510/288/10/
039980/20121029/144300/2510/200/10/
039980/20121029/144303/2510/4078/10/
039980/20121029/144303/2505/922/10/
039980/20121029/144304/2510/165/20/
039980/20121029/144305/2505/1003/10/
039980/20121029/144307/2510/2009/20/
039980/20121029/144307/2510/2031/20/
039980/20121029/144308/2510/455/10/
039980/20121029/144314/2510/1093/10/
039980/20121029/144314/2510/300/10/
039980/20121029/144318/2510/2000/10/
039980/20121029/144318/2510/1870/10/
039980/20121029/144318/2505/10074/10/
039980/20121029/144318/2500/5732/10/
039980/20121029/144318/2500/2324/20/
039980/20121029/144321/2510/400/10/
039980/20121029/144329/2500/2709/10/
039980/20121029/144329/2500/2000/20/
039980/20121029/144330/2500/393/20/
039980/20121029/144335/2500/3062/10/
039980/20121029/144342/2500/388/10/
039980/20121029/144343/2505/141/20/
039980/20121029/144343/2500/2680/10/
039980/20121029/144343/2495/320/10/
039980/20121029/144344/2500/550/10/
039980/20121029/144344/2495/450/10/
039980/20121029/144345/2500/3000/10/
039980/20121029/144346/2500/397/10/
039980/20121029/144348/2500/1103/20/
039980/20121029/144348/2505/224/20/
039980/20121029/144353/2500/1002/10/
039980/20121029/144357/2500/3001/10/
039980/20121029/144400/2500/2231/10/
039980/20121029/144401/2500/3001/20/
039980/20121029/144401/2500/112/20/
039980/20121029/144401/2505/889/20/
039980/20121029/144404/2505/3737/20/
039980/20121029/144407/2510/2892/20/
039980/20121029/144409/2520/199/20/
039980/20121029/144419/2510/506/10/
039980/20121029/144427/2510/1780/20/
039980/20121029/144431/2510/555/10/
039980/20121029/144435/2510/131/10/
039980/20121029/144436/2510/1000/10/
039980/20121029/144437/2510/300/10/
039980/20121029/144438/2505/2001/10/
039980/20121029/144503/2505/1851/10/
039980/20121029/144506/2505/100/10/
039980/20121029/144508/2505/2745/10/
039980/20121029/144508/2505/1255/20/
039980/20121029/144521/2500/5001/10/
039980/20121029/144532/2500/2001/10/
039980/20121029/144537/2500/917/10/
039980/20121029/144537/2495/4085/10/
039980/20121029/144537/2495/392/10/
039980/20121029/144537/2495/392/10/
039980/20121029/144550/2500/408/10/
039980/20121029/144553/2500/4701/10/
039980/20121029/144554/2500/300/20/
039980/20121029/144557/2510/148/20/
039980/20121029/144558/2510/323/10/
039980/20121029/144558/2500/4678/10/
039980/20121029/144558/2500/864/20/
039980/20121029/144604/2500/1502/10/
039980/20121029/144607/2500/189/10/
039980/20121029/144611/2510/201/20/
039980/20121029/144613/2500/185/10/
039980/20121029/144613/2495/4516/10/
039980/20121029/144613/2495/3000/10/
039980/20121029/144613/2495/1733/20/
039980/20121029/144614/2500/289/20/
039980/20121029/144615/2500/200/10/
039980/20121029/144625/2500/503/10/
039980/20121029/144626/2500/4013/10/
039980/20121029/144630/2500/2487/20/
039980/20121029/144635/2500/1002/10/
039980/20121029/144636/2510/201/20/
039980/20121029/144639/2500/129/10/
039980/20121029/144640/2510/1905/20/
039980/20121029/144640/2515/95/20/
039980/20121029/144645/2500/3002/10/
039980/20121029/144658/2500/920/10/
039980/20121029/144704/2510/1346/20/
039980/20121029/144709/2510/611/20/
039980/20121029/144709/2515/389/20/
039980/20121029/144709/2500/4500/10/
039980/20121029/144728/2510/120/10/
039980/20121029/144728/2515/3994/20/
039980/20121029/144732/2515/110/20/
039980/20121029/144733/2510/500/10/
039980/20121029/144734/2515/110/20/
039980/20121029/144739/2510/520/10/
039980/20121029/144751/2505/2010/10/
039980/20121029/144757/2505/1549/10/
039980/20121029/144812/2505/653/10/
039980/20121029/144812/2500/2856/10/
039980/20121029/144820/2500/4061/10/
039980/20121029/144820/2500/821/10/
039980/20121029/144827/2495/1352/10/
039980/20121029/144828/2495/1220/10/
039980/20121029/144834/2500/260/20/
039980/20121029/144841/2500/300/20/
039980/20121029/144842/2500/117/20/
039980/20121029/144844/2500/208/20/
039980/20121029/144847/2500/90/20/
039980/20121029/144854/2500/1031/20/
039980/20121029/144902/2500/3860/10/
039980/20121029/144903/2505/250/20/
039980/20121029/144907/2500/1860/10/
039980/20121029/144907/2505/1233/20/
039980/20121029/144909/2505/603/20/
039980/20121029/144911/2505/1487/10/
039980/20121029/144912/2500/743/10/
039980/20121029/144914/2500/1060/10/
039980/20121029/144919/2505/90/20/
039980/20121029/144922/2505/1950/20/
039980/20121029/144928/2510/90/20/
039980/20121029/144930/2505/252/10/
039980/20121029/144936/2500/829/10/
039980/20121029/144938/2505/245/20/
039980/20121029/144938/2510/118/20/
039980/20121029/144941/2510/360/20/
039980/20121029/144942/2510/1462/20/
039980/20121029/144942/2510/548/20/
039980/20121029/144945/2505/90/20/
039980/20121029/144947/2505/920/20/
039980/20121029/144953/2510/90/20/
039980/20121029/144954/2505/327/10/
039980/20121029/144954/2500/2854/10/
039980/20121029/144954/2495/5943/10/
039980/20121029/144957/2510/90/20/
039980/20121029/150000/2465/180640/10/
