039980/20121210/90000/1980/3213/20/
039980/20121210/90103/1980/1000/20/
039980/20121210/90145/1980/501/20/
039980/20121210/90146/1980/1515/20/
039980/20121210/90155/1980/520/20/
039980/20121210/90204/1980/1820/20/
039980/20121210/90208/1980/886/20/
039980/20121210/90335/1995/123/20/
039980/20121210/90604/1990/501/10/
039980/20121210/90614/1990/501/10/
039980/20121210/90621/1990/280/10/
039980/20121210/90650/1985/1000/10/
039980/20121210/90652/1990/660/20/
039980/20121210/90711/1985/2000/10/
039980/20121210/90756/1985/612/10/
039980/20121210/90830/1985/200/20/
039980/20121210/90910/1980/2379/10/
039980/20121210/90919/1980/1023/10/
039980/20121210/91039/1975/1000/10/
039980/20121210/91201/1975/2415/10/
039980/20121210/91201/1970/2542/10/
039980/20121210/91249/1970/1003/10/
039980/20121210/91420/1980/362/20/
039980/20121210/91456/1980/1000/20/
039980/20121210/91458/1975/1000/10/
039980/20121210/91513/1980/117/20/
039980/20121210/91610/1980/543/20/
039980/20121210/91824/1980/457/20/
039980/20121210/92016/1985/1505/20/
039980/20121210/92115/1990/1562/20/
039980/20121210/92315/1995/1812/20/
039980/20121210/92326/1995/955/10/
039980/20121210/92504/1995/111/20/
039980/20121210/92604/1995/504/20/
039980/20121210/92643/1995/1005/20/
039980/20121210/92710/1995/84/20/
039980/20121210/92734/2000/100/20/
039980/20121210/92744/2000/242/20/
039980/20121210/92934/2000/500/20/
039980/20121210/92935/2000/1089/20/
039980/20121210/92935/2005/411/20/
039980/20121210/92940/2005/500/20/
039980/20121210/93019/2005/1678/20/
039980/20121210/93019/2010/975/20/
039980/20121210/93158/2005/1000/20/
039980/20121210/93255/2005/300/20/
039980/20121210/93303/2005/300/20/
039980/20121210/93312/2005/300/10/
039980/20121210/93313/2005/500/10/
039980/20121210/93315/2005/200/10/
039980/20121210/93350/2005/97/20/
039980/20121210/93600/2005/500/20/
039980/20121210/93722/2000/909/10/
039980/20121210/93724/2000/1295/10/
039980/20121210/93730/1995/1552/10/
039980/20121210/94108/1990/1002/10/
039980/20121210/94121/1990/690/10/
039980/20121210/94122/1990/310/10/
039980/20121210/94128/1990/190/20/
039980/20121210/94610/1980/1010/10/
039980/20121210/94652/1990/3000/20/
039980/20121210/95140/1995/103/20/
039980/20121210/95151/1995/150/20/
039980/20121210/95213/1990/770/10/
039980/20121210/95225/1990/1891/10/
039980/20121210/95231/1990/100/20/
039980/20121210/95542/1985/1518/10/
039980/20121210/100406/1985/2288/10/
039980/20121210/100754/1980/400/10/
039980/20121210/100939/1980/4156/10/
039980/20121210/101142/1980/516/10/
039980/20121210/101828/1985/188/20/
039980/20121210/102030/1990/300/20/
039980/20121210/102957/1990/705/10/
039980/20121210/103010/1990/1555/10/
039980/20121210/103801/1990/312/10/
039980/20121210/104309/1985/348/10/
039980/20121210/105450/1985/1004/10/
039980/20121210/105450/1980/2880/10/
039980/20121210/105450/1975/1116/10/
039980/20121210/105556/1980/1147/10/
039980/20121210/110453/1980/1804/10/
039980/20121210/110453/1990/1106/20/
039980/20121210/110553/1995/1297/20/
039980/20121210/111149/1995/4581/10/
039980/20121210/111222/1995/470/20/
039980/20121210/111352/1995/1000/10/
039980/20121210/111415/2000/100/20/
039980/20121210/111417/2000/100/20/
039980/20121210/111418/2000/100/20/
039980/20121210/111925/1995/1010/10/
039980/20121210/111953/1995/220/10/
039980/20121210/111953/1990/780/10/
039980/20121210/112225/2000/692/20/
039980/20121210/112437/1995/1246/10/
039980/20121210/112923/1990/1000/10/
039980/20121210/113500/1990/200/10/
039980/20121210/113914/1990/779/10/
039980/20121210/114450/1995/120/20/
039980/20121210/114634/1990/2118/10/
039980/20121210/114726/1985/405/10/
039980/20121210/115712/1985/288/10/
039980/20121210/115722/1985/382/10/
039980/20121210/115957/1985/450/10/
039980/20121210/120231/1980/550/10/
039980/20121210/120452/1985/962/10/
039980/20121210/120452/1980/1838/10/
039980/20121210/121403/1975/1000/10/
039980/20121210/121847/1980/1414/10/
039980/20121210/121847/1975/596/10/
039980/20121210/125116/1985/108/20/
039980/20121210/125159/1985/502/10/
039980/20121210/125448/1990/216/20/
039980/20121210/125647/1980/1005/10/
039980/20121210/125647/1975/995/10/
039980/20121210/130426/1975/1414/10/
039980/20121210/130932/1975/145/10/
039980/20121210/131029/1975/270/20/
039980/20121210/131050/1970/501/10/
039980/20121210/131531/1970/2904/10/
039980/20121210/131711/1970/85/10/
039980/20121210/132941/1980/2009/10/
039980/20121210/133045/1975/3097/10/
039980/20121210/133510/1980/1059/20/
039980/20121210/133646/1985/192/20/
039980/20121210/133646/1990/308/20/
039980/20121210/133849/1990/1065/20/
039980/20121210/133904/1990/335/10/
039980/20121210/135309/1990/203/20/
039980/20121210/135309/1995/299/20/
039980/20121210/135556/1980/2000/10/
039980/20121210/135556/1975/288/10/
039980/20121210/141049/1980/303/10/
039980/20121210/141216/1980/200/10/
039980/20121210/142450/1980/106/10/
039980/20121210/142602/1980/107/10/
039980/20121210/142602/1975/394/10/
039980/20121210/142911/1980/90/20/
039980/20121210/142917/1980/462/10/
039980/20121210/142917/1975/2098/10/
039980/20121210/143400/1980/974/20/
039980/20121210/143443/1985/667/20/
039980/20121210/143657/1990/100/20/
039980/20121210/143709/1990/1200/20/
039980/20121210/143750/1990/480/20/
039980/20121210/143816/1980/200/10/
039980/20121210/144027/1990/310/20/
039980/20121210/144245/1990/209/20/
039980/20121210/144407/1990/310/10/
039980/20121210/144428/1990/200/10/
039980/20121210/144613/1995/100/20/
039980/20121210/144626/1995/400/20/
039980/20121210/144639/1995/500/20/
039980/20121210/144659/1995/2000/20/
039980/20121210/144716/1995/222/20/
039980/20121210/144722/1995/118/10/
039980/20121210/144827/1990/2331/10/
039980/20121210/144848/1985/500/10/
039980/20121210/144848/1980/219/10/
039980/20121210/144851/1980/212/10/
039980/20121210/144919/1985/300/10/
039980/20121210/144919/1980/670/10/
039980/20121210/144951/1980/1710/10/
039980/20121210/144951/1975/4226/10/
039980/20121210/144955/1975/1669/10/
039980/20121210/150000/1970/10916/10/
