039980/20121126/90000/2070/8616/10/
039980/20121126/90007/2070/884/20/
039980/20121126/90045/2070/105/10/
039980/20121126/90056/2065/1986/10/
039980/20121126/90056/2060/7764/10/
039980/20121126/90130/2070/140/10/
039980/20121126/90134/2070/200/20/
039980/20121126/90210/2070/722/20/
039980/20121126/90225/2070/295/10/
039980/20121126/90244/2060/96/10/
039980/20121126/90312/2060/1800/10/
039980/20121126/90321/2060/1313/10/
039980/20121126/90324/2060/1000/10/
039980/20121126/90407/2060/200/10/
039980/20121126/90509/2065/800/20/
039980/20121126/90529/2065/102/20/
039980/20121126/90551/2065/94/20/
039980/20121126/90613/2060/1252/10/
039980/20121126/90624/2060/4375/10/
039980/20121126/90624/2060/625/10/
039980/20121126/90624/2065/1475/20/
039980/20121126/90650/2060/1500/10/
039980/20121126/90650/2055/95/10/
039980/20121126/90755/2060/1330/10/
039980/20121126/90801/2060/300/10/
039980/20121126/90802/2060/207/10/
039980/20121126/90807/2060/937/10/
039980/20121126/90808/2055/260/10/
039980/20121126/90844/2055/3000/10/
039980/20121126/90852/2055/224/10/
039980/20121126/90858/2055/1007/10/
039980/20121126/90944/2060/1240/20/
039980/20121126/90953/2060/1260/10/
039980/20121126/90953/2055/4240/10/
039980/20121126/91008/2060/716/20/
039980/20121126/91016/2060/334/20/
039980/20121126/91021/2060/716/10/
039980/20121126/91021/2055/182/10/
039980/20121126/91035/2065/1000/20/
039980/20121126/91107/2060/3200/10/
039980/20121126/91145/2070/650/20/
039980/20121126/91145/2080/1001/20/
039980/20121126/91257/2080/399/10/
039980/20121126/91329/2070/1000/10/
039980/20121126/91333/2065/1580/10/
039980/20121126/91339/2065/1351/10/
039980/20121126/91339/2060/2649/10/
039980/20121126/91400/2060/1000/10/
039980/20121126/91452/2070/2001/10/
039980/20121126/91452/2060/7504/10/
039980/20121126/91452/2060/1333/20/
039980/20121126/91453/2060/7969/20/
039980/20121126/91623/2060/623/10/
039980/20121126/91623/2055/10203/10/
039980/20121126/91623/2050/6187/10/
039980/20121126/91937/2065/1074/10/
039980/20121126/91955/2070/1000/20/
039980/20121126/92110/2065/2216/10/
039980/20121126/92110/2075/500/20/
039980/20121126/92143/2065/1275/10/
039980/20121126/92145/2065/225/20/
039980/20121126/92213/2075/650/20/
039980/20121126/92234/2080/339/20/
039980/20121126/92249/2080/756/20/
039980/20121126/92251/2080/1000/20/
039980/20121126/92251/2080/589/20/
039980/20121126/92308/2090/1050/20/
039980/20121126/92322/2090/880/20/
039980/20121126/92329/2095/1000/20/
039980/20121126/92337/2095/411/20/
039980/20121126/92344/2095/528/20/
039980/20121126/92347/2095/500/20/
039980/20121126/92349/2095/3000/20/
039980/20121126/92349/2095/4000/20/
039980/20121126/92350/2095/741/20/
039980/20121126/92351/2095/259/10/
039980/20121126/92351/2090/2125/10/
039980/20121126/92355/2090/625/20/
039980/20121126/92359/2090/5000/20/
039980/20121126/92400/2090/500/20/
039980/20121126/92403/2090/500/20/
039980/20121126/92404/2090/1181/20/
039980/20121126/92414/2090/300/10/
039980/20121126/92425/2095/794/20/
039980/20121126/92433/2095/211/10/
039980/20121126/92522/2095/2877/10/
039980/20121126/92534/2095/103/10/
039980/20121126/92543/2095/167/10/
039980/20121126/92550/2095/603/20/
039980/20121126/92553/2100/1170/20/
039980/20121126/92559/2100/2269/10/
039980/20121126/92611/2100/2112/20/
039980/20121126/92611/2105/497/20/
039980/20121126/92616/2095/1647/10/
039980/20121126/92650/2100/554/20/
039980/20121126/92650/2105/1008/20/
039980/20121126/92650/2110/313/20/
039980/20121126/92712/2105/93/10/
039980/20121126/92720/2105/336/10/
039980/20121126/92736/2105/521/20/
039980/20121126/92736/2110/1050/20/
039980/20121126/92749/2100/108/10/
039980/20121126/92756/2100/1089/10/
039980/20121126/92829/2095/1041/10/
039980/20121126/92830/2095/1020/10/
039980/20121126/92832/2095/551/10/
039980/20121126/92834/2095/1000/10/
039980/20121126/92837/2095/318/10/
039980/20121126/92858/2090/3911/10/
039980/20121126/92916/2090/193/20/
039980/20121126/92944/2090/700/10/
039980/20121126/92945/2090/200/20/
039980/20121126/93022/2090/831/20/
039980/20121126/93036/2090/479/20/
039980/20121126/93133/2095/2190/20/
039980/20121126/93158/2100/543/20/
039980/20121126/93356/2095/580/10/
039980/20121126/93413/2095/2154/10/
039980/20121126/93435/2095/1001/10/
039980/20121126/93450/2095/90/10/
039980/20121126/93450/2100/2400/20/
039980/20121126/93614/2100/1898/20/
039980/20121126/93657/2100/129/20/
039980/20121126/93737/2095/146/10/
039980/20121126/93812/2095/510/10/
039980/20121126/93818/2095/100/10/
039980/20121126/93832/2095/1480/10/
039980/20121126/93849/2095/1711/20/
039980/20121126/93912/2095/1000/10/
039980/20121126/93918/2095/250/10/
039980/20121126/93925/2100/882/20/
039980/20121126/94055/2100/143/20/
039980/20121126/94114/2100/1912/10/
039980/20121126/94212/2095/100/10/
039980/20121126/94232/2095/949/10/
039980/20121126/94251/2095/145/20/
039980/20121126/94251/2100/1618/20/
039980/20121126/94342/2100/1000/10/
039980/20121126/94445/2100/1973/10/
039980/20121126/94452/2100/150/10/
039980/20121126/94458/2100/124/10/
039980/20121126/94535/2090/2340/10/
039980/20121126/94729/2090/2001/10/
039980/20121126/94752/2090/1000/10/
039980/20121126/94828/2090/1325/10/
039980/20121126/94828/2085/557/10/
039980/20121126/94922/2090/1200/20/
039980/20121126/94948/2085/2570/10/
039980/20121126/95010/2100/1601/20/
039980/20121126/95050/2100/1224/20/
039980/20121126/95252/2100/200/10/
039980/20121126/95434/2100/2067/10/
039980/20121126/95446/2100/100/10/
039980/20121126/95513/2100/1910/10/
039980/20121126/95551/2100/100/20/
039980/20121126/95602/2100/1000/20/
039980/20121126/95657/2095/605/10/
039980/20121126/95941/2095/2982/10/
039980/20121126/100017/2095/3186/10/
039980/20121126/100124/2095/200/20/
039980/20121126/100151/2095/887/20/
039980/20121126/100426/2100/100/20/
039980/20121126/100705/2100/2300/20/
039980/20121126/100729/2100/101/20/
039980/20121126/100839/2100/200/20/
039980/20121126/100921/2100/210/20/
039980/20121126/101026/2100/500/10/
039980/20121126/101038/2100/1000/10/
039980/20121126/101113/2100/649/10/
039980/20121126/101123/2100/995/20/
039980/20121126/101305/2100/394/10/
039980/20121126/101305/2095/1053/10/
039980/20121126/101305/2090/375/10/
039980/20121126/101433/2090/3957/10/
039980/20121126/101434/2090/748/20/
039980/20121126/101544/2090/2292/10/
039980/20121126/101601/2090/1409/20/
039980/20121126/101736/2095/113/20/
039980/20121126/101758/2095/100/20/
039980/20121126/102033/2095/2792/20/
039980/20121126/102230/2090/1018/10/
039980/20121126/102507/2090/501/10/
039980/20121126/102517/2090/500/10/
039980/20121126/102544/2095/500/20/
039980/20121126/102620/2090/657/10/
039980/20121126/102620/2085/4056/10/
039980/20121126/102724/2085/120/20/
039980/20121126/102737/2080/3389/10/
039980/20121126/102752/2080/3001/10/
039980/20121126/102830/2085/500/20/
039980/20121126/102843/2080/632/10/
039980/20121126/103019/2080/100/10/
039980/20121126/103021/2080/100/10/
039980/20121126/103113/2085/1000/20/
039980/20121126/103115/2085/2000/20/
039980/20121126/103358/2085/1464/20/
039980/20121126/103432/2090/6650/10/
039980/20121126/103618/2090/911/10/
039980/20121126/103728/2090/193/10/
039980/20121126/103914/2085/3000/10/
039980/20121126/104113/2080/1040/10/
039980/20121126/104117/2080/1180/10/
039980/20121126/104128/2080/277/10/
039980/20121126/104133/2080/197/10/
039980/20121126/104135/2080/500/10/
039980/20121126/104434/2085/2000/20/
039980/20121126/104442/2080/500/10/
039980/20121126/104452/2080/107/10/
039980/20121126/104807/2085/1647/20/
039980/20121126/105146/2085/101/20/
039980/20121126/105322/2080/1892/10/
039980/20121126/105454/2080/108/20/
039980/20121126/105634/2080/2006/10/
039980/20121126/105804/2085/82/20/
039980/20121126/105817/2085/1124/20/
039980/20121126/105827/2085/652/20/
039980/20121126/110334/2085/120/10/
039980/20121126/110519/2090/1301/20/
039980/20121126/110523/2090/1566/20/
039980/20121126/110535/2095/1000/20/
039980/20121126/110610/2095/600/20/
039980/20121126/110731/2100/166/20/
039980/20121126/110743/2100/2752/20/
039980/20121126/110750/2100/900/20/
039980/20121126/110815/2100/100/20/
039980/20121126/110907/2100/250/20/
039980/20121126/110911/2100/100/20/
039980/20121126/111018/2095/3000/10/
039980/20121126/111648/2095/100/10/
039980/20121126/111659/2095/935/10/
039980/20121126/112229/2095/650/10/
039980/20121126/112315/2095/1000/10/
039980/20121126/112749/2095/552/10/
039980/20121126/112800/2095/887/10/
039980/20121126/113223/2095/491/10/
039980/20121126/113921/2100/110/20/
039980/20121126/114148/2095/655/10/
039980/20121126/114148/2090/395/10/
039980/20121126/114210/2090/3000/10/
039980/20121126/114240/2090/3722/10/
039980/20121126/114259/2090/512/20/
039980/20121126/114550/2090/1005/20/
039980/20121126/114845/2090/4500/20/
039980/20121126/114915/2090/261/20/
039980/20121126/115149/2095/500/20/
039980/20121126/115347/2090/130/10/
039980/20121126/115351/2090/2420/10/
039980/20121126/115441/2090/495/10/
039980/20121126/115634/2090/269/10/
039980/20121126/120028/2095/81/20/
039980/20121126/120518/2090/223/20/
039980/20121126/120609/2090/2095/20/
039980/20121126/120849/2095/201/20/
039980/20121126/120919/2095/976/20/
039980/20121126/121248/2100/95/20/
039980/20121126/122121/2095/327/10/
039980/20121126/122242/2095/100/20/
039980/20121126/123234/2095/105/20/
039980/20121126/123241/2095/2800/20/
039980/20121126/123748/2095/1060/20/
039980/20121126/123811/2095/550/20/
039980/20121126/123900/2095/950/20/
039980/20121126/124133/2095/1763/20/
039980/20121126/124143/2095/525/20/
039980/20121126/124232/2090/7187/10/
039980/20121126/124233/2095/320/20/
039980/20121126/125005/2095/664/20/
039980/20121126/125058/2095/399/20/
039980/20121126/125059/2095/477/20/
039980/20121126/125122/2095/210/20/
039980/20121126/125132/2095/206/20/
039980/20121126/125339/2090/82/10/
039980/20121126/125439/2095/589/20/
039980/20121126/125546/2090/1000/10/
039980/20121126/125655/2095/349/20/
039980/20121126/125759/2090/100/10/
039980/20121126/125842/2090/843/10/
039980/20121126/125907/2090/398/10/
039980/20121126/125921/2085/1763/10/
039980/20121126/130129/2085/3179/10/
039980/20121126/130531/2085/204/10/
039980/20121126/130828/2085/853/10/
039980/20121126/130920/2085/559/10/
039980/20121126/131009/2085/502/20/
039980/20121126/131058/2085/100/20/
039980/20121126/131108/2085/200/20/
039980/20121126/131442/2080/5000/10/
039980/20121126/131508/2080/600/10/
039980/20121126/131520/2080/124/10/
039980/20121126/131526/2080/100/20/
039980/20121126/131533/2080/776/20/
039980/20121126/131539/2080/383/10/
039980/20121126/131655/2075/2218/10/
039980/20121126/131726/2075/5000/10/
039980/20121126/131737/2075/100/10/
039980/20121126/131805/2075/1598/10/
039980/20121126/131806/2075/911/10/
039980/20121126/131857/2070/1013/10/
039980/20121126/131910/2070/6000/10/
039980/20121126/132110/2070/2604/10/
039980/20121126/132249/2075/944/20/
039980/20121126/132303/2075/3000/20/
039980/20121126/132320/2075/132/20/
039980/20121126/132432/2075/853/10/
039980/20121126/132446/2070/882/10/
039980/20121126/132503/2070/1000/10/
039980/20121126/132634/2075/84/20/
039980/20121126/132716/2070/239/10/
039980/20121126/132839/2075/2875/20/
039980/20121126/132839/2080/2126/20/
039980/20121126/132912/2080/200/20/
039980/20121126/133130/2075/156/10/
039980/20121126/133134/2075/854/10/
039980/20121126/133158/2075/120/20/
039980/20121126/133301/2075/167/20/
039980/20121126/133326/2075/4927/20/
039980/20121126/133326/2080/139/20/
039980/20121126/133337/2080/105/20/
039980/20121126/133353/2075/870/10/
039980/20121126/133553/2075/1021/20/
039980/20121126/133708/2070/9169/10/
039980/20121126/133825/2070/109/10/
039980/20121126/134038/2075/127/20/
039980/20121126/134040/2075/111/20/
039980/20121126/134041/2075/111/20/
039980/20121126/134043/2075/111/20/
039980/20121126/134046/2075/111/20/
039980/20121126/134050/2075/200/20/
039980/20121126/134243/2070/576/10/
039980/20121126/134326/2075/3014/20/
039980/20121126/134400/2075/216/20/
039980/20121126/134417/2075/950/10/
039980/20121126/134428/2075/233/10/
039980/20121126/134428/2075/206/10/
039980/20121126/134433/2075/616/10/
039980/20121126/134515/2075/1003/20/
039980/20121126/134531/2075/503/20/
039980/20121126/134730/2075/552/20/
039980/20121126/134816/2075/500/10/
039980/20121126/134913/2075/2460/10/
039980/20121126/135152/2075/1000/20/
039980/20121126/135210/2075/90/20/
039980/20121126/135424/2075/10029/20/
039980/20121126/135431/2075/488/20/
039980/20121126/135436/2075/314/20/
039980/20121126/135437/2075/381/20/
039980/20121126/135710/2080/1260/20/
039980/20121126/135800/2075/689/10/
039980/20121126/135800/2070/435/10/
039980/20121126/135930/2080/3003/20/
039980/20121126/140325/2080/1012/20/
039980/20121126/140612/2080/1000/20/
039980/20121126/140808/2080/1050/20/
039980/20121126/140837/2080/370/20/
039980/20121126/141240/2075/110/10/
039980/20121126/141542/2080/1916/20/
039980/20121126/141644/2080/300/20/
039980/20121126/141922/2080/501/20/
039980/20121126/142214/2075/143/10/
039980/20121126/142251/2075/5000/10/
039980/20121126/142253/2075/400/10/
039980/20121126/142259/2075/482/10/
039980/20121126/142317/2070/1000/10/
039980/20121126/142329/2070/1000/10/
039980/20121126/142333/2070/2205/10/
039980/20121126/142354/2070/189/20/
039980/20121126/142357/2070/1000/20/
039980/20121126/142530/2070/200/20/
039980/20121126/142544/2070/1081/20/
039980/20121126/142624/2070/1050/20/
039980/20121126/142632/2070/1000/20/
039980/20121126/142734/2065/1001/10/
039980/20121126/142823/2065/2251/10/
039980/20121126/142913/2065/785/10/
039980/20121126/142923/2070/1400/20/
039980/20121126/143041/2065/5915/10/
039980/20121126/143053/2065/2500/20/
039980/20121126/143118/2065/1002/20/
039980/20121126/143127/2060/500/10/
039980/20121126/143153/2060/2166/10/
039980/20121126/143153/2060/6361/10/
039980/20121126/143257/2060/552/20/
039980/20121126/143309/2055/5002/10/
039980/20121126/143316/2055/2002/10/
039980/20121126/143331/2060/4003/20/
039980/20121126/143351/2060/324/20/
039980/20121126/143357/2060/201/20/
039980/20121126/143401/2060/1618/20/
039980/20121126/143418/2060/228/20/
039980/20121126/143504/2065/100/20/
039980/20121126/143515/2070/247/20/
039980/20121126/143639/2060/1105/10/
039980/20121126/143641/2055/878/10/
039980/20121126/143651/2055/211/10/
039980/20121126/143756/2055/169/10/
039980/20121126/143759/2055/9898/10/
039980/20121126/143759/2050/13645/10/
039980/20121126/143759/2050/515/10/
039980/20121126/143803/2050/6122/10/
039980/20121126/143812/2050/351/10/
039980/20121126/143818/2060/221/20/
039980/20121126/143830/2060/130/20/
039980/20121126/143842/2060/90/20/
039980/20121126/143846/2060/550/20/
039980/20121126/143846/2055/4549/10/
039980/20121126/143852/2055/100/20/
039980/20121126/143856/2055/500/20/
039980/20121126/143856/2055/250/20/
039980/20121126/143901/2055/4136/20/
039980/20121126/143909/2060/90/20/
039980/20121126/143914/2060/470/20/
039980/20121126/143914/2060/550/20/
039980/20121126/143916/2060/2131/20/
039980/20121126/143916/2060/3208/20/
039980/20121126/143923/2065/101/20/
039980/20121126/143924/2065/255/20/
039980/20121126/143930/2065/116/20/
039980/20121126/143940/2065/90/20/
039980/20121126/143946/2065/100/20/
039980/20121126/143957/2065/285/20/
039980/20121126/144007/2065/105/20/
039980/20121126/144025/2065/100/20/
039980/20121126/144037/2065/81/20/
039980/20121126/144037/2065/208/20/
039980/20121126/144042/2065/90/20/
039980/20121126/144045/2065/1140/20/
039980/20121126/144059/2065/90/20/
039980/20121126/144107/2065/90/20/
039980/20121126/144119/2065/1540/20/
039980/20121126/144133/2065/90/20/
039980/20121126/144158/2065/472/20/
039980/20121126/144209/2070/100/20/
039980/20121126/144212/2070/1050/20/
039980/20121126/144219/2070/130/20/
039980/20121126/144226/2070/100/20/
039980/20121126/144247/2070/120/20/
039980/20121126/144259/2070/290/20/
039980/20121126/144302/2070/250/20/
039980/20121126/144307/2070/500/20/
039980/20121126/144309/2070/340/20/
039980/20121126/144335/2070/280/20/
039980/20121126/144342/2070/1000/20/
039980/20121126/144342/2070/300/20/
039980/20121126/144343/2070/1073/20/
039980/20121126/144354/2070/800/10/
039980/20121126/144400/2070/200/10/
039980/20121126/144415/2075/90/20/
039980/20121126/144445/2075/300/20/
039980/20121126/144448/2075/250/20/
039980/20121126/144507/2075/5531/20/
039980/20121126/144532/2075/90/20/
039980/20121126/144543/2075/1050/20/
039980/20121126/144545/2075/500/20/
039980/20121126/144654/2075/130/20/
039980/20121126/144707/2075/690/20/
039980/20121126/144807/2070/927/10/
039980/20121126/144824/2065/1000/10/
039980/20121126/144841/2065/100/20/
039980/20121126/144855/2070/90/20/
039980/20121126/144902/2070/3358/20/
039980/20121126/144912/2070/162/20/
039980/20121126/144940/2070/1002/20/
039980/20121126/144951/2070/90/20/
039980/20121126/150000/2080/42992/10/
