039980/20130104/90000/2080/1989/20/
039980/20130104/90000/2080/100/20/
039980/20130104/90012/2080/652/20/
039980/20130104/90012/2085/1099/20/
039980/20130104/90031/2085/250/10/
039980/20130104/90039/2085/999/10/
039980/20130104/90129/2085/1083/20/
039980/20130104/90205/2090/1688/20/
039980/20130104/90237/2095/2004/20/
039980/20130104/90242/2095/964/10/
039980/20130104/90316/2095/112/20/
039980/20130104/90332/2095/1252/20/
039980/20130104/90358/2100/2557/20/
039980/20130104/90358/2095/270/10/
039980/20130104/90421/2095/479/10/
039980/20130104/90457/2090/113/10/
039980/20130104/90510/2090/360/10/
039980/20130104/90544/2085/451/10/
039980/20130104/90605/2085/251/10/
039980/20130104/90609/2085/88/20/
039980/20130104/90617/2085/722/10/
039980/20130104/90712/2095/4001/20/
039980/20130104/90730/2095/1399/20/
039980/20130104/90759/2090/200/20/
039980/20130104/90810/2085/500/10/
039980/20130104/90823/2090/200/20/
039980/20130104/90922/2090/1001/10/
039980/20130104/90935/2090/500/20/
039980/20130104/90940/2090/538/10/
039980/20130104/90947/2085/1266/10/
039980/20130104/91008/2090/2001/20/
039980/20130104/91023/2090/1397/20/
039980/20130104/91037/2085/501/10/
039980/20130104/91123/2090/505/10/
039980/20130104/91126/2095/268/20/
039980/20130104/91235/2090/1006/10/
039980/20130104/91336/2090/101/10/
039980/20130104/91456/2090/1005/10/
039980/20130104/91534/2090/1401/10/
039980/20130104/91537/2095/1400/20/
039980/20130104/91558/2095/654/20/
039980/20130104/91607/2100/92/20/
039980/20130104/91611/2100/7000/20/
039980/20130104/91614/2100/498/20/
039980/20130104/91630/2100/4767/10/
039980/20130104/91638/2100/233/20/
039980/20130104/91638/2105/127/20/
039980/20130104/91718/2100/2001/20/
039980/20130104/91723/2100/101/10/
039980/20130104/91740/2100/551/10/
039980/20130104/91754/2100/100/10/
039980/20130104/91810/2100/273/10/
039980/20130104/91820/2095/500/10/
039980/20130104/91832/2100/2778/20/
039980/20130104/91845/2105/501/20/
039980/20130104/91857/2100/273/10/
039980/20130104/91901/2100/727/20/
039980/20130104/91909/2100/1006/10/
039980/20130104/91909/2100/277/10/
039980/20130104/91914/2100/723/20/
039980/20130104/91930/2100/2001/10/
039980/20130104/91932/2100/665/10/
039980/20130104/91940/2100/335/10/
039980/20130104/91950/2105/3000/20/
039980/20130104/91951/2100/1000/10/
039980/20130104/91952/2105/206/20/
039980/20130104/91956/2105/2420/10/
039980/20130104/92001/2105/1348/10/
039980/20130104/92001/2100/3652/10/
039980/20130104/92003/2100/1000/10/
039980/20130104/92131/2105/2110/20/
039980/20130104/92141/2105/200/10/
039980/20130104/92141/2105/2000/10/
039980/20130104/92205/2105/240/10/
039980/20130104/92221/2105/496/10/
039980/20130104/92223/2100/4988/10/
039980/20130104/92246/2095/2094/10/
039980/20130104/92249/2095/500/10/
039980/20130104/92320/2095/1611/20/
039980/20130104/92331/2100/154/10/
039980/20130104/92351/2100/256/10/
039980/20130104/92444/2100/100/10/
039980/20130104/92715/2100/447/10/
039980/20130104/92750/2100/4378/10/
039980/20130104/92758/2100/981/10/
039980/20130104/92801/2100/745/20/
039980/20130104/92814/2100/255/10/
039980/20130104/92844/2100/1000/20/
039980/20130104/92936/2100/1000/20/
039980/20130104/92959/2100/2213/20/
039980/20130104/93011/2100/1000/20/
039980/20130104/93024/2100/150/20/
039980/20130104/93029/2100/100/20/
039980/20130104/93042/2100/1047/20/
039980/20130104/93054/2100/300/20/
039980/20130104/93056/2100/140/20/
039980/20130104/93057/2100/100/20/
039980/20130104/93110/2105/81/20/
039980/20130104/93133/2105/2000/20/
039980/20130104/93146/2110/958/20/
039980/20130104/93153/2105/990/10/
039980/20130104/93224/2105/1036/20/
039980/20130104/93311/2110/1016/20/
039980/20130104/93326/2110/3547/20/
039980/20130104/93326/2110/1479/20/
039980/20130104/93331/2110/3391/10/
039980/20130104/93337/2110/2417/20/
039980/20130104/93342/2110/100/20/
039980/20130104/93345/2110/1570/20/
039980/20130104/93346/2110/464/20/
039980/20130104/93349/2110/236/10/
039980/20130104/93409/2110/1279/20/
039980/20130104/93409/2110/100/10/
039980/20130104/93412/2110/100/10/
039980/20130104/93420/2110/343/10/
039980/20130104/93535/2105/571/10/
039980/20130104/93551/2110/781/20/
039980/20130104/93551/2115/3607/20/
039980/20130104/93551/2120/362/20/
039980/20130104/93607/2120/2000/20/
039980/20130104/93608/2120/3230/20/
039980/20130104/93609/2120/235/20/
039980/20130104/93612/2120/561/20/
039980/20130104/93612/2125/5438/20/
039980/20130104/93618/2125/1152/20/
039980/20130104/93620/2125/271/20/
039980/20130104/93624/2130/914/20/
039980/20130104/93628/2130/509/20/
039980/20130104/93629/2130/1001/20/
039980/20130104/93631/2130/555/20/
039980/20130104/93638/2125/208/10/
039980/20130104/93641/2125/161/10/
039980/20130104/93652/2120/150/10/
039980/20130104/93700/2120/850/20/
039980/20130104/93701/2120/100/10/
039980/20130104/93712/2120/570/10/
039980/20130104/93728/2120/550/20/
039980/20130104/93734/2120/590/20/
039980/20130104/93738/2120/1000/20/
039980/20130104/93741/2120/297/20/
039980/20130104/93744/2120/556/20/
039980/20130104/93758/2120/100/10/
039980/20130104/93800/2120/828/20/
039980/20130104/93802/2120/232/10/
039980/20130104/93813/2120/87/20/
039980/20130104/93816/2120/451/20/
039980/20130104/93823/2120/300/10/
039980/20130104/93827/2120/1000/10/
039980/20130104/93831/2120/274/10/
039980/20130104/93834/2120/150/10/
039980/20130104/93835/2120/225/10/
039980/20130104/93835/2115/755/10/
039980/20130104/93849/2115/1017/20/
039980/20130104/93915/2120/1009/20/
039980/20130104/93932/2120/2000/20/
039980/20130104/93953/2120/541/10/
039980/20130104/94018/2120/2052/20/
039980/20130104/94048/2120/91/10/
039980/20130104/94059/2120/462/10/
039980/20130104/94110/2120/743/20/
039980/20130104/94110/2120/100/10/
039980/20130104/94116/2120/508/10/
039980/20130104/94118/2120/650/10/
039980/20130104/94131/2125/116/20/
039980/20130104/94137/2120/1000/10/
039980/20130104/94141/2120/135/10/
039980/20130104/94142/2120/166/20/
039980/20130104/94146/2120/1230/10/
039980/20130104/94149/2120/418/10/
039980/20130104/94151/2120/186/10/
039980/20130104/94214/2115/3000/10/
039980/20130104/94227/2115/4549/10/
039980/20130104/94232/2115/100/20/
039980/20130104/94236/2115/351/20/
039980/20130104/94243/2120/2556/20/
039980/20130104/94243/2125/4950/20/
039980/20130104/94312/2120/2500/10/
039980/20130104/94317/2120/500/20/
039980/20130104/94318/2120/100/20/
039980/20130104/94319/2120/100/20/
039980/20130104/94320/2120/120/20/
039980/20130104/94321/2120/235/20/
039980/20130104/94324/2120/100/20/
039980/20130104/94326/2115/2402/10/
039980/20130104/94329/2115/98/20/
039980/20130104/94340/2115/501/10/
039980/20130104/94433/2115/901/10/
039980/20130104/94440/2120/350/20/
039980/20130104/94441/2115/1100/10/
039980/20130104/94454/2120/701/20/
039980/20130104/94508/2120/1335/20/
039980/20130104/94513/2120/1488/20/
039980/20130104/94513/2125/512/20/
039980/20130104/94538/2125/100/20/
039980/20130104/94608/2125/2500/20/
039980/20130104/94609/2125/500/20/
039980/20130104/94610/2125/2110/20/
039980/20130104/94620/2130/1002/20/
039980/20130104/94624/2130/470/20/
039980/20130104/94628/2130/2000/20/
039980/20130104/94634/2130/500/20/
039980/20130104/94635/2130/670/20/
039980/20130104/94704/2125/1533/10/
039980/20130104/94727/2125/734/20/
039980/20130104/94737/2130/301/20/
039980/20130104/94749/2130/200/20/
039980/20130104/94758/2125/1000/10/
039980/20130104/94805/2125/471/20/
039980/20130104/94818/2125/201/10/
039980/20130104/94823/2125/1241/10/
039980/20130104/94831/2125/1530/20/
039980/20130104/94833/2125/243/20/
039980/20130104/94838/2125/1299/10/
039980/20130104/94839/2125/500/20/
039980/20130104/94853/2125/2102/20/
039980/20130104/94907/2125/2026/10/
039980/20130104/94908/2125/873/10/
039980/20130104/94912/2125/1127/20/
039980/20130104/94920/2125/1374/10/
039980/20130104/94925/2125/627/20/
039980/20130104/94933/2130/511/20/
039980/20130104/94939/2130/200/20/
039980/20130104/94946/2130/1000/20/
039980/20130104/94950/2130/4000/20/
039980/20130104/94951/2130/141/20/
039980/20130104/94951/2130/359/10/
039980/20130104/94955/2130/241/20/
039980/20130104/95012/2130/326/20/
039980/20130104/95016/2130/400/20/
039980/20130104/95026/2125/3000/10/
039980/20130104/95102/2125/1504/10/
039980/20130104/95106/2125/503/10/
039980/20130104/95106/2130/1921/20/
039980/20130104/95119/2125/1507/10/
039980/20130104/95120/2125/98/10/
039980/20130104/95140/2125/479/20/
039980/20130104/95248/2120/1004/10/
039980/20130104/95250/2120/2088/10/
039980/20130104/95325/2115/263/10/
039980/20130104/95327/2115/1619/10/
039980/20130104/95333/2115/703/10/
039980/20130104/95334/2115/885/10/
039980/20130104/95356/2115/100/20/
039980/20130104/95416/2110/2002/10/
039980/20130104/95529/2110/700/10/
039980/20130104/95552/2110/1891/10/
039980/20130104/95620/2110/109/20/
039980/20130104/95636/2115/100/20/
039980/20130104/95846/2110/213/10/
039980/20130104/95900/2110/1100/10/
039980/20130104/95913/2110/600/10/
039980/20130104/100029/2105/1611/10/
039980/20130104/100058/2105/300/20/
039980/20130104/100137/2105/497/10/
039980/20130104/100232/2105/1687/10/
039980/20130104/100241/2105/1000/10/
039980/20130104/100259/2105/197/10/
039980/20130104/100334/2105/280/20/
039980/20130104/100444/2105/500/20/
039980/20130104/100452/2105/280/20/
039980/20130104/100505/2100/4519/10/
039980/20130104/100505/2095/2986/10/
039980/20130104/100612/2100/534/10/
039980/20130104/100632/2100/233/20/
039980/20130104/100646/2100/234/10/
039980/20130104/100649/2100/795/20/
039980/20130104/100717/2105/525/20/
039980/20130104/100741/2105/498/10/
039980/20130104/101052/2110/2148/20/
039980/20130104/101116/2110/500/20/
039980/20130104/101250/2105/1033/10/
039980/20130104/101319/2105/300/20/
039980/20130104/101359/2100/87/10/
039980/20130104/101446/2105/270/20/
039980/20130104/101453/2105/737/20/
039980/20130104/101506/2105/250/10/
039980/20130104/101629/2105/200/10/
039980/20130104/101856/2105/2327/10/
039980/20130104/101905/2100/1000/10/
039980/20130104/101951/2110/120/20/
039980/20130104/102021/2105/200/10/
039980/20130104/102037/2105/1200/10/
039980/20130104/102122/2105/1420/10/
039980/20130104/102141/2100/100/10/
039980/20130104/102153/2100/500/10/
039980/20130104/102158/2105/570/20/
039980/20130104/102218/2105/200/20/
039980/20130104/102342/2100/2070/10/
039980/20130104/102405/2105/457/20/
039980/20130104/102426/2105/194/10/
039980/20130104/102444/2100/2000/10/
039980/20130104/102446/2100/921/10/
039980/20130104/102521/2100/82/20/
039980/20130104/102536/2100/1468/20/
039980/20130104/102543/2100/529/20/
039980/20130104/102611/2100/1350/10/
039980/20130104/102701/2105/106/20/
039980/20130104/102942/2110/1901/20/
039980/20130104/102942/2115/3156/20/
039980/20130104/103002/2115/104/20/
039980/20130104/103002/2120/96/20/
039980/20130104/103045/2120/100/20/
039980/20130104/103215/2120/472/20/
039980/20130104/103232/2120/360/20/
039980/20130104/103326/2115/1000/10/
039980/20130104/103520/2115/510/20/
039980/20130104/103657/2110/200/10/
039980/20130104/103700/2110/200/10/
039980/20130104/103707/2110/100/10/
039980/20130104/103822/2115/1050/20/
039980/20130104/104134/2110/760/10/
039980/20130104/104141/2105/504/10/
039980/20130104/104155/2105/608/10/
039980/20130104/104201/2105/892/20/
039980/20130104/104304/2100/1247/10/
039980/20130104/104517/2100/5000/10/
039980/20130104/104548/2105/1109/20/
039980/20130104/104553/2105/3000/10/
039980/20130104/104556/2105/684/10/
039980/20130104/104606/2105/500/10/
039980/20130104/104725/2105/1576/10/
039980/20130104/104725/2100/3209/10/
039980/20130104/104822/2100/1000/10/
039980/20130104/104834/2095/700/10/
039980/20130104/105107/2105/732/10/
039980/20130104/105228/2105/256/20/
039980/20130104/105254/2105/500/20/
039980/20130104/105256/2105/480/20/
039980/20130104/105421/2105/726/10/
039980/20130104/105421/2100/3460/10/
039980/20130104/105450/2095/5798/10/
039980/20130104/105559/2100/1019/20/
039980/20130104/105727/2100/3000/20/
039980/20130104/105727/2100/2970/20/
039980/20130104/110151/2100/3698/10/
039980/20130104/110151/2095/1330/10/
039980/20130104/110215/2095/3014/10/
039980/20130104/110340/2100/1033/20/
039980/20130104/110610/2100/1014/20/
039980/20130104/110815/2105/270/20/
039980/20130104/110940/2100/2357/10/
039980/20130104/110949/2100/634/20/
039980/20130104/111150/2100/500/10/
039980/20130104/111335/2105/273/20/
039980/20130104/111354/2105/1000/20/
039980/20130104/111405/2105/2231/20/
039980/20130104/111656/2110/1002/20/
039980/20130104/111737/2110/500/20/
039980/20130104/111819/2110/504/20/
039980/20130104/111833/2110/1500/20/
039980/20130104/111836/2110/1350/20/
039980/20130104/111845/2110/469/20/
039980/20130104/111914/2110/1141/10/
039980/20130104/112048/2110/200/20/
039980/20130104/112230/2105/500/10/
039980/20130104/112256/2105/1000/10/
039980/20130104/112355/2105/100/10/
039980/20130104/112510/2105/2000/10/
039980/20130104/112906/2100/4923/10/
039980/20130104/112911/2100/350/10/
039980/20130104/112934/2100/370/10/
039980/20130104/113024/2100/2000/10/
039980/20130104/113221/2100/1000/10/
039980/20130104/113231/2100/333/10/
039980/20130104/113405/2100/93/20/
039980/20130104/113458/2100/500/10/
039980/20130104/113533/2100/500/10/
039980/20130104/113612/2100/500/10/
039980/20130104/113647/2100/1000/10/
039980/20130104/113649/2100/777/20/
039980/20130104/113856/2100/972/20/
039980/20130104/113907/2100/1000/10/
039980/20130104/114040/2100/1000/10/
039980/20130104/114246/2100/1503/20/
039980/20130104/114326/2100/350/10/
039980/20130104/114342/2100/485/10/
039980/20130104/114854/2100/366/20/
039980/20130104/114936/2100/1658/10/
039980/20130104/114951/2100/342/20/
039980/20130104/115022/2100/799/10/
039980/20130104/115037/2100/500/10/
039980/20130104/115040/2100/4000/10/
039980/20130104/115057/2100/330/10/
039980/20130104/115122/2100/1000/10/
039980/20130104/115226/2100/183/10/
039980/20130104/115619/2100/1699/20/
039980/20130104/115639/2100/354/10/
039980/20130104/115723/2100/646/20/
039980/20130104/120111/2100/115/20/
039980/20130104/120336/2100/86/20/
039980/20130104/120527/2100/1301/10/
039980/20130104/120643/2100/1000/10/
039980/20130104/121138/2100/1276/10/
039980/20130104/122341/2095/3000/10/
039980/20130104/122540/2100/1534/20/
039980/20130104/122612/2095/1224/10/
039980/20130104/122704/2095/1227/10/
039980/20130104/123635/2100/2532/20/
039980/20130104/123654/2100/100/10/
039980/20130104/123704/2100/100/10/
039980/20130104/123711/2100/91/10/
039980/20130104/123842/2095/3000/10/
039980/20130104/124120/2100/95/20/
039980/20130104/124422/2095/1468/10/
039980/20130104/124904/2095/735/10/
039980/20130104/125141/2095/500/10/
039980/20130104/125312/2095/2009/10/
039980/20130104/125332/2095/749/20/
039980/20130104/125538/2100/780/20/
039980/20130104/125749/2105/110/20/
039980/20130104/125856/2100/1030/10/
039980/20130104/130101/2100/430/10/
039980/20130104/130316/2095/450/10/
039980/20130104/130341/2095/1000/10/
039980/20130104/130448/2095/3000/10/
039980/20130104/130719/2095/1000/10/
039980/20130104/130900/2095/1000/10/
039980/20130104/130933/2095/315/10/
039980/20130104/131312/2100/1819/10/
039980/20130104/131312/2105/913/20/
039980/20130104/131623/2100/618/20/
039980/20130104/131623/2105/1513/20/
039980/20130104/131634/2105/450/10/
039980/20130104/131718/2105/100/10/
039980/20130104/131803/2105/250/10/
039980/20130104/131832/2095/2310/10/
039980/20130104/131832/2090/759/10/
039980/20130104/131920/2095/100/10/
039980/20130104/132454/2095/552/10/
039980/20130104/132711/2095/2959/10/
039980/20130104/132711/2090/1211/10/
039980/20130104/132734/2090/100/10/
039980/20130104/133148/2095/82/10/
039980/20130104/133459/2095/500/10/
039980/20130104/133522/2095/500/10/
039980/20130104/133557/2095/4151/10/
039980/20130104/133712/2095/545/20/
039980/20130104/133712/2100/655/20/
039980/20130104/133945/2100/950/20/
039980/20130104/134127/2095/4000/10/
039980/20130104/134155/2095/300/10/
039980/20130104/134410/2095/623/10/
039980/20130104/134525/2095/500/10/
039980/20130104/134549/2100/4966/10/
039980/20130104/134557/2095/5000/10/
039980/20130104/134633/2095/500/10/
039980/20130104/134925/2095/200/10/
039980/20130104/135003/2100/1498/20/
039980/20130104/135050/2100/100/10/
039980/20130104/135256/2105/343/20/
039980/20130104/135530/2110/94/20/
039980/20130104/135722/2105/150/20/
039980/20130104/135722/2110/3397/20/
039980/20130104/135817/2110/700/20/
039980/20130104/135936/2110/100/20/
039980/20130104/135939/2110/2622/20/
039980/20130104/140041/2115/1101/20/
039980/20130104/140745/2110/306/10/
039980/20130104/140822/2110/94/10/
039980/20130104/141319/2110/420/20/
039980/20130104/141641/2105/2732/10/
039980/20130104/141647/2105/956/10/
039980/20130104/141720/2105/300/10/
039980/20130104/141728/2105/100/10/
039980/20130104/141731/2105/1501/10/
039980/20130104/141802/2105/295/10/
039980/20130104/141931/2105/1050/10/
039980/20130104/142024/2105/116/10/
039980/20130104/142209/2110/3667/20/
039980/20130104/142211/2110/1373/10/
039980/20130104/142224/2110/200/20/
039980/20130104/142240/2110/200/20/
039980/20130104/142323/2110/84/20/
039980/20130104/142425/2110/137/20/
039980/20130104/142909/2110/2534/20/
039980/20130104/142909/2115/187/20/
039980/20130104/142936/2115/6360/20/
039980/20130104/142936/2120/3640/20/
039980/20130104/143131/2115/1453/20/
039980/20130104/143131/2120/2047/20/
039980/20130104/143139/2115/90/20/
039980/20130104/143224/2115/90/20/
039980/20130104/143559/2110/105/10/
039980/20130104/143601/2110/100/10/
039980/20130104/143635/2110/384/20/
039980/20130104/143649/2110/631/10/
039980/20130104/143745/2110/370/20/
039980/20130104/143753/2110/201/10/
039980/20130104/143929/2110/151/10/
039980/20130104/143941/2110/301/10/
039980/20130104/144058/2110/200/20/
039980/20130104/144146/2110/1001/10/
039980/20130104/144148/2110/1274/10/
039980/20130104/144226/2105/8609/10/
039980/20130104/144316/2105/241/10/
039980/20130104/144343/2105/2144/10/
039980/20130104/144420/2105/401/10/
039980/20130104/144459/2105/494/20/
039980/20130104/144535/2110/3357/20/
039980/20130104/144622/2110/301/20/
039980/20130104/144625/2115/2000/20/
039980/20130104/144759/2110/3813/10/
039980/20130104/144816/2105/1267/10/
039980/20130104/144840/2105/4733/20/
039980/20130104/144900/2110/9348/20/
039980/20130104/144900/2115/558/20/
039980/20130104/144915/2115/5399/10/
039980/20130104/144935/2115/475/10/
039980/20130104/144937/2115/2700/10/
039980/20130104/144943/2115/200/10/
039980/20130104/144957/2115/162/10/
039980/20130104/144959/2115/101/20/
039980/20130104/150000/2120/44475/20/
