039980/20130125/90000/2075/1200/20/
039980/20130125/90028/2075/300/20/
039980/20130125/90235/2070/170/10/
039980/20130125/90243/2070/100/20/
039980/20130125/90248/2070/986/20/
039980/20130125/90320/2065/1428/10/
039980/20130125/90415/2065/100/20/
039980/20130125/90430/2060/658/10/
039980/20130125/90554/2060/492/10/
039980/20130125/90654/2055/738/10/
039980/20130125/90759/2055/1000/20/
039980/20130125/90815/2055/1662/20/
039980/20130125/90902/2060/1000/20/
039980/20130125/90935/2060/1907/20/
039980/20130125/90945/2065/1000/20/
039980/20130125/91035/2065/363/10/
039980/20130125/91108/2065/361/10/
039980/20130125/91121/2065/900/10/
039980/20130125/91121/2070/6000/20/
039980/20130125/91146/2075/250/20/
039980/20130125/91248/2070/300/20/
039980/20130125/91350/2075/1000/20/
039980/20130125/91409/2075/2857/20/
039980/20130125/91445/2075/500/10/
039980/20130125/91452/2075/3981/10/
039980/20130125/91627/2065/500/10/
039980/20130125/91726/2065/2200/10/
039980/20130125/91736/2065/710/10/
039980/20130125/91842/2065/500/10/
039980/20130125/92028/2070/105/20/
039980/20130125/92029/2070/155/20/
039980/20130125/92029/2075/988/20/
039980/20130125/92050/2075/250/10/
039980/20130125/92052/2075/4407/10/
039980/20130125/92243/2075/956/20/
039980/20130125/92336/2075/144/20/
039980/20130125/92520/2075/110/20/
039980/20130125/92702/2075/493/20/
039980/20130125/93103/2070/200/10/
039980/20130125/93151/2070/223/10/
039980/20130125/93427/2070/777/20/
039980/20130125/93427/2075/2723/20/
039980/20130125/93607/2065/120/10/
039980/20130125/93632/2065/121/10/
039980/20130125/93705/2070/757/20/
039980/20130125/93833/2065/3000/10/
039980/20130125/93920/2070/250/20/
039980/20130125/93946/2065/10000/10/
039980/20130125/94012/2065/206/20/
039980/20130125/94131/2065/265/20/
039980/20130125/94133/2065/300/20/
039980/20130125/94217/2065/3234/20/
039980/20130125/94419/2065/500/10/
039980/20130125/94543/2065/149/10/
039980/20130125/94840/2065/618/10/
039980/20130125/94946/2065/935/20/
039980/20130125/95047/2070/503/20/
039980/20130125/95111/2060/1000/10/
039980/20130125/95231/2060/3500/10/
039980/20130125/95252/2060/218/10/
039980/20130125/95530/2055/3422/10/
039980/20130125/95549/2050/505/10/
039980/20130125/95626/2050/3381/10/
039980/20130125/95959/2050/285/10/
039980/20130125/100002/2050/250/10/
039980/20130125/100155/2050/1860/10/
039980/20130125/100245/2050/422/10/
039980/20130125/100346/2050/602/10/
039980/20130125/100555/2050/1500/10/
039980/20130125/100557/2050/200/10/
039980/20130125/100557/2050/143/10/
039980/20130125/100600/2045/1000/10/
039980/20130125/100605/2045/1226/10/
039980/20130125/100608/2040/1000/10/
039980/20130125/100618/2040/631/10/
039980/20130125/100621/2040/450/10/
039980/20130125/100631/2040/555/10/
039980/20130125/100636/2040/500/20/
039980/20130125/100640/2035/1996/10/
039980/20130125/100640/2030/4332/10/
039980/20130125/100651/2040/269/20/
039980/20130125/100659/2040/100/20/
039980/20130125/100757/2030/221/10/
039980/20130125/100833/2035/630/10/
039980/20130125/100901/2035/1000/10/
039980/20130125/101044/2040/1000/20/
039980/20130125/101049/2040/330/20/
039980/20130125/101115/2040/246/20/
039980/20130125/101201/2040/111/10/
039980/20130125/101311/2035/2017/10/
039980/20130125/101458/2035/1514/10/
039980/20130125/101458/2030/2987/10/
039980/20130125/101900/2035/3000/10/
039980/20130125/101947/2035/210/10/
039980/20130125/102303/2035/810/10/
039980/20130125/102329/2035/1500/10/
039980/20130125/102403/2035/1381/10/
039980/20130125/102403/2035/1500/20/
039980/20130125/102417/2035/2011/20/
039980/20130125/102440/2035/748/10/
039980/20130125/102459/2035/1517/10/
039980/20130125/102504/2035/493/20/
039980/20130125/102514/2035/749/10/
039980/20130125/102702/2035/2010/10/
039980/20130125/102911/2035/311/10/
039980/20130125/102938/2035/236/10/
039980/20130125/103201/2035/2639/10/
039980/20130125/103251/2035/1284/10/
039980/20130125/103343/2030/11707/10/
039980/20130125/103343/2030/200/20/
039980/20130125/103347/2030/2924/20/
039980/20130125/103408/2030/250/20/
039980/20130125/103508/2030/265/20/
039980/20130125/103516/2030/526/20/
039980/20130125/103622/2035/500/20/
039980/20130125/103720/2030/1614/10/
039980/20130125/103736/2030/3887/20/
039980/20130125/104148/2035/505/20/
039980/20130125/104205/2035/496/20/
039980/20130125/104257/2035/1000/10/
039980/20130125/105116/2040/1080/20/
039980/20130125/105429/2040/1000/20/
039980/20130125/110102/2035/1148/10/
039980/20130125/110103/2040/5000/20/
039980/20130125/110138/2035/3604/10/
039980/20130125/110138/2030/8224/10/
039980/20130125/110223/2035/3003/10/
039980/20130125/110223/2030/880/10/
039980/20130125/110336/2030/1000/10/
039980/20130125/110647/2030/1000/10/
039980/20130125/110654/2030/803/10/
039980/20130125/110723/2025/2000/10/
039980/20130125/110754/2025/92/10/
039980/20130125/110811/2025/197/10/
039980/20130125/110832/2025/500/10/
039980/20130125/110837/2025/6774/10/
039980/20130125/110837/2020/1526/10/
039980/20130125/110838/2020/1133/10/
039980/20130125/111036/2030/201/20/
039980/20130125/111154/2025/996/10/
039980/20130125/111156/2020/4000/10/
039980/20130125/111435/2020/1195/10/
039980/20130125/111549/2020/3000/10/
039980/20130125/111600/2020/1094/10/
039980/20130125/111651/2020/406/20/
039980/20130125/112738/2020/134/10/
039980/20130125/112937/2030/4048/20/
039980/20130125/112948/2030/2004/10/
039980/20130125/113013/2030/100/10/
039980/20130125/113020/2030/800/10/
039980/20130125/113356/2030/122/10/
039980/20130125/113442/2025/2002/10/
039980/20130125/113504/2030/100/20/
039980/20130125/113525/2035/104/20/
039980/20130125/113527/2030/2000/10/
039980/20130125/113713/2035/249/20/
039980/20130125/113735/2035/556/20/
039980/20130125/113808/2030/1043/10/
039980/20130125/114122/2035/377/20/
039980/20130125/114213/2040/81/20/
039980/20130125/114300/2035/258/20/
039980/20130125/114351/2035/107/20/
039980/20130125/114426/2035/860/20/
039980/20130125/114616/2040/1008/20/
039980/20130125/114751/2040/2796/20/
039980/20130125/114810/2040/204/10/
039980/20130125/115343/2030/117/10/
039980/20130125/120933/2035/772/10/
039980/20130125/121901/2035/1504/20/
039980/20130125/122125/2030/322/10/
039980/20130125/122320/2030/200/10/
039980/20130125/122322/2030/253/10/
039980/20130125/122339/2030/1985/10/
039980/20130125/122532/2030/1873/20/
039980/20130125/122812/2030/4157/10/
039980/20130125/122948/2030/100/20/
039980/20130125/124541/2025/611/10/
039980/20130125/124552/2025/1000/10/
039980/20130125/124620/2025/3400/10/
039980/20130125/124629/2025/3135/10/
039980/20130125/124654/2025/100/20/
039980/20130125/124716/2020/5000/10/
039980/20130125/124718/2025/100/20/
039980/20130125/124829/2020/2001/10/
039980/20130125/124908/2020/859/10/
039980/20130125/124915/2020/1059/20/
039980/20130125/124941/2025/100/20/
039980/20130125/125719/2020/318/10/
039980/20130125/125749/2020/1211/10/
039980/20130125/125820/2020/612/10/
039980/20130125/125838/2020/1000/10/
039980/20130125/125916/2020/299/10/
039980/20130125/130228/2020/490/20/
039980/20130125/130343/2020/780/20/
039980/20130125/130521/2015/1240/10/
039980/20130125/130530/2015/609/10/
039980/20130125/130620/2015/562/10/
039980/20130125/130717/2015/166/10/
039980/20130125/130847/2015/300/10/
039980/20130125/130859/2015/4520/10/
039980/20130125/130921/2015/1248/10/
039980/20130125/130936/2015/12699/10/
039980/20130125/131004/2015/100/20/
039980/20130125/131006/2015/100/20/
039980/20130125/131058/2015/100/20/
039980/20130125/131125/2015/100/20/
039980/20130125/131229/2015/100/20/
039980/20130125/131341/2010/1601/10/
039980/20130125/131405/2010/2257/10/
039980/20130125/131427/2010/2000/10/
039980/20130125/131436/2010/5764/10/
039980/20130125/131524/2010/100/20/
039980/20130125/131603/2010/100/20/
039980/20130125/131621/2005/3000/10/
039980/20130125/131645/2005/3000/10/
039980/20130125/131656/2005/3000/10/
039980/20130125/131703/2005/1020/10/
039980/20130125/131709/2005/1000/10/
039980/20130125/131714/2005/558/10/
039980/20130125/131722/2005/1442/20/
039980/20130125/131733/2005/500/10/
039980/20130125/131836/2005/1461/10/
039980/20130125/131848/2005/3651/10/
039980/20130125/131853/2000/1014/10/
039980/20130125/131922/2000/100/10/
039980/20130125/131942/2005/349/20/
039980/20130125/132044/2005/1200/10/
039980/20130125/132052/2005/100/10/
039980/20130125/132100/2005/3000/10/
039980/20130125/132108/2005/2000/10/
039980/20130125/132145/2005/349/10/
039980/20130125/132227/2005/1000/10/
039980/20130125/132437/2005/2000/10/
039980/20130125/132506/2005/477/10/
039980/20130125/132705/2005/100/20/
039980/20130125/132753/2005/150/20/
039980/20130125/132804/2005/500/20/
039980/20130125/132841/2005/273/20/
039980/20130125/132924/2000/500/10/
039980/20130125/132945/2000/1000/10/
039980/20130125/133147/2005/510/20/
039980/20130125/133223/2005/550/20/
039980/20130125/133225/2005/189/20/
039980/20130125/133329/2005/5000/20/
039980/20130125/133337/2005/171/20/
039980/20130125/133603/2010/7000/20/
039980/20130125/133603/2010/7535/10/
039980/20130125/133709/2015/2054/20/
039980/20130125/133836/2015/500/10/
039980/20130125/134342/2015/632/10/
039980/20130125/135242/2010/250/10/
039980/20130125/135313/2010/200/10/
039980/20130125/135612/2010/1050/10/
039980/20130125/135618/2010/8331/10/
039980/20130125/135618/2005/16652/10/
039980/20130125/135725/2005/784/10/
039980/20130125/135802/2010/200/20/
039980/20130125/135804/2010/160/10/
039980/20130125/135804/2005/1290/10/
039980/20130125/140208/2010/1000/10/
039980/20130125/140356/2010/3210/10/
039980/20130125/140407/2010/702/20/
039980/20130125/140417/2010/1000/20/
039980/20130125/140433/2010/88/20/
039980/20130125/140442/2010/912/10/
039980/20130125/140448/2010/625/20/
039980/20130125/140458/2010/150/10/
039980/20130125/140517/2010/950/10/
039980/20130125/140535/2010/275/10/
039980/20130125/140538/2010/600/20/
039980/20130125/140641/2010/625/10/
039980/20130125/140737/2010/1400/20/
039980/20130125/140828/2010/2000/20/
039980/20130125/140844/2010/100/20/
039980/20130125/140944/2010/1298/20/
039980/20130125/141006/2010/2000/20/
039980/20130125/141016/2010/300/20/
039980/20130125/141042/2010/162/20/
039980/20130125/141605/2015/1001/20/
039980/20130125/141917/2015/156/20/
039980/20130125/142056/2015/246/20/
039980/20130125/142226/2015/800/20/
039980/20130125/142318/2010/1900/10/
039980/20130125/142447/2015/1505/20/
039980/20130125/142519/2015/995/10/
039980/20130125/142714/2015/130/20/
039980/20130125/142902/2015/1480/20/
039980/20130125/142953/2015/500/20/
039980/20130125/143457/2020/2421/20/
039980/20130125/143641/2025/1000/20/
039980/20130125/143935/2025/1505/20/
039980/20130125/143952/2025/200/20/
039980/20130125/144324/2025/1105/20/
039980/20130125/144355/2025/601/10/
039980/20130125/144359/2025/375/10/
039980/20130125/144408/2020/4228/10/
039980/20130125/144512/2020/250/20/
039980/20130125/144545/2020/627/20/
039980/20130125/144757/2020/151/10/
039980/20130125/144823/2025/636/20/
039980/20130125/144827/2025/565/10/
039980/20130125/144947/2020/587/10/
039980/20130125/150000/2015/16061/10/
