039980/20130225/90000/2115/4320/10/
039980/20130225/90006/2120/3000/20/
039980/20130225/90008/2120/500/20/
039980/20130225/90025/2115/618/10/
039980/20130225/90031/2110/1501/10/
039980/20130225/90036/2120/344/20/
039980/20130225/90049/2115/100/20/
039980/20130225/90111/2120/307/20/
039980/20130225/90112/2115/100/10/
039980/20130225/90220/2120/115/20/
039980/20130225/90243/2115/921/10/
039980/20130225/90425/2110/3000/10/
039980/20130225/90441/2110/419/10/
039980/20130225/90448/2110/581/20/
039980/20130225/90559/2110/609/10/
039980/20130225/90734/2110/1005/10/
039980/20130225/90748/2110/500/10/
039980/20130225/90946/2110/492/10/
039980/20130225/90959/2110/328/10/
039980/20130225/91007/2110/100/20/
039980/20130225/91131/2110/860/20/
039980/20130225/91133/2105/2570/10/
039980/20130225/91257/2105/330/10/
039980/20130225/91300/2105/1432/10/
039980/20130225/91311/2105/1195/10/
039980/20130225/91327/2105/138/10/
039980/20130225/91327/2100/1115/10/
039980/20130225/91327/2095/687/10/
039980/20130225/91331/2105/2500/10/
039980/20130225/91346/2105/500/10/
039980/20130225/91522/2095/370/10/
039980/20130225/91601/2095/500/20/
039980/20130225/91609/2095/440/20/
039980/20130225/91612/2095/550/20/
039980/20130225/91617/2095/3529/10/
039980/20130225/91752/2090/2049/10/
039980/20130225/91821/2095/348/20/
039980/20130225/91939/2095/1123/20/
039980/20130225/91943/2095/299/10/
039980/20130225/91955/2095/278/10/
039980/20130225/91955/2090/2722/10/
039980/20130225/91956/2090/2000/10/
039980/20130225/92021/2090/91/10/
039980/20130225/92113/2090/5000/10/
039980/20130225/92225/2090/1600/10/
039980/20130225/92225/2085/6409/10/
039980/20130225/92234/2090/500/10/
039980/20130225/92237/2090/500/10/
039980/20130225/92239/2090/500/10/
039980/20130225/92243/2090/500/10/
039980/20130225/92341/2100/1289/20/
039980/20130225/92502/2100/109/20/
039980/20130225/92509/2100/480/20/
039980/20130225/92516/2100/3000/20/
039980/20130225/92532/2100/152/20/
039980/20130225/92536/2100/150/10/
039980/20130225/92540/2100/100/10/
039980/20130225/92619/2100/170/10/
039980/20130225/93217/2105/10002/20/
039980/20130225/93218/2100/1100/10/
039980/20130225/93230/2100/1100/20/
039980/20130225/93316/2105/2755/20/
039980/20130225/93332/2105/1010/20/
039980/20130225/93335/2105/1000/20/
039980/20130225/93343/2105/500/20/
039980/20130225/93351/2105/1148/20/
039980/20130225/93412/2105/300/10/
039980/20130225/93555/2110/6237/20/
039980/20130225/93849/2115/3768/20/
039980/20130225/94004/2110/179/10/
039980/20130225/94023/2115/1550/20/
039980/20130225/94031/2115/3000/20/
039980/20130225/94139/2115/1060/20/
039980/20130225/94152/2115/1000/20/
039980/20130225/94153/2115/205/20/
039980/20130225/94236/2115/1000/20/
039980/20130225/94338/2115/500/20/
039980/20130225/94341/2115/1000/20/
039980/20130225/94414/2115/391/20/
039980/20130225/94446/2120/1495/20/
039980/20130225/94542/2115/105/10/
039980/20130225/94549/2115/150/10/
039980/20130225/94614/2115/1119/10/
039980/20130225/94650/2110/500/10/
039980/20130225/94655/2110/2086/10/
039980/20130225/94706/2110/100/20/
039980/20130225/94842/2105/210/10/
039980/20130225/94848/2105/314/10/
039980/20130225/95052/2110/100/20/
039980/20130225/95242/2110/210/20/
039980/20130225/95411/2105/323/10/
039980/20130225/95419/2110/440/20/
039980/20130225/95419/2115/760/20/
039980/20130225/95539/2110/294/10/
039980/20130225/95558/2110/8892/10/
039980/20130225/95606/2110/1955/20/
039980/20130225/95900/2105/500/10/
039980/20130225/95920/2105/1000/10/
039980/20130225/100115/2105/1000/10/
039980/20130225/100840/2110/500/20/
039980/20130225/100924/2110/800/20/
039980/20130225/101112/2110/200/20/
039980/20130225/101122/2110/4643/20/
039980/20130225/101210/2115/100/20/
039980/20130225/101254/2115/10000/20/
039980/20130225/101308/2115/2698/20/
039980/20130225/101309/2115/302/10/
039980/20130225/101331/2115/300/20/
039980/20130225/101332/2115/282/20/
039980/20130225/101343/2120/100/20/
039980/20130225/101346/2115/273/10/
039980/20130225/101626/2115/1000/20/
039980/20130225/101631/2115/2488/20/
039980/20130225/101636/2115/500/20/
039980/20130225/101801/2115/500/20/
039980/20130225/102125/2110/500/20/
039980/20130225/102131/2115/200/20/
039980/20130225/102149/2115/100/20/
039980/20130225/102222/2110/300/20/
039980/20130225/102242/2110/200/20/
039980/20130225/102315/2110/100/20/
039980/20130225/102441/2115/9619/20/
039980/20130225/102441/2120/15234/20/
039980/20130225/102516/2125/100/20/
039980/20130225/102523/2120/500/10/
039980/20130225/102531/2120/100/10/
039980/20130225/102538/2120/186/10/
039980/20130225/102603/2110/890/10/
039980/20130225/102652/2110/2614/10/
039980/20130225/102819/2110/586/20/
039980/20130225/103135/2120/103/20/
039980/20130225/103225/2120/101/20/
039980/20130225/103434/2115/112/10/
039980/20130225/103611/2115/162/20/
039980/20130225/103727/2110/1100/10/
039980/20130225/103830/2115/700/20/
039980/20130225/103851/2115/100/10/
039980/20130225/104400/2120/107/20/
039980/20130225/104619/2110/277/10/
039980/20130225/105207/2110/5000/10/
039980/20130225/105241/2110/1266/10/
039980/20130225/105756/2105/1234/10/
039980/20130225/110003/2105/500/10/
039980/20130225/110356/2105/1200/10/
039980/20130225/110627/2105/3745/10/
039980/20130225/110914/2105/301/10/
039980/20130225/110955/2100/10330/10/
039980/20130225/111008/2100/100/10/
039980/20130225/111020/2100/321/10/
039980/20130225/111147/2105/178/20/
039980/20130225/112131/2110/1324/20/
039980/20130225/112258/2110/1858/20/
039980/20130225/112815/2100/1306/10/
039980/20130225/112851/2100/1200/10/
039980/20130225/112900/2100/2651/10/
039980/20130225/113105/2100/2670/10/
039980/20130225/113237/2100/348/20/
039980/20130225/113428/2100/120/10/
039980/20130225/113500/2100/101/20/
039980/20130225/113511/2100/120/20/
039980/20130225/113524/2100/100/20/
039980/20130225/113531/2100/100/20/
039980/20130225/113554/2100/136/20/
039980/20130225/114124/2100/2945/10/
039980/20130225/114124/2095/725/10/
039980/20130225/114139/2100/238/10/
039980/20130225/114200/2100/262/20/
039980/20130225/114344/2105/100/20/
039980/20130225/114651/2100/110/10/
039980/20130225/115006/2105/1030/20/
039980/20130225/115324/2100/415/10/
039980/20130225/120133/2100/2050/20/
039980/20130225/120210/2100/300/20/
039980/20130225/120241/2100/146/20/
039980/20130225/120910/2100/160/10/
039980/20130225/120918/2100/100/10/
039980/20130225/121047/2095/170/10/
039980/20130225/121353/2100/100/20/
039980/20130225/122029/2100/335/20/
039980/20130225/122135/2100/86/20/
039980/20130225/122255/2095/1080/10/
039980/20130225/123145/2100/2580/20/
039980/20130225/123806/2100/115/20/
039980/20130225/124153/2095/138/10/
039980/20130225/124220/2100/1500/20/
039980/20130225/124233/2100/1000/20/
039980/20130225/124310/2095/1000/10/
039980/20130225/124332/2100/2000/20/
039980/20130225/124530/2095/600/10/
039980/20130225/124732/2095/330/10/
039980/20130225/124752/2095/1000/10/
039980/20130225/124813/2095/2200/10/
039980/20130225/124855/2095/500/10/
039980/20130225/124922/2095/500/10/
039980/20130225/125232/2100/501/20/
039980/20130225/125338/2095/2500/10/
039980/20130225/125342/2095/2693/10/
039980/20130225/125401/2095/500/20/
039980/20130225/125544/2095/740/20/
039980/20130225/125709/2095/1605/10/
039980/20130225/130022/2100/150/20/
039980/20130225/130249/2095/501/10/
039980/20130225/130257/2095/1000/10/
039980/20130225/130319/2100/800/20/
039980/20130225/130403/2095/1000/10/
039980/20130225/130425/2095/640/10/
039980/20130225/130437/2095/359/20/
039980/20130225/130543/2095/1054/10/
039980/20130225/130553/2095/946/20/
039980/20130225/130623/2095/1000/20/
039980/20130225/130652/2100/100/20/
039980/20130225/130828/2095/110/20/
039980/20130225/130923/2095/92/20/
039980/20130225/130949/2095/1058/20/
039980/20130225/131025/2095/900/20/
039980/20130225/131400/2090/510/10/
039980/20130225/131718/2090/1001/10/
039980/20130225/131924/2090/949/10/
039980/20130225/131956/2090/13980/10/
039980/20130225/132041/2090/100/20/
039980/20130225/132222/2085/10020/10/
039980/20130225/132338/2090/521/20/
039980/20130225/132357/2090/500/20/
039980/20130225/133426/2090/301/10/
039980/20130225/134422/2090/3908/10/
039980/20130225/134440/2085/5500/10/
039980/20130225/134805/2090/355/20/
039980/20130225/134905/2090/100/20/
039980/20130225/135141/2090/2000/20/
039980/20130225/135319/2090/101/20/
039980/20130225/135449/2090/500/20/
039980/20130225/135521/2090/230/20/
039980/20130225/135903/2090/120/20/
039980/20130225/140426/2085/310/10/
039980/20130225/140439/2085/1850/10/
039980/20130225/140445/2085/3000/10/
039980/20130225/140512/2085/122/10/
039980/20130225/140536/2085/300/10/
039980/20130225/140637/2085/87/10/
039980/20130225/140709/2085/133/10/
039980/20130225/140806/2085/237/10/
039980/20130225/140817/2085/1000/10/
039980/20130225/140929/2090/301/20/
039980/20130225/141428/2090/1000/20/
039980/20130225/141457/2090/500/20/
039980/20130225/141555/2090/100/20/
039980/20130225/141604/2090/1000/20/
039980/20130225/141605/2090/269/20/
039980/20130225/141612/2090/138/20/
039980/20130225/141618/2090/138/20/
039980/20130225/141623/2090/169/20/
039980/20130225/141626/2090/138/20/
039980/20130225/141633/2090/138/20/
039980/20130225/141639/2090/138/20/
039980/20130225/141718/2090/500/20/
039980/20130225/141720/2090/1444/20/
039980/20130225/142054/2090/102/10/
039980/20130225/142439/2095/6889/20/
039980/20130225/142510/2100/100/20/
039980/20130225/142530/2100/138/20/
039980/20130225/142531/2100/138/20/
039980/20130225/142532/2100/138/20/
039980/20130225/142533/2100/138/20/
039980/20130225/143555/2090/337/10/
039980/20130225/143709/2090/166/10/
039980/20130225/143746/2095/810/20/
039980/20130225/144724/2090/951/10/
039980/20130225/144724/2085/7477/10/
039980/20130225/144802/2085/1000/10/
039980/20130225/144841/2090/269/20/
039980/20130225/144841/2095/251/20/
039980/20130225/144907/2095/138/20/
039980/20130225/144909/2095/138/20/
039980/20130225/144910/2095/138/20/
039980/20130225/144914/2095/138/20/
039980/20130225/144919/2095/138/20/
039980/20130225/144921/2095/138/20/
039980/20130225/144922/2095/138/20/
039980/20130225/144923/2095/268/20/
039980/20130225/150000/2105/26355/20/
