039980/20121207/90000/1980/24760/10/
039980/20121207/90001/2000/300/20/
039980/20121207/90012/2000/2700/10/
039980/20121207/90012/2000/1300/20/
039980/20121207/90043/2000/205/10/
039980/20121207/90123/2010/1600/20/
039980/20121207/90126/2010/1617/10/
039980/20121207/90203/2000/3636/10/
039980/20121207/90220/2000/7058/10/
039980/20121207/90230/2000/300/10/
039980/20121207/90304/2000/4133/10/
039980/20121207/90333/2000/457/20/
039980/20121207/90333/2005/1000/20/
039980/20121207/90439/2005/1004/20/
039980/20121207/90512/2005/1704/10/
039980/20121207/90528/2000/551/10/
039980/20121207/90528/2005/8260/20/
039980/20121207/90847/2005/738/20/
039980/20121207/90933/2010/205/20/
039980/20121207/91212/2005/618/10/
039980/20121207/91640/2000/180/10/
039980/20121207/91736/2000/503/10/
039980/20121207/91739/2000/1000/10/
039980/20121207/91943/2005/423/20/
039980/20121207/92021/2005/943/20/
039980/20121207/92144/2010/1050/20/
039980/20121207/92144/2010/512/20/
039980/20121207/92208/2015/201/20/
039980/20121207/92356/2005/1002/10/
039980/20121207/92400/2005/635/10/
039980/20121207/92400/2000/854/10/
039980/20121207/92400/1995/1181/10/
039980/20121207/92904/2010/142/20/
039980/20121207/93039/2000/124/10/
039980/20121207/93119/2000/217/10/
039980/20121207/93551/2010/489/20/
039980/20121207/93647/2010/339/20/
039980/20121207/94308/2005/548/10/
039980/20121207/94308/2005/500/10/
039980/20121207/95825/2005/139/10/
039980/20121207/95924/2005/101/10/
039980/20121207/95959/2005/101/10/
039980/20121207/100136/2005/593/10/
039980/20121207/100236/2005/616/10/
039980/20121207/100319/2005/251/20/
039980/20121207/100340/2005/335/20/
039980/20121207/100552/2000/2082/10/
039980/20121207/100802/2000/127/10/
039980/20121207/100802/1995/2878/10/
039980/20121207/101029/2000/100/20/
039980/20121207/101152/2005/241/20/
039980/20121207/101152/2010/614/20/
039980/20121207/101152/2015/145/20/
039980/20121207/101815/2010/84/20/
039980/20121207/102106/2000/1430/10/
039980/20121207/102116/2000/100/20/
039980/20121207/102119/2000/225/20/
039980/20121207/102239/2005/1500/20/
039980/20121207/102258/2005/422/10/
039980/20121207/102309/2005/100/10/
039980/20121207/102543/2005/376/10/
039980/20121207/102834/2005/102/20/
039980/20121207/103919/2005/1103/10/
039980/20121207/103919/2000/1143/10/
039980/20121207/103919/1995/5798/10/
039980/20121207/104516/2000/508/10/
039980/20121207/104608/2000/1545/10/
039980/20121207/104608/1995/178/10/
039980/20121207/104636/1995/736/10/
039980/20121207/105413/2000/1023/10/
039980/20121207/110020/2005/274/20/
039980/20121207/110407/2000/177/10/
039980/20121207/110501/2005/86/20/
039980/20121207/110615/2000/655/10/
039980/20121207/110631/1995/2999/10/
039980/20121207/110751/2000/145/20/
039980/20121207/111101/2000/273/20/
039980/20121207/111606/1995/4010/10/
039980/20121207/111612/1995/495/10/
039980/20121207/111807/1995/391/10/
039980/20121207/111914/1995/447/10/
039980/20121207/111914/1990/2259/10/
039980/20121207/112352/1995/1002/10/
039980/20121207/112554/2000/205/20/
039980/20121207/112705/1995/201/10/
039980/20121207/112705/1990/2800/10/
039980/20121207/112714/1990/1250/10/
039980/20121207/114104/1990/2144/10/
039980/20121207/114152/1990/434/20/
039980/20121207/114210/1985/336/10/
039980/20121207/114622/1995/83/20/
039980/20121207/115817/1995/6031/20/
039980/20121207/115957/1995/149/20/
039980/20121207/120237/1995/227/20/
039980/20121207/120323/1990/1250/10/
039980/20121207/120540/1990/153/10/
039980/20121207/120541/1990/2000/10/
039980/20121207/120601/1990/1532/10/
039980/20121207/120653/1985/2062/10/
039980/20121207/120937/1985/750/10/
039980/20121207/121124/1990/570/20/
039980/20121207/121333/1985/310/10/
039980/20121207/121410/1990/3347/20/
039980/20121207/121558/1990/500/20/
039980/20121207/121919/1985/544/10/
039980/20121207/122018/1985/520/10/
039980/20121207/122019/1985/742/10/
039980/20121207/122117/1985/99/10/
039980/20121207/122147/1985/2400/10/
039980/20121207/122235/1990/723/10/
039980/20121207/122432/1990/585/10/
039980/20121207/122528/1985/5359/10/
039980/20121207/122528/1980/14641/10/
039980/20121207/122904/1985/608/10/
039980/20121207/122904/1980/2392/10/
039980/20121207/123156/1980/700/10/
039980/20121207/123245/1985/196/10/
039980/20121207/123809/1985/184/10/
039980/20121207/124307/1985/383/10/
039980/20121207/124407/1985/211/10/
039980/20121207/124421/1985/2200/10/
039980/20121207/124435/1985/2540/10/
039980/20121207/124436/1985/1317/10/
039980/20121207/124503/1980/15141/10/
039980/20121207/124503/1975/6213/10/
039980/20121207/124503/1970/2928/10/
039980/20121207/124546/1970/1499/10/
039980/20121207/124909/1975/1569/10/
039980/20121207/124942/1975/3000/10/
039980/20121207/124956/1975/1143/10/
039980/20121207/125005/1975/291/10/
039980/20121207/125107/1975/821/10/
039980/20121207/125208/1975/598/10/
039980/20121207/125222/1980/508/10/
039980/20121207/125239/1975/200/10/
039980/20121207/125307/1975/653/10/
039980/20121207/125452/1975/500/10/
039980/20121207/125452/1975/2764/10/
039980/20121207/125506/1970/1170/10/
039980/20121207/125544/1975/3000/20/
039980/20121207/125556/1975/200/20/
039980/20121207/125636/1975/2000/20/
039980/20121207/125801/1975/118/20/
039980/20121207/125922/1980/1200/20/
039980/20121207/130146/1980/140/10/
039980/20121207/130227/1980/251/10/
039980/20121207/130243/1980/381/20/
039980/20121207/130326/1980/4200/20/
039980/20121207/130408/1975/3449/10/
039980/20121207/130538/1975/1000/20/
039980/20121207/130550/1975/168/20/
039980/20121207/130707/1975/661/20/
039980/20121207/130707/1980/533/20/
039980/20121207/130708/1980/1346/10/
039980/20121207/131321/1985/15014/20/
039980/20121207/131620/1985/205/20/
039980/20121207/131727/1975/385/10/
039980/20121207/131834/1975/2650/10/
039980/20121207/131916/1975/204/10/
039980/20121207/131921/1975/500/10/
039980/20121207/131956/1975/693/10/
039980/20121207/132038/1975/3700/10/
039980/20121207/132202/1970/1308/10/
039980/20121207/132220/1975/992/20/
039980/20121207/132315/1975/2008/10/
039980/20121207/132534/1970/619/10/
039980/20121207/132618/1970/351/10/
039980/20121207/132627/1975/10000/20/
039980/20121207/132639/1975/1474/20/
039980/20121207/132820/1975/347/10/
039980/20121207/133013/1975/270/10/
039980/20121207/133134/1975/2494/10/
039980/20121207/133516/1975/1085/20/
039980/20121207/133625/1970/110/10/
039980/20121207/133641/1970/200/10/
039980/20121207/133712/1970/5077/10/
039980/20121207/133719/1970/2989/10/
039980/20121207/133735/1970/111/10/
039980/20121207/133739/1970/800/10/
039980/20121207/133913/1975/97/20/
039980/20121207/134555/1980/1479/20/
039980/20121207/134624/1980/512/20/
039980/20121207/134756/1980/1003/10/
039980/20121207/135353/1980/1783/10/
039980/20121207/135419/1980/100/10/
039980/20121207/135439/1980/265/10/
039980/20121207/135559/1985/110/20/
039980/20121207/140224/1985/2274/20/
039980/20121207/140400/1985/633/10/
039980/20121207/140408/1980/966/10/
039980/20121207/140408/1975/2344/10/
039980/20121207/140408/1970/3036/10/
039980/20121207/140408/1965/9884/10/
039980/20121207/140408/1960/10650/10/
039980/20121207/140408/1960/334/10/
039980/20121207/140408/1960/246/10/
039980/20121207/140726/1970/1880/10/
039980/20121207/140726/1965/3223/10/
039980/20121207/140726/1960/6197/10/
039980/20121207/140726/1955/8702/10/
039980/20121207/141446/1970/376/10/
039980/20121207/141446/1965/990/10/
039980/20121207/141508/1965/510/10/
039980/20121207/141533/1965/100/20/
039980/20121207/141603/1965/440/20/
039980/20121207/141900/1965/1830/10/
039980/20121207/141927/1965/470/10/
039980/20121207/142519/1970/764/10/
039980/20121207/142519/1965/2338/10/
039980/20121207/142519/1960/3401/10/
039980/20121207/142824/1965/101/10/
039980/20121207/142952/1965/441/10/
039980/20121207/143002/1965/791/10/
039980/20121207/143002/1965/709/20/
039980/20121207/143104/1965/100/10/
039980/20121207/143104/1960/4681/10/
039980/20121207/143133/1965/1457/10/
039980/20121207/143215/1960/2543/10/
039980/20121207/143349/1970/151/20/
039980/20121207/143630/1970/570/20/
039980/20121207/143640/1970/1450/10/
039980/20121207/143741/1970/1289/20/
039980/20121207/143855/1975/1000/20/
039980/20121207/144102/1980/96/20/
039980/20121207/144135/1975/100/10/
039980/20121207/144211/1970/2047/10/
039980/20121207/144241/1970/150/10/
039980/20121207/144324/1975/1765/20/
039980/20121207/144338/1980/100/20/
039980/20121207/144356/1970/156/10/
039980/20121207/144421/1980/81/20/
039980/20121207/144424/1970/100/10/
039980/20121207/144428/1975/797/20/
039980/20121207/144550/1975/221/10/
039980/20121207/144645/1975/206/10/
039980/20121207/144645/1975/810/20/
039980/20121207/144805/1975/817/10/
039980/20121207/144810/1975/194/10/
039980/20121207/144855/1975/306/20/
039980/20121207/144903/1975/1406/10/
039980/20121207/144903/1970/594/10/
039980/20121207/144923/1980/1166/20/
039980/20121207/144923/1985/800/20/
039980/20121207/150000/1980/16265/10/
