039980/20130221/90000/2105/2100/10/
039980/20130221/90203/2105/425/10/
039980/20130221/90203/2100/575/10/
039980/20130221/90216/2100/2000/10/
039980/20130221/90400/2100/230/10/
039980/20130221/90427/2100/559/10/
039980/20130221/90455/2105/600/20/
039980/20130221/90519/2105/908/10/
039980/20130221/90543/2100/1006/10/
039980/20130221/90544/2100/1000/10/
039980/20130221/90615/2100/2000/10/
039980/20130221/90637/2100/1542/10/
039980/20130221/90707/2100/200/10/
039980/20130221/90709/2100/625/10/
039980/20130221/90721/2100/375/20/
039980/20130221/90736/2100/320/10/
039980/20130221/90927/2100/2597/10/
039980/20130221/91202/2100/406/20/
039980/20130221/91342/2100/4602/10/
039980/20130221/91404/2100/300/20/
039980/20130221/91716/2100/259/20/
039980/20130221/91735/2100/175/20/
039980/20130221/91844/2095/153/10/
039980/20130221/91921/2095/800/10/
039980/20130221/91935/2100/400/20/
039980/20130221/92045/2100/1120/20/
039980/20130221/92056/2100/967/20/
039980/20130221/92205/2105/251/20/
039980/20130221/92429/2100/353/10/
039980/20130221/92434/2100/1000/10/
039980/20130221/92529/2100/1571/10/
039980/20130221/92536/2100/630/10/
039980/20130221/92547/2100/352/10/
039980/20130221/92730/2100/148/10/
039980/20130221/92822/2100/1602/10/
039980/20130221/92904/2100/200/20/
039980/20130221/92934/2100/243/10/
039980/20130221/93045/2100/400/10/
039980/20130221/93232/2100/1000/10/
039980/20130221/93311/2100/1000/10/
039980/20130221/93423/2100/2000/10/
039980/20130221/93441/2100/111/10/
039980/20130221/93631/2100/143/10/
039980/20130221/93746/2100/150/10/
039980/20130221/93830/2105/577/20/
039980/20130221/93841/2100/1000/10/
039980/20130221/93905/2100/1200/10/
039980/20130221/93946/2105/100/20/
039980/20130221/93959/2105/100/20/
039980/20130221/94012/2105/100/20/
039980/20130221/94022/2105/263/20/
039980/20130221/94117/2105/5000/20/
039980/20130221/94209/2105/914/20/
039980/20130221/94209/2110/86/20/
039980/20130221/94333/2110/1503/20/
039980/20130221/94343/2110/1202/20/
039980/20130221/94358/2110/3206/20/
039980/20130221/94629/2110/2060/10/
039980/20130221/94923/2115/5020/20/
039980/20130221/95001/2115/2416/20/
039980/20130221/95001/2115/487/10/
039980/20130221/95006/2115/486/10/
039980/20130221/95016/2120/235/20/
039980/20130221/95117/2115/3001/10/
039980/20130221/95127/2115/172/10/
039980/20130221/95139/2115/100/20/
039980/20130221/95200/2115/805/20/
039980/20130221/95200/2115/1023/20/
039980/20130221/95241/2115/3310/10/
039980/20130221/95249/2115/800/20/
039980/20130221/95254/2115/360/20/
039980/20130221/95310/2115/400/20/
039980/20130221/95324/2115/100/20/
039980/20130221/95348/2115/645/20/
039980/20130221/95909/2110/5021/10/
039980/20130221/95938/2110/1202/10/
039980/20130221/100014/2110/550/10/
039980/20130221/100035/2110/1508/10/
039980/20130221/100137/2110/549/20/
039980/20130221/100623/2110/1066/20/
039980/20130221/100657/2110/1022/20/
039980/20130221/100901/2110/91/10/
039980/20130221/101237/2110/700/10/
039980/20130221/101547/2110/151/10/
039980/20130221/101938/2110/1002/10/
039980/20130221/102134/2110/1200/10/
039980/20130221/102138/2110/300/10/
039980/20130221/102155/2110/500/10/
039980/20130221/102311/2110/1856/10/
039980/20130221/102406/2110/337/10/
039980/20130221/102611/2110/577/10/
039980/20130221/102814/2110/637/10/
039980/20130221/102821/2110/379/10/
039980/20130221/102821/2105/7615/10/
039980/20130221/102821/2100/12006/10/
039980/20130221/102833/2100/2810/10/
039980/20130221/102833/2100/2045/20/
039980/20130221/103115/2100/1503/10/
039980/20130221/103715/2100/1342/10/
039980/20130221/103738/2100/560/10/
039980/20130221/103833/2100/646/10/
039980/20130221/103833/2095/234/10/
039980/20130221/103853/2095/207/10/
039980/20130221/104011/2110/360/20/
039980/20130221/104810/2110/266/20/
039980/20130221/105555/2100/758/10/
039980/20130221/110441/2100/101/10/
039980/20130221/110721/2100/475/10/
039980/20130221/110821/2100/1651/10/
039980/20130221/110915/2100/1200/10/
039980/20130221/110954/2100/100/10/
039980/20130221/111258/2100/500/10/
039980/20130221/111440/2100/3001/10/
039980/20130221/111531/2100/1103/10/
039980/20130221/112654/2095/245/10/
039980/20130221/113845/2095/1445/10/
039980/20130221/113937/2095/2480/10/
039980/20130221/114107/2095/3000/10/
039980/20130221/114129/2095/1000/10/
039980/20130221/114348/2095/1005/10/
039980/20130221/115602/2095/277/10/
039980/20130221/120422/2100/105/20/
039980/20130221/120432/2095/1000/10/
039980/20130221/120749/2095/1010/10/
039980/20130221/120927/2095/4001/10/
039980/20130221/121416/2100/93/20/
039980/20130221/121442/2100/280/20/
039980/20130221/121736/2100/500/20/
039980/20130221/121748/2100/393/20/
039980/20130221/122147/2095/101/10/
039980/20130221/122226/2090/1500/10/
039980/20130221/124250/2095/144/10/
039980/20130221/124544/2095/100/10/
039980/20130221/124929/2095/599/10/
039980/20130221/124959/2095/3000/10/
039980/20130221/125642/2090/300/10/
039980/20130221/125650/2095/400/20/
039980/20130221/130507/2095/268/10/
039980/20130221/130507/2090/7372/10/
039980/20130221/130538/2090/5700/10/
039980/20130221/130728/2090/3296/10/
039980/20130221/130826/2090/5000/20/
039980/20130221/131040/2085/7150/10/
039980/20130221/131334/2090/1800/20/
039980/20130221/131343/2090/100/20/
039980/20130221/131447/2090/159/20/
039980/20130221/131704/2090/2000/20/
039980/20130221/131852/2090/1227/20/
039980/20130221/132201/2090/1042/10/
039980/20130221/132831/2095/2515/20/
039980/20130221/133005/2095/695/20/
039980/20130221/133007/2095/100/10/
039980/20130221/133335/2100/1001/20/
039980/20130221/133346/2095/100/10/
039980/20130221/134026/2100/223/20/
039980/20130221/134842/2100/1004/20/
039980/20130221/134941/2100/1000/20/
039980/20130221/135026/2100/1000/20/
039980/20130221/135324/2095/20000/10/
039980/20130221/135937/2100/81/20/
039980/20130221/135944/2095/2057/10/
039980/20130221/140622/2100/200/20/
039980/20130221/140715/2100/500/20/
039980/20130221/140951/2095/535/10/
039980/20130221/141248/2095/107/10/
039980/20130221/141405/2095/108/10/
039980/20130221/141835/2095/204/10/
039980/20130221/142025/2095/400/10/
039980/20130221/142029/2095/1485/10/
039980/20130221/142031/2090/4500/10/
039980/20130221/142034/2090/5000/10/
039980/20130221/142038/2090/5000/10/
039980/20130221/142038/2090/1719/10/
039980/20130221/142104/2090/100/10/
039980/20130221/142104/2085/12900/10/
039980/20130221/142155/2085/1901/10/
039980/20130221/142209/2085/501/20/
039980/20130221/142229/2085/1054/20/
039980/20130221/142235/2085/500/10/
039980/20130221/142311/2085/392/20/
039980/20130221/142315/2085/4167/20/
039980/20130221/142400/2085/1833/10/
039980/20130221/142408/2080/3303/10/
039980/20130221/142410/2085/1000/20/
039980/20130221/142506/2085/100/20/
039980/20130221/142523/2085/200/20/
039980/20130221/142533/2085/5000/20/
039980/20130221/142621/2080/543/10/
039980/20130221/142632/2080/5980/10/
039980/20130221/142706/2080/2000/10/
039980/20130221/142914/2085/22000/20/
039980/20130221/142924/2085/863/20/
039980/20130221/143015/2085/500/10/
039980/20130221/143045/2085/2737/10/
039980/20130221/143046/2085/4679/20/
039980/20130221/143121/2080/3010/10/
039980/20130221/143218/2080/1943/10/
039980/20130221/143300/2080/1013/10/
039980/20130221/143451/2080/1654/10/
039980/20130221/143512/2080/1734/10/
039980/20130221/143642/2085/1000/20/
039980/20130221/143725/2080/3000/10/
039980/20130221/143741/2080/230/10/
039980/20130221/143745/2085/1628/20/
039980/20130221/143811/2090/372/20/
039980/20130221/143853/2085/300/20/
039980/20130221/144028/2080/101/10/
039980/20130221/144049/2080/1150/10/
039980/20130221/144106/2080/500/10/
039980/20130221/144133/2080/3902/10/
039980/20130221/144135/2080/500/10/
039980/20130221/144140/2080/1838/10/
039980/20130221/144205/2080/2500/20/
039980/20130221/144249/2080/310/20/
039980/20130221/144312/2080/852/20/
039980/20130221/144316/2080/583/10/
039980/20130221/144322/2080/500/10/
039980/20130221/144353/2080/442/10/
039980/20130221/144355/2080/500/10/
039980/20130221/144436/2080/1550/10/
039980/20130221/144540/2080/3575/10/
039980/20130221/144557/2080/1000/20/
039980/20130221/144700/2075/507/10/
039980/20130221/144725/2075/5425/10/
039980/20130221/144811/2080/295/10/
039980/20130221/144824/2080/200/10/
039980/20130221/144949/2085/489/20/
039980/20130221/150000/2080/10982/10/
