039980/20130320/90000/2210/3646/20/
039980/20130320/90000/2210/350/20/
039980/20130320/90000/2205/900/20/
039980/20130320/90023/2205/800/20/
039980/20130320/90042/2205/110/20/
039980/20130320/90047/2200/2015/10/
039980/20130320/90048/2205/340/20/
039980/20130320/90053/2205/260/10/
039980/20130320/90056/2205/618/20/
039980/20130320/90108/2200/600/10/
039980/20130320/90200/2200/383/20/
039980/20130320/90202/2200/441/20/
039980/20130320/90304/2200/231/20/
039980/20130320/90419/2195/500/10/
039980/20130320/90545/2195/1051/10/
039980/20130320/90545/2190/4289/10/
039980/20130320/90545/2185/2550/10/
039980/20130320/90545/2180/2111/10/
039980/20130320/90545/2200/815/20/
039980/20130320/90604/2200/500/20/
039980/20130320/90742/2180/201/10/
039980/20130320/91225/2195/123/10/
039980/20130320/91258/2200/565/20/
039980/20130320/91301/2200/1000/20/
039980/20130320/91327/2200/536/10/
039980/20130320/91433/2200/304/10/
039980/20130320/91441/2200/169/10/
039980/20130320/91535/2195/3000/10/
039980/20130320/91615/2200/812/20/
039980/20130320/91815/2200/1361/20/
039980/20130320/91822/2200/200/20/
039980/20130320/91827/2195/300/10/
039980/20130320/91839/2195/5158/10/
039980/20130320/91839/2195/243/20/
039980/20130320/91839/2200/157/20/
039980/20130320/91922/2195/771/10/
039980/20130320/91934/2200/209/20/
039980/20130320/92149/2195/150/10/
039980/20130320/92200/2190/2105/10/
039980/20130320/92345/2185/1000/10/
039980/20130320/92345/2185/740/10/
039980/20130320/92423/2190/939/20/
039980/20130320/92605/2190/122/10/
039980/20130320/92813/2180/932/10/
039980/20130320/92820/2180/2000/10/
039980/20130320/92830/2180/577/10/
039980/20130320/92830/2175/3230/10/
039980/20130320/92906/2175/92/20/
039980/20130320/92911/2175/445/10/
039980/20130320/92917/2170/501/10/
039980/20130320/92921/2170/341/10/
039980/20130320/92931/2170/201/10/
039980/20130320/92931/2170/539/10/
039980/20130320/93148/2170/252/10/
039980/20130320/93154/2170/2312/10/
039980/20130320/93154/2165/1887/10/
039980/20130320/93154/2160/801/10/
039980/20130320/93158/2160/547/10/
039980/20130320/93159/2160/600/10/
039980/20130320/93239/2160/400/10/
039980/20130320/93258/2160/212/10/
039980/20130320/93434/2170/306/10/
039980/20130320/93505/2170/2230/10/
039980/20130320/93514/2170/300/20/
039980/20130320/93559/2165/600/10/
039980/20130320/93559/2165/930/10/
039980/20130320/93628/2160/470/10/
039980/20130320/93641/2160/200/10/
039980/20130320/93653/2160/1733/10/
039980/20130320/93653/2155/6775/10/
039980/20130320/93653/2150/1901/10/
039980/20130320/93706/2150/1000/10/
039980/20130320/93706/2150/2871/10/
039980/20130320/93727/2150/300/20/
039980/20130320/93731/2150/500/10/
039980/20130320/93748/2150/1055/10/
039980/20130320/93801/2150/875/20/
039980/20130320/93812/2150/4567/10/
039980/20130320/93819/2150/1380/10/
039980/20130320/93823/2150/100/10/
039980/20130320/93831/2150/200/10/
039980/20130320/93909/2155/100/20/
039980/20130320/93912/2155/2892/20/
039980/20130320/93948/2155/500/10/
039980/20130320/93948/2150/2061/10/
039980/20130320/93948/2145/3779/10/
039980/20130320/93948/2140/1608/10/
039980/20130320/93948/2135/1045/10/
039980/20130320/94014/2135/2000/10/
039980/20130320/94039/2140/200/10/
039980/20130320/94043/2135/2763/10/
039980/20130320/94043/2130/2735/10/
039980/20130320/94043/2125/1611/10/
039980/20130320/94043/2120/2289/10/
039980/20130320/94044/2120/497/20/
039980/20130320/94100/2130/150/10/
039980/20130320/94100/2120/4211/10/
039980/20130320/94115/2120/300/10/
039980/20130320/94117/2120/1137/10/
039980/20130320/94118/2120/1060/20/
039980/20130320/94131/2120/305/10/
039980/20130320/94139/2120/900/10/
039980/20130320/94139/2140/153/20/
039980/20130320/94207/2140/147/10/
039980/20130320/94236/2130/112/10/
039980/20130320/94248/2125/1500/10/
039980/20130320/94332/2130/103/20/
039980/20130320/94356/2135/108/20/
039980/20130320/94404/2135/106/20/
039980/20130320/94411/2135/100/20/
039980/20130320/94413/2135/100/20/
039980/20130320/94416/2135/200/20/
039980/20130320/94440/2140/1037/20/
039980/20130320/94441/2140/100/20/
039980/20130320/94441/2135/101/10/
039980/20130320/94450/2135/100/20/
039980/20130320/94524/2135/599/20/
039980/20130320/94530/2135/400/10/
039980/20130320/94545/2140/201/20/
039980/20130320/94548/2140/1000/20/
039980/20130320/94548/2140/2671/20/
039980/20130320/94603/2140/1037/10/
039980/20130320/94614/2150/563/20/
039980/20130320/94614/2150/100/10/
039980/20130320/94742/2150/254/10/
039980/20130320/94836/2150/453/10/
039980/20130320/94854/2150/800/10/
039980/20130320/94950/2155/244/20/
039980/20130320/95305/2150/1626/10/
039980/20130320/95327/2155/101/20/
039980/20130320/95439/2155/322/20/
039980/20130320/95440/2155/100/20/
039980/20130320/95506/2155/500/20/
039980/20130320/95527/2150/800/10/
039980/20130320/95529/2155/99/20/
039980/20130320/95802/2155/1146/10/
039980/20130320/95820/2155/200/20/
039980/20130320/95932/2155/114/20/
039980/20130320/100002/2160/524/20/
039980/20130320/100051/2160/1000/20/
039980/20130320/100125/2155/742/10/
039980/20130320/100148/2155/1550/10/
039980/20130320/100227/2155/441/10/
039980/20130320/100344/2150/92/10/
039980/20130320/100533/2155/301/20/
039980/20130320/100533/2155/200/20/
039980/20130320/100702/2155/410/20/
039980/20130320/100718/2155/591/10/
039980/20130320/100718/2150/410/10/
039980/20130320/100735/2155/501/10/
039980/20130320/100745/2155/501/10/
039980/20130320/100751/2155/1000/10/
039980/20130320/101118/2150/501/10/
039980/20130320/101120/2150/1390/10/
039980/20130320/101136/2150/1500/10/
039980/20130320/101401/2150/702/10/
039980/20130320/101401/2145/1331/10/
039980/20130320/101440/2145/1043/10/
039980/20130320/101507/2145/300/20/
039980/20130320/101541/2145/1050/20/
039980/20130320/101559/2145/200/20/
039980/20130320/101602/2145/469/20/
039980/20130320/101626/2145/100/20/
039980/20130320/101725/2145/99/10/
039980/20130320/101729/2145/100/10/
039980/20130320/102051/2150/108/20/
039980/20130320/102121/2150/500/20/
039980/20130320/102212/2150/143/20/
039980/20130320/102303/2150/616/20/
039980/20130320/102619/2155/486/20/
039980/20130320/102649/2160/139/20/
039980/20130320/102739/2160/100/20/
039980/20130320/102841/2155/1015/20/
039980/20130320/102841/2160/3985/20/
039980/20130320/102855/2160/100/20/
039980/20130320/102903/2160/1483/20/
039980/20130320/102906/2160/2000/10/
039980/20130320/102912/2160/501/10/
039980/20130320/102912/2165/450/20/
039980/20130320/103306/2160/1003/10/
039980/20130320/103502/2160/419/10/
039980/20130320/103506/2160/83/20/
039980/20130320/103539/2165/265/20/
039980/20130320/103549/2165/399/20/
039980/20130320/103557/2165/601/10/
039980/20130320/103557/2160/1399/10/
039980/20130320/103622/2170/254/20/
039980/20130320/103737/2170/702/20/
039980/20130320/104345/2165/504/20/
039980/20130320/104438/2160/1254/10/
039980/20130320/104513/2150/6229/20/
039980/20130320/104551/2150/197/20/
039980/20130320/104556/2150/584/20/
039980/20130320/105255/2155/113/10/
039980/20130320/105722/2160/110/20/
039980/20130320/105737/2160/150/20/
039980/20130320/105852/2160/157/20/
039980/20130320/110047/2165/831/20/
039980/20130320/110419/2160/242/10/
039980/20130320/111125/2165/1075/20/
039980/20130320/111144/2165/190/20/
039980/20130320/111226/2165/891/20/
039980/20130320/111247/2165/96/20/
039980/20130320/111603/2170/104/20/
039980/20130320/112221/2165/123/10/
039980/20130320/112227/2165/650/10/
039980/20130320/112235/2165/220/10/
039980/20130320/112235/2165/1000/10/
039980/20130320/112239/2165/230/10/
039980/20130320/112244/2165/145/10/
039980/20130320/112330/2165/1341/20/
039980/20130320/112334/2170/2000/20/
039980/20130320/112335/2170/1629/20/
039980/20130320/112441/2170/371/10/
039980/20130320/112502/2165/260/10/
039980/20130320/112520/2165/110/10/
039980/20130320/112608/2165/501/10/
039980/20130320/113220/2160/1000/10/
039980/20130320/113327/2165/1020/10/
039980/20130320/113742/2165/910/10/
039980/20130320/114441/2170/171/20/
039980/20130320/114617/2165/723/10/
039980/20130320/115116/2165/106/10/
039980/20130320/115313/2165/1391/10/
039980/20130320/115453/2165/400/10/
039980/20130320/115601/2165/600/10/
039980/20130320/115709/2165/1001/10/
039980/20130320/115813/2165/501/10/
039980/20130320/115815/2170/2000/20/
039980/20130320/115816/2170/2000/20/
039980/20130320/115845/2170/2001/20/
039980/20130320/115951/2170/831/20/
039980/20130320/120104/2175/607/20/
039980/20130320/120500/2170/1520/10/
039980/20130320/120519/2170/116/10/
039980/20130320/120525/2170/212/10/
039980/20130320/121228/2165/107/10/
039980/20130320/121635/2165/221/10/
039980/20130320/121755/2165/283/10/
039980/20130320/122011/2170/501/20/
039980/20130320/122117/2165/600/10/
039980/20130320/122137/2160/181/10/
039980/20130320/122222/2160/430/10/
039980/20130320/122419/2160/300/10/
039980/20130320/122628/2160/357/10/
039980/20130320/122649/2160/3001/10/
039980/20130320/123722/2160/171/10/
039980/20130320/123831/2160/445/10/
039980/20130320/123841/2165/713/20/
039980/20130320/123853/2165/2982/10/
039980/20130320/123914/2165/1796/20/
039980/20130320/123939/2165/244/20/
039980/20130320/125240/2165/1048/20/
039980/20130320/130209/2170/102/20/
039980/20130320/130345/2165/400/10/
039980/20130320/131200/2170/1845/20/
039980/20130320/131232/2170/103/10/
039980/20130320/131249/2170/377/20/
039980/20130320/131530/2175/2979/20/
039980/20130320/132229/2170/5022/10/
039980/20130320/132251/2170/100/10/
039980/20130320/132425/2170/200/10/
039980/20130320/132854/2175/1551/20/
039980/20130320/132955/2175/329/10/
039980/20130320/133008/2175/1671/10/
039980/20130320/133015/2175/2000/20/
039980/20130320/133017/2175/1829/20/
039980/20130320/133017/2175/171/10/
039980/20130320/133019/2175/826/20/
039980/20130320/133123/2180/4554/20/
039980/20130320/133141/2180/293/10/
039980/20130320/133154/2185/1174/20/
039980/20130320/133204/2185/500/20/
039980/20130320/133231/2185/1565/20/
039980/20130320/133232/2185/100/10/
039980/20130320/133249/2185/190/10/
039980/20130320/133335/2185/252/10/
039980/20130320/133336/2185/98/10/
039980/20130320/133349/2185/402/20/
039980/20130320/133358/2190/500/20/
039980/20130320/133409/2185/534/10/
039980/20130320/133458/2185/165/10/
039980/20130320/133508/2185/500/20/
039980/20130320/133601/2180/481/10/
039980/20130320/133735/2180/134/10/
039980/20130320/133920/2180/1366/10/
039980/20130320/133934/2180/700/10/
039980/20130320/133946/2180/425/10/
039980/20130320/133946/2175/155/10/
039980/20130320/134040/2175/945/10/
039980/20130320/134052/2175/400/20/
039980/20130320/134103/2175/3000/20/
039980/20130320/134112/2175/133/20/
039980/20130320/134327/2180/700/20/
039980/20130320/134401/2180/330/10/
039980/20130320/134558/2180/1000/20/
039980/20130320/134858/2180/138/10/
039980/20130320/134900/2185/1500/20/
039980/20130320/134902/2180/393/10/
039980/20130320/134930/2180/107/20/
039980/20130320/134950/2185/1004/20/
039980/20130320/135025/2190/903/20/
039980/20130320/135050/2185/100/20/
039980/20130320/135113/2185/631/20/
039980/20130320/135316/2180/1230/10/
039980/20130320/135323/2180/200/10/
039980/20130320/135327/2180/600/10/
039980/20130320/135441/2185/200/20/
039980/20130320/135847/2180/206/10/
039980/20130320/140636/2180/1551/10/
039980/20130320/140718/2180/781/10/
039980/20130320/140806/2175/500/10/
039980/20130320/140853/2175/867/10/
039980/20130320/140958/2175/500/20/
039980/20130320/141011/2175/188/20/
039980/20130320/141014/2175/312/10/
039980/20130320/141014/2175/439/20/
039980/20130320/141100/2175/249/20/
039980/20130320/141509/2180/881/20/
039980/20130320/141523/2180/100/20/
039980/20130320/141601/2180/4200/20/
039980/20130320/141633/2180/206/20/
039980/20130320/141649/2175/1001/10/
039980/20130320/141804/2175/81/10/
039980/20130320/141959/2175/1726/10/
039980/20130320/142010/2175/100/20/
039980/20130320/142011/2175/174/20/
039980/20130320/142027/2175/191/10/
039980/20130320/142155/2175/181/20/
039980/20130320/142155/2180/339/20/
039980/20130320/142207/2180/400/20/
039980/20130320/142337/2180/521/20/
039980/20130320/142357/2180/100/20/
039980/20130320/142411/2180/521/20/
039980/20130320/142422/2180/450/20/
039980/20130320/142434/2180/748/20/
039980/20130320/142534/2180/100/10/
039980/20130320/142722/2180/314/10/
039980/20130320/142754/2180/1010/10/
039980/20130320/142820/2180/100/10/
039980/20130320/142859/2180/1000/10/
039980/20130320/142948/2180/500/10/
039980/20130320/143008/2180/140/20/
039980/20130320/143240/2175/1080/10/
039980/20130320/143416/2175/1150/10/
039980/20130320/143510/2180/160/20/
039980/20130320/143555/2180/100/20/
039980/20130320/143721/2180/502/10/
039980/20130320/143750/2180/150/20/
039980/20130320/143815/2180/2000/20/
039980/20130320/143820/2180/470/20/
039980/20130320/143821/2180/530/10/
039980/20130320/143942/2175/234/10/
039980/20130320/144224/2180/2530/20/
039980/20130320/144234/2180/111/10/
039980/20130320/144336/2175/125/10/
039980/20130320/144459/2180/100/20/
039980/20130320/144524/2180/100/20/
039980/20130320/144600/2180/900/20/
039980/20130320/144610/2180/102/20/
039980/20130320/144633/2175/600/10/
039980/20130320/144649/2180/2197/20/
039980/20130320/144654/2180/187/10/
039980/20130320/144732/2175/2500/10/
039980/20130320/144736/2175/1014/10/
039980/20130320/144738/2175/2400/10/
039980/20130320/144843/2175/400/10/
039980/20130320/144942/2180/1000/20/
039980/20130320/144943/2175/584/10/
039980/20130320/150000/2165/7868/20/
