039980/20130307/90000/2265/20412/20/
039980/20130307/90015/2265/99/20/
039980/20130307/90016/2265/1000/20/
039980/20130307/90020/2265/400/20/
039980/20130307/90023/2265/312/20/
039980/20130307/90033/2275/102/20/
039980/20130307/90033/2280/1038/20/
039980/20130307/90047/2280/462/20/
039980/20130307/90057/2280/500/10/
039980/20130307/90117/2285/370/20/
039980/20130307/90137/2285/1762/20/
039980/20130307/90137/2290/838/20/
039980/20130307/90230/2290/226/20/
039980/20130307/90320/2280/410/10/
039980/20130307/90334/2280/100/10/
039980/20130307/90347/2280/589/10/
039980/20130307/90357/2270/130/10/
039980/20130307/90415/2270/1402/10/
039980/20130307/90424/2270/115/10/
039980/20130307/90428/2270/500/20/
039980/20130307/90432/2265/1500/10/
039980/20130307/90441/2265/3188/10/
039980/20130307/90445/2265/500/10/
039980/20130307/90457/2260/2180/10/
039980/20130307/90516/2260/828/10/
039980/20130307/90532/2260/200/10/
039980/20130307/90543/2260/1900/20/
039980/20130307/90543/2270/1900/20/
039980/20130307/90606/2270/100/20/
039980/20130307/90730/2260/984/10/
039980/20130307/90744/2270/100/20/
039980/20130307/90749/2260/1000/10/
039980/20130307/90752/2270/954/20/
039980/20130307/90758/2270/659/10/
039980/20130307/90837/2270/661/10/
039980/20130307/90916/2260/546/10/
039980/20130307/90916/2255/454/10/
039980/20130307/90930/2255/1000/10/
039980/20130307/90936/2255/2496/10/
039980/20130307/90939/2255/401/10/
039980/20130307/90939/2255/2038/20/
039980/20130307/91008/2270/349/20/
039980/20130307/91008/2275/153/20/
039980/20130307/91036/2260/500/10/
039980/20130307/91117/2260/120/10/
039980/20130307/91117/2260/200/10/
039980/20130307/91118/2260/2304/10/
039980/20130307/91123/2260/1000/20/
039980/20130307/91136/2260/1050/20/
039980/20130307/91136/2260/646/20/
039980/20130307/91159/2255/300/10/
039980/20130307/91229/2260/200/10/
039980/20130307/91314/2260/312/10/
039980/20130307/91335/2265/1000/20/
039980/20130307/91408/2265/1000/20/
039980/20130307/91420/2260/200/10/
039980/20130307/91424/2260/1260/10/
039980/20130307/91611/2260/479/10/
039980/20130307/91638/2260/450/10/
039980/20130307/91653/2260/305/10/
039980/20130307/91655/2260/100/10/
039980/20130307/91707/2260/978/10/
039980/20130307/91707/2255/2102/10/
039980/20130307/91715/2255/3579/10/
039980/20130307/91716/2255/200/10/
039980/20130307/91724/2260/432/10/
039980/20130307/91724/2255/1077/10/
039980/20130307/91733/2255/300/20/
039980/20130307/91742/2255/2000/20/
039980/20130307/91747/2250/503/10/
039980/20130307/91748/2250/847/10/
039980/20130307/91748/2255/468/20/
039980/20130307/91834/2250/1522/10/
039980/20130307/91859/2250/892/10/
039980/20130307/91900/2250/459/20/
039980/20130307/91921/2250/225/10/
039980/20130307/91921/2250/785/10/
039980/20130307/91921/2250/215/20/
039980/20130307/91924/2245/128/10/
039980/20130307/91950/2245/186/10/
039980/20130307/91957/2250/500/10/
039980/20130307/91957/2250/500/20/
039980/20130307/92003/2250/1000/10/
039980/20130307/92003/2250/1000/10/
039980/20130307/92007/2250/800/20/
039980/20130307/92023/2250/97/10/
039980/20130307/92043/2250/1000/10/
039980/20130307/92051/2250/1101/10/
039980/20130307/92051/2245/899/10/
039980/20130307/92124/2245/4336/10/
039980/20130307/92133/2245/100/10/
039980/20130307/92140/2240/5215/10/
039980/20130307/92145/2240/3000/10/
039980/20130307/92147/2240/2000/10/
039980/20130307/92256/2245/205/10/
039980/20130307/92256/2245/177/20/
039980/20130307/92408/2250/92/10/
039980/20130307/92421/2255/1000/20/
039980/20130307/92436/2255/600/20/
039980/20130307/92453/2255/670/10/
039980/20130307/92500/2255/380/20/
039980/20130307/92508/2255/120/10/
039980/20130307/92512/2255/359/20/
039980/20130307/92549/2260/1000/20/
039980/20130307/92604/2255/141/10/
039980/20130307/92604/2250/459/10/
039980/20130307/92615/2250/5126/10/
039980/20130307/92615/2245/2702/10/
039980/20130307/92615/2240/8868/10/
039980/20130307/92615/2235/13314/10/
039980/20130307/92743/2250/102/10/
039980/20130307/92921/2250/1000/10/
039980/20130307/92924/2250/400/10/
039980/20130307/92927/2250/500/10/
039980/20130307/92932/2250/229/10/
039980/20130307/93006/2250/2711/10/
039980/20130307/93013/2245/1007/10/
039980/20130307/93013/2245/993/20/
039980/20130307/93024/2245/458/10/
039980/20130307/93032/2245/370/10/
039980/20130307/93053/2245/1418/10/
039980/20130307/93135/2250/173/20/
039980/20130307/93144/2250/505/20/
039980/20130307/93145/2250/93/20/
039980/20130307/93340/2255/695/20/
039980/20130307/93409/2255/415/10/
039980/20130307/93409/2250/86/10/
039980/20130307/93457/2250/1073/10/
039980/20130307/93457/2245/1296/10/
039980/20130307/93503/2245/900/10/
039980/20130307/93511/2245/3420/10/
039980/20130307/93516/2245/637/20/
039980/20130307/93523/2250/100/10/
039980/20130307/93537/2250/1263/10/
039980/20130307/93548/2245/1040/10/
039980/20130307/93551/2245/697/20/
039980/20130307/93616/2245/803/10/
039980/20130307/93616/2240/1022/10/
039980/20130307/93631/2240/1524/10/
039980/20130307/93647/2240/4520/10/
039980/20130307/93706/2240/1321/10/
039980/20130307/93720/2240/90/10/
039980/20130307/93721/2240/1910/20/
039980/20130307/93729/2240/3100/10/
039980/20130307/93733/2240/1000/10/
039980/20130307/93750/2240/153/10/
039980/20130307/93758/2250/207/20/
039980/20130307/93800/2240/1000/10/
039980/20130307/93824/2240/1005/10/
039980/20130307/93826/2240/1500/10/
039980/20130307/93858/2240/100/10/
039980/20130307/94000/2250/102/20/
039980/20130307/94002/2245/298/10/
039980/20130307/94026/2240/2194/10/
039980/20130307/94026/2235/2084/10/
039980/20130307/94037/2240/150/20/
039980/20130307/94106/2235/9056/10/
039980/20130307/94123/2240/250/20/
039980/20130307/94126/2240/937/20/
039980/20130307/94130/2240/500/20/
039980/20130307/94136/2235/1000/10/
039980/20130307/94150/2240/1000/20/
039980/20130307/94200/2235/523/10/
039980/20130307/94205/2235/500/10/
039980/20130307/94209/2235/1000/10/
039980/20130307/94210/2235/248/10/
039980/20130307/94210/2230/2752/10/
039980/20130307/94219/2240/2000/20/
039980/20130307/94231/2240/169/20/
039980/20130307/94231/2245/282/20/
039980/20130307/94522/2240/1929/10/
039980/20130307/94522/2235/120/10/
039980/20130307/94527/2235/226/10/
039980/20130307/94558/2240/1010/10/
039980/20130307/94604/2240/240/10/
039980/20130307/94628/2240/431/10/
039980/20130307/94653/2240/660/10/
039980/20130307/94711/2235/450/10/
039980/20130307/94756/2240/124/20/
039980/20130307/94758/2240/200/20/
039980/20130307/94833/2235/3773/10/
039980/20130307/94916/2240/441/20/
039980/20130307/94940/2240/350/10/
039980/20130307/94940/2240/1013/10/
039980/20130307/95052/2240/100/10/
039980/20130307/95114/2240/1190/10/
039980/20130307/95114/2235/1141/10/
039980/20130307/95413/2240/1530/10/
039980/20130307/95427/2245/120/20/
039980/20130307/95446/2240/173/10/
039980/20130307/95450/2240/1918/10/
039980/20130307/95519/2240/1082/20/
039980/20130307/95521/2240/171/10/
039980/20130307/95547/2235/2502/10/
039980/20130307/95609/2235/1901/10/
039980/20130307/95634/2235/287/10/
039980/20130307/95648/2230/7100/10/
039980/20130307/95659/2230/3028/10/
039980/20130307/95715/2235/116/20/
039980/20130307/95720/2230/10000/10/
039980/20130307/95736/2230/469/10/
039980/20130307/95743/2225/11000/10/
039980/20130307/95816/2235/350/20/
039980/20130307/95951/2235/119/20/
039980/20130307/100029/2235/130/20/
039980/20130307/100126/2230/1298/10/
039980/20130307/100131/2230/1000/10/
039980/20130307/100311/2235/81/20/
039980/20130307/100315/2235/83/20/
039980/20130307/100316/2235/153/20/
039980/20130307/100320/2235/312/20/
039980/20130307/100324/2245/82/20/
039980/20130307/100328/2245/86/20/
039980/20130307/100332/2245/85/20/
039980/20130307/100334/2245/478/20/
039980/20130307/100340/2240/81/10/
039980/20130307/100343/2240/2181/10/
039980/20130307/100344/2245/183/20/
039980/20130307/100347/2250/85/20/
039980/20130307/100350/2250/578/20/
039980/20130307/100353/2250/85/20/
039980/20130307/100356/2250/86/20/
039980/20130307/100359/2250/88/20/
039980/20130307/100402/2250/86/20/
039980/20130307/100403/2250/1046/20/
039980/20130307/100406/2250/81/20/
039980/20130307/100409/2250/440/20/
039980/20130307/100409/2250/637/10/
039980/20130307/100413/2255/81/20/
039980/20130307/100416/2255/88/20/
039980/20130307/100417/2255/2019/20/
039980/20130307/100418/2255/114/20/
039980/20130307/100421/2255/85/20/
039980/20130307/100424/2255/283/20/
039980/20130307/100426/2255/84/20/
039980/20130307/100429/2255/87/20/
039980/20130307/100433/2255/82/20/
039980/20130307/100435/2255/85/20/
039980/20130307/100439/2255/90/20/
039980/20130307/100440/2255/520/20/
039980/20130307/100441/2255/81/20/
039980/20130307/100441/2255/500/20/
039980/20130307/100444/2255/859/20/
039980/20130307/100447/2260/88/20/
039980/20130307/100449/2260/573/20/
039980/20130307/100452/2260/87/20/
039980/20130307/100455/2260/83/20/
039980/20130307/100457/2260/88/20/
039980/20130307/100459/2260/83/20/
039980/20130307/100502/2260/85/20/
039980/20130307/100504/2260/2921/20/
039980/20130307/100507/2260/83/20/
039980/20130307/100510/2260/271/20/
039980/20130307/100513/2260/84/20/
039980/20130307/100515/2260/84/20/
039980/20130307/100517/2260/535/20/
039980/20130307/100520/2260/86/20/
039980/20130307/100522/2260/260/20/
039980/20130307/100525/2260/82/20/
039980/20130307/100529/2260/682/20/
039980/20130307/100531/2265/84/20/
039980/20130307/100533/2260/2965/10/
039980/20130307/100539/2265/89/20/
039980/20130307/100540/2260/206/10/
039980/20130307/100540/2255/2095/10/
039980/20130307/100544/2260/81/20/
039980/20130307/100547/2260/90/20/
039980/20130307/100549/2260/546/20/
039980/20130307/100552/2260/87/20/
039980/20130307/100556/2260/81/20/
039980/20130307/100600/2255/439/10/
039980/20130307/100600/2255/7117/10/
039980/20130307/100602/2250/127/10/
039980/20130307/100607/2260/89/20/
039980/20130307/100608/2250/1001/10/
039980/20130307/100614/2260/83/20/
039980/20130307/100615/2250/1555/10/
039980/20130307/100630/2250/767/20/
039980/20130307/100704/2250/1022/20/
039980/20130307/100729/2250/300/20/
039980/20130307/100732/2250/829/20/
039980/20130307/100741/2250/111/10/
039980/20130307/100741/2245/157/10/
039980/20130307/100749/2240/1000/10/
039980/20130307/100813/2245/632/20/
039980/20130307/100847/2245/880/10/
039980/20130307/100939/2245/1560/10/
039980/20130307/100940/2245/979/10/
039980/20130307/101031/2245/1030/10/
039980/20130307/101221/2245/285/10/
039980/20130307/101310/2245/517/10/
039980/20130307/101348/2245/150/10/
039980/20130307/101426/2245/87/10/
039980/20130307/101518/2250/154/20/
039980/20130307/101613/2245/658/20/
039980/20130307/101641/2240/500/10/
039980/20130307/101657/2240/3000/10/
039980/20130307/101707/2240/100/10/
039980/20130307/101728/2240/120/10/
039980/20130307/101901/2245/556/20/
039980/20130307/101901/2250/1479/20/
039980/20130307/101940/2240/122/10/
039980/20130307/102006/2240/200/10/
039980/20130307/102116/2240/739/10/
039980/20130307/102152/2240/261/20/
039980/20130307/102356/2240/1000/10/
039980/20130307/102555/2235/200/10/
039980/20130307/102807/2235/2000/10/
039980/20130307/102910/2240/324/20/
039980/20130307/102915/2240/400/10/
039980/20130307/102938/2240/307/10/
039980/20130307/102944/2235/210/10/
039980/20130307/103233/2235/1387/10/
039980/20130307/103240/2235/6000/10/
039980/20130307/103240/2235/1172/10/
039980/20130307/103241/2235/2368/10/
039980/20130307/103242/2235/2425/10/
039980/20130307/103245/2235/3194/10/
039980/20130307/103302/2235/500/10/
039980/20130307/103308/2235/902/10/
039980/20130307/103414/2230/2020/10/
039980/20130307/103447/2230/169/10/
039980/20130307/103507/2230/1000/10/
039980/20130307/103612/2230/201/10/
039980/20130307/103735/2235/1460/20/
039980/20130307/103737/2235/1000/20/
039980/20130307/103926/2235/103/10/
039980/20130307/103956/2235/1503/10/
039980/20130307/104216/2235/210/10/
039980/20130307/104304/2235/101/10/
039980/20130307/104357/2240/100/20/
039980/20130307/104537/2240/1332/20/
039980/20130307/104806/2240/110/20/
039980/20130307/105026/2235/1580/10/
039980/20130307/105238/2235/426/10/
039980/20130307/105405/2235/3529/10/
039980/20130307/105438/2235/1449/20/
039980/20130307/105511/2235/1126/10/
039980/20130307/105630/2235/100/10/
039980/20130307/105640/2235/374/10/
039980/20130307/105714/2240/120/20/
039980/20130307/105809/2235/510/10/
039980/20130307/105919/2235/90/10/
039980/20130307/105934/2235/100/10/
039980/20130307/105954/2235/3796/10/
039980/20130307/105954/2230/8254/10/
039980/20130307/110019/2235/110/20/
039980/20130307/110208/2235/364/20/
039980/20130307/110218/2230/503/10/
039980/20130307/110240/2235/103/20/
039980/20130307/110304/2235/1003/20/
039980/20130307/110346/2230/312/10/
039980/20130307/110412/2235/1006/20/
039980/20130307/110515/2235/209/20/
039980/20130307/110521/2235/1522/20/
039980/20130307/110707/2235/604/10/
039980/20130307/110820/2235/571/10/
039980/20130307/110932/2230/500/10/
039980/20130307/111028/2230/700/10/
039980/20130307/111551/2235/1364/20/
039980/20130307/112041/2235/798/10/
039980/20130307/112231/2235/2272/20/
039980/20130307/112507/2240/401/20/
039980/20130307/112551/2235/11854/20/
039980/20130307/112556/2235/1000/20/
039980/20130307/112916/2235/246/20/
039980/20130307/112944/2235/1067/20/
039980/20130307/113040/2235/108/20/
039980/20130307/113317/2235/2004/20/
039980/20130307/113354/2235/492/20/
039980/20130307/113452/2235/606/20/
039980/20130307/113500/2235/152/20/
039980/20130307/113502/2235/100/20/
039980/20130307/113604/2235/500/20/
039980/20130307/113627/2235/100/20/
039980/20130307/113656/2235/470/20/
039980/20130307/114005/2235/227/10/
039980/20130307/114418/2235/1002/20/
039980/20130307/114444/2230/3000/10/
039980/20130307/114639/2235/101/20/
039980/20130307/115039/2230/100/10/
039980/20130307/115325/2230/120/10/
039980/20130307/115436/2230/1070/10/
039980/20130307/115445/2230/3320/10/
039980/20130307/115454/2230/2000/10/
039980/20130307/115502/2230/1747/10/
039980/20130307/115525/2230/3694/10/
039980/20130307/115600/2230/300/20/
039980/20130307/115624/2225/1010/10/
039980/20130307/115700/2230/1010/20/
039980/20130307/115701/2225/1000/10/
039980/20130307/115739/2230/506/20/
039980/20130307/115754/2230/103/20/
039980/20130307/115854/2230/100/20/
039980/20130307/115855/2225/6502/10/
039980/20130307/115857/2225/5300/10/
039980/20130307/115905/2225/2215/10/
039980/20130307/115908/2225/100/20/
039980/20130307/115927/2225/160/20/
039980/20130307/115935/2220/100/10/
039980/20130307/115943/2220/1016/10/
039980/20130307/120015/2220/500/10/
039980/20130307/120038/2220/500/10/
039980/20130307/120040/2225/100/20/
039980/20130307/120116/2225/3440/20/
039980/20130307/120423/2230/504/20/
039980/20130307/120509/2225/5246/10/
039980/20130307/120509/2220/4754/10/
039980/20130307/120527/2220/200/10/
039980/20130307/120532/2220/300/10/
039980/20130307/120537/2220/3862/10/
039980/20130307/120541/2220/6000/10/
039980/20130307/120542/2220/1773/10/
039980/20130307/120548/2220/500/10/
039980/20130307/120552/2220/670/10/
039980/20130307/120558/2220/347/10/
039980/20130307/120559/2215/700/10/
039980/20130307/120602/2220/7516/10/
039980/20130307/120633/2220/2000/10/
039980/20130307/120636/2220/1000/10/
039980/20130307/120640/2220/500/10/
039980/20130307/120721/2220/9345/10/
039980/20130307/120721/2215/10005/10/
039980/20130307/120729/2215/108/10/
039980/20130307/120744/2215/1010/10/
039980/20130307/120745/2215/400/10/
039980/20130307/120754/2215/103/10/
039980/20130307/120759/2210/3001/10/
039980/20130307/120800/2210/1962/10/
039980/20130307/120808/2210/3000/10/
039980/20130307/120815/2210/1900/10/
039980/20130307/120819/2210/2000/10/
039980/20130307/120820/2210/1000/10/
039980/20130307/120820/2210/1505/10/
039980/20130307/120831/2210/609/10/
039980/20130307/120831/2205/1401/10/
039980/20130307/120846/2210/574/10/
039980/20130307/120846/2205/426/10/
039980/20130307/120856/2205/500/10/
039980/20130307/120859/2205/989/10/
039980/20130307/120921/2210/151/20/
039980/20130307/120923/2210/700/10/
039980/20130307/120927/2210/300/10/
039980/20130307/120927/2205/700/10/
039980/20130307/120940/2210/500/10/
039980/20130307/120941/2210/500/10/
039980/20130307/120941/2205/500/10/
039980/20130307/121010/2205/938/10/
039980/20130307/121100/2205/921/10/
039980/20130307/121213/2210/500/10/
039980/20130307/121256/2210/400/10/
039980/20130307/121335/2210/2000/10/
039980/20130307/121430/2210/1000/10/
039980/20130307/121441/2210/287/10/
039980/20130307/121517/2210/465/10/
039980/20130307/121540/2210/1500/10/
039980/20130307/121555/2210/500/10/
039980/20130307/121607/2210/650/10/
039980/20130307/121614/2210/636/10/
039980/20130307/121614/2210/364/10/
039980/20130307/121647/2210/84/10/
039980/20130307/121658/2205/7500/10/
039980/20130307/121658/2200/6501/10/
039980/20130307/121658/2200/1280/10/
039980/20130307/121711/2200/616/10/
039980/20130307/121716/2200/260/10/
039980/20130307/121716/2200/2500/10/
039980/20130307/121741/2200/500/10/
039980/20130307/121748/2205/1500/10/
039980/20130307/121748/2200/500/10/
039980/20130307/121805/2200/1000/10/
039980/20130307/121819/2200/7865/10/
039980/20130307/121823/2195/1830/10/
039980/20130307/121825/2195/1000/10/
039980/20130307/121832/2200/98/20/
039980/20130307/121839/2200/778/10/
039980/20130307/121910/2200/1255/10/
039980/20130307/121939/2200/1000/10/
039980/20130307/122104/2200/2122/10/
039980/20130307/122104/2195/4898/10/
039980/20130307/122104/2190/3059/10/
039980/20130307/122226/2195/1011/10/
039980/20130307/122340/2200/2034/10/
039980/20130307/122515/2205/205/20/
039980/20130307/122621/2200/2040/10/
039980/20130307/122625/2195/1000/10/
039980/20130307/122646/2195/1230/10/
039980/20130307/122739/2195/1000/10/
039980/20130307/122745/2195/800/10/
039980/20130307/122745/2195/229/10/
039980/20130307/122745/2190/771/10/
039980/20130307/122853/2195/171/10/
039980/20130307/122907/2195/670/10/
039980/20130307/122925/2195/100/10/
039980/20130307/122926/2195/405/10/
039980/20130307/122951/2195/2266/10/
039980/20130307/123015/2200/462/20/
039980/20130307/123115/2200/1100/10/
039980/20130307/123136/2200/2448/10/
039980/20130307/123136/2195/3752/10/
039980/20130307/123226/2205/370/20/
039980/20130307/123237/2200/271/10/
039980/20130307/123331/2205/124/20/
039980/20130307/123403/2205/513/10/
039980/20130307/123445/2210/172/20/
039980/20130307/123523/2210/500/20/
039980/20130307/123542/2210/403/20/
039980/20130307/123649/2215/670/20/
039980/20130307/123654/2215/330/10/
039980/20130307/124026/2215/251/20/
039980/20130307/124026/2220/333/20/
039980/20130307/124040/2220/992/20/
039980/20130307/124127/2215/5008/10/
039980/20130307/124147/2215/360/10/
039980/20130307/124247/2215/641/10/
039980/20130307/124608/2220/1700/20/
039980/20130307/124625/2220/3000/10/
039980/20130307/124631/2220/129/10/
039980/20130307/124635/2220/250/10/
039980/20130307/124650/2225/1773/20/
039980/20130307/124753/2220/800/10/
039980/20130307/124807/2220/500/10/
039980/20130307/124915/2220/94/10/
039980/20130307/124932/2220/200/10/
039980/20130307/124944/2225/1000/20/
039980/20130307/125017/2225/328/20/
039980/20130307/125031/2230/500/20/
039980/20130307/125105/2230/707/20/
039980/20130307/125121/2230/593/10/
039980/20130307/125202/2230/452/20/
039980/20130307/125300/2225/268/10/
039980/20130307/125330/2230/1000/20/
039980/20130307/125337/2230/689/20/
039980/20130307/125342/2230/311/10/
039980/20130307/125412/2225/298/10/
039980/20130307/125422/2225/299/20/
039980/20130307/125436/2230/792/20/
039980/20130307/125450/2230/211/10/
039980/20130307/125500/2230/291/10/
039980/20130307/125512/2230/500/10/
039980/20130307/125519/2230/218/10/
039980/20130307/125530/2230/299/10/
039980/20130307/125544/2230/739/10/
039980/20130307/125547/2230/261/20/
039980/20130307/125704/2230/140/10/
039980/20130307/125713/2230/2920/20/
039980/20130307/125729/2230/1069/10/
039980/20130307/125745/2230/1000/10/
039980/20130307/125757/2230/363/10/
039980/20130307/125812/2230/884/20/
039980/20130307/125818/2230/116/10/
039980/20130307/130144/2225/1000/10/
039980/20130307/130327/2225/118/10/
039980/20130307/130507/2230/1000/20/
039980/20130307/130716/2230/200/20/
039980/20130307/130717/2225/100/10/
039980/20130307/130828/2230/800/20/
039980/20130307/130931/2230/465/20/
039980/20130307/131052/2230/1020/10/
039980/20130307/131054/2235/100/20/
039980/20130307/131129/2235/1080/20/
039980/20130307/131132/2235/100/20/
039980/20130307/131209/2235/160/20/
039980/20130307/131252/2235/90/20/
039980/20130307/131311/2230/457/10/
039980/20130307/131348/2230/1010/10/
039980/20130307/131547/2230/238/10/
039980/20130307/131723/2225/110/10/
039980/20130307/132042/2225/180/10/
039980/20130307/132143/2230/600/20/
039980/20130307/132231/2225/315/10/
039980/20130307/132232/2225/110/10/
039980/20130307/132349/2225/192/10/
039980/20130307/132510/2225/100/10/
039980/20130307/132526/2230/258/20/
039980/20130307/132552/2230/242/10/
039980/20130307/132602/2225/271/10/
039980/20130307/132656/2220/18663/10/
039980/20130307/132753/2215/132/10/
039980/20130307/132753/2210/901/10/
039980/20130307/132753/2205/1638/10/
039980/20130307/132843/2205/300/10/
039980/20130307/132913/2205/1508/10/
039980/20130307/132921/2205/933/20/
039980/20130307/132934/2205/1500/10/
039980/20130307/132959/2215/90/20/
039980/20130307/133326/2210/560/20/
039980/20130307/133514/2205/159/10/
039980/20130307/134056/2210/570/10/
039980/20130307/134149/2210/500/10/
039980/20130307/134210/2210/170/10/
039980/20130307/134305/2210/100/10/
039980/20130307/134350/2210/130/20/
039980/20130307/134422/2210/112/10/
039980/20130307/134457/2210/300/10/
039980/20130307/134507/2210/200/10/
039980/20130307/134532/2210/81/10/
039980/20130307/134546/2210/200/10/
039980/20130307/134915/2210/280/10/
039980/20130307/134933/2215/1357/20/
039980/20130307/135017/2215/100/10/
039980/20130307/135025/2220/1000/20/
039980/20130307/135036/2220/193/20/
039980/20130307/135145/2215/500/10/
039980/20130307/135152/2220/1690/20/
039980/20130307/135156/2220/451/20/
039980/20130307/135159/2220/672/20/
039980/20130307/135212/2215/606/10/
039980/20130307/135212/2210/3010/10/
039980/20130307/135212/2205/214/10/
039980/20130307/135411/2210/200/10/
039980/20130307/135600/2210/815/10/
039980/20130307/135635/2210/100/20/
039980/20130307/135700/2210/300/20/
039980/20130307/135911/2210/200/20/
039980/20130307/140033/2210/305/20/
039980/20130307/140038/2210/454/20/
039980/20130307/140053/2210/323/20/
039980/20130307/140411/2220/130/20/
039980/20130307/140417/2215/110/10/
039980/20130307/140624/2215/601/20/
039980/20130307/140658/2215/500/20/
039980/20130307/140700/2215/700/20/
039980/20130307/140742/2215/2810/10/
039980/20130307/140742/2210/300/10/
039980/20130307/140813/2220/360/20/
039980/20130307/140831/2220/190/10/
039980/20130307/140852/2215/761/20/
039980/20130307/140855/2215/400/20/
039980/20130307/141013/2215/1000/20/
039980/20130307/141020/2210/2700/10/
039980/20130307/141156/2215/947/20/
039980/20130307/141201/2215/1620/20/
039980/20130307/141259/2210/136/10/
039980/20130307/141316/2215/410/20/
039980/20130307/141411/2215/800/20/
039980/20130307/141515/2215/301/20/
039980/20130307/141705/2215/505/10/
039980/20130307/141807/2215/329/20/
039980/20130307/141947/2215/505/20/
039980/20130307/142004/2210/2585/10/
039980/20130307/142123/2210/200/10/
039980/20130307/142134/2210/2200/10/
039980/20130307/142252/2215/662/20/
039980/20130307/142257/2215/139/10/
039980/20130307/142257/2210/3914/10/
039980/20130307/142257/2205/3612/10/
039980/20130307/142257/2200/5189/10/
039980/20130307/142310/2210/500/20/
039980/20130307/142330/2200/500/10/
039980/20130307/142406/2205/100/10/
039980/20130307/142411/2205/100/10/
039980/20130307/142413/2205/224/10/
039980/20130307/142416/2205/100/10/
039980/20130307/142421/2205/100/10/
039980/20130307/142423/2205/376/10/
039980/20130307/142506/2205/1000/20/
039980/20130307/142545/2200/550/10/
039980/20130307/142605/2200/499/10/
039980/20130307/142608/2200/100/10/
039980/20130307/142638/2205/100/20/
039980/20130307/142732/2205/1524/20/
039980/20130307/142759/2205/413/10/
039980/20130307/142851/2205/5063/10/
039980/20130307/142851/2200/3927/10/
039980/20130307/142951/2215/1813/20/
039980/20130307/143111/2205/1934/10/
039980/20130307/143138/2200/100/10/
039980/20130307/143251/2205/1594/20/
039980/20130307/143316/2205/3706/10/
039980/20130307/143316/2200/8868/10/
039980/20130307/143316/2195/5988/10/
039980/20130307/143316/2190/180/10/
039980/20130307/143327/2195/150/20/
039980/20130307/143420/2195/457/10/
039980/20130307/143610/2200/278/10/
039980/20130307/143700/2200/101/20/
039980/20130307/143711/2200/202/20/
039980/20130307/143725/2200/98/20/
039980/20130307/143727/2200/139/20/
039980/20130307/143733/2195/2181/10/
039980/20130307/143743/2195/160/20/
039980/20130307/143748/2195/1000/20/
039980/20130307/143752/2195/1659/20/
039980/20130307/143756/2195/1122/10/
039980/20130307/143851/2195/1518/10/
039980/20130307/143857/2195/102/10/
039980/20130307/143857/2195/889/10/
039980/20130307/143919/2195/221/10/
039980/20130307/143936/2200/200/20/
039980/20130307/144015/2195/190/10/
039980/20130307/144105/2190/2500/10/
039980/20130307/144112/2190/700/10/
039980/20130307/144120/2190/4915/10/
039980/20130307/144126/2195/468/20/
039980/20130307/144133/2195/342/20/
039980/20130307/144134/2195/658/10/
039980/20130307/144134/2190/4342/10/
039980/20130307/144216/2195/201/20/
039980/20130307/144223/2195/251/10/
039980/20130307/144224/2195/575/10/
039980/20130307/144233/2190/521/10/
039980/20130307/144258/2190/7006/10/
039980/20130307/144312/2190/4003/10/
039980/20130307/144315/2190/6647/10/
039980/20130307/144323/2190/684/10/
039980/20130307/144341/2190/705/20/
039980/20130307/144342/2190/1025/20/
039980/20130307/144343/2190/301/10/
039980/20130307/144346/2190/660/10/
039980/20130307/144354/2195/249/20/
039980/20130307/144357/2195/101/10/
039980/20130307/144359/2195/500/10/
039980/20130307/144409/2195/102/10/
039980/20130307/144416/2195/500/20/
039980/20130307/144451/2195/100/10/
039980/20130307/144529/2195/526/20/
039980/20130307/144532/2190/2000/10/
039980/20130307/144540/2195/705/20/
039980/20130307/144622/2200/5016/20/
039980/20130307/144634/2195/1001/10/
039980/20130307/144720/2200/480/20/
039980/20130307/144723/2200/136/10/
039980/20130307/144727/2200/457/10/
039980/20130307/144727/2195/543/10/
039980/20130307/144834/2195/508/10/
039980/20130307/150000/2200/23767/10/
