039980/20130311/90000/2170/34405/10/
039980/20130311/90000/2175/500/10/
039980/20130311/90000/2175/140/10/
039980/20130311/90031/2180/1081/20/
039980/20130311/90043/2195/2003/20/
039980/20130311/90117/2180/95/10/
039980/20130311/90122/2175/914/10/
039980/20130311/90122/2170/86/10/
039980/20130311/90131/2175/90/10/
039980/20130311/90131/2170/993/10/
039980/20130311/90134/2170/500/10/
039980/20130311/90139/2165/342/10/
039980/20130311/90141/2180/2200/20/
039980/20130311/90143/2170/1500/20/
039980/20130311/90152/2170/1000/10/
039980/20130311/90154/2170/200/10/
039980/20130311/90154/2170/510/10/
039980/20130311/90154/2170/490/20/
039980/20130311/90202/2170/2146/10/
039980/20130311/90204/2170/300/10/
039980/20130311/90208/2170/255/10/
039980/20130311/90237/2170/844/10/
039980/20130311/90242/2170/342/10/
039980/20130311/90249/2170/934/10/
039980/20130311/90307/2170/2060/10/
039980/20130311/90311/2170/106/10/
039980/20130311/90342/2175/131/10/
039980/20130311/90401/2175/201/10/
039980/20130311/90406/2175/500/20/
039980/20130311/90431/2175/500/20/
039980/20130311/90438/2170/2214/10/
039980/20130311/90447/2170/1500/20/
039980/20130311/90457/2165/182/10/
039980/20130311/90506/2170/135/20/
039980/20130311/90507/2170/685/10/
039980/20130311/90507/2170/1315/10/
039980/20130311/90527/2170/2256/10/
039980/20130311/90555/2170/2865/20/
039980/20130311/90605/2175/2157/20/
039980/20130311/90623/2175/632/10/
039980/20130311/90630/2175/500/20/
039980/20130311/90635/2175/550/20/
039980/20130311/90636/2175/300/20/
039980/20130311/90646/2170/5212/10/
039980/20130311/90646/2165/4657/10/
039980/20130311/90646/2160/8598/10/
039980/20130311/90646/2155/1533/10/
039980/20130311/90707/2155/400/10/
039980/20130311/90747/2155/6002/10/
039980/20130311/90750/2160/425/10/
039980/20130311/90811/2160/300/10/
039980/20130311/90816/2160/2000/10/
039980/20130311/90833/2165/627/20/
039980/20130311/90956/2165/328/10/
039980/20130311/90959/2165/5032/10/
039980/20130311/91006/2160/1500/10/
039980/20130311/91029/2165/2968/20/
039980/20130311/91051/2170/1198/20/
039980/20130311/91200/2170/2502/10/
039980/20130311/91205/2170/498/20/
039980/20130311/91210/2170/500/10/
039980/20130311/91216/2170/300/20/
039980/20130311/91325/2170/1885/10/
039980/20130311/91334/2170/100/20/
039980/20130311/91354/2170/1322/10/
039980/20130311/91422/2170/350/10/
039980/20130311/91440/2170/338/10/
039980/20130311/91442/2170/200/20/
039980/20130311/91524/2170/1014/10/
039980/20130311/91532/2175/104/20/
039980/20130311/91614/2170/1101/10/
039980/20130311/91625/2170/237/10/
039980/20130311/91650/2170/420/10/
039980/20130311/91654/2170/544/10/
039980/20130311/91654/2165/456/10/
039980/20130311/91717/2170/200/20/
039980/20130311/91812/2165/200/10/
039980/20130311/91912/2165/2865/10/
039980/20130311/91928/2160/2500/10/
039980/20130311/91935/2160/3600/10/
039980/20130311/91937/2160/2837/10/
039980/20130311/91955/2155/3000/10/
039980/20130311/92014/2160/1000/10/
039980/20130311/92026/2155/1010/10/
039980/20130311/92026/2155/6052/10/
039980/20130311/92045/2150/3750/10/
039980/20130311/92048/2150/203/10/
039980/20130311/92049/2155/2000/20/
039980/20130311/92050/2150/2521/10/
039980/20130311/92056/2150/1011/10/
039980/20130311/92058/2150/1364/10/
039980/20130311/92104/2150/2300/10/
039980/20130311/92105/2155/5249/20/
039980/20130311/92105/2155/837/10/
039980/20130311/92109/2155/500/10/
039980/20130311/92111/2155/2795/10/
039980/20130311/92112/2155/1291/10/
039980/20130311/92112/2150/499/10/
039980/20130311/92114/2150/5000/10/
039980/20130311/92118/2150/609/10/
039980/20130311/92157/2150/551/10/
039980/20130311/92216/2155/4652/20/
039980/20130311/92216/2150/406/10/
039980/20130311/92216/2155/525/20/
039980/20130311/92227/2160/88/20/
039980/20130311/92230/2160/87/20/
039980/20130311/92232/2160/82/20/
039980/20130311/92234/2160/543/20/
039980/20130311/92237/2160/81/20/
039980/20130311/92239/2160/86/20/
039980/20130311/92242/2160/89/20/
039980/20130311/92244/2160/90/20/
039980/20130311/92246/2160/91/20/
039980/20130311/92249/2160/88/20/
039980/20130311/92251/2160/89/20/
039980/20130311/92253/2160/81/20/
039980/20130311/92254/2160/214/20/
039980/20130311/92256/2160/88/20/
039980/20130311/92259/2160/87/20/
039980/20130311/92300/2160/1228/20/
039980/20130311/92302/2160/91/20/
039980/20130311/92305/2160/83/20/
039980/20130311/92308/2160/91/20/
039980/20130311/92310/2160/81/20/
039980/20130311/92313/2155/4254/10/
039980/20130311/92317/2155/83/20/
039980/20130311/92320/2155/82/20/
039980/20130311/92322/2150/1207/10/
039980/20130311/92327/2155/82/20/
039980/20130311/92331/2155/81/20/
039980/20130311/92335/2155/81/20/
039980/20130311/92340/2155/82/20/
039980/20130311/92344/2155/90/20/
039980/20130311/92346/2155/81/20/
039980/20130311/92348/2155/85/20/
039980/20130311/92350/2155/81/20/
039980/20130311/92352/2155/89/20/
039980/20130311/92355/2155/81/20/
039980/20130311/92355/2155/100/20/
039980/20130311/92358/2155/82/20/
039980/20130311/92401/2155/87/20/
039980/20130311/92403/2155/86/20/
039980/20130311/92407/2150/294/10/
039980/20130311/92409/2155/943/20/
039980/20130311/92412/2160/81/20/
039980/20130311/92415/2160/84/20/
039980/20130311/92417/2155/81/10/
039980/20130311/92420/2160/81/20/
039980/20130311/92423/2160/90/20/
039980/20130311/92427/2160/84/20/
039980/20130311/92430/2160/84/20/
039980/20130311/92431/2155/420/10/
039980/20130311/92433/2155/3047/10/
039980/20130311/92436/2160/81/20/
039980/20130311/92439/2155/81/10/
039980/20130311/92442/2160/81/20/
039980/20130311/92445/2160/82/20/
039980/20130311/92449/2160/81/20/
039980/20130311/92452/2160/81/20/
039980/20130311/92457/2160/83/20/
039980/20130311/92501/2160/86/20/
039980/20130311/92506/2160/84/20/
039980/20130311/92510/2160/81/20/
039980/20130311/92515/2160/90/20/
039980/20130311/92519/2160/90/20/
039980/20130311/92521/2160/1033/20/
039980/20130311/92524/2160/82/20/
039980/20130311/92526/2155/1024/10/
039980/20130311/92529/2160/83/20/
039980/20130311/92535/2160/85/20/
039980/20130311/92539/2160/83/20/
039980/20130311/92543/2160/81/20/
039980/20130311/92549/2160/81/20/
039980/20130311/92550/2155/311/10/
039980/20130311/92554/2160/7822/20/
039980/20130311/92559/2170/86/20/
039980/20130311/92603/2170/110/20/
039980/20130311/92606/2160/81/10/
039980/20130311/92610/2175/82/20/
039980/20130311/92612/2175/239/20/
039980/20130311/92617/2175/85/20/
039980/20130311/92621/2175/83/20/
039980/20130311/92626/2175/86/20/
039980/20130311/92631/2175/84/20/
039980/20130311/92636/2175/86/20/
039980/20130311/92637/2175/719/20/
039980/20130311/92641/2175/82/20/
039980/20130311/92645/2175/81/20/
039980/20130311/92647/2175/2534/20/
039980/20130311/92649/2175/804/20/
039980/20130311/92654/2175/81/10/
039980/20130311/92655/2175/10016/10/
039980/20130311/92657/2175/92/10/
039980/20130311/92659/2175/125/20/
039980/20130311/92702/2180/81/20/
039980/20130311/92707/2180/85/20/
039980/20130311/92711/2180/82/20/
039980/20130311/92713/2180/82/20/
039980/20130311/92714/2175/1004/10/
039980/20130311/92715/2180/305/20/
039980/20130311/92715/2180/1357/20/
039980/20130311/92717/2180/1749/20/
039980/20130311/92717/2185/3540/20/
039980/20130311/92719/2190/1021/20/
039980/20130311/92722/2190/2018/20/
039980/20130311/92722/2190/100/20/
039980/20130311/92723/2185/1743/10/
039980/20130311/92726/2190/81/20/
039980/20130311/92728/2185/9226/10/
039980/20130311/92728/2185/6057/10/
039980/20130311/92729/2180/1128/10/
039980/20130311/92729/2185/1000/20/
039980/20130311/92729/2185/502/20/
039980/20130311/92732/2180/251/10/
039980/20130311/92734/2180/1304/10/
039980/20130311/92734/2180/1534/10/
039980/20130311/92745/2175/300/10/
039980/20130311/92754/2175/238/10/
039980/20130311/92756/2175/7425/10/
039980/20130311/92756/2175/600/10/
039980/20130311/92758/2175/2700/10/
039980/20130311/92800/2175/499/10/
039980/20130311/92801/2175/90/10/
039980/20130311/92801/2175/1000/10/
039980/20130311/92806/2175/200/10/
039980/20130311/92807/2180/669/20/
039980/20130311/92807/2175/1000/10/
039980/20130311/92822/2175/201/10/
039980/20130311/92827/2175/259/10/
039980/20130311/92831/2175/241/20/
039980/20130311/92831/2180/1659/20/
039980/20130311/92903/2175/211/10/
039980/20130311/92928/2175/500/10/
039980/20130311/92931/2180/445/20/
039980/20130311/93015/2180/1722/20/
039980/20130311/93030/2180/2000/20/
039980/20130311/93120/2180/1052/20/
039980/20130311/93123/2180/328/20/
039980/20130311/93212/2185/97/20/
039980/20130311/93229/2185/5648/20/
039980/20130311/93235/2185/578/20/
039980/20130311/93255/2185/500/10/
039980/20130311/93258/2185/124/10/
039980/20130311/93308/2185/530/20/
039980/20130311/93309/2185/1000/20/
039980/20130311/93359/2185/1013/20/
039980/20130311/93402/2185/100/20/
039980/20130311/93435/2180/7873/10/
039980/20130311/93437/2180/2327/10/
039980/20130311/93438/2180/1000/10/
039980/20130311/93439/2180/1000/10/
039980/20130311/93440/2180/200/10/
039980/20130311/93446/2180/1104/10/
039980/20130311/93501/2180/1000/20/
039980/20130311/93522/2175/2000/10/
039980/20130311/93600/2175/510/10/
039980/20130311/93657/2175/300/10/
039980/20130311/93658/2175/3926/10/
039980/20130311/93658/2170/310/10/
039980/20130311/93729/2170/100/10/
039980/20130311/93729/2170/1361/10/
039980/20130311/93729/2170/391/10/
039980/20130311/93747/2170/268/10/
039980/20130311/93811/2165/500/10/
039980/20130311/93945/2160/2030/10/
039980/20130311/93955/2160/1572/10/
039980/20130311/93957/2160/232/10/
039980/20130311/94011/2160/2490/10/
039980/20130311/94011/2155/4029/10/
039980/20130311/94011/2150/2773/10/
039980/20130311/94011/2145/2000/10/
039980/20130311/94056/2145/400/10/
039980/20130311/94058/2145/710/10/
039980/20130311/94113/2145/2017/10/
039980/20130311/94121/2145/983/20/
039980/20130311/94141/2145/97/20/
039980/20130311/94146/2145/900/20/
039980/20130311/94209/2145/130/20/
039980/20130311/94220/2145/500/20/
039980/20130311/94238/2145/390/20/
039980/20130311/94255/2145/141/10/
039980/20130311/94512/2155/120/20/
039980/20130311/94543/2150/146/10/
039980/20130311/94547/2145/1769/10/
039980/20130311/94547/2140/3231/10/
039980/20130311/94547/2140/300/10/
039980/20130311/94616/2140/100/10/
039980/20130311/94622/2140/2500/10/
039980/20130311/94623/2140/269/10/
039980/20130311/94623/2135/9798/10/
039980/20130311/94624/2135/199/20/
039980/20130311/94627/2135/1061/20/
039980/20130311/94627/2135/1000/20/
039980/20130311/94629/2130/7000/10/
039980/20130311/94700/2135/150/20/
039980/20130311/94703/2135/392/20/
039980/20130311/94746/2135/2427/10/
039980/20130311/94754/2135/1200/10/
039980/20130311/94808/2135/87/10/
039980/20130311/94814/2130/96/10/
039980/20130311/94815/2130/2853/10/
039980/20130311/94815/2125/1842/10/
039980/20130311/94817/2125/1150/20/
039980/20130311/94921/2125/108/10/
039980/20130311/94948/2130/250/10/
039980/20130311/94948/2125/3250/10/
039980/20130311/95024/2130/150/10/
039980/20130311/95100/2135/310/20/
039980/20130311/95227/2130/380/10/
039980/20130311/95309/2130/150/10/
039980/20130311/95313/2130/3000/10/
039980/20130311/95405/2130/3000/10/
039980/20130311/95405/2130/436/10/
039980/20130311/95412/2130/2548/20/
039980/20130311/95420/2130/1132/10/
039980/20130311/95426/2130/964/10/
039980/20130311/95559/2130/1416/10/
039980/20130311/95559/2125/8645/10/
039980/20130311/95616/2125/4000/10/
039980/20130311/95658/2130/300/10/
039980/20130311/95700/2130/100/20/
039980/20130311/95738/2125/6078/10/
039980/20130311/95800/2125/1000/20/
039980/20130311/95827/2125/3040/20/
039980/20130311/95828/2125/3000/20/
039980/20130311/95829/2125/100/20/
039980/20130311/95830/2125/100/20/
039980/20130311/95837/2125/1025/20/
039980/20130311/95838/2125/1092/20/
039980/20130311/95839/2125/1495/20/
039980/20130311/95840/2125/2000/20/
039980/20130311/95840/2125/300/20/
039980/20130311/95841/2125/100/20/
039980/20130311/95841/2125/500/20/
039980/20130311/95842/2125/1262/20/
039980/20130311/95842/2125/1811/20/
039980/20130311/95844/2125/250/20/
039980/20130311/95844/2125/300/20/
039980/20130311/95849/2125/128/20/
039980/20130311/95851/2125/397/20/
039980/20130311/95913/2130/301/10/
039980/20130311/95954/2130/109/20/
039980/20130311/100020/2125/164/10/
039980/20130311/100031/2125/4703/10/
039980/20130311/100042/2125/100/20/
039980/20130311/100048/2125/100/20/
039980/20130311/100052/2125/97/20/
039980/20130311/100149/2125/259/10/
039980/20130311/100218/2130/245/20/
039980/20130311/100309/2130/115/20/
039980/20130311/100348/2130/120/20/
039980/20130311/100508/2130/102/20/
039980/20130311/100614/2125/7821/10/
039980/20130311/100622/2125/1223/20/
039980/20130311/100626/2125/792/10/
039980/20130311/100627/2125/100/20/
039980/20130311/100629/2125/1108/20/
039980/20130311/100702/2125/400/10/
039980/20130311/100724/2125/101/10/
039980/20130311/100737/2130/500/20/
039980/20130311/100739/2130/500/20/
039980/20130311/100741/2130/100/20/
039980/20130311/100745/2130/1000/20/
039980/20130311/100746/2130/1500/20/
039980/20130311/100750/2130/550/20/
039980/20130311/100751/2130/100/20/
039980/20130311/100758/2130/507/10/
039980/20130311/100908/2140/501/20/
039980/20130311/100946/2140/100/20/
039980/20130311/101020/2140/10398/20/
039980/20130311/101025/2145/234/20/
039980/20130311/101043/2145/521/20/
039980/20130311/101129/2145/713/20/
039980/20130311/101134/2155/278/20/
039980/20130311/101146/2155/500/20/
039980/20130311/101403/2150/110/10/
039980/20130311/101416/2150/532/10/
039980/20130311/101808/2150/510/20/
039980/20130311/102049/2145/295/10/
039980/20130311/102049/2140/7722/10/
039980/20130311/102052/2140/16430/10/
039980/20130311/102210/2135/510/10/
039980/20130311/102349/2135/205/10/
039980/20130311/102844/2150/89/20/
039980/20130311/103156/2150/1005/20/
039980/20130311/103306/2150/3080/20/
039980/20130311/103313/2150/1000/20/
039980/20130311/103315/2150/100/20/
039980/20130311/103632/2150/115/20/
039980/20130311/103644/2150/110/20/
039980/20130311/103753/2150/85/20/
039980/20130311/103758/2145/480/10/
039980/20130311/103943/2150/500/20/
039980/20130311/103943/2155/3621/20/
039980/20130311/104109/2160/87/20/
039980/20130311/104153/2160/577/20/
039980/20130311/104232/2160/200/20/
039980/20130311/104401/2160/178/20/
039980/20130311/104539/2160/82/20/
039980/20130311/104613/2160/188/20/
039980/20130311/104620/2165/1000/20/
039980/20130311/104711/2160/100/20/
039980/20130311/104940/2160/1889/10/
039980/20130311/105036/2160/111/20/
039980/20130311/105047/2160/350/10/
039980/20130311/105546/2155/4596/10/
039980/20130311/105550/2155/2920/10/
039980/20130311/105614/2155/1500/10/
039980/20130311/105624/2155/1700/10/
039980/20130311/105651/2155/500/10/
039980/20130311/105704/2155/1150/10/
039980/20130311/105706/2155/400/10/
039980/20130311/105721/2155/389/10/
039980/20130311/105724/2155/833/10/
039980/20130311/105730/2155/1942/10/
039980/20130311/105914/2160/100/20/
039980/20130311/110043/2160/131/10/
039980/20130311/110553/2160/535/10/
039980/20130311/110727/2165/190/20/
039980/20130311/110843/2160/3000/10/
039980/20130311/111007/2160/396/10/
039980/20130311/111058/2160/1223/10/
039980/20130311/111112/2160/100/10/
039980/20130311/111155/2160/379/10/
039980/20130311/111252/2160/192/10/
039980/20130311/111842/2160/167/20/
039980/20130311/112345/2160/88/10/
039980/20130311/112533/2160/450/10/
039980/20130311/112635/2160/576/10/
039980/20130311/112759/2165/245/20/
039980/20130311/112810/2165/819/20/
039980/20130311/112915/2165/501/20/
039980/20130311/113116/2165/120/20/
039980/20130311/113200/2165/100/20/
039980/20130311/113202/2165/1349/20/
039980/20130311/113303/2165/609/20/
039980/20130311/113557/2165/489/10/
039980/20130311/113959/2165/410/10/
039980/20130311/114017/2170/1521/20/
039980/20130311/114050/2170/204/20/
039980/20130311/114120/2165/2000/10/
039980/20130311/114303/2165/748/10/
039980/20130311/114406/2165/178/10/
039980/20130311/114443/2165/193/10/
039980/20130311/114808/2160/180/10/
039980/20130311/114930/2160/100/10/
039980/20130311/115039/2160/100/10/
039980/20130311/115156/2160/600/10/
039980/20130311/120021/2165/268/20/
039980/20130311/120307/2165/410/20/
039980/20130311/120326/2165/401/20/
039980/20130311/120428/2165/1166/20/
039980/20130311/120554/2160/2001/10/
039980/20130311/120643/2160/1001/10/
039980/20130311/120658/2160/354/10/
039980/20130311/121050/2155/100/10/
039980/20130311/121144/2155/1169/10/
039980/20130311/121421/2155/400/10/
039980/20130311/121434/2155/100/10/
039980/20130311/121447/2155/366/10/
039980/20130311/121546/2155/120/10/
039980/20130311/121641/2160/3000/20/
039980/20130311/121731/2160/1004/20/
039980/20130311/121811/2155/286/10/
039980/20130311/121811/2150/214/10/
039980/20130311/121907/2150/270/10/
039980/20130311/121954/2160/100/20/
039980/20130311/121959/2150/500/10/
039980/20130311/122032/2150/100/10/
039980/20130311/122121/2150/94/10/
039980/20130311/122403/2150/422/10/
039980/20130311/122451/2155/1000/10/
039980/20130311/122540/2150/2314/10/
039980/20130311/122540/2145/2487/10/
039980/20130311/122540/2140/4547/10/
039980/20130311/122657/2145/103/20/
039980/20130311/122715/2145/434/20/
039980/20130311/122819/2145/170/10/
039980/20130311/122851/2145/330/20/
039980/20130311/123117/2145/105/10/
039980/20130311/123202/2150/135/20/
039980/20130311/123214/2150/550/20/
039980/20130311/123311/2150/1000/20/
039980/20130311/123322/2150/481/20/
039980/20130311/124017/2150/1555/10/
039980/20130311/124017/2145/2098/10/
039980/20130311/124138/2150/584/20/
039980/20130311/125110/2150/110/20/
039980/20130311/125201/2150/100/20/
039980/20130311/125211/2150/100/20/
039980/20130311/125232/2150/203/20/
039980/20130311/125244/2150/110/20/
039980/20130311/125410/2150/165/20/
039980/20130311/125419/2150/93/20/
039980/20130311/125559/2150/319/20/
039980/20130311/125630/2150/350/10/
039980/20130311/125804/2150/131/20/
039980/20130311/130005/2145/1300/10/
039980/20130311/130051/2150/284/20/
039980/20130311/130213/2155/2067/20/
039980/20130311/130350/2155/179/20/
039980/20130311/130514/2155/822/10/
039980/20130311/130751/2150/85/10/
039980/20130311/130819/2150/2000/10/
039980/20130311/130908/2150/222/10/
039980/20130311/131512/2150/183/10/
039980/20130311/131547/2145/1071/10/
039980/20130311/131611/2140/889/10/
039980/20130311/132317/2150/153/20/
039980/20130311/132346/2145/348/10/
039980/20130311/132349/2145/188/20/
039980/20130311/132352/2140/1000/10/
039980/20130311/132410/2140/289/10/
039980/20130311/132454/2140/211/20/
039980/20130311/132534/2145/284/20/
039980/20130311/132743/2150/256/20/
039980/20130311/132756/2150/100/10/
039980/20130311/132756/2145/944/10/
039980/20130311/133351/2145/160/10/
039980/20130311/133411/2145/934/10/
039980/20130311/133411/2140/2339/10/
039980/20130311/133411/2135/6702/10/
039980/20130311/133411/2130/12594/10/
039980/20130311/133411/2125/13350/10/
039980/20130311/133411/2120/4215/10/
039980/20130311/133709/2145/81/20/
039980/20130311/133716/2145/500/20/
039980/20130311/133846/2145/500/20/
039980/20130311/133859/2145/500/20/
039980/20130311/133907/2145/400/20/
039980/20130311/134100/2140/300/10/
039980/20130311/134204/2140/400/10/
039980/20130311/134204/2135/1122/10/
039980/20130311/134228/2135/1800/10/
039980/20130311/134620/2135/300/10/
039980/20130311/134713/2135/2128/10/
039980/20130311/134713/2130/442/10/
039980/20130311/134720/2130/190/10/
039980/20130311/135013/2135/115/10/
039980/20130311/135247/2135/951/10/
039980/20130311/135258/2135/711/20/
039980/20130311/135314/2140/4086/20/
039980/20130311/135354/2145/1177/20/
039980/20130311/135354/2150/9823/20/
039980/20130311/135422/2150/387/20/
039980/20130311/135433/2150/113/10/
039980/20130311/135439/2145/93/10/
039980/20130311/135826/2145/5789/10/
039980/20130311/135826/2140/4261/10/
039980/20130311/140105/2145/503/20/
039980/20130311/140148/2150/1111/20/
039980/20130311/140217/2145/500/10/
039980/20130311/140317/2145/100/10/
039980/20130311/140332/2145/1900/20/
039980/20130311/140414/2140/1000/10/
039980/20130311/140429/2140/466/10/
039980/20130311/140431/2140/11000/10/
039980/20130311/140740/2140/7020/10/
039980/20130311/140759/2140/220/10/
039980/20130311/140803/2135/1000/10/
039980/20130311/141113/2140/106/10/
039980/20130311/141129/2140/1051/10/
039980/20130311/141136/2140/300/10/
039980/20130311/141211/2140/863/10/
039980/20130311/141334/2140/137/20/
039980/20130311/141432/2145/300/20/
039980/20130311/141618/2145/300/10/
039980/20130311/141628/2150/702/20/
039980/20130311/141709/2145/1400/10/
039980/20130311/141717/2145/100/20/
039980/20130311/141748/2145/500/20/
039980/20130311/141755/2145/300/10/
039980/20130311/141812/2145/200/10/
039980/20130311/141850/2140/100/10/
039980/20130311/142310/2150/2001/20/
039980/20130311/142329/2150/300/20/
039980/20130311/142355/2150/714/10/
039980/20130311/142757/2150/109/20/
039980/20130311/142833/2150/351/20/
039980/20130311/142903/2150/100/10/
039980/20130311/142926/2155/1622/20/
039980/20130311/142933/2155/300/10/
039980/20130311/142958/2155/210/10/
039980/20130311/143025/2155/88/10/
039980/20130311/143035/2155/282/20/
039980/20130311/143229/2160/132/20/
039980/20130311/143250/2155/96/10/
039980/20130311/143254/2155/100/20/
039980/20130311/143257/2155/304/20/
039980/20130311/143303/2155/1500/10/
039980/20130311/143315/2155/114/10/
039980/20130311/143330/2160/160/20/
039980/20130311/143429/2155/90/10/
039980/20130311/143449/2160/100/20/
039980/20130311/143511/2160/5000/20/
039980/20130311/143511/2160/100/20/
039980/20130311/143513/2160/300/20/
039980/20130311/143525/2160/100/20/
039980/20130311/143526/2160/458/20/
039980/20130311/143529/2160/4491/20/
039980/20130311/143539/2160/150/10/
039980/20130311/143548/2160/200/10/
039980/20130311/143548/2160/150/10/
039980/20130311/143654/2160/396/10/
039980/20130311/143707/2165/100/20/
039980/20130311/143721/2160/1791/10/
039980/20130311/143749/2160/100/20/
039980/20130311/143803/2160/100/20/
039980/20130311/143817/2165/100/20/
039980/20130311/143842/2165/100/20/
039980/20130311/143904/2165/828/20/
039980/20130311/143923/2160/500/10/
039980/20130311/143929/2160/275/10/
039980/20130311/143929/2155/175/10/
039980/20130311/144000/2165/90/20/
039980/20130311/144037/2165/100/20/
039980/20130311/144114/2165/100/20/
039980/20130311/144140/2160/710/10/
039980/20130311/144151/2160/1790/20/
039980/20130311/144201/2165/100/20/
039980/20130311/144307/2160/374/10/
039980/20130311/144320/2160/393/10/
039980/20130311/144332/2160/117/20/
039980/20130311/144428/2165/989/20/
039980/20130311/144530/2165/130/20/
039980/20130311/144626/2160/2000/20/
039980/20130311/144733/2160/1012/10/
039980/20130311/144745/2160/1002/10/
039980/20130311/144747/2165/459/20/
039980/20130311/144751/2160/3000/10/
039980/20130311/144817/2160/1001/10/
039980/20130311/144817/2160/1000/10/
039980/20130311/144850/2165/1011/20/
039980/20130311/144931/2165/1272/20/
039980/20130311/144936/2170/102/20/
039980/20130311/144956/2170/103/20/
039980/20130311/150000/2165/22708/20/
