039980/20121203/90000/2000/3884/10/
039980/20121203/90014/2005/401/10/
039980/20121203/90042/2005/400/10/
039980/20121203/90127/2005/1250/10/
039980/20121203/90204/2010/200/20/
039980/20121203/90233/2010/306/20/
039980/20121203/90317/2010/531/10/
039980/20121203/90322/2010/100/10/
039980/20121203/90324/2010/160/10/
039980/20121203/90414/2010/1022/10/
039980/20121203/90424/2010/204/10/
039980/20121203/90513/2010/258/10/
039980/20121203/90601/2010/242/20/
039980/20121203/90756/2015/1007/20/
039980/20121203/90827/2020/504/20/
039980/20121203/90828/2020/2561/20/
039980/20121203/90845/2020/1020/10/
039980/20121203/90900/2025/803/20/
039980/20121203/90947/2020/520/10/
039980/20121203/91048/2025/168/10/
039980/20121203/91048/2020/1852/10/
039980/20121203/91059/2025/100/20/
039980/20121203/91127/2025/180/20/
039980/20121203/91131/2030/1000/20/
039980/20121203/91139/2030/109/20/
039980/20121203/91139/2035/711/20/
039980/20121203/91146/2035/217/20/
039980/20121203/91152/2035/156/20/
039980/20121203/91153/2040/1570/20/
039980/20121203/91156/2035/400/10/
039980/20121203/91159/2040/500/20/
039980/20121203/91202/2035/3000/10/
039980/20121203/91207/2040/1001/20/
039980/20121203/91211/2040/418/20/
039980/20121203/91214/2035/250/10/
039980/20121203/91215/2040/800/20/
039980/20121203/91237/2040/167/20/
039980/20121203/91240/2040/200/10/
039980/20121203/91242/2040/246/10/
039980/20121203/91303/2040/1754/20/
039980/20121203/91318/2040/400/10/
039980/20121203/91356/2040/1100/20/
039980/20121203/91358/2040/300/10/
039980/20121203/91407/2040/352/10/
039980/20121203/91442/2035/1283/10/
039980/20121203/91502/2035/4000/10/
039980/20121203/91511/2035/158/10/
039980/20121203/91524/2035/342/20/
039980/20121203/91524/2040/658/20/
039980/20121203/91553/2030/169/10/
039980/20121203/91612/2030/2000/10/
039980/20121203/91643/2030/2000/10/
039980/20121203/91643/2025/412/10/
039980/20121203/92013/2030/301/10/
039980/20121203/92122/2030/438/10/
039980/20121203/92148/2030/562/20/
039980/20121203/92209/2030/1232/10/
039980/20121203/92222/2030/199/10/
039980/20121203/92259/2030/1007/10/
039980/20121203/92438/2025/94/10/
039980/20121203/92526/2025/210/10/
039980/20121203/92552/2025/140/20/
039980/20121203/92820/2025/128/10/
039980/20121203/92918/2020/1935/10/
039980/20121203/92953/2020/1621/10/
039980/20121203/93252/2020/182/10/
039980/20121203/93524/2020/319/20/
039980/20121203/93706/2020/240/10/
039980/20121203/93817/2020/100/20/
039980/20121203/93915/2020/100/20/
039980/20121203/93933/2020/111/10/
039980/20121203/93936/2020/169/20/
039980/20121203/94004/2020/231/10/
039980/20121203/94025/2020/200/10/
039980/20121203/94053/2025/119/20/
039980/20121203/94053/2025/100/20/
039980/20121203/94110/2025/100/20/
039980/20121203/94110/2025/100/20/
039980/20121203/94117/2025/200/10/
039980/20121203/94320/2020/793/10/
039980/20121203/94434/2025/163/20/
039980/20121203/94435/2025/458/20/
039980/20121203/94447/2025/500/10/
039980/20121203/94535/2025/100/20/
039980/20121203/94803/2020/1477/10/
039980/20121203/94938/2025/501/10/
039980/20121203/95002/2025/300/10/
039980/20121203/95138/2025/2001/10/
039980/20121203/95237/2025/1000/10/
039980/20121203/95351/2030/998/20/
039980/20121203/95452/2030/304/10/
039980/20121203/95457/2030/500/10/
039980/20121203/95514/2030/100/10/
039980/20121203/95603/2035/174/20/
039980/20121203/95621/2035/250/10/
039980/20121203/95641/2035/100/10/
039980/20121203/95926/2035/869/10/
039980/20121203/100124/2035/393/20/
039980/20121203/100212/2035/379/10/
039980/20121203/100416/2035/289/10/
039980/20121203/100432/2040/1000/20/
039980/20121203/100532/2040/639/20/
039980/20121203/100532/2040/1161/10/
039980/20121203/100639/2040/506/10/
039980/20121203/100639/2040/504/10/
039980/20121203/100737/2045/200/20/
039980/20121203/100836/2045/1149/20/
039980/20121203/100918/2045/866/20/
039980/20121203/100920/2045/800/20/
039980/20121203/101043/2040/500/10/
039980/20121203/101104/2040/302/10/
039980/20121203/101104/2035/198/10/
039980/20121203/101222/2035/642/10/
039980/20121203/101239/2035/1400/10/
039980/20121203/101514/2035/2672/10/
039980/20121203/101514/2030/329/10/
039980/20121203/101803/2035/297/10/
039980/20121203/101832/2035/1754/10/
039980/20121203/102218/2035/3624/10/
039980/20121203/102328/2045/1001/20/
039980/20121203/102344/2045/149/20/
039980/20121203/102409/2045/851/10/
039980/20121203/102855/2040/2430/10/
039980/20121203/103155/2035/315/10/
039980/20121203/103229/2040/514/20/
039980/20121203/103305/2035/100/10/
039980/20121203/103420/2040/340/20/
039980/20121203/103538/2035/500/10/
039980/20121203/103647/2035/339/10/
039980/20121203/103925/2035/100/10/
039980/20121203/103925/2030/264/10/
039980/20121203/104237/2035/2803/10/
039980/20121203/104414/2035/269/20/
039980/20121203/104449/2030/3000/10/
039980/20121203/104512/2030/1601/10/
039980/20121203/104814/2030/345/10/
039980/20121203/104841/2030/2014/10/
039980/20121203/104917/2030/194/10/
039980/20121203/105155/2035/566/20/
039980/20121203/105320/2035/1515/20/
039980/20121203/105442/2035/517/20/
039980/20121203/105449/2035/428/20/
039980/20121203/105638/2040/1510/20/
039980/20121203/110210/2040/708/20/
039980/20121203/110210/2045/442/20/
039980/20121203/110329/2040/400/20/
039980/20121203/110416/2040/107/10/
039980/20121203/110821/2040/396/10/
039980/20121203/111146/2030/1030/10/
039980/20121203/111233/2030/100/10/
039980/20121203/112227/2035/287/10/
039980/20121203/112634/2035/270/10/
039980/20121203/113658/2035/260/20/
039980/20121203/113950/2030/1030/10/
039980/20121203/113956/2030/2645/10/
039980/20121203/114015/2030/4141/10/
039980/20121203/114145/2030/571/10/
039980/20121203/114558/2025/1110/10/
039980/20121203/115043/2035/109/20/
039980/20121203/115334/2030/450/10/
039980/20121203/115918/2035/297/20/
039980/20121203/115941/2035/100/20/
039980/20121203/120134/2035/902/20/
039980/20121203/120308/2035/135/20/
039980/20121203/121004/2030/2023/10/
039980/20121203/121116/2035/443/20/
039980/20121203/122027/2030/1376/10/
039980/20121203/122027/2025/1283/10/
039980/20121203/122053/2025/2000/10/
039980/20121203/122500/2025/2702/10/
039980/20121203/122514/2025/175/10/
039980/20121203/122543/2025/418/10/
039980/20121203/122615/2025/945/10/
039980/20121203/124354/2025/91/20/
039980/20121203/124628/2025/500/20/
039980/20121203/124735/2025/100/20/
039980/20121203/125153/2020/1060/10/
039980/20121203/131212/2030/137/20/
039980/20121203/131221/2025/200/10/
039980/20121203/132135/2025/236/10/
039980/20121203/132314/2025/110/20/
039980/20121203/132652/2025/346/10/
039980/20121203/132652/2020/135/10/
039980/20121203/132659/2025/300/10/
039980/20121203/132746/2020/2000/10/
039980/20121203/133004/2020/1199/10/
039980/20121203/133019/2020/2042/20/
039980/20121203/133540/2015/590/10/
039980/20121203/133614/2015/200/10/
039980/20121203/133640/2015/1643/10/
039980/20121203/133640/2010/7357/10/
039980/20121203/135542/2020/212/20/
039980/20121203/135643/2015/272/10/
039980/20121203/135744/2015/405/20/
039980/20121203/140141/2015/145/10/
039980/20121203/140258/2015/100/10/
039980/20121203/140258/2010/6207/10/
039980/20121203/140345/2010/854/10/
039980/20121203/140853/2010/1460/10/
039980/20121203/140904/2010/271/10/
039980/20121203/141042/2005/502/10/
039980/20121203/141107/2005/4296/10/
039980/20121203/141120/2005/1100/10/
039980/20121203/141145/2005/110/10/
039980/20121203/141502/2010/718/20/
039980/20121203/141851/2010/155/20/
039980/20121203/141958/2010/1207/20/
039980/20121203/142038/2010/1000/20/
039980/20121203/142204/2005/250/10/
039980/20121203/142227/2010/100/20/
039980/20121203/142256/2005/1000/10/
039980/20121203/142314/2005/1673/10/
039980/20121203/142554/2005/110/20/
039980/20121203/142642/2000/171/10/
039980/20121203/142654/2000/217/10/
039980/20121203/142724/2000/1000/10/
039980/20121203/142744/2000/665/10/
039980/20121203/142816/2000/5889/10/
039980/20121203/142816/2000/5145/10/
039980/20121203/142823/1995/327/10/
039980/20121203/142823/1995/1314/10/
039980/20121203/142839/1990/1101/10/
039980/20121203/142843/1990/163/10/
039980/20121203/142857/1990/350/20/
039980/20121203/142958/1990/275/20/
039980/20121203/143003/1990/100/20/
039980/20121203/143155/1985/458/10/
039980/20121203/143203/1985/381/10/
039980/20121203/143218/1985/163/10/
039980/20121203/143221/1990/1000/20/
039980/20121203/143303/1990/85/20/
039980/20121203/143318/1990/215/10/
039980/20121203/143318/1985/185/10/
039980/20121203/143327/1985/2653/10/
039980/20121203/143331/1985/1000/20/
039980/20121203/143337/1985/400/20/
039980/20121203/143350/1985/721/20/
039980/20121203/143511/1985/1030/10/
039980/20121203/143553/1990/120/20/
039980/20121203/143637/1990/300/20/
039980/20121203/144000/1990/2224/10/
039980/20121203/144002/1990/200/20/
039980/20121203/144013/1990/100/20/
039980/20121203/144220/1985/2352/10/
039980/20121203/144248/1985/271/10/
039980/20121203/144255/1985/577/10/
039980/20121203/144307/1980/2279/10/
039980/20121203/144425/1985/1011/20/
039980/20121203/144438/1985/258/20/
039980/20121203/144447/1985/519/10/
039980/20121203/144547/1990/1000/20/
039980/20121203/144555/1990/420/20/
039980/20121203/144601/1990/2000/20/
039980/20121203/144604/1990/715/20/
039980/20121203/144749/2000/517/20/
039980/20121203/144812/2000/1890/20/
039980/20121203/144921/2005/303/20/
039980/20121203/144925/2000/210/10/
039980/20121203/144941/2000/283/20/
039980/20121203/144954/2005/260/20/
039980/20121203/150000/2000/19557/10/
