046940/20130212/90000/2500/6333/20/
046940/20130212/90000/2500/255/10/
046940/20130212/90000/2535/245/20/
046940/20130212/90007/2490/119/10/
046940/20130212/90008/2490/100/10/
046940/20130212/90008/2480/800/10/
046940/20130212/90008/2475/951/10/
046940/20130212/90008/2470/1949/10/
046940/20130212/90011/2470/1251/10/
046940/20130212/90011/2460/101/10/
046940/20130212/90020/2470/127/10/
046940/20130212/90021/2470/800/10/
046940/20130212/90051/2485/800/10/
046940/20130212/90051/2480/1202/10/
046940/20130212/90051/2500/506/20/
046940/20130212/90102/2480/1499/10/
046940/20130212/90102/2475/1493/10/
046940/20130212/90104/2500/240/20/
046940/20130212/90119/2485/137/10/
046940/20130212/90129/2495/810/20/
046940/20130212/90129/2500/1253/20/
046940/20130212/90129/2535/1300/20/
046940/20130212/90133/2535/486/20/
046940/20130212/90147/2535/1075/20/
046940/20130212/90221/2500/465/10/
046940/20130212/90221/2500/568/20/
046940/20130212/90301/2500/126/10/
046940/20130212/90319/2495/852/10/
046940/20130212/90332/2500/422/20/
046940/20130212/90332/2515/142/20/
046940/20130212/90332/2525/803/20/
046940/20130212/90332/2530/1633/20/
046940/20130212/90402/2500/90/10/
046940/20130212/90402/2495/389/10/
046940/20130212/90402/2490/1300/10/
046940/20130212/90402/2485/2700/10/
046940/20130212/90402/2480/2101/10/
046940/20130212/90429/2515/210/20/
046940/20130212/90447/2510/90/20/
046940/20130212/90450/2510/340/10/
046940/20130212/90450/2485/660/10/
046940/20130212/90529/2490/316/10/
046940/20130212/90543/2490/451/10/
046940/20130212/90543/2490/1049/20/
046940/20130212/90610/2490/679/10/
046940/20130212/90610/2510/3000/20/
046940/20130212/90658/2495/3060/10/
046940/20130212/90659/2495/415/10/
046940/20130212/90709/2495/1000/10/
046940/20130212/90712/2495/754/10/
046940/20130212/90735/2495/220/10/
046940/20130212/90818/2495/1038/10/
046940/20130212/90818/2490/2962/10/
046940/20130212/90818/2490/300/10/
046940/20130212/90902/2495/307/20/
046940/20130212/90912/2495/993/10/
046940/20130212/90934/2495/657/10/
046940/20130212/90936/2495/846/10/
046940/20130212/90936/2490/1054/10/
046940/20130212/90953/2500/137/20/
046940/20130212/91010/2490/4775/10/
046940/20130212/91010/2485/1641/10/
046940/20130212/91022/2495/632/10/
046940/20130212/91023/2495/89/10/
046940/20130212/91038/2490/446/20/
046940/20130212/91045/2490/90/10/
046940/20130212/91100/2490/346/10/
046940/20130212/91102/2490/730/10/
046940/20130212/91103/2490/270/20/
046940/20130212/91122/2490/780/10/
046940/20130212/91122/2485/1263/10/
046940/20130212/91145/2485/2259/10/
046940/20130212/91203/2480/2011/10/
046940/20130212/91203/2480/1079/10/
046940/20130212/91203/2475/1914/10/
046940/20130212/91217/2475/167/10/
046940/20130212/91218/2475/1000/10/
046940/20130212/91224/2475/351/10/
046940/20130212/91224/2475/89/10/
046940/20130212/91224/2475/100/10/
046940/20130212/91235/2475/500/10/
046940/20130212/91242/2475/300/10/
046940/20130212/91248/2475/333/10/
046940/20130212/91258/2475/829/10/
046940/20130212/91258/2475/200/20/
046940/20130212/91319/2470/1001/10/
046940/20130212/91321/2470/160/10/
046940/20130212/91322/2470/791/10/
046940/20130212/91325/2470/1000/10/
046940/20130212/91354/2475/139/10/
046940/20130212/91354/2470/2453/10/
046940/20130212/91357/2470/1040/10/
046940/20130212/91357/2465/4290/10/
046940/20130212/91358/2465/270/20/
046940/20130212/91449/2480/548/20/
046940/20130212/91508/2485/1001/20/
046940/20130212/91528/2500/145/20/
046940/20130212/91528/2505/365/20/
046940/20130212/91603/2505/500/20/
046940/20130212/91612/2490/107/10/
046940/20130212/91700/2490/418/10/
046940/20130212/91700/2485/1152/20/
046940/20130212/91724/2490/400/20/
046940/20130212/91755/2490/501/10/
046940/20130212/91811/2490/150/10/
046940/20130212/91811/2485/717/10/
046940/20130212/91849/2485/501/10/
046940/20130212/91856/2485/173/10/
046940/20130212/91921/2480/550/10/
046940/20130212/92008/2480/101/10/
046940/20130212/92031/2480/517/10/
046940/20130212/92047/2485/510/20/
046940/20130212/92129/2485/536/10/
046940/20130212/92222/2490/521/20/
046940/20130212/92230/2490/184/10/
046940/20130212/92236/2485/115/10/
046940/20130212/92236/2480/885/10/
046940/20130212/92258/2480/1689/10/
046940/20130212/92304/2480/102/10/
046940/20130212/92341/2480/526/10/
046940/20130212/92353/2480/100/10/
046940/20130212/92355/2480/305/10/
046940/20130212/92355/2475/2559/10/
046940/20130212/92355/2470/2682/10/
046940/20130212/92403/2470/3072/10/
046940/20130212/92435/2480/1000/10/
046940/20130212/92518/2490/445/20/
046940/20130212/92813/2495/162/10/
046940/20130212/92825/2495/92/10/
046940/20130212/92838/2495/422/20/
046940/20130212/92839/2495/598/10/
046940/20130212/92839/2490/402/10/
046940/20130212/92843/2490/982/10/
046940/20130212/92859/2490/533/10/
046940/20130212/92930/2500/709/20/
046940/20130212/92938/2500/248/20/
046940/20130212/93054/2490/1054/10/
046940/20130212/93135/2485/447/20/
046940/20130212/93142/2485/165/10/
046940/20130212/93142/2480/835/10/
046940/20130212/93144/2480/227/10/
046940/20130212/93144/2475/973/10/
046940/20130212/93145/2490/660/20/
046940/20130212/93146/2480/1601/20/
046940/20130212/93200/2480/114/20/
046940/20130212/93207/2475/247/10/
046940/20130212/93218/2480/700/10/
046940/20130212/93320/2480/300/10/
046940/20130212/93502/2485/501/10/
046940/20130212/93506/2485/745/10/
046940/20130212/93542/2485/3010/20/
046940/20130212/93543/2480/2302/10/
046940/20130212/93701/2485/1636/20/
046940/20130212/93706/2485/385/10/
046940/20130212/93911/2490/572/10/
046940/20130212/93931/2485/1019/10/
046940/20130212/93945/2485/221/10/
046940/20130212/94002/2480/1034/10/
046940/20130212/94036/2485/90/20/
046940/20130212/94041/2485/83/20/
046940/20130212/94042/2485/136/20/
046940/20130212/94049/2485/88/20/
046940/20130212/94053/2495/81/20/
046940/20130212/94105/2495/243/20/
046940/20130212/94110/2495/516/20/
046940/20130212/94119/2500/82/20/
046940/20130212/94123/2500/82/20/
046940/20130212/94127/2500/81/20/
046940/20130212/94129/2500/801/20/
046940/20130212/94131/2500/84/20/
046940/20130212/94139/2495/81/10/
046940/20130212/94140/2505/512/20/
046940/20130212/94142/2505/84/20/
046940/20130212/94145/2505/89/20/
046940/20130212/94149/2505/81/20/
046940/20130212/94154/2505/82/20/
046940/20130212/94157/2505/90/20/
046940/20130212/94201/2500/81/10/
046940/20130212/94204/2515/81/20/
046940/20130212/94209/2515/345/20/
046940/20130212/94210/2515/438/10/
046940/20130212/94216/2515/162/20/
046940/20130212/94217/2515/212/20/
046940/20130212/94217/2520/291/20/
046940/20130212/94223/2520/308/20/
046940/20130212/94223/2525/2797/20/
046940/20130212/94228/2525/127/20/
046940/20130212/94229/2525/864/20/
046940/20130212/94229/2530/2142/20/
046940/20130212/94231/2520/846/10/
046940/20130212/94233/2520/132/20/
046940/20130212/94246/2520/396/20/
046940/20130212/94248/2515/1011/10/
046940/20130212/94249/2520/162/20/
046940/20130212/94249/2525/341/20/
046940/20130212/94257/2525/467/20/
046940/20130212/94257/2530/570/20/
046940/20130212/94307/2515/220/10/
046940/20130212/94327/2520/135/20/
046940/20130212/94341/2520/1000/10/
046940/20130212/94359/2520/391/20/
046940/20130212/94427/2520/100/20/
046940/20130212/94434/2520/445/20/
046940/20130212/94522/2525/592/20/
046940/20130212/94538/2525/90/20/
046940/20130212/94555/2525/1690/20/
046940/20130212/94555/2530/1176/20/
046940/20130212/94555/2535/935/20/
046940/20130212/94600/2520/2002/10/
046940/20130212/94620/2530/276/20/
046940/20130212/94636/2530/522/20/
046940/20130212/94643/2520/1124/10/
046940/20130212/94647/2520/520/10/
046940/20130212/94647/2525/858/20/
046940/20130212/94647/2530/1104/20/
046940/20130212/94650/2530/300/10/
046940/20130212/94656/2530/467/10/
046940/20130212/94703/2520/300/10/
046940/20130212/94722/2525/204/20/
046940/20130212/94734/2530/248/20/
046940/20130212/94735/2520/3706/10/
046940/20130212/94751/2515/2310/10/
046940/20130212/94753/2515/547/10/
046940/20130212/94753/2515/1874/10/
046940/20130212/94757/2505/468/10/
046940/20130212/94757/2500/770/10/
046940/20130212/94808/2500/100/10/
046940/20130212/94808/2500/1500/10/
046940/20130212/94824/2500/1562/10/
046940/20130212/94829/2500/317/10/
046940/20130212/95124/2505/184/10/
046940/20130212/95153/2505/135/20/
046940/20130212/95154/2505/843/10/
046940/20130212/95224/2505/157/20/
046940/20130212/95245/2500/118/10/
046940/20130212/95408/2520/179/20/
046940/20130212/95644/2520/190/20/
046940/20130212/95757/2515/100/20/
046940/20130212/95811/2515/140/10/
046940/20130212/95928/2515/83/10/
046940/20130212/100042/2520/2131/20/
046940/20130212/100135/2520/279/10/
046940/20130212/100141/2520/282/10/
046940/20130212/100443/2520/161/20/
046940/20130212/100507/2515/156/10/
046940/20130212/100518/2510/700/10/
046940/20130212/100547/2510/1500/10/
046940/20130212/100551/2510/135/10/
046940/20130212/100618/2510/178/10/
046940/20130212/100619/2510/352/20/
046940/20130212/100630/2505/3800/10/
046940/20130212/100644/2500/797/20/
046940/20130212/100726/2495/447/10/
046940/20130212/100745/2500/87/10/
046940/20130212/100752/2500/259/20/
046940/20130212/100806/2510/1000/20/
046940/20130212/100837/2510/513/20/
046940/20130212/100840/2510/120/20/
046940/20130212/100844/2510/380/10/
046940/20130212/100844/2500/94/10/
046940/20130212/100910/2510/1406/10/
046940/20130212/100930/2510/1000/10/
046940/20130212/101007/2520/283/20/
046940/20130212/101007/2525/767/20/
046940/20130212/101025/2525/647/20/
046940/20130212/101144/2520/1636/10/
046940/20130212/101246/2520/1022/10/
046940/20130212/101256/2520/248/20/
046940/20130212/101306/2530/108/20/
046940/20130212/101321/2535/289/20/
046940/20130212/101331/2535/500/20/
046940/20130212/101341/2535/435/20/
046940/20130212/101346/2535/145/20/
046940/20130212/101400/2540/102/20/
046940/20130212/101400/2540/533/20/
046940/20130212/101402/2545/1001/20/
046940/20130212/101404/2540/150/10/
046940/20130212/101404/2545/1099/10/
046940/20130212/101411/2550/311/20/
046940/20130212/101413/2550/2594/20/
046940/20130212/101414/2550/2104/20/
046940/20130212/101444/2550/2712/10/
046940/20130212/101445/2550/250/20/
046940/20130212/101511/2540/366/20/
046940/20130212/101551/2540/105/20/
046940/20130212/101608/2540/578/20/
046940/20130212/101749/2545/436/20/
046940/20130212/101838/2545/2553/20/
046940/20130212/101838/2550/1908/20/
046940/20130212/101838/2555/570/20/
046940/20130212/101909/2550/100/20/
046940/20130212/101935/2550/95/20/
046940/20130212/102007/2550/420/20/
046940/20130212/102007/2555/580/20/
046940/20130212/102124/2550/1015/10/
046940/20130212/102131/2550/500/10/
046940/20130212/102158/2550/201/10/
046940/20130212/102158/2535/100/10/
046940/20130212/102335/2555/131/20/
046940/20130212/102339/2555/100/20/
046940/20130212/102341/2555/1000/20/
046940/20130212/102341/2555/468/20/
046940/20130212/102443/2550/489/10/
046940/20130212/102506/2555/1307/20/
046940/20130212/102506/2560/711/20/
046940/20130212/102547/2555/1224/20/
046940/20130212/102602/2560/760/20/
046940/20130212/102602/2565/1173/20/
046940/20130212/102607/2570/155/20/
046940/20130212/102611/2570/1182/20/
046940/20130212/102623/2570/90/20/
046940/20130212/102630/2570/424/20/
046940/20130212/102630/2575/2001/20/
046940/20130212/102634/2580/321/20/
046940/20130212/102640/2585/109/20/
046940/20130212/102649/2580/1000/20/
046940/20130212/102703/2580/534/20/
046940/20130212/102706/2580/189/20/
046940/20130212/102710/2580/127/20/
046940/20130212/102710/2580/134/20/
046940/20130212/102713/2580/200/20/
046940/20130212/102723/2570/1004/10/
046940/20130212/102734/2575/133/20/
046940/20130212/102740/2575/300/20/
046940/20130212/102811/2565/278/10/
046940/20130212/102836/2570/104/20/
046940/20130212/102903/2570/448/20/
046940/20130212/102914/2570/132/10/
046940/20130212/102925/2570/1340/10/
046940/20130212/102945/2570/295/20/
046940/20130212/102954/2575/730/20/
046940/20130212/103056/2570/1610/10/
046940/20130212/103056/2570/420/10/
046940/20130212/103113/2565/725/10/
046940/20130212/103124/2560/250/10/
046940/20130212/103150/2555/300/10/
046940/20130212/103153/2555/2000/10/
046940/20130212/103155/2555/300/10/
046940/20130212/103156/2555/750/10/
046940/20130212/103200/2555/120/10/
046940/20130212/103212/2555/100/10/
046940/20130212/103359/2565/252/20/
046940/20130212/103422/2565/274/20/
046940/20130212/103428/2565/380/20/
046940/20130212/103706/2560/3040/10/
046940/20130212/103717/2560/501/10/
046940/20130212/103721/2560/660/10/
046940/20130212/103721/2560/920/10/
046940/20130212/103729/2555/100/10/
046940/20130212/103813/2555/520/10/
046940/20130212/104030/2555/162/10/
046940/20130212/104120/2550/393/10/
046940/20130212/104123/2550/99/10/
046940/20130212/104127/2550/200/10/
046940/20130212/104211/2550/271/10/
046940/20130212/104213/2550/234/10/
046940/20130212/104217/2550/330/10/
046940/20130212/104313/2560/97/20/
046940/20130212/104328/2560/600/20/
046940/20130212/104535/2550/100/10/
046940/20130212/104535/2545/110/10/
046940/20130212/104656/2545/980/20/
046940/20130212/104721/2545/89/20/
046940/20130212/104914/2545/501/10/
046940/20130212/105318/2545/1015/10/
046940/20130212/105350/2545/1000/10/
046940/20130212/105446/2545/400/10/
046940/20130212/105553/2545/2523/20/
046940/20130212/105603/2540/2252/10/
046940/20130212/105633/2540/1001/10/
046940/20130212/105641/2540/800/10/
046940/20130212/105727/2540/1018/10/
046940/20130212/105727/2535/982/10/
046940/20130212/105735/2545/100/20/
046940/20130212/105811/2530/203/10/
046940/20130212/105811/2525/397/10/
046940/20130212/110131/2535/232/10/
046940/20130212/110159/2535/100/10/
046940/20130212/110404/2540/402/20/
046940/20130212/110547/2540/177/20/
046940/20130212/110610/2540/600/10/
046940/20130212/110744/2535/556/10/
046940/20130212/110758/2540/917/20/
046940/20130212/111131/2540/683/10/
046940/20130212/111135/2540/325/20/
046940/20130212/111404/2540/100/10/
046940/20130212/111445/2540/1043/10/
046940/20130212/111445/2525/1663/10/
046940/20130212/111556/2525/200/10/
046940/20130212/111610/2525/100/10/
046940/20130212/112501/2540/378/20/
046940/20130212/112501/2545/462/20/
046940/20130212/112544/2545/100/20/
046940/20130212/112633/2545/210/20/
046940/20130212/113202/2545/100/20/
046940/20130212/113623/2545/150/20/
046940/20130212/114056/2540/200/10/
046940/20130212/114056/2535/557/10/
046940/20130212/114056/2530/800/10/
046940/20130212/114056/2525/252/10/
046940/20130212/114056/2520/806/10/
046940/20130212/114413/2525/2753/10/
046940/20130212/114439/2525/437/10/
046940/20130212/114439/2520/10065/10/
046940/20130212/114457/2520/499/10/
046940/20130212/114457/2515/158/10/
046940/20130212/115230/2525/129/10/
046940/20130212/115410/2525/121/10/
046940/20130212/115410/2520/3179/10/
046940/20130212/120107/2525/113/20/
046940/20130212/120204/2520/220/10/
046940/20130212/120304/2525/501/20/
046940/20130212/120318/2525/100/20/
046940/20130212/120432/2520/700/10/
046940/20130212/120524/2520/400/10/
046940/20130212/120629/2520/2024/10/
046940/20130212/120648/2530/88/20/
046940/20130212/120651/2530/91/20/
046940/20130212/120653/2540/81/20/
046940/20130212/120656/2540/91/20/
046940/20130212/120658/2540/86/20/
046940/20130212/120701/2540/89/20/
046940/20130212/120703/2540/91/20/
046940/20130212/120706/2540/82/20/
046940/20130212/120708/2540/83/20/
046940/20130212/120713/2550/81/20/
046940/20130212/120716/2550/82/20/
046940/20130212/120720/2550/82/20/
046940/20130212/120723/2550/313/20/
046940/20130212/120726/2550/81/20/
046940/20130212/120730/2550/83/20/
046940/20130212/120734/2550/83/20/
046940/20130212/120741/2530/81/10/
046940/20130212/120746/2550/81/20/
046940/20130212/120751/2550/81/20/
046940/20130212/120756/2550/81/20/
046940/20130212/120802/2550/82/20/
046940/20130212/120811/2545/82/20/
046940/20130212/120812/2545/647/20/
046940/20130212/120820/2545/81/20/
046940/20130212/120829/2545/81/20/
046940/20130212/120835/2545/107/20/
046940/20130212/120835/2535/1306/10/
046940/20130212/120835/2530/3411/10/
046940/20130212/120839/2530/663/10/
046940/20130212/120840/2540/685/20/
046940/20130212/120845/2530/901/10/
046940/20130212/120845/2525/1163/10/
046940/20130212/120846/2540/293/20/
046940/20130212/120952/2525/100/10/
046940/20130212/121000/2525/341/10/
046940/20130212/121229/2520/466/10/
046940/20130212/121231/2515/100/10/
046940/20130212/121240/2515/100/10/
046940/20130212/121240/2515/373/10/
046940/20130212/121247/2515/1000/10/
046940/20130212/121250/2515/249/10/
046940/20130212/121253/2515/734/10/
046940/20130212/121405/2540/373/20/
046940/20130212/121405/2545/453/20/
046940/20130212/121405/2550/175/20/
046940/20130212/121459/2520/135/10/
046940/20130212/121459/2515/472/10/
046940/20130212/121459/2510/2860/10/
046940/20130212/121459/2505/4114/10/
046940/20130212/121459/2500/12810/10/
046940/20130212/121459/2500/300/20/
046940/20130212/121459/2500/2004/20/
046940/20130212/121508/2500/300/20/
046940/20130212/121522/2495/787/10/
046940/20130212/121758/2510/255/10/
046940/20130212/121842/2500/110/10/
046940/20130212/121903/2500/109/10/
046940/20130212/121903/2495/1191/10/
046940/20130212/121928/2490/131/10/
046940/20130212/122000/2510/95/20/
046940/20130212/122025/2495/406/10/
046940/20130212/122025/2490/2311/10/
046940/20130212/122025/2485/1219/10/
046940/20130212/122025/2480/2044/10/
046940/20130212/122025/2475/450/10/
046940/20130212/122026/2475/681/10/
046940/20130212/122113/2480/101/10/
046940/20130212/122113/2475/187/10/
046940/20130212/122147/2485/101/10/
046940/20130212/122147/2480/551/10/
046940/20130212/122155/2480/299/10/
046940/20130212/122356/2500/453/20/
046940/20130212/122416/2500/559/10/
046940/20130212/122506/2500/500/10/
046940/20130212/122555/2485/1002/10/
046940/20130212/122555/2480/1998/10/
046940/20130212/122616/2480/400/10/
046940/20130212/122631/2480/552/10/
046940/20130212/122631/2475/4927/10/
046940/20130212/122631/2470/2521/10/
046940/20130212/122640/2480/600/10/
046940/20130212/122640/2470/651/10/
046940/20130212/122655/2470/1290/10/
046940/20130212/122655/2470/249/10/
046940/20130212/122700/2470/1752/10/
046940/20130212/122700/2465/1248/10/
046940/20130212/122700/2465/200/10/
046940/20130212/122709/2465/136/10/
046940/20130212/122720/2465/118/10/
046940/20130212/122752/2470/400/20/
046940/20130212/122756/2470/500/10/
046940/20130212/122806/2470/103/10/
046940/20130212/122806/2465/2888/10/
046940/20130212/122833/2460/2010/10/
046940/20130212/122833/2460/400/10/
046940/20130212/122839/2460/701/10/
046940/20130212/122839/2460/515/10/
046940/20130212/122854/2455/3520/10/
046940/20130212/122854/2455/865/10/
046940/20130212/122859/2450/1726/10/
046940/20130212/122901/2450/1000/10/
046940/20130212/122905/2450/200/10/
046940/20130212/122905/2450/721/10/
046940/20130212/122918/2450/351/10/
046940/20130212/122922/2450/220/10/
046940/20130212/122922/2445/381/10/
046940/20130212/122954/2445/3000/10/
046940/20130212/123003/2455/401/20/
046940/20130212/123021/2455/234/20/
046940/20130212/123021/2455/1037/10/
046940/20130212/123050/2465/110/20/
046940/20130212/123058/2465/219/20/
046940/20130212/123115/2465/789/10/
046940/20130212/123115/2455/211/10/
046940/20130212/123124/2490/2000/20/
046940/20130212/123131/2490/2200/10/
046940/20130212/123208/2460/420/10/
046940/20130212/123208/2455/580/10/
046940/20130212/123238/2455/500/10/
046940/20130212/123302/2455/1800/10/
046940/20130212/123321/2455/1266/20/
046940/20130212/123322/2455/200/20/
046940/20130212/123333/2450/307/10/
046940/20130212/123338/2450/147/10/
046940/20130212/123436/2455/81/20/
046940/20130212/123444/2450/1397/10/
046940/20130212/123444/2445/2676/10/
046940/20130212/123444/2440/2924/10/
046940/20130212/123534/2450/105/10/
046940/20130212/123534/2445/3930/10/
046940/20130212/123540/2445/118/10/
046940/20130212/123550/2465/109/20/
046940/20130212/123550/2470/100/20/
046940/20130212/123550/2470/481/10/
046940/20130212/123632/2470/585/10/
046940/20130212/123716/2470/1553/20/
046940/20130212/123733/2470/147/10/
046940/20130212/123800/2465/93/20/
046940/20130212/123800/2470/407/20/
046940/20130212/123816/2470/500/20/
046940/20130212/123901/2475/533/20/
046940/20130212/123921/2480/2500/20/
046940/20130212/123937/2480/462/20/
046940/20130212/123948/2485/530/20/
046940/20130212/124008/2490/1000/20/
046940/20130212/124017/2490/200/20/
046940/20130212/124032/2490/2000/20/
046940/20130212/124424/2475/120/10/
046940/20130212/124424/2470/770/10/
046940/20130212/124424/2465/420/10/
046940/20130212/124651/2475/116/20/
046940/20130212/124711/2475/300/10/
046940/20130212/124752/2475/275/10/
046940/20130212/125034/2475/250/10/
046940/20130212/125059/2485/203/20/
046940/20130212/125307/2490/1442/20/
046940/20130212/125307/2490/500/20/
046940/20130212/125312/2490/100/20/
046940/20130212/125313/2490/218/20/
046940/20130212/125318/2490/302/20/
046940/20130212/125334/2490/253/20/
046940/20130212/125400/2490/100/20/
046940/20130212/125409/2490/374/10/
046940/20130212/125426/2490/126/10/
046940/20130212/125527/2490/200/20/
046940/20130212/125553/2485/296/10/
046940/20130212/125553/2480/2898/10/
046940/20130212/125553/2475/3405/10/
046940/20130212/125553/2470/3300/10/
046940/20130212/125553/2465/101/10/
046940/20130212/125729/2470/229/10/
046940/20130212/125746/2470/1121/10/
046940/20130212/125754/2470/82/20/
046940/20130212/125754/2490/311/20/
046940/20130212/130025/2485/270/20/
046940/20130212/130129/2470/1377/10/
046940/20130212/130228/2475/221/10/
046940/20130212/130228/2470/100/10/
046940/20130212/130526/2475/166/10/
046940/20130212/130607/2470/300/10/
046940/20130212/130625/2470/300/10/
046940/20130212/130752/2480/689/20/
046940/20130212/130802/2470/522/10/
046940/20130212/131024/2485/342/20/
046940/20130212/131043/2485/500/10/
046940/20130212/131048/2490/500/20/
046940/20130212/131159/2490/156/20/
046940/20130212/131210/2485/1159/10/
046940/20130212/131657/2490/142/10/
046940/20130212/131752/2485/84/10/
046940/20130212/131752/2475/2523/10/
046940/20130212/131752/2475/1441/20/
046940/20130212/132004/2490/127/20/
046940/20130212/132112/2490/101/10/
046940/20130212/132128/2490/150/10/
046940/20130212/132222/2495/260/20/
046940/20130212/132436/2480/100/10/
046940/20130212/132630/2495/500/20/
046940/20130212/132654/2500/500/20/
046940/20130212/132741/2500/345/20/
046940/20130212/132759/2500/155/10/
046940/20130212/132759/2490/155/10/
046940/20130212/132853/2490/218/10/
046940/20130212/133025/2490/150/10/
046940/20130212/133036/2485/300/10/
046940/20130212/133350/2490/296/20/
046940/20130212/133549/2495/100/20/
046940/20130212/133602/2495/1000/10/
046940/20130212/133644/2495/201/10/
046940/20130212/133700/2490/200/10/
046940/20130212/133731/2490/300/10/
046940/20130212/133802/2490/200/10/
046940/20130212/133821/2490/250/10/
046940/20130212/133916/2490/270/20/
046940/20130212/134007/2490/151/10/
046940/20130212/134054/2490/2749/20/
046940/20130212/134120/2490/500/20/
046940/20130212/134314/2485/330/10/
046940/20130212/134512/2490/301/10/
046940/20130212/134545/2490/153/10/
046940/20130212/134631/2490/308/10/
046940/20130212/134846/2500/81/20/
046940/20130212/135324/2495/329/10/
046940/20130212/135330/2495/225/10/
046940/20130212/135507/2495/130/20/
046940/20130212/135521/2490/944/10/
046940/20130212/135633/2495/157/20/
046940/20130212/135806/2490/347/10/
046940/20130212/135823/2495/100/20/
046940/20130212/135847/2495/100/20/
046940/20130212/135857/2495/100/20/
046940/20130212/140114/2500/351/20/
046940/20130212/140130/2500/500/20/
046940/20130212/140229/2500/90/20/
046940/20130212/140539/2495/110/20/
046940/20130212/140548/2495/100/20/
046940/20130212/140604/2495/100/20/
046940/20130212/140638/2495/200/10/
046940/20130212/140703/2495/1331/10/
046940/20130212/140812/2495/102/10/
046940/20130212/140833/2495/2000/10/
046940/20130212/140836/2495/1501/10/
046940/20130212/140902/2495/1000/10/
046940/20130212/140903/2495/592/10/
046940/20130212/140930/2495/99/20/
046940/20130212/140937/2495/100/20/
046940/20130212/140947/2500/1007/20/
046940/20130212/141038/2510/597/20/
046940/20130212/141157/2515/161/20/
046940/20130212/141305/2520/280/10/
046940/20130212/141332/2525/2050/10/
046940/20130212/141332/2525/2438/10/
046940/20130212/141553/2515/525/10/
046940/20130212/141635/2515/85/10/
046940/20130212/141654/2500/3924/10/
046940/20130212/141725/2490/600/10/
046940/20130212/141833/2500/147/20/
046940/20130212/142039/2515/91/20/
046940/20130212/142058/2495/300/10/
046940/20130212/142448/2515/826/20/
046940/20130212/142516/2500/100/10/
046940/20130212/142546/2500/933/10/
046940/20130212/142546/2495/2067/10/
046940/20130212/142702/2495/500/10/
046940/20130212/142714/2495/733/10/
046940/20130212/142729/2495/329/20/
046940/20130212/143018/2490/2022/10/
046940/20130212/143054/2500/100/20/
046940/20130212/143328/2490/400/10/
046940/20130212/143408/2490/137/10/
046940/20130212/143445/2490/100/20/
046940/20130212/143529/2490/263/20/
046940/20130212/143554/2485/85/10/
046940/20130212/143604/2485/220/10/
046940/20130212/143605/2485/1612/10/
046940/20130212/143613/2485/388/20/
046940/20130212/143641/2500/1679/20/
046940/20130212/143641/2510/500/20/
046940/20130212/143641/2515/479/20/
046940/20130212/143641/2520/1275/20/
046940/20130212/143820/2510/100/20/
046940/20130212/143902/2510/2021/10/
046940/20130212/144016/2490/201/10/
046940/20130212/144116/2485/1000/10/
046940/20130212/144203/2485/1322/10/
046940/20130212/144203/2480/3099/10/
046940/20130212/144203/2475/2010/10/
046940/20130212/144203/2470/1110/10/
046940/20130212/144203/2465/1260/10/
046940/20130212/144203/2460/200/10/
046940/20130212/144203/2455/1236/10/
046940/20130212/144203/2450/4059/10/
046940/20130212/144233/2460/245/10/
046940/20130212/144233/2455/474/10/
046940/20130212/144323/2495/244/20/
046940/20130212/144323/2510/1098/20/
046940/20130212/144407/2500/200/20/
046940/20130212/144545/2470/703/10/
046940/20130212/144546/2470/431/20/
046940/20130212/144803/2485/388/20/
046940/20130212/144849/2485/211/20/
046940/20130212/144939/2485/100/20/
046940/20130212/144940/2485/83/20/
046940/20130212/144947/2485/117/10/
046940/20130212/144959/2475/100/10/
046940/20130212/144959/2470/246/10/
046940/20130212/144959/2465/1106/10/
046940/20130212/144959/2460/2207/10/
046940/20130212/144959/2455/841/10/
046940/20130212/150000/2480/4255/20/
