046940/20130221/90000/2540/550/20/
046940/20130221/90001/2525/324/10/
046940/20130221/90005/2525/1064/10/
046940/20130221/90139/2520/201/10/
046940/20130221/90139/2510/1000/10/
046940/20130221/90204/2510/200/20/
046940/20130221/90308/2510/1000/20/
046940/20130221/90308/2510/259/20/
046940/20130221/90436/2510/400/10/
046940/20130221/90509/2510/1494/10/
046940/20130221/90509/2505/1622/10/
046940/20130221/90509/2500/4130/10/
046940/20130221/90519/2500/500/10/
046940/20130221/90524/2500/452/10/
046940/20130221/90536/2500/200/20/
046940/20130221/90537/2500/100/20/
046940/20130221/90608/2495/169/10/
046940/20130221/90614/2490/110/10/
046940/20130221/90631/2490/304/10/
046940/20130221/90636/2490/90/10/
046940/20130221/90640/2490/299/10/
046940/20130221/90703/2490/159/10/
046940/20130221/90741/2500/102/20/
046940/20130221/90743/2500/100/20/
046940/20130221/90811/2490/405/10/
046940/20130221/90811/2490/595/20/
046940/20130221/90837/2490/700/10/
046940/20130221/90837/2485/1435/10/
046940/20130221/90837/2480/2865/10/
046940/20130221/90859/2480/2214/10/
046940/20130221/90900/2480/786/20/
046940/20130221/90904/2470/826/10/
046940/20130221/90904/2465/174/10/
046940/20130221/90922/2470/630/10/
046940/20130221/90924/2470/1500/10/
046940/20130221/90924/2470/1500/20/
046940/20130221/90929/2465/377/10/
046940/20130221/90941/2470/530/10/
046940/20130221/90942/2470/2470/20/
046940/20130221/90944/2465/2277/10/
046940/20130221/90948/2465/635/10/
046940/20130221/90948/2460/564/10/
046940/20130221/90949/2465/618/20/
046940/20130221/90950/2465/688/10/
046940/20130221/90950/2460/96/10/
046940/20130221/90959/2460/255/10/
046940/20130221/91000/2460/698/10/
046940/20130221/91002/2465/500/10/
046940/20130221/91002/2460/200/10/
046940/20130221/91005/2460/1491/10/
046940/20130221/91006/2460/509/20/
046940/20130221/91011/2460/99/10/
046940/20130221/91016/2460/451/10/
046940/20130221/91016/2460/549/20/
046940/20130221/91017/2455/2022/10/
046940/20130221/91017/2455/473/20/
046940/20130221/91032/2455/440/10/
046940/20130221/91034/2450/1200/10/
046940/20130221/91034/2455/1560/20/
046940/20130221/91047/2460/106/20/
046940/20130221/91103/2460/177/20/
046940/20130221/91113/2460/1110/10/
046940/20130221/91113/2455/1160/10/
046940/20130221/91113/2450/1756/10/
046940/20130221/91134/2455/1512/10/
046940/20130221/91139/2475/322/20/
046940/20130221/91143/2475/700/20/
046940/20130221/91143/2475/201/10/
046940/20130221/91147/2475/686/10/
046940/20130221/91156/2475/265/20/
046940/20130221/91201/2475/553/20/
046940/20130221/91202/2475/2021/20/
046940/20130221/91223/2460/458/10/
046940/20130221/91333/2465/1028/10/
046940/20130221/91337/2465/559/10/
046940/20130221/91338/2465/443/20/
046940/20130221/91341/2465/158/10/
046940/20130221/91351/2465/378/10/
046940/20130221/91351/2460/1040/10/
046940/20130221/91359/2460/988/10/
046940/20130221/91415/2460/1175/10/
046940/20130221/91415/2455/2548/10/
046940/20130221/91415/2450/4452/10/
046940/20130221/91420/2455/105/10/
046940/20130221/91420/2450/150/10/
046940/20130221/91424/2450/439/10/
046940/20130221/91433/2460/120/20/
046940/20130221/91439/2450/219/10/
046940/20130221/91446/2450/130/20/
046940/20130221/91450/2445/300/10/
046940/20130221/91450/2450/100/20/
046940/20130221/91452/2445/501/10/
046940/20130221/91453/2445/400/10/
046940/20130221/91456/2450/100/20/
046940/20130221/91458/2445/435/10/
046940/20130221/91500/2445/135/10/
046940/20130221/91503/2445/482/20/
046940/20130221/91505/2445/1318/10/
046940/20130221/91509/2440/1628/10/
046940/20130221/91509/2435/1056/10/
046940/20130221/91512/2435/1020/10/
046940/20130221/91512/2430/3607/10/
046940/20130221/91513/2430/140/20/
046940/20130221/91519/2430/210/20/
046940/20130221/91521/2430/294/20/
046940/20130221/91524/2430/320/20/
046940/20130221/91525/2425/1132/10/
046940/20130221/91526/2420/1071/10/
046940/20130221/91532/2415/101/10/
046940/20130221/91533/2425/300/20/
046940/20130221/91534/2415/849/10/
046940/20130221/91535/2415/425/20/
046940/20130221/91536/2415/104/20/
046940/20130221/91537/2415/218/20/
046940/20130221/91540/2420/301/20/
046940/20130221/91542/2420/200/20/
046940/20130221/91544/2420/142/20/
046940/20130221/91548/2420/1550/10/
046940/20130221/91553/2420/360/20/
046940/20130221/91553/2420/118/20/
046940/20130221/91554/2420/233/20/
046940/20130221/91556/2420/2071/20/
046940/20130221/91556/2420/82/20/
046940/20130221/91557/2420/288/20/
046940/20130221/91557/2420/624/20/
046940/20130221/91558/2420/1000/10/
046940/20130221/91606/2425/340/20/
046940/20130221/91609/2425/100/20/
046940/20130221/91609/2425/100/20/
046940/20130221/91614/2425/300/20/
046940/20130221/91614/2425/151/20/
046940/20130221/91617/2425/90/20/
046940/20130221/91617/2425/2000/20/
046940/20130221/91619/2425/100/20/
046940/20130221/91622/2425/300/20/
046940/20130221/91624/2425/160/20/
046940/20130221/91625/2425/400/20/
046940/20130221/91626/2425/100/20/
046940/20130221/91628/2425/300/20/
046940/20130221/91629/2425/100/20/
046940/20130221/91637/2425/110/20/
046940/20130221/91638/2420/706/10/
046940/20130221/91639/2420/300/20/
046940/20130221/91640/2420/82/20/
046940/20130221/91642/2420/300/20/
046940/20130221/91643/2420/1412/10/
046940/20130221/91649/2425/300/20/
046940/20130221/91657/2420/1015/10/
046940/20130221/91657/2415/1085/10/
046940/20130221/91658/2425/300/20/
046940/20130221/91659/2425/2044/20/
046940/20130221/91712/2420/500/10/
046940/20130221/91730/2415/216/10/
046940/20130221/91731/2420/140/20/
046940/20130221/91734/2420/150/20/
046940/20130221/91737/2420/5010/20/
046940/20130221/91740/2415/1190/10/
046940/20130221/91742/2420/133/20/
046940/20130221/91742/2420/921/20/
046940/20130221/91750/2420/634/10/
046940/20130221/91750/2415/847/10/
046940/20130221/91759/2415/1873/10/
046940/20130221/91800/2415/110/20/
046940/20130221/91806/2415/395/20/
046940/20130221/91820/2415/100/20/
046940/20130221/91823/2415/100/20/
046940/20130221/91832/2415/376/10/
046940/20130221/91834/2420/100/20/
046940/20130221/91837/2415/232/10/
046940/20130221/91839/2415/166/20/
046940/20130221/91839/2410/439/10/
046940/20130221/91855/2415/1379/10/
046940/20130221/91908/2415/2200/10/
046940/20130221/91919/2410/1000/10/
046940/20130221/91919/2415/1500/20/
046940/20130221/91928/2415/838/20/
046940/20130221/91928/2415/6590/10/
046940/20130221/91929/2410/300/10/
046940/20130221/91931/2415/1000/10/
046940/20130221/91938/2415/100/10/
046940/20130221/91945/2410/1736/10/
046940/20130221/91945/2405/5614/10/
046940/20130221/91945/2400/2650/10/
046940/20130221/91945/2400/889/10/
046940/20130221/91947/2400/1200/10/
046940/20130221/91953/2400/8943/10/
046940/20130221/91954/2400/200/20/
046940/20130221/92001/2400/536/20/
046940/20130221/92002/2395/3915/10/
046940/20130221/92002/2390/1341/10/
046940/20130221/92002/2385/324/10/
046940/20130221/92003/2385/100/20/
046940/20130221/92010/2385/269/20/
046940/20130221/92012/2380/83/10/
046940/20130221/92014/2380/1732/10/
046940/20130221/92017/2380/100/20/
046940/20130221/92018/2380/500/20/
046940/20130221/92019/2380/150/20/
046940/20130221/92020/2375/150/10/
046940/20130221/92020/2380/100/20/
046940/20130221/92023/2380/1000/20/
046940/20130221/92025/2380/640/20/
046940/20130221/92028/2380/300/20/
046940/20130221/92028/2380/100/20/
046940/20130221/92028/2375/295/10/
046940/20130221/92028/2370/530/10/
046940/20130221/92034/2375/100/20/
046940/20130221/92034/2380/1950/20/
046940/20130221/92040/2380/270/20/
046940/20130221/92044/2380/100/20/
046940/20130221/92045/2375/223/10/
046940/20130221/92055/2380/580/20/
046940/20130221/92055/2375/1190/10/
046940/20130221/92055/2370/205/10/
046940/20130221/92100/2380/200/20/
046940/20130221/92107/2380/7000/20/
046940/20130221/92107/2380/1000/20/
046940/20130221/92108/2380/547/20/
046940/20130221/92109/2385/288/20/
046940/20130221/92111/2385/94/20/
046940/20130221/92111/2385/157/20/
046940/20130221/92111/2385/100/20/
046940/20130221/92111/2385/2109/20/
046940/20130221/92112/2385/1774/20/
046940/20130221/92112/2385/478/20/
046940/20130221/92119/2385/2040/10/
046940/20130221/92119/2385/961/20/
046940/20130221/92128/2395/219/20/
046940/20130221/92129/2395/295/20/
046940/20130221/92133/2400/205/20/
046940/20130221/92133/2400/416/20/
046940/20130221/92134/2400/567/20/
046940/20130221/92137/2405/362/20/
046940/20130221/92140/2405/1747/20/
046940/20130221/92140/2405/3281/10/
046940/20130221/92142/2405/2679/10/
046940/20130221/92142/2400/134/10/
046940/20130221/92147/2400/3600/20/
046940/20130221/92148/2395/498/10/
046940/20130221/92148/2390/141/10/
046940/20130221/92148/2385/667/10/
046940/20130221/92159/2400/583/20/
046940/20130221/92200/2400/400/10/
046940/20130221/92203/2400/200/20/
046940/20130221/92205/2400/123/10/
046940/20130221/92212/2400/253/20/
046940/20130221/92215/2400/392/20/
046940/20130221/92215/2400/195/20/
046940/20130221/92215/2405/805/20/
046940/20130221/92225/2400/303/10/
046940/20130221/92225/2400/100/20/
046940/20130221/92226/2395/500/10/
046940/20130221/92226/2390/1108/10/
046940/20130221/92226/2385/392/10/
046940/20130221/92235/2400/295/20/
046940/20130221/92241/2400/100/20/
046940/20130221/92243/2385/2000/10/
046940/20130221/92248/2390/200/20/
046940/20130221/92255/2385/1554/10/
046940/20130221/92255/2380/8451/10/
046940/20130221/92303/2380/503/10/
046940/20130221/92316/2390/420/20/
046940/20130221/92326/2390/212/20/
046940/20130221/92331/2380/892/10/
046940/20130221/92334/2380/780/10/
046940/20130221/92334/2380/956/10/
046940/20130221/92334/2375/3222/10/
046940/20130221/92334/2370/822/10/
046940/20130221/92343/2370/350/10/
046940/20130221/92346/2385/184/20/
046940/20130221/92346/2390/4000/20/
046940/20130221/92359/2390/2040/20/
046940/20130221/92407/2385/1203/10/
046940/20130221/92407/2375/591/10/
046940/20130221/92407/2370/206/10/
046940/20130221/92454/2385/1118/20/
046940/20130221/92506/2385/2185/20/
046940/20130221/92506/2390/502/20/
046940/20130221/92534/2390/418/20/
046940/20130221/92537/2385/1057/10/
046940/20130221/92548/2385/178/20/
046940/20130221/92550/2385/642/20/
046940/20130221/92557/2380/3600/10/
046940/20130221/92557/2385/100/20/
046940/20130221/92609/2385/762/10/
046940/20130221/92619/2380/1888/10/
046940/20130221/92619/2375/3173/10/
046940/20130221/92620/2385/1000/20/
046940/20130221/92636/2385/390/20/
046940/20130221/92645/2375/3465/10/
046940/20130221/92645/2370/5024/10/
046940/20130221/92645/2365/1437/10/
046940/20130221/92651/2365/3426/10/
046940/20130221/92651/2365/100/20/
046940/20130221/92652/2365/229/20/
046940/20130221/92701/2365/200/20/
046940/20130221/92701/2360/1943/10/
046940/20130221/92704/2365/557/20/
046940/20130221/92704/2355/2295/10/
046940/20130221/92704/2350/2705/10/
046940/20130221/92711/2350/140/10/
046940/20130221/92714/2360/136/20/
046940/20130221/92714/2350/918/10/
046940/20130221/92716/2345/1300/10/
046940/20130221/92716/2350/100/20/
046940/20130221/92718/2350/100/20/
046940/20130221/92718/2350/500/20/
046940/20130221/92719/2350/3000/20/
046940/20130221/92721/2345/670/10/
046940/20130221/92722/2340/251/10/
046940/20130221/92722/2335/249/10/
046940/20130221/92723/2345/201/20/
046940/20130221/92723/2350/299/20/
046940/20130221/92726/2335/466/10/
046940/20130221/92726/2330/2652/10/
046940/20130221/92726/2325/1041/10/
046940/20130221/92726/2320/540/10/
046940/20130221/92750/2335/177/10/
046940/20130221/92750/2330/1471/10/
046940/20130221/92750/2325/352/10/
046940/20130221/92752/2325/2250/10/
046940/20130221/92754/2325/517/20/
046940/20130221/92755/2325/1508/20/
046940/20130221/92756/2325/1238/20/
046940/20130221/92809/2330/3018/10/
046940/20130221/92811/2330/3082/10/
046940/20130221/92811/2325/3251/10/
046940/20130221/92811/2320/4948/10/
046940/20130221/92811/2315/3751/10/
046940/20130221/92815/2340/103/20/
046940/20130221/92815/2335/1097/10/
046940/20130221/92816/2335/143/10/
046940/20130221/92816/2340/357/20/
046940/20130221/92828/2325/510/10/
046940/20130221/92828/2325/93/10/
046940/20130221/92831/2325/888/20/
046940/20130221/92831/2335/1112/20/
046940/20130221/92833/2315/1852/10/
046940/20130221/92833/2310/3446/10/
046940/20130221/92833/2305/6702/10/
046940/20130221/92834/2320/1000/20/
046940/20130221/92834/2320/517/20/
046940/20130221/92835/2320/100/20/
046940/20130221/92841/2305/322/10/
046940/20130221/92846/2315/381/20/
046940/20130221/92848/2305/2638/10/
046940/20130221/92848/2300/807/10/
046940/20130221/92849/2300/444/10/
046940/20130221/92849/2300/168/10/
046940/20130221/92849/2300/100/10/
046940/20130221/92851/2300/599/10/
046940/20130221/92853/2295/286/10/
046940/20130221/92853/2295/300/10/
046940/20130221/92857/2300/665/20/
046940/20130221/92858/2300/100/20/
046940/20130221/92859/2300/238/20/
046940/20130221/92859/2300/200/10/
046940/20130221/92902/2315/1212/20/
046940/20130221/92903/2315/296/10/
046940/20130221/92903/2300/267/10/
046940/20130221/92903/2295/913/10/
046940/20130221/92904/2300/198/10/
046940/20130221/92904/2300/522/10/
046940/20130221/92912/2315/110/20/
046940/20130221/92914/2305/3000/10/
046940/20130221/92915/2305/137/10/
046940/20130221/92915/2300/4863/10/
046940/20130221/92919/2315/108/20/
046940/20130221/92919/2315/100/20/
046940/20130221/92920/2315/102/20/
046940/20130221/92921/2315/2200/20/
046940/20130221/92923/2315/799/20/
046940/20130221/92925/2315/479/20/
046940/20130221/92925/2315/792/20/
046940/20130221/92926/2315/402/10/
046940/20130221/92932/2320/181/20/
046940/20130221/92933/2320/169/20/
046940/20130221/92933/2325/448/20/
046940/20130221/92933/2330/1052/20/
046940/20130221/92934/2325/173/20/
046940/20130221/92935/2320/479/10/
046940/20130221/92935/2315/671/10/
046940/20130221/92935/2310/2783/10/
046940/20130221/92935/2305/1115/10/
046940/20130221/92939/2320/508/10/
046940/20130221/92941/2305/1726/10/
046940/20130221/92941/2300/456/10/
046940/20130221/92945/2310/594/20/
046940/20130221/92948/2320/224/10/
046940/20130221/92951/2320/353/20/
046940/20130221/92955/2320/268/20/
046940/20130221/92956/2320/832/20/
046940/20130221/92957/2320/441/10/
046940/20130221/93000/2320/1022/10/
046940/20130221/93000/2325/93/20/
046940/20130221/93004/2320/2312/10/
046940/20130221/93006/2310/154/10/
046940/20130221/93008/2320/1006/20/
046940/20130221/93009/2320/401/20/
046940/20130221/93018/2310/1461/10/
046940/20130221/93018/2310/202/10/
046940/20130221/93019/2310/859/10/
046940/20130221/93021/2310/302/10/
046940/20130221/93022/2310/2055/10/
046940/20130221/93022/2305/3490/10/
046940/20130221/93027/2315/572/20/
046940/20130221/93030/2310/111/10/
046940/20130221/93032/2310/278/20/
046940/20130221/93033/2310/504/20/
046940/20130221/93034/2310/452/20/
046940/20130221/93035/2310/2663/20/
046940/20130221/93036/2315/4411/20/
046940/20130221/93039/2320/2292/20/
046940/20130221/93040/2325/159/20/
046940/20130221/93040/2320/204/10/
046940/20130221/93048/2325/539/10/
046940/20130221/93048/2320/3083/10/
046940/20130221/93053/2320/1429/20/
046940/20130221/93055/2325/1000/20/
046940/20130221/93057/2325/1006/10/
046940/20130221/93100/2335/654/20/
046940/20130221/93102/2335/187/20/
046940/20130221/93103/2335/142/20/
046940/20130221/93106/2335/1010/20/
046940/20130221/93107/2330/272/10/
046940/20130221/93107/2330/232/10/
046940/20130221/93110/2325/669/10/
046940/20130221/93111/2330/130/20/
046940/20130221/93111/2330/130/20/
046940/20130221/93111/2330/82/20/
046940/20130221/93115/2325/1241/10/
046940/20130221/93118/2325/100/10/
046940/20130221/93119/2330/210/20/
046940/20130221/93121/2330/2072/10/
046940/20130221/93122/2330/437/10/
046940/20130221/93122/2325/4188/10/
046940/20130221/93129/2325/375/20/
046940/20130221/93138/2330/150/20/
046940/20130221/93141/2330/340/20/
046940/20130221/93144/2335/2000/20/
046940/20130221/93144/2335/2000/20/
046940/20130221/93145/2335/1256/20/
046940/20130221/93152/2340/260/20/
046940/20130221/93159/2345/100/20/
046940/20130221/93206/2345/523/20/
046940/20130221/93206/2350/4637/20/
046940/20130221/93215/2350/1000/20/
046940/20130221/93217/2350/150/20/
046940/20130221/93219/2350/1030/20/
046940/20130221/93219/2350/85/20/
046940/20130221/93219/2350/777/20/
046940/20130221/93219/2355/197/20/
046940/20130221/93219/2360/1320/20/
046940/20130221/93220/2350/1516/10/
046940/20130221/93220/2345/688/10/
046940/20130221/93225/2345/2014/20/
046940/20130221/93226/2345/358/20/
046940/20130221/93226/2345/424/20/
046940/20130221/93230/2350/127/20/
046940/20130221/93231/2350/100/20/
046940/20130221/93231/2350/111/20/
046940/20130221/93233/2350/127/20/
046940/20130221/93234/2350/430/20/
046940/20130221/93234/2350/600/20/
046940/20130221/93235/2345/1288/10/
046940/20130221/93236/2345/221/20/
046940/20130221/93236/2350/282/20/
046940/20130221/93238/2345/662/10/
046940/20130221/93239/2350/81/20/
046940/20130221/93242/2350/85/20/
046940/20130221/93243/2350/1000/20/
046940/20130221/93243/2350/1000/20/
046940/20130221/93244/2350/500/20/
046940/20130221/93245/2350/82/20/
046940/20130221/93253/2350/662/10/
046940/20130221/93254/2350/904/20/
046940/20130221/93255/2350/425/10/
046940/20130221/93258/2350/3015/10/
046940/20130221/93259/2350/3000/10/
046940/20130221/93259/2350/1391/10/
046940/20130221/93259/2350/272/20/
046940/20130221/93259/2355/2158/20/
046940/20130221/93300/2355/100/20/
046940/20130221/93304/2345/495/10/
046940/20130221/93307/2350/103/20/
046940/20130221/93309/2350/1800/20/
046940/20130221/93312/2350/230/20/
046940/20130221/93318/2355/211/20/
046940/20130221/93324/2350/361/10/
046940/20130221/93326/2345/6792/10/
046940/20130221/93326/2340/3597/10/
046940/20130221/93326/2335/555/10/
046940/20130221/93329/2350/201/20/
046940/20130221/93330/2350/500/20/
046940/20130221/93330/2345/500/10/
046940/20130221/93335/2345/201/10/
046940/20130221/93345/2345/591/20/
046940/20130221/93348/2345/1964/20/
046940/20130221/93401/2350/121/20/
046940/20130221/93407/2345/200/10/
046940/20130221/93409/2345/3301/10/
046940/20130221/93419/2340/300/10/
046940/20130221/93433/2340/1165/10/
046940/20130221/93455/2345/232/20/
046940/20130221/93500/2345/155/20/
046940/20130221/93506/2345/1322/20/
046940/20130221/93520/2350/357/20/
046940/20130221/93525/2345/5144/10/
046940/20130221/93538/2345/447/20/
046940/20130221/93554/2345/371/10/
046940/20130221/93605/2350/657/20/
046940/20130221/93613/2345/2965/10/
046940/20130221/93656/2345/136/10/
046940/20130221/93703/2345/1000/10/
046940/20130221/93740/2350/1550/20/
046940/20130221/93758/2345/400/10/
046940/20130221/93800/2350/1000/20/
046940/20130221/93807/2350/300/20/
046940/20130221/93808/2350/189/20/
046940/20130221/93822/2350/100/20/
046940/20130221/93848/2350/1050/20/
046940/20130221/93850/2350/1200/20/
046940/20130221/93915/2345/245/10/
046940/20130221/93930/2350/384/20/
046940/20130221/93948/2355/101/20/
046940/20130221/94007/2355/636/20/
046940/20130221/94027/2355/100/20/
046940/20130221/94036/2355/1500/20/
046940/20130221/94048/2355/500/20/
046940/20130221/94049/2355/100/20/
046940/20130221/94051/2355/100/20/
046940/20130221/94107/2350/529/10/
046940/20130221/94109/2355/974/20/
046940/20130221/94130/2360/928/20/
046940/20130221/94133/2360/3267/20/
046940/20130221/94138/2360/100/10/
046940/20130221/94140/2365/100/20/
046940/20130221/94142/2360/1866/10/
046940/20130221/94146/2360/100/20/
046940/20130221/94201/2355/760/10/
046940/20130221/94201/2350/1332/10/
046940/20130221/94201/2345/1408/10/
046940/20130221/94202/2355/100/20/
046940/20130221/94211/2355/291/10/
046940/20130221/94230/2355/124/20/
046940/20130221/94240/2355/1410/10/
046940/20130221/94240/2350/549/10/
046940/20130221/94310/2360/814/20/
046940/20130221/94315/2360/635/20/
046940/20130221/94326/2360/343/20/
046940/20130221/94334/2360/668/20/
046940/20130221/94335/2360/610/10/
046940/20130221/94348/2360/3390/20/
046940/20130221/94408/2365/172/20/
046940/20130221/94423/2360/5004/10/
046940/20130221/94424/2360/1218/10/
046940/20130221/94424/2360/300/10/
046940/20130221/94428/2360/193/10/
046940/20130221/94434/2360/919/20/
046940/20130221/94437/2360/1082/10/
046940/20130221/94441/2360/984/20/
046940/20130221/94504/2360/1027/10/
046940/20130221/94509/2360/1323/20/
046940/20130221/94526/2360/223/10/
046940/20130221/94529/2360/101/10/
046940/20130221/94533/2360/122/10/
046940/20130221/94535/2360/101/10/
046940/20130221/94603/2365/219/20/
046940/20130221/94609/2365/1921/20/
046940/20130221/94612/2365/100/10/
046940/20130221/94626/2365/2050/10/
046940/20130221/94633/2365/101/10/
046940/20130221/94650/2365/154/10/
046940/20130221/94657/2365/1061/10/
046940/20130221/94702/2365/200/10/
046940/20130221/94702/2365/164/10/
046940/20130221/94703/2365/100/20/
046940/20130221/94723/2365/423/20/
046940/20130221/94735/2365/251/10/
046940/20130221/94813/2370/167/20/
046940/20130221/94849/2365/511/10/
046940/20130221/94917/2365/130/10/
046940/20130221/94928/2365/300/10/
046940/20130221/94929/2365/1500/10/
046940/20130221/94949/2365/1000/20/
046940/20130221/94952/2365/100/20/
046940/20130221/95008/2355/1010/10/
046940/20130221/95116/2360/1001/10/
046940/20130221/95238/2360/710/10/
046940/20130221/95251/2360/800/10/
046940/20130221/95253/2365/689/20/
046940/20130221/95301/2360/700/10/
046940/20130221/95317/2360/336/10/
046940/20130221/95318/2360/300/20/
046940/20130221/95323/2360/270/20/
046940/20130221/95338/2360/195/20/
046940/20130221/95352/2360/4806/10/
046940/20130221/95438/2360/520/20/
046940/20130221/95449/2355/177/10/
046940/20130221/95453/2355/123/20/
046940/20130221/95511/2355/88/10/
046940/20130221/95511/2350/4932/10/
046940/20130221/95517/2350/2151/10/
046940/20130221/95517/2350/300/10/
046940/20130221/95521/2350/100/10/
046940/20130221/95522/2350/300/10/
046940/20130221/95526/2350/128/10/
046940/20130221/95528/2350/300/10/
046940/20130221/95540/2350/100/10/
046940/20130221/95601/2355/400/20/
046940/20130221/95603/2355/230/10/
046940/20130221/95605/2355/100/10/
046940/20130221/95607/2355/330/10/
046940/20130221/95607/2350/1000/10/
046940/20130221/95617/2350/181/20/
046940/20130221/95619/2350/127/20/
046940/20130221/95623/2350/100/10/
046940/20130221/95654/2350/101/10/
046940/20130221/95722/2350/232/10/
046940/20130221/95722/2345/914/10/
046940/20130221/95728/2350/100/20/
046940/20130221/95751/2350/1908/10/
046940/20130221/95811/2345/501/10/
046940/20130221/95842/2345/101/10/
046940/20130221/95928/2345/100/10/
046940/20130221/95940/2345/1513/10/
046940/20130221/95944/2345/653/10/
046940/20130221/95944/2340/3957/10/
046940/20130221/100007/2340/346/10/
046940/20130221/100014/2340/105/20/
046940/20130221/100018/2340/100/20/
046940/20130221/100022/2340/150/20/
046940/20130221/100032/2335/100/10/
046940/20130221/100039/2335/250/10/
046940/20130221/100046/2340/550/20/
046940/20130221/100114/2340/100/10/
046940/20130221/100132/2340/3000/10/
046940/20130221/100134/2340/87/20/
046940/20130221/100208/2340/120/20/
046940/20130221/100210/2340/100/20/
046940/20130221/100211/2340/100/20/
046940/20130221/100212/2340/312/20/
046940/20130221/100233/2340/100/10/
046940/20130221/100239/2340/688/10/
046940/20130221/100315/2345/154/20/
046940/20130221/100358/2345/303/20/
046940/20130221/100408/2345/150/20/
046940/20130221/100410/2345/195/20/
046940/20130221/100410/2345/227/20/
046940/20130221/100448/2345/300/10/
046940/20130221/100525/2350/293/20/
046940/20130221/100618/2350/1032/20/
046940/20130221/100622/2350/1023/20/
046940/20130221/100623/2350/800/20/
046940/20130221/100629/2350/188/20/
046940/20130221/100657/2350/211/10/
046940/20130221/100824/2350/477/10/
046940/20130221/100827/2355/500/20/
046940/20130221/100837/2350/1051/10/
046940/20130221/100840/2350/100/10/
046940/20130221/100853/2350/1059/10/
046940/20130221/100900/2350/100/20/
046940/20130221/100925/2345/2825/10/
046940/20130221/100934/2345/908/10/
046940/20130221/101002/2345/700/10/
046940/20130221/101059/2345/500/10/
046940/20130221/101110/2345/712/10/
046940/20130221/101140/2345/195/10/
046940/20130221/101149/2345/1100/10/
046940/20130221/101157/2345/1422/10/
046940/20130221/101212/2345/200/20/
046940/20130221/101226/2345/100/20/
046940/20130221/101232/2345/100/20/
046940/20130221/101240/2340/7912/10/
046940/20130221/101251/2340/88/20/
046940/20130221/101403/2340/592/10/
046940/20130221/101404/2340/100/20/
046940/20130221/101408/2335/800/10/
046940/20130221/101409/2340/100/20/
046940/20130221/101412/2335/468/10/
046940/20130221/101415/2335/100/10/
046940/20130221/101419/2335/1626/10/
046940/20130221/101428/2335/188/20/
046940/20130221/101441/2335/500/10/
046940/20130221/101519/2335/200/10/
046940/20130221/101550/2335/440/10/
046940/20130221/101550/2330/1060/10/
046940/20130221/101610/2330/1255/10/
046940/20130221/101619/2330/2319/10/
046940/20130221/101619/2325/1785/10/
046940/20130221/101652/2325/101/10/
046940/20130221/101712/2325/5001/10/
046940/20130221/101810/2330/102/20/
046940/20130221/101820/2325/1397/10/
046940/20130221/101824/2325/1507/10/
046940/20130221/101841/2330/100/20/
046940/20130221/101911/2330/237/20/
046940/20130221/102020/2330/320/10/
046940/20130221/102256/2345/501/20/
046940/20130221/102305/2345/500/20/
046940/20130221/102311/2345/500/20/
046940/20130221/102317/2345/500/20/
046940/20130221/102324/2345/399/20/
046940/20130221/102339/2345/1101/10/
046940/20130221/102341/2345/327/20/
046940/20130221/102405/2345/496/10/
046940/20130221/102508/2350/1013/20/
046940/20130221/102545/2350/450/20/
046940/20130221/102620/2350/1000/20/
046940/20130221/102703/2350/345/20/
046940/20130221/102754/2355/163/20/
046940/20130221/102804/2350/1023/10/
046940/20130221/102807/2350/157/10/
046940/20130221/102829/2350/1143/20/
046940/20130221/102829/2355/857/20/
046940/20130221/102832/2345/500/10/
046940/20130221/102948/2345/401/10/
046940/20130221/103019/2345/347/10/
046940/20130221/103106/2345/100/20/
046940/20130221/103222/2340/2233/10/
046940/20130221/103222/2335/693/10/
046940/20130221/103235/2335/90/10/
046940/20130221/103450/2340/396/20/
046940/20130221/103530/2340/604/20/
046940/20130221/103600/2340/1639/10/
046940/20130221/103600/2335/5361/10/
046940/20130221/103718/2345/2207/20/
046940/20130221/103926/2345/561/10/
046940/20130221/103952/2345/721/10/
046940/20130221/104016/2345/844/10/
046940/20130221/104024/2345/151/10/
046940/20130221/104131/2345/880/10/
046940/20130221/104442/2350/101/20/
046940/20130221/104445/2350/390/20/
046940/20130221/104459/2350/1000/20/
046940/20130221/104656/2350/512/20/
046940/20130221/104759/2350/2030/20/
046940/20130221/104810/2350/300/20/
046940/20130221/104829/2350/110/20/
046940/20130221/104848/2350/100/20/
046940/20130221/104916/2350/100/20/
046940/20130221/105029/2345/1679/10/
046940/20130221/105057/2345/130/20/
046940/20130221/105114/2340/2750/10/
046940/20130221/105208/2340/89/10/
046940/20130221/105246/2340/1418/10/
046940/20130221/105324/2340/200/10/
046940/20130221/105451/2335/1056/10/
046940/20130221/105722/2335/509/10/
046940/20130221/105730/2340/2198/20/
046940/20130221/105758/2340/690/10/
046940/20130221/105918/2345/156/20/
046940/20130221/110001/2345/1000/20/
046940/20130221/110241/2350/3637/20/
046940/20130221/110322/2355/691/20/
046940/20130221/110325/2355/463/20/
046940/20130221/110336/2355/120/20/
046940/20130221/110407/2355/2000/20/
046940/20130221/110424/2355/300/20/
046940/20130221/110615/2355/82/20/
046940/20130221/110623/2355/433/20/
046940/20130221/110648/2355/500/20/
046940/20130221/110739/2350/750/10/
046940/20130221/111009/2355/689/20/
046940/20130221/111015/2355/206/20/
046940/20130221/111043/2355/124/20/
046940/20130221/111118/2360/9665/20/
046940/20130221/111207/2365/3214/20/
046940/20130221/111207/2370/1683/20/
046940/20130221/111215/2370/425/10/
046940/20130221/111220/2370/215/10/
046940/20130221/111311/2370/479/10/
046940/20130221/111320/2370/379/20/
046940/20130221/111322/2370/121/10/
046940/20130221/111343/2370/100/20/
046940/20130221/111443/2370/439/20/
046940/20130221/111504/2370/101/10/
046940/20130221/111513/2370/313/10/
046940/20130221/111606/2370/352/20/
046940/20130221/111700/2370/289/20/
046940/20130221/111759/2365/1591/10/
046940/20130221/111803/2365/150/10/
046940/20130221/111808/2360/100/10/
046940/20130221/111930/2370/965/20/
046940/20130221/111954/2370/673/20/
046940/20130221/111954/2375/1328/20/
046940/20130221/112302/2370/527/20/
046940/20130221/112307/2370/800/10/
046940/20130221/112315/2370/2972/10/
046940/20130221/112640/2360/159/10/
046940/20130221/112706/2360/678/10/
046940/20130221/112925/2370/2048/20/
046940/20130221/112938/2370/100/10/
046940/20130221/113022/2370/150/10/
046940/20130221/113037/2370/100/10/
046940/20130221/113130/2375/1044/20/
046940/20130221/113130/2370/117/10/
046940/20130221/113219/2375/329/20/
046940/20130221/113219/2380/1671/20/
046940/20130221/113302/2380/98/20/
046940/20130221/113313/2380/781/20/
046940/20130221/113313/2385/3219/20/
046940/20130221/113404/2380/100/20/
046940/20130221/113433/2380/103/20/
046940/20130221/113446/2385/300/20/
046940/20130221/113540/2380/100/20/
046940/20130221/113651/2385/500/20/
046940/20130221/113743/2385/550/20/
046940/20130221/113830/2385/384/20/
046940/20130221/113900/2385/655/10/
046940/20130221/113911/2385/163/10/
046940/20130221/113930/2385/110/20/
046940/20130221/113948/2385/1020/20/
046940/20130221/114034/2380/188/10/
046940/20130221/114039/2380/300/20/
046940/20130221/114045/2380/2405/20/
046940/20130221/114055/2385/629/20/
046940/20130221/114055/2390/2240/20/
046940/20130221/114059/2390/497/20/
046940/20130221/114103/2390/137/20/
046940/20130221/114135/2390/1556/20/
046940/20130221/114152/2390/670/10/
046940/20130221/114152/2385/94/10/
046940/20130221/114228/2385/679/10/
046940/20130221/114306/2385/2004/10/
046940/20130221/114309/2385/156/10/
046940/20130221/114309/2385/169/20/
046940/20130221/114410/2385/500/20/
046940/20130221/114434/2380/200/10/
046940/20130221/114440/2380/160/10/
046940/20130221/114448/2380/209/10/
046940/20130221/114500/2380/150/10/
046940/20130221/114502/2380/263/10/
046940/20130221/114526/2380/88/10/
046940/20130221/114546/2380/1000/20/
046940/20130221/114548/2375/410/10/
046940/20130221/114548/2370/1218/10/
046940/20130221/114548/2365/573/10/
046940/20130221/114548/2360/1202/10/
046940/20130221/114620/2380/400/20/
046940/20130221/114620/2385/601/20/
046940/20130221/114644/2385/250/20/
046940/20130221/114855/2375/993/20/
046940/20130221/114858/2380/3575/20/
046940/20130221/114924/2385/1000/20/
046940/20130221/114929/2385/300/20/
046940/20130221/114934/2385/800/20/
046940/20130221/114951/2385/408/20/
046940/20130221/114951/2385/290/20/
046940/20130221/115029/2385/100/10/
046940/20130221/115144/2385/690/10/
046940/20130221/115218/2385/200/10/
046940/20130221/115333/2385/505/10/
046940/20130221/115351/2385/393/10/
046940/20130221/115434/2385/448/20/
046940/20130221/115911/2380/466/10/
046940/20130221/115956/2380/200/10/
046940/20130221/120025/2380/7300/10/
046940/20130221/120028/2380/727/10/
046940/20130221/120052/2380/104/20/
046940/20130221/120205/2380/169/20/
046940/20130221/120240/2380/131/20/
046940/20130221/120252/2380/570/20/
046940/20130221/120319/2380/263/20/
046940/20130221/120437/2380/117/20/
046940/20130221/120525/2380/384/20/
046940/20130221/120538/2380/456/10/
046940/20130221/120636/2380/2500/20/
046940/20130221/120840/2385/1844/20/
046940/20130221/120856/2385/100/20/
046940/20130221/121110/2385/1300/20/
046940/20130221/121118/2385/100/20/
046940/20130221/121549/2375/898/10/
046940/20130221/121602/2375/152/20/
046940/20130221/121841/2385/153/20/
046940/20130221/121841/2390/3616/20/
046940/20130221/122022/2395/89/20/
046940/20130221/122410/2390/107/20/
046940/20130221/122458/2390/1000/20/
046940/20130221/122510/2390/200/20/
046940/20130221/122529/2395/2000/20/
046940/20130221/122543/2395/808/20/
046940/20130221/122544/2390/100/10/
046940/20130221/122547/2390/95/20/
046940/20130221/122607/2395/474/20/
046940/20130221/122607/2395/526/10/
046940/20130221/123037/2380/342/10/
046940/20130221/123402/2380/145/10/
046940/20130221/123402/2375/337/10/
046940/20130221/123402/2370/378/10/
046940/20130221/124258/2380/101/20/
046940/20130221/124309/2380/100/20/
046940/20130221/124504/2380/530/20/
046940/20130221/124523/2380/100/20/
046940/20130221/124710/2380/135/20/
046940/20130221/124815/2380/135/20/
046940/20130221/124815/2385/125/20/
046940/20130221/124917/2385/100/20/
046940/20130221/125002/2380/114/10/
046940/20130221/125112/2380/2786/10/
046940/20130221/125206/2380/1214/20/
046940/20130221/125209/2385/1074/20/
046940/20130221/125303/2385/938/20/
046940/20130221/125610/2375/1282/10/
046940/20130221/125610/2370/235/10/
046940/20130221/125900/2380/200/20/
046940/20130221/130117/2385/2284/10/
046940/20130221/130149/2385/1900/10/
046940/20130221/130351/2380/233/10/
046940/20130221/130351/2370/410/10/
046940/20130221/130351/2365/190/10/
046940/20130221/130732/2365/421/10/
046940/20130221/130735/2365/710/10/
046940/20130221/130735/2360/4809/10/
046940/20130221/130818/2370/200/10/
046940/20130221/130822/2360/450/10/
046940/20130221/130832/2360/500/10/
046940/20130221/130840/2360/1100/10/
046940/20130221/130841/2360/300/10/
046940/20130221/130857/2360/100/10/
046940/20130221/130921/2360/113/10/
046940/20130221/130923/2360/200/20/
046940/20130221/130957/2355/1000/10/
046940/20130221/131002/2360/3658/20/
046940/20130221/131029/2360/801/10/
046940/20130221/131046/2360/739/10/
046940/20130221/131151/2380/373/20/
046940/20130221/131648/2360/4075/10/
046940/20130221/131652/2360/205/10/
046940/20130221/131658/2360/200/10/
046940/20130221/131715/2360/384/10/
046940/20130221/131917/2365/2000/10/
046940/20130221/132057/2360/190/10/
046940/20130221/132123/2360/125/10/
046940/20130221/132123/2360/500/10/
046940/20130221/132126/2360/341/10/
046940/20130221/132130/2365/1409/20/
046940/20130221/132148/2365/914/20/
046940/20130221/132150/2365/252/20/
046940/20130221/132310/2365/148/10/
046940/20130221/132341/2360/3461/10/
046940/20130221/132419/2355/520/10/
046940/20130221/132456/2355/721/10/
046940/20130221/132524/2355/229/10/
046940/20130221/132549/2355/100/20/
046940/20130221/132640/2355/491/20/
046940/20130221/132710/2355/99/10/
046940/20130221/132710/2350/2901/10/
046940/20130221/132743/2350/780/10/
046940/20130221/132754/2350/152/10/
046940/20130221/132804/2360/498/20/
046940/20130221/132808/2360/3209/10/
046940/20130221/132831/2360/195/10/
046940/20130221/132838/2350/1804/10/
046940/20130221/132844/2350/432/20/
046940/20130221/132850/2350/200/10/
046940/20130221/132852/2350/343/10/
046940/20130221/132852/2345/2539/10/
046940/20130221/132852/2340/3118/10/
046940/20130221/132906/2345/140/10/
046940/20130221/132906/2340/2795/10/
046940/20130221/133023/2350/305/20/
046940/20130221/133049/2345/261/10/
046940/20130221/133049/2340/223/10/
046940/20130221/133247/2350/300/20/
046940/20130221/133352/2350/301/10/
046940/20130221/133352/2350/409/10/
046940/20130221/133543/2350/100/20/
046940/20130221/133552/2350/100/20/
046940/20130221/133553/2355/311/20/
046940/20130221/133655/2360/92/20/
046940/20130221/133702/2360/1412/20/
046940/20130221/133704/2360/341/20/
046940/20130221/133751/2355/500/10/
046940/20130221/133751/2345/857/10/
046940/20130221/133751/2340/2062/10/
046940/20130221/133751/2335/2478/10/
046940/20130221/133930/2345/95/20/
046940/20130221/133939/2345/159/20/
046940/20130221/134238/2350/459/20/
046940/20130221/134304/2350/81/20/
046940/20130221/134326/2355/920/20/
046940/20130221/134415/2355/270/20/
046940/20130221/134636/2350/203/10/
046940/20130221/134636/2345/1139/10/
046940/20130221/134636/2340/958/10/
046940/20130221/134640/2335/816/10/
046940/20130221/134756/2340/111/10/
046940/20130221/135019/2350/309/10/
046940/20130221/135209/2355/126/20/
046940/20130221/135306/2350/1328/10/
046940/20130221/135306/2345/2587/10/
046940/20130221/135306/2340/2060/10/
046940/20130221/135306/2335/3411/10/
046940/20130221/135306/2330/614/10/
046940/20130221/135431/2335/1060/10/
046940/20130221/135508/2335/536/10/
046940/20130221/135541/2340/92/20/
046940/20130221/135615/2340/130/20/
046940/20130221/135708/2345/380/20/
046940/20130221/135708/2350/1120/20/
046940/20130221/135708/2355/337/20/
046940/20130221/135708/2360/2054/20/
046940/20130221/135708/2365/454/20/
046940/20130221/135708/2370/610/20/
046940/20130221/135708/2375/125/20/
046940/20130221/135818/2370/100/20/
046940/20130221/140001/2355/680/10/
046940/20130221/140001/2345/400/10/
046940/20130221/140018/2340/500/10/
046940/20130221/140036/2360/200/20/
046940/20130221/140040/2360/205/20/
046940/20130221/140041/2360/95/10/
046940/20130221/140356/2360/500/10/
046940/20130221/140424/2360/500/20/
046940/20130221/140441/2350/300/10/
046940/20130221/140449/2350/700/10/
046940/20130221/140454/2345/2454/10/
046940/20130221/140454/2340/1046/10/
046940/20130221/140500/2350/1500/20/
046940/20130221/140631/2350/300/20/
046940/20130221/140634/2350/343/20/
046940/20130221/140656/2350/357/10/
046940/20130221/140801/2345/1000/10/
046940/20130221/140801/2340/4000/10/
046940/20130221/140805/2340/159/10/
046940/20130221/141006/2345/102/10/
046940/20130221/141120/2355/451/20/
046940/20130221/141219/2345/1019/10/
046940/20130221/141219/2340/2331/10/
046940/20130221/141219/2335/1650/10/
046940/20130221/141240/2335/4343/10/
046940/20130221/141240/2330/7053/10/
046940/20130221/141240/2325/2641/10/
046940/20130221/141240/2320/5923/10/
046940/20130221/141245/2320/2190/10/
046940/20130221/141245/2315/1850/10/
046940/20130221/141245/2315/341/10/
046940/20130221/141435/2335/146/10/
046940/20130221/141445/2335/85/20/
046940/20130221/141525/2340/645/20/
046940/20130221/141531/2335/100/10/
046940/20130221/141553/2335/100/20/
046940/20130221/141620/2335/100/20/
046940/20130221/141634/2335/120/10/
046940/20130221/141641/2335/200/20/
046940/20130221/141730/2335/910/10/
046940/20130221/141803/2330/271/10/
046940/20130221/141809/2335/100/10/
046940/20130221/141816/2330/1780/10/
046940/20130221/141821/2325/2900/10/
046940/20130221/141835/2325/370/10/
046940/20130221/141835/2320/430/10/
046940/20130221/141842/2325/200/10/
046940/20130221/141843/2325/580/10/
046940/20130221/141847/2325/129/10/
046940/20130221/141906/2325/316/20/
046940/20130221/141918/2325/247/10/
046940/20130221/141920/2325/100/20/
046940/20130221/141931/2325/173/20/
046940/20130221/141953/2330/1040/20/
046940/20130221/142011/2330/100/20/
046940/20130221/142013/2330/736/20/
046940/20130221/142104/2330/645/20/
046940/20130221/142152/2335/199/20/
046940/20130221/142336/2330/486/10/
046940/20130221/142400/2330/90/20/
046940/20130221/142408/2330/206/20/
046940/20130221/142416/2330/1500/20/
046940/20130221/142445/2330/759/20/
046940/20130221/142457/2325/2000/10/
046940/20130221/142504/2325/762/10/
046940/20130221/142504/2320/721/10/
046940/20130221/142505/2330/260/20/
046940/20130221/142702/2325/358/10/
046940/20130221/142705/2325/1601/10/
046940/20130221/142726/2330/107/20/
046940/20130221/142728/2330/100/20/
046940/20130221/142752/2330/293/20/
046940/20130221/142829/2330/1409/10/
046940/20130221/142847/2325/2767/10/
046940/20130221/142847/2320/5102/10/
046940/20130221/142847/2315/8121/10/
046940/20130221/142847/2310/10543/10/
046940/20130221/142902/2315/100/10/
046940/20130221/142902/2310/900/10/
046940/20130221/142906/2310/837/10/
046940/20130221/142908/2310/650/10/
046940/20130221/142910/2310/89/10/
046940/20130221/142910/2305/9911/10/
046940/20130221/142947/2310/101/10/
046940/20130221/143010/2310/172/20/
046940/20130221/143011/2310/519/20/
046940/20130221/143014/2305/1200/10/
046940/20130221/143017/2305/1000/10/
046940/20130221/143031/2305/1785/10/
046940/20130221/143031/2300/3365/10/
046940/20130221/143037/2300/2200/10/
046940/20130221/143038/2300/5010/10/
046940/20130221/143045/2300/1260/10/
046940/20130221/143054/2295/4366/10/
046940/20130221/143057/2295/225/20/
046940/20130221/143057/2290/1979/10/
046940/20130221/143101/2295/100/20/
046940/20130221/143102/2290/3892/10/
046940/20130221/143110/2295/550/20/
046940/20130221/143111/2295/1000/20/
046940/20130221/143115/2295/106/20/
046940/20130221/143116/2290/341/10/
046940/20130221/143128/2295/550/20/
046940/20130221/143130/2290/4000/10/
046940/20130221/143132/2295/286/10/
046940/20130221/143141/2295/719/10/
046940/20130221/143144/2290/2500/10/
046940/20130221/143152/2290/1268/10/
046940/20130221/143200/2290/134/10/
046940/20130221/143215/2290/1110/10/
046940/20130221/143221/2290/500/20/
046940/20130221/143224/2290/4356/20/
046940/20130221/143224/2295/1644/20/
046940/20130221/143226/2285/1600/10/
046940/20130221/143228/2285/1373/10/
046940/20130221/143228/2280/1527/10/
046940/20130221/143229/2280/215/10/
046940/20130221/143233/2280/2000/10/
046940/20130221/143240/2280/3171/10/
046940/20130221/143242/2280/400/10/
046940/20130221/143243/2280/10000/10/
046940/20130221/143244/2280/4259/10/
046940/20130221/143244/2280/11326/10/
046940/20130221/143246/2280/448/10/
046940/20130221/143250/2280/964/20/
046940/20130221/143252/2275/100/10/
046940/20130221/143253/2275/1043/10/
046940/20130221/143253/2275/570/10/
046940/20130221/143253/2275/172/10/
046940/20130221/143253/2275/1215/10/
046940/20130221/143258/2275/421/10/
046940/20130221/143258/2270/708/10/
046940/20130221/143303/2270/1004/10/
046940/20130221/143311/2275/1000/10/
046940/20130221/143312/2275/375/10/
046940/20130221/143312/2270/5796/10/
046940/20130221/143313/2270/100/20/
046940/20130221/143317/2270/643/20/
046940/20130221/143317/2270/100/20/
046940/20130221/143325/2270/125/20/
046940/20130221/143327/2270/550/20/
046940/20130221/143328/2270/489/20/
046940/20130221/143329/2265/378/10/
046940/20130221/143331/2265/122/20/
046940/20130221/143331/2270/759/20/
046940/20130221/143333/2270/1444/20/
046940/20130221/143334/2270/684/10/
046940/20130221/143335/2270/800/10/
046940/20130221/143338/2270/122/10/
046940/20130221/143339/2270/378/20/
046940/20130221/143350/2270/250/10/
046940/20130221/143357/2280/987/20/
046940/20130221/143408/2280/604/10/
046940/20130221/143408/2275/138/10/
046940/20130221/143409/2275/881/20/
046940/20130221/143412/2275/2192/20/
046940/20130221/143415/2275/344/20/
046940/20130221/143421/2290/200/20/
046940/20130221/143429/2290/175/10/
046940/20130221/143449/2295/255/20/
046940/20130221/143452/2295/100/20/
046940/20130221/143453/2295/150/20/
046940/20130221/143456/2290/600/10/
046940/20130221/143504/2290/1676/10/
046940/20130221/143510/2275/1186/10/
046940/20130221/143510/2270/814/10/
046940/20130221/143532/2270/1000/10/
046940/20130221/143537/2270/318/10/
046940/20130221/143557/2275/2000/10/
046940/20130221/143609/2270/1020/10/
046940/20130221/143619/2275/100/10/
046940/20130221/143619/2270/1459/10/
046940/20130221/143619/2270/447/20/
046940/20130221/143649/2285/189/20/
046940/20130221/143655/2280/100/20/
046940/20130221/143655/2285/900/20/
046940/20130221/143659/2270/2000/10/
046940/20130221/143744/2270/300/10/
046940/20130221/143750/2270/2000/10/
046940/20130221/143827/2270/324/10/
046940/20130221/143839/2270/500/10/
046940/20130221/144005/2285/580/20/
046940/20130221/144011/2285/300/20/
046940/20130221/144012/2285/908/20/
046940/20130221/144015/2285/120/20/
046940/20130221/144026/2285/242/20/
046940/20130221/144028/2285/164/20/
046940/20130221/144032/2285/158/10/
046940/20130221/144032/2280/100/10/
046940/20130221/144032/2275/164/10/
046940/20130221/144107/2275/4776/10/
046940/20130221/144120/2275/100/20/
046940/20130221/144122/2275/100/20/
046940/20130221/144126/2270/2100/10/
046940/20130221/144128/2275/1000/20/
046940/20130221/144133/2270/984/10/
046940/20130221/144133/2265/816/10/
046940/20130221/144133/2260/6763/10/
046940/20130221/144133/2255/1743/10/
046940/20130221/144145/2255/3215/10/
046940/20130221/144146/2255/1658/20/
046940/20130221/144151/2255/112/20/
046940/20130221/144153/2255/125/20/
046940/20130221/144201/2250/813/10/
046940/20130221/144201/2250/2082/10/
046940/20130221/144211/2250/600/10/
046940/20130221/144212/2250/2646/10/
046940/20130221/144216/2245/500/10/
046940/20130221/144220/2240/2575/10/
046940/20130221/144226/2240/705/20/
046940/20130221/144226/2235/1000/10/
046940/20130221/144227/2240/500/20/
046940/20130221/144229/2240/369/20/
046940/20130221/144229/2240/451/20/
046940/20130221/144229/2240/2000/20/
046940/20130221/144232/2240/954/10/
046940/20130221/144246/2250/506/10/
046940/20130221/144246/2240/84/10/
046940/20130221/144246/2235/151/10/
046940/20130221/144307/2245/154/10/
046940/20130221/144307/2240/1747/10/
046940/20130221/144307/2235/421/10/
046940/20130221/144327/2240/139/10/
046940/20130221/144332/2235/602/10/
046940/20130221/144333/2240/200/20/
046940/20130221/144339/2240/303/20/
046940/20130221/144341/2240/501/20/
046940/20130221/144342/2240/100/20/
046940/20130221/144343/2235/640/10/
046940/20130221/144343/2235/119/10/
046940/20130221/144350/2240/279/20/
046940/20130221/144355/2235/1002/10/
046940/20130221/144357/2240/100/20/
046940/20130221/144410/2235/216/10/
046940/20130221/144412/2235/100/20/
046940/20130221/144419/2230/2135/10/
046940/20130221/144423/2235/549/10/
046940/20130221/144432/2230/433/10/
046940/20130221/144436/2235/102/20/
046940/20130221/144441/2235/400/20/
046940/20130221/144446/2235/103/20/
046940/20130221/144449/2235/429/10/
046940/20130221/144450/2235/100/20/
046940/20130221/144453/2235/248/20/
046940/20130221/144502/2230/501/10/
046940/20130221/144502/2230/400/10/
046940/20130221/144503/2230/300/10/
046940/20130221/144504/2235/90/20/
046940/20130221/144504/2230/200/10/
046940/20130221/144505/2230/349/10/
046940/20130221/144522/2230/530/20/
046940/20130221/144524/2230/200/20/
046940/20130221/144525/2230/1500/20/
046940/20130221/144538/2230/92/10/
046940/20130221/144544/2225/2715/10/
046940/20130221/144546/2220/4276/10/
046940/20130221/144546/2220/103/20/
046940/20130221/144548/2220/447/10/
046940/20130221/144548/2215/305/10/
046940/20130221/144552/2215/600/10/
046940/20130221/144553/2215/480/10/
046940/20130221/144555/2160/1000/10/
046940/20130221/144555/2155/4677/10/
046940/20130221/144555/2150/2163/10/
046940/20130221/144556/2150/500/10/
046940/20130221/144556/2150/7227/10/
046940/20130221/144605/2150/17706/20/
046940/20130221/144605/2155/466/10/
046940/20130221/144605/2150/357/10/
046940/20130221/144606/2150/775/10/
046940/20130221/144607/2150/100/10/
046940/20130221/144609/2150/1500/10/
046940/20130221/144617/2155/323/10/
046940/20130221/144617/2150/1056/10/
046940/20130221/144619/2155/465/10/
046940/20130221/144622/2155/535/10/
046940/20130221/144622/2150/5295/10/
046940/20130221/144623/2150/1034/10/
046940/20130221/144624/2150/1466/20/
046940/20130221/144625/2155/466/20/
046940/20130221/144625/2155/604/10/
046940/20130221/144625/2150/396/10/
046940/20130221/144627/2150/626/10/
046940/20130221/144628/2150/110/20/
046940/20130221/144630/2150/2518/20/
046940/20130221/144631/2150/1000/20/
046940/20130221/144631/2150/1929/20/
046940/20130221/144631/2150/92/20/
046940/20130221/144632/2150/880/10/
046940/20130221/144632/2150/100/20/
046940/20130221/144633/2150/500/20/
046940/20130221/144633/2150/108/20/
046940/20130221/144634/2150/220/20/
046940/20130221/144636/2150/514/20/
046940/20130221/144637/2150/1020/20/
046940/20130221/144637/2150/110/20/
046940/20130221/144638/2150/1010/20/
046940/20130221/144639/2150/610/20/
046940/20130221/144640/2150/103/20/
046940/20130221/144641/2150/100/20/
046940/20130221/144641/2150/100/20/
046940/20130221/144641/2150/500/20/
046940/20130221/144641/2150/2081/20/
046940/20130221/144643/2150/839/10/
046940/20130221/144644/2150/200/10/
046940/20130221/144645/2150/200/10/
046940/20130221/144647/2155/1100/10/
046940/20130221/144647/2150/1098/10/
046940/20130221/144648/2150/2206/10/
046940/20130221/144650/2150/110/20/
046940/20130221/144651/2150/370/20/
046940/20130221/144655/2150/110/20/
046940/20130221/144700/2150/2070/20/
046940/20130221/144703/2150/3030/20/
046940/20130221/144704/2150/127/20/
046940/20130221/144705/2150/930/20/
046940/20130221/144707/2150/120/20/
046940/20130221/144707/2150/100/20/
046940/20130221/144708/2150/123/20/
046940/20130221/144709/2150/123/20/
046940/20130221/144709/2150/200/20/
046940/20130221/144711/2150/126/20/
046940/20130221/144712/2150/3000/20/
046940/20130221/144713/2150/100/20/
046940/20130221/144714/2150/100/20/
046940/20130221/144715/2150/341/20/
046940/20130221/144716/2150/2050/20/
046940/20130221/144716/2150/200/20/
046940/20130221/144716/2150/704/20/
046940/20130221/144717/2150/1617/20/
046940/20130221/144717/2150/500/20/
046940/20130221/144717/2150/300/20/
046940/20130221/144718/2150/465/20/
046940/20130221/144718/2150/400/20/
046940/20130221/144720/2150/100/20/
046940/20130221/144723/2150/3050/20/
046940/20130221/144724/2150/500/20/
046940/20130221/144725/2150/205/20/
046940/20130221/144725/2150/310/20/
046940/20130221/144726/2150/500/20/
046940/20130221/144726/2150/239/20/
046940/20130221/144728/2150/5051/20/
046940/20130221/144730/2150/450/20/
046940/20130221/144731/2150/166/20/
046940/20130221/144731/2150/100/20/
046940/20130221/144732/2150/657/20/
046940/20130221/144734/2150/500/20/
046940/20130221/144734/2150/200/20/
046940/20130221/144736/2150/110/20/
046940/20130221/144739/2150/1038/20/
046940/20130221/144739/2150/171/20/
046940/20130221/144740/2150/500/20/
046940/20130221/144740/2150/100/20/
046940/20130221/144742/2150/310/20/
046940/20130221/144748/2150/103/20/
046940/20130221/144751/2150/503/20/
046940/20130221/144751/2150/501/20/
046940/20130221/144751/2150/100/20/
046940/20130221/144752/2150/500/20/
046940/20130221/144756/2150/200/20/
046940/20130221/144756/2150/200/20/
046940/20130221/144800/2150/130/20/
046940/20130221/144801/2150/500/20/
046940/20130221/144802/2150/300/20/
046940/20130221/144805/2150/202/20/
046940/20130221/144807/2150/1000/20/
046940/20130221/144810/2150/1050/20/
046940/20130221/144811/2150/100/20/
046940/20130221/144812/2150/528/20/
046940/20130221/144814/2150/100/20/
046940/20130221/144815/2150/339/20/
046940/20130221/144822/2150/140/20/
046940/20130221/144824/2150/100/20/
046940/20130221/144826/2150/121/20/
046940/20130221/144829/2150/3002/20/
046940/20130221/144831/2150/3000/20/
046940/20130221/144831/2150/200/20/
046940/20130221/144832/2150/2000/20/
046940/20130221/144846/2150/1001/20/
046940/20130221/144847/2150/700/20/
046940/20130221/144853/2150/804/20/
046940/20130221/144858/2150/500/20/
046940/20130221/144902/2150/300/20/
046940/20130221/144902/2150/500/20/
046940/20130221/144902/2150/400/20/
046940/20130221/144902/2150/2171/20/
046940/20130221/144904/2150/500/20/
046940/20130221/144906/2150/500/20/
046940/20130221/144909/2150/8623/20/
046940/20130221/144912/2150/534/20/
046940/20130221/144919/2150/2000/20/
046940/20130221/144922/2150/20000/20/
046940/20130221/144923/2150/1357/20/
046940/20130221/144923/2150/100/20/
046940/20130221/144924/2150/1000/20/
046940/20130221/144924/2150/2000/20/
046940/20130221/144925/2150/1000/20/
046940/20130221/144925/2150/150/20/
046940/20130221/144925/2150/777/20/
046940/20130221/144925/2150/1406/20/
046940/20130221/144926/2150/2050/20/
046940/20130221/144928/2150/500/20/
046940/20130221/144930/2150/510/20/
046940/20130221/144932/2150/500/20/
046940/20130221/144932/2150/118/20/
046940/20130221/144932/2150/300/20/
046940/20130221/144933/2150/820/20/
046940/20130221/144935/2150/500/20/
046940/20130221/144935/2150/1000/20/
046940/20130221/144938/2150/501/20/
046940/20130221/144939/2150/3439/20/
046940/20130221/144939/2150/851/20/
046940/20130221/144943/2150/516/10/
046940/20130221/144952/2150/1000/10/
046940/20130221/144959/2150/200/10/
046940/20130221/150000/2150/8297/20/
