046940/20130403/90000/2200/1926/10/
046940/20130403/90142/2200/743/10/
046940/20130403/90156/2195/212/10/
046940/20130403/90653/2200/189/10/
046940/20130403/90653/2195/229/10/
046940/20130403/90704/2195/614/10/
046940/20130403/90818/2215/81/10/
046940/20130403/90828/2215/538/10/
046940/20130403/90846/2215/100/20/
046940/20130403/91239/2195/256/10/
046940/20130403/91511/2195/787/10/
046940/20130403/91654/2190/719/10/
046940/20130403/91946/2190/81/10/
046940/20130403/92010/2190/200/10/
046940/20130403/92047/2190/240/10/
046940/20130403/92159/2190/115/10/
046940/20130403/92211/2190/100/10/
046940/20130403/92513/2195/823/20/
046940/20130403/92535/2190/381/10/
046940/20130403/92541/2190/169/10/
046940/20130403/92543/2190/526/10/
046940/20130403/92630/2185/395/10/
046940/20130403/92743/2185/100/10/
046940/20130403/93006/2185/101/10/
046940/20130403/93042/2180/1034/10/
046940/20130403/93110/2185/603/20/
046940/20130403/93115/2185/1000/20/
046940/20130403/93128/2180/1316/10/
046940/20130403/93253/2180/864/10/
046940/20130403/93300/2180/400/20/
046940/20130403/93323/2180/100/10/
046940/20130403/93547/2195/240/20/
046940/20130403/93642/2195/748/20/
046940/20130403/93712/2215/313/20/
046940/20130403/93730/2220/700/20/
046940/20130403/93731/2220/583/10/
046940/20130403/93934/2225/247/20/
046940/20130403/94031/2225/212/20/
046940/20130403/94031/2225/188/10/
046940/20130403/94056/2225/150/20/
046940/20130403/94057/2225/150/10/
046940/20130403/94421/2225/226/20/
046940/20130403/94422/2225/475/10/
046940/20130403/94518/2225/220/20/
046940/20130403/94519/2225/83/10/
046940/20130403/94659/2225/100/20/
046940/20130403/94733/2225/100/20/
046940/20130403/94733/2225/300/10/
046940/20130403/94928/2205/1000/10/
046940/20130403/95117/2205/357/10/
046940/20130403/95257/2225/236/20/
046940/20130403/95258/2225/265/10/
046940/20130403/95450/2225/323/20/
046940/20130403/95450/2230/299/20/
046940/20130403/95450/2235/287/20/
046940/20130403/95450/2240/91/20/
046940/20130403/95701/2210/762/10/
046940/20130403/95701/2205/343/10/
046940/20130403/95811/2230/605/20/
046940/20130403/95811/2240/1395/20/
046940/20130403/100357/2225/137/10/
046940/20130403/100520/2225/100/20/
046940/20130403/100643/2225/100/20/
046940/20130403/100701/2210/750/10/
046940/20130403/100701/2205/324/10/
046940/20130403/100758/2205/143/10/
046940/20130403/100802/2200/1860/10/
046940/20130403/100802/2195/181/10/
046940/20130403/100912/2195/674/10/
046940/20130403/101213/2200/1000/10/
046940/20130403/101357/2200/200/20/
046940/20130403/101643/2200/300/20/
046940/20130403/101709/2200/500/20/
046940/20130403/101729/2200/500/20/
046940/20130403/102447/2195/1834/10/
046940/20130403/102511/2190/554/10/
046940/20130403/102511/2185/719/10/
046940/20130403/102514/2185/2071/10/
046940/20130403/102920/2180/2000/10/
046940/20130403/102920/2175/1120/10/
046940/20130403/102920/2170/1516/10/
046940/20130403/103155/2170/259/10/
046940/20130403/103232/2170/550/10/
046940/20130403/103232/2165/2450/10/
046940/20130403/103300/2165/142/10/
046940/20130403/103300/2165/2031/20/
046940/20130403/103305/2165/265/20/
046940/20130403/103520/2165/500/10/
046940/20130403/103646/2165/418/10/
046940/20130403/103646/2160/82/10/
046940/20130403/103857/2165/2000/10/
046940/20130403/103857/2160/1256/10/
046940/20130403/103857/2155/2550/10/
046940/20130403/103857/2150/1894/10/
046940/20130403/105235/2160/507/10/
046940/20130403/105304/2160/100/10/
046940/20130403/105317/2160/327/10/
046940/20130403/105616/2160/122/10/
046940/20130403/110425/2165/110/20/
046940/20130403/110458/2170/154/20/
046940/20130403/110534/2165/136/10/
046940/20130403/110534/2160/285/10/
046940/20130403/110534/2155/877/10/
046940/20130403/110534/2150/1748/10/
046940/20130403/110547/2150/457/10/
046940/20130403/110607/2150/422/20/
046940/20130403/110618/2150/200/20/
046940/20130403/110644/2150/203/20/
046940/20130403/110828/2150/184/20/
046940/20130403/110928/2150/100/20/
046940/20130403/110957/2150/423/20/
046940/20130403/111136/2150/413/10/
046940/20130403/111139/2150/85/10/
046940/20130403/111227/2145/138/10/
046940/20130403/111239/2145/300/10/
046940/20130403/111253/2145/300/10/
046940/20130403/112007/2150/381/20/
046940/20130403/112122/2145/803/10/
046940/20130403/112128/2140/3470/10/
046940/20130403/112132/2145/500/20/
046940/20130403/112139/2140/1002/10/
046940/20130403/112445/2140/617/10/
046940/20130403/112445/2135/411/10/
046940/20130403/112615/2135/1000/10/
046940/20130403/112732/2140/793/10/
046940/20130403/112732/2135/207/10/
046940/20130403/112927/2150/200/20/
046940/20130403/113540/2140/500/10/
046940/20130403/113600/2140/1500/10/
046940/20130403/113645/2135/403/10/
046940/20130403/113645/2130/1497/10/
046940/20130403/113730/2130/1107/10/
046940/20130403/113732/2130/200/20/
046940/20130403/113743/2130/117/20/
046940/20130403/113744/2130/178/20/
046940/20130403/113856/2130/750/10/
046940/20130403/113856/2125/2320/10/
046940/20130403/113856/2120/6930/10/
046940/20130403/113907/2120/2005/10/
046940/20130403/113916/2120/159/20/
046940/20130403/113926/2120/90/20/
046940/20130403/113927/2120/746/20/
046940/20130403/113953/2120/764/10/
046940/20130403/113958/2120/1236/20/
046940/20130403/114010/2120/190/10/
046940/20130403/114133/2120/599/20/
046940/20130403/114143/2120/211/20/
046940/20130403/114402/2120/100/10/
046940/20130403/114518/2120/600/10/
046940/20130403/114531/2120/400/20/
046940/20130403/114550/2120/1001/20/
046940/20130403/115019/2130/402/20/
046940/20130403/115128/2135/100/20/
046940/20130403/115238/2135/100/20/
046940/20130403/115343/2130/129/10/
046940/20130403/115926/2135/298/20/
046940/20130403/120012/2140/500/20/
046940/20130403/120045/2140/276/20/
046940/20130403/120357/2145/201/20/
046940/20130403/121017/2145/150/20/
046940/20130403/121224/2140/220/10/
046940/20130403/121444/2140/310/10/
046940/20130403/121715/2130/95/10/
046940/20130403/121715/2125/171/10/
046940/20130403/122221/2130/88/10/
046940/20130403/122253/2130/150/10/
046940/20130403/122436/2140/105/20/
046940/20130403/122454/2140/195/20/
046940/20130403/122754/2140/275/10/
046940/20130403/123030/2135/369/10/
046940/20130403/123743/2135/95/20/
046940/20130403/123806/2135/100/20/
046940/20130403/123846/2135/198/20/
046940/20130403/124204/2135/222/20/
046940/20130403/124548/2135/200/20/
046940/20130403/124704/2135/100/20/
046940/20130403/125019/2140/313/20/
046940/20130403/125706/2135/103/10/
046940/20130403/125706/2130/2035/10/
046940/20130403/125844/2125/1700/10/
046940/20130403/130505/2130/365/20/
046940/20130403/130517/2130/367/10/
046940/20130403/130559/2130/237/20/
046940/20130403/130605/2130/445/20/
046940/20130403/130718/2135/113/20/
046940/20130403/130743/2140/2577/20/
046940/20130403/131906/2145/560/20/
046940/20130403/132026/2145/300/20/
046940/20130403/132219/2150/213/20/
046940/20130403/132526/2150/300/10/
046940/20130403/132526/2150/1704/20/
046940/20130403/133129/2145/401/10/
046940/20130403/133207/2145/100/20/
046940/20130403/133207/2150/251/20/
046940/20130403/133217/2150/1178/20/
046940/20130403/134043/2155/279/20/
046940/20130403/135026/2155/91/20/
046940/20130403/135139/2160/201/20/
046940/20130403/135151/2160/99/20/
046940/20130403/135534/2165/117/20/
046940/20130403/135840/2165/83/20/
046940/20130403/135840/2170/700/20/
046940/20130403/135854/2170/1001/10/
046940/20130403/135900/2170/100/10/
046940/20130403/135910/2170/117/10/
046940/20130403/135954/2170/83/20/
046940/20130403/140053/2170/301/20/
046940/20130403/140053/2175/2016/20/
046940/20130403/140106/2175/600/10/
046940/20130403/140239/2175/429/10/
046940/20130403/140325/2170/100/20/
046940/20130403/140325/2175/333/20/
046940/20130403/140543/2165/300/10/
046940/20130403/140543/2160/400/10/
046940/20130403/140557/2160/1098/10/
046940/20130403/141037/2175/393/20/
046940/20130403/141101/2180/201/20/
046940/20130403/141305/2185/118/20/
046940/20130403/141314/2185/987/10/
046940/20130403/141314/2160/998/10/
046940/20130403/141452/2195/1021/20/
046940/20130403/142054/2195/864/20/
046940/20130403/142114/2210/812/20/
046940/20130403/142114/2220/200/20/
046940/20130403/142211/2220/405/20/
046940/20130403/142548/2220/1406/20/
046940/20130403/142559/2220/260/20/
046940/20130403/142559/2220/740/10/
046940/20130403/142728/2195/800/10/
046940/20130403/142728/2185/3011/10/
046940/20130403/142752/2185/170/20/
046940/20130403/142859/2185/224/10/
046940/20130403/143627/2185/1025/20/
046940/20130403/143641/2200/1000/10/
046940/20130403/143950/2200/600/10/
046940/20130403/144305/2180/819/10/
046940/20130403/144530/2200/1583/20/
046940/20130403/144540/2200/84/10/
046940/20130403/144550/2200/342/10/
046940/20130403/144601/2200/194/20/
046940/20130403/144627/2205/1002/20/
046940/20130403/144639/2205/82/20/
046940/20130403/144639/2210/918/20/
046940/20130403/144702/2200/905/10/
046940/20130403/144744/2200/1053/10/
046940/20130403/144753/2200/164/20/
046940/20130403/144753/2200/500/20/
046940/20130403/144825/2200/100/10/
046940/20130403/144921/2200/100/10/
046940/20130403/144935/2200/150/10/
046940/20130403/144954/2200/401/10/
046940/20130403/150000/2200/9780/20/
