046940/20121227/90000/1690/4476/10/
046940/20121227/90002/1690/575/10/
046940/20121227/90004/1690/425/20/
046940/20121227/90004/1695/179/20/
046940/20121227/90007/1695/500/20/
046940/20121227/90011/1695/999/20/
046940/20121227/90014/1695/501/10/
046940/20121227/90015/1690/130/20/
046940/20121227/90017/1690/1000/20/
046940/20121227/90026/1690/158/20/
046940/20121227/90028/1690/211/20/
046940/20121227/90033/1700/500/20/
046940/20121227/90036/1695/100/20/
046940/20121227/90037/1690/89/10/
046940/20121227/90040/1690/1551/20/
046940/20121227/90042/1690/360/20/
046940/20121227/90042/1700/1640/20/
046940/20121227/90055/1700/825/20/
046940/20121227/90101/1700/200/10/
046940/20121227/90104/1700/300/10/
046940/20121227/90110/1705/2007/20/
046940/20121227/90110/1710/993/20/
046940/20121227/90119/1705/3000/10/
046940/20121227/90126/1705/376/10/
046940/20121227/90127/1705/100/10/
046940/20121227/90131/1705/300/10/
046940/20121227/90134/1705/304/10/
046940/20121227/90135/1705/1000/10/
046940/20121227/90135/1705/471/10/
046940/20121227/90137/1705/100/20/
046940/20121227/90153/1700/100/10/
046940/20121227/90230/1690/1165/10/
046940/20121227/90244/1690/655/20/
046940/20121227/90303/1690/500/20/
046940/20121227/90308/1685/1000/10/
046940/20121227/90314/1685/801/10/
046940/20121227/90323/1685/130/20/
046940/20121227/90333/1685/200/20/
046940/20121227/90335/1685/895/20/
046940/20121227/90412/1700/494/20/
046940/20121227/90441/1705/862/20/
046940/20121227/90443/1700/106/10/
046940/20121227/90448/1700/84/20/
046940/20121227/90459/1700/109/20/
046940/20121227/90536/1700/500/20/
046940/20121227/90542/1700/301/20/
046940/20121227/90555/1700/300/10/
046940/20121227/90611/1700/3000/10/
046940/20121227/90611/1700/809/10/
046940/20121227/90712/1690/921/10/
046940/20121227/90733/1690/3138/10/
046940/20121227/90736/1690/2556/10/
046940/20121227/90835/1685/315/10/
046940/20121227/90853/1685/585/10/
046940/20121227/90900/1680/1000/10/
046940/20121227/91018/1680/1019/20/
046940/20121227/91028/1680/143/20/
046940/20121227/91052/1680/849/10/
046940/20121227/91052/1675/4151/10/
046940/20121227/91129/1675/959/10/
046940/20121227/91136/1675/2000/20/
046940/20121227/91200/1675/624/10/
046940/20121227/91200/1670/418/10/
046940/20121227/91219/1670/2100/10/
046940/20121227/91223/1670/100/10/
046940/20121227/91250/1670/1600/10/
046940/20121227/91320/1670/265/10/
046940/20121227/91327/1670/2000/10/
046940/20121227/91336/1665/301/10/
046940/20121227/91357/1670/846/10/
046940/20121227/91500/1670/146/20/
046940/20121227/91606/1670/1020/20/
046940/20121227/91607/1670/980/10/
046940/20121227/91737/1670/750/10/
046940/20121227/91832/1670/417/10/
046940/20121227/91843/1665/1192/10/
046940/20121227/91843/1660/658/10/
046940/20121227/91855/1660/865/10/
046940/20121227/92126/1680/1541/20/
046940/20121227/92126/1685/2961/20/
046940/20121227/92257/1670/303/10/
046940/20121227/92324/1670/2000/10/
046940/20121227/92439/1680/3054/20/
046940/20121227/92459/1680/207/10/
046940/20121227/92629/1670/502/10/
046940/20121227/92738/1670/100/10/
046940/20121227/92749/1670/1000/10/
046940/20121227/92749/1675/500/20/
046940/20121227/93007/1670/211/10/
046940/20121227/93046/1665/1002/10/
046940/20121227/93300/1665/1531/10/
046940/20121227/93326/1660/802/10/
046940/20121227/93348/1660/1000/10/
046940/20121227/93419/1660/646/10/
046940/20121227/93435/1660/115/10/
046940/20121227/93615/1665/300/20/
046940/20121227/93711/1665/302/20/
046940/20121227/93717/1665/200/20/
046940/20121227/93730/1665/117/20/
046940/20121227/93822/1670/700/20/
046940/20121227/93836/1670/153/20/
046940/20121227/94059/1670/113/20/
046940/20121227/94131/1670/802/10/
046940/20121227/94244/1675/1012/20/
046940/20121227/94247/1675/2382/20/
046940/20121227/94303/1675/175/20/
046940/20121227/94343/1680/2006/20/
046940/20121227/94350/1680/300/20/
046940/20121227/94409/1680/213/20/
046940/20121227/94422/1675/970/10/
046940/20121227/94541/1675/706/10/
046940/20121227/94714/1675/1002/10/
046940/20121227/94745/1675/2648/10/
046940/20121227/94745/1670/2355/10/
046940/20121227/94855/1670/2442/10/
046940/20121227/94855/1665/8035/10/
046940/20121227/94855/1660/4527/10/
046940/20121227/95330/1675/1700/20/
046940/20121227/95501/1680/746/20/
046940/20121227/95532/1680/5000/20/
046940/20121227/95551/1680/251/20/
046940/20121227/95552/1685/500/20/
046940/20121227/95559/1685/573/20/
046940/20121227/95629/1690/2518/20/
046940/20121227/95635/1690/179/10/
046940/20121227/95641/1695/278/20/
046940/20121227/95727/1690/1000/10/
046940/20121227/95727/1690/1254/10/
046940/20121227/95728/1695/1700/20/
046940/20121227/95750/1690/150/20/
046940/20121227/95750/1695/246/20/
046940/20121227/95755/1695/200/20/
046940/20121227/95820/1695/777/20/
046940/20121227/95940/1695/1074/20/
046940/20121227/95943/1695/100/20/
046940/20121227/95958/1690/838/10/
046940/20121227/100002/1690/760/10/
046940/20121227/100025/1690/204/10/
046940/20121227/100209/1685/93/20/
046940/20121227/100405/1685/1834/20/
046940/20121227/100524/1690/701/20/
046940/20121227/100621/1690/502/20/
046940/20121227/100827/1700/1619/20/
046940/20121227/100828/1700/500/10/
046940/20121227/100840/1705/504/20/
046940/20121227/100843/1700/1001/10/
046940/20121227/100843/1705/100/20/
046940/20121227/100904/1700/203/10/
046940/20121227/100920/1705/505/20/
046940/20121227/101408/1700/1846/20/
046940/20121227/101416/1705/705/20/
046940/20121227/101427/1700/2006/10/
046940/20121227/101430/1700/501/10/
046940/20121227/101447/1700/507/10/
046940/20121227/101455/1700/360/10/
046940/20121227/101642/1695/511/10/
046940/20121227/101734/1690/1050/10/
046940/20121227/102202/1690/139/10/
046940/20121227/102233/1700/632/20/
046940/20121227/102615/1700/509/20/
046940/20121227/102620/1700/201/20/
046940/20121227/102725/1700/778/20/
046940/20121227/102753/1700/805/10/
046940/20121227/102858/1700/530/10/
046940/20121227/102955/1695/304/10/
046940/20121227/103008/1700/999/20/
046940/20121227/103016/1700/205/10/
046940/20121227/103016/1700/797/20/
046940/20121227/103030/1700/204/20/
046940/20121227/103030/1700/237/10/
046940/20121227/103232/1700/1246/10/
046940/20121227/103259/1700/2005/10/
046940/20121227/103342/1700/504/10/
046940/20121227/103343/1700/980/10/
046940/20121227/103354/1695/2021/10/
046940/20121227/103728/1700/336/20/
046940/20121227/103756/1695/3744/10/
046940/20121227/103925/1695/98/20/
046940/20121227/103937/1690/536/10/
046940/20121227/104013/1690/100/10/
046940/20121227/104034/1695/101/20/
046940/20121227/104427/1700/537/20/
046940/20121227/105038/1700/708/20/
046940/20121227/105048/1695/760/10/
046940/20121227/105140/1695/950/10/
046940/20121227/105149/1695/1458/10/
046940/20121227/105319/1695/185/10/
046940/20121227/105319/1690/4828/10/
046940/20121227/105334/1690/2000/10/
046940/20121227/105500/1690/567/10/
046940/20121227/105645/1690/543/10/
046940/20121227/105734/1690/752/20/
046940/20121227/105807/1690/103/20/
046940/20121227/105929/1685/117/10/
046940/20121227/110144/1690/95/20/
046940/20121227/110249/1690/359/20/
046940/20121227/110255/1690/103/20/
046940/20121227/110651/1695/1197/20/
046940/20121227/110755/1695/798/20/
046940/20121227/111045/1695/661/20/
046940/20121227/111054/1695/2002/10/
046940/20121227/111138/1700/136/20/
046940/20121227/111228/1695/2001/10/
046940/20121227/111321/1695/1710/10/
046940/20121227/111427/1690/801/10/
046940/20121227/111435/1690/203/10/
046940/20121227/111505/1695/294/20/
046940/20121227/111544/1695/831/10/
046940/20121227/111815/1695/171/20/
046940/20121227/111835/1695/102/10/
046940/20121227/111835/1690/1053/10/
046940/20121227/111905/1695/703/10/
046940/20121227/112055/1695/892/10/
046940/20121227/112115/1690/5926/10/
046940/20121227/112132/1690/1097/10/
046940/20121227/112147/1690/1504/10/
046940/20121227/112152/1690/279/10/
046940/20121227/112237/1685/9001/10/
046940/20121227/112253/1685/3624/10/
046940/20121227/112307/1685/131/20/
046940/20121227/112316/1685/101/20/
046940/20121227/112332/1685/560/10/
046940/20121227/112334/1685/366/20/
046940/20121227/112340/1685/101/20/
046940/20121227/112346/1685/101/20/
046940/20121227/112353/1685/201/20/
046940/20121227/112358/1685/297/20/
046940/20121227/112403/1685/101/20/
046940/20121227/112404/1685/326/20/
046940/20121227/112431/1685/306/10/
046940/20121227/112610/1680/279/10/
046940/20121227/112629/1680/14668/10/
046940/20121227/112641/1680/1890/20/
046940/20121227/112654/1680/113/10/
046940/20121227/112907/1675/509/10/
046940/20121227/112939/1680/452/10/
046940/20121227/113028/1680/1018/10/
046940/20121227/113129/1675/2067/10/
046940/20121227/113333/1675/1113/10/
046940/20121227/113401/1675/2725/10/
046940/20121227/113401/1670/6469/10/
046940/20121227/113416/1665/512/10/
046940/20121227/113421/1665/500/10/
046940/20121227/113825/1665/365/10/
046940/20121227/114016/1665/1038/10/
046940/20121227/114545/1665/1046/10/
046940/20121227/114903/1680/82/20/
046940/20121227/115604/1680/564/20/
046940/20121227/120420/1680/273/20/
046940/20121227/120535/1685/430/20/
046940/20121227/120833/1680/418/10/
046940/20121227/121420/1680/269/10/
046940/20121227/121705/1675/1792/10/
046940/20121227/122058/1675/117/10/
046940/20121227/122308/1675/2742/10/
046940/20121227/122447/1675/359/10/
046940/20121227/123224/1675/2204/10/
046940/20121227/123730/1675/106/10/
046940/20121227/123941/1670/340/10/
046940/20121227/124126/1670/132/10/
046940/20121227/124716/1675/376/20/
046940/20121227/125633/1675/1058/10/
046940/20121227/125705/1675/200/10/
046940/20121227/125847/1675/1081/10/
046940/20121227/125847/1670/3816/10/
046940/20121227/130152/1670/1524/10/
046940/20121227/130201/1670/105/10/
046940/20121227/130703/1670/1727/10/
046940/20121227/130759/1670/457/10/
046940/20121227/131002/1670/345/10/
046940/20121227/131254/1665/242/10/
046940/20121227/131319/1675/1000/20/
046940/20121227/131325/1675/1001/20/
046940/20121227/131354/1675/1019/20/
046940/20121227/131642/1670/1324/10/
046940/20121227/131642/1665/1628/10/
046940/20121227/131910/1670/287/10/
046940/20121227/132101/1670/358/10/
046940/20121227/132202/1670/1060/10/
046940/20121227/132204/1670/200/10/
046940/20121227/132257/1670/236/10/
046940/20121227/132337/1665/5011/10/
046940/20121227/132355/1665/113/10/
046940/20121227/132355/1660/4591/10/
046940/20121227/132524/1660/86/10/
046940/20121227/132549/1660/377/10/
046940/20121227/132659/1660/206/10/
046940/20121227/132700/1660/434/10/
046940/20121227/132700/1655/290/10/
046940/20121227/133036/1665/204/20/
046940/20121227/133048/1665/1011/20/
046940/20121227/133050/1665/201/20/
046940/20121227/133052/1665/537/20/
046940/20121227/133106/1665/107/20/
046940/20121227/133403/1665/669/10/
046940/20121227/133407/1660/3001/10/
046940/20121227/133534/1660/1019/10/
046940/20121227/133543/1660/470/10/
046940/20121227/133614/1660/320/10/
046940/20121227/133638/1660/1000/10/
046940/20121227/133644/1660/89/10/
046940/20121227/133646/1660/345/10/
046940/20121227/133728/1660/1004/10/
046940/20121227/133730/1660/664/10/
046940/20121227/133819/1660/381/20/
046940/20121227/134015/1655/255/10/
046940/20121227/134043/1660/161/20/
046940/20121227/134105/1660/278/10/
046940/20121227/134449/1660/2248/10/
046940/20121227/134458/1660/100/20/
046940/20121227/134514/1660/665/20/
046940/20121227/134810/1665/106/20/
046940/20121227/135115/1670/903/20/
046940/20121227/135509/1670/241/20/
046940/20121227/135620/1670/1017/10/
046940/20121227/135639/1670/86/10/
046940/20121227/135735/1670/600/20/
046940/20121227/140041/1670/314/10/
046940/20121227/140328/1670/644/10/
046940/20121227/140339/1670/605/10/
046940/20121227/140846/1675/354/20/
046940/20121227/140854/1670/145/10/
046940/20121227/140908/1670/855/20/
046940/20121227/140939/1675/1479/20/
046940/20121227/141022/1675/1377/20/
046940/20121227/141025/1675/794/20/
046940/20121227/141130/1680/175/20/
046940/20121227/141142/1680/104/20/
046940/20121227/141217/1675/270/10/
046940/20121227/141218/1675/150/10/
046940/20121227/141219/1675/719/10/
046940/20121227/141227/1675/1000/20/
046940/20121227/141232/1675/104/20/
046940/20121227/141515/1680/226/20/
046940/20121227/141627/1680/156/20/
046940/20121227/142049/1680/492/20/
046940/20121227/142055/1675/300/10/
046940/20121227/142145/1680/102/20/
046940/20121227/142531/1675/110/10/
046940/20121227/142551/1675/100/10/
046940/20121227/142627/1675/300/10/
046940/20121227/142656/1675/355/10/
046940/20121227/142723/1670/314/10/
046940/20121227/142845/1670/1552/10/
046940/20121227/142850/1670/645/10/
046940/20121227/142927/1675/884/10/
046940/20121227/142927/1670/2031/10/
046940/20121227/142927/1665/1637/10/
046940/20121227/143024/1680/671/20/
046940/20121227/143058/1685/1174/20/
046940/20121227/143557/1675/316/10/
046940/20121227/143623/1675/200/10/
046940/20121227/143725/1675/201/10/
046940/20121227/144103/1685/657/20/
046940/20121227/144556/1680/500/10/
046940/20121227/144807/1680/702/10/
046940/20121227/144859/1680/500/10/
046940/20121227/144922/1680/520/10/
046940/20121227/150000/1670/13163/10/
