046940/20121207/90000/1640/3088/10/
046940/20121207/90135/1640/547/10/
046940/20121207/90135/1640/1500/20/
046940/20121207/90702/1645/318/10/
046940/20121207/91044/1660/81/20/
046940/20121207/91052/1660/1165/20/
046940/20121207/91132/1665/110/20/
046940/20121207/91149/1660/555/10/
046940/20121207/91150/1660/100/10/
046940/20121207/91252/1660/418/10/
046940/20121207/91259/1660/121/10/
046940/20121207/91324/1660/849/20/
046940/20121207/91507/1655/1034/10/
046940/20121207/91603/1650/1000/10/
046940/20121207/91652/1650/1049/10/
046940/20121207/91722/1650/85/10/
046940/20121207/91759/1655/1715/20/
046940/20121207/91906/1660/91/20/
046940/20121207/92012/1660/1019/20/
046940/20121207/92229/1660/290/20/
046940/20121207/92333/1665/1168/20/
046940/20121207/92427/1665/100/20/
046940/20121207/92638/1675/200/20/
046940/20121207/92638/1680/784/20/
046940/20121207/93421/1675/502/20/
046940/20121207/93438/1675/500/20/
046940/20121207/93510/1665/245/10/
046940/20121207/93534/1660/165/10/
046940/20121207/93637/1665/500/10/
046940/20121207/93637/1660/1329/10/
046940/20121207/93649/1660/500/10/
046940/20121207/93712/1660/500/10/
046940/20121207/93928/1660/200/10/
046940/20121207/94145/1660/968/10/
046940/20121207/94150/1660/200/20/
046940/20121207/94250/1660/982/20/
046940/20121207/94329/1660/200/10/
046940/20121207/94658/1660/1000/10/
046940/20121207/94808/1660/1456/10/
046940/20121207/94808/1655/1703/10/
046940/20121207/94808/1650/1250/10/
046940/20121207/94808/1645/2751/10/
046940/20121207/94818/1645/300/20/
046940/20121207/94821/1645/1190/20/
046940/20121207/94821/1645/300/20/
046940/20121207/94824/1645/135/20/
046940/20121207/95104/1645/1675/10/
046940/20121207/95104/1640/338/10/
046940/20121207/95224/1645/100/10/
046940/20121207/95224/1640/1430/10/
046940/20121207/95449/1655/101/20/
046940/20121207/95618/1655/900/20/
046940/20121207/95625/1655/2000/10/
046940/20121207/95742/1645/1961/10/
046940/20121207/95812/1640/100/10/
046940/20121207/95859/1640/697/10/
046940/20121207/100153/1650/1000/10/
046940/20121207/100640/1650/300/20/
046940/20121207/101305/1650/1103/10/
046940/20121207/101305/1640/559/10/
046940/20121207/101502/1645/500/10/
046940/20121207/101718/1645/300/10/
046940/20121207/101744/1640/3676/10/
046940/20121207/101744/1635/1705/10/
046940/20121207/101744/1630/253/10/
046940/20121207/102417/1635/575/10/
046940/20121207/102953/1635/596/10/
046940/20121207/103423/1635/215/10/
046940/20121207/103451/1645/83/20/
046940/20121207/103817/1645/100/20/
046940/20121207/103845/1640/207/10/
046940/20121207/103855/1640/1502/10/
046940/20121207/103855/1640/2459/10/
046940/20121207/104123/1640/221/10/
046940/20121207/104638/1640/82/20/
046940/20121207/104742/1635/585/10/
046940/20121207/105411/1640/201/20/
046940/20121207/105522/1640/141/20/
046940/20121207/105532/1635/134/10/
046940/20121207/105752/1640/659/20/
046940/20121207/105904/1645/97/20/
046940/20121207/105904/1650/500/20/
046940/20121207/105925/1650/521/10/
046940/20121207/105927/1650/500/10/
046940/20121207/110029/1650/280/10/
046940/20121207/110045/1655/3015/20/
046940/20121207/110210/1655/955/20/
046940/20121207/110540/1660/136/20/
046940/20121207/110704/1660/474/20/
046940/20121207/110716/1665/740/20/
046940/20121207/110736/1665/1000/20/
046940/20121207/110751/1670/1747/20/
046940/20121207/110826/1675/190/20/
046940/20121207/110849/1670/120/10/
046940/20121207/111048/1665/164/20/
046940/20121207/111120/1665/375/20/
046940/20121207/111148/1665/200/10/
046940/20121207/111853/1665/349/20/
046940/20121207/112325/1665/100/20/
046940/20121207/112422/1665/150/20/
046940/20121207/112510/1665/107/20/
046940/20121207/112741/1665/500/20/
046940/20121207/112925/1665/200/20/
046940/20121207/114038/1665/101/20/
046940/20121207/114443/1665/290/10/
046940/20121207/114750/1660/1356/10/
046940/20121207/114918/1660/239/20/
046940/20121207/115811/1655/200/10/
046940/20121207/115813/1655/986/10/
046940/20121207/115813/1650/204/10/
046940/20121207/121849/1655/544/10/
046940/20121207/122027/1655/1400/10/
046940/20121207/122035/1655/146/10/
046940/20121207/122035/1650/354/10/
046940/20121207/123605/1650/766/10/
046940/20121207/125601/1655/2356/10/
046940/20121207/125601/1655/1069/10/
046940/20121207/125901/1650/1277/10/
046940/20121207/130728/1645/1163/10/
046940/20121207/130934/1640/445/10/
046940/20121207/131038/1635/686/10/
046940/20121207/131248/1640/900/10/
046940/20121207/131653/1635/2508/10/
046940/20121207/131709/1635/326/10/
046940/20121207/131709/1630/5990/10/
046940/20121207/131756/1625/1210/10/
046940/20121207/131756/1620/1414/10/
046940/20121207/132455/1625/536/10/
046940/20121207/132456/1620/717/10/
046940/20121207/132559/1615/756/10/
046940/20121207/132747/1610/1050/10/
046940/20121207/132757/1605/722/10/
046940/20121207/132757/1600/4560/10/
046940/20121207/132757/1595/3030/10/
046940/20121207/132757/1590/1030/10/
046940/20121207/132757/1585/5601/10/
046940/20121207/132757/1580/5120/10/
046940/20121207/132757/1570/1564/10/
046940/20121207/132915/1580/311/10/
046940/20121207/132940/1610/100/20/
046940/20121207/132947/1610/100/20/
046940/20121207/132953/1610/100/20/
046940/20121207/133203/1590/216/10/
046940/20121207/133243/1590/144/10/
046940/20121207/133338/1590/189/10/
046940/20121207/133959/1595/83/10/
046940/20121207/133959/1590/1660/10/
046940/20121207/133959/1585/1344/10/
046940/20121207/134158/1615/127/20/
046940/20121207/134219/1615/84/20/
046940/20121207/134402/1615/200/20/
046940/20121207/134658/1620/206/20/
046940/20121207/134803/1630/362/20/
046940/20121207/134907/1630/492/20/
046940/20121207/135055/1630/1481/20/
046940/20121207/135112/1630/183/20/
046940/20121207/135209/1630/1400/20/
046940/20121207/135346/1630/200/20/
046940/20121207/135351/1630/180/20/
046940/20121207/135352/1630/1000/20/
046940/20121207/135403/1630/1077/20/
046940/20121207/135509/1630/666/10/
046940/20121207/135722/1620/572/10/
046940/20121207/140018/1635/191/20/
046940/20121207/140444/1625/474/10/
046940/20121207/140444/1620/88/10/
046940/20121207/140444/1615/1010/10/
046940/20121207/140444/1610/1300/10/
046940/20121207/140444/1605/1001/10/
046940/20121207/140445/1605/530/20/
046940/20121207/140759/1630/398/20/
046940/20121207/140901/1620/520/10/
046940/20121207/140919/1620/500/10/
046940/20121207/141006/1625/837/20/
046940/20121207/141216/1620/500/20/
046940/20121207/141554/1620/472/20/
046940/20121207/141854/1610/203/10/
046940/20121207/141925/1610/340/10/
046940/20121207/141936/1605/779/10/
046940/20121207/141945/1605/328/10/
046940/20121207/141955/1605/672/20/
046940/20121207/142233/1600/1208/10/
046940/20121207/142247/1600/550/20/
046940/20121207/142253/1600/242/20/
046940/20121207/142312/1600/100/10/
046940/20121207/142354/1600/1100/20/
046940/20121207/142407/1600/100/10/
046940/20121207/142444/1600/500/20/
046940/20121207/142444/1600/735/20/
046940/20121207/142515/1600/2000/10/
046940/20121207/142744/1605/800/10/
046940/20121207/142754/1605/723/10/
046940/20121207/142836/1605/225/10/
046940/20121207/142953/1610/650/20/
046940/20121207/143056/1620/1308/20/
046940/20121207/143058/1620/2492/10/
046940/20121207/143456/1615/583/10/
046940/20121207/143456/1610/2457/10/
046940/20121207/143511/1610/101/20/
046940/20121207/143516/1610/100/20/
046940/20121207/143517/1610/500/20/
046940/20121207/143555/1610/93/20/
046940/20121207/143634/1610/100/10/
046940/20121207/143716/1610/150/20/
046940/20121207/143720/1610/250/20/
046940/20121207/143916/1610/2000/10/
046940/20121207/143922/1610/1150/10/
046940/20121207/144116/1610/350/10/
046940/20121207/144130/1620/172/20/
046940/20121207/144259/1620/390/20/
046940/20121207/144346/1610/400/10/
046940/20121207/144356/1610/153/10/
046940/20121207/144440/1610/487/10/
046940/20121207/144454/1620/451/20/
046940/20121207/144454/1625/1049/20/
046940/20121207/144608/1610/1500/10/
046940/20121207/144608/1605/236/10/
046940/20121207/144831/1605/200/10/
046940/20121207/150212/1605/4247/10/
