046940/20121116/90000/1890/4364/20/
046940/20121116/90000/1880/622/20/
046940/20121116/90018/1880/401/20/
046940/20121116/90052/1850/847/10/
046940/20121116/90056/1850/500/10/
046940/20121116/90143/1850/237/10/
046940/20121116/90149/1850/163/20/
046940/20121116/90208/1850/377/10/
046940/20121116/90238/1835/335/10/
046940/20121116/90357/1835/1952/10/
046940/20121116/90519/1840/1000/10/
046940/20121116/90521/1840/1000/10/
046940/20121116/90542/1840/100/10/
046940/20121116/90551/1840/1900/10/
046940/20121116/90602/1840/100/10/
046940/20121116/90603/1840/238/20/
046940/20121116/90616/1840/4822/10/
046940/20121116/90619/1850/175/20/
046940/20121116/90626/1870/500/20/
046940/20121116/90638/1870/91/20/
046940/20121116/90712/1870/110/20/
046940/20121116/90809/1850/687/10/
046940/20121116/90811/1870/550/20/
046940/20121116/90836/1880/130/20/
046940/20121116/90849/1880/870/20/
046940/20121116/90915/1890/2556/20/
046940/20121116/90930/1890/944/10/
046940/20121116/90941/1890/200/20/
046940/20121116/90957/1880/126/10/
046940/20121116/91020/1890/117/20/
046940/20121116/91025/1890/100/20/
046940/20121116/91027/1880/330/10/
046940/20121116/91027/1890/200/20/
046940/20121116/91037/1890/2000/20/
046940/20121116/91048/1890/605/20/
046940/20121116/91107/1890/137/20/
046940/20121116/91108/1890/156/20/
046940/20121116/91116/1900/1244/20/
046940/20121116/91119/1910/299/20/
046940/20121116/91121/1900/561/10/
046940/20121116/91124/1900/208/20/
046940/20121116/91133/1900/200/20/
046940/20121116/91133/1900/97/20/
046940/20121116/91140/1900/232/20/
046940/20121116/91144/1910/111/20/
046940/20121116/91152/1920/163/20/
046940/20121116/91156/1920/512/20/
046940/20121116/91158/1925/156/20/
046940/20121116/91201/1920/577/10/
046940/20121116/91210/1925/86/20/
046940/20121116/91234/1920/100/20/
046940/20121116/91254/1920/300/20/
046940/20121116/91254/1920/265/10/
046940/20121116/91259/1910/500/20/
046940/20121116/91259/1920/135/20/
046940/20121116/91259/1920/1365/10/
046940/20121116/91321/1920/526/20/
046940/20121116/91324/1920/344/10/
046940/20121116/91324/1920/178/10/
046940/20121116/91342/1920/208/20/
046940/20121116/91350/1920/200/20/
046940/20121116/91352/1910/200/10/
046940/20121116/91401/1915/100/20/
046940/20121116/91411/1920/225/20/
046940/20121116/91422/1920/689/20/
046940/20121116/91428/1920/111/10/
046940/20121116/91439/1920/158/20/
046940/20121116/91457/1915/215/10/
046940/20121116/91457/1910/248/10/
046940/20121116/91522/1910/223/10/
046940/20121116/91538/1905/391/10/
046940/20121116/91541/1895/1530/10/
046940/20121116/91541/1890/82/10/
046940/20121116/91549/1905/516/20/
046940/20121116/91552/1900/300/10/
046940/20121116/91552/1890/2862/10/
046940/20121116/91553/1890/100/20/
046940/20121116/91604/1890/114/20/
046940/20121116/91630/1890/139/20/
046940/20121116/91717/1880/800/10/
046940/20121116/92010/1875/784/10/
046940/20121116/92215/1885/110/20/
046940/20121116/92220/1885/602/20/
046940/20121116/92229/1885/265/20/
046940/20121116/92240/1890/96/20/
046940/20121116/92307/1890/2520/20/
046940/20121116/92311/1890/445/10/
046940/20121116/92406/1905/82/20/
046940/20121116/92445/1900/100/20/
046940/20121116/92456/1900/100/20/
046940/20121116/92503/1885/146/10/
046940/20121116/92602/1870/894/10/
046940/20121116/92658/1865/558/10/
046940/20121116/92747/1880/100/20/
046940/20121116/92832/1865/737/10/
046940/20121116/92847/1865/205/10/
046940/20121116/92930/1865/525/10/
046940/20121116/93023/1865/1112/10/
046940/20121116/93023/1860/1189/10/
046940/20121116/93027/1860/611/10/
046940/20121116/93159/1860/516/10/
046940/20121116/93241/1850/516/10/
046940/20121116/93329/1850/514/10/
046940/20121116/93449/1875/141/20/
046940/20121116/93540/1875/279/20/
046940/20121116/93621/1855/300/10/
046940/20121116/93702/1855/713/10/
046940/20121116/93735/1850/214/10/
046940/20121116/93804/1855/502/10/
046940/20121116/93804/1850/1500/10/
046940/20121116/93805/1850/550/10/
046940/20121116/93858/1860/166/10/
046940/20121116/93939/1850/424/10/
046940/20121116/93944/1850/183/20/
046940/20121116/94008/1850/515/10/
046940/20121116/94112/1845/1104/10/
046940/20121116/94218/1835/226/10/
046940/20121116/94226/1835/500/10/
046940/20121116/94229/1835/2039/10/
046940/20121116/94235/1835/218/20/
046940/20121116/94536/1830/275/10/
046940/20121116/94637/1830/508/10/
046940/20121116/94645/1820/300/10/
046940/20121116/94714/1820/492/10/
046940/20121116/94716/1820/786/10/
046940/20121116/94716/1815/3214/10/
046940/20121116/94719/1810/900/10/
046940/20121116/94719/1805/1701/10/
046940/20121116/94719/1800/576/10/
046940/20121116/94723/1800/2000/10/
046940/20121116/94723/1800/162/10/
046940/20121116/94724/1795/280/10/
046940/20121116/94802/1800/204/20/
046940/20121116/94953/1805/154/10/
046940/20121116/95106/1805/226/10/
046940/20121116/95106/1800/100/10/
046940/20121116/95106/1795/100/10/
046940/20121116/95106/1790/101/10/
046940/20121116/95319/1825/106/20/
046940/20121116/95326/1825/152/10/
046940/20121116/95510/1830/407/20/
046940/20121116/95534/1830/124/20/
046940/20121116/95608/1830/220/20/
046940/20121116/95621/1830/100/20/
046940/20121116/95707/1835/110/20/
046940/20121116/95709/1835/184/20/
046940/20121116/95730/1840/132/20/
046940/20121116/95954/1840/213/20/
046940/20121116/100023/1840/666/20/
046940/20121116/100056/1845/107/20/
046940/20121116/100128/1840/257/10/
046940/20121116/100433/1835/517/10/
046940/20121116/100457/1830/616/10/
046940/20121116/100752/1840/1309/20/
046940/20121116/100754/1845/380/20/
046940/20121116/100805/1850/84/20/
046940/20121116/100847/1850/253/20/
046940/20121116/100848/1850/747/10/
046940/20121116/100857/1860/82/20/
046940/20121116/101117/1860/362/20/
046940/20121116/101342/1845/123/10/
046940/20121116/101342/1840/950/10/
046940/20121116/101450/1840/100/10/
046940/20121116/101709/1830/1959/10/
046940/20121116/102214/1830/245/10/
046940/20121116/102356/1830/148/10/
046940/20121116/102427/1840/225/20/
046940/20121116/102455/1840/1539/20/
046940/20121116/102517/1840/150/20/
046940/20121116/102519/1840/139/20/
046940/20121116/102552/1845/94/20/
046940/20121116/102942/1840/156/10/
046940/20121116/102942/1830/3885/10/
046940/20121116/102955/1855/105/20/
046940/20121116/103810/1835/118/10/
046940/20121116/103810/1830/807/10/
046940/20121116/103826/1830/950/10/
046940/20121116/103830/1830/2387/10/
046940/20121116/104123/1830/92/20/
046940/20121116/104435/1825/95/10/
046940/20121116/105202/1810/276/10/
046940/20121116/105459/1840/106/10/
046940/20121116/105908/1840/701/10/
046940/20121116/105909/1845/705/20/
046940/20121116/105909/1850/499/20/
046940/20121116/105909/1850/3796/10/
046940/20121116/112703/1845/132/20/
046940/20121116/112918/1845/151/20/
046940/20121116/113315/1845/97/20/
046940/20121116/113852/1840/100/10/
046940/20121116/114226/1840/102/20/
046940/20121116/114245/1840/120/20/
046940/20121116/114813/1840/100/20/
046940/20121116/114827/1845/215/20/
046940/20121116/114827/1850/869/20/
046940/20121116/115210/1835/102/10/
046940/20121116/120210/1845/100/20/
046940/20121116/120641/1845/109/20/
046940/20121116/120844/1830/735/10/
046940/20121116/121121/1830/150/10/
046940/20121116/122629/1845/201/20/
046940/20121116/123000/1845/115/20/
046940/20121116/123028/1840/100/20/
046940/20121116/123110/1850/539/20/
046940/20121116/123129/1850/366/20/
046940/20121116/123134/1850/100/20/
046940/20121116/123205/1850/500/20/
046940/20121116/123248/1850/163/20/
046940/20121116/123323/1850/231/10/
046940/20121116/123521/1850/166/10/
046940/20121116/123716/1850/119/20/
046940/20121116/123719/1850/421/10/
046940/20121116/124003/1850/100/20/
046940/20121116/124003/1855/357/20/
046940/20121116/124225/1845/1067/10/
046940/20121116/124331/1845/500/20/
046940/20121116/124513/1840/1000/10/
046940/20121116/124558/1845/300/20/
046940/20121116/124742/1845/309/10/
046940/20121116/124821/1840/128/10/
046940/20121116/124852/1840/272/20/
046940/20121116/124852/1835/2000/20/
046940/20121116/124948/1835/200/20/
046940/20121116/125002/1830/431/10/
046940/20121116/125058/1835/170/20/
046940/20121116/125116/1835/264/20/
046940/20121116/125158/1835/90/20/
046940/20121116/125546/1835/86/20/
046940/20121116/125939/1830/104/10/
046940/20121116/130215/1830/485/20/
046940/20121116/130358/1825/1999/10/
046940/20121116/130543/1820/319/10/
046940/20121116/130601/1820/167/10/
046940/20121116/130631/1820/100/10/
046940/20121116/130642/1820/479/10/
046940/20121116/130845/1820/220/10/
046940/20121116/131323/1825/324/20/
046940/20121116/131413/1825/432/20/
046940/20121116/131743/1830/583/10/
046940/20121116/131848/1830/1025/10/
046940/20121116/131949/1830/136/10/
046940/20121116/132053/1825/301/10/
046940/20121116/132150/1820/169/10/
046940/20121116/132204/1820/447/10/
046940/20121116/132841/1820/739/10/
046940/20121116/132944/1820/256/10/
046940/20121116/135404/1820/358/10/
046940/20121116/135404/1815/1784/10/
046940/20121116/135404/1810/576/10/
046940/20121116/135808/1810/365/10/
046940/20121116/135946/1810/101/10/
046940/20121116/140019/1810/201/10/
046940/20121116/140049/1810/1425/10/
046940/20121116/140049/1805/6436/10/
046940/20121116/140049/1800/1548/10/
046940/20121116/140049/1790/1400/10/
046940/20121116/140049/1785/2130/10/
046940/20121116/140049/1780/850/10/
046940/20121116/140049/1775/6782/10/
046940/20121116/140049/1780/1560/10/
046940/20121116/140049/1775/2418/10/
046940/20121116/140049/1770/141/10/
046940/20121116/140049/1760/6279/10/
046940/20121116/140400/1815/103/20/
046940/20121116/140810/1805/81/20/
046940/20121116/141447/1805/183/20/
046940/20121116/142136/1805/119/20/
046940/20121116/142219/1805/100/20/
046940/20121116/142348/1810/718/20/
046940/20121116/142611/1780/164/10/
046940/20121116/142615/1775/87/10/
046940/20121116/142703/1775/223/10/
046940/20121116/142711/1770/82/10/
046940/20121116/142826/1770/302/10/
046940/20121116/142839/1775/276/10/
046940/20121116/142839/1770/278/10/
046940/20121116/142848/1765/276/10/
046940/20121116/142850/1770/379/20/
046940/20121116/142859/1765/3970/10/
046940/20121116/142934/1770/141/20/
046940/20121116/143025/1790/307/20/
046940/20121116/143119/1790/115/20/
046940/20121116/143548/1790/256/10/
046940/20121116/143656/1790/870/10/
046940/20121116/143858/1790/1002/10/
046940/20121116/144030/1790/179/10/
046940/20121116/144201/1780/521/10/
046940/20121116/144201/1775/605/10/
046940/20121116/144201/1770/1000/10/
046940/20121116/144201/1765/1160/10/
046940/20121116/144201/1760/3546/10/
046940/20121116/144212/1770/1000/10/
046940/20121116/144212/1760/2004/10/
046940/20121116/144341/1765/568/10/
046940/20121116/144346/1765/4620/10/
046940/20121116/144352/1765/380/20/
046940/20121116/144448/1770/100/10/
046940/20121116/144507/1765/2085/10/
046940/20121116/144521/1760/6200/10/
046940/20121116/144626/1770/400/10/
046940/20121116/144639/1760/380/10/
046940/20121116/144837/1790/2021/20/
046940/20121116/144941/1755/371/10/
046940/20121116/150000/1785/6651/10/
