046940/20121213/90000/1415/821/20/
046940/20121213/90026/1415/229/20/
046940/20121213/90027/1415/140/10/
046940/20121213/90100/1415/631/10/
046940/20121213/90150/1415/100/20/
046940/20121213/90213/1415/269/20/
046940/20121213/90219/1415/291/10/
046940/20121213/90541/1415/268/20/
046940/20121213/90737/1415/1702/10/
046940/20121213/90858/1415/101/20/
046940/20121213/90950/1410/1099/10/
046940/20121213/91014/1405/400/10/
046940/20121213/91038/1405/800/10/
046940/20121213/91150/1405/1006/10/
046940/20121213/91344/1405/2001/10/
046940/20121213/91801/1420/226/20/
046940/20121213/92201/1415/679/10/
046940/20121213/92301/1415/409/20/
046940/20121213/92307/1415/501/10/
046940/20121213/92307/1410/200/10/
046940/20121213/92723/1410/3483/10/
046940/20121213/92821/1410/510/10/
046940/20121213/93110/1420/2001/20/
046940/20121213/93418/1420/896/20/
046940/20121213/93418/1425/105/20/
046940/20121213/93529/1410/1000/10/
046940/20121213/93704/1420/992/20/
046940/20121213/93704/1425/1141/20/
046940/20121213/93828/1425/1010/20/
046940/20121213/94219/1420/111/10/
046940/20121213/94227/1420/684/20/
046940/20121213/94233/1420/317/10/
046940/20121213/94623/1415/2087/10/
046940/20121213/95523/1415/2111/10/
046940/20121213/95939/1410/2686/10/
046940/20121213/100110/1410/100/10/
046940/20121213/100114/1405/4111/10/
046940/20121213/100132/1400/3009/10/
046940/20121213/100134/1400/100/10/
046940/20121213/100206/1405/500/20/
046940/20121213/100618/1400/1820/10/
046940/20121213/100653/1395/1337/10/
046940/20121213/100703/1395/201/10/
046940/20121213/100715/1395/200/10/
046940/20121213/100719/1395/200/10/
046940/20121213/100723/1390/97/10/
046940/20121213/100919/1400/503/20/
046940/20121213/101824/1395/1073/10/
046940/20121213/101824/1390/132/10/
046940/20121213/102505/1400/1002/10/
046940/20121213/103614/1400/83/10/
046940/20121213/104405/1405/95/20/
046940/20121213/104805/1405/2194/20/
046940/20121213/104841/1410/1000/10/
046940/20121213/104906/1410/500/20/
046940/20121213/104915/1410/310/20/
046940/20121213/104918/1410/1000/10/
046940/20121213/105006/1410/544/20/
046940/20121213/105011/1410/456/20/
046940/20121213/105014/1410/1000/10/
046940/20121213/105018/1410/124/10/
046940/20121213/105030/1410/876/20/
046940/20121213/105037/1410/124/10/
046940/20121213/105127/1410/397/20/
046940/20121213/105255/1410/101/20/
046940/20121213/105454/1405/666/10/
046940/20121213/105536/1410/378/20/
046940/20121213/105547/1410/1622/10/
046940/20121213/105656/1410/200/20/
046940/20121213/105853/1410/180/20/
046940/20121213/110201/1415/3027/20/
046940/20121213/110304/1415/759/20/
046940/20121213/110412/1415/998/20/
046940/20121213/110855/1420/1369/20/
046940/20121213/111006/1425/1407/20/
046940/20121213/111020/1425/1303/20/
046940/20121213/111020/1430/1744/20/
046940/20121213/111042/1430/503/20/
046940/20121213/111042/1430/2111/20/
046940/20121213/111049/1430/1001/20/
046940/20121213/111050/1435/769/20/
046940/20121213/111115/1430/414/20/
046940/20121213/111123/1430/500/10/
046940/20121213/111132/1430/89/10/
046940/20121213/111233/1425/2617/10/
046940/20121213/111255/1425/611/10/
046940/20121213/111504/1425/1486/10/
046940/20121213/111533/1425/1738/10/
046940/20121213/111639/1420/502/10/
046940/20121213/111807/1430/1435/20/
046940/20121213/111911/1430/1000/10/
046940/20121213/111959/1430/90/20/
046940/20121213/112133/1430/1910/10/
046940/20121213/112225/1435/3628/20/
046940/20121213/112226/1435/300/10/
046940/20121213/112243/1435/1000/10/
046940/20121213/112321/1440/2100/20/
046940/20121213/112329/1440/1648/20/
046940/20121213/112426/1445/3510/20/
046940/20121213/112445/1445/2111/10/
046940/20121213/112450/1445/99/20/
046940/20121213/112455/1445/1000/20/
046940/20121213/112635/1445/303/10/
046940/20121213/112641/1445/960/10/
046940/20121213/112658/1445/201/10/
046940/20121213/112702/1445/145/20/
046940/20121213/112723/1445/1735/10/
046940/20121213/112747/1445/102/20/
046940/20121213/112807/1445/101/20/
046940/20121213/113038/1440/355/10/
046940/20121213/113044/1440/1701/20/
046940/20121213/113444/1440/364/10/
046940/20121213/114254/1440/780/10/
046940/20121213/114335/1440/277/20/
046940/20121213/115208/1440/1471/10/
046940/20121213/115213/1440/794/20/
046940/20121213/115604/1440/747/10/
046940/20121213/115904/1435/81/10/
046940/20121213/120052/1440/118/20/
046940/20121213/120633/1440/470/10/
046940/20121213/120929/1445/690/20/
046940/20121213/121058/1445/1000/20/
046940/20121213/121058/1445/1578/20/
046940/20121213/121615/1445/81/10/
046940/20121213/122005/1445/165/10/
046940/20121213/122259/1450/81/20/
046940/20121213/122832/1450/105/20/
046940/20121213/123126/1445/433/10/
046940/20121213/123941/1450/3013/20/
046940/20121213/123941/1450/1547/20/
046940/20121213/124011/1455/110/20/
046940/20121213/124026/1455/450/20/
046940/20121213/124028/1455/2580/20/
046940/20121213/124036/1455/160/20/
046940/20121213/124056/1460/3391/20/
046940/20121213/124207/1460/161/10/
046940/20121213/124240/1460/460/10/
046940/20121213/124302/1460/500/20/
046940/20121213/124820/1455/82/10/
046940/20121213/125112/1455/90/10/
046940/20121213/125221/1455/84/10/
046940/20121213/125358/1455/1788/10/
046940/20121213/125541/1450/534/10/
046940/20121213/130227/1450/319/10/
046940/20121213/130623/1460/561/20/
046940/20121213/130724/1460/241/20/
046940/20121213/130733/1460/328/20/
046940/20121213/130848/1465/791/20/
046940/20121213/130855/1465/159/20/
046940/20121213/131006/1465/97/20/
046940/20121213/131237/1465/949/20/
046940/20121213/131237/1470/101/20/
046940/20121213/131324/1470/100/20/
046940/20121213/131422/1470/100/20/
046940/20121213/131450/1465/500/10/
046940/20121213/131453/1465/90/10/
046940/20121213/131459/1465/90/10/
046940/20121213/131506/1465/559/10/
046940/20121213/131608/1470/231/20/
046940/20121213/131744/1470/108/20/
046940/20121213/132023/1460/1141/10/
046940/20121213/132027/1460/134/20/
046940/20121213/132338/1465/1510/20/
046940/20121213/132500/1470/509/20/
046940/20121213/132507/1470/136/20/
046940/20121213/132527/1465/2012/10/
046940/20121213/132915/1455/765/10/
046940/20121213/132949/1455/732/10/
046940/20121213/133300/1455/111/20/
046940/20121213/133525/1455/163/10/
046940/20121213/133948/1460/165/20/
046940/20121213/134118/1455/105/10/
046940/20121213/134155/1455/1571/10/
046940/20121213/134505/1455/433/20/
046940/20121213/134532/1455/621/10/
046940/20121213/134546/1450/99/10/
046940/20121213/134640/1455/356/20/
046940/20121213/134707/1455/121/20/
046940/20121213/134711/1455/279/20/
046940/20121213/134719/1455/721/10/
046940/20121213/134734/1455/277/20/
046940/20121213/140030/1465/1039/20/
046940/20121213/140030/1470/912/20/
046940/20121213/140254/1465/109/20/
046940/20121213/140500/1465/467/20/
046940/20121213/140500/1460/968/10/
046940/20121213/140559/1460/269/20/
046940/20121213/140746/1460/501/20/
046940/20121213/140803/1460/95/20/
046940/20121213/140804/1465/155/20/
046940/20121213/141004/1460/1584/10/
046940/20121213/141122/1460/417/10/
046940/20121213/141138/1460/2583/20/
046940/20121213/141452/1465/823/20/
046940/20121213/141517/1465/921/20/
046940/20121213/141528/1470/1582/20/
046940/20121213/141604/1470/82/20/
046940/20121213/141734/1465/505/10/
046940/20121213/141958/1465/874/10/
046940/20121213/141958/1460/710/10/
046940/20121213/142929/1470/81/20/
046940/20121213/143005/1465/1504/10/
046940/20121213/143137/1465/410/10/
046940/20121213/143148/1465/290/20/
046940/20121213/143148/1470/1728/20/
046940/20121213/143331/1475/511/20/
046940/20121213/143331/1480/492/20/
046940/20121213/143853/1480/2502/20/
046940/20121213/143900/1485/160/20/
046940/20121213/143903/1485/923/20/
046940/20121213/143916/1490/600/20/
046940/20121213/143919/1490/100/20/
046940/20121213/143929/1490/100/20/
046940/20121213/143935/1490/220/20/
046940/20121213/143935/1495/1780/20/
046940/20121213/144030/1490/119/20/
046940/20121213/144115/1480/2660/10/
046940/20121213/144126/1480/340/20/
046940/20121213/144308/1480/403/10/
046940/20121213/144318/1480/200/20/
046940/20121213/144349/1480/300/10/
046940/20121213/144405/1480/1388/10/
046940/20121213/144415/1475/510/10/
046940/20121213/144422/1470/100/10/
046940/20121213/144432/1470/982/10/
046940/20121213/144449/1470/240/10/
046940/20121213/144457/1475/340/20/
046940/20121213/144505/1475/150/10/
046940/20121213/144505/1470/150/10/
046940/20121213/144649/1480/1004/20/
046940/20121213/144649/1480/1610/20/
046940/20121213/144744/1485/943/20/
046940/20121213/144755/1480/202/20/
046940/20121213/144912/1475/148/10/
046940/20121213/144948/1475/853/10/
046940/20121213/150000/1470/5427/10/
