046940/20121102/90000/2830/714/20/
046940/20121102/90046/2810/250/10/
046940/20121102/90205/2790/137/10/
046940/20121102/90321/2775/460/10/
046940/20121102/90321/2770/253/10/
046940/20121102/90321/2765/110/10/
046940/20121102/90321/2760/110/10/
046940/20121102/90321/2755/92/10/
046940/20121102/90404/2755/404/10/
046940/20121102/90449/2755/323/10/
046940/20121102/90500/2755/350/10/
046940/20121102/90523/2755/2000/10/
046940/20121102/90544/2755/564/10/
046940/20121102/90602/2750/900/10/
046940/20121102/90614/2755/521/20/
046940/20121102/90708/2755/463/10/
046940/20121102/90759/2755/287/10/
046940/20121102/90836/2760/700/20/
046940/20121102/91153/2760/191/10/
046940/20121102/91436/2795/114/20/
046940/20121102/91849/2770/117/10/
046940/20121102/91849/2765/261/10/
046940/20121102/91909/2765/854/10/
046940/20121102/91952/2765/157/20/
046940/20121102/92000/2765/500/20/
046940/20121102/92002/2765/102/20/
046940/20121102/92051/2795/137/20/
046940/20121102/92148/2770/147/10/
046940/20121102/92148/2765/355/10/
046940/20121102/92208/2765/232/10/
046940/20121102/92209/2765/100/20/
046940/20121102/92218/2760/2149/10/
046940/20121102/92625/2765/109/10/
046940/20121102/92945/2785/91/10/
046940/20121102/93225/2775/104/10/
046940/20121102/93502/2785/111/20/
046940/20121102/93721/2795/1704/20/
046940/20121102/93721/2795/98/20/
046940/20121102/93849/2795/618/10/
046940/20121102/93849/2785/457/10/
046940/20121102/94311/2800/510/20/
046940/20121102/94406/2790/143/10/
046940/20121102/94410/2790/100/10/
046940/20121102/94441/2790/285/10/
046940/20121102/94731/2790/277/20/
046940/20121102/94745/2790/285/10/
046940/20121102/95030/2790/256/20/
046940/20121102/95116/2790/211/10/
046940/20121102/95242/2780/233/10/
046940/20121102/95253/2780/210/10/
046940/20121102/95432/2780/131/10/
046940/20121102/95555/2775/164/10/
046940/20121102/95609/2775/136/20/
046940/20121102/95802/2775/206/10/
046940/20121102/95818/2775/160/10/
046940/20121102/95818/2770/840/10/
046940/20121102/95903/2765/2259/10/
046940/20121102/95908/2765/1630/10/
046940/20121102/100010/2765/497/10/
046940/20121102/100252/2760/1003/10/
046940/20121102/100358/2755/500/10/
046940/20121102/100624/2755/520/10/
046940/20121102/100705/2765/90/20/
046940/20121102/100859/2765/510/20/
046940/20121102/100918/2790/6132/20/
046940/20121102/101249/2790/103/20/
046940/20121102/101305/2790/429/20/
046940/20121102/101348/2790/718/20/
046940/20121102/101402/2790/91/10/
046940/20121102/101448/2790/409/20/
046940/20121102/101452/2790/91/10/
046940/20121102/101457/2790/409/20/
046940/20121102/101516/2790/500/20/
046940/20121102/101819/2770/100/10/
046940/20121102/102630/2765/860/10/
046940/20121102/102754/2770/500/20/
046940/20121102/102917/2760/427/10/
046940/20121102/103048/2760/161/10/
046940/20121102/103048/2755/1041/10/
046940/20121102/103156/2760/134/10/
046940/20121102/103310/2755/1501/10/
046940/20121102/103556/2755/464/10/
046940/20121102/103655/2755/275/10/
046940/20121102/103817/2755/100/10/
046940/20121102/103950/2755/510/20/
046940/20121102/103950/2750/1798/20/
046940/20121102/103953/2745/129/10/
046940/20121102/104106/2745/500/10/
046940/20121102/104107/2750/413/20/
046940/20121102/104249/2750/600/10/
046940/20121102/104654/2750/1096/10/
046940/20121102/104654/2745/2100/10/
046940/20121102/104853/2765/99/20/
046940/20121102/104853/2770/2469/20/
046940/20121102/104902/2770/4097/10/
046940/20121102/104913/2770/500/10/
046940/20121102/104922/2770/600/10/
046940/20121102/104931/2770/600/10/
046940/20121102/105117/2770/82/10/
046940/20121102/105442/2770/92/10/
046940/20121102/105707/2775/358/10/
046940/20121102/105713/2780/88/20/
046940/20121102/105813/2780/117/20/
046940/20121102/105835/2780/132/20/
046940/20121102/110328/2790/1027/20/
046940/20121102/110621/2770/400/10/
046940/20121102/111016/2790/1013/20/
046940/20121102/111037/2790/1504/20/
046940/20121102/111430/2770/1297/10/
046940/20121102/111443/2770/100/20/
046940/20121102/111650/2760/176/10/
046940/20121102/111956/2760/1400/10/
046940/20121102/112004/2750/1081/10/
046940/20121102/112015/2750/211/10/
046940/20121102/112015/2745/706/10/
046940/20121102/112636/2770/597/20/
046940/20121102/112636/2775/403/20/
046940/20121102/113257/2750/260/10/
046940/20121102/113317/2750/762/10/
046940/20121102/113404/2745/1800/10/
046940/20121102/113406/2750/397/20/
046940/20121102/113513/2745/326/10/
046940/20121102/113516/2745/100/20/
046940/20121102/113528/2745/171/20/
046940/20121102/113545/2750/2000/20/
046940/20121102/113637/2750/100/20/
046940/20121102/114812/2755/271/10/
046940/20121102/114812/2750/4090/10/
046940/20121102/115227/2750/458/10/
046940/20121102/115437/2770/274/20/
046940/20121102/115538/2750/4300/10/
046940/20121102/115615/2745/250/10/
046940/20121102/120121/2745/698/10/
046940/20121102/120242/2770/248/20/
046940/20121102/120247/2745/1032/10/
046940/20121102/120531/2745/568/20/
046940/20121102/120835/2765/100/20/
046940/20121102/121023/2750/1500/10/
046940/20121102/121035/2750/100/10/
046940/20121102/121233/2750/160/10/
046940/20121102/121318/2750/141/20/
046940/20121102/121329/2745/722/10/
046940/20121102/121331/2745/100/10/
046940/20121102/121335/2745/100/10/
046940/20121102/121339/2745/400/10/
046940/20121102/121505/2740/216/10/
046940/20121102/121824/2745/132/10/
046940/20121102/121927/2745/149/10/
046940/20121102/122329/2750/102/20/
046940/20121102/122517/2750/82/20/
046940/20121102/122619/2765/750/20/
046940/20121102/123124/2750/200/10/
046940/20121102/124056/2755/276/10/
046940/20121102/124751/2755/349/20/
046940/20121102/124831/2755/113/20/
046940/20121102/125042/2755/88/10/
046940/20121102/125123/2750/1100/10/
046940/20121102/125123/2750/548/10/
046940/20121102/125332/2750/1400/10/
046940/20121102/125334/2750/100/10/
046940/20121102/125354/2750/300/20/
046940/20121102/125705/2745/137/10/
046940/20121102/125720/2745/2000/10/
046940/20121102/125720/2745/1560/10/
046940/20121102/125741/2745/500/10/
046940/20121102/125824/2740/2000/10/
046940/20121102/125824/2740/1752/10/
046940/20121102/125842/2735/1000/10/
046940/20121102/125842/2735/200/10/
046940/20121102/125842/2735/280/10/
046940/20121102/125851/2730/1000/10/
046940/20121102/125855/2730/1100/10/
046940/20121102/125903/2730/541/10/
046940/20121102/125903/2725/459/10/
046940/20121102/130118/2725/500/10/
046940/20121102/130120/2725/1029/10/
046940/20121102/130214/2745/109/20/
046940/20121102/130222/2745/102/20/
046940/20121102/130351/2745/1064/20/
046940/20121102/130518/2745/426/20/
046940/20121102/130518/2745/688/10/
046940/20121102/130855/2735/112/10/
046940/20121102/131219/2730/1049/10/
046940/20121102/131248/2725/420/10/
046940/20121102/131248/2720/1539/10/
046940/20121102/131248/2715/1788/10/
046940/20121102/131248/2710/456/10/
046940/20121102/131248/2705/1909/10/
046940/20121102/131914/2710/201/10/
046940/20121102/131919/2705/1387/10/
046940/20121102/131919/2700/117/10/
046940/20121102/131947/2700/730/10/
046940/20121102/132008/2700/200/10/
046940/20121102/132017/2700/3500/10/
046940/20121102/132037/2695/544/10/
046940/20121102/132107/2700/300/20/
046940/20121102/132155/2690/101/10/
046940/20121102/132240/2690/333/10/
046940/20121102/132346/2700/119/20/
046940/20121102/132353/2700/103/20/
046940/20121102/132401/2700/1000/20/
046940/20121102/132418/2695/452/20/
046940/20121102/132646/2695/151/20/
046940/20121102/132647/2695/913/20/
046940/20121102/132653/2695/187/10/
046940/20121102/132749/2695/100/10/
046940/20121102/132829/2700/1203/20/
046940/20121102/132832/2700/470/20/
046940/20121102/132836/2700/1000/20/
046940/20121102/132839/2700/443/20/
046940/20121102/132853/2695/118/10/
046940/20121102/132858/2700/328/20/
046940/20121102/133039/2710/104/20/
046940/20121102/133045/2710/1080/20/
046940/20121102/133056/2705/122/20/
046940/20121102/133101/2710/157/20/
046940/20121102/133114/2710/218/20/
046940/20121102/133121/2710/500/20/
046940/20121102/133311/2705/129/20/
046940/20121102/133329/2705/123/20/
046940/20121102/133524/2700/1305/10/
046940/20121102/133548/2710/108/20/
046940/20121102/133726/2705/617/20/
046940/20121102/134137/2710/566/20/
046940/20121102/134145/2710/1941/20/
046940/20121102/134215/2710/406/20/
046940/20121102/134229/2710/201/20/
046940/20121102/134231/2710/147/20/
046940/20121102/134323/2710/1087/10/
046940/20121102/134359/2710/217/10/
046940/20121102/134359/2710/473/10/
046940/20121102/134545/2710/297/10/
046940/20121102/134845/2710/104/10/
046940/20121102/134941/2715/101/20/
046940/20121102/135010/2715/156/20/
046940/20121102/135036/2705/883/10/
046940/20121102/135049/2700/610/10/
046940/20121102/135146/2700/301/10/
046940/20121102/135303/2700/347/20/
046940/20121102/135340/2700/1008/10/
046940/20121102/135415/2700/256/10/
046940/20121102/135426/2700/166/20/
046940/20121102/135519/2695/1386/10/
046940/20121102/135519/2690/614/10/
046940/20121102/135529/2690/527/10/
046940/20121102/135529/2685/473/10/
046940/20121102/135536/2685/1394/10/
046940/20121102/135536/2680/606/10/
046940/20121102/135550/2680/3000/10/
046940/20121102/135611/2680/157/20/
046940/20121102/135614/2680/185/20/
046940/20121102/135621/2675/882/10/
046940/20121102/135623/2675/120/20/
046940/20121102/135704/2680/146/20/
046940/20121102/135714/2680/388/20/
046940/20121102/135726/2680/122/20/
046940/20121102/135747/2680/228/10/
046940/20121102/135843/2680/419/20/
046940/20121102/135849/2675/392/10/
046940/20121102/135849/2670/559/10/
046940/20121102/135902/2665/1014/10/
046940/20121102/135909/2665/276/10/
046940/20121102/135909/2660/727/10/
046940/20121102/135923/2660/3000/10/
046940/20121102/135929/2660/501/10/
046940/20121102/135940/2660/531/10/
046940/20121102/135940/2655/230/10/
046940/20121102/135940/2650/240/10/
046940/20121102/135946/2650/1001/10/
046940/20121102/135953/2645/1000/10/
046940/20121102/135954/2645/388/10/
046940/20121102/140001/2645/762/10/
046940/20121102/140003/2640/1000/10/
046940/20121102/140032/2640/207/10/
046940/20121102/140100/2645/1436/20/
046940/20121102/140101/2645/800/20/
046940/20121102/140205/2670/89/20/
046940/20121102/140220/2670/186/10/
046940/20121102/140225/2670/100/20/
046940/20121102/140229/2665/202/10/
046940/20121102/140239/2645/349/10/
046940/20121102/140239/2640/764/10/
046940/20121102/140301/2665/110/20/
046940/20121102/140306/2650/100/10/
046940/20121102/140320/2650/86/10/
046940/20121102/140401/2665/102/20/
046940/20121102/140427/2665/423/20/
046940/20121102/140517/2670/1000/20/
046940/20121102/140518/2670/85/20/
046940/20121102/140526/2670/627/20/
046940/20121102/140624/2680/352/20/
046940/20121102/140642/2690/949/20/
046940/20121102/140800/2690/149/20/
046940/20121102/140810/2690/1200/10/
046940/20121102/140819/2690/209/10/
046940/20121102/140914/2690/501/20/
046940/20121102/140942/2690/697/20/
046940/20121102/140942/2680/500/10/
046940/20121102/140951/2690/500/20/
046940/20121102/141129/2680/425/10/
046940/20121102/141129/2675/449/10/
046940/20121102/141138/2675/800/10/
046940/20121102/141156/2675/1000/10/
046940/20121102/141244/2675/196/10/
046940/20121102/141244/2665/519/10/
046940/20121102/141633/2680/702/20/
046940/20121102/141640/2675/100/20/
046940/20121102/141643/2675/360/20/
046940/20121102/141710/2680/535/20/
046940/20121102/141714/2680/350/20/
046940/20121102/141749/2680/170/20/
046940/20121102/141754/2680/200/20/
046940/20121102/141833/2690/249/20/
046940/20121102/141918/2690/200/20/
046940/20121102/141928/2690/200/20/
046940/20121102/141948/2680/500/10/
046940/20121102/142033/2680/141/10/
046940/20121102/142143/2680/154/20/
046940/20121102/142249/2680/100/20/
046940/20121102/142326/2675/837/10/
046940/20121102/142536/2680/541/20/
046940/20121102/142548/2680/755/20/
046940/20121102/142602/2680/90/20/
046940/20121102/143019/2690/118/20/
046940/20121102/143024/2690/100/20/
046940/20121102/143032/2690/187/20/
046940/20121102/143103/2685/1341/10/
046940/20121102/143116/2680/1039/10/
046940/20121102/143357/2690/451/20/
046940/20121102/143403/2690/1000/20/
046940/20121102/143404/2690/100/20/
046940/20121102/143410/2690/499/20/
046940/20121102/143505/2690/254/20/
046940/20121102/143528/2690/715/20/
046940/20121102/143547/2690/200/20/
046940/20121102/143640/2690/105/20/
046940/20121102/143650/2690/1000/20/
046940/20121102/143706/2685/605/10/
046940/20121102/143713/2685/395/20/
046940/20121102/143911/2690/201/20/
046940/20121102/143930/2690/500/20/
046940/20121102/144033/2685/470/10/
046940/20121102/144057/2680/597/10/
046940/20121102/144108/2680/100/10/
046940/20121102/144122/2685/595/20/
046940/20121102/144149/2685/1027/10/
046940/20121102/144211/2680/159/10/
046940/20121102/144318/2680/2122/10/
046940/20121102/144343/2680/102/20/
046940/20121102/144432/2680/200/20/
046940/20121102/144436/2680/200/20/
046940/20121102/144447/2680/100/20/
046940/20121102/144504/2680/199/20/
046940/20121102/144509/2680/250/10/
046940/20121102/144528/2680/160/20/
046940/20121102/144626/2680/2250/20/
046940/20121102/144654/2680/122/20/
046940/20121102/144705/2680/879/10/
046940/20121102/144719/2680/821/20/
046940/20121102/144734/2680/94/10/
046940/20121102/144744/2680/106/20/
046940/20121102/144809/2685/305/20/
046940/20121102/144824/2680/102/20/
046940/20121102/144824/2685/105/20/
046940/20121102/144825/2685/1557/20/
046940/20121102/144910/2695/646/20/
046940/20121102/144912/2695/746/20/
046940/20121102/144918/2695/256/10/
046940/20121102/144956/2695/1426/20/
046940/20121102/150000/2705/4046/10/
