046940/20130218/90000/2700/272/10/
046940/20130218/90026/2710/548/20/
046940/20130218/90028/2710/289/20/
046940/20130218/90033/2715/119/20/
046940/20130218/90034/2710/111/10/
046940/20130218/90057/2720/389/20/
046940/20130218/90101/2700/3686/10/
046940/20130218/90101/2690/1349/10/
046940/20130218/90124/2690/1487/10/
046940/20130218/90124/2685/1550/10/
046940/20130218/90124/2680/964/10/
046940/20130218/90138/2680/1036/10/
046940/20130218/90139/2680/464/20/
046940/20130218/90235/2695/203/20/
046940/20130218/90243/2695/500/20/
046940/20130218/90511/2680/302/10/
046940/20130218/90553/2680/376/10/
046940/20130218/90615/2675/1097/10/
046940/20130218/90615/2675/450/20/
046940/20130218/90618/2670/1000/10/
046940/20130218/90641/2670/150/10/
046940/20130218/90646/2670/100/20/
046940/20130218/90657/2665/2051/10/
046940/20130218/90719/2665/426/20/
046940/20130218/90719/2665/144/10/
046940/20130218/90719/2660/2747/10/
046940/20130218/90719/2660/109/10/
046940/20130218/90719/2665/489/10/
046940/20130218/90728/2650/2000/10/
046940/20130218/90728/2630/110/10/
046940/20130218/90730/2630/600/10/
046940/20130218/90733/2630/400/10/
046940/20130218/90734/2660/350/20/
046940/20130218/90734/2665/500/20/
046940/20130218/90739/2665/150/10/
046940/20130218/90849/2650/101/20/
046940/20130218/90910/2640/211/10/
046940/20130218/90915/2640/159/10/
046940/20130218/90916/2640/100/10/
046940/20130218/90942/2650/898/20/
046940/20130218/90950/2650/153/10/
046940/20130218/91026/2650/279/20/
046940/20130218/91031/2650/100/20/
046940/20130218/91032/2650/146/20/
046940/20130218/91040/2665/100/20/
046940/20130218/91102/2650/300/10/
046940/20130218/91200/2645/355/10/
046940/20130218/91200/2645/539/20/
046940/20130218/91213/2645/670/20/
046940/20130218/91215/2640/1395/10/
046940/20130218/91215/2635/1600/10/
046940/20130218/91215/2630/1241/10/
046940/20130218/91241/2635/103/10/
046940/20130218/91300/2635/476/10/
046940/20130218/91300/2630/1054/10/
046940/20130218/91303/2630/384/10/
046940/20130218/91307/2630/1000/10/
046940/20130218/91309/2630/771/10/
046940/20130218/91309/2625/2120/10/
046940/20130218/91309/2620/409/10/
046940/20130218/91311/2620/1942/10/
046940/20130218/91317/2625/88/10/
046940/20130218/91317/2620/912/10/
046940/20130218/91325/2630/88/20/
046940/20130218/91325/2630/868/20/
046940/20130218/91349/2630/132/10/
046940/20130218/91355/2630/369/20/
046940/20130218/91414/2645/102/20/
046940/20130218/91450/2645/250/20/
046940/20130218/91505/2635/103/10/
046940/20130218/91511/2630/1001/10/
046940/20130218/91550/2630/979/10/
046940/20130218/91550/2625/1980/10/
046940/20130218/91550/2620/457/10/
046940/20130218/91553/2620/500/10/
046940/20130218/91634/2625/436/10/
046940/20130218/91652/2625/952/10/
046940/20130218/91652/2620/2771/10/
046940/20130218/91705/2615/132/10/
046940/20130218/91708/2615/200/10/
046940/20130218/91711/2615/1001/10/
046940/20130218/91712/2620/100/20/
046940/20130218/91718/2615/348/10/
046940/20130218/91728/2620/203/20/
046940/20130218/91730/2620/128/10/
046940/20130218/91730/2615/172/10/
046940/20130218/91737/2620/451/10/
046940/20130218/91742/2620/522/20/
046940/20130218/91752/2615/100/10/
046940/20130218/91803/2615/500/10/
046940/20130218/91807/2615/339/10/
046940/20130218/91807/2610/2610/10/
046940/20130218/91807/2605/1015/10/
046940/20130218/91811/2605/149/10/
046940/20130218/91812/2605/500/10/
046940/20130218/91814/2605/1169/10/
046940/20130218/91831/2605/1029/10/
046940/20130218/91837/2605/500/10/
046940/20130218/91842/2605/160/10/
046940/20130218/91845/2605/149/10/
046940/20130218/91847/2605/98/10/
046940/20130218/91847/2600/3620/10/
046940/20130218/91847/2600/236/10/
046940/20130218/91849/2595/220/10/
046940/20130218/91849/2595/880/10/
046940/20130218/91852/2590/1000/10/
046940/20130218/91855/2590/500/10/
046940/20130218/91901/2590/640/10/
046940/20130218/91901/2590/1220/10/
046940/20130218/91901/2600/1801/20/
046940/20130218/91903/2585/101/10/
046940/20130218/91903/2580/1249/10/
046940/20130218/91903/2575/101/10/
046940/20130218/91903/2570/399/10/
046940/20130218/91910/2580/111/20/
046940/20130218/91911/2570/744/10/
046940/20130218/91911/2565/2256/10/
046940/20130218/91911/2580/540/20/
046940/20130218/91917/2580/210/10/
046940/20130218/91922/2590/150/20/
046940/20130218/91922/2590/110/10/
046940/20130218/91929/2590/690/20/
046940/20130218/91932/2590/320/10/
046940/20130218/91949/2595/373/20/
046940/20130218/91949/2600/2252/20/
046940/20130218/91949/2600/216/20/
046940/20130218/91949/2600/239/10/
046940/20130218/91949/2590/761/10/
046940/20130218/91957/2590/240/10/
046940/20130218/91957/2580/211/10/
046940/20130218/92007/2595/185/10/
046940/20130218/92008/2595/327/10/
046940/20130218/92011/2595/100/20/
046940/20130218/92013/2590/100/10/
046940/20130218/92019/2595/105/20/
046940/20130218/92022/2600/156/20/
046940/20130218/92036/2610/388/20/
046940/20130218/92052/2615/1300/20/
046940/20130218/92052/2620/130/20/
046940/20130218/92052/2630/792/20/
046940/20130218/92157/2615/180/10/
046940/20130218/92212/2615/1000/20/
046940/20130218/92227/2605/280/10/
046940/20130218/92234/2605/500/10/
046940/20130218/92238/2605/100/10/
046940/20130218/92306/2605/260/10/
046940/20130218/92316/2605/600/10/
046940/20130218/92332/2605/160/10/
046940/20130218/92514/2605/1055/10/
046940/20130218/92558/2605/87/10/
046940/20130218/92603/2605/211/10/
046940/20130218/92610/2605/286/10/
046940/20130218/92612/2605/900/20/
046940/20130218/92613/2605/100/20/
046940/20130218/92617/2605/100/20/
046940/20130218/92623/2605/170/20/
046940/20130218/92625/2605/363/20/
046940/20130218/92643/2605/147/10/
046940/20130218/92657/2605/910/20/
046940/20130218/92702/2605/200/20/
046940/20130218/92717/2600/209/10/
046940/20130218/92718/2600/500/10/
046940/20130218/92747/2600/2630/10/
046940/20130218/92754/2595/1685/10/
046940/20130218/92756/2595/657/10/
046940/20130218/92756/2590/2056/10/
046940/20130218/92756/2585/587/10/
046940/20130218/92809/2590/200/20/
046940/20130218/92823/2590/145/10/
046940/20130218/92829/2590/355/10/
046940/20130218/92829/2585/2009/10/
046940/20130218/92834/2585/436/20/
046940/20130218/92842/2585/261/10/
046940/20130218/92847/2595/101/20/
046940/20130218/92913/2585/1471/10/
046940/20130218/92913/2580/529/10/
046940/20130218/92941/2595/168/20/
046940/20130218/93010/2585/512/10/
046940/20130218/93035/2590/501/10/
046940/20130218/93043/2595/338/20/
046940/20130218/93135/2590/100/10/
046940/20130218/93241/2590/750/10/
046940/20130218/93310/2595/174/20/
046940/20130218/93410/2600/90/10/
046940/20130218/93410/2595/358/10/
046940/20130218/93410/2590/1166/10/
046940/20130218/93532/2600/1010/20/
046940/20130218/93541/2600/139/20/
046940/20130218/93801/2595/461/10/
046940/20130218/93819/2595/438/10/
046940/20130218/93851/2595/262/10/
046940/20130218/93851/2590/578/10/
046940/20130218/93917/2590/2061/10/
046940/20130218/93949/2595/445/20/
046940/20130218/94005/2595/200/20/
046940/20130218/94026/2595/482/20/
046940/20130218/94050/2590/377/10/
046940/20130218/94052/2595/85/20/
046940/20130218/94100/2595/100/20/
046940/20130218/94228/2590/308/10/
046940/20130218/94234/2590/2100/10/
046940/20130218/94302/2590/396/10/
046940/20130218/94317/2590/476/10/
046940/20130218/94319/2585/3493/10/
046940/20130218/94338/2585/370/10/
046940/20130218/94411/2590/170/20/
046940/20130218/94416/2590/354/20/
046940/20130218/94553/2585/384/10/
046940/20130218/94632/2585/1985/10/
046940/20130218/94645/2585/138/20/
046940/20130218/94651/2585/85/20/
046940/20130218/94651/2580/5000/10/
046940/20130218/94656/2580/508/10/
046940/20130218/94718/2580/1016/10/
046940/20130218/94719/2580/793/10/
046940/20130218/94719/2585/1191/20/
046940/20130218/94742/2580/300/10/
046940/20130218/94745/2575/3030/10/
046940/20130218/94801/2580/100/20/
046940/20130218/94805/2575/3000/10/
046940/20130218/94819/2575/655/10/
046940/20130218/94849/2575/171/10/
046940/20130218/94853/2580/100/20/
046940/20130218/94900/2575/100/20/
046940/20130218/94917/2580/122/20/
046940/20130218/94921/2570/1737/10/
046940/20130218/94954/2570/1502/10/
046940/20130218/95009/2570/1171/10/
046940/20130218/95009/2570/2326/10/
046940/20130218/95014/2565/681/10/
046940/20130218/95033/2570/170/10/
046940/20130218/95043/2565/1057/10/
046940/20130218/95045/2570/90/20/
046940/20130218/95049/2565/1000/10/
046940/20130218/95059/2570/100/20/
046940/20130218/95103/2570/200/20/
046940/20130218/95104/2570/200/20/
046940/20130218/95110/2570/200/20/
046940/20130218/95114/2570/104/10/
046940/20130218/95130/2570/1106/20/
046940/20130218/95134/2570/771/20/
046940/20130218/95136/2570/112/20/
046940/20130218/95224/2570/3839/10/
046940/20130218/95224/2565/4291/10/
046940/20130218/95224/2560/1870/10/
046940/20130218/95253/2575/668/20/
046940/20130218/95316/2570/85/20/
046940/20130218/95400/2570/120/20/
046940/20130218/95458/2565/1236/10/
046940/20130218/95458/2565/264/20/
046940/20130218/95458/2570/516/20/
046940/20130218/95518/2570/220/10/
046940/20130218/95518/2570/100/20/
046940/20130218/95529/2570/680/20/
046940/20130218/95530/2570/390/10/
046940/20130218/95555/2570/1000/20/
046940/20130218/95600/2570/500/20/
046940/20130218/95600/2570/490/10/
046940/20130218/95613/2570/201/20/
046940/20130218/95614/2570/200/20/
046940/20130218/95618/2570/599/20/
046940/20130218/95626/2570/402/10/
046940/20130218/95642/2570/1000/20/
046940/20130218/95648/2570/100/20/
046940/20130218/95649/2570/176/20/
046940/20130218/95703/2575/157/20/
046940/20130218/95751/2575/604/20/
046940/20130218/95801/2575/470/10/
046940/20130218/95818/2575/200/10/
046940/20130218/95830/2570/3162/10/
046940/20130218/95830/2565/838/10/
046940/20130218/95854/2565/2043/10/
046940/20130218/95906/2565/530/10/
046940/20130218/95934/2565/801/10/
046940/20130218/95935/2565/534/10/
046940/20130218/95947/2565/780/10/
046940/20130218/100011/2565/171/10/
046940/20130218/100011/2560/2159/10/
046940/20130218/100025/2560/181/10/
046940/20130218/100105/2560/739/10/
046940/20130218/100112/2560/1000/20/
046940/20130218/100118/2560/200/20/
046940/20130218/100136/2555/168/10/
046940/20130218/100242/2565/117/20/
046940/20130218/100314/2560/1337/10/
046940/20130218/100314/2555/3579/10/
046940/20130218/100316/2555/84/20/
046940/20130218/100318/2560/307/10/
046940/20130218/100339/2555/193/20/
046940/20130218/100419/2555/278/10/
046940/20130218/100419/2550/1723/10/
046940/20130218/100443/2555/201/10/
046940/20130218/100447/2550/500/10/
046940/20130218/100448/2555/304/20/
046940/20130218/100448/2560/696/20/
046940/20130218/100601/2555/1000/10/
046940/20130218/100625/2555/100/20/
046940/20130218/100625/2560/304/20/
046940/20130218/100628/2565/882/20/
046940/20130218/100839/2565/539/10/
046940/20130218/100842/2565/95/10/
046940/20130218/100845/2565/270/10/
046940/20130218/100910/2570/1571/20/
046940/20130218/100949/2575/881/20/
046940/20130218/100952/2575/119/20/
046940/20130218/100954/2575/146/20/
046940/20130218/101022/2580/147/20/
046940/20130218/101044/2585/201/20/
046940/20130218/101117/2585/100/20/
046940/20130218/101125/2585/150/20/
046940/20130218/101132/2590/1430/20/
046940/20130218/101136/2590/107/20/
046940/20130218/101147/2590/420/20/
046940/20130218/101158/2595/1500/20/
046940/20130218/101225/2595/84/20/
046940/20130218/101249/2595/99/20/
046940/20130218/101305/2595/150/20/
046940/20130218/101306/2595/90/20/
046940/20130218/101311/2595/181/10/
046940/20130218/101526/2590/322/10/
046940/20130218/101526/2585/184/10/
046940/20130218/101526/2570/353/10/
046940/20130218/101719/2580/1001/10/
046940/20130218/101823/2580/1801/10/
046940/20130218/101828/2580/226/10/
046940/20130218/101918/2580/1000/10/
046940/20130218/102103/2590/2572/20/
046940/20130218/102112/2590/733/20/
046940/20130218/102153/2590/86/10/
046940/20130218/102155/2590/500/10/
046940/20130218/102218/2590/1000/10/
046940/20130218/102230/2590/123/10/
046940/20130218/102314/2590/377/20/
046940/20130218/102335/2590/500/10/
046940/20130218/102421/2590/601/10/
046940/20130218/102757/2590/119/10/
046940/20130218/102824/2590/300/20/
046940/20130218/102924/2585/106/10/
046940/20130218/103010/2590/92/20/
046940/20130218/103529/2595/1503/20/
046940/20130218/103534/2595/1572/20/
046940/20130218/103605/2600/210/20/
046940/20130218/103605/2595/1000/10/
046940/20130218/103612/2595/105/10/
046940/20130218/103936/2595/740/10/
046940/20130218/104002/2595/203/20/
046940/20130218/104012/2590/700/10/
046940/20130218/104151/2590/380/10/
046940/20130218/104202/2590/100/10/
046940/20130218/104237/2590/1155/10/
046940/20130218/104334/2590/500/20/
046940/20130218/104447/2590/100/10/
046940/20130218/104637/2590/300/10/
046940/20130218/104655/2590/96/10/
046940/20130218/104657/2590/300/10/
046940/20130218/104943/2590/380/10/
046940/20130218/104958/2590/1000/10/
046940/20130218/105106/2590/449/10/
046940/20130218/105117/2590/550/10/
046940/20130218/105232/2590/500/10/
046940/20130218/105236/2590/500/10/
046940/20130218/105245/2590/109/20/
046940/20130218/105319/2585/4269/10/
046940/20130218/105319/2580/3731/10/
046940/20130218/105348/2585/1000/20/
046940/20130218/105451/2585/540/20/
046940/20130218/105457/2585/341/20/
046940/20130218/105501/2585/404/20/
046940/20130218/105613/2580/550/10/
046940/20130218/105649/2580/1711/10/
046940/20130218/105649/2575/835/10/
046940/20130218/110037/2590/123/20/
046940/20130218/110145/2580/200/10/
046940/20130218/110320/2580/200/10/
046940/20130218/110531/2580/241/10/
046940/20130218/110738/2580/444/10/
046940/20130218/110812/2580/1473/10/
046940/20130218/111142/2585/105/10/
046940/20130218/111200/2580/2800/10/
046940/20130218/111206/2580/806/10/
046940/20130218/111227/2575/95/10/
046940/20130218/111404/2590/984/20/
046940/20130218/111441/2590/86/20/
046940/20130218/111503/2590/112/20/
046940/20130218/111503/2590/488/10/
046940/20130218/111603/2590/213/20/
046940/20130218/111709/2580/1690/10/
046940/20130218/111722/2580/500/20/
046940/20130218/111812/2575/200/10/
046940/20130218/111953/2575/100/10/
046940/20130218/112025/2575/2000/10/
046940/20130218/112218/2580/280/10/
046940/20130218/112218/2575/265/10/
046940/20130218/112230/2580/100/10/
046940/20130218/112230/2575/1295/10/
046940/20130218/113124/2585/299/20/
046940/20130218/113142/2580/669/10/
046940/20130218/113249/2580/357/20/
046940/20130218/113307/2580/262/20/
046940/20130218/113307/2585/1193/20/
046940/20130218/113608/2580/731/10/
046940/20130218/113614/2580/300/10/
046940/20130218/113637/2585/1000/20/
046940/20130218/113721/2585/1545/20/
046940/20130218/113721/2590/813/20/
046940/20130218/113734/2590/341/20/
046940/20130218/113747/2595/1723/20/
046940/20130218/113805/2595/458/10/
046940/20130218/113819/2595/807/10/
046940/20130218/113923/2590/162/10/
046940/20130218/113923/2590/641/10/
046940/20130218/114052/2580/390/10/
046940/20130218/114052/2575/3387/10/
046940/20130218/114427/2575/1703/10/
046940/20130218/114710/2575/1538/10/
046940/20130218/114710/2570/2512/10/
046940/20130218/114719/2570/1200/10/
046940/20130218/115134/2585/101/20/
046940/20130218/115512/2585/299/20/
046940/20130218/115930/2585/309/20/
046940/20130218/115932/2585/727/20/
046940/20130218/120109/2585/909/10/
046940/20130218/120109/2580/2491/10/
046940/20130218/120135/2590/1000/20/
046940/20130218/120811/2585/701/10/
046940/20130218/120811/2580/1520/10/
046940/20130218/120835/2580/1500/10/
046940/20130218/120901/2580/100/10/
046940/20130218/120914/2580/1000/10/
046940/20130218/120915/2580/234/10/
046940/20130218/120915/2575/5558/10/
046940/20130218/121048/2575/121/10/
046940/20130218/121425/2580/408/10/
046940/20130218/121710/2580/340/10/
046940/20130218/122127/2580/1000/10/
046940/20130218/122132/2580/313/10/
046940/20130218/122132/2575/787/10/
046940/20130218/122216/2575/3263/10/
046940/20130218/122216/2570/3717/10/
046940/20130218/122227/2570/3243/10/
046940/20130218/122227/2565/3757/10/
046940/20130218/122307/2565/489/10/
046940/20130218/122524/2570/100/10/
046940/20130218/122539/2565/4810/10/
046940/20130218/122539/2560/4107/10/
046940/20130218/122821/2560/785/10/
046940/20130218/122918/2560/501/10/
046940/20130218/123229/2575/100/20/
046940/20130218/123305/2565/82/10/
046940/20130218/123633/2580/1045/20/
046940/20130218/123758/2590/100/20/
046940/20130218/123949/2580/400/10/
046940/20130218/124027/2580/616/10/
046940/20130218/124027/2575/384/10/
046940/20130218/124051/2575/300/10/
046940/20130218/124501/2580/573/10/
046940/20130218/124511/2575/2000/10/
046940/20130218/124754/2575/137/10/
046940/20130218/125054/2580/170/20/
046940/20130218/125107/2580/200/20/
046940/20130218/125303/2575/558/10/
046940/20130218/125345/2575/130/10/
046940/20130218/125608/2580/277/20/
046940/20130218/125654/2580/200/20/
046940/20130218/125722/2580/690/20/
046940/20130218/125725/2580/137/10/
046940/20130218/125729/2580/200/10/
046940/20130218/125753/2580/373/10/
046940/20130218/125852/2580/100/20/
046940/20130218/130006/2575/388/10/
046940/20130218/130016/2575/118/10/
046940/20130218/130018/2575/298/10/
046940/20130218/130018/2570/2042/10/
046940/20130218/130038/2570/1000/10/
046940/20130218/130336/2570/418/10/
046940/20130218/130336/2565/4671/10/
046940/20130218/130350/2565/1397/20/
046940/20130218/130429/2585/991/20/
046940/20130218/131316/2580/169/10/
046940/20130218/131433/2575/101/10/
046940/20130218/131456/2570/101/10/
046940/20130218/131520/2570/149/20/
046940/20130218/131718/2580/510/20/
046940/20130218/131759/2580/115/20/
046940/20130218/131905/2580/105/20/
046940/20130218/132036/2580/1299/20/
046940/20130218/132119/2590/210/20/
046940/20130218/132158/2590/200/20/
046940/20130218/132238/2580/500/10/
046940/20130218/132307/2580/2002/10/
046940/20130218/132336/2570/1993/10/
046940/20130218/132343/2565/1415/10/
046940/20130218/133006/2570/151/10/
046940/20130218/133031/2570/100/10/
046940/20130218/133047/2570/300/10/
046940/20130218/133228/2580/101/10/
046940/20130218/133615/2585/122/20/
046940/20130218/133702/2585/395/20/
046940/20130218/133739/2585/200/10/
046940/20130218/133758/2585/419/10/
046940/20130218/133814/2570/1455/10/
046940/20130218/134037/2570/2373/10/
046940/20130218/134219/2565/1927/10/
046940/20130218/134227/2565/337/10/
046940/20130218/134318/2565/500/10/
046940/20130218/134608/2565/100/10/
046940/20130218/134833/2565/715/10/
046940/20130218/134833/2560/285/10/
046940/20130218/134956/2560/250/10/
046940/20130218/135204/2570/130/20/
046940/20130218/135247/2575/83/20/
046940/20130218/135421/2570/711/10/
046940/20130218/135524/2570/474/20/
046940/20130218/135722/2565/124/10/
046940/20130218/140317/2570/105/20/
046940/20130218/140550/2570/170/20/
046940/20130218/140605/2570/1000/20/
046940/20130218/140751/2570/203/20/
046940/20130218/140914/2575/500/20/
046940/20130218/141006/2575/101/10/
046940/20130218/141124/2575/538/10/
046940/20130218/141128/2575/100/20/
046940/20130218/141137/2575/100/20/
046940/20130218/141159/2575/1005/20/
046940/20130218/141206/2575/100/20/
046940/20130218/141211/2575/100/20/
046940/20130218/141236/2575/170/20/
046940/20130218/141316/2575/200/20/
046940/20130218/141339/2580/570/20/
046940/20130218/141715/2580/586/20/
046940/20130218/142107/2580/175/10/
046940/20130218/142123/2580/100/10/
046940/20130218/142141/2580/100/10/
046940/20130218/142148/2580/400/10/
046940/20130218/142413/2580/201/10/
046940/20130218/142430/2575/901/10/
046940/20130218/142523/2575/103/10/
046940/20130218/142526/2575/2001/10/
046940/20130218/142526/2570/3344/10/
046940/20130218/142526/2565/2923/10/
046940/20130218/142526/2560/6372/10/
046940/20130218/142541/2555/277/10/
046940/20130218/142614/2555/753/10/
046940/20130218/142713/2560/1033/20/
046940/20130218/142809/2560/1106/20/
046940/20130218/142824/2560/801/20/
046940/20130218/142826/2560/210/20/
046940/20130218/142827/2560/200/20/
046940/20130218/142827/2560/100/20/
046940/20130218/142827/2560/180/20/
046940/20130218/142834/2560/251/20/
046940/20130218/142841/2560/1000/20/
046940/20130218/142842/2560/410/20/
046940/20130218/142927/2575/369/20/
046940/20130218/142928/2575/251/10/
046940/20130218/143004/2575/405/20/
046940/20130218/143005/2575/300/10/
046940/20130218/143007/2565/1159/10/
046940/20130218/143022/2565/144/10/
046940/20130218/143022/2560/89/10/
046940/20130218/143032/2560/2205/10/
046940/20130218/143032/2555/1796/10/
046940/20130218/143058/2570/101/20/
046940/20130218/143218/2570/199/20/
046940/20130218/143237/2575/301/20/
046940/20130218/143301/2570/100/10/
046940/20130218/143311/2570/104/10/
046940/20130218/143316/2570/270/10/
046940/20130218/143446/2570/101/20/
046940/20130218/143447/2565/400/10/
046940/20130218/143459/2565/153/10/
046940/20130218/143557/2565/601/10/
046940/20130218/143558/2565/147/10/
046940/20130218/143817/2565/180/10/
046940/20130218/143935/2565/113/10/
046940/20130218/143936/2565/465/10/
046940/20130218/143942/2565/100/10/
046940/20130218/144012/2570/2974/20/
046940/20130218/144120/2560/3999/10/
046940/20130218/144125/2560/82/10/
046940/20130218/144125/2555/4949/10/
046940/20130218/144125/2550/469/10/
046940/20130218/144210/2550/171/10/
046940/20130218/144243/2565/247/20/
046940/20130218/144243/2550/7834/10/
046940/20130218/144246/2550/500/20/
046940/20130218/144252/2550/1001/20/
046940/20130218/144253/2545/3828/10/
046940/20130218/144253/2540/1260/10/
046940/20130218/144253/2535/4823/10/
046940/20130218/144253/2530/1528/10/
046940/20130218/144253/2525/911/10/
046940/20130218/144253/2525/240/10/
046940/20130218/144417/2550/102/20/
046940/20130218/144426/2550/100/20/
046940/20130218/144428/2550/150/20/
046940/20130218/144436/2550/1000/20/
046940/20130218/144448/2550/120/20/
046940/20130218/144454/2540/300/10/
046940/20130218/144456/2535/2000/10/
046940/20130218/144508/2550/101/20/
046940/20130218/144517/2545/105/20/
046940/20130218/144525/2545/126/20/
046940/20130218/144530/2535/500/10/
046940/20130218/144534/2535/510/10/
046940/20130218/144534/2535/200/20/
046940/20130218/144541/2530/793/10/
046940/20130218/144541/2525/527/10/
046940/20130218/144549/2535/101/20/
046940/20130218/144603/2535/83/20/
046940/20130218/144612/2535/187/20/
046940/20130218/144629/2535/2100/10/
046940/20130218/144632/2535/201/10/
046940/20130218/144657/2540/1000/20/
046940/20130218/144657/2545/94/20/
046940/20130218/144701/2545/194/20/
046940/20130218/144710/2545/412/20/
046940/20130218/144718/2545/419/10/
046940/20130218/144718/2535/1583/10/
046940/20130218/144720/2550/110/20/
046940/20130218/144725/2550/820/20/
046940/20130218/144757/2540/585/10/
046940/20130218/144811/2540/381/10/
046940/20130218/144821/2540/168/10/
046940/20130218/144824/2540/500/10/
046940/20130218/144835/2540/1001/10/
046940/20130218/144852/2540/603/10/
046940/20130218/144857/2540/216/10/
046940/20130218/144900/2540/126/10/
046940/20130218/144902/2540/446/10/
046940/20130218/144903/2540/100/20/
046940/20130218/144911/2540/275/20/
046940/20130218/144925/2550/695/20/
046940/20130218/144935/2550/320/20/
046940/20130218/144936/2550/299/20/
046940/20130218/144942/2550/200/20/
046940/20130218/144944/2550/178/20/
046940/20130218/144946/2550/100/20/
046940/20130218/144948/2550/302/20/
046940/20130218/144951/2550/500/10/
046940/20130218/144957/2550/248/10/
046940/20130218/150000/2555/9609/10/
