046940/20130304/90000/2225/1305/10/
046940/20130304/90403/2225/88/10/
046940/20130304/90403/2210/1237/10/
046940/20130304/90403/2205/287/10/
046940/20130304/90646/2240/121/20/
046940/20130304/90650/2240/149/20/
046940/20130304/90650/2245/200/20/
046940/20130304/90650/2260/1100/20/
046940/20130304/90650/2260/1300/10/
046940/20130304/91149/2225/1007/10/
046940/20130304/91425/2225/542/10/
046940/20130304/91500/2215/1003/10/
046940/20130304/91500/2210/497/10/
046940/20130304/91506/2210/654/10/
046940/20130304/91506/2205/406/10/
046940/20130304/91536/2225/459/20/
046940/20130304/91736/2250/136/20/
046940/20130304/91742/2250/1000/20/
046940/20130304/92455/2250/134/20/
046940/20130304/92701/2230/195/10/
046940/20130304/93107/2225/178/10/
046940/20130304/93120/2225/1000/10/
046940/20130304/93527/2245/201/20/
046940/20130304/93610/2225/220/10/
046940/20130304/93610/2220/280/10/
046940/20130304/93949/2220/501/10/
046940/20130304/94258/2230/152/10/
046940/20130304/94548/2230/101/10/
046940/20130304/94548/2220/100/10/
046940/20130304/94906/2220/105/10/
046940/20130304/95049/2230/176/10/
046940/20130304/95049/2225/1325/10/
046940/20130304/95120/2225/100/10/
046940/20130304/95407/2225/435/10/
046940/20130304/95407/2220/1109/10/
046940/20130304/95410/2220/131/10/
046940/20130304/95410/2215/319/10/
046940/20130304/95532/2215/694/10/
046940/20130304/95532/2210/707/10/
046940/20130304/100306/2230/101/20/
046940/20130304/100652/2230/510/20/
046940/20130304/101129/2215/310/10/
046940/20130304/101543/2225/124/20/
046940/20130304/101543/2225/130/10/
046940/20130304/101659/2225/375/20/
046940/20130304/101749/2225/129/10/
046940/20130304/102227/2215/137/10/
046940/20130304/102519/2215/1147/10/
046940/20130304/102559/2215/641/10/
046940/20130304/102600/2215/786/10/
046940/20130304/102629/2215/1001/10/
046940/20130304/102629/2210/2000/10/
046940/20130304/102859/2210/3698/10/
046940/20130304/102909/2210/374/20/
046940/20130304/102954/2210/206/10/
046940/20130304/102954/2205/2473/10/
046940/20130304/103434/2220/102/20/
046940/20130304/103745/2210/393/10/
046940/20130304/104002/2210/1222/10/
046940/20130304/104443/2210/1001/10/
046940/20130304/105056/2215/601/10/
046940/20130304/105056/2215/1400/10/
046940/20130304/105130/2220/230/20/
046940/20130304/105334/2220/200/20/
046940/20130304/105924/2225/1033/20/
046940/20130304/110219/2215/1000/10/
046940/20130304/110300/2215/469/10/
046940/20130304/110505/2215/531/20/
046940/20130304/111026/2225/301/20/
046940/20130304/111115/2225/200/20/
046940/20130304/111704/2210/2293/10/
046940/20130304/112700/2215/2574/10/
046940/20130304/112700/2215/549/10/
046940/20130304/112740/2220/797/20/
046940/20130304/113437/2225/402/20/
046940/20130304/113626/2220/205/10/
046940/20130304/114124/2215/1000/10/
046940/20130304/114124/2210/2078/10/
046940/20130304/114345/2210/1926/10/
046940/20130304/114415/2205/110/10/
046940/20130304/114434/2205/500/10/
046940/20130304/114452/2205/170/10/
046940/20130304/114602/2210/1874/20/
046940/20130304/114858/2210/397/10/
046940/20130304/114920/2210/500/10/
046940/20130304/120003/2210/149/20/
046940/20130304/120733/2210/100/10/
046940/20130304/120733/2205/3280/10/
046940/20130304/120805/2200/5820/10/
046940/20130304/120806/2195/558/10/
046940/20130304/121339/2205/81/10/
046940/20130304/121339/2200/920/10/
046940/20130304/121728/2200/881/10/
046940/20130304/122734/2205/941/10/
046940/20130304/123131/2205/100/20/
046940/20130304/123420/2200/1552/10/
046940/20130304/123455/2200/1957/10/
046940/20130304/123455/2200/626/10/
046940/20130304/123852/2200/201/20/
046940/20130304/123940/2195/1732/10/
046940/20130304/123940/2190/5321/10/
046940/20130304/124002/2190/530/20/
046940/20130304/124131/2190/1611/10/
046940/20130304/124150/2185/1263/10/
046940/20130304/124205/2180/3838/10/
046940/20130304/124210/2175/151/10/
046940/20130304/124218/2180/162/20/
046940/20130304/124225/2180/338/10/
046940/20130304/124234/2180/109/20/
046940/20130304/124244/2180/173/10/
046940/20130304/124244/2175/1874/10/
046940/20130304/124244/2170/1861/10/
046940/20130304/124344/2185/100/20/
046940/20130304/124424/2185/310/20/
046940/20130304/124628/2190/272/20/
046940/20130304/124752/2195/101/20/
046940/20130304/124852/2195/100/20/
046940/20130304/124924/2185/2440/10/
046940/20130304/125847/2180/715/10/
046940/20130304/130223/2175/1986/10/
046940/20130304/130342/2170/116/10/
046940/20130304/130459/2170/2425/10/
046940/20130304/130500/2170/180/10/
046940/20130304/130508/2170/703/20/
046940/20130304/130609/2180/147/20/
046940/20130304/130805/2180/300/20/
046940/20130304/130815/2180/99/20/
046940/20130304/131129/2180/260/10/
046940/20130304/131438/2190/151/20/
046940/20130304/131445/2190/350/20/
046940/20130304/131638/2190/151/10/
046940/20130304/131919/2185/150/10/
046940/20130304/131958/2185/1500/20/
046940/20130304/132007/2185/200/20/
046940/20130304/132014/2185/100/20/
046940/20130304/132026/2185/150/20/
046940/20130304/132356/2190/515/20/
046940/20130304/132514/2190/538/20/
046940/20130304/132537/2195/310/20/
046940/20130304/132931/2200/301/20/
046940/20130304/133109/2190/1500/10/
046940/20130304/133143/2190/1457/10/
046940/20130304/133152/2180/544/10/
046940/20130304/133312/2180/1214/10/
046940/20130304/133312/2175/296/10/
046940/20130304/133551/2180/3001/10/
046940/20130304/135623/2180/1160/10/
046940/20130304/135645/2180/1343/10/
046940/20130304/135646/2180/100/20/
046940/20130304/135730/2180/200/20/
046940/20130304/140140/2190/1060/20/
046940/20130304/140221/2190/1001/10/
046940/20130304/140221/2190/2998/10/
046940/20130304/140349/2180/3614/10/
046940/20130304/140610/2180/1034/10/
046940/20130304/140626/2180/1001/10/
046940/20130304/140645/2180/1000/10/
046940/20130304/141229/2175/2066/10/
046940/20130304/141919/2175/172/10/
046940/20130304/141942/2170/1579/10/
046940/20130304/141942/2170/471/10/
046940/20130304/142226/2165/1009/10/
046940/20130304/142250/2165/250/10/
046940/20130304/142335/2170/100/10/
046940/20130304/142335/2165/900/10/
046940/20130304/142515/2165/667/10/
046940/20130304/142520/2160/1354/10/
046940/20130304/142520/2155/2282/10/
046940/20130304/142520/2150/3986/10/
046940/20130304/142550/2145/206/10/
046940/20130304/142604/2145/461/10/
046940/20130304/142613/2145/90/20/
046940/20130304/142614/2150/378/20/
046940/20130304/142621/2150/180/10/
046940/20130304/142709/2150/566/10/
046940/20130304/142732/2145/509/10/
046940/20130304/142734/2145/781/10/
046940/20130304/142734/2140/1219/10/
046940/20130304/142739/2155/90/20/
046940/20130304/143117/2160/100/20/
046940/20130304/143247/2160/567/20/
046940/20130304/143321/2160/90/20/
046940/20130304/143357/2160/82/20/
046940/20130304/143413/2165/747/20/
046940/20130304/143419/2165/157/20/
046940/20130304/143505/2175/94/20/
046940/20130304/143544/2175/186/20/
046940/20130304/143550/2180/150/20/
046940/20130304/143841/2175/331/10/
046940/20130304/144135/2165/640/10/
046940/20130304/144425/2150/165/10/
046940/20130304/144429/2160/570/20/
046940/20130304/144429/2165/1600/20/
046940/20130304/144444/2165/100/20/
046940/20130304/144502/2165/220/20/
046940/20130304/144510/2165/180/20/
046940/20130304/144530/2170/148/20/
046940/20130304/144647/2150/2020/10/
046940/20130304/144728/2150/1710/10/
046940/20130304/144743/2145/200/10/
046940/20130304/144801/2165/230/20/
046940/20130304/144801/2175/120/20/
046940/20130304/150000/2150/4564/10/
