046940/20130104/90016/1815/246/10/
046940/20130104/90017/1815/127/10/
046940/20130104/90038/1810/1300/10/
046940/20130104/90201/1810/1250/20/
046940/20130104/90241/1810/1136/20/
046940/20130104/90302/1810/339/10/
046940/20130104/90353/1810/646/10/
046940/20130104/90359/1800/1005/10/
046940/20130104/90402/1800/300/10/
046940/20130104/90429/1800/354/10/
046940/20130104/90450/1800/556/10/
046940/20130104/90454/1800/262/10/
046940/20130104/90504/1790/1111/10/
046940/20130104/90505/1800/100/20/
046940/20130104/90506/1800/100/20/
046940/20130104/90506/1800/101/20/
046940/20130104/90507/1800/100/20/
046940/20130104/90507/1810/101/20/
046940/20130104/90508/1810/101/20/
046940/20130104/90510/1810/102/20/
046940/20130104/90513/1810/104/20/
046940/20130104/90519/1810/106/20/
046940/20130104/90521/1810/100/20/
046940/20130104/90600/1790/176/10/
046940/20130104/90610/1790/1985/10/
046940/20130104/90620/1785/1200/10/
046940/20130104/90629/1780/1001/10/
046940/20130104/90708/1785/952/20/
046940/20130104/90709/1780/1113/10/
046940/20130104/90743/1780/1203/10/
046940/20130104/90745/1780/600/10/
046940/20130104/90800/1780/109/10/
046940/20130104/90839/1775/431/10/
046940/20130104/90839/1775/450/10/
046940/20130104/90847/1780/508/10/
046940/20130104/90851/1780/500/10/
046940/20130104/90851/1775/300/10/
046940/20130104/90924/1775/227/10/
046940/20130104/90939/1775/304/20/
046940/20130104/90939/1780/580/20/
046940/20130104/90948/1780/183/10/
046940/20130104/91019/1770/1855/10/
046940/20130104/91052/1780/200/20/
046940/20130104/91107/1780/1420/20/
046940/20130104/91107/1780/595/20/
046940/20130104/91136/1790/3002/20/
046940/20130104/91454/1800/871/20/
046940/20130104/91658/1790/550/10/
046940/20130104/91917/1790/592/20/
046940/20130104/91942/1790/275/20/
046940/20130104/92002/1790/148/20/
046940/20130104/92020/1785/259/10/
046940/20130104/92020/1785/1452/10/
046940/20130104/92021/1785/1095/10/
046940/20130104/92040/1785/287/10/
046940/20130104/92043/1785/230/10/
046940/20130104/92043/1780/4000/10/
046940/20130104/92043/1775/1477/10/
046940/20130104/92059/1780/1059/10/
046940/20130104/92116/1775/606/10/
046940/20130104/92128/1780/501/20/
046940/20130104/92203/1775/485/10/
046940/20130104/92212/1775/510/20/
046940/20130104/92220/1775/388/20/
046940/20130104/92226/1775/1469/20/
046940/20130104/92232/1780/803/20/
046940/20130104/92251/1780/200/10/
046940/20130104/92302/1780/200/10/
046940/20130104/92333/1780/580/10/
046940/20130104/92350/1780/174/10/
046940/20130104/92402/1780/326/20/
046940/20130104/92808/1785/1009/10/
046940/20130104/92808/1780/2707/10/
046940/20130104/92808/1775/2553/10/
046940/20130104/92834/1770/1307/10/
046940/20130104/92901/1770/101/10/
046940/20130104/92901/1760/400/10/
046940/20130104/92902/1775/607/20/
046940/20130104/92913/1775/572/10/
046940/20130104/92953/1770/732/10/
046940/20130104/93006/1775/501/20/
046940/20130104/93017/1775/98/10/
046940/20130104/93037/1765/300/10/
046940/20130104/93212/1765/1294/10/
046940/20130104/93216/1760/1000/10/
046940/20130104/93224/1760/1702/10/
046940/20130104/93227/1760/467/10/
046940/20130104/93232/1760/1513/10/
046940/20130104/93307/1755/1157/10/
046940/20130104/93343/1760/103/20/
046940/20130104/93407/1760/109/20/
046940/20130104/93415/1760/1000/20/
046940/20130104/93423/1755/1672/10/
046940/20130104/93424/1760/783/20/
046940/20130104/93437/1765/500/20/
046940/20130104/93510/1765/500/10/
046940/20130104/93819/1765/558/10/
046940/20130104/93910/1770/100/20/
046940/20130104/94023/1765/2501/10/
046940/20130104/94023/1760/404/10/
046940/20130104/94108/1760/1380/10/
046940/20130104/94111/1760/700/10/
046940/20130104/94111/1760/908/10/
046940/20130104/94618/1765/713/20/
046940/20130104/94712/1765/109/20/
046940/20130104/94751/1765/180/20/
046940/20130104/94810/1765/411/10/
046940/20130104/94833/1765/168/20/
046940/20130104/95245/1770/4233/20/
046940/20130104/95312/1775/200/20/
046940/20130104/95459/1770/117/10/
046940/20130104/95555/1780/119/20/
046940/20130104/95616/1780/1002/20/
046940/20130104/95629/1780/847/20/
046940/20130104/95702/1780/318/20/
046940/20130104/95717/1780/506/10/
046940/20130104/95739/1780/412/10/
046940/20130104/95927/1780/288/10/
046940/20130104/95927/1775/499/10/
046940/20130104/95927/1770/2147/10/
046940/20130104/100017/1785/84/20/
046940/20130104/100019/1785/914/20/
046940/20130104/100019/1790/127/20/
046940/20130104/100022/1790/81/20/
046940/20130104/100024/1790/88/20/
046940/20130104/100026/1790/81/20/
046940/20130104/100028/1790/82/20/
046940/20130104/100030/1790/81/20/
046940/20130104/100033/1790/82/20/
046940/20130104/100035/1790/82/20/
046940/20130104/100037/1775/81/10/
046940/20130104/100040/1790/82/20/
046940/20130104/100042/1790/81/20/
046940/20130104/100043/1790/1608/20/
046940/20130104/100045/1790/86/20/
046940/20130104/100047/1790/271/20/
046940/20130104/100049/1790/83/20/
046940/20130104/100051/1790/82/20/
046940/20130104/100054/1790/85/20/
046940/20130104/100054/1790/1644/20/
046940/20130104/100056/1775/1786/10/
046940/20130104/100056/1770/994/10/
046940/20130104/100059/1790/333/20/
046940/20130104/100059/1800/263/20/
046940/20130104/100101/1800/82/20/
046940/20130104/100103/1800/83/20/
046940/20130104/100105/1800/82/20/
046940/20130104/100108/1800/83/20/
046940/20130104/100110/1800/89/20/
046940/20130104/100113/1800/81/20/
046940/20130104/100116/1800/91/20/
046940/20130104/100117/1775/1437/10/
046940/20130104/100119/1800/91/20/
046940/20130104/100122/1780/81/10/
046940/20130104/100127/1795/81/20/
046940/20130104/100130/1795/88/20/
046940/20130104/100133/1795/81/20/
046940/20130104/100135/1795/90/20/
046940/20130104/100138/1795/81/20/
046940/20130104/100141/1795/82/20/
046940/20130104/100144/1795/90/20/
046940/20130104/100146/1795/90/20/
046940/20130104/100149/1795/82/20/
046940/20130104/100151/1795/81/20/
046940/20130104/100154/1795/82/20/
046940/20130104/100156/1785/81/10/
046940/20130104/100159/1785/81/10/
046940/20130104/100202/1790/82/20/
046940/20130104/100205/1790/91/20/
046940/20130104/100207/1790/83/20/
046940/20130104/100210/1790/82/20/
046940/20130104/100212/1790/83/20/
046940/20130104/100215/1790/84/20/
046940/20130104/100217/1790/84/20/
046940/20130104/100220/1790/81/20/
046940/20130104/100225/1790/82/20/
046940/20130104/100229/1790/87/20/
046940/20130104/100231/1795/84/20/
046940/20130104/100233/1795/84/20/
046940/20130104/100238/1790/81/20/
046940/20130104/100245/1785/81/10/
046940/20130104/100250/1790/4441/20/
046940/20130104/100250/1795/1125/20/
046940/20130104/100250/1800/3499/20/
046940/20130104/100257/1785/81/10/
046940/20130104/100303/1790/81/10/
046940/20130104/100309/1795/81/20/
046940/20130104/100313/1785/1550/10/
046940/20130104/100321/1795/82/20/
046940/20130104/100329/1795/81/20/
046940/20130104/100339/1785/81/10/
046940/20130104/100348/1785/289/10/
046940/20130104/100348/1780/859/10/
046940/20130104/100352/1780/398/10/
046940/20130104/100352/1775/1715/10/
046940/20130104/100353/1770/310/10/
046940/20130104/100353/1765/1190/10/
046940/20130104/100403/1765/516/10/
046940/20130104/100513/1775/310/20/
046940/20130104/100521/1775/1013/20/
046940/20130104/100521/1775/726/20/
046940/20130104/100832/1785/100/20/
046940/20130104/101024/1790/101/20/
046940/20130104/101321/1785/129/20/
046940/20130104/101343/1780/398/10/
046940/20130104/101407/1775/104/10/
046940/20130104/101857/1775/2904/10/
046940/20130104/101934/1775/750/20/
046940/20130104/101945/1775/102/20/
046940/20130104/102008/1775/255/20/
046940/20130104/102014/1775/250/10/
046940/20130104/102442/1775/211/10/
046940/20130104/102442/1770/4853/10/
046940/20130104/102837/1770/2778/10/
046940/20130104/103427/1770/660/10/
046940/20130104/103427/1765/2527/10/
046940/20130104/103750/1765/504/10/
046940/20130104/104045/1765/328/10/
046940/20130104/104056/1760/2769/10/
046940/20130104/104128/1760/200/10/
046940/20130104/104142/1760/106/10/
046940/20130104/104144/1760/87/20/
046940/20130104/104818/1780/100/20/
046940/20130104/104841/1780/171/10/
046940/20130104/105938/1785/84/20/
046940/20130104/110027/1765/234/10/
046940/20130104/110047/1765/100/10/
046940/20130104/110612/1765/710/10/
046940/20130104/110654/1765/1000/20/
046940/20130104/110654/1765/863/20/
046940/20130104/110703/1765/500/20/
046940/20130104/110733/1765/81/20/
046940/20130104/112142/1760/1521/10/
046940/20130104/112232/1765/105/10/
046940/20130104/112307/1765/201/20/
046940/20130104/113824/1770/90/20/
046940/20130104/113957/1765/1474/10/
046940/20130104/113957/1760/4109/10/
046940/20130104/114004/1760/91/20/
046940/20130104/114033/1760/300/20/
046940/20130104/114746/1760/138/10/
046940/20130104/115003/1760/100/10/
046940/20130104/115849/1765/82/10/
046940/20130104/120031/1765/235/10/
046940/20130104/120031/1760/1100/10/
046940/20130104/120031/1755/1865/10/
046940/20130104/120217/1755/402/10/
046940/20130104/120615/1760/1505/10/
046940/20130104/120639/1760/1496/10/
046940/20130104/120709/1760/82/10/
046940/20130104/120712/1760/400/10/
046940/20130104/120953/1755/581/10/
046940/20130104/121148/1760/200/10/
046940/20130104/121218/1760/499/10/
046940/20130104/121708/1760/260/20/
046940/20130104/121819/1760/654/20/
046940/20130104/121843/1760/387/20/
046940/20130104/122026/1760/119/10/
046940/20130104/122454/1760/94/10/
046940/20130104/123427/1755/1061/10/
046940/20130104/123501/1755/2000/10/
046940/20130104/123716/1755/1000/10/
046940/20130104/124358/1755/1313/10/
046940/20130104/124358/1750/2147/10/
046940/20130104/124358/1745/2741/10/
046940/20130104/125205/1750/737/10/
046940/20130104/125431/1750/1757/10/
046940/20130104/125603/1750/1227/10/
046940/20130104/125652/1750/283/10/
046940/20130104/130058/1750/160/10/
046940/20130104/130302/1755/101/20/
046940/20130104/130500/1760/200/20/
046940/20130104/130652/1750/102/10/
046940/20130104/130953/1750/98/10/
046940/20130104/131005/1750/400/10/
046940/20130104/131520/1750/390/10/
046940/20130104/131552/1750/540/10/
046940/20130104/131838/1750/199/10/
046940/20130104/131847/1750/654/10/
046940/20130104/132029/1750/500/10/
046940/20130104/132140/1750/200/10/
046940/20130104/133125/1750/735/10/
046940/20130104/133613/1755/211/20/
046940/20130104/133711/1755/1022/20/
046940/20130104/133908/1760/273/20/
046940/20130104/133917/1760/100/20/
046940/20130104/133938/1760/100/20/
046940/20130104/134013/1760/101/20/
046940/20130104/134019/1760/2069/20/
046940/20130104/134022/1760/1800/20/
046940/20130104/134036/1760/100/20/
046940/20130104/134154/1760/180/20/
046940/20130104/134350/1765/496/20/
046940/20130104/134632/1765/102/20/
046940/20130104/134659/1765/85/20/
046940/20130104/134707/1765/1382/20/
046940/20130104/134955/1765/1001/20/
046940/20130104/135100/1765/102/20/
046940/20130104/135106/1765/130/20/
046940/20130104/135818/1765/87/20/
046940/20130104/140026/1770/1016/20/
046940/20130104/140108/1770/500/20/
046940/20130104/140142/1770/100/20/
046940/20130104/140254/1770/108/20/
046940/20130104/141259/1775/1067/20/
046940/20130104/141604/1775/1148/20/
046940/20130104/141654/1775/329/10/
046940/20130104/141926/1765/274/10/
046940/20130104/142030/1765/300/10/
046940/20130104/142200/1775/1100/20/
046940/20130104/142513/1775/1049/20/
046940/20130104/142757/1775/239/20/
046940/20130104/142828/1775/820/20/
046940/20130104/143512/1770/211/10/
046940/20130104/143512/1760/2317/10/
046940/20130104/143538/1760/500/10/
046940/20130104/143918/1775/101/20/
046940/20130104/144217/1775/207/20/
046940/20130104/144249/1770/300/10/
046940/20130104/144319/1760/150/10/
046940/20130104/144730/1770/201/20/
046940/20130104/144735/1765/200/10/
046940/20130104/144824/1765/91/10/
046940/20130104/144900/1765/315/20/
046940/20130104/144956/1765/453/10/
046940/20130104/150000/1765/2501/10/
