046940/20130207/90000/2430/2001/20/
046940/20130207/90008/2420/500/10/
046940/20130207/90039/2410/230/10/
046940/20130207/90044/2410/4200/10/
046940/20130207/90046/2410/443/10/
046940/20130207/90048/2410/487/10/
046940/20130207/90054/2405/500/10/
046940/20130207/90103/2405/177/10/
046940/20130207/90113/2405/2063/10/
046940/20130207/90115/2405/796/10/
046940/20130207/90118/2405/100/10/
046940/20130207/90123/2405/100/10/
046940/20130207/90131/2405/385/10/
046940/20130207/90226/2405/83/10/
046940/20130207/90255/2410/81/20/
046940/20130207/90257/2405/587/10/
046940/20130207/90347/2405/400/20/
046940/20130207/90454/2400/450/20/
046940/20130207/90454/2405/319/20/
046940/20130207/90536/2405/500/20/
046940/20130207/90538/2405/100/20/
046940/20130207/90557/2400/3000/10/
046940/20130207/90629/2400/1200/10/
046940/20130207/90632/2400/1044/10/
046940/20130207/90646/2405/345/20/
046940/20130207/90704/2405/100/10/
046940/20130207/90708/2405/555/10/
046940/20130207/90711/2405/255/20/
046940/20130207/90711/2410/745/20/
046940/20130207/90718/2400/500/10/
046940/20130207/90757/2400/653/10/
046940/20130207/90810/2400/200/10/
046940/20130207/90810/2410/412/20/
046940/20130207/90819/2410/198/10/
046940/20130207/90823/2405/100/10/
046940/20130207/90841/2410/112/20/
046940/20130207/90859/2410/256/10/
046940/20130207/90919/2430/201/20/
046940/20130207/91022/2430/226/20/
046940/20130207/91130/2430/1049/20/
046940/20130207/91140/2420/701/10/
046940/20130207/91140/2415/310/10/
046940/20130207/91153/2420/2000/10/
046940/20130207/91153/2415/350/10/
046940/20130207/91305/2425/100/20/
046940/20130207/91336/2430/3306/20/
046940/20130207/91342/2430/86/20/
046940/20130207/91343/2430/200/20/
046940/20130207/91353/2430/577/20/
046940/20130207/91354/2430/423/10/
046940/20130207/91402/2435/860/20/
046940/20130207/91402/2440/141/20/
046940/20130207/91411/2440/829/20/
046940/20130207/91411/2445/171/20/
046940/20130207/91412/2445/100/20/
046940/20130207/91417/2445/250/20/
046940/20130207/91419/2445/1235/20/
046940/20130207/91432/2445/83/20/
046940/20130207/91432/2450/3582/20/
046940/20130207/91432/2450/1335/10/
046940/20130207/91450/2445/1001/20/
046940/20130207/91509/2445/86/20/
046940/20130207/91517/2450/272/20/
046940/20130207/91517/2455/792/20/
046940/20130207/91550/2445/178/10/
046940/20130207/91605/2435/500/10/
046940/20130207/91608/2430/100/10/
046940/20130207/91624/2430/338/10/
046940/20130207/91633/2430/100/10/
046940/20130207/91707/2430/2050/10/
046940/20130207/91715/2430/842/10/
046940/20130207/91720/2430/500/10/
046940/20130207/91728/2430/300/10/
046940/20130207/91740/2430/94/10/
046940/20130207/91815/2425/1000/10/
046940/20130207/92024/2425/628/10/
046940/20130207/92103/2430/2325/20/
046940/20130207/92237/2440/212/20/
046940/20130207/92312/2440/100/20/
046940/20130207/92316/2445/538/20/
046940/20130207/92317/2440/162/10/
046940/20130207/92324/2440/2004/20/
046940/20130207/92339/2440/450/10/
046940/20130207/92341/2440/700/10/
046940/20130207/92402/2440/119/10/
046940/20130207/92414/2440/250/10/
046940/20130207/92422/2440/250/10/
046940/20130207/92440/2445/578/20/
046940/20130207/92440/2450/432/20/
046940/20130207/92502/2445/100/10/
046940/20130207/92535/2445/816/10/
046940/20130207/92535/2450/1696/20/
046940/20130207/92536/2450/261/20/
046940/20130207/92545/2450/799/10/
046940/20130207/92548/2450/253/20/
046940/20130207/92611/2455/187/20/
046940/20130207/92615/2455/600/20/
046940/20130207/92615/2455/631/20/
046940/20130207/92621/2460/903/20/
046940/20130207/92624/2460/249/20/
046940/20130207/92628/2460/389/20/
046940/20130207/92629/2460/431/20/
046940/20130207/92640/2465/808/20/
046940/20130207/92644/2465/126/20/
046940/20130207/92647/2465/200/20/
046940/20130207/92649/2465/586/20/
046940/20130207/92650/2465/414/10/
046940/20130207/92651/2465/204/20/
046940/20130207/92658/2460/96/10/
046940/20130207/92710/2460/288/20/
046940/20130207/92715/2460/133/20/
046940/20130207/92721/2460/413/10/
046940/20130207/92726/2460/2028/10/
046940/20130207/92726/2465/3335/20/
046940/20130207/92726/2470/2665/20/
046940/20130207/92728/2470/3003/20/
046940/20130207/92731/2470/305/20/
046940/20130207/92734/2470/2005/20/
046940/20130207/92735/2470/381/20/
046940/20130207/92737/2470/1003/10/
046940/20130207/92743/2475/413/20/
046940/20130207/92745/2475/103/20/
046940/20130207/92749/2475/2841/20/
046940/20130207/92749/2480/2400/20/
046940/20130207/92757/2485/523/20/
046940/20130207/92802/2485/1009/20/
046940/20130207/92802/2485/313/20/
046940/20130207/92811/2485/1074/20/
046940/20130207/92827/2470/491/10/
046940/20130207/92843/2470/100/20/
046940/20130207/92846/2470/297/10/
046940/20130207/92852/2475/1177/20/
046940/20130207/92853/2480/500/20/
046940/20130207/92856/2475/100/10/
046940/20130207/92904/2480/130/20/
046940/20130207/92905/2480/370/20/
046940/20130207/92908/2480/1029/10/
046940/20130207/92912/2480/1482/20/
046940/20130207/92919/2480/3259/20/
046940/20130207/92925/2480/502/10/
046940/20130207/92927/2485/3712/20/
046940/20130207/92927/2490/1156/20/
046940/20130207/92929/2490/451/20/
046940/20130207/92930/2480/1315/10/
046940/20130207/92939/2490/230/20/
046940/20130207/92942/2490/1001/20/
046940/20130207/92951/2490/1900/20/
046940/20130207/92951/2495/2064/20/
046940/20130207/92954/2495/1155/20/
046940/20130207/92956/2485/213/10/
046940/20130207/93000/2485/290/20/
046940/20130207/93008/2490/352/20/
046940/20130207/93011/2485/134/10/
046940/20130207/93011/2490/742/20/
046940/20130207/93013/2495/1319/20/
046940/20130207/93020/2490/301/10/
046940/20130207/93021/2490/100/10/
046940/20130207/93023/2495/1800/20/
046940/20130207/93026/2490/926/10/
046940/20130207/93027/2490/858/10/
046940/20130207/93029/2495/95/20/
046940/20130207/93036/2490/217/20/
046940/20130207/93039/2490/132/10/
046940/20130207/93042/2490/522/10/
046940/20130207/93043/2495/4167/10/
046940/20130207/93043/2500/2232/20/
046940/20130207/93046/2500/1034/20/
046940/20130207/93052/2495/89/20/
046940/20130207/93056/2495/211/20/
046940/20130207/93058/2500/329/20/
046940/20130207/93059/2500/7155/20/
046940/20130207/93059/2495/100/10/
046940/20130207/93101/2500/4016/20/
046940/20130207/93101/2500/3001/20/
046940/20130207/93102/2500/1944/20/
046940/20130207/93102/2500/2022/20/
046940/20130207/93102/2500/140/20/
046940/20130207/93103/2500/204/20/
046940/20130207/93103/2500/3000/20/
046940/20130207/93103/2500/140/20/
046940/20130207/93104/2500/1614/20/
046940/20130207/93104/2500/2000/20/
046940/20130207/93104/2500/821/20/
046940/20130207/93104/2505/400/20/
046940/20130207/93108/2505/144/20/
046940/20130207/93110/2505/1637/20/
046940/20130207/93110/2510/1705/20/
046940/20130207/93117/2505/523/20/
046940/20130207/93117/2505/315/20/
046940/20130207/93126/2500/3031/10/
046940/20130207/93127/2505/90/20/
046940/20130207/93127/2500/354/10/
046940/20130207/93129/2495/400/10/
046940/20130207/93131/2495/203/10/
046940/20130207/93133/2495/124/10/
046940/20130207/93149/2490/285/10/
046940/20130207/93202/2475/670/10/
046940/20130207/93202/2470/331/10/
046940/20130207/93209/2470/200/10/
046940/20130207/93245/2470/2621/10/
046940/20130207/93301/2470/210/10/
046940/20130207/93313/2480/99/20/
046940/20130207/93320/2480/96/10/
046940/20130207/93326/2480/202/10/
046940/20130207/93326/2470/799/10/
046940/20130207/93336/2485/149/20/
046940/20130207/93358/2480/200/20/
046940/20130207/93359/2480/408/10/
046940/20130207/93434/2470/606/10/
046940/20130207/93441/2465/83/10/
046940/20130207/93445/2465/652/10/
046940/20130207/93450/2460/1000/10/
046940/20130207/93454/2460/97/10/
046940/20130207/93454/2455/120/10/
046940/20130207/93454/2450/283/10/
046940/20130207/93458/2450/801/10/
046940/20130207/93501/2445/100/10/
046940/20130207/93504/2445/150/10/
046940/20130207/93507/2445/221/10/
046940/20130207/93508/2445/1000/10/
046940/20130207/93527/2450/600/10/
046940/20130207/93602/2450/110/10/
046940/20130207/93608/2445/100/10/
046940/20130207/93608/2445/220/10/
046940/20130207/93624/2445/200/10/
046940/20130207/93634/2445/200/10/
046940/20130207/93654/2450/90/20/
046940/20130207/93738/2450/550/10/
046940/20130207/93743/2450/1370/10/
046940/20130207/93743/2445/86/10/
046940/20130207/93743/2440/544/10/
046940/20130207/93758/2440/174/10/
046940/20130207/93759/2450/150/20/
046940/20130207/93823/2440/1534/10/
046940/20130207/93854/2440/148/10/
046940/20130207/93917/2450/482/20/
046940/20130207/93927/2450/579/10/
046940/20130207/93937/2450/148/10/
046940/20130207/94017/2440/852/10/
046940/20130207/94111/2445/739/10/
046940/20130207/94124/2450/1599/20/
046940/20130207/94124/2455/299/20/
046940/20130207/94124/2460/2102/20/
046940/20130207/94205/2440/90/10/
046940/20130207/94214/2455/1100/20/
046940/20130207/94214/2460/894/20/
046940/20130207/94221/2460/1100/10/
046940/20130207/94537/2460/493/10/
046940/20130207/94547/2460/1149/10/
046940/20130207/94547/2445/1508/10/
046940/20130207/94547/2440/2881/10/
046940/20130207/94547/2440/6645/20/
046940/20130207/94659/2460/90/20/
046940/20130207/94732/2440/2001/10/
046940/20130207/94732/2440/999/20/
046940/20130207/94835/2440/100/20/
046940/20130207/94835/2440/510/20/
046940/20130207/94838/2435/868/10/
046940/20130207/94840/2435/200/10/
046940/20130207/94840/2435/2723/10/
046940/20130207/94910/2435/101/20/
046940/20130207/94922/2430/1042/10/
046940/20130207/95018/2430/3830/10/
046940/20130207/95018/2425/2596/10/
046940/20130207/95043/2425/1384/10/
046940/20130207/95049/2425/329/10/
046940/20130207/95053/2425/140/10/
046940/20130207/95114/2425/114/10/
046940/20130207/95313/2445/134/20/
046940/20130207/95353/2445/444/20/
046940/20130207/95403/2445/2000/10/
046940/20130207/95403/2445/556/10/
046940/20130207/95700/2440/1350/10/
046940/20130207/95711/2440/1030/20/
046940/20130207/95736/2440/500/20/
046940/20130207/95741/2440/272/20/
046940/20130207/95805/2445/200/10/
046940/20130207/95810/2445/811/20/
046940/20130207/95812/2450/1000/20/
046940/20130207/95822/2450/500/20/
046940/20130207/95837/2455/244/20/
046940/20130207/95920/2460/1032/20/
046940/20130207/95926/2455/100/20/
046940/20130207/95949/2460/283/20/
046940/20130207/100008/2460/496/10/
046940/20130207/100014/2460/85/20/
046940/20130207/100016/2460/448/20/
046940/20130207/100017/2460/137/20/
046940/20130207/100021/2460/863/20/
046940/20130207/100030/2465/500/20/
046940/20130207/100040/2465/218/20/
046940/20130207/100040/2470/185/20/
046940/20130207/100056/2470/357/20/
046940/20130207/100108/2470/279/20/
046940/20130207/100121/2470/732/20/
046940/20130207/100145/2470/244/10/
046940/20130207/100149/2470/270/10/
046940/20130207/100150/2470/504/20/
046940/20130207/100208/2470/1081/10/
046940/20130207/100210/2470/500/10/
046940/20130207/100212/2470/100/10/
046940/20130207/100212/2470/250/10/
046940/20130207/100219/2470/150/10/
046940/20130207/100301/2475/102/20/
046940/20130207/100311/2475/864/20/
046940/20130207/100313/2475/247/20/
046940/20130207/100315/2480/1775/20/
046940/20130207/100321/2480/183/20/
046940/20130207/100327/2480/164/20/
046940/20130207/100357/2475/280/10/
046940/20130207/100357/2470/1261/10/
046940/20130207/100430/2470/183/10/
046940/20130207/100430/2475/238/20/
046940/20130207/100437/2475/150/20/
046940/20130207/100442/2475/100/20/
046940/20130207/100448/2475/550/20/
046940/20130207/100453/2475/733/20/
046940/20130207/100501/2480/100/20/
046940/20130207/100508/2475/190/10/
046940/20130207/100538/2475/2691/10/
046940/20130207/100540/2475/348/10/
046940/20130207/100556/2475/218/10/
046940/20130207/100608/2475/92/20/
046940/20130207/100623/2470/210/10/
046940/20130207/100626/2465/500/10/
046940/20130207/100644/2465/500/10/
046940/20130207/100649/2465/4939/10/
046940/20130207/100722/2465/1061/10/
046940/20130207/100728/2465/1000/10/
046940/20130207/100728/2465/653/10/
046940/20130207/100730/2465/223/20/
046940/20130207/100810/2460/434/10/
046940/20130207/100814/2460/516/10/
046940/20130207/100844/2460/273/10/
046940/20130207/100944/2465/121/20/
046940/20130207/100949/2465/1000/20/
046940/20130207/100958/2465/1000/20/
046940/20130207/100958/2465/648/20/
046940/20130207/101012/2470/500/20/
046940/20130207/101013/2470/1601/20/
046940/20130207/101018/2470/515/10/
046940/20130207/101021/2475/200/20/
046940/20130207/101023/2475/303/20/
046940/20130207/101027/2475/272/20/
046940/20130207/101038/2480/99/20/
046940/20130207/101053/2480/81/20/
046940/20130207/101056/2480/598/20/
046940/20130207/101100/2480/81/20/
046940/20130207/101100/2480/898/20/
046940/20130207/101102/2480/115/10/
046940/20130207/101105/2485/88/20/
046940/20130207/101111/2480/150/10/
046940/20130207/101122/2485/425/20/
046940/20130207/101124/2485/89/20/
046940/20130207/101132/2485/320/20/
046940/20130207/101136/2485/115/20/
046940/20130207/101137/2480/300/10/
046940/20130207/101141/2480/130/20/
046940/20130207/101143/2480/3000/20/
046940/20130207/101149/2475/252/20/
046940/20130207/101150/2480/251/20/
046940/20130207/101157/2480/1317/20/
046940/20130207/101200/2485/215/20/
046940/20130207/101201/2485/90/20/
046940/20130207/101201/2480/490/10/
046940/20130207/101203/2485/165/20/
046940/20130207/101207/2480/328/10/
046940/20130207/101208/2485/200/20/
046940/20130207/101224/2485/90/20/
046940/20130207/101231/2475/1315/10/
046940/20130207/101238/2480/5000/20/
046940/20130207/101249/2475/1319/10/
046940/20130207/101323/2480/120/20/
046940/20130207/101330/2475/980/10/
046940/20130207/101330/2470/2701/10/
046940/20130207/101330/2465/1195/10/
046940/20130207/101418/2475/192/20/
046940/20130207/101438/2475/1012/20/
046940/20130207/101554/2470/170/10/
046940/20130207/101613/2470/1526/10/
046940/20130207/101624/2470/220/10/
046940/20130207/101625/2470/1000/10/
046940/20130207/101723/2470/153/10/
046940/20130207/101724/2470/1646/10/
046940/20130207/101741/2470/500/10/
046940/20130207/101742/2470/1030/10/
046940/20130207/101756/2470/258/10/
046940/20130207/101756/2465/100/10/
046940/20130207/101839/2465/3332/10/
046940/20130207/101839/2460/282/10/
046940/20130207/101847/2475/200/20/
046940/20130207/102038/2460/1483/10/
046940/20130207/102047/2470/137/20/
046940/20130207/102113/2460/3821/10/
046940/20130207/102117/2455/1437/10/
046940/20130207/102117/2450/263/10/
046940/20130207/102156/2450/1602/10/
046940/20130207/102156/2445/490/10/
046940/20130207/102204/2445/122/10/
046940/20130207/102214/2445/88/10/
046940/20130207/102218/2445/109/20/
046940/20130207/102228/2445/784/10/
046940/20130207/102236/2445/150/10/
046940/20130207/102239/2440/1108/10/
046940/20130207/102239/2435/720/10/
046940/20130207/102239/2430/672/10/
046940/20130207/102333/2435/101/10/
046940/20130207/102333/2430/1220/10/
046940/20130207/102333/2425/521/10/
046940/20130207/102333/2420/1503/10/
046940/20130207/102338/2425/89/10/
046940/20130207/102338/2420/526/10/
046940/20130207/102515/2430/282/10/
046940/20130207/102633/2435/228/10/
046940/20130207/102633/2430/224/10/
046940/20130207/102826/2430/1042/10/
046940/20130207/102849/2440/100/20/
046940/20130207/102905/2440/200/10/
046940/20130207/102917/2440/110/20/
046940/20130207/102959/2440/615/20/
046940/20130207/103031/2450/1000/20/
046940/20130207/103107/2455/125/20/
046940/20130207/103123/2455/498/20/
046940/20130207/103125/2455/197/10/
046940/20130207/103133/2455/419/20/
046940/20130207/103133/2455/81/10/
046940/20130207/103333/2460/1033/20/
046940/20130207/103336/2460/229/20/
046940/20130207/103402/2460/1050/20/
046940/20130207/103436/2465/150/20/
046940/20130207/103501/2470/300/20/
046940/20130207/103543/2470/530/20/
046940/20130207/103557/2470/200/20/
046940/20130207/103602/2470/380/20/
046940/20130207/103602/2475/1007/20/
046940/20130207/103609/2480/100/20/
046940/20130207/103719/2470/500/20/
046940/20130207/103911/2465/131/10/
046940/20130207/103918/2460/107/10/
046940/20130207/103919/2460/100/10/
046940/20130207/103919/2460/100/10/
046940/20130207/104023/2460/721/10/
046940/20130207/104113/2450/639/10/
046940/20130207/104113/2440/876/10/
046940/20130207/104208/2440/1582/10/
046940/20130207/104234/2440/501/20/
046940/20130207/104242/2440/961/20/
046940/20130207/104503/2450/301/20/
046940/20130207/104659/2445/563/10/
046940/20130207/104837/2440/93/10/
046940/20130207/105058/2440/5430/10/
046940/20130207/105058/2435/4570/10/
046940/20130207/105303/2435/109/10/
046940/20130207/105328/2435/324/10/
046940/20130207/105328/2430/5195/10/
046940/20130207/105357/2430/357/10/
046940/20130207/105401/2430/677/10/
046940/20130207/105411/2430/1010/20/
046940/20130207/105411/2430/313/20/
046940/20130207/105411/2435/705/10/
046940/20130207/105424/2425/2623/10/
046940/20130207/105427/2425/500/10/
046940/20130207/105438/2425/1000/10/
046940/20130207/105438/2425/310/10/
046940/20130207/105450/2425/690/20/
046940/20130207/105504/2425/430/10/
046940/20130207/105504/2420/1192/10/
046940/20130207/105513/2420/230/20/
046940/20130207/105514/2420/100/20/
046940/20130207/105647/2425/118/10/
046940/20130207/105757/2430/170/10/
046940/20130207/105803/2430/500/10/
046940/20130207/105915/2430/136/10/
046940/20130207/105931/2425/464/10/
046940/20130207/105942/2425/527/10/
046940/20130207/105945/2425/415/10/
046940/20130207/105945/2425/1000/10/
046940/20130207/105945/2425/726/10/
046940/20130207/110116/2430/324/20/
046940/20130207/110123/2430/174/20/
046940/20130207/110222/2430/103/10/
046940/20130207/110222/2425/1701/10/
046940/20130207/110321/2430/200/20/
046940/20130207/110328/2430/100/10/
046940/20130207/110328/2425/2054/10/
046940/20130207/110328/2420/239/10/
046940/20130207/110344/2420/940/10/
046940/20130207/110519/2420/1000/10/
046940/20130207/110522/2420/598/10/
046940/20130207/110613/2420/1244/10/
046940/20130207/110620/2420/395/10/
046940/20130207/110626/2415/300/10/
046940/20130207/110802/2415/5020/10/
046940/20130207/110805/2415/1165/10/
046940/20130207/110856/2420/465/20/
046940/20130207/110920/2415/681/10/
046940/20130207/110920/2410/2369/10/
046940/20130207/111044/2415/95/20/
046940/20130207/111047/2410/121/10/
046940/20130207/111214/2415/334/10/
046940/20130207/111214/2420/200/20/
046940/20130207/111253/2415/105/10/
046940/20130207/111404/2430/1024/20/
046940/20130207/111529/2430/1026/20/
046940/20130207/111535/2430/500/20/
046940/20130207/111658/2425/501/10/
046940/20130207/111807/2430/125/20/
046940/20130207/111828/2425/1121/10/
046940/20130207/111828/2420/1002/10/
046940/20130207/111828/2415/1807/10/
046940/20130207/112155/2420/157/10/
046940/20130207/112155/2415/288/10/
046940/20130207/112155/2410/1584/10/
046940/20130207/112221/2410/1150/10/
046940/20130207/112329/2410/261/10/
046940/20130207/112536/2430/211/20/
046940/20130207/112949/2420/227/10/
046940/20130207/113031/2425/222/10/
046940/20130207/113039/2425/325/10/
046940/20130207/113123/2425/131/10/
046940/20130207/113139/2425/402/20/
046940/20130207/113445/2415/259/10/
046940/20130207/113445/2410/871/10/
046940/20130207/113529/2410/305/10/
046940/20130207/113544/2410/191/10/
046940/20130207/113544/2405/659/10/
046940/20130207/113546/2405/3346/10/
046940/20130207/113546/2400/662/10/
046940/20130207/113609/2400/1295/10/
046940/20130207/113709/2400/751/10/
046940/20130207/113809/2400/541/10/
046940/20130207/113952/2400/84/10/
046940/20130207/114006/2400/84/10/
046940/20130207/114127/2400/502/10/
046940/20130207/114157/2400/1000/10/
046940/20130207/114220/2400/126/10/
046940/20130207/114311/2400/199/20/
046940/20130207/114322/2400/401/20/
046940/20130207/114331/2400/1000/20/
046940/20130207/114333/2400/151/20/
046940/20130207/114339/2400/100/20/
046940/20130207/114449/2405/259/10/
046940/20130207/114449/2400/2629/10/
046940/20130207/114449/2395/2219/10/
046940/20130207/114449/2390/3210/10/
046940/20130207/114449/2385/1742/10/
046940/20130207/114450/2395/200/20/
046940/20130207/114453/2385/600/10/
046940/20130207/114515/2395/300/20/
046940/20130207/114530/2395/81/20/
046940/20130207/114649/2405/1011/20/
046940/20130207/114846/2410/955/20/
046940/20130207/114915/2405/201/10/
046940/20130207/114932/2410/241/20/
046940/20130207/115031/2400/551/10/
046940/20130207/115113/2410/235/20/
046940/20130207/115554/2410/994/20/
046940/20130207/115646/2410/81/20/
046940/20130207/115810/2405/477/10/
046940/20130207/115816/2410/676/20/
046940/20130207/115833/2410/303/10/
046940/20130207/115851/2415/1637/20/
046940/20130207/115900/2415/130/10/
046940/20130207/115917/2420/680/20/
046940/20130207/115919/2420/241/10/
046940/20130207/120300/2410/96/10/
046940/20130207/121018/2405/154/10/
046940/20130207/121018/2400/249/10/
046940/20130207/121214/2415/979/20/
046940/20130207/121506/2420/87/10/
046940/20130207/121519/2425/181/20/
046940/20130207/121528/2430/2001/20/
046940/20130207/121743/2425/353/10/
046940/20130207/121755/2425/180/20/
046940/20130207/121900/2430/1543/10/
046940/20130207/122303/2425/154/10/
046940/20130207/122313/2425/201/10/
046940/20130207/122432/2430/465/20/
046940/20130207/122517/2430/84/20/
046940/20130207/122543/2425/894/10/
046940/20130207/122554/2425/269/10/
046940/20130207/122722/2425/108/20/
046940/20130207/122836/2425/90/10/
046940/20130207/122851/2430/124/20/
046940/20130207/123432/2430/523/10/
046940/20130207/123432/2425/1309/10/
046940/20130207/123506/2425/817/10/
046940/20130207/123506/2420/2325/10/
046940/20130207/123732/2420/586/10/
046940/20130207/124259/2420/398/10/
046940/20130207/124259/2415/135/10/
046940/20130207/124433/2415/469/10/
046940/20130207/124750/2425/104/20/
046940/20130207/125145/2410/719/10/
046940/20130207/125145/2405/1648/10/
046940/20130207/130109/2415/81/10/
046940/20130207/130109/2410/300/10/
046940/20130207/130143/2410/166/10/
046940/20130207/130150/2410/905/10/
046940/20130207/130224/2415/84/10/
046940/20130207/130258/2425/901/20/
046940/20130207/130308/2415/228/10/
046940/20130207/130308/2410/2745/10/
046940/20130207/130308/2410/527/20/
046940/20130207/130356/2410/2450/10/
046940/20130207/130645/2415/736/20/
046940/20130207/130652/2420/82/20/
046940/20130207/130654/2425/84/20/
046940/20130207/130657/2425/82/20/
046940/20130207/130659/2425/82/20/
046940/20130207/130701/2425/332/20/
046940/20130207/130702/2425/597/20/
046940/20130207/130708/2430/81/20/
046940/20130207/130712/2430/91/20/
046940/20130207/130712/2430/355/20/
046940/20130207/130715/2435/81/20/
046940/20130207/130718/2435/81/20/
046940/20130207/130719/2435/84/20/
046940/20130207/130721/2435/90/20/
046940/20130207/130722/2435/1004/20/
046940/20130207/130723/2435/181/20/
046940/20130207/130725/2440/83/20/
046940/20130207/130727/2440/81/20/
046940/20130207/130729/2435/81/10/
046940/20130207/130730/2440/92/20/
046940/20130207/130731/2440/276/20/
046940/20130207/130732/2440/272/20/
046940/20130207/130734/2440/81/20/
046940/20130207/130735/2440/327/20/
046940/20130207/130735/2440/127/20/
046940/20130207/130735/2440/517/20/
046940/20130207/130735/2445/1599/20/
046940/20130207/130735/2450/2201/20/
046940/20130207/130735/2455/976/20/
046940/20130207/130735/2460/1724/20/
046940/20130207/130737/2440/422/10/
046940/20130207/130739/2440/81/10/
046940/20130207/130741/2440/81/10/
046940/20130207/130743/2465/82/20/
046940/20130207/130745/2460/81/20/
046940/20130207/130747/2460/81/20/
046940/20130207/130749/2460/90/20/
046940/20130207/130751/2460/81/20/
046940/20130207/130754/2460/320/20/
046940/20130207/130754/2460/784/10/
046940/20130207/130756/2460/81/20/
046940/20130207/130759/2460/91/20/
046940/20130207/130801/2460/82/20/
046940/20130207/130803/2460/81/20/
046940/20130207/130804/2460/170/20/
046940/20130207/130806/2465/81/20/
046940/20130207/130809/2460/1715/10/
046940/20130207/130809/2460/1003/20/
046940/20130207/130811/2460/109/20/
046940/20130207/130811/2460/114/20/
046940/20130207/130811/2465/89/20/
046940/20130207/130815/2460/181/20/
046940/20130207/130821/2460/81/20/
046940/20130207/130827/2450/81/10/
046940/20130207/130829/2460/516/20/
046940/20130207/130834/2460/510/20/
046940/20130207/130840/2460/2587/20/
046940/20130207/130844/2460/533/20/
046940/20130207/130847/2460/425/20/
046940/20130207/130851/2455/706/10/
046940/20130207/130855/2455/447/10/
046940/20130207/130855/2450/2358/10/
046940/20130207/130901/2450/1007/10/
046940/20130207/130901/2450/2000/10/
046940/20130207/130902/2450/1698/10/
046940/20130207/130902/2450/1918/10/
046940/20130207/130904/2450/268/20/
046940/20130207/130957/2445/1527/10/
046940/20130207/131145/2445/322/10/
046940/20130207/131152/2445/898/10/
046940/20130207/131152/2440/443/10/
046940/20130207/131158/2440/1155/10/
046940/20130207/131159/2440/845/20/
046940/20130207/131219/2440/100/10/
046940/20130207/131312/2435/139/10/
046940/20130207/131323/2435/1668/10/
046940/20130207/131538/2425/264/10/
046940/20130207/131610/2425/324/10/
046940/20130207/131635/2425/287/10/
046940/20130207/131635/2420/1513/10/
046940/20130207/131635/2420/408/10/
046940/20130207/131646/2435/88/20/
046940/20130207/131648/2420/348/10/
046940/20130207/131648/2420/614/20/
046940/20130207/131904/2435/100/10/
046940/20130207/131905/2440/1000/20/
046940/20130207/132006/2450/448/20/
046940/20130207/132006/2455/396/20/
046940/20130207/132006/2460/1180/20/
046940/20130207/132006/2465/2843/20/
046940/20130207/132013/2435/106/10/
046940/20130207/132333/2460/252/20/
046940/20130207/132403/2460/203/20/
046940/20130207/132551/2430/93/10/
046940/20130207/132639/2430/683/10/
046940/20130207/133038/2440/212/20/
046940/20130207/133042/2440/229/20/
046940/20130207/133047/2440/100/20/
046940/20130207/133137/2440/200/20/
046940/20130207/133316/2440/501/20/
046940/20130207/133522/2435/165/10/
046940/20130207/133615/2435/439/10/
046940/20130207/133857/2435/255/10/
046940/20130207/133954/2435/243/20/
046940/20130207/134013/2435/166/10/
046940/20130207/134330/2435/941/10/
046940/20130207/134357/2430/100/10/
046940/20130207/134530/2430/1800/10/
046940/20130207/134551/2430/1315/10/
046940/20130207/134607/2430/1000/10/
046940/20130207/134608/2430/500/10/
046940/20130207/134636/2430/379/10/
046940/20130207/134705/2430/170/20/
046940/20130207/134805/2435/97/20/
046940/20130207/134852/2425/130/10/
046940/20130207/134917/2425/179/10/
046940/20130207/135006/2420/690/10/
046940/20130207/135149/2415/866/10/
046940/20130207/135149/2415/480/20/
046940/20130207/135324/2415/81/10/
046940/20130207/135327/2415/150/10/
046940/20130207/135705/2415/169/10/
046940/20130207/135955/2430/223/20/
046940/20130207/140019/2430/160/10/
046940/20130207/140221/2425/130/10/
046940/20130207/140221/2420/1100/10/
046940/20130207/140221/2415/1509/10/
046940/20130207/140221/2410/5143/10/
046940/20130207/140221/2405/2250/10/
046940/20130207/140721/2425/151/20/
046940/20130207/141110/2430/334/20/
046940/20130207/141110/2435/609/20/
046940/20130207/141110/2440/110/20/
046940/20130207/141110/2445/490/20/
046940/20130207/141110/2450/1947/20/
046940/20130207/141110/2450/673/20/
046940/20130207/141110/2455/778/20/
046940/20130207/141128/2450/215/20/
046940/20130207/141207/2450/350/20/
046940/20130207/141215/2450/127/20/
046940/20130207/141221/2450/130/20/
046940/20130207/141223/2450/208/20/
046940/20130207/141225/2450/292/10/
046940/20130207/141232/2450/95/20/
046940/20130207/141339/2430/241/10/
046940/20130207/141602/2435/121/10/
046940/20130207/141616/2430/216/10/
046940/20130207/141616/2425/1845/10/
046940/20130207/141636/2425/85/20/
046940/20130207/141854/2425/265/10/
046940/20130207/141921/2425/143/10/
046940/20130207/141928/2425/800/10/
046940/20130207/142044/2425/137/10/
046940/20130207/142044/2420/1769/10/
046940/20130207/142044/2420/560/20/
046940/20130207/142213/2430/2000/20/
046940/20130207/142233/2430/2000/20/
046940/20130207/142405/2420/279/10/
046940/20130207/142737/2430/101/20/
046940/20130207/142825/2435/1010/20/
046940/20130207/142825/2435/441/20/
046940/20130207/143035/2435/714/10/
046940/20130207/143116/2430/1694/10/
046940/20130207/143116/2430/596/20/
046940/20130207/143258/2430/500/10/
046940/20130207/143451/2440/108/20/
046940/20130207/143511/2440/800/20/
046940/20130207/143543/2440/1000/20/
046940/20130207/143553/2445/100/20/
046940/20130207/143639/2445/502/20/
046940/20130207/143854/2445/327/20/
046940/20130207/143854/2450/473/20/
046940/20130207/144019/2450/946/20/
046940/20130207/144106/2450/1512/20/
046940/20130207/144134/2450/1000/20/
046940/20130207/144136/2450/696/20/
046940/20130207/144158/2445/200/10/
046940/20130207/144158/2450/164/20/
046940/20130207/144212/2445/501/10/
046940/20130207/144216/2445/300/10/
046940/20130207/144225/2450/1993/20/
046940/20130207/144239/2455/600/20/
046940/20130207/144309/2450/137/20/
046940/20130207/144332/2450/600/20/
046940/20130207/144336/2450/99/20/
046940/20130207/144337/2450/180/20/
046940/20130207/144339/2450/284/20/
046940/20130207/144340/2450/736/10/
046940/20130207/144349/2450/344/20/
046940/20130207/144420/2450/550/20/
046940/20130207/144437/2450/300/20/
046940/20130207/144444/2450/150/20/
046940/20130207/144451/2450/300/10/
046940/20130207/144501/2450/550/10/
046940/20130207/144511/2450/490/10/
046940/20130207/144527/2455/693/20/
046940/20130207/144530/2455/663/20/
046940/20130207/144532/2455/257/20/
046940/20130207/144535/2460/122/20/
046940/20130207/144540/2460/500/20/
046940/20130207/144541/2460/500/20/
046940/20130207/144543/2460/380/20/
046940/20130207/144543/2465/620/20/
046940/20130207/144547/2465/788/20/
046940/20130207/144557/2470/760/20/
046940/20130207/144558/2470/649/20/
046940/20130207/144604/2465/522/10/
046940/20130207/144605/2465/1500/10/
046940/20130207/144607/2465/950/10/
046940/20130207/144609/2465/600/10/
046940/20130207/144624/2470/140/20/
046940/20130207/144637/2465/560/10/
046940/20130207/144645/2465/1403/20/
046940/20130207/144648/2465/122/10/
046940/20130207/144654/2465/139/10/
046940/20130207/144656/2460/881/20/
046940/20130207/144656/2470/119/20/
046940/20130207/144710/2465/1103/20/
046940/20130207/144710/2470/297/20/
046940/20130207/144742/2455/550/10/
046940/20130207/144801/2460/350/20/
046940/20130207/144816/2465/2050/20/
046940/20130207/144819/2465/123/20/
046940/20130207/144837/2470/4030/20/
046940/20130207/144839/2470/402/20/
046940/20130207/144851/2475/200/20/
046940/20130207/144909/2475/110/20/
046940/20130207/144921/2475/930/20/
046940/20130207/144923/2480/1083/20/
046940/20130207/144930/2475/1500/10/
046940/20130207/144931/2480/115/20/
046940/20130207/144933/2475/100/10/
046940/20130207/144935/2475/147/10/
046940/20130207/144936/2475/100/10/
046940/20130207/144941/2475/112/10/
046940/20130207/144955/2480/1921/20/
046940/20130207/144959/2480/520/20/
046940/20130207/150000/2505/39104/10/
